[
{"reviews_count": "50", "title": "12 Angry Men", "avg_audience_rating": "4.2", "rotten_count": "0", "tomatometer": "100", "audience_score": "97", "avg_critic_rating": "  9", "fresh_count": "50", "user_ratings_count": "104,599"},
{"text": "This movie is a masterpiece. That term gets thrown around a lot -- it's a very easy thing to say about great films like this -- but this movie is one of the best. This is one of the very few films that I will call perfect.", "is_fresh": 1, "author": ["Chris Stuckmann"]},
{"text": "In the 60 years since its release, Sidney Lumet's masterpiece has lost none of its impact. In this age of unreason, 12 Angry Men remains sorely and urgently contemporary.", "is_fresh": 1, "author": ["Christopher Machell"]},
{"text": "With each new viewing I come away feelings as if I have peeled away another layer on the characters and their buried motives.", "is_fresh": 1, "author": ["David Keyes"]},
{"text": "Lumet in his first film records it as a meticulous laboratory experiment, a clammy orchestra", "is_fresh": 1, "author": ["Fernando F. Croce"]},
{"text": "...the film has aged surprisingly well in the years since its 1957 release. ", "is_fresh": 1, "author": ["David Nusair"]},
{"text": "There is real value is how it allows each member of the cultural mosaic of a jury to develop into distinct, damaged, and interesting characters", "is_fresh": 1, "author": ["Dan Jardine"]},
{"text": "Too few films take on the art of arguing as a subject; we could certainly use more of them, but until then, Lumet's window into strained civic duty will continue to serve mightily.", "is_fresh": 1, "author": ["Joshua Rothkopf"]},
{"text": "The film takes a confined, almost completely banal real-world location and makes it completely dynamic, using incredibly nimble camera movements to establish character motivation and theme. ", "is_fresh": 1, "author": ["Glenn Heath Jr."]},
{"text": "The cast is incredible, the writing superb, and the film is unparalleled in its sheer excellence.", "is_fresh": 1, "author": ["Felix Vasquez Jr."]},
{"text": "This was Sidney Lumet's first movie and it's as riveting as it was back in the late 50s, when everything was changing.", "is_fresh": 1, "author": ["Eric Melin"]},
{"text": "an incisive and gripping film", "is_fresh": 1, "author": ["James Kendrick"]},
{"text": "Lumet keeps things tense, sweaty, suspenseful and entertaining despite the contrived story line.", "is_fresh": 1, "author": ["Dennis Schwartz"]},
{"text": "Outstanding Henry Fonda jury classic.", "is_fresh": 1, "author": ["M. Faust"]},
{"text": "A brilliant courtroom drama whose strength lies within the power of Rose's words and Sidney Lumet's great direction (his debut). ", "is_fresh": 1, "author": ["Matthew Pejkovic"]},
{"text": "12 Angry Men has some shrewd observations to sell about argumentation and group behavior, but they're not the ones of which the film seems most proud.", "is_fresh": 1, "author": ["Nick Davis"]},
{"text": "taut, well-crafted sociological study", "is_fresh": 1, "author": ["Dan Jardine"]},
{"text": "Not much action, lots of words, great cinema.", "is_fresh": 1, "author": []},
{"text": "The film leaves a tremendous impact.", "is_fresh": 1, "author": ["Variety Staff"]},
{"text": "Every bit the classic it's been made out to be for all these years.", "is_fresh": 1, "author": ["Christopher Null"]},
{"text": "Power house jury room drama w/cast of memorable actors.", "is_fresh": 1, "author": ["Steve Crum"]},
{"text": "Makes no self-saluting motions to greater importance, which gives the material the much-desired breathing room it needs to reach full potency.", "is_fresh": 1, "author": ["Rob Humanick"]},
{"text": "Mechanically written, but within its own middlebrow limitations, it delivers the goods.", "is_fresh": 1, "author": ["Jonathan Rosenbaum"]},
{"text": "A strangely realistic thriller.", "is_fresh": 1, "author": ["Geoff Andrew"]},
{"text": "Sidney Lumet's feature directing debut is a brilliant courtroom drama, with a superlative cast that includes Henry Fonda, Martin Balsam, Ed Begley, Jack Warden, and E.G. Marshall.", "is_fresh": 1, "author": ["Emanuel Levy"]},
{"text": "A masterful work of debate and dialogue; of shifting momentum and the ideal of sticking to your scruples in the face of antagonistic groupthink.", "is_fresh": 1, "author": ["Phil Villarreal"]},
{"text": "This film is a great combination of an adult theme and the treatment suitable for younger audience.", "is_fresh": 1, "author": ["Mark R. Leeper"]},
{"text": "Ainda que se passe em um \u00fanico ambiente, esta obra-prima possui um alcance emocional imensur\u00e1vel - e \u00e9 incr\u00edvel que tenha sido o primeiro longa-metragem de Lumet.", "is_fresh": 1, "author": ["Pablo Villa\u00e7a"]},
{"text": "One-room dramas don't get much better than this", "is_fresh": 1, "author": ["Jon Niccum"]},
{"text": "Although it may sound ungallant, these 12 Angry Men, are all right without distaff glamour. Their dramas are powerful and provocative enough to keep a viewer spellbound.", "is_fresh": 1, "author": ["A.H. Weiler"]},
{"text": "An intense concentration of power, and my all-time favourite film.", "is_fresh": 1, "author": ["Ian Waldron-Mantgani"]},
{"text": "Sidney Lumet's debut feels a bit stagy but is never short on tension.", "is_fresh": 1, "author": ["Dan Lybarger"]},
{"text": "This is a film where tension comes from personality conflict, dialogue and body language, not action.", "is_fresh": 1, "author": ["Roger Ebert"]},
{"text": "Pure dynamite in movie form.", "is_fresh": 1, "author": ["Scott Weinberg"]},
{"text": "12 Angry Men (1957) is the gripping, penetrating, and engrossing examination of a diverse group of twelve jurors - all male, mostly middle-aged, white, and", "is_fresh": 1, "author": ["Tim Dirks"]},
{"text": "12 Angry Men ranks as the tautest courtroom drama you'll ever see, surpassing Lumet's very good 1982 drama, The Verdict.", "is_fresh": 1, "author": ["John A. Nesbit"]},
{"text": "Cinema heresy that worked.", "is_fresh": 1, "author": []},
{"text": "While the composition of juries might change over time, the issues and attitudes that are explored here are timeless, as is this classic film.", "is_fresh": 1, "author": ["Brian Webster"]},
{"text": "Thoroughly engaging, there is nothing dated or corny in Reginald Rose's intensely knowing screenplay and Lumet's energetic direction.", "is_fresh": 1, "author": ["Ian Nathan"]},
{"text": "A film with texture, humour and relevance at all times. All in 91 minutes.", "is_fresh": 1, "author": ["Urban Cinefile Critics"]},
{"text": "In a time of bloated when special effects have become the real stars, going back to a classic like this can remind viewers what movie making is supposed to be about -- acting.", "is_fresh": 1, "author": ["Steve Rhodes"]},
{"text": "Completely deserved its high status of undisputed classic.", "is_fresh": 1, "author": ["Dragan Antulov"]},
{"text": "", "is_fresh": 1, "author": ["Cole Smithey"]},
{"text": "", "is_fresh": 1, "author": ["Daniel M. Kimmel"]},
{"text": "", "is_fresh": 1, "author": ["Carol Cling"]},
{"text": "", "is_fresh": 1, "author": ["Laura Clifford"]},
{"text": "", "is_fresh": 1, "author": ["Nicolas Lacroix"]},
{"text": "", "is_fresh": 1, "author": ["Nell Minow"]},
{"text": "", "is_fresh": 1, "author": ["Rob Vaux"]},
{"text": "", "is_fresh": 1, "author": ["John J. Puccio"]},
{"text": "", "is_fresh": 1, "author": ["Marty Mapes"]}
]