[
{"reviews_count": "213", "title": "8 Mile", "avg_audience_rating": "3.1", "rotten_count": "52", "tomatometer": "76", "audience_score": "54", "avg_critic_rating": "6.7", "fresh_count": "161", "user_ratings_count": "32,167,688"},
{"text": "What (partially) saves this movie is the rap battle...why didn't they give us more rap?", "is_fresh": 0, "author": ["Justin Brown"]},
{"text": "A lot of the themes and language in the movie haven't aged well...the soundtrack is amazing, though.", "is_fresh": 0, "author": ["Brandon Collins"]},
{"text": "To be admired rather than enjoyed, but a considerable achievement nonetheless.", "is_fresh": 1, "author": ["Leigh Paatsch"]},
{"text": "Outside the rap slams, either the acting or the persona is a bit joyless. ", "is_fresh": 0, "author": ["Mark Steyn"]},
{"text": "The best review I can give a drama or an actor: When the film ends you still believe the character lives on.", "is_fresh": 1, "author": ["Joel Siegel"]},
{"text": "While not exactly wow, Eminem is solid and credible in a role which could so easily have screeched like chalk across a wet blackboard.", "is_fresh": 1, "author": ["Barbara Ellen"]},
{"text": "A refreshing way to build a story that is ghoulishly overfamiliar in nearly all its particulars.", "is_fresh": 1, "author": ["Tim Brayton"]},
{"text": "It's easy to like Jimmy Smith as well as to admire him, because Mr. Mathers lets us in, with no sign of calculation, on the kindness, even tenderness, that Jimmy conceals from most of the people around him.", "is_fresh": 1, "author": ["Joe Morgenstern"]},
{"text": "In the tradition of Rocky and Fever, the movie is a shrewdly engineered piece of proletarian pop -- a story of triumph -- but, like Eminem's enraged lyrics, 8 Mile has its own kind of vile candor.", "is_fresh": 1, "author": ["David Denby"]},
{"text": "In addition to showcasing Mathers, 8 Mile makes a case for rap as a creative rebel yell.", "is_fresh": 1, "author": ["Jami Bernard"]},
{"text": "What saves all this from being purely conventional is the filmmaker's keen sense of Rabbit's essential solitude as an artist, even when surrounded by friends.", "is_fresh": 1, "author": ["John Powers"]},
{"text": "The story of 8 Mile isn't far removed from Eminem's own self-mythologized life -- a Jerry Springer-style saga out of Detroit -- but the unslakable anger is gone.", "is_fresh": 0, "author": ["Tom Gliatto"]},
{"text": "Director Curtis Hanson puts a new spin on the familiar \"triumph against the odds\" theme with this slick showcase for the talents of superstar rapper Eminem.", "is_fresh": 1, "author": ["Adam Smith"]},
{"text": "It ain't Eminem: The Movie but it does showcase Eminem: The Actor -- easily the best rapper-cum-thesp since Tupac Shakur.", "is_fresh": 1, "author": []},
{"text": "8 Mile wins because it doesn't try to impress you with mega-stars and made-up stories. Instead, it tells a simple story of trial, error and triumph.", "is_fresh": 1, "author": ["Khary Kimani Turner"]},
{"text": "Since his ascension to pop-culture royalty, Eminem has transformed the messy emotions of his life into musical black comedy. In 8 Mile, that life becomes an equally riveting drama.", "is_fresh": 1, "author": ["Nathan Rabin"]},
{"text": "Despite the predictable formula, screenwriter Scott Silver wisely avoids taking the easy route every time; there are several small twists you may not expect, and the ending isn't entirely a happy one.", "is_fresh": 1, "author": ["Christy Lemire"]},
{"text": "Because it rejects easy victories, this may be one of the few inspirational movies that could actually inspire someone, somewhere, sometime.", "is_fresh": 1, "author": ["Richard Schickel"]},
{"text": "The movie has some of the braggadocio of its white-trash hero, building to its competitive climax as if it were a gladiatorial sporting event, and it carried me all the way.", "is_fresh": 1, "author": ["Jonathan Rosenbaum"]},
{"text": "While no masterpiece, it is infinitely superior to the sad movie debuts of Britney Spears and Mariah Carey.", "is_fresh": 1, "author": ["Philip French"]},
{"text": "Another fine effort from a director currently on a critical roll. Hanson is great at teasing the audience with little samples of his star's lyrical dexterity as he builds towards the finale.", "is_fresh": 1, "author": []},
{"text": "Eminem's edgy, graphic quasi-biopic is not for kids.", "is_fresh": 1, "author": ["Nell Minow"]},
{"text": "I was able to guess what would happen to most of the characters most of the time and come through perfectly.", "is_fresh": 0, "author": ["Felix Vasquez Jr."]},
{"text": "As unlikely as an insightful and riveting film about a poor white Detroit kid succeeding beyond his surroundings through Rap music might be, \"8 Mile\" is that gloriously gritty movie.", "is_fresh": 1, "author": ["Cole Smithey"]},
{"text": "... Rocky with a rap beat ....", "is_fresh": 0, "author": ["Felix Gonzalez Jr."]},
{"text": "You can't stop him or crop him/He's in widescreen and large/He ain't playing when he's baggin' Curtis Hanson for Sarge... [Blu-ray]", "is_fresh": 1, "author": ["Peter Canavese"]},
{"text": "Ends on a high note, but it doesn't negate the tedium of the number of false and mostly flat ones that precede it.", "is_fresh": 0, "author": ["Michael Dequina"]},
{"text": "Eminem is quietly effective without ever displaying much emotion. It's a commendable film debut and he never falls into the vanity trap that many artists find when transferring their talents from the music stage to the screen.", "is_fresh": 1, "author": ["Urban Cinefile Critics"]},
{"text": "At its best, 8 Mile illuminates the culture out of which rap springs, at once an art form, provocation and survival mechanism.", "is_fresh": 1, "author": ["David Ansen"]},
{"text": "The film is really no more than a two-hour prelude to a climax in which our hero ... rhythmically tells people off.", "is_fresh": 0, "author": ["Rob Gonsalves"]},
{"text": "It is more just a pleasure to watch Eminem perform. He is fiercely talented and has a natural charisma; the camera loves him. But, like most of the story, we knew that before we saw the film. ", "is_fresh": 0, "author": ["Joe Lozito"]},
{"text": "When the climactic rap battle takes place, it's one of the most mesmerizing scenes from all of 2002.", "is_fresh": 1, "author": ["Jeffrey M. Anderson"]},
{"text": "A hesitant presence whose vulnerability pulls you in, Eminem emerges as a mainstream movie star and effectively lays to rest the spooks of Slim Shady: impressionable parents will love this eminently responsible film.", "is_fresh": 1, "author": []},
{"text": "The movie doesn't feel authentic and I think it's because of all the white folks involved.", "is_fresh": 0, "author": ["Jordan Hiller"]},
{"text": "Like his wizardly lyrics, Eminem's performance and his film have unexpected depth.", "is_fresh": 1, "author": ["Colin Covert"]},
{"text": "Eminem does a credible roughed-up urban ghetto impression of James Dean", "is_fresh": 1, "author": ["Dan Jardine"]},
{"text": "Hanson's enthusiastic participation in the project is bewildering given how pedestrian the story is: poor, white kid keeps getting beaten down before a final showdown...", "is_fresh": 0, "author": ["Daniel M. Kimmel"]},
{"text": "The whole film . . . coasts from colourless family melodramas to wacky-kid-hijinks. . . . 8 Mile is an uninteresting shell of a movie.", "is_fresh": 0, "author": ["Brian Gibson"]},
{"text": "Regardless of the hype, 8 Mile is a classic underdog tale with real bark.", "is_fresh": 1, "author": ["Jay Richardson"]},
{"text": "This Eminem melts in your hand and not in your mouth.", "is_fresh": 0, "author": ["Shawn Bowers"]},
{"text": "Com sua estupenda atua\u00e7\u00e3o neste filme, Eminem poderia facilmente buscar uma carreira no cinema.", "is_fresh": 1, "author": ["Pablo Villa\u00e7a"]},
{"text": "Take away the napalm spread of profanity, impromptu scenes of steamy sex and the myriad joints that get smoked, and 8 Mile is basically a Disney sports movie with rap as the athletics of choice.", "is_fresh": 1, "author": ["Nick Rogers"]},
{"text": "Following L.A. Confidential and Wonder Boys, this makes a remarkable hat-trick for Hanson and is a personal triumph for Eminem.", "is_fresh": 1, "author": ["Colin Kennedy"]},
{"text": "8 Mile is an entertaining film that will please all.", "is_fresh": 1, "author": ["Wilson Morales"]},
{"text": "I've been curious about \"the Eminem movie\" for months. And while I have gotten the chance to see 8 Mile, little of my pondering has been quenched; Eminem remains an enigma.", "is_fresh": 1, "author": ["Ryan Cracknell"]},
{"text": "Better than average rags-to-riches story, but expect to get pinched for a special edition DVD later.", "is_fresh": 1, "author": ["Mark Robison"]},
{"text": "Una buena pelcula, un ms que digno debut actoral para una estrella de rap, y una estupenda banda sonora. Nada mal, eh?", "is_fresh": 1, "author": ["Enrique Buchichio"]},
{"text": "If not strictly autobiography, the movie is close enough to Eminem's story that he knows how this character feels. If this turns out to be the only role he ever plays -- which I doubt -- he can be happy that he played it to the limit.", "is_fresh": 1, "author": ["Paul Byrnes"]},
{"text": "Despite the weak story, Hanson commands a strong performance from Eminem and showcases both the rapper's newfound acting abilities and his musical talent.", "is_fresh": 1, "author": ["Guylaine Cadorette"]},
{"text": "Una producci\u00f3n es interesante en m\u00e1s de un sentido. Buen debut de Eminem.", "is_fresh": 1, "author": ["Luis Martinez"]},
{"text": "Director Hanson skillfully creates the oppressive nature of urban poverty with the dirt, grit, and darkness that remains prevalent throughout...", "is_fresh": 1, "author": ["John R. McEwen"]},
{"text": "8 Mile may have corniness in its bones, but there are ambiguities enough here for a whole other movie.", "is_fresh": 1, "author": ["Ryan Gilbey"]},
{"text": "There are brawls enough to provide the flavor of how life in the darker reaches of Motown can be.", "is_fresh": 1, "author": ["Nigam Nuggehalli"]},
{"text": "Eminem summons things from deep inside himself to shed away ego and portray a calm, frustrated, worried kid who doesn't even talk too much.", "is_fresh": 1, "author": ["Ian Waldron-Mantgani"]},
{"text": "For a pop star vehicle, it certainly ranks among the better ones and Eminem does have a strong screen presence. Unlike Purple Rain, this movie will probably hold up 18 years from now.", "is_fresh": 1, "author": ["Collin Souter"]},
{"text": "The problem is Eminem himself, who has clearly been drilled by the director to play to what will have to pass as strengths: stillness, cool, control.", "is_fresh": 0, "author": ["Peter Bradshaw"]},
{"text": "It's a movie that showcases director Curtis Hanson working at the very height of his craft, but only to break even.", "is_fresh": 1, "author": ["Blake Davis"]},
{"text": "Who could have predicted that a rap movie starring Eminem would, at its best, be one of the year's sweetest joyrides?", "is_fresh": 1, "author": ["Peter Rainer"]},
{"text": "What screamed a ridiculous idea or vanity project when you first read or head about it is the exact opposite - a well thought out and realised film which never thinks too much of itself.", "is_fresh": 1, "author": ["Harry Guerin"]},
{"text": "Eminem's skill still lies in turning an inventive phrase: filled with characters who lack depth, his film debut falls victim to its own modesty and is often insubstantial and boring.", "is_fresh": 0, "author": ["Andrew Manning"]},
{"text": "Eminem is such a commanding visual presence, diversely eloquent of patience, ire, and weariness, that his silent poses and solitary interludes become many of the film's most effective scenes.", "is_fresh": 1, "author": ["Nick Davis"]},
{"text": "Everything that happens feels inevitable, achingly obvious -- the abuse, the betrayals, the arguments, the reconciliations, the tiny defeats, the bigger victories.", "is_fresh": 0, "author": ["Robert Wilonsky"]},
{"text": "The script is uninspired, the picture's characters are stick figures, its dialogue is lackluster and the star's performance seldom rises above the adequate.", "is_fresh": 0, "author": ["Rick Kisonak"]},
{"text": "There's no power fantasies here, no ego trips or fairy tale stories about a loser made good. In this case, the persona serves the story, not the other way around.", "is_fresh": 1, "author": ["Rob Vaux"]},
{"text": "The story is all right: The picture's real excellence is its portrait of the society in which it takes place.", "is_fresh": 1, "author": ["Stanley Kauffmann"]},
{"text": "It has been over 25 years since Aretha demanded R-E-S-P-E-C-T from her man and Marvin declared 'war is not the answer.' Are we to consider our journey down the '8 Mile' road progress?", "is_fresh": 0, "author": ["Bruce Bennett"]},
{"text": "A solidly built, rather old-fashioned yarn about a plucky underdog who triumphs in the face of adversity.", "is_fresh": 1, "author": ["Nev Pierce"]},
{"text": "Eminem manages to take all that we think we know about Eminem and inject it into his character without turning the character into a simple screen version of himself.", "is_fresh": 1, "author": ["James Kendrick"]},
{"text": "Extremely enjoyable film, with a winning performance from Eminem -- essentially this is the Hip-Hop version of Rocky. In a good way.", "is_fresh": 1, "author": ["Matthew Turner"]},
{"text": "I have to go back to James Dean in Elia Kazan's East of Eden and Nicholas Ray's Rebel Without a Cause in 1955 to find a comparably jolting piece of male aggressiveness coupled with bottled-up vulnerability.", "is_fresh": 1, "author": ["Andrew Sarris"]},
{"text": "That the final rap battle feels so electrifying rather than merely coming across as the usual rah-rah climax taps directly into the energy emanating from Eminem as he gives his character a real presence.", "is_fresh": 1, "author": ["Matt Brunson"]},
{"text": "Not since Rocky brought Silvester Stallone to virtually instant stardom has there been a more effective attempt to repeat the phenomenon.", "is_fresh": 1, "author": ["Jules Brenner"]},
{"text": "Eminem gives a focused, intelligent performance.", "is_fresh": 1, "author": ["Kim Linekin"]},
{"text": "Eminem proves himself on the big screen with this extremely well-made film loosely based on his own life in innercity Detroit.", "is_fresh": 1, "author": ["Rich Cline"]},
{"text": "The unique format of the motion picture shows how valuable it can be, for what else can be used to so vividly capture the most important element in a story like this -- its cultural setting?", "is_fresh": 1, "author": ["Jeffrey Chen"]},
{"text": "It's disappointing, sort of like if Madonna had released her \"Sex\" book without the sex.", "is_fresh": 0, "author": ["Christopher Smith"]},
{"text": "Even [Eminem's] most devoted admirers likely will be surprised by his ability to keenly render and compellingly sustain a character throughout a feature-length film.", "is_fresh": 1, "author": ["Joe Leydon"]},
{"text": "If this movie had been directed by someone other than Curtis Hanson; I'm talking some nobody shmoe or some flashy music video director, critics would have dismissed this as just another singer-turned-actor star vehicle with no more depth than a shot glass", "is_fresh": 0, "author": ["Erik Childress"]},
{"text": "Em's lowdown, dirty diatribe may sound like treason, but you might discover that his rhyme is the reason.", "is_fresh": 1, "author": ["John Urbancich"]},
{"text": "First Adam Sandler's in an art film. Now Eminem's in a \"sports\" movie...go figure.", "is_fresh": 1, "author": ["Linda Cook"]},
{"text": "However you view it, it's a story that's been told before. And yet, it works.", "is_fresh": 1, "author": ["Marty Mapes"]},
{"text": "If you took the 'f' word in its various permutations, 'yo,' 'man,' 'dawg,' 'word' and the phrase 'my bad' out of Curtis Hanson's 8 Mile, you'd have a silent movie -- and that might be an improvement.", "is_fresh": 0, "author": ["Ken Hanke"]},
{"text": "A decent, American, inspirational, Rocky-esque story.", "is_fresh": 1, "author": ["JoBlo"]},
{"text": "Eminem's compelling, assured, workaholic performance lifts \"8 Mile\" above its standard fare convictions.", "is_fresh": 1, "author": ["David N. Butterworth"]},
{"text": "8 Mile stands as a deeply flawed excursion harbouring a couple of deep satisfactions.", "is_fresh": 1, "author": ["Mark Palermo"]},
{"text": "8 Mile\" becomes tedious and tiresome in the first hour.", "is_fresh": 0, "author": ["Tony Toscano"]},
{"text": "The sex scene between Jimmy (Eminem) and Alex (Brittany Murphy of \"Riding in Cars With Boys\") is hot enough to melt the gum under the seats of any theater.", "is_fresh": 1, "author": ["Robert Roten"]},
{"text": "Eminem himself comes fully to life only during his raps -- which the film unwisely confines to the last 20 minutes.", "is_fresh": 0, "author": ["Jim Lane"]},
{"text": "8 Mile probably won't win converts to rap, but it should thrill Eminem fans, so thumbs up.", "is_fresh": 1, "author": ["Richard Roeper"]},
{"text": "If Eminem is a genius then Tiny Tim must be God.", "is_fresh": 0, "author": ["Dennis Schwartz"]},
{"text": "A powerful film that shows us the frustration and desperation of an entire emotionally neglected sub-class, its bravura 'rap battles' offering up the strongest prima facie connection between hip-hop's chest-thumping and adolescence's shoe-gazing.", "is_fresh": 1, "author": ["Brent Simon"]},
{"text": "8 Mile is a great musical but as an inspirational drama it's trouble. Given that it revolves around a world where \"keeping it real\" is a permanent motto, it is, ironically enough, suspiciously phoney.", "is_fresh": 0, "author": ["Nathaniel Rogers"]},
{"text": "Eminem plays a guy named \"Rabbit,\" and he doesn't get any respect. Maybe going by the name \"Rabbit\" isn't the route to respect, yo.", "is_fresh": 1, "author": ["Mark Ramsey"]},
{"text": "About 3 miles to long and if you've seen Purple Rain, American Anthem, Rocky, Saturday Night Fever and to an extent Coyote Ugly and Glitter, you've seen 8 Mile.", "is_fresh": 1, "author": ["Kamal 'The Diva' Larsuel"]},
{"text": "Then there are the rap sequences where Eminem displays an energy close to unrivaled by any performance this year. In these scenes, he and the film show what they're really made of.", "is_fresh": 1, "author": ["Mark Dujsik"]},
{"text": "8 Mile has an authentic feel that transcends the phenomenon of Eminem; this is a realistic story about a guy trying to use music to escape a dead-end life.", "is_fresh": 1, "author": ["Mike McGranaghan"]},
{"text": "We've seen these character types before, but through the lens of Curtis Hanson, we suffer, carouse and dream right along with them.", "is_fresh": 1, "author": ["Jonathan R. Perry"]},
{"text": "A brilliant, engaging examination of people who dream of escape.", "is_fresh": 1, "author": ["David Cornelius"]},
{"text": "If the part is not much of a mental or emotional stretch for him, [Eminem] acquits himself well enough for me to want to see him in other films.", "is_fresh": 1, "author": ["Michael W. Phillips, Jr."]},
{"text": "Even a rapper needs to punch things up a bit, and 8 Mile, for all its hip-hop braggadocio, is a pretty weak riff.", "is_fresh": 0, "author": ["Marc Savlov"]},
{"text": "Fittingly, avid Eminen enthusiasts and other targeted moviegoers will gleefully run this 8 Mile race and enjoy the antics of a misunderstood foul-mouthed rapping icon with layers of complexity", "is_fresh": 1, "author": ["Frank Ochieng"]},
{"text": "Believe it or not folks, this is the feel good movie of the year!", "is_fresh": 1, "author": ["Emily Blunt"]},
{"text": "Can Eminem act? Yes, I am happy to report.", "is_fresh": 1, "author": ["Jimmy O"]},
{"text": "In many ways, the movie is just one big clich\u00e9, but Hanson's style gives it more weight and heft than it might otherwise have.", "is_fresh": 1, "author": ["James Berardinelli"]},
{"text": "Curtis Hanson knew exactly what he was doing when he made 8 Mile.", "is_fresh": 1, "author": ["Joshua Tyler"]},
{"text": "8 Mile is a movie about youth and race and sex and growth that has no respect for youth, has a disturbing undercurrent of hatred for Blacks, thinks all women are whores and for which growth is as simple as not being too afraid to let your voice out.", "is_fresh": 0, "author": ["David Poland"]},
{"text": "Rabbit's story is galvanizing and Eminem is a superstar. But hiphop has more and other stories to tell.", "is_fresh": 0, "author": ["Cynthia Fuchs"]},
{"text": "Who wastes time watching Tiger Woods/When real action comes from the boyz in the hoods?", "is_fresh": 1, "author": ["Harvey S. Karten"]},
{"text": "There is a quietude to the film, even though it is punctuated by a lot of music and even more yelling. Its mood is soft and even humble.", "is_fresh": 1, "author": ["Eric D. Snider"]},
{"text": "There are a lot of stale -- and nefarious -- clich\u00e9s in 8 Mile (Universal), but most of the time they're overwhelmed by the pulsing, grinding, hopped-up camerawork and the soulful star turn of Eminem.", "is_fresh": 1, "author": ["David Edelstein"]},
{"text": "A movie that will capture the attention of anyone who remembers what it was like when music was a crucial component of their daily existence.", "is_fresh": 1, "author": ["Marshall Fine"]},
{"text": "8 Mile isn't about race or hip-hop as much as it is about making a valuable commodity more palatable to a mainstream audience.", "is_fresh": 0, "author": ["Daniel Eagan"]},
{"text": "Certainly the best first film ever by a musician crossing over to the acting world.", "is_fresh": 1, "author": ["Jamie Gillies"]},
{"text": "So paper thin that the former 'king of controversy' was able to cram the entire plot into one little crossover rap song that's currently playing at a radio station near you.", "is_fresh": 0, "author": ["Alex Sandell"]},
{"text": "Packs as much humor, hard truth and vitality as the rapper's LPs.", "is_fresh": 1, "author": ["Kevin N. Laforest"]},
{"text": "A by-the-numbers storyline, complete with character actions that don't make a lick of sense because of how underdeveloped they are.", "is_fresh": 0, "author": ["Dustin Putman"]},
{"text": "[Eminem] does a lot of things right. So does the movie.", "is_fresh": 1, "author": ["Desson Thomson"]},
{"text": "The payoff comes after an hour and a half of a long, criminally tiresome setup.", "is_fresh": 0, "author": ["Ann Hornaday"]},
{"text": "Eminem steals the picture from a cast with snap down to the smallest parts.", "is_fresh": 1, "author": ["Mike Clark"]},
{"text": "8 Mile proves to be a bumpy, but entertaining ride.", "is_fresh": 1, "author": ["Gary Brown"]},
{"text": "What's most disappointing is the thoroughly cliched story.", "is_fresh": 0, "author": ["Maitland McDonagh"]},
{"text": "Underwhelming.", "is_fresh": 0, "author": ["Peter Howell"]},
{"text": "Eminem, much to the dismay of his detractors, turns in a rather fine performance in 8 Mile, a flawed film that still manages to make a powerful point.", "is_fresh": 1, "author": ["Chris Hewitt (St. Paul)"]},
{"text": "Both in film and music, he tantalizes us with autobiographical detail while dazzling us with wit, grit, insight, profane humor and mind-boggling wordplay.", "is_fresh": 1, "author": ["Todd Anthony"]},
{"text": "The triumph here is that Hanson and screenwriter Scott Silver have found a fresh way to tell this story.", "is_fresh": 1, "author": ["Moira MacDonald"]},
{"text": "Funny, well-acted and surprisingly engaging.", "is_fresh": 1, "author": ["Jim Judy"]},
{"text": "Unfortunately, 8 Mile does waste a lot of time dawdling over just about everything else ... until it finally begins to sputter at about the 6 mile mark.", "is_fresh": 0, "author": ["Bruce Newman"]},
{"text": "8 Mile does everything it's designed to do.", "is_fresh": 1, "author": ["William Arnold"]},
{"text": "Can Eminem act? Who knows? But his star turn in 8 Mile, as an aspiring rapper growing up poor and white in Motown, is memorable -- even if we've seen it all before.", "is_fresh": 1, "author": ["Stephanie Zacharek"]},
{"text": "Is Eminem a movie star? Only when he raps.", "is_fresh": 0, "author": ["Michael Sragow"]},
{"text": "Pop-music biopics have a great history, but 8 Mile is for Eminem fans only.", "is_fresh": 0, "author": ["David Sterritt"]},
{"text": "[8 Mile is] more funny than foul, more inspiring than infuriating, more touching than not. In many ways, 8 Mile is a Rocky-like tale of determination and long odds that will appeal even to those who are turned off by most rap.", "is_fresh": 1, "author": ["Jonathan Curiel"]},
{"text": "Thanks to Eminem and the rising rap momentum, 8 Mile is engrossing.", "is_fresh": 1, "author": ["David Elliott"]},
{"text": "The film is emotionally charged, almost naturally so, with Hanson's direction stressing the pop rapture that music can provide in a world that's dirty and ugly.", "is_fresh": 1, "author": ["Joe Baltake"]},
{"text": "Eminem delivers a performance of considerable passion and depth.", "is_fresh": 1, "author": ["Jack Garner"]},
{"text": "8 Mile is not much in the story department. Its Star is Born framework is reassuring at the expense of being original, and the movie lacks narrative drive.", "is_fresh": 0, "author": ["Gary Thompson"]},
{"text": "8 Mile is worth a look if only to watch Eminem on the big screen. Even when a film's a bit lame, it's always fun to be there when a star is being born.", "is_fresh": 1, "author": ["Jay Boyar"]},
{"text": "Essentially a downtrodden-teen -makes-good film ... That's not a bad thing, but it's nothing to rap home about, either.", "is_fresh": 0, "author": ["Shawn Levy"]},
{"text": "8 Mile is among the best studio films of the year 2002.", "is_fresh": 1, "author": ["John Anderson"]},
{"text": "What makes 8 Mile transcend the formulaic nature of its plot is the way it makes these rap competitions compelling even for those unfamiliar with rap music, and its scrupulous, loving rendition of a grim, wintry Detroit circa 1995.", "is_fresh": 1, "author": ["Jonathan Foreman"]},
{"text": "For all its grit, 8 Mile ends up radiating a joyful, hopeful vibe. It's an old-school charmer.", "is_fresh": 1, "author": ["Rene Rodriguez"]},
{"text": "8 Mile has the pop star of the moment, Eminem, and a hip-hop soundtrack that's as current as it is contagious, but, at its core, the movie's spirit is as old-school as it comes.", "is_fresh": 1, "author": ["Glenn Whipp"]},
{"text": "Merely a solid, conventional drama, because it ultimately loses sight of one very important fact: Eminem is at his best when he's making people angry, not when he's asking for their sympathy.", "is_fresh": 1, "author": ["Loey Lockerby"]},
{"text": "It's raw, it's intense and it's very engrossing.", "is_fresh": 1, "author": ["Liz Braun"]},
{"text": "[Eminem] goes the mile demanded of him and he emerges a certified winner this time out.", "is_fresh": 1, "author": ["Louis B. Hobson"]},
{"text": "8 Mile is entertaining to an extent. Our enjoyment is muted because the movie has an agenda.", "is_fresh": 1, "author": ["Eric Harrison"]},
{"text": "Some movies, a very few, possess the purity of myth, and they don't have to be great to be greatly important. The Wild One is an example; Saturday Night Fever is another. Now add 8 Mile to that short list.", "is_fresh": 1, "author": ["Rick Groen"]},
{"text": "8 Mile goes the distance, and it proves that not every musician turned actor goes down a road paved with Glitter.", "is_fresh": 1, "author": []},
{"text": "Like the recently released 'Welcome to Collinwood' from Cleveland's Russo brothers, Curtis Hanson's '8 Mile' brings affection and honesty in equal measure to its tale of impoverished middle-Americans determined to get a better life -- on their own terms.", "is_fresh": 1, "author": ["Susan Stark"]},
{"text": "Say what you will about him as a person, but as a performing artist Marshall Mathers (a k a Eminem) has talent to spare. And one more thing -- his acting's not too bad, either.", "is_fresh": 1, "author": ["Jeff Vice"]},
{"text": "Making the city look grimy and lonely, dark and wasted but still alive with people who care, the film gets you rooting for the guys who want to make 'Mo' (short for Motown) a major player.", "is_fresh": 1, "author": ["Steven Rosen"]},
{"text": "While it's doubtful that Eminem could run out and perform Shakespeare tomorrow, his talents on screen -- in this role -- are astounding.", "is_fresh": 1, "author": ["Paul Clinton (CNN.com)"]},
{"text": "We are hardly started in 8 Mile, and already we see that this movie stands aside from routine debut films by pop stars ... Like Prince's Purple Rain, it is the real thing.", "is_fresh": 1, "author": ["Roger Ebert"]},
{"text": "Uneven but watchable.", "is_fresh": 1, "author": ["Lawrence Toppman"]},
{"text": "8 Mile continues the director's visual tour of America's underbelly that heated up with L.A. Confidential and continued with the Pittsburgh of Wonder Boys.", "is_fresh": 1, "author": ["Wesley Morris"]},
{"text": "Book-ended by two pivotal and compelling sequences, 8 Mile, like its star, is best when it focuses on the music.", "is_fresh": 1, "author": ["Rachel Deahl"]},
{"text": "Rapper Eminem's film debut is far better than you'd think -- and a pure demonstration of the power of charisma.", "is_fresh": 1, "author": ["James Rocchi"]},
{"text": "It's 8 Miles of bad road, I'm sorry to say, even for fans of Eminem's music -- we are left \"doing time\" waiting for his \"wicked rhymes\" till well beyond the point of patience.", "is_fresh": 0, "author": ["Staci Layne Wilson"]},
{"text": "After just a few years in the spotlight, Eminem has accomplished something Elvis, Madonna, Michael and Mariah have not: He's made a great movie.", "is_fresh": 1, "author": ["Jon Niccum"]},
{"text": "Is it worth a look? Sure. Is it begging to be parodied? Without a doubt...somebody alert the Wayans.", "is_fresh": 1, "author": ["John Venable"]},
{"text": "the Profane One's performance in 8 Mile is more Britney than Brando. As with Ms. Belly Button in the vapid Crossroads, Eminem plays himself, albeit a cleaned-up, deep-thinking, saintlike version.", "is_fresh": 0, "author": ["Bill Muller"]},
{"text": "Say what you want about Eminem, but the guy has passion and a gift with words - the finale at the battle simply rocks the house.", "is_fresh": 1, "author": ["Cherryl Dawson and Leigh Ann Palone"]},
{"text": "Elegant and tough, unpretentiously directed by Curtis Hanson, it doesn't for a second pander to what is supposed to be the star's target audience.", "is_fresh": 1, "author": ["Eugene Novikov"]},
{"text": "Eminem wipes away his hubris, revealing a trembling, self-doubting kid on the way up.", "is_fresh": 1, "author": ["Phil Villarreal"]},
{"text": "[Nothing] more than an Elvis film, except there's a lot more sex and violence than Blue Hawaii and the music video sequences feature creative profanity instead of surfboards.", "is_fresh": 0, "author": ["MaryAnn Johanson"]},
{"text": "On it's own, \"8 Mile\" is a slightly above average mixture of \"Good Will Hunting\" drama, \"Rocky\" sports suspense and \"Purple Rain'\" musical moments. On a slightly deeper level, it plays as a White fantasy about Black acceptance and how talent being colorbl", "is_fresh": 1, "author": ["James Hill"]},
{"text": "All this hoopla about Eminem's so great, is it any more of a stretch than Prince in \"Purple Rain\" or Babs in \"A Star is Born\" or Woody in any movie where he's having an affair with a younger woman?", "is_fresh": 0, "author": ["Michael Szymanski"]},
{"text": "The movie is a success on its own terms because the director doesn't condescend to pop music.", "is_fresh": 1, "author": ["Elvis Mitchell"]},
{"text": "8 Mile should satisfy Eminem's legion of fans and, at the same time, affirms rap's power as an artform, as real beat poetry, for the uninitiated -- and even for the actively resistant.", "is_fresh": 1, "author": ["Steven Rea"]},
{"text": "Reactions to 8 Mile may be tempered by predispositions for or against the rapper, but the film cannot be faulted for lack of trying and may seduce skeptics with its energy and tone.", "is_fresh": 1, "author": ["Duane Dudek"]},
{"text": "A fascinating, surprisingly entertaining stand-off that has adroitly managed to satisfy both of its constituencies, allowing all sides to legitimately claim victory.", "is_fresh": 1, "author": ["Kenneth Turan"]},
{"text": "The climactic 20 minutes or so represent the most electrifying depiction of rap that the multiplex is likely to see, a torrent of word-slinging packed with atmosphere and ribald drama.", "is_fresh": 1, "author": ["Chris Vognar"]},
{"text": "Eminem comes across as very genuine. It is his charisma, and his music, that make 8 Mile worth seeing.", "is_fresh": 1, "author": ["Mary F. Pols"]},
{"text": "If Juice gave you an appreciation for spinning vinyl, 8 Mile will put you in awe of the art of rhyme.", "is_fresh": 1, "author": ["Tor Thorsen"]},
{"text": "What saves all this from being purely conventional is the filmmaker's keen sense of Rabbit's essential solitude as an artist, even when surrounded by friends.", "is_fresh": 1, "author": ["John Powers"]},
{"text": "What's pretty amazing here is that Hanson has managed to take Scott Silver's lameass script and mediocre acting and turn it into something special.", "is_fresh": 1, "author": ["Eric Lurio"]},
{"text": "Backed by a smart story that avoids easy answers and pat endings, the rapper may be in line for some real acting recognition.", "is_fresh": 1, "author": ["Dan Fazio"]},
{"text": "Set in Detroit's 8 Mile, the dividing line between the city limits and the northern suburbs, 8 Mile is an exciting, well-crafted movie, loaded with urban atmosphere.", "is_fresh": 1, "author": ["Michael Wilmington"]},
{"text": "As music star movie debuts go, 8 Mile is hardly A Hard Days Night, but it's not Crossroads, either.", "is_fresh": 0, "author": ["Eleanor Ringel Cater"]},
{"text": "You have to question the time and care you want to invest in a character whose goal is to excel at insults", "is_fresh": 0, "author": ["Jeffrey Westhoff"]},
{"text": "The way this movie is made, the way this story is told, this is what is meant by the phrase \"keepin' it real.\"", "is_fresh": 1, "author": ["Rob Blackwelder"]},
{"text": "Middle-aged folks may not be attracted to the film's rap base but the built in youth demographic will love it.", "is_fresh": 1, "author": ["Robin Clifford"]},
{"text": "Basically recycles all the old, tired cliches that abound in every story about the rise to stardom of poor but talented youngsters who overcome terrible obstacles in their drive to succeed.", "is_fresh": 0, "author": ["Frank Swietek"]},
{"text": "This movie is all about the dingy glamour of self-pitying rage.", "is_fresh": 1, "author": ["Audrey Rock-Richardson"]},
{"text": "Wounded and enigmatic, Eminem is a worthy focus.", "is_fresh": 1, "author": ["Jeanne Aufmuth"]},
{"text": "`8 Mile'...doesn't justify the hateful violence in Eminem's lyrics, but it does help you understand where that rage comes from.", "is_fresh": 1, "author": ["Josh Larsen"]},
{"text": "Even if...your idea of (w)rapping has more to do with leftover bologna than improvisational street slang, 8 Mile still goes the distance.", "is_fresh": 1, "author": ["Spyder Darling"]},
{"text": "In the singers-who-can't-act sweepstakes, Britney Spears (Crossroads) is still on top, edging out Eminem, who is about on par with Mariah Carey (Glitter).", "is_fresh": 0, "author": ["Steve Rhodes"]},
{"text": "As the center of the movie's universe, Eminem is seriously lacking any sort of gravity that can hold the pieces together. It's no wonder, then, that 8 Mile falls apart.", "is_fresh": 0, "author": ["Jeremy Heilman"]},
{"text": "Eminem is magnetic playing a version of himself.", "is_fresh": 1, "author": ["Todd McCarthy"]},
{"text": "Eminem proves capable of carrying the lead, at least when the material is tailored to fit. Rather than show great range in his first outing, he gives an effective slow burn.", "is_fresh": 1, "author": ["Laura Clifford"]},
{"text": "Qualifies as a cinematic event by tapping into the roots of Eminem and the fury and feeling that inform his rap.", "is_fresh": 1, "author": ["Peter Travers"]},
{"text": "O.K., so I'm the wrong audience for this teenage junk.", "is_fresh": 0, "author": ["Rex Reed"]},
{"text": "Gritty and electrifying.", "is_fresh": 1, "author": ["Owen Gleiberman"]},
{"text": "A movie that will satisfy hip-hop and Eminem fans in ways they never expected; even more significantly, it will touch people who thought they hated hip-hop and/or Eminem in ways they would have never expected.", "is_fresh": 1, "author": ["Terry Lawson"]},
{"text": "Tony Manero, Rocky Balboa, Eminem. It's a dazzling debut and an important movie.", "is_fresh": 1, "author": ["Victoria Alexander"]},
{"text": "The dialogue sometimes gets so silly and redundant when trying to push Bunny Rabbit's talent that I expected to see Waterboy's Rob Schneider pop out and shout \"You can do it Eminem\".", "is_fresh": 1, "author": ["Danny Minton"]},
{"text": "Eminem kept his cool, and his new movie was straight dope.", "is_fresh": 1, "author": ["Sean O'Connell"]},
{"text": "Some Eminem worshippers may be slightly disappointed to find that '8 Mile' doesn't make full use of his verbal vitriol until late in the game. The payoff, however, is definitely worth the wait.", "is_fresh": 1, "author": ["James Sanford"]},
{"text": "Effective, if not more than a little dishonest. Think Blue Crush with swear words.", "is_fresh": 1, "author": ["Sean Burns"]},
{"text": "By its crowd-pleasing finale, 8 Mile is well on its way to becoming redundant at best and facile at worst.", "is_fresh": 0, "author": ["Walter Chaw"]},
{"text": "As a vanity project, the film is more tolerable than Purple Rain but it's every bit as obvious and redundant.", "is_fresh": 0, "author": ["Ed Gonzalez"]},
{"text": "Eminem's performance as the struggling actor is very impressive.", "is_fresh": 1, "author": ["Mirko Parlevliet"]},
{"text": "A canny, and largely successful, attempt to broaden the star's appeal.", "is_fresh": 1, "author": ["J. Hoberman"]},
{"text": "Writer Scott Silver and director Curtis Hanson dig deep into the subculture to deliver a terrific movie.", "is_fresh": 1, "author": ["Kirk Honeycutt"]},
{"text": "I would imagine most of the exaggerated praise Mile has received is in direct correlation to the stupid pictures most rap-rock-pop stars have made in vain attempts to become movie stars.", "is_fresh": 1, "author": ["Jon Popick"]},
{"text": "The pleasant surprise of 8 Mile is that, despite the conventional structure of Scott Silver's script, Curtis Hanson hasn't made a film about Rabbit transcending his underclass roots, but embracing them instead.", "is_fresh": 1, "author": ["Kevin Courrier"]},
{"text": "Eminem gives a sincere, heartfelt, genuine performance as rapper Jimmy Smith (Rabbit) in the Detroit hood.", "is_fresh": 1, "author": ["Ross Anthony"]},
{"text": "", "is_fresh": 1, "author": ["Steven Snyder"]},
{"text": "", "is_fresh": 0, "author": ["Jeffrey Overstreet"]},
{"text": "", "is_fresh": 1, "author": ["Terri Clark"]},
{"text": "", "is_fresh": 1, "author": ["Susan Granger"]},
{"text": "", "is_fresh": 1, "author": ["Brian Orndorf"]}
]