[
{"reviews_count": "421", "title": "A Star Is Born", "avg_audience_rating": "4.2", "rotten_count": "42", "tomatometer": "90", "audience_score": "83", "avg_critic_rating": "8.1", "fresh_count": "379", "user_ratings_count": "13,186"},
{"text": "\"The dramatic structure is identical: we are witnesses of the birth of a star and the tragic decline of another...\"", "is_fresh": 0, "author": ["Ernesto Diezmartinez"]},
{"text": "I really enjoyed this otherwise standard musical for the most part because of the fine performances by Lady Gaga, Cooper, Elliot, Gavron and Dave Chappelle. It is enjoyable despite the fact that the story is painfully clich\u00e9d.", "is_fresh": 1, "author": ["Robert Roten"]},
{"text": "The chemistry between Bradley Cooper and Lady Gaga is striking; throughout he is mesmerising, she is a joy. Though this is a story told very much from Jackson Maine's point of view.", "is_fresh": 1, "author": ["Sarah Cartland"]},
{"text": "The soundtrack is thoughtful, emotional, and difficult to imagine being brought to life by anybody other than Gaga and her diverse vocal talent, which feels right at home on the big screen.", "is_fresh": 1, "author": ["Joe Passmore"]},
{"text": "Gaga and Cooper really click with the emotional elements of the material and bring a lot of energy to the very simple and familiar story.", "is_fresh": 1, "author": ["Aaron Leggo"]},
{"text": "It does what every good remake should do: it tells the same story as before, but narrated from a different and fresher perspective. [Full review in Spanish]", "is_fresh": 1, "author": ["Sebastian Zavala Kahn"]},
{"text": "I wanted to see her side, internally, where that relationship was going as she was getting catapulted to fame...I would definitely tell you to go download this soundtrack.", "is_fresh": 1, "author": ["Sharronda Williams"]},
{"text": "Transposed into the era of sudden fame and instant shame, the film glistens as a cautionary tale about self-respect, self-delusion and self-destruction...what is especially admirable is the film's fidelity to the original's heart-breaking final reel.", "is_fresh": 1, "author": ["Jim Schembri"]},
{"text": "Lady Gaga gets her screen cred and Bradley Cooper chalks up his first directorial achievement. Otherwise, it's a wasteland out there.", "is_fresh": 0, "author": ["Ron Wilkinson"]},
{"text": "A Star is Born is a musical but without the hokiness. Each performance moves the story forward, with Cooper focused on capturing authentic moments. ", "is_fresh": 1, "author": ["Eli Glasner"]},
{"text": "Lady Gaga's singing talents are majestically showcased in this familiar but nevertheless moving film, an amazing directorial debut for Bradley Cooper", "is_fresh": 1, "author": ["J. Don Birnam"]},
{"text": "No matter what goes on in the film dramatically, everything always comes together because the soundtrack is happening, it's just happening, as I heard someone say in the Magic Johnson Harlem theater.", "is_fresh": 1, "author": ["Darryl Pinckney"]},
{"text": "A Star is Born howls in its first half.", "is_fresh": 1, "author": ["Matt Oakes"]},
{"text": "Bradley Cooper makes a stunning directorial debut with A Star Is Born, an emotionally devastating rollercoaster of a journey that exhilarates as much as it devastates.", "is_fresh": 1, "author": ["Rob Carnevale"]},
{"text": "Cooper has created the definitive version of A Star Is Born, a visually dynamic spectacle that surpasses the limitations of the musical genre.", "is_fresh": 1, "author": ["Matt Ward"]},
{"text": "[The ending] will weigh on you the same way it weighs on the characters. That's a powerful testament to both Cooper's treatment of the material as it is the performances ...", "is_fresh": 1, "author": ["Douglas Davidson"]},
{"text": "A Star is Born highlights the absolute best of what cinema and music can offer - an uplifting and sometimes heartbreaking experience that will not soon be forgotten.", "is_fresh": 1, "author": ["Kent Garrison"]},
{"text": "Cooper has landed a masterpiece on his first go. You could say, a star is born.", "is_fresh": 1, "author": ["Cameron Frew"]},
{"text": "It's almost as though the film itself has gone self-aware and wants to jump ahead into its own meta-readings about how Bradley Cooper turned Lady Gaga into a movie star", "is_fresh": 1, "author": ["Bob Chipman"]},
{"text": "All Cooper and Gaga do is repeat a self-congratulatory Hollywood motto about artists \"having something to say.\" Now is the wrong time for that.", "is_fresh": 0, "author": ["Armond White"]},
{"text": "Excellent acting and direction enables A Star is Born to rise above its somewhat prosaic dramatic structure to fashion surely one of the better Hollywood films of the year.", "is_fresh": 1, "author": ["PJ Nabarro"]},
{"text": "Cooper managed to make Gaga's star shine even brighter. She's basically her own solar system now. Sign me up for the sequel: A Universe Is Born.", "is_fresh": 1, "author": ["Kerensa Cadenas"]},
{"text": "In its new incarnation, A Star Is Born presents a beautifully told and hugely affecting love story.", "is_fresh": 1, "author": ["Linda Marric"]},
{"text": "With the power of its music and its two leads (plus some nice support), A Star Is Born is a worthy retread of a well-worn path.", "is_fresh": 1, "author": ["Matt Neal"]},
{"text": "A Star is Born has been retold so many times because it's a great story, and this updated version is surefire hit with its iconic pop star in the lead and a whirlwind romance undone by fame and addiction.", "is_fresh": 1, "author": ["Sean Mulvihill"]},
{"text": "...this new iteration on a classic theme is akin to the pop music it both celebrates and critiques: it's insanely likable....", "is_fresh": 1, "author": ["Joel Mayward"]},
{"text": "If I have any nits to pick it's that there is too much music and it's too long. But so what? It's really good. Go see it.", "is_fresh": 1, "author": ["Diane Pershing"]},
{"text": "As much as we might like to poke fun at the idea of \"visionary director Bradley Cooper,\" it's important to recognize when we, the cynics, have been proven wrong.", "is_fresh": 1, "author": ["Clint Worthington"]},
{"text": "A Star is Born foregrounds all of the ways Jackson and Ally are enamored with each other, the intimacy that enhanced their bond and the affection that inspired their songs.", "is_fresh": 1, "author": ["Roxana Hadadi"]},
{"text": "Every man here with a story is cloaked in some kind of misery.", "is_fresh": 1, "author": ["Chris Barsanti"]},
{"text": "Starring Lady Gaga like you've never seen her before, A Star is Born is a wonderful remake of the 1937 classic of a timeless love story but with a 2018 modern twist.", "is_fresh": 1, "author": ["Morgan Rojas"]},
{"text": "Gaga's performance is outstanding and is deserving of all the praise she's been receiving. That being said, I do wish that Allie was given as much depth and attention as Jackson.", "is_fresh": 1, "author": ["Ferdosa Abdi"]},
{"text": "The chemistry between Cooper and Gaga's characters is almost supernatural. [Full review in Spanish]", "is_fresh": 1, "author": ["Xavi S\u00e1nchez Pons"]},
{"text": "Hollywood has been churning out remakes and reboots at breakneck speed, but A Star Is Born is in a class of its own.", "is_fresh": 1, "author": ["Yolanda Machado"]},
{"text": "It offers what it offers: romance and good music. [Full review in Spanish]", "is_fresh": 1, "author": ["Carlos D\u00edaz Reyes"]},
{"text": "A thoroughly entertaining redo, with excellent work by Lady Gaga and Bradley Cooper (behind the camera as well as in front of it).", "is_fresh": 1, "author": ["David N. Butterworth"]},
{"text": "It's perfectly comfortable cranking up its emotions and firing them directly into your face.", "is_fresh": 1, "author": ["Tim Brennan"]},
{"text": "Bradley Cooper's modern reworking is passable enough to keep you entertained. ", "is_fresh": 1, "author": ["Amelia Navascues"]},
{"text": "The marriage becomes a battle between artifice and authenticity, an allegory for the popular music industry.", "is_fresh": 1, "author": ["John McDonald"]},
{"text": "A familiar story with enough new twists and turns to keep it fresh, \"A Star Is Born\" is a triumph.", "is_fresh": 1, "author": ["Michael A. Smith"]},
{"text": "A stripped-down version that is raw and intimate, with a pair of knockout performances from Cooper and Lady Gaga.", "is_fresh": 1, "author": ["Micheal Compton"]},
{"text": "In one scene, in which Ally (Gaga) is dragged on stage to sing at a stadium concert, the churn of emotions crossing her face is simply astonishing and so very, very real.", "is_fresh": 1, "author": ["Tim Martain"]},
{"text": "A Star Is Born works because it takes an old formula and builds it up into an emotionally charged story of love and loss. It'll tug at your heartstrings while simultaneously lifting you up with energetic tunes and tour-de-force performances. ", "is_fresh": 1, "author": ["Hannah Hoolihan"]},
{"text": "Cooper's debut behind the camera is impressive in his mastery of space. [Full review in Spanish]", "is_fresh": 1, "author": ["Daniel de Partearroyo"]},
{"text": "An overlong, weirdly old-fashioned and somewhat toothless epic saved from silliness by, of course, Lady Gaga, who belts out songs co-written and usually co-performed by Cooper with all the drama and fire that the surrounding story rather lacks.", "is_fresh": 1, "author": ["David 'Mad Dog' Bradley"]},
{"text": "If Star is drawing the curtain on the self-destructive cowboy figure and is a love letter to a new generation of starlets, it's almost there but not quite at the drop of a hat. ", "is_fresh": 1, "author": ["Damien Straker"]},
{"text": "From top to bottom A Star is Born is a success, the rare remake that proves not only that it has more to say about its subject but that there is more to say.", "is_fresh": 1, "author": ["Joshua Starnes"]},
{"text": "The new version of A Star Is Born proves that even the most familiar material can be great when done right. ", "is_fresh": 1, "author": ["Abbie Bernstein"]},
{"text": "Lady Gaga long ago out-Madonna'd Madonna; always had more talent as a singer-dancer, with just as much biz chops. However, notoriously, Madonna could never act. Gaga blows Madonna's doors off acting-wise.", "is_fresh": 1, "author": ["Mark Jackson"]},
{"text": "A drama with credible songs in it that elevates an outr\u00e9 personality into a legitimate actress, a vanity project with none of the vanity. ", "is_fresh": 1, "author": ["Alex Doenau"]},
{"text": "Prefers to focus on what great music should be - and how a music career should be run - rather than getting to the heart of what leads to someone to bare their soul through music", "is_fresh": 0, "author": ["Cameron Williams"]},
{"text": "Cooper and Gaga are both fantastic in roles that ask a lot of both of them.", "is_fresh": 1, "author": ["Jack Pooley"]},
{"text": "Cooper manages to conjure up a version of A Star is Born with its own personality. [Full Review in Spanish]", "is_fresh": 1, "author": ["Manu Y\u00e1\u00f1ez"]},
{"text": "Cooper captures those personal demons with confidence without ever leaving aside the charming external facet of the character. [Full Review in Spanish]", "is_fresh": 1, "author": ["Mikel Zorrilla"]},
{"text": "A Star is Born defines Lady Gaga as a film actress, and Cooper as a filmmaker.", "is_fresh": 1, "author": ["Kirk Baird"]},
{"text": "Bradley Cooper wants to make you cry. And if you give him a chance by going to see \"A Star Is Born,\" he's gonna do it.", "is_fresh": 1, "author": ["Charles Ealy"]},
{"text": "Not everything works in Cooper's version of \"A Star Is Born\" But enough does to ensure that this film is, indeed, one of the best releases of 2018. Maybe, even, of this decade.", "is_fresh": 1, "author": ["Dan Webster"]},
{"text": "Somehow, though, the bloat is almost appropriate in a story about excesses, and the devastating pitfalls of fame. \"A Star is Born\" portrays both poignantly, movingly, well.", "is_fresh": 1, "author": ["Randy Myers"]},
{"text": "Cooper has given us a vision of this story to cherish.", "is_fresh": 1, "author": ["Jason Di Rosso"]},
{"text": "The A Star Is Born story construction has worked, again and again, because it's archetypal tragedy - nobody believes there's a happy ending in sight. But Cooper still earned every one of my tears.", "is_fresh": 1, "author": ["April Wolfe"]},
{"text": "It's heartfelt, well-paced, and gut-wrenchingly tragic, with the gorgeous music and two main characters taking centre stage by grabbing hold of the audience's emotion until the very last second.", "is_fresh": 1, "author": ["Heather Gunn"]},
{"text": "This is the first version of A Star is Born in the digital age and in order for this story to work for modern audiences, there had to be plausible dimensions between the fame and the relationship between the leads. [Full Review in Spanish]", "is_fresh": 1, "author": ["Fernanda Sol\u00f3rzano"]},
{"text": "But are we still supposed to celebrate a film that posits the male ego as too fragile to accept a woman who equals or surpasses him? Or that a woman's \"authenticity\" will only truly flower in response to a man's sacrifice?", "is_fresh": 0, "author": ["Graeme Tuckett"]},
{"text": "Crucially, the film never feels inauthentic and the songs remain both organically integrated and highly memorable. Rarely has a film's story benefited so much from its musical elements.", "is_fresh": 1, "author": ["Dominic Corry"]},
{"text": "Lady Gaga has created a delicate, likeable character who serves as the film's emotional barometer in that as her feelings change, so too will those of the audience.", "is_fresh": 1, "author": ["Matthew Toomey"]},
{"text": "While imperfect, A Star Is Born is a satisfying and emotionally evocative epic. If only it had managed to maintain the intoxicating allure of its first hour.", "is_fresh": 1, "author": ["Wenlei Ma"]},
{"text": "It may not be a daringly original piece. But when the end result is this engaging, entertaining, and heartbreaking, it demands to be called one of the year's finest films.", "is_fresh": 1, "author": ["Doug Jamieson"]},
{"text": "The movie's gender dynamics remain fully intact from its 1937 origins. Ally is controlled and manipulated by powerful men from start to finish, and some of the more emotionally abusive scenes can be disturbing to watch.", "is_fresh": 0, "author": ["Li Lai"]},
{"text": "The chemistry shared by Gaga and Cooper - whether on stage during the movie's dynamic live music sequences, or casually swapping lines walking along a street - is at once appealing, involving and concerning.", "is_fresh": 1, "author": ["Leigh Paatsch"]},
{"text": "The vital music scenes are convincing and enjoyably infectious, the romance is beautifully played, and [Cooper] doesn't hold back when the story takes its long-expected turn for the worse. ", "is_fresh": 1, "author": ["Matthew Bond"]},
{"text": "This is a movie to gush over, to see again, to buy the soundtrack to, to urge others to see, to dream about ... Watch it sweep the Oscars, too. I'll be fine with that.", "is_fresh": 1, "author": ["CJ Johnson"]},
{"text": "The very story of A Star is Born is itself a cautionary tale. Interestingly, Hollywood loves this story. The Cooper and Gaga version is the fourth time the tale is told.", "is_fresh": 1, "author": ["Diana Cheng"]},
{"text": "Bradley Cooper delivers a stunning and heartbreaking rendition of the Hollywood musical.", "is_fresh": 1, "author": ["Soumya Srivastava"]},
{"text": "A Star is Born doesn't push any cinematic boundaries. It isn't edgy or provocative. But it's emotionally rich and hugely satisfying.", "is_fresh": 1, "author": ["Anupama Chopra"]},
{"text": "Cooper, who has turned director with the film, extracts commendable performances from everybody in the cast. The life of a musician is caught perfectly.", "is_fresh": 1, "author": ["Devesh Sharma"]},
{"text": "Overall, A Star Is Born is melodrama at its best, an emotional manipulation that works even if you're not normally a sucker for that type of thing. ", "is_fresh": 1, "author": ["Jordan Calhoun"]},
{"text": "It's been recited plenty of times before and, even if it hadn't, follows the predictable beats of so many true stories of waning celebrity. That's not a criticism; it's actually what gives the story emotional heft.", "is_fresh": 1, "author": ["Simon Miraudo"]},
{"text": "If [Cooper] was going for middlebrow musical melodrama in the vein of \"The Rose\" and \"The Bodyguard,\" bullseye.", "is_fresh": 0, "author": ["J. Olson"]},
{"text": "What kept me from appreciating this movie as a whole beyond some very good parts was its inability to practice what it preached and actually say something.", "is_fresh": 0, "author": ["Rich Juzwiak"]},
{"text": "A breath of fresh air. [Full Review in Spanish]", "is_fresh": 1, "author": ["Rafael Rosales Santos"]},
{"text": "But there's undeniable passion, talent and naked humanity onscreen, and for much of its run-time, A Star Is Born is impressively rapturous and romantic.", "is_fresh": 1, "author": ["Roe McDermott"]},
{"text": "Is it worth seeing? Absolutely. They don't make 'em like this anymore.", "is_fresh": 1, "author": ["Sean Collier"]},
{"text": "So much better than the Streisand version. ", "is_fresh": 1, "author": ["Bob Grimm"]},
{"text": "I will add to the chorus of praise for Gaga. She's the film's real MVP-a natural actor of surprising depth and soul.", "is_fresh": 1, "author": ["Aaron Yap"]},
{"text": "Lady Gaga, in her first big-screen performance, acquits herself well in a role that mirrors her real-life self. There's a definite on-screen frisson between her and co-star Bradley Cooper.", "is_fresh": 1, "author": ["Richard James Havis"]},
{"text": "[The ending] was a very romanticized view of what a toxic relationship is, and I wasn't here for it.", "is_fresh": 0, "author": ["Lauren Humphries-Brooks"]},
{"text": "Classic Musical With Magnificent Performances", "is_fresh": 1, "author": ["Diana Saenger"]},
{"text": "The performances are sound. [Full review in Spanish]", "is_fresh": 1, "author": ["Hugo Hern\u00e1ndez Valdivia"]},
{"text": "Some of the best performances of the year...Cooper is going to be a great director if he can continue this kind of filmmaking momentum.", "is_fresh": 1, "author": ["Chris Stuckmann"]},
{"text": "If you're able to forget the stars that have gone before, A Star is Born is a very professional tear-jerker with some very loud music, and for many that will be enough.", "is_fresh": 1, "author": ["David Stratton"]},
{"text": "The star who is being born through this film is its actor-director.", "is_fresh": 1, "author": ["Nandini Ramnath"]},
{"text": "[Director Bradley Cooper] intelligently allows music to exist almost as a character and dedicates whole sequences to musical acts. [Full review in Spanish]", "is_fresh": 1, "author": ["Jorge Iv\u00e1n Morales"]},
{"text": "A Star Is Born is something that's easy to fall in love with but not all too deeply. Not perfect cinema, but maybe that's enough for now. ", "is_fresh": 1, "author": ["Tatat Bunnag"]},
{"text": "This is a not-to-be-missed film and shows that Cooper is a certifiable director, while Gaga shows that acting is not just a fling and solidifies her as a true triple threat. ", "is_fresh": 1, "author": ["Jamal-Dean Grootboom"]},
{"text": "However, after some songs, A Star is Born not only begins to repeat the formula of other films such as La La Land but to repeat itself. [Full review in Spanish]", "is_fresh": 0, "author": ["Daniel Krauze"]},
{"text": "Watch as these two great artists dive in. Oh, the treasures they dig up together. Once the movie lifts off (with this very song) it never meets the ground again.", "is_fresh": 1, "author": ["Nathaniel Rogers"]},
{"text": "The performances from Gaga, Elliott, and Cooper are amazing. This feature shows a lot of promise for a first-time director like Cooper. ", "is_fresh": 1, "author": ["Alan French"]},
{"text": "Lady Gaga is a natural; Ally is talented and cursed with the insecurity that is talent's twin. Her face glows with natural beauty, not manufactured and not afraid of the camera's intrusions. There is chemistry there ...", "is_fresh": 1, "author": ["Andrew L. Urban"]},
{"text": "Electric, compelling and tender, the film is a knockout creatively and emotionally, offering a raw glimpse into today's world of celebrity. ", "is_fresh": 1, "author": ["Louise Keller"]},
{"text": "Cooper's latest remake of A Star is Born has its high points but, in the end, it's disappointing and unnecessary. Let's hope it is the last version.", "is_fresh": 0, "author": ["Loren King"]},
{"text": "What Cooper gets about A Star Is Born is the degree to which it is about the physics of love and work. This may be the only mythic narrative about a two-career marriage. It's a melodrama where every action has an equal and opposite reaction.", "is_fresh": 1, "author": ["Carrie Rickey"]},
{"text": "We don't get genuine character development or insight into the industry or kitschy fun.", "is_fresh": 0, "author": ["Beth Accomando"]},
{"text": "Fused with laugh-out-loud humour, even at the most uncomfortable moments, A Star is Born is driven by a searing authenticity that makes it feel like a biopic.", "is_fresh": 1, "author": ["Marwa Hamad"]},
{"text": "Nearly every moment of A Star Is Born feels real and specific. Often painfully so.", "is_fresh": 1, "author": ["Megan Basham"]},
{"text": "For its first hour-plus, A Star Is Born captures the exhilaration of new love and new creation better than any movie in years.", "is_fresh": 1, "author": ["Margot Harrison"]},
{"text": "While Lady Gaga shines, the problematic narrative makes it clear that it is the unlikable Jackson Maine with whom audiences are supposed to identify.", "is_fresh": 0, "author": ["Kimberly Pierce"]},
{"text": "Well, ladies and gentlemen, this duo makes A Star Is Born a new version that will be considered a classic. [Full review in Spanish]", "is_fresh": 1, "author": ["Pablo A. Scholz"]},
{"text": "What could have been a series of vain decisions... ends up being a deeply moving love story. [Full review in Spanish]", "is_fresh": 1, "author": ["Emmanuel B\u00e1ez"]},
{"text": "Bradley Cooper has something new to say in this version, and Lady Gaga belts it out loud and clear to make this a definite contender in numerous categories during awards season.", "is_fresh": 1, "author": ["Neil Soans"]},
{"text": "You can't be a one-named artist if your name is not something like Beyonce, Rihanna, Prince or Adele. You just can't.", "is_fresh": 0, "author": ["Matt Pais"]},
{"text": "Love story about two musicians finding it difficult to believe in themselves and their unique voices.", "is_fresh": 1, "author": ["Frederic and Mary Ann Brussat"]},
{"text": "One of the best things that this contemporary version of A Star Born does is taking the conventions of the previous incarnations and transforming them into a truly profound experience. [Full Review in Spanish]", "is_fresh": 1, "author": ["Juanma Fern\u00e1ndez Par\u00eds"]},
{"text": "Both leads are fine, albeit one-note, and cinematographer Matthew Libatique supplies some sharp images, but the movie is pervasively musty and false, with some brutally bad songs to boot.", "is_fresh": 0, "author": ["Daniel Barnes"]},
{"text": "... the distraction-free bubble focuses the story on the key players and their emotional motivations to achieve maximum impact... (but) the real villain of this story is human fragility.", "is_fresh": 1, "author": ["Kevin A. Ranson"]},
{"text": "It may be that every generation gets the \"A Star Is Born\" it deserves, though what we did to deserve this one is anyone's guess.", "is_fresh": 1, "author": ["John Anderson"]},
{"text": "The obvious question to ask is 'Why go and see A Star Is Born for the fourth time?' Because, essentially, this film steers the same narrative path from previous installments (almost too closely). The answer is easy: her name is Lady Gaga. ", "is_fresh": 1, "author": ["Nate Adams"]},
{"text": "[It's] a crowd-pleaser and many may not even notice the film cheats them of a more fulfilling ending since it already runs 135 minutes and the soundtrack is a rewarding distraction.", "is_fresh": 1, "author": ["Sarah Gopaul"]},
{"text": "A Star Is Born invites inside the rarest of bubbles and helps us grasp the intense pressure that comes with having to perform. The biggest names often hide the most vulnerable souls.", "is_fresh": 1, "author": ["Christopher Lloyd"]},
{"text": "Cooper's best decision was casting Lady Gaga and himself as the leads.", "is_fresh": 1, "author": ["Greg Maki"]},
{"text": "Cooper conveys the love between both with craft in his directorial debut. But also the fears and miseries that accompany success: Absences, lies and ridicule shift the focus of its predecessors. [Full Review in Spanish]", "is_fresh": 1, "author": ["Rolando Gallego"]},
{"text": "Fuelled by scintillating performances and a stellar soundtrack, A Star Is Born is a magnificent achievement that will capture the hearts of almost everyone that it touches.", "is_fresh": 1, "author": ["Matt Hudson"]},
{"text": "It's well worth seeing and marks Gaga and Cooper as two people who have the talent to overcome fame and endure for the long haul. ", "is_fresh": 1, "author": ["Carl Kozlowski"]},
{"text": "At its huge, pulsating heart this is a story about lovers desperately trying to save one another - from the loss of integrity in an industry that disdains it and from self-destructive impulses with roots too old and deep to be touched.", "is_fresh": 1, "author": ["Matthew Norman "]},
{"text": "This is the best film of the year.", "is_fresh": 1, "author": ["Joey Magidson"]},
{"text": "Lady Gaga shines brightly, while Bradley Cooper is phenomenal. Superior to all previous versions. [Full review in Spanish]", "is_fresh": 1, "author": ["Fico Cangiano"]},
{"text": "Cooper simmers with swagger before Gaga's vocal force boils the cauldron over, taking everything to another level.", "is_fresh": 1, "author": ["Don Shanahan"]},
{"text": "Bradly Cooper and Lady Gaga electrify the screen. Backed by a first-rate supporting cast and well-written songs, this is by far the best version of the timeless classic.", "is_fresh": 1, "author": ["Joe Friar"]},
{"text": "Bradley Cooper and Lady Gaga sing loud in one of the year's best films.", "is_fresh": 1, "author": ["Matt Rodriguez"]},
{"text": "It may be a fourth version of this time honored showbiz saga but Bradley Cooper and Lady Gaga make 'A Star Is Born' all their own- and that's a very good thing.", "is_fresh": 1, "author": ["Pete Hammond"]},
{"text": "Co-written by Cooper, who also helped write some of the film's music, the script doesn't exactly bubble with wit but it doesn't have to. What matters is that it gives both leads the chance to charm one another - and us. ", "is_fresh": 1, "author": ["Sandra Hall"]},
{"text": "As Ally Campana, a gem in the rough, Lady Gaga is dynamite.", "is_fresh": 1, "author": ["Diane Carson"]},
{"text": "This update is less anguished, has better songs and, even at 135 minutes, is actually shorter than the last two.", "is_fresh": 1, "author": ["Ken Eisner"]},
{"text": "When [Lady Gaga] starts singing, grab your tissues and hold onto your seat.", "is_fresh": 1, "author": ["Martin Thomas"]},
{"text": "I heard that it was [Cooper] singing but I didn't want to believe it... ain't no way God gave everybody all that.", "is_fresh": 1, "author": ["Korey Coleman"]},
{"text": "Not only has [Cooper] made something old new again, he's reinvented it and improved upon it. It's a passion project that shoots for the stars and is likely to strike Oscar gold.", "is_fresh": 1, "author": ["Tom Meek"]},
{"text": "It's like settling into the cinematic equivalent of a Lexus 450. The picture is big and lush and smooth.", "is_fresh": 1, "author": ["Eleanor Ringel Cater"]},
{"text": "...the juggling act that all remakes strive for, but few manage to capture. Encore!", "is_fresh": 1, "author": ["Cain Noble-Davies"]},
{"text": "This is a relationship that I cared about, and that's rare. ", "is_fresh": 1, "author": ["Tony Baker"]},
{"text": "An exhilarating, bittersweet romance...", "is_fresh": 1, "author": ["Susan Granger"]},
{"text": "[Cooper's] talent for writing and directing has been hiding in plain sight. After this five-star treat of a picture, consider the secret out.", "is_fresh": 1, "author": ["Alison Rowat"]},
{"text": "A Star Is Born may not reinvent the wheel in terms of cinematic art, but it's a knockout in just about every other way that matters: it has heart and soul, great chemistry between its leads and some killer musical numbers.", "is_fresh": 1, "author": ["Tom Shone"]},
{"text": "Cooper's directorial debut [proves] that he has what it takes to write, act, direct, and even sing, but even more important, he knows how to assemble the right cast of characters to create a beautiful story worth re-telling for the 4th (or 5th) time.", "is_fresh": 1, "author": ["Pamela Powell"]},
{"text": "Bradley Cooper crushes it... He's a great comedic actor, a great dramatic actor. And he's great in this movie -- also a great director. ", "is_fresh": 1, "author": ["Jeremy Jahns"]},
{"text": "Sturdy, old-fashioned... Gaga's powerhouse voice is one of the film's key assets... Packs an emotional wallop by focusing on these two faces and voices.", "is_fresh": 1, "author": ["Eric D. Snider"]},
{"text": "The problem is whenever Cooper turns the film away from his best asset (Gaga) and into a vanity production. ", "is_fresh": 0, "author": ["Gary M. Kramer"]},
{"text": "It's a film that simply works with a simple plot and entertains with action scenes and effects. [Full review in Spanish]", "is_fresh": 1, "author": ["Abigail Camarillo"]},
{"text": "A Star is Born, perhaps, is a less \"rosy\" version of La La Land. [Full review in Spanish]", "is_fresh": 1, "author": ["Mauricio Nava"]},
{"text": "Bradley Cooper's 2018 rendition of A Star Is Born manages the impossible: bringing this seemingly old-fashioned story about fame into the present while retaining its classical, timeless appeal.", "is_fresh": 1, "author": ["Alison Herman"]},
{"text": "What Cooper persuasively depicts is the fear factor of stardom-the sense of vulnerability, of a position that's both powerful and fragile.", "is_fresh": 1, "author": ["Richard Brody"]},
{"text": "A Star Is Born is entertaining, gut-wrenching, and exceptional; with spectacular performances and a top-notch soundtrack, this rock-musical becomes an instant classic.", "is_fresh": 1, "author": ["Lauren Bradshaw"]},
{"text": "Expect nominations all around, with actor/writer/director/producer and songwriter Cooper on the verge of a boatload, maybe even for contributing to an eclectic, sure-to-be-soaring soundtrack.", "is_fresh": 1, "author": ["John Urbancich"]},
{"text": "Cooper finds a new voice too, as a director. The actor understands how to stage a scene (as well as stage a literal stage-the concert scenes are stunning) in ways that, like the acting, feel instinctive.", "is_fresh": 1, "author": ["Adam Epstein"]},
{"text": "I'm usually the first to ask, \"Do we really need another reboot?\" But in the case of this spectacular cinematic event, the answer is a passionate \"Yes! Yes! Oh YES!\"", "is_fresh": 1, "author": ["Lisa Johnson Mandell"]},
{"text": "If you're entering the theatre simply desiring a couple solid musical numbers, then your $15 will not have been spent in vain. Unfortunately, outside of its music, the movie falls flat as only a two-dimensional vignette of common misogyny can.", "is_fresh": 0, "author": ["Kim Selling"]},
{"text": "As deep and resonant as Bradley Cooper's drawl, and as bright as Lady Gaga's screen future.", "is_fresh": 1, "author": ["Mark Kermode"]},
{"text": "It has weight and depth, and that, as Cooper seems to intuitively understand, adds heft to the story's melodramatic complications. ", "is_fresh": 1, "author": ["Ed Whitfield"]},
{"text": "The directing debut for the actor Bradley Cooper is a good one.", "is_fresh": 1, "author": ["Dennis Schwartz"]},
{"text": "Gaga is good but Bradley Cooper is definitely the star of \"A Star Is Born\". Also worthy of strong praise are Sam Elliott and Andrew Dice Clay.", "is_fresh": 1, "author": ["Jackie K. Cooper"]},
{"text": "It's a mindful distraction that's positively transparent in its intentions and so free of irony that it suggests something almost pathologically indifferent to criticism.", "is_fresh": 1, "author": ["Daniel Nava"]},
{"text": "Cooper obviously overlooks a potential jackpot in a co-star eager to prove she's not just another poker face. Despite those restraints, she's ultimately his savior, displaying enough moxie and heart to engage, even when the movie fails to match the hype .", "is_fresh": 1, "author": ["Al Alexander"]},
{"text": "The best compliment I can give the new version of A Star is Born is that I didn't mind it. The harshest word is \"forgettable.", "is_fresh": 0, "author": ["Leonard Maltin"]},
{"text": "A Star Is Born demonstrates that good stories never die; they just patiently rest as filmmakers figure out how to bring back their sparkle.", "is_fresh": 1, "author": ["Matt Brunson"]},
{"text": "Can a contrived and shallow love story remain afloat on charisma alone? Not in this case.", "is_fresh": 0, "author": ["Avi Offer"]},
{"text": "A Star Is Born... delivers a sprawling relationship drama that fully captures a realistic picture of love. ", "is_fresh": 1, "author": ["Mike Reyes"]},
{"text": "A Star Is Born is part slog, part hymn.", "is_fresh": 1, "author": ["Tony Macklin"]},
{"text": "Cooper has borrowed [from the 1976 Barbra Streisand verson] the rock 'n' roll backdrop and pedestrian dialogue and, in some ways, its 1970s setting.", "is_fresh": 0, "author": ["Kent Turner"]},
{"text": "Undeniably, \"A Star is Born\" shines due to the realistic chemistry between Bradley Cooper and Lady Gaga. This Oscar worthy film delivers on all fronts!", "is_fresh": 1, "author": ["Sarah Knight Adamson"]},
{"text": "The actors' performances are often raw and improvisatory, like something out of a 1970s movie.", "is_fresh": 1, "author": ["Noel Murray"]},
{"text": "This movie has everything: a swept-off-your-feet romantic fantasy, an underdog-makes-good journey, a wrenching substance abuse drama, and an industry cautionary tale combined.", "is_fresh": 1, "author": ["Alison Willmore"]},
{"text": "A sometimes exhilarating, occasionally frustrating, and always cunning Hollywood product that can feel like a battle of wills between two deliberately self-deprecating artists.", "is_fresh": 1, "author": ["Michael Koresky"]},
{"text": "\"A Star is Born\" never sacrifices the conviction of its earliest moments, which so smartly connect these characters as artists and humans while also upholding the sanctity of their individual journeys. ", "is_fresh": 1, "author": ["Robert Levin"]},
{"text": "Melodrama gets a bad rap sometimes.", "is_fresh": 1, "author": ["Linda Holmes"]},
{"text": "Despite its long history and many incarnations, Cooper manages to bring something that feels authentic and new to the table with his iteration of this classic film story.", "is_fresh": 1, "author": ["Kt Schaefer"]},
{"text": "it's not a particularly great or profound movie, but it's a hugely enjoyable one, with so many amazing scenes that it hardly matters whether they add up to anything.", "is_fresh": 1, "author": ["Jeffrey M. Anderson"]},
{"text": "A Star Is Born is one journey with so many emotions working in perfect harmony that should not be missed.", "is_fresh": 1, "author": ["Liam Hanlon"]},
{"text": "It could win Best Picture, and I wouldn't complain if it did.", "is_fresh": 1, "author": ["Mark Ellis"]},
{"text": "Everything that it does, it does really well...a slow burn, the length really didn't bother me...", "is_fresh": 1, "author": ["Steph Cozza"]},
{"text": "Bradley Cooper directs this movie like he's doing just what he is, conducting and playing first chair at the same time, Gaga is a force of nature. She's a revelation in this movie of course, but [Cooper] also knows how to play directly into her strengths.", "is_fresh": 1, "author": ["Roth Cornet"]},
{"text": "A Star Is Born tells a story many of us already know. The magic comes from the fact that we utterly forget we know it and become absorbed all over again. ", "is_fresh": 1, "author": ["Mike McGranaghan"]},
{"text": "Mark A Star is Born as the film that crowns Lady Gaga as a powerful and winning screen presence, and Bradley Cooper as a first-rate director and born-again movie star.", "is_fresh": 1, "author": ["Stephen Rebello"]},
{"text": "Germanotta is not Falconetti, but oh, that face in close-up, it is canvas, flesh, odalisque: Matthew Libatique's nimble camera rightfully worships Lady Gaga. She is nothing less than a marvel.", "is_fresh": 1, "author": ["Ray Pride"]},
{"text": "Powerful and moving and thought-provoking stuff in an old-fashioned Hollywood romance with a sensational soundtrack featuring two of the year's breakout performances.", "is_fresh": 1, "author": ["Annlee Ellingson"]},
{"text": "The duo have decent chemistry together, it must be said, but it becomes less believable as the film progresses. ", "is_fresh": 0, "author": ["Piers Marchant"]},
{"text": "Cooper delivers a weightless version of the story. [Full review in Spanish]", "is_fresh": 0, "author": ["Miguel Mu\u00f1oz Garnica"]},
{"text": "One can't help being impressed by Cooper's achievement here, making this chestnut of a story feel fresh and vital.", "is_fresh": 1, "author": ["Randall King"]},
{"text": "Soulful, honest and heart-breaking.", "is_fresh": 1, "author": ["Ross Miller"]},
{"text": "A big crowd pleaser with genuine thrills, even if second half flags. ", "is_fresh": 1, "author": ["James Verniere"]},
{"text": "Bradley Cooper's A Star is Born is a transcendent feast for the eyes and ears.", "is_fresh": 1, "author": ["Millicent Thomas"]},
{"text": "Gaga's role might not seem like much of a stretch. But the best parts of her performance are during the first half of the movie when she's playing against type, convincing the spellbound audience that she is not an internationally recognizable pop idol...", "is_fresh": 1, "author": ["Lindsay Zoladz"]},
{"text": "A Star Is Born is the living embodiment of going for it, one of the least humble, least self-conscious, least self-aware movies in recent memory-and maybe one of the best. ", "is_fresh": 1, "author": ["Sean Fennessey"]},
{"text": "My impeccable taste and preferences aside, you should check it out for yourself.", "is_fresh": 1, "author": ["Barry Paris"]},
{"text": "It's essentially multiplex-friendly porn, where you discover that you desperately need two pretty celebrities you never considered falling in love to fall in love.", "is_fresh": 1, "author": ["Vincent Mancini"]},
{"text": "A Star Is Born has little insight into where stars come from and even less into how they disappear.", "is_fresh": 0, "author": ["Kyle Smith"]},
{"text": "This oft-told tale (this is the fourth telling of the story) falls into an all-too-predictable rhythm in the middle of the movie, which becomes a slog in the third and final act.", "is_fresh": 0, "author": ["Michael Heaton"]},
{"text": "The first half of this new take on the story is incredible.", "is_fresh": 1, "author": ["Sara Michelle Fetters"]},
{"text": "There's real vitality in Cooper's direction in the early passages, and, in the performances of the costars, an understanding of the ravages of romance that justifies putting ourselves through the paces of this sad story yet again. ", "is_fresh": 1, "author": ["Peter Rainer"]},
{"text": "I believed Bradley Cooper was a man who writes Soundgarden songs but dresses like Sturgill Simpson. I believed Lady Gaga was Joe Biden's daughter. I never wanted it to end.", "is_fresh": 1, "author": ["Katie McDonough"]},
{"text": "It's all a bit overamped, an entertainment that's a little too in love with itself to bring down the curtain -- even as its two-hour and 15-minute length begins to wear. ", "is_fresh": 0, "author": ["Robert Denerstein"]},
{"text": "This fourth rendition better be the last because you can't really step it up from here. If you aren't a \"Little Monster\" by now, \"A Star is Born\" will convert you.", "is_fresh": 1, "author": ["Rendy Jones"]},
{"text": "Here we have a film that is as accomplished as they come; a muscular, note-perfect, old-fashioned, cinematic event that longs to be experienced on the big screen - preferably, one with a stellar sound system.", "is_fresh": 1, "author": ["Chris Wasser"]},
{"text": "Gaga is so good in A Star Is Born and on so many levels that she single-handedly justifies its existence. ", "is_fresh": 1, "author": ["Paul Whitington"]},
{"text": "It's the love story for our time. It's an instant cult classic. It's everything a tasteful move should not be, and yet it's an undeniable success.", "is_fresh": 1, "author": ["Josephine Livingstone"]},
{"text": "The high-voltage ghost of Judy Garland haunts every frame and illuminates every shadow in the film, and Lady Gaga seems to know it.", "is_fresh": 1, "author": ["Rex Reed"]},
{"text": "The film's musical scene are truly sensational. [Full review in Spanish]", "is_fresh": 1, "author": ["Laura Hiros"]},
{"text": "A Star is Re-Born? This is the 4th time this one has been made and it's still more a star is boring than A Star is Born. ", "is_fresh": 0, "author": ["Gary Wolcott"]},
{"text": "Cooper's gamble - both in stepping in behind the camera and giving Lady Gaga her first starring film role - has paid off handsomely.", "is_fresh": 1, "author": ["Daniel M. Kimmel"]},
{"text": "Cooper, Lady Gaga shine in tragic story of love, addiction. ", "is_fresh": 1, "author": ["Sandie Angulo Chen"]},
{"text": "The elegance with which Bradley Cooper solves the tragic end of the protagonist in his directorial debut seems to anticipate that after this debut there is not only trade, but a truly talent. [Full Review in Spanish]", "is_fresh": 1, "author": ["Jordi Costa"]},
{"text": "If 2011's The Artist was an homage, this is more of a burlesque, a hot mess of a movie that takes its dramatic cues from the camp excesses of the drag queens among whom our hammered hero finds the lucky Lady.", "is_fresh": 0, "author": ["Matthew Lickona"]},
{"text": "And whatever tears you may shed at the end feel entirely earned, as is one's respect for a movie far better than one might have imagined: a film director is born.", "is_fresh": 1, "author": ["Matt Wolf"]},
{"text": "If you've been hearing good things about \"A Star is Born,\" believe them all. ", "is_fresh": 1, "author": ["Tom Santilli"]},
{"text": "It's a film that's wise to what it means to be famous in 2018 as well as old-fashioned movie entertainment, with gangbusters musical numbers and an effective and appealing love story between its two leads. And it will make Lady Gaga a movie star.", "is_fresh": 1, "author": ["Rob Thomas"]},
{"text": "The 2018 version of \"A Star Is Born\" is notable because it contains some impressive \"firsts\" for two of our galaxy's brightest performers. ", "is_fresh": 1, "author": ["Mathew DeKinder"]},
{"text": "Though this may not be much of a shock to longtime fans, for those of us who associate Lady Gaga with outlandish public appearances in meat dresses, her soulful down-to-earth performance in this film is borderline revelatory.", "is_fresh": 1, "author": ["Josh Terry"]},
{"text": "Little jabs of pleasure give way to something less tingly, safer: nods of admiration. Torquing Susan Sontag's definition of camp as \"seriousness that fails,\" I think of Cooper's movie as seriousness that succeeds, but perhaps too well or too cleanly.", "is_fresh": 0, "author": ["Melissa Anderson"]},
{"text": "Songs age, too, into eulogies for euphoria or suicide notes for security. They die. They're reborn. Over and over. That sense of decay and renewal boldly rests deep in the bones, performances and storytelling of one of the year's best films.", "is_fresh": 1, "author": ["Nick Rogers"]},
{"text": "Lady Gaga is a radiant, natural actor, and she knocks her first lead movie performance way-far out of the park.", "is_fresh": 1, "author": ["Kurt Loder"]},
{"text": "[Their love] shines through the performances and music with relevant lyrics proving crucial to their characters' mindsets and our emotional reaction to what occurs.", "is_fresh": 1, "author": ["Jared Mobarak"]},
{"text": "Believe some, not all, of the hype.", "is_fresh": 1, "author": ["Christian Toto"]},
{"text": "Cooper takes us along for an engaging ride. And one filled with solid direction, even better performances from the leads, and a killer soundtrack featuring some incredible new songs. (Full Content Review - Profanity, Nudity, etc. - also Available)", "is_fresh": 1, "author": ["Jim Judy"]},
{"text": "Bradley Cooper outshines Lady Gaga in competent retread.", "is_fresh": 1, "author": ["Sonny Bunch"]},
{"text": "I will go out on a short limb to predict Academy Award nods to Cooper, Gaga and Elliott. Lady Gaga's days of wearing a meat dress are history. A born movie star is she.", "is_fresh": 1, "author": ["Steve Crum"]},
{"text": "I can't recommend this film enough and can't imagine anyone not being bowled over by it.", "is_fresh": 1, "author": ["Jamie East"]},
{"text": "This is a dazzlingly original silver-screen debut.", "is_fresh": 1, "author": ["Brian Viner"]},
{"text": "Unabashed melodrama...the film's strongest moments are acoustic, not plugged-in...intimate, truth-telling exchanges between lovers who want the best for each other. ", "is_fresh": 0, "author": ["Peter Canavese"]},
{"text": "\"A Star is Born\" dazzles.", "is_fresh": 1, "author": ["Linda Cook"]},
{"text": "When this movie really hums, it's about Cooper the actor and director supporting those who are supporting him.", "is_fresh": 1, "author": ["Adam Kempenaar"]},
{"text": "In spite of a momentous directorial debut and performance from Bradley Cooper, Lady Gaga leaves the lasting impression in A Star Is Born, a beautiful production perfectly suited to re-release the superstar as a top-tier performer.", "is_fresh": 1, "author": ["Luke Parker"]},
{"text": "There's a reason they keep making A Star Is Born. As long as you tell this story, you're going to have a good movie. This is not my favorite A Star is Born (that would belong to Barbra) but it's definitely in my top three Star is Borns.", "is_fresh": 1, "author": ["Fred Topel"]},
{"text": "\"A Star is Born\" isn't perfect, but what Cooper and Gaga are able to do with the tale make it a delicate love story and triumphant tribute to the artistic spirit.", "is_fresh": 1, "author": ["Adam Graham"]},
{"text": "It's so alive with raw heartache and intoxicating performances it feels like a story no one's ever told before.", "is_fresh": 1, "author": ["Alistair Harkness"]},
{"text": "[A] creaking, ego driven and tone deaf musical drama.", "is_fresh": 0, "author": ["Chris Hunneysett"]},
{"text": "We're not watching. We're diving in with her - and ascending to an insta-stardom that feels real, not contrived.", "is_fresh": 1, "author": ["Tim Appelo"]},
{"text": "A perfectly acceptable drama with some great songs and performances but little more.", "is_fresh": 1, "author": ["Steve Katz"]},
{"text": "Cooper has managed to do the impossible. He's put together an instant movie classic that will have audiences falling in love with his brand new creation.", "is_fresh": 1, "author": ["Mark Daniell"]},
{"text": "This movie is an effulgent treat. The songs are terrific and the concert scenes alone are worth the price of admission. Cooper shows Oscar(r) quality as director, actor and co-writer of songs.", "is_fresh": 1, "author": ["Tony Medley"]},
{"text": "The good news is that this generation gets a pretty good version of the story.", "is_fresh": 1, "author": ["Mark Dujsik"]},
{"text": "Cooper's leisurely approach builds no momentum, and the non-musical scenes meander as the actors (apparently) improvise in close-up. This isn't storytelling as much as it is a work-shopped series of behaviors.", "is_fresh": 0, "author": ["Robert Horton"]},
{"text": "It is maudlin, earnest and unfashionably melodramatic. It is too long. It is self-serious. And it is really, truly great.", "is_fresh": 1, "author": ["Calum Marsh"]},
{"text": "Perhaps this is one of those songs that's been sung once or twice too often.", "is_fresh": 0, "author": ["Frank Swietek"]},
{"text": "Were the actor Bradley Cooper not so tender and hard-working in his performance as the jaded rocker Jackson Maine, it would be possible to regard the whole thing as a vanity project, since he co-wrote and directed it also.", "is_fresh": 1, "author": ["Ryan Gilbey"]},
{"text": "It's Cooper's first time as director and Gaga's first major movie role, but you'd never guess it from the skill and passion they bring to the project.", "is_fresh": 1, "author": ["Peter Howell"]},
{"text": "In A Star Is Born, love hurts. But it's labor that breaks your heart. ", "is_fresh": 1, "author": ["Noah Berlatsky"]},
{"text": "This A Star Is Born is like movie night at the rehab clinic: all the shame of drunkenness and none of the elation.", "is_fresh": 0, "author": ["Richard von Busack"]},
{"text": "With A Star Is Born, Lady Gaga nails those 12 notes. And she takes it up a key, too.", "is_fresh": 1, "author": ["Kevin Fallon"]},
{"text": "When you go into seeing A Star Is Born, one thing is always clear: You're in for great music and a broken heart.", "is_fresh": 1, "author": ["Rachel Leishman"]},
{"text": "Lady Gaga delivers a movie musical performance that's fresh, funny, and at times powerful.", "is_fresh": 1, "author": ["Andr\u00e9 Hereford"]},
{"text": "Everything feels comfortably familiar, yet halfway through this plate of pleasing nostalgia and orchestrated pathos, you realize there's not much substance between the focaccia. We may love our two leads but their characters never feel entirely developed.", "is_fresh": 1, "author": ["Katherine Monk"]},
{"text": "A Star is Born is American mainstream cinema at its very finest.", "is_fresh": 1, "author": ["Tom Fitzgerald and Lorenzo Marquez"]},
{"text": "Lady Gaga supplies an astonishing work of transparent, transporting joy, a frayed electrical wire of emotion with the voice of an earthy angel. She complements Cooper's sexy, sensitive, pugnacious and powerful Star is Born.", "is_fresh": 1, "author": ["Dann Gire"]},
{"text": "For Cooper, it's a polished directorial debut. For Gaga, it's as comfortable a bridge from pop stardom into the movie world as one could imagine. As duets go, that's the sort of combined star power that's difficult to beat.", "is_fresh": 1, "author": ["Brian Lowry"]},
{"text": "But, but, but... I did cry, and Lady Gaga is truly sensational, fabulous, a revelation. I had no idea.", "is_fresh": 1, "author": ["Deborah Ross"]},
{"text": "The duo share an excellent, realistic dynamic. Neither delivers actorish moments angling for awards and prestige.", "is_fresh": 1, "author": ["Colin Covert"]},
{"text": "A Star is Born isn't a perfect movie, but it is a darned entertaining one.", "is_fresh": 1, "author": ["Michael Smith"]},
{"text": "The result is a richly layered, laugh-and-cry love story that understands that audiences must love the characters before they buy their love affair. ", "is_fresh": 1, "author": ["John Lui"]},
{"text": "This is the best work Cooper has done as an actor since The Silver Linings Playbook, and his directorial debut suggests the brightest of futures behind the lens. As for Gaga, well, she steals the show.", "is_fresh": 1, "author": ["Harry Guerin"]},
{"text": "The glory of this version of A Star Is Born is in how this movie star is born through the deconstruction of the pop star playing her.", "is_fresh": 1, "author": ["Sean P. Means"]},
{"text": "[Gag's] enchanting to watch, while the chemistry between her and Cooper is mesmerising. You'll fall in love with them falling in love and that goes a long way in carrying you through the movie's slightly sketchier second half.", "is_fresh": 1, "author": ["Larushka Ivan-Zadeh"]},
{"text": "Having already established himself as one of the best actors of his day, Cooper outdoes himself here, performing additional roles behind the scenes. None of his tasks are given short shrift, and his casting of Lady Gaga leads to an inspired performance. ", "is_fresh": 1, "author": ["Marjorie Baumgarten"]},
{"text": "Cooper has produced a film worthy of the moniker A STAR IS BORN, both for him as first-time director and Lady Gaga for her first starring role. They are marvelous --- and a whole new generation will get to appreciate this classic tale. ", "is_fresh": 1, "author": ["Jeanne Kaplan"]},
{"text": "Beautifully acted and intelligently written, A STAR IS BORN is an ambitious, even monumental achievement in filmmaking. ", "is_fresh": 1, "author": ["David Kaplan"]},
{"text": "What prevails is a commitment to the material that goes well beyond vanity-project interests, as well as a dogged affection for these two flickering flames that burned more brightly as one.", "is_fresh": 1, "author": ["Ruben Rosario"]},
{"text": "Lady Gaga, remarkable in her first leading movie role, charms as the pre-fame Ally and deftly portrays her transformation. Her mighty pipes leave no question regarding Ally's talent.", "is_fresh": 1, "author": ["Anita Katz"]},
{"text": "Whatever my feelings about the overall plot, at least I found this new iteration well-directed and -acted ... Count this qualified appreciated as a semi-endorsement, then.", "is_fresh": 1, "author": ["Christopher Llewellyn Reed"]},
{"text": "He's [Cooper] left all of that passion on the screen and once the credits roll, you know exactly why it was worth touching this material again.", "is_fresh": 1, "author": ["Matthew Passantino"]},
{"text": "This is the kind of movie everybody says they don't make anymore.", "is_fresh": 1, "author": ["Sean Burns"]},
{"text": "The role of Ally is so meta as to cast doubt on whether Lady Gaga can play other kinds of parts; the performance is so galvanizing that you don't remotely care.", "is_fresh": 1, "author": ["Ty Burr"]},
{"text": "It feels somehow compact despite its sprawling two-hour-and-15-minute size, with nary a scene or frame wasted as it builds to its inexorable yet heart-shattering finale.", "is_fresh": 1, "author": ["Dana Stevens"]},
{"text": "(Cooper) continually - and wisely - puts her in the spotlight, allowing the camera to caress Gaga. Many times Cooper tracks his camera in on Gaga's face, emphasizing her eyes, which - in this case - are windows to her soul.", "is_fresh": 1, "author": ["Bob Bloom"]},
{"text": "Achingly honest.", "is_fresh": 1, "author": ["Nell Minow"]},
{"text": "An impressive debut from Cooper, not only for his direction but also how he elevates himself as an actor to keep up with his perfectly cast co-star.", "is_fresh": 1, "author": ["Edward Douglas"]},
{"text": "It's no surprise that Gaga shines brightest when she's performing, but that's not just because she's got a generational voice.", "is_fresh": 1, "author": ["Brad Keefe"]},
{"text": "This is a walking, talking, singing, and a note for note clich\u00e9. I enjoyed it, yes, but the beats, the aching melodrama, cornball lines, passages and action are past their prime. They missed a great opportunity to show some originality.", "is_fresh": 0, "author": ["Anne Brodie"]},
{"text": "As well as turning Gaga into the next hot big screen commodity, Cooper crafts a film that shines brightest when it needs to, ending on a stirring, emotionally-captivating and indescribably powerful note.", "is_fresh": 1, "author": ["Nathan Osborne"]},
{"text": "Like its finest antecedents, it wrings tears from its romance and thrills from a steadfast belief in old-fashioned, big-feeling cinema. That it's also a perverse fantasy about men, women, love and sacrifice makes it all the better.", "is_fresh": 1, "author": ["Manohla Dargis"]},
{"text": "A Star Is Born is a good show. But it's not blazingly original or truly transcendent. We hear the echoes of what came before.", "is_fresh": 1, "author": ["Tim Grierson"]},
{"text": "For all the predictions I've heard about this latest version being either great or terrible, I have to say it lands in between, though thankfully much closer to the former than the latter.", "is_fresh": 1, "author": ["Kristian M. Lin"]},
{"text": "Just TV-commercial pathos and huggy redemption.", "is_fresh": 0, "author": ["Kelly Vance"]},
{"text": "A Star is Born is a series of cliches that work well together. When the music is playing and Cooper and Gaga sing, it's magic. ", "is_fresh": 1, "author": ["Kristen Lopez"]},
{"text": "A remarkable, addictive piece of Hollywood myth-making that deserves to be seen on the biggest screen and in the loudest theater possible.", "is_fresh": 1, "author": ["Todd Gilchrist"]},
{"text": "This is the best Star Is Born yet, and one of the best movies of the year.", "is_fresh": 1, "author": ["Richard Roeper"]},
{"text": "A Star Is Born is perfectly fine, escapist entertainment. Just don't expect any encores.", "is_fresh": 1, "author": ["J.R. Kinnard"]},
{"text": "An astonishingly confident directorial debut from Cooper. The concert scenes are alternatively soulful and boot-stomping, but never anything less than arresting, and the snippets of backstage life crackle with authenticity.", "is_fresh": 1, "author": ["Max Weiss"]},
{"text": "Cooper and Gaga both infuse an energy and authenticity within [their characters] that gives their blossoming relationship organic growth.", "is_fresh": 1, "author": ["Robert Daniels"]},
{"text": "In the next A Star Is Born we surely need a story reborn. This one is getting past its reincarnate-by date.", "is_fresh": 0, "author": ["Nigel Andrews"]},
{"text": "A Star Is Born, is simply terrific -- a big-scale cinematic delight that will have the masses singing, swooning and sobbing along with it.", "is_fresh": 1, "author": ["Lindsey Bahr"]},
{"text": "...an all-out weepie, and something of a false one.", "is_fresh": 1, "author": ["Josh Larsen"]},
{"text": "Cooper and Gaga have voices worth listening to, especially when they're harmonizing in front of a crowd of thousands. We just wish the narrative mixed in a few more sharps and flats to ensure a clearly distinct sound and experience.", "is_fresh": 1, "author": ["Kiko Martinez"]},
{"text": "What ultimately makes \"A Star Is Born\" such a pleasure is that it works on every level - the direction, the acting, the music, the casting.", "is_fresh": 1, "author": ["Ross Raihala"]},
{"text": "First-time director Cooper and co-star Gaga make beautiful music together in this glossy update of a Hollywood classic.", "is_fresh": 1, "author": ["Rafer Guzman"]},
{"text": "For the movie to work, the music has to be believable as commercially viable entity, and for the most part it does.", "is_fresh": 1, "author": ["Gary Thompson"]},
{"text": "Every generation needs its Star, and the latest version - starring Bradley Cooper and Lady Gaga - is a worthwhile addition to the series.", "is_fresh": 1, "author": ["Cameron Meier"]},
{"text": "Bradley Cooper has a lot to say in this effective, beautifully made movie.", "is_fresh": 1, "author": ["Joanna Langfield"]},
{"text": "No acting is required from Cooper and the accompanying band when [Lady Gaga] takes the stage. Like them, you will be in awe.", "is_fresh": 1, "author": ["Joanne Soh"]},
{"text": "Even the most hard-hearted and cynical viewer is likely to have an emotional reaction, and this is as much a testimony to the way Cooper tells the tale as to the story itself.", "is_fresh": 1, "author": ["James Berardinelli"]},
{"text": "Cooper deserves the accolades, but it's Gaga people will be talking about as they leave the theater.", "is_fresh": 1, "author": ["Clint O'Connor"]},
{"text": "Cooper's version of Star is like a perfect white t-shirt or a nice bowl spaghetti.", "is_fresh": 1, "author": ["Hannah Lynn"]},
{"text": "A blockbuster romance that looks and feels like an indie film, all in service of an expression of pure love.", "is_fresh": 1, "author": ["Katie Walsh"]},
{"text": "Gaga is a real surprise in a demanding role. She never feels like she's acting, and brings the character right into the songs.", "is_fresh": 1, "author": ["Rich Cline"]},
{"text": "It's a story of rock stars and A-list fame told in small moments and claustrophobic shouting matches, an epic made small to moving effect.", "is_fresh": 1, "author": ["Dominick Suzanne-Mayer "]},
{"text": "Bradley Cooper's A Star Is Born is brazen widescreen craft that goes for the throat and makes no bones about wanting to leave you a sopping wet mass of tears by the time its credits roll. ", "is_fresh": 1, "author": ["Jacob Knight"]},
{"text": "The fact that Bradley Cooper and Lady Gaga have such a good contrast, is worth every second on film. [Full review in Spanish]", "is_fresh": 1, "author": ["Ruben Peralta Rigaud"]},
{"text": "The actors' support for each other translates on screen as real communion and their musical performances together are the film's highlight.", "is_fresh": 1, "author": ["Laura Clifford"]},
{"text": "The meandering narrative lays a near flawless foundation for a love story centered around finding one's artistic soul.", "is_fresh": 1, "author": ["Jonathan W. Hickman"]},
{"text": "A Star is Born is aptly titled--Lady Gaga has arrived. A movie star is born.", "is_fresh": 1, "author": ["Neil Pond"]},
{"text": "Like Barbra Streisand and Whitney Houston before her, Gaga is on her way to becoming more than just a singer who occasionally acts. ", "is_fresh": 1, "author": ["Travis Hopson"]},
{"text": "Somehow, Cooper has made a Hollywood fairy tale seem utterly believable and magical at the same time.", "is_fresh": 1, "author": ["Randy Cordova"]},
{"text": "Cooper, in his directing debut, puts us inside the music and the drama and lets it swirl around us.", "is_fresh": 1, "author": ["Moira MacDonald"]},
{"text": "It is made for a big screen, big sound and the comforting sorrow of the communal sob.Maybe we really do need another version of A Star is Born.", "is_fresh": 1, "author": ["Donald Clarke"]},
{"text": "Passionate, emotional and fearless, the gangbusters \"A Star Is Born\" is poised to become the movie of the moment - the one everyone has to see right now.", "is_fresh": 1, "author": ["Kenneth Turan"]},
{"text": "By dumping the usual Hollywood bull for something that feels raw, scrappy and lived in, Cooper and Gaga knock it out of the park. Their movie, one of the year's very best, is a modern musical classic. The Oscar race is officially on.", "is_fresh": 1, "author": ["Peter Travers"]},
{"text": "The result is a product formatted for fans of the Grammys and the Oscars, but it also lets us see the annoying narcissistic drive of its director and protagonist. [Full review in Spanish]", "is_fresh": 0, "author": ["Carlos F. Heredero"]},
{"text": "The film feels fresh from thunderous start to exquisite finish.", "is_fresh": 1, "author": ["Joe Morgenstern"]},
{"text": "Cooper and his cast and crew aim high and almost hits the mark but, to me, falls short of its aspiration to be the best \"A Star Is Born.\"", "is_fresh": 1, "author": ["Robin Clifford"]},
{"text": "Cooper's debut outing at the helm is a thoroughly convincing one in almost every respect. In terms of chemistry, a rich natural register is struck between the duo that makes them transfixing to behold.", "is_fresh": 1, "author": ["Hilary A White"]},
{"text": "I was blown away by the stellar performances and the original takes on the story", "is_fresh": 1, "author": ["Raquel Stecher"]},
{"text": "Like a classic love song, the film is meant to tug your heart strings. [Full Review in Spanish] ", "is_fresh": 1, "author": ["Mar\u00eda Fernanda Mugica"]},
{"text": "[A] magnificent, emotional, beautiful production that entertains and thrills you while it makes you laugh and cheer, but also while it makes you cry and breaks your heart.", "is_fresh": 1, "author": ["Mark Hughes"]},
{"text": "The story may be more than a little hoary but at its best moments, it reminds you that just because something is old and predictable does not mean that it cannot also be entertaining and ultimately satisfying as well.", "is_fresh": 1, "author": ["Peter Sobczynski"]},
{"text": "Lady Gaga has traveled by egg, donned skirt steak and taken part in a TV blood orgy. But her biggest transformation occurs in the new film \"A Star Is Born.\" In it, she becomes an Oscar-worthy actress.", "is_fresh": 1, "author": ["Johnny Oleksinski"]},
{"text": "I just loved it. It's a film that combines an overall feeling of modernity and relevance with the glow of old-time glamour.", "is_fresh": 1, "author": ["Mick LaSalle"]},
{"text": "Instantly sweeps us up in its passion, its electricity, its music, and characters to fall in love with. Lady Gaga is a revelation. It's impossible to believe Bradley Cooper has never directed before. I adore this movie.", "is_fresh": 1, "author": ["MaryAnn Johanson"]},
{"text": "With their phenomenal \"A Star Is Born,\" Lady Gaga and Bradley Cooper upend expectations and spectacularly freshen up a stock Hollywood story.", "is_fresh": 1, "author": ["Brian Truitt"]},
{"text": "... this update of the classic love story is crafted with a palpable affection and passion. Cooper's take is personal, ingenious, and raw.", "is_fresh": 1, "author": ["Chris Feil"]},
{"text": "The result is pure Saturday-night moviegoing: it gives you one hell of a wallop, then you wake up on Sunday morning without a scratch.", "is_fresh": 1, "author": ["Anthony Lane"]},
{"text": "Lady Gaga excels as a diluted version of herself in a moving a promising directorial debut from powerhouse Bradley Cooper. [Full review in Spanish]", "is_fresh": 1, "author": ["Orlando Maldonado"]},
{"text": "Bradley Cooper updates \"A Star Is Born\" on the wings of a luminous talent. Pop diva Lady Gaga is electric on screen.", "is_fresh": 1, "author": ["Julian Roman"]},
{"text": "Sit back, fall in love, and let it wash over you. Watch a star being born", "is_fresh": 1, "author": ["Frank Wilkins"]},
{"text": "This version stands on its own. It is enjoyable romp and there are some emotional moments that deliver a jolt but that is it. I wish Hollywood studios would stop with the remakes.", "is_fresh": 1, "author": ["Rosalynn Try-Hane"]},
{"text": "A Star Is Born is a resounding success. The concert scenes are particularly impressive... It's intimate, and sweaty, and loud.", "is_fresh": 1, "author": ["Anne Cohen"]},
{"text": "Fueled by strong performances and Cooper's precise direction, A Star is Born is a moving (and tear-jerking) love story by way of showbiz melodrama.", "is_fresh": 1, "author": ["Sandy Schaefer"]},
{"text": "Absolutely LOVED this. Bradley Cooper is just sensational. A juggernaut assault on the emotions. Pack tissues. ", "is_fresh": 1, "author": ["Kat Hughes"]},
{"text": "Musically sharp, dramatically flat", "is_fresh": 0, "author": ["Roger Moore"]},
{"text": "An enormously satisfying and well-tuned blockbuster gala musical; a vibrant, up-to-date Supertrouper crackling with happiness and heartbreak, sprinkled with stardust and star-maker gumption.", "is_fresh": 1, "author": ["Alan Jones"]},
{"text": "This film grapples with fame, family, integrity, love and sacrifice. It succeeed emphatically in conveying the overwhelming love its two central characters feel.", "is_fresh": 1, "author": ["Stefan Kyriazis"]},
{"text": "What makes Cooper so good is that he directs in a way that encourages you not to see what he is doing, but what is happening. Character above all.", "is_fresh": 1, "author": ["Olly Richards"]},
{"text": "\"Joanne\" demonstrated [Gaga's] range as a vocalist and musician, yet received largely middling reviews. But it did hint at her potential legacy-evolving into an artist as skilled as Prince. A STAR IS BORN cements that legacy.", "is_fresh": 1, "author": ["Rubin Safaya"]},
{"text": "Handsomely mounted and profoundly felt at times, becoming an \"Actors Studio: The Movie\" take on music world misery.", "is_fresh": 1, "author": ["Brian Orndorf"]},
{"text": "It's full of old-fashioned movie magic, with Bradley Cooper knocking it out of the park in his directorial debut, and Lady Gaga bringing it, and not just with her singing.", "is_fresh": 1, "author": ["Stephen Silver"]},
{"text": "The first half is much better than the second half, but it still works as a compelling romantic tragedy. ", "is_fresh": 1, "author": ["Scott Mendelson"]},
{"text": "\"A Star is Born\" offers a suitably jaundiced glimpse of starmaking machinery at its most cynical, but also its most thrilling and gratifying.", "is_fresh": 1, "author": ["Ann Hornaday"]},
{"text": "Not unlike Boogie Nights, the highs in A Star Is Born (ie: the first half) are very high, while the lows (the latter half) include drawn-out and repetitive elements that are so telegraphed and predictable they simply feel sad.", "is_fresh": 1, "author": ["Joe Lipsett"]},
{"text": "This soul-baring, emotionally propulsive work proves that Cooper is just as much of a dynamo behind the camera as he is in front of it.", "is_fresh": 1, "author": ["Courtney Howard"]},
{"text": "Lady Gaga can act, very well, and actor Bradley Cooper can direct -- even better.", "is_fresh": 1, "author": ["Lapacazo Sandoval"]},
{"text": "An uneven work of startling sincerity and disarming beauty.", "is_fresh": 1, "author": ["Kelley Dong"]},
{"text": "Somewhere inside this good 135-minute film is an even better 120-minute movie.", "is_fresh": 1, "author": ["Dwight Brown"]},
{"text": "The excitement of the film's first hour is sacrificed for a more cliched permanent stay in its second. Gaga takes over and Bradley takes a backseat; gone is the dynamic that made the first half so electrifying and enticing", "is_fresh": 0, "author": ["Jordan Ruimy"]},
{"text": "Cooper and Gaga are irresistibly charming together consistently bringing out the best in each other, eliciting palpable trust both as on-screen characters and world-class stars comfortable in one another's shoes. Nothing is faked, everything is remarkable", "is_fresh": 1, "author": ["Robert Kojder"]},
{"text": "Bradley Cooper's feature directorial debut, A Star Is Born, knocks it out of the park thanks to a stellar performance from Lady Gaga.", "is_fresh": 1, "author": ["Danielle Solzman"]},
{"text": "The kind of film that no one is going to stop talking about for months, because very few people will have anything bad to say about it.", "is_fresh": 1, "author": ["Tomas Trussow"]},
{"text": "Maybe we've seen it before, heard the music and felt how love burns, how inescapable self-destruction hurts. But there's no taking away from what the marriage of these moments has created, the importance of all these new stars shining so bright. ", "is_fresh": 1, "author": ["Ella Kemp"]},
{"text": "While it's not a perfect film - though the first hour just may be - A Star Is Born boasts more than enough passion to make up for some of its narrative hiccups.", "is_fresh": 1, "author": ["Alissa Wilkinson"]},
{"text": "\"All you gotta do is trust me,\" he tells her, and when he brings her out on stage, and then brings her up to the front microphone, it raises the same kind of gooseflesh as the \"When Your Mind's Made Up\" scene in Once.", "is_fresh": 1, "author": ["Jason Bailey"]},
{"text": "Cooper's feat of filmmaking puts him on a par with great American actors turned auteurs like Clint Eastwood and Warren Beatty.", "is_fresh": 1, "author": ["Allan Hunter"]},
{"text": "Proves there is still plenty of life left in this tale of fame, addiction, and sacrifice. \"A Star Is Born\" is an emotionally intimate journey that makes itself feel like an event. An astonishing Lady Gaga positively soars.", "is_fresh": 1, "author": ["Dustin Putman"]},
{"text": "Lady Gaga will get the attention, but Bradley Cooper steals the show.", "is_fresh": 1, "author": ["Max Covill"]},
{"text": "Gaga keeps the film's heart pumping. She's down-to-Earth and radiant-in other words, every bit as good as everyone has been saying.", "is_fresh": 1, "author": ["A.A. Dowd"]},
{"text": "Bradley Cooper and Lady Gaga are this year's Ryan Gosling and Emma Stone. ", "is_fresh": 1, "author": ["Scott Menzel"]},
{"text": "Cooper gives his heroes highly personal issues: his sanity and his music for Jack, and her sense of self-worth for Ally.", "is_fresh": 1, "author": ["Manuela Lazic"]},
{"text": "The supporting roles in A Star Is Born are equally wonderful, and some in surprising ways. Sam Elliott remains a genius.", "is_fresh": 1, "author": ["Andy Howell"]},
{"text": "Lady Gaga triumphs as a young woman averse to artifice and fame-hounding. The movie is a hell of a magic act.", "is_fresh": 1, "author": ["David Edelstein"]},
{"text": "Overall, this movie is a testament to the talent of Cooper, but the glory belongs to Gaga.", "is_fresh": 1, "author": ["Patrik Sandberg"]},
{"text": "A Star Is Born is a refreshing take of this classic showbiz rise and fall tale, with updated character work, fantastic performances by Bradley Cooper and Lady Gaga, and a soundtrack that will be stuck in your head for days.", "is_fresh": 1, "author": ["Rafael Motamayor"]},
{"text": "A Star is Born doesn't deviate too wildly from the frequently remade storyline, but everything else about Cooper's film feels refreshed and new. ", "is_fresh": 1, "author": ["Andrew Parker"]},
{"text": "Gaga is truly immense throughout, delivering a wonderfully grounded and subtle performance with bursts of that electricity that has so invigoratingly defined her pop career.", "is_fresh": 1, "author": ["Caitlin Quinlan"]},
{"text": "It's valid to ask whether a movie needs to be made a fourth time, but Cooper's fantastic, emotional film demonstrates how execution, style, and a modern point of view can make even the most familiar story fresh again.", "is_fresh": 1, "author": ["Bryan Bishop"]},
{"text": "A turn that has a semblance of Nicolas Cage in \"Leaving Las Vegas\" and Joaquin Phoenix in \"Walk the Line,\" Cooper constructs his own creation, echoing and respecting the role that has been crafted by March, Mason, and Kristofferson.", "is_fresh": 1, "author": ["Clayton Davis"]},
{"text": "It's not adding anything new to the Star is Born canon, but it is a solid retelling for a new generation.", "is_fresh": 1, "author": ["Sarah Marrs"]},
{"text": "Their chemistry is undeniable, their duets infectious and moving the action into the contemporary music scene, where Ally is rapidly reconfigured as a sequin-studded red head flanked by unnecessary dancers, strikes a long line of emotional notes.", "is_fresh": 1, "author": ["Kate Taylor"]},
{"text": "You can see where all of it is headed from two miles away. But that doesn't matter, not when Bradley Cooper is executing the formula so well.", "is_fresh": 1, "author": ["Angie Han"]},
{"text": "Cooper and Lady Gaga pull off a remarkable feat-they not only make you believe the characters are actually falling in love.", "is_fresh": 1, "author": ["John Powers"]},
{"text": "An invigorating paean to the joys of making art, the momentum that comes with sudden inspiration, and how swooningly romantic it can all feel.", "is_fresh": 1, "author": ["David Sims"]},
{"text": "A film that dares to go big, bold and sincere, classical, modern and haphazard in equal measures. It may not go down as one of the greats but like many a song over the decades, when the right note in the film swings big, it soars.", "is_fresh": 1, "author": ["Allyson Johnson"]},
{"text": "Great music, great performances, a doomed love story with plenty of heart on display, A Star Is Born really is a triumph, a reminder that sometimes playing the hits can really bring the house down.", "is_fresh": 1, "author": ["Jason Gorber"]},
{"text": "Bradley Cooper makes an outstanding directing debut and Lady Gaga proves herself a movie star in this electrifying remake of an oft-told show-business tale.", "is_fresh": 1, "author": ["Kevin Lally"]},
{"text": "Superb. Gaga and Cooper deliver Oscar-worthy turns in a remake that hits the high notes.", "is_fresh": 1, "author": ["James Mottram"]},
{"text": "Cooper's film proves that a love story this timeless still works when done right.", "is_fresh": 1, "author": ["E. Oliver Whitney"]},
{"text": "It's remarkable... just how many fresh reserves of emotion Cooper teases out of a well-worn formula.", "is_fresh": 1, "author": ["Justin Chang"]},
{"text": "Cooper uses Hollywood's favorite creation myth to recreate how audiences will forever perceive him and Gaga.", "is_fresh": 1, "author": ["David Crow"]},
{"text": "The film is a proper double hander, divided between Gaga and Cooper, but it also provides an excellent platform for Cooper to show off all the directorial tricks he's picked up from his long acting career. ", "is_fresh": 1, "author": ["Kayleigh Donaldson"]},
{"text": "Bradley Cooper makes an impressive directing debut with A Star Is Born, turning one of Hollywood's most re-made movies into something fresh and soulful, even though it's hampered by some of the story's clich\u00e9s.", "is_fresh": 1, "author": ["Karen Gordon"]},
{"text": "Believe the hype. Cooper is a born director and Lady Gaga is superb.", "is_fresh": 1, "author": ["Chris Bumbray"]},
{"text": "This story has been told several times before-and influenced other similar romances-but Cooper and Gaga find a way to make this feel fresh and new.", "is_fresh": 1, "author": ["Brian Tallerico"]},
{"text": "The familiar story of an aging performer discovering a rising star gets a fresh coat of paint, and excels primarily due to the performance (and musical talents) of Lady Gaga.", "is_fresh": 1, "author": ["Chris Evangelista"]},
{"text": "Cooper has made a remarkably self-assured feature debut anchored by an outstanding lead performance from Lady Gaga. ", "is_fresh": 1, "author": ["Matt Goldberg"]},
{"text": "The occasional bum note aside, this is broad-strokes filmmaking of the highest calibre.", "is_fresh": 1, "author": ["Paul O'Callaghan"]},
{"text": "What Bradley Cooper has done here as an actor and director is truly remarkable.", "is_fresh": 1, "author": ["Mike Ryan"]},
{"text": "The hype for this movie is already through the roof, and all I can say is it lives up to it. ", "is_fresh": 1, "author": ["Jason Guerrasio"]},
{"text": "Gaga's easy, offhanded command of the screen matches up well with Cooper's sincere, straight-ahead portrayal of a good man undermining his own talent. ", "is_fresh": 1, "author": ["Michael Phillips"]},
{"text": "Although the path that A Star is Born treads is well worn, there's a raw honesty to the central relationship that Cooper taps into here, elevating the material far beyond the Glitters of this world by bringing out the very best in both himself and Gaga.", "is_fresh": 1, "author": ["David Opie"]},
{"text": "Yes, you've seen this movie before. It worked then, it works now. Maybe it's never worked better.", "is_fresh": 1, "author": ["Norman Wilner"]},
{"text": "When it hits its highest, most resonant notes, Bradley Cooper's remake of A Star Is Born achieves a triumphant, romantic ache that is often just what we want to experience at the movies.", "is_fresh": 1, "author": ["Richard Lawson"]},
{"text": "Bradley Cooper understands that a message is only as resonant as its messenger, so he surrounds himself with collaborators, old and new, who can sell even the hoariest clich\u00e9.", "is_fresh": 1, "author": ["Keith Uhlich"]},
{"text": "I wasn't ready for the level of storytelling that was this complex and a deliciously riveting addition to the A Star is Born legacy.", "is_fresh": 1, "author": ["Jonita Davis"]},
{"text": "Lady Gaga comes in hard with her big-screen debut and knocks it out of the park.", "is_fresh": 1, "author": ["Ashley Menzel"]},
{"text": "This may be the fourth version of this film and story but it forges its own path, on its own terms and is vibrant, personal and raw in its examination of celebrity, romance and the cost of fame, love and, addiction.", "is_fresh": 1, "author": ["Erik Anderson"]},
{"text": "A remake that captures the tone and spirit of prior films, A Star Is Born still blazes its own heartfelt, authentic path.", "is_fresh": 1, "author": ["Terri White"]},
{"text": "A Star is Born is devoid of depth. It feels like a missed opportunity, since its core subject offers many cues to tell a contemporary story.", "is_fresh": 0, "author": ["Clara Miranda Scherffig"]},
{"text": "Cooper is an unabashed Old Hollywood lover, and he makes an unabashed stab at this material - which is why it works. It's fun to see the hat tips.", "is_fresh": 1, "author": ["Baradwaj Rangan"]},
{"text": "Cooper has succeeded in giving this dinosaur of a film stomping new life. This is A Star Is Born re-made for the age of the talent contest.", "is_fresh": 1, "author": ["David Sexton"]},
{"text": "Cooper's screen chemistry with Lady Gaga is another significant problem. They're great on stage together but in scenes with dialogue they're worlds apart, in apparently different movies.", "is_fresh": 0, "author": ["Kevin Maher"]},
{"text": "Gaga is appealing, open and down-to-earth in her first major role.", "is_fresh": 1, "author": ["Nicholas Barber"]},
{"text": "What keeps the film from feeling like a mere rehash is the gut-level romanticism of it all.", "is_fresh": 1, "author": ["Emily Yoshida"]},
{"text": "Calling the new A Star Is Born a \"valentine\" from its star, Lady Gaga, to her fans sounds a bit coy and delicate, so let's call it what it really is: a hot French kiss (with full-on tongue), filled with passion, tears and a staggering amount of chutzpah.", "is_fresh": 1, "author": ["Joshua Rothkopf"]},
{"text": "Credit to Cooper for delivering his best, most soulful performance while pulling double duty behind the camera, but it's his co-star whose magnetism most draws you into their world - and keeps you there even when the film hits the occasional wrong note.", "is_fresh": 1, "author": ["Michael Nordine"]},
{"text": "Cooper proves a good cover can work just as well as the original.", "is_fresh": 1, "author": ["Adam Woodward"]},
{"text": "This utter ludicrousness has all the hallmarks of reality television... but Cooper is so heartfelt in his direction and performance, while [Lady Gaga] has a credibly wonderful voice, so the fairytale feels true.", "is_fresh": 1, "author": ["John Bleasdale"]},
{"text": "Pop diva Lady Gaga gives a perfectly creditable performance opposite Bradley Cooper (who also directs) in the latest version of old Hollywood chestnut, A Star Is Born, but this still feels like an unnecessary remake.", "is_fresh": 1, "author": ["Geoffrey Macnab"]},
{"text": "A Star is Born features great performances all around, but the star that is truly born here is Bradley Cooper as a director.", "is_fresh": 1, "author": ["Jessica Kiang"]},
{"text": "A Star Is Born tries very, very hard to be the most emotional movie of 2018. I'm not convinced it wins on that front, but I can say it gets the prize for most hysterical melodrama. Take it as a compliment.", "is_fresh": 1, "author": ["Mara Reinstein"]},
{"text": "Star is less a story now than a myth - not so much reborn as recast, and passed on to the care of the next generation.", "is_fresh": 1, "author": ["Leah Greenblatt"]},
{"text": "Cooper and Lady Gaga are dynamite together; this is a story that lives and dies by the central relationship and the instant chemistry that must blossom between them, and these two have it in spades.", "is_fresh": 1, "author": ["Alonso Duralde"]},
{"text": "The story of A Star Is Born may be as old as show-business, but it is also electrifyingly fresh - a well-known melody given vivid, searching new force.", "is_fresh": 1, "author": ["Robbie Collin"]},
{"text": "Outrageously watchable and colossally enjoyable... supercharged with dilithium crystals of pure melodrama.", "is_fresh": 1, "author": ["Peter Bradshaw"]},
{"text": "As an unashamedly anachronistic attempt to muster the emotional intensity of the Hollywood melodrama tradition, Cooper's film must be at least grudgingly acknowledged as a success. And both stars, Gaga in particular, emerge with honour.", "is_fresh": 1, "author": ["Jonathan Romney"]},
{"text": "You come away feeling something for these people, flawed individuals who are trying to hold their cracked pieces of self together-or to mend the cracks of those they love.", "is_fresh": 1, "author": ["Stephanie Zacharek"]},
{"text": "The real surprise here is not Cooper, but Gaga. More than a newly born star, hers never stops growing.", "is_fresh": 1, "author": ["Leonardo Goi"]},
{"text": "This is a durable tale of romance, heady fame and crushing tragedy, retold for a new generation with heart and grit.", "is_fresh": 1, "author": ["David Rooney"]},
{"text": "\"A Star Is Born\" is that thing we always yearn for but so rarely get to see: a transcendent Hollywood movie.", "is_fresh": 1, "author": ["Owen Gleiberman"]},
{"text": "This is the fourth iteration of A Star Is Born, and even if you haven't seen the previous versions, the formula will be familiar.", "is_fresh": 0, "author": ["Raphael Abraham"]},
{"text": "An example of Big Movie Studio Craft at its most well-thought out; among the many contingents of moviegoers it will please will be the 'they don't make 'em like that anymore' crowd.", "is_fresh": 1, "author": ["Glenn Kenny"]}
]