[
{"reviews_count": "54", "title": "Air Force One", "avg_audience_rating": "3.2", "rotten_count": "12", "tomatometer": "78", "audience_score": "66", "avg_critic_rating": "  7", "fresh_count": "42", "user_ratings_count": "378,632"},
{"text": "Everything about it was unreal, except it did a big box office.", "is_fresh": 0, "author": ["Dennis Schwartz"]},
{"text": "Well executed action thriller by Das Boot German director Petersen, which is rather weak in plot and characterization.", "is_fresh": 1, "author": ["Emanuel Levy"]},
{"text": "[An] unabashedly jingoistic action extravaganza starring Harrison Ford as...'The Ass-Kicking President'...[Blu-ray]", "is_fresh": 1, "author": ["Peter Canavese"]},
{"text": "As the familiar cat-and-mouse plot unfolded, I let myself enjoy the unapologetic masculine thrills.", "is_fresh": 1, "author": ["Rob Gonsalves"]},
{"text": "It's embarrassing to see [Ford] hanging by a thread ... behind his own 747. No image better fits the fragile state of his [career] at this point... he's losing his grip.", "is_fresh": 0, "author": ["Jeffrey Overstreet"]},
{"text": "Most of the time it's a kick.", "is_fresh": 1, "author": ["Manohla Dargis"]},
{"text": "Unfortunately, as the film winds to a close, claustrophobic tension once again gives way to overblown digital effects and set pieces.", "is_fresh": 0, "author": ["Wade Major"]},
{"text": "...it flies on and on until its power to hold us simply peters out.", "is_fresh": 0, "author": []},
{"text": "An adrenaline-pumping political thriller.", "is_fresh": 1, "author": ["Frederic and Mary Ann Brussat"]},
{"text": "It's a great ride.", "is_fresh": 1, "author": ["Stephen Hunter"]},
{"text": "Moments of silliness are more than balanced by Petersen's extraordinary ability to keep this movie flight-worthy, Ford's almost-executive presence and an outstanding performance from Oldman.", "is_fresh": 1, "author": ["Desson Thomson"]},
{"text": "With any expectations of real-life adventure safely out of mind, you can relish 1997's megahit \"Air Force One\" as one heck of a joy ride.", "is_fresh": 1, "author": ["John J. Puccio"]},
{"text": "Non-action movie fans will enjoy it, patriots will enjoy it, and Harrison Ford fans will enjoy it", "is_fresh": 1, "author": ["Karina Montgomery"]},
{"text": "Air Force One doesn't insult the audience. It is crafted by a film-maker who takes pride in the thrills and sly fun he packs into every frame.", "is_fresh": 1, "author": ["Peter Travers"]},
{"text": "calculated with statistical precision to function as both a patriotic call to arms and an emotional tear about a man's family in jeopardy", "is_fresh": 1, "author": ["James Kendrick"]},
{"text": "A piece of expertly crafted entertainment that gets the job done with skill and panache", "is_fresh": 1, "author": ["Kenneth Turan"]},
{"text": "Seeing the president of the United States as a kick-butt action hero pretty much sums up the appeal of Air Force One", "is_fresh": 1, "author": ["Todd McCarthy"]},
{"text": "Petersen, known for the efficient and vigorously muscular action of Das Boot and In the Line of Fire, once again directs with galvanizing intensity, but the relentlessness of these thrills carries little in the way of surprise.", "is_fresh": 1, "author": ["Janet Maslin"]},
{"text": "As it is, the movie is a roller coaster ride for those who prefer not to think once the theater lights have dimmed.", "is_fresh": 1, "author": ["James Berardinelli"]},
{"text": "Up to this moment, every detail ... has been exact ... But, because of that initial realism, audiences accept the fakery of what follows ... a president who, in physical prowess and stamina, makes Arnold Schwarzenegger look limp.", "is_fresh": 1, "author": ["Stanley Kauffmann"]},
{"text": "The two hours of this movie felt like such an eternity that I was certain my clothes were going to be out of style by the time it was over.", "is_fresh": 0, "author": ["Charles Taylor"]},
{"text": "Harrison Ford is one of the most likable and convincing of movie stars, and he almost pulls off the impossible in Air Force One.' I don't mean he saves the day; I mean he almost saves the movie.", "is_fresh": 1, "author": ["Roger Ebert"]},
{"text": "A die-hardly pic that pits President Rambo against Oldman's boilerplate Russian hijacker.", "is_fresh": 0, "author": []},
{"text": "What separates Air Force One from other action/adventure movies is that an audience cannot ignore the silly bits.", "is_fresh": 0, "author": ["Liz Braun"]},
{"text": "Air Force One has neither the wit to laugh at its own absurdity nor the wisdom to mock its pretensions.", "is_fresh": 0, "author": ["Dan Jardine"]},
{"text": "when it is served up with such pulpy panache, old-fashioned expertise and a hero so easy to root for", "is_fresh": 1, "author": ["Ian Freer"]},
{"text": "The latest in an overly long list of hijack films. But it's also the smartest and most appealing to date.", "is_fresh": 1, "author": ["Jack Garner"]},
{"text": "Is Air Force one formulaic? Yes. Is it gimmicky? Yes. Does it work? Yes.", "is_fresh": 1, "author": ["Madeleine Williams"]},
{"text": "The plot and the details are cartoonish, not psychological. Now, with that in mind, Air Force One is pretty good.", "is_fresh": 1, "author": ["Marty Mapes"]},
{"text": "An exciting, entertaining variation of the Die Hard formula where our kick-*** hero is none other than the President of the United States.", "is_fresh": 1, "author": ["Michael Dequina"]},
{"text": "The intelligent and clever script has enough humor to break the tension periodically.", "is_fresh": 1, "author": ["Steve Rhodes"]},
{"text": "Wolfgang Petersen may have ripped off \"Die Hard\", but he did his work extremely well.", "is_fresh": 1, "author": ["Edward Johnson-Ott"]},
{"text": "Chock full of witty, honest dialogue, human beings as actors (as opposed to adenoidal cartoons), and a clever script that takes itself just seriously enough to warrant our attention...", "is_fresh": 1, "author": ["Marc Savlov"]},
{"text": "Harrison Ford can't save Air Force One", "is_fresh": 0, "author": ["Joe Baltake"]},
{"text": "Ford and director Wolfgang Petersen (\"In the Line of Fire\") manage to weave some movie magic with one of the most ludicrous plots in recent cinematic history.", "is_fresh": 1, "author": ["Jeff Vice"]},
{"text": "Preposterous but viscerally juicy", "is_fresh": 1, "author": ["Mike Clark"]},
{"text": "Air Force One is a spellbinding film, one that grips the viewer from the very start and doesn't let up until 140 minutes later, plot holes or no.", "is_fresh": 1, "author": ["Christopher Null"]},
{"text": "It would take a far more intelligent movie than Air Force One to credibly explore the issues raised by this hyperactive plot.", "is_fresh": 0, "author": ["David Sterritt"]},
{"text": "Air Force One gets the job done.", "is_fresh": 1, "author": ["Jeff Millar"]},
{"text": "It's a gamble. Air Force One goes against the current grain of presenting presidents in movies as evil or idiotic, or mock heroic, as in last year's 'Independence Day.'", "is_fresh": 1, "author": ["Mick LaSalle"]},
{"text": "Just think of this as \"Die Hard\" in a suit, with an election coming up.", "is_fresh": 1, "author": ["Barbara Shulgasser"]},
{"text": "Air Force One hasn't a moment of genuine tension because every development is entirely expected.", "is_fresh": 0, "author": ["Rob Blackwelder"]},
{"text": "The stalking struggle between reason and unreason that precedes it is much more gripping--and fun.", "is_fresh": 1, "author": ["Richard Schickel"]},
{"text": "Air Force One is a wonderful way to spend an afternoon, as long as you don't mind nitpicking afterwards.", "is_fresh": 1, "author": ["Wesley Lovell"]},
{"text": "Air Force One is one hell of a ride. It doesn't even require you to turn off your brain - the film does it for you ... But for those 2 hours, frankly, you don't give a damn. The film is that intriguing.", "is_fresh": 1, "author": ["Ted Prigge"]},
{"text": "Congrats for pulling some new rabbits out of the hat with this formula.", "is_fresh": 1, "author": ["Widgett Walls"]},
{"text": "", "is_fresh": 1, "author": ["Emanuel Levy"]},
{"text": "", "is_fresh": 1, "author": ["Owen Gleiberman"]},
{"text": "", "is_fresh": 0, "author": ["Dragan Antulov"]},
{"text": "", "is_fresh": 1, "author": ["Leonard Schwarz"]},
{"text": "", "is_fresh": 1, "author": ["Robert Roten"]},
{"text": "", "is_fresh": 1, "author": ["Susan Stark"]},
{"text": "", "is_fresh": 1, "author": ["Scott Renshaw"]},
{"text": "", "is_fresh": 1, "author": []}
]