[
{"reviews_count": "74", "title": "Alien Resurrection", "avg_audience_rating": "  3", "rotten_count": "34", "tomatometer": "54", "audience_score": "39", "avg_critic_rating": "5.8", "fresh_count": "40", "user_ratings_count": "263,080"},
{"text": "Without anything to pull the project in a single direction, it fumbles and flails, punctuated by some interesting visuals and action beats, but content to coast on the calm seas of been-there, done-that.", "is_fresh": 0, "author": ["Zaki Hasan"]},
{"text": "The franchise has lost none of its taste for acid-spewing, flesh-impaling, entrail-dripping gore. But the tone has changed...If this is your cup of slime, this jauntily gruesome installment won't disappoint.", "is_fresh": 1, "author": ["David Ansen"]},
{"text": "Weaver obviously knows her role by now, but Winona Ryder is as much of an action hero as Julie Nixon would be, going way out of her element.", "is_fresh": 0, "author": ["Mike Clark"]},
{"text": "If you prefer the action of Aliens, then Alien: Resurrection has the next best action of the franchise. If you prefer the horror of Alien, Alien: Resurrection is the second scariest one.", "is_fresh": 1, "author": ["Fred Topel"]},
{"text": "This is not a Hollywood space thriller at all, but an intergalactic fantasy driven by the same cheerfully eccentric impulses that have informed a myriad of high-spirited French filmmakers.", "is_fresh": 1, "author": ["David Keyes"]},
{"text": "A blend of surrealist humor, unintentional self-parody and groan-inducing moments, this is easily the nadir of the franchise.", "is_fresh": 0, "author": ["Wesley Lovell"]},
{"text": "[Jeuenet] doesn't push it all the way to \"so bad it's good\" territory, but he at least gives a healthy dose of the bizarre that makes it memorable, in its fashion.", "is_fresh": 0, "author": ["Tim Brayton"]},
{"text": "This fourth chapter in the popular sci-fi-horror franchise is without a doubt the weakest, both dramatically and visually.", "is_fresh": 0, "author": ["Emanuel Levy"]},
{"text": "More than worthwhile as a closing statement.", "is_fresh": 1, "author": ["Michael Nordine"]},
{"text": "Simply put, Jean-Pierre Jeunet was the absolute wrong choice for this film. His award-winning quirky French visual sensibilities don't mesh well with Joss Whedon's meat-and-potatoes script.", "is_fresh": 0, "author": ["R.L. Shaffer"]},
{"text": "Grotesque carnage, vile characters; steer clear.", "is_fresh": 0, "author": ["Charles Cassady"]},
{"text": "This fourth chapter comes off as the first fully postmodern Alien film: not Alien multiplied or cubed, but synthetically reawakened, groggy enough to sleepwalk through our memories of the first three, as in a dream.", "is_fresh": 1, "author": ["Rob Nelson"]},
{"text": "After the disappointing Alien 3, this fourth film in the franchise represents a marked improvement, but it fails to match the level established in the first two films.", "is_fresh": 1, "author": ["Steve Biodrowski"]},
{"text": "Un de ces films dont il faut savoir s'impr\u00e9gner de l'id\u00e9e de d\u00e9part pour \u00eatre en mesure d'en appr\u00e9cier les \u00e9bats \u00e0 leur juste valeur.", "is_fresh": 1, "author": ["Jean-Fran\u00e7ois Vandeuren"]},
{"text": "Jeunet and Whedon deliver the alien-attack scenes with a spin and a wink.", "is_fresh": 1, "author": ["Rob Gonsalves"]},
{"text": "Has more visual flair than any of George Lucas' Star Wars films, and at times is almost as fun.", "is_fresh": 1, "author": ["Rob Humanick"]},
{"text": "Poor Sigourney Weaver! Why does she succumb to the temptation of making these movies?", "is_fresh": 0, "author": ["Gary Brown"]},
{"text": "It's time they quit killing the aliens, and just killed the Alien series altogether. ... How the mighty have fallen.", "is_fresh": 0, "author": ["Jeffrey Overstreet"]},
{"text": "Moviegoers who expect more surprise and mystery from the grisly and suspenseful sci-fi \"Alien\" series will be disappointed.", "is_fresh": 1, "author": ["Judith Egerton"]},
{"text": "The much-maligned last part in the Alien quadrilogy should be approached as the comic book actioneer that it is.", "is_fresh": 1, "author": ["Ed Gonzalez"]},
{"text": "...it's two hundred years down the road from Alien 3, and Ripley is long gone. If only. (Alien Quadrilogy)", "is_fresh": 0, "author": ["John J. Puccio"]},
{"text": "Great effects, dismal story. Sigourney phones in a paycheck. Why is Ryder even in this? Ron Perlman is the only bright spot in a forgettable cast.", "is_fresh": 0, "author": ["Brian Mckay"]},
{"text": "Unfortunately, Weaver and Jeunet's efforts are short changed by the ineptness of Joss Whedon's script, that seems to find a way to make action sequences unexciting.", "is_fresh": 0, "author": ["Tom Meek"]},
{"text": "The film is so insistently formulaic there is hardly a moment when you don't know exactly what's going to happen.", "is_fresh": 0, "author": ["Margaret A. McGurk"]},
{"text": "... despite more Catholic imagery than a mid-period Madonna video, the movie isn't heavy-handed ...", "is_fresh": 1, "author": ["Philip Martin"]},
{"text": "Someone went crazy with the fake flesh and exoskeletons in the Fox creature shop, to impressive and exciting results.", "is_fresh": 1, "author": ["Christine James"]},
{"text": "Se n\u00e3o acrescenta nada \u00e0 s\u00e9rie, este filme tamb\u00e9m n\u00e3o embara\u00e7a.", "is_fresh": 1, "author": ["Pablo Villa\u00e7a"]},
{"text": "It satisfactorily recycles the great surprises that made the first movie so powerful. And most significantly, it makes a big hoot of the whole business.", "is_fresh": 1, "author": ["Desson Thomson"]},
{"text": "It brings a mordant, crackerjack wit to the world of chest-busting, head-ripping creepazoids from beyond.", "is_fresh": 1, "author": ["Stephen Hunter"]},
{"text": "I didn't realize until later how stupid the whole thing was. Chalk up one more for Sigourney's acting and chalk up one more reason to stop with sequels already.", "is_fresh": 0, "author": ["Karina Montgomery"]},
{"text": "Jeunet creates some scenes of genuine suspense, and some of the action packs a real punch.", "is_fresh": 1, "author": ["James Kendrick"]},
{"text": "If you need to read a review to decide if you want to see \"Alien Resurrection,\" you absolutely shouldn't be going.", "is_fresh": 0, "author": ["Kenneth Turan"]},
{"text": "The filmmaker's ghoulishly fecund imagination makes this tale murky that even the screen's toughest woman warrior remains largely stuck in the mud.", "is_fresh": 0, "author": ["Janet Maslin"]},
{"text": "If you consider 'Alien' and 'Aliens' to be the main course, then 'Alien Resurrection' is leftovers.", "is_fresh": 0, "author": ["James Berardinelli"]},
{"text": "Weaver obviously relishes playing this feral, sarcastic new Ripley, and her pleasure is infectious.", "is_fresh": 1, "author": ["Laura Miller"]},
{"text": "There is not a single shot in the movie to fill one with wonder.", "is_fresh": 0, "author": ["Roger Ebert"]},
{"text": "So campy that it almost plays like a sendup of the series. It is to 'Alien' what 'The Bride of Frankenstein' was to other 1930s Frankenstein movies, and it even shares some of the same themes.", "is_fresh": 1, "author": ["John Hartl"]},
{"text": "A lot of fun to watch, and easy to surrender to in the moment.", "is_fresh": 1, "author": ["Mary Brennan"]},
{"text": "A Gothic chasm of mayhem", "is_fresh": 1, "author": []},
{"text": "Joss Whedon's atrocious script single-handedly gives the series a frontal lobotomy.", "is_fresh": 0, "author": ["John Paul Powell"]},
{"text": "Sigourney Weaver is amazing to watch.", "is_fresh": 1, "author": ["MaryAnn Johanson"]},
{"text": "Not the best Alien film, but unquestionably the most thematically ambitious", "is_fresh": 1, "author": ["Carlo Cavagna"]},
{"text": "Delicate Winona Ryder is out place with her grizzled crew.", "is_fresh": 0, "author": ["Elspeth Haughton"]},
{"text": "'Alien Resurrection' does well by the classy series -- it's nowhere near as frightful and original as the first film, and offers less riveting action than the second.", "is_fresh": 1, "author": ["Jack Garner"]},
{"text": "About as good a sequel as you could expect for an aging franchise.", "is_fresh": 1, "author": ["Madeleine Williams"]},
{"text": "The wrong script for their particular style of moviemaking.", "is_fresh": 0, "author": ["Marty Mapes"]},
{"text": "Being sometimes grotesque but never scary, the movie gives up and decides, correctly, that it can be a very funny space comedy.", "is_fresh": 1, "author": ["Steve Rhodes"]},
{"text": "While too cold and formulaic to fully satisfy, \"Resurrection\" has enough darkly rewarding moments to warrant a visit.", "is_fresh": 1, "author": ["Edward Johnson-Ott"]},
{"text": "In mood, tone and imagery, this fourth installment in the esteemed horror series is a fascinating film under director Jean-Pierre Jeunet. But it's virtually impossible to follow.", "is_fresh": 0, "author": ["Susan Stark"]},
{"text": "A minor triumph of style over substance", "is_fresh": 1, "author": ["Marc Savlov"]},
{"text": "'This 'Alien' should never have been resurrected.", "is_fresh": 0, "author": ["Joe Baltake"]},
{"text": "The eerie encounter between Ripley and her failed \"forerunners\" is one of the most chilling sequences in any of the \"Alien\" films.", "is_fresh": 1, "author": ["James Sanford"]},
{"text": "I's a very good film which never fails to entertain.", "is_fresh": 1, "author": ["Ted Prigge"]},
{"text": "Falls prey to dumb horror conventions with this splattery sequel.", "is_fresh": 0, "author": ["Jeff Vice"]},
{"text": "What a letdown!", "is_fresh": 0, "author": ["Christopher Null"]},
{"text": "Spastically intriguing but ultimately empty experience.", "is_fresh": 0, "author": ["Bryant Frazer"]},
{"text": "The film is a marvel, a well-photographed feast of visual imagery.", "is_fresh": 1, "author": ["Louis B. Parks"]},
{"text": "A mix of twisted brilliance and drearily predictable sequel contrivances.", "is_fresh": 0, "author": ["Maitland McDonagh"]},
{"text": "This film should be an amazing thrill ride, but it has the emotional impact of a bowling ball at rest.", "is_fresh": 0, "author": ["Peter Stack"]},
{"text": "One of those rotten sci-fi/horror movies in which nonsense abounds", "is_fresh": 0, "author": ["Rob Blackwelder"]},
{"text": "Less frightening, but as much fun as ever.", "is_fresh": 1, "author": ["Richard Schickel"]},
{"text": "There's so much goo in the film, it looks like God sneezed on the set.", "is_fresh": 0, "author": ["Widgett Walls"]},
{"text": "A welcome return to [the series'] roots as a wild, reckless thrill ride.", "is_fresh": 1, "author": ["Michael Dequina"]},
{"text": "Murky and unworthy (especially of its director).", "is_fresh": 0, "author": ["David N. Butterworth"]},
{"text": "", "is_fresh": 1, "author": ["Lisa Schwarzbaum"]},
{"text": "", "is_fresh": 0, "author": []},
{"text": "", "is_fresh": 1, "author": ["Andrew Wright"]},
{"text": "", "is_fresh": 1, "author": ["Dragan Antulov"]},
{"text": "", "is_fresh": 0, "author": ["Leonard Schwarz"]},
{"text": "", "is_fresh": 1, "author": ["John R. McEwen"]},
{"text": "", "is_fresh": 1, "author": []},
{"text": "", "is_fresh": 1, "author": ["Robert Roten"]},
{"text": "", "is_fresh": 0, "author": ["Scott Renshaw"]},
{"text": "", "is_fresh": 1, "author": []}
]