[
{"reviews_count": "82", "title": "American History X", "avg_audience_rating": "4.2", "rotten_count": "14", "tomatometer": "83", "audience_score": "96", "avg_critic_rating": "7.3", "fresh_count": "68", "user_ratings_count": "479,293"},
{"text": "American History X advocates that \"those who ignore history are doomed to repeat it\"? It's a powerful social document and should be part of your film watching curriculum. ", "is_fresh": 1, "author": ["Blake Howard"]},
{"text": "Norton is an amazing actor, a hot-dog whose delight in transformation is infectious.", "is_fresh": 1, "author": ["David Edelstein"]},
{"text": "A well-made, well-acted and often violent film that offers a compelling portrait of redemption and the destructive nature of racism.", "is_fresh": 1, "author": []},
{"text": "This dark drama is not for kids.", "is_fresh": 0, "author": ["Charles Cassady"]},
{"text": "If didactic and overwrought at times, it's also powerful and persuasive. [Blu-ray]", "is_fresh": 1, "author": ["Peter Canavese"]},
{"text": "...a violent film on a weighty topic...frank and honest, its characters, actions, and ideas compelling the viewer to look further and become involved.", "is_fresh": 1, "author": ["John J. Puccio"]},
{"text": "Any idiot can make us wince at the ugliness of beatings and shootings.", "is_fresh": 0, "author": ["Rob Gonsalves"]},
{"text": "Two things hold the interest: Norton's astounding performance, and a feeling for the male reality of reactionary working class environments.", "is_fresh": 1, "author": ["Geoff Andrew"]},
{"text": "Well-intentioned and well-acted but unconvicning, this saga provides an instructive example to the simplistic approach taken by movies when tackling the social problem of racism.", "is_fresh": 1, "author": ["Emanuel Levy"]},
{"text": "American History X is flawed, yes, but is a worthwhile film that covers territories not dealt with in recent years.", "is_fresh": 1, "author": ["Robin Clifford"]},
{"text": "Pesado e inc\u00f4modo, discute o racismo com intelig\u00eancia e conta com uma interpreta\u00e7\u00e3o absolutamente impec\u00e1vel de Edward Norton.", "is_fresh": 1, "author": ["Pablo Villa\u00e7a"]},
{"text": "Derrick's journey to hell and the one back are portrayed organically and gradually.", "is_fresh": 1, "author": ["Ron Wells"]},
{"text": "If the message of the film gets a bit didatic, or the storyline balance is a little off ... it hardly matters in the end. American History X is unrelenting.", "is_fresh": 1, "author": ["Nate Yapp"]},
{"text": "It is Edward Norton's riveting performance as a smart kid seduced by horrible ideas that makes the story real. ", "is_fresh": 1, "author": ["Margaret A. McGurk"]},
{"text": "The problem is that Kaye, who's used to selling cars on TV, shoots Derek the Hater as lovingly as he would a new Volkswagen.", "is_fresh": 0, "author": ["Manohla Dargis"]},
{"text": "The film stars the electrifying Edward Norton in his best performance to date.", "is_fresh": 1, "author": ["Kevin N. Laforest"]},
{"text": "What partly redeems American History X from its most preachy excesses -- and makes it worth seeing -- is a brilliant, career-high performance by actor Edward Norton.", "is_fresh": 1, "author": ["Liam Lacey"]},
{"text": "Clumsy and exploitative.", "is_fresh": 0, "author": ["Peter Keough"]},
{"text": "A work of impressive scale and craft and not a movie that's easy to dismiss in the end.", "is_fresh": 1, "author": ["Andrew O'Hehir"]},
{"text": "The film works because Norton's performance is so rivetting and uncompromising.", "is_fresh": 1, "author": ["Louis B. Hobson"]},
{"text": "Con soberbias actuaciones, ejemplifica como el racismo es una de las ideas m\u00e1s huecas y est\u00fapidas que tiene el ser humano", "is_fresh": 1, "author": ["Jorge Avila Andrade"]},
{"text": "does a searing job of portraying the neo-Nazi community and what makes them tick.", "is_fresh": 1, "author": ["James Kendrick"]},
{"text": "Though well-intentioned, turns out to be a simplistic and unconvincing look at a serious problem.", "is_fresh": 0, "author": ["Kenneth Turan"]},
{"text": "American History X has enough fiery acting and provocative bombast to make its impact felt!", "is_fresh": 1, "author": ["Janet Maslin"]},
{"text": "American History X may be flawed, but it's not easily forgotten.", "is_fresh": 1, "author": ["James Berardinelli"]},
{"text": "Kaye wants to say something about what produces a skinhead today, and though he doesn't succeed fully in this endeavor, he does take us a significant part of the way.", "is_fresh": 1, "author": ["Jonathan Rosenbaum"]},
{"text": "The film is always interesting and sometimes compelling, and it contains more actual provocative thought than any American film on race since Do the Right Thing.", "is_fresh": 1, "author": ["Roger Ebert"]},
{"text": "The film's most incongruous and embarrassing scene is a black-on-white basketball game: shot like a Nike ad, it trivialises the subject.", "is_fresh": 0, "author": ["Andrew Collins"]},
{"text": "American History X pulls open the wound of American racism and peers inside!", "is_fresh": 1, "author": ["Norman Green"]},
{"text": "Alternately didactic and visceral, American History X is both difficult to watch and impossible not to.", "is_fresh": 1, "author": ["Wade Major"]},
{"text": "Brutal, provocative!", "is_fresh": 1, "author": []},
{"text": "Riveting!", "is_fresh": 1, "author": ["Owen Gleiberman"]},
{"text": "if you've forgotten how to stay calm while somebody probes you with a pointed object such as racism -- stay home or make sure you watch this film to the end. ", "is_fresh": 0, "author": ["Ross Anthony"]},
{"text": "I just wish the film didn't give us an entire year's history curriculum about racism in two hours.", "is_fresh": 1, "author": ["Dennis Schwartz"]},
{"text": "A powerful and disturbing social document.", "is_fresh": 1, "author": ["Bruce Kirkland"]},
{"text": "Norton is by turns frightening and heartbreaking, angry and serene. I don't think I've ever seen a character in film with a more believably wide range.", "is_fresh": 1, "author": ["MaryAnn Johanson"]},
{"text": "Undeniably one of the more powerful films you'll see this year!", "is_fresh": 1, "author": ["Jim Judy"]},
{"text": "For Director Tony Kaye to disown this is irrational beyond belief", "is_fresh": 1, "author": ["Carlo Cavagna"]},
{"text": "It's difficult to sit through, but well worth the effort.", "is_fresh": 1, "author": ["Brian Webster"]},
{"text": "Having reduced racism to a kind of adolescent coping mechanism, X takes a mildly curious path to its foregone conclusion, writer-director Tony Kaye putting his leads through the somehow comforting 'hood-film paces.", "is_fresh": 0, "author": ["Gary Dauphin"]},
{"text": "Norton delivers a disturbing, heart-felt and ultimately heart-breaking performance.", "is_fresh": 1, "author": ["Jack Garner"]},
{"text": "A moving and involving film, tackling the tough subject of racism in America, displaying its causes and allures, as well as its ultimate senselessness.", "is_fresh": 1, "author": ["Madeleine Williams"]},
{"text": "This is a very good film, visually terrific, and containing that awesome Edward Norton performance that I hope gets remembered at Oscar time.", "is_fresh": 1, "author": ["Erik Childress"]},
{"text": "What a fabulous debut for Kaye: see it.", "is_fresh": 1, "author": ["Urban Cinefile Critics"]},
{"text": "If you can stomach the graphic nature of the film, you will witness the most honest depiction of modern American racism since Spike Lee' s Do the Right Thing.", "is_fresh": 1, "author": ["Jeffrey Huston"]},
{"text": "Among the biggest deficiencies in the story is the lack of proper motivation for Derek's beliefs and actions.", "is_fresh": 0, "author": ["Steve Rhodes"]},
{"text": "No other feature film takes such a cold hard look at the lure, the culture, and the brotherhood of white supremacy.", "is_fresh": 1, "author": ["Marty Mapes"]},
{"text": "The tone is so muddled that there's a whiff of exploitation to this movie that's unsettling at best.", "is_fresh": 0, "author": ["Susan Stark"]},
{"text": "A violent, sober cautionary tale, strictly middle-of-the-road when it comes to its much-ballyhooed politics and grimly obvious in its telling.", "is_fresh": 1, "author": ["Marc Savlov"]},
{"text": "As provocative and daring as it is, the film is also rather simplistic and obvious.", "is_fresh": 1, "author": ["Joe Baltake"]},
{"text": "Don't miss out on this one.", "is_fresh": 1, "author": ["Matt Easterbrook"]},
{"text": "When Hollywood attacks a volatile issue, it inevitably spoon-feeds you the main components of the issue several times over.", "is_fresh": 0, "author": ["Paul Tatara"]},
{"text": "Norton is superb here.", "is_fresh": 1, "author": ["Jeff Vice"]},
{"text": "While this movie is sometimes overbaked, it is the first major studio release in a while to engross wall-to-wall.", "is_fresh": 1, "author": ["Mike Clark"]},
{"text": "Edward Norton is brilliant as Derek because he becomes him.", "is_fresh": 1, "author": ["Matt Lawrence"]},
{"text": "Wields undeniable power despite its shaky dramatic contrivances.", "is_fresh": 1, "author": ["Kevin Lally"]},
{"text": "The ending is a misfire.", "is_fresh": 0, "author": ["Mick LaSalle"]},
{"text": "An ambitious, well-acted film!", "is_fresh": 1, "author": ["Craig Marine"]},
{"text": "...a brutal and disturbing movie that discusses and demonstrates racism, prejudice, and human blindness.", "is_fresh": 1, "author": ["David Keyes"]},
{"text": "[Kaye] employs some audacious and creative storytelling.", "is_fresh": 1, "author": ["Rob Blackwelder"]},
{"text": "A confused, randomly compelling family melodrama.", "is_fresh": 0, "author": ["Richard Corliss"]},
{"text": "One of the best told movies of the year!", "is_fresh": 1, "author": ["JoBlo"]},
{"text": "A compelling, if somewhat choppy, tragic drama!", "is_fresh": 1, "author": ["Kevin Maynard"]},
{"text": "Uncompromising piece of filmmaking, intelligently written and dramatically shot!", "is_fresh": 1, "author": ["Ken Fox"]},
{"text": "Arrestingly photographed, and boasting another intelligent and muscular performance by the chameleon-like Edward Norton, American History X is good!", "is_fresh": 1, "author": ["Michael O'Sullivan"]},
{"text": "This journey to unpleasantville is too often manipulative and strains to maintain tension.", "is_fresh": 0, "author": ["David Hunter"]},
{"text": "This jolting, superbly acted film will draw serious-minded upscale viewers interested in cutting-edge fare and the latest outstanding performance by Edward Norton.", "is_fresh": 1, "author": ["Todd McCarthy"]},
{"text": "Taut, tension-filled and violent!", "is_fresh": 1, "author": ["Harvey S. Karten"]},
{"text": "An intelligently provocative film!", "is_fresh": 1, "author": ["Jay Carr"]},
{"text": "A very good film with some dazzling moments and one truly outstanding performance!", "is_fresh": 1, "author": ["John Petrakis"]},
{"text": "Shockingly powerful!", "is_fresh": 1, "author": ["Gene Siskel"]},
{"text": "The film packs a hell of a punch!", "is_fresh": 1, "author": ["Edward Johnson-Ott"]},
{"text": "Folks, this powerful movie really impressed me with its subtle steps towards its message.", "is_fresh": 1, "author": ["Greg Dean Schmitz"]},
{"text": "A very good movie.", "is_fresh": 1, "author": ["Ted Prigge"]},
{"text": "What brings it above the problems with its source material is fine acting all the way around.", "is_fresh": 1, "author": ["Widgett Walls"]},
{"text": "A powerful and disturbing drama about prejudice.", "is_fresh": 1, "author": ["Bob Bloom"]},
{"text": "For all its faults, still makes a lasting, thought-provoking impression.", "is_fresh": 1, "author": ["Michael Dequina"]},
{"text": "We get that racism is bad. American History X works because it risks showing us why some people believe it's good.", "is_fresh": 1, "author": ["Scott Renshaw"]},
{"text": "", "is_fresh": 1, "author": ["Garth Franklin"]},
{"text": "", "is_fresh": 1, "author": ["Dragan Antulov"]},
{"text": "", "is_fresh": 1, "author": ["James Rocchi"]},
{"text": "", "is_fresh": 1, "author": ["Ian Waldron-Mantgani"]}
]