[
{"reviews_count": "55", "title": "Beetlejuice", "avg_audience_rating": "3.5", "rotten_count": "9", "tomatometer": "84", "audience_score": "82", "avg_critic_rating": "7.2", "fresh_count": "46", "user_ratings_count": "916,376"},
{"text": "The story almost comes off the rails, but Beetlejuice's charm lies more in the execution. The movie is crammed with visual invention and snappy comedy.", "is_fresh": 1, "author": ["Steve Rose"]},
{"text": "For sheer off-the-wall audacity, Tim Burton's demented Beetlejuice certainly demands respect, even if it's more enjoyable in concept than in execution.", "is_fresh": 1, "author": ["David Ansen"]},
{"text": "Beetlejuice is so memorable and iconic because Burton took chances and dared to be different. ", "is_fresh": 1, "author": ["Scott Menzel"]},
{"text": "The movie's such a riot of invention we let him take it more or less anywhere.", "is_fresh": 1, "author": ["Tim Robey"]},
{"text": "Betelgeuse doesn't fully emerge until the film is half over, but Michael Keaton makes a strong enough impression in the role to explain why the picture is named after his character. ", "is_fresh": 1, "author": ["Jay Boyar"]},
{"text": "[Tim] Burton's marvellously imaginative view of the afterlife as a ghoulish extension of mundane earthbound problems is a visionary masterstroke crammed with wit and invention.", "is_fresh": 1, "author": ["Alan Jones"]},
{"text": "An overly ambitious special-effects comedy obviously influenced by the success of Ghostbusters.", "is_fresh": 0, "author": ["Gene Siskel"]},
{"text": "Starting with the title, not much about this movie makes sense. That's what's fun about it.", "is_fresh": 1, "author": ["Staff"]},
{"text": "Amazingly, it all still feels fresh, even though Burton has since become something of his own franchise since.", "is_fresh": 1, "author": ["Ian Freer"]},
{"text": "The film is a dazzling display of director Tim Burton's unique pop culture sensibility.", "is_fresh": 1, "author": ["Kevin Thomas"]},
{"text": "Much as Joe Dante did in ``Gremlins`` and ``Innerspace,`` Burton delights in creating in live-action format the impossible effects of cartoons and comic strips.", "is_fresh": 1, "author": ["Dave Kehr"]},
{"text": "It's an experience, rather than another helping of the same old thing.", "is_fresh": 1, "author": ["Kyle Counts"]},
{"text": "Early Tim Burton is creepy, dark fun for tweens and teens.", "is_fresh": 1, "author": ["Scott G. Mignola"]},
{"text": "With its sophisticated yet accessible blend of comedy and the macabre, I knew Beetlejuice was likely to be one of those films I would never tire of. But a classic? It's been 20 years. I'm willing to throw that blue ribbon on it.", "is_fresh": 1, "author": ["Ryan Cracknell"]},
{"text": "Quite possibly the most bizarre and flat-out surreal effort of Tim Burton's career...", "is_fresh": 1, "author": ["David Nusair"]},
{"text": "Tim Burton's imagination jumped into the saddle and held onto the bridle with Beetlejuice.", "is_fresh": 1, "author": ["Eric Henderson"]},
{"text": "...weird and unorthadox and innovative and clever, but the main thing is that it's funny.", "is_fresh": 1, "author": ["John J. Puccio"]},
{"text": "The character of Beetlejuice is hazy because the writers can never decide if he's a villain or an anti-hero...", "is_fresh": 0, "author": ["Felix Vasquez Jr."]},
{"text": "One of [Burton's] flat-out funniest films, with Michael Keaton giving a performance for the ages.", "is_fresh": 1, "author": ["Jeffrey M. Anderson"]},
{"text": "Beetlejuice means something good: that imaginative artists can bring a fading genre back from the dead.", "is_fresh": 1, "author": ["Richard Corliss"]},
{"text": "A surreal, demented delight.", "is_fresh": 1, "author": []},
{"text": "A minor classic.", "is_fresh": 1, "author": []},
{"text": "Darkly humorous and visually inventive, Burton's second film, which deservedly won the Makeup Oscar, fulfilled the promise he showed in his debut, launching a brilliant career with Batman and other original movies, many of which starring Johnny Depp.", "is_fresh": 1, "author": ["Emanuel Levy"]},
{"text": "Luckily, Keaton pops up from his grave to liven things up when the antics pitting the good ghosts against the intruders become a trite cat & mouse game.", "is_fresh": 1, "author": ["Variety Staff"]},
{"text": "Very clever black comedy full of great characters and situations.", "is_fresh": 1, "author": ["Steve Crum"]},
{"text": "Some of the most surprisingly enjoyable viewing in years.", "is_fresh": 1, "author": ["Steve Grant"]},
{"text": "a vehicle perfectly tailored for Burton's peculiar eye", "is_fresh": 1, "author": ["Keith Breese"]},
{"text": "funny and completely twisted", "is_fresh": 1, "author": ["Rich Cline"]},
{"text": "An appealing mess.", "is_fresh": 1, "author": ["Jonathan Rosenbaum"]},
{"text": "The Movie with it all!", "is_fresh": 1, "author": ["Clint Morris"]},
{"text": "Leave it to Tim Burton, with his affinity for the misunderstood monster, to be as sweet as he is funny, and not terribly scary, though that's part of his point...", "is_fresh": 1, "author": ["MaryAnn Johanson"]},
{"text": "Brilliant dark comedy", "is_fresh": 1, "author": ["Fred Topel"]},
{"text": "Burton's breakthrough film. Marred by boring leads.", "is_fresh": 1, "author": ["Ken Hanke"]},
{"text": "[The] actors, not surprisingly, are limited by the stupidity of their material.", "is_fresh": 0, "author": ["Janet Maslin"]},
{"text": "This comic spook tale borrows a page from the Topper storyline, but does it with imaginative fun and style.", "is_fresh": 1, "author": ["Marjorie Baumgarten"]},
{"text": "Tim Burton's freshest work, and perhaps the purest embodiment of his funky world view. Count the number of people whose careers were made here; that's no fluke.", "is_fresh": 1, "author": ["Rob Vaux"]},
{"text": "An excellent, twisted, funny film back when Burton didn't get in the way of his own filmmaking.", "is_fresh": 1, "author": ["Widgett Walls"]},
{"text": "One of Tim Burton's earliest works, and quite possibly his best, when his eager energy wasn't completely swamped by his self-indulgence.", "is_fresh": 1, "author": ["James Rocchi"]},
{"text": "One of the all-time great ghost movies, and certainly the funniest.", "is_fresh": 1, "author": ["Jeffrey Westhoff"]},
{"text": "Coasts by like a rocket, thanks to Keaton's inspired performance and Burton's dark-carnival lunacy.", "is_fresh": 1, "author": ["Scott Weinberg"]},
{"text": "The movie is all anticlimax once we realize it's going to be about gimmicks, not characters.", "is_fresh": 0, "author": ["Roger Ebert"]},
{"text": "The joy of Beetlejuice is its completely bizarre -- but perfectly realized -- view of the world.", "is_fresh": 1, "author": ["Desson Thomson"]},
{"text": "Not since Ghostbusters have the spirits been so uplifting.", "is_fresh": 1, "author": ["Rita Kempley"]},
{"text": "Burton makes good use of all the possibilities offered by the plot and gives us some wildly original creatures, most notably Michael Keaton as the terrible Beetlejuice.", "is_fresh": 1, "author": ["James O'Ehley"]},
{"text": "[A] tournee of mediocre special effects.", "is_fresh": 0, "author": ["Mark R. Leeper"]},
{"text": "", "is_fresh": 1, "author": ["Cole Smithey"]},
{"text": "", "is_fresh": 0, "author": ["Chuck O'Leary"]},
{"text": "", "is_fresh": 1, "author": ["Joe Williams"]},
{"text": "", "is_fresh": 0, "author": ["Greg Maki"]},
{"text": "", "is_fresh": 1, "author": ["Michael Dequina"]},
{"text": "", "is_fresh": 1, "author": ["Carol Cling"]},
{"text": "", "is_fresh": 0, "author": ["John Esther"]},
{"text": "", "is_fresh": 0, "author": ["Jules Brenner"]},
{"text": "", "is_fresh": 1, "author": ["Christopher Smith"]},
{"text": "", "is_fresh": 1, "author": ["Mark Palermo"]}
]