[
{"reviews_count": "382", "title": "Blade Runner", "avg_audience_rating": "4.1", "rotten_count": "51", "tomatometer": "87", "audience_score": "81", "avg_critic_rating": "8.2", "fresh_count": "331", "user_ratings_count": "58,074"},
{"text": "Denis Villeneuve flawlessly builds on the surrealism, mystery, and intrigue that made the original Blade Runner a cult classic.", "is_fresh": 1, "author": ["Kent Garrison"]},
{"text": "Women are aggressively objectified for the male gaze, while people of color are simply erased.", "is_fresh": 0, "author": ["Li Lai"]},
{"text": "In the end, Villeneuve's allusion to Nabokov confesses the derivative status of his sequel...", "is_fresh": 1, "author": ["Namwali Serpell"]},
{"text": "Convincingly well-structured, profound, purposeful and without a prosaic bone in its bountiful body 'Blade Runner 2049\u2032 is stunningly sumptuous Science Fiction theater for the thinking man and for the progressive machinery master-blasters as well.", "is_fresh": 1, "author": ["Frank Ochieng"]},
{"text": "Luckily, thanks to Denis Villeneuve's deft direction and an intelligent story, Blade Runner 2049 is not only a worthy sequel, it's an expansion and evolution of the mythology and themes.", "is_fresh": 1, "author": ["Michelle Kisner"]},
{"text": "Blade Runner 2049 is a movie drenched in frills, crafted with a discerning eye and a work of art that will be long debated years from now.", "is_fresh": 1, "author": ["Matt Ward"]},
{"text": "With a style so simultaneously reverent of the past and boundary pushing today, the genius of craft behind Blade Runner 2049 truly is its greatest asset. ", "is_fresh": 1, "author": ["Ed Travis"]},
{"text": "Villeneuve has undeniably achieved something grand, making a sequel with insurmountable worth in its own right.", "is_fresh": 1, "author": ["Matt Oakes"]},
{"text": "Villeneuve's masterpiece is an impeccably realised, extraordinary sci-fi neo-noir that will be noted as one of the greatest ever blockbusters. ", "is_fresh": 1, "author": ["Cameron Frew"]},
{"text": "Blade Runner 2049 is a worthy successor to the original film, avoiding the mistakes of other recent revivals and bringing just enough new to the table.", "is_fresh": 1, "author": ["Jennifer Heaton"]},
{"text": "...lays out entirely new waves of questions that will be chewed on and puzzled over in the years and decades to come, assuring that it doesn't just fade away like tears in the rain.", "is_fresh": 1, "author": ["Zaki Hasan"]},
{"text": "I don't know that it's a \"masterpiece\" on par with the first one, but it's an entirely solid science fiction feature in its own right with a lot of intriguing ideas at its core.", "is_fresh": 1, "author": ["Bob Chipman"]},
{"text": "Though thematically ambitious and visually unmatched, Blade Runner 2049 isn't the kind of crowd-pleasing blockbuster filmmaking that routinely packs the multiplexes.", "is_fresh": 1, "author": ["Sean Mulvihill"]},
{"text": "Captivating visuals, a haunting score, and a cast that's uniformly at the top of their game make it more of an experience than a film. It's nothing short of an electric dream.", "is_fresh": 1, "author": ["Johnny Gayzmonic"]},
{"text": "Any follow-up to Ridley Scott's Blade Runner was going to be an uphill struggle. ", "is_fresh": 0, "author": ["Niall Browne"]},
{"text": "Much like the 1982 original, this is a visual marvel - with director Denis Villeneuve meticulously crafting this futuristic world in great detail - although the narrative lacks the same spark.", "is_fresh": 1, "author": ["Micheal Compton"]},
{"text": "A perfect sequel and, arguably, film in recent memory.", "is_fresh": 1, "author": ["Nguyen Le"]},
{"text": "The world-building here is so intricate, so propulsive. It is almost entirely introspective, the film at times seeming to bob and undulate like an ice floe at sea.", "is_fresh": 1, "author": ["Tomas Trussow"]},
{"text": "Perhaps Blade Runner 2049's biggest flaw is style over substance. Check it out for the beautiful look, but be careful diving below the surface. ", "is_fresh": 0, "author": ["Kimberly Pierce"]},
{"text": "It's a stunning movie, it's epic, with an epic soundtrack.", "is_fresh": 1, "author": ["Achara Kirk"]},
{"text": "Villeneuve is easily up there with my favorite directors now.", "is_fresh": 1, "author": ["Jaby Koay"]},
{"text": "It's a movie with large spaces that gives us room, both physically and temporally, to let experiences sink in, to enjoy character moments, to worry about danger, and to appreciate nods (large and small) to the earlier film.", "is_fresh": 1, "author": ["Abbie Bernstein"]},
{"text": "... it's great to see a director and his crew being given the freedom to be eccentric, contemplative, and create a film that doesn't leave you when you exit the dark hall.", "is_fresh": 1, "author": ["Akhil Arora"]},
{"text": "Wallace's desire and K's secret are, of course, connected, because in this gorgeous new Blade Runner, the narrative slots neatly together in a way that's tidy but unsatisfying.", "is_fresh": 1, "author": ["Molly Templeton"]},
{"text": "Directed by Arrival maestro Denis Villeneuve, Blade Runner 2049 is a film that, like all of us-human and replicant alike- actively wrestles with its own existence.", "is_fresh": 1, "author": ["Adam Epstein"]},
{"text": "Blade Runner 2049 is all experience, sound and rain, but that may be fitting for an age defined by artificial living, electric dreams and lonely desires.", "is_fresh": 1, "author": ["Alci Rengifo"]},
{"text": "Find you an android lover, curl up to a nice movie. ", "is_fresh": 1, "author": ["Tony Baker"]},
{"text": "It is a startling reminder that even in today's cinema, where CGI spectacles are commonplace, big budget films can produce remarkable works of art.", "is_fresh": 1, "author": ["Joseph Walsh"]},
{"text": "Sadly, although the film has all the markings of a great sequel, it lacks any passion or sentiment for most of the story.", "is_fresh": 0, "author": ["Pamela Powell"]},
{"text": "Look elsewhere for your fix, action junkies, and don't judge \"2049\" for what it isn't.", "is_fresh": 1, "author": ["Ruben Rosario"]},
{"text": "Small miracles do exist in Blade Runner 2049, but the organic beauty and possibility they represent gets buried beneath ponderous ruminations and plot twists ripped from the pantheon of generic science fiction. ", "is_fresh": 0, "author": ["Glenn Heath Jr."]},
{"text": "Denis Villeneuve, the director of \"Arrival\" (2016) and \"Sicario\" (2015) is undoubtedly an extraordinary storyteller, and the multidimensional tale of the new \"Blade Runner\" is no exception. [Full review in Spanish]", "is_fresh": 1, "author": ["Laura Hiros"]},
{"text": "Gen X was the original audience for Blade Runner, but this film is an insult to it, or maybe just an unnecessary recapitulation of how things are for that generation. ", "is_fresh": 0, "author": ["A.S. Hamrah"]},
{"text": "If every new film made today is to a greater or lesser degree an echo box of past possibilities, what's notable is how much Villeneuve gives those echoes room to breathe and to be new. ", "is_fresh": 1, "author": ["Jonathan Romney"]},
{"text": "This movie is visually stunning. It is so beautiful. Every single shot in this movie feels like a work of art. ", "is_fresh": 1, "author": ["Andre Meadows"]},
{"text": "It's a very self aware continuation, but not a complete replicant. ", "is_fresh": 1, "author": ["Amelia Navascues"]},
{"text": "[VIDEO ESSAY] All spectacle and no substance describes Denis Villeneuve's predictably overwrought yet lightweight sci-fi snoozefest.", "is_fresh": 0, "author": ["Cole Smithey"]},
{"text": "Like its predecessor, Blade Runner 2049 is often difficult to enjoy as traditional entertainment yet impossible not to marvel at. And its merit will no doubt be debated for years to come.", "is_fresh": 1, "author": ["Megan Basham"]},
{"text": "With it now reaching home media, it's time to ask: is it really that good? In brief: yes.", "is_fresh": 1, "author": ["Kieron Moore"]},
{"text": "It was a proper Blade Runner sequel...it did everything it needed to do, which was expand on the universe and tell a story that felt like it had to be told.", "is_fresh": 1, "author": ["Jeremy Jahns"]},
{"text": "Ravishing visuals, expansive worlds, performances that range from compelling to stunning.", "is_fresh": 1, "author": ["Joe Reid"]},
{"text": "So visually beautiful, I didn't even care what I was watching. ", "is_fresh": 1, "author": ["Steph Cozza"]},
{"text": "Blade Runner fans will love every minute of this homage and its richly imagined futuristic world, but younger viewers who are more into Gosling than they are sci-fi will find the beginning slow-going. . . .", "is_fresh": 1, "author": ["James Plath"]},
{"text": "Blade Runner 2049 boasts impeccable direction and marvelous camerawork, on top of astonishing production design, visual effects, and music. However, when it comes to the film's thinly-stretched story, it leaves something to be desired.", "is_fresh": 0, "author": ["Jeff Beck"]},
{"text": "... complements the narrative arcs of its predecessor... [Full review in Spanish]", "is_fresh": 1, "author": ["Uriel Barco"]},
{"text": "Villeneuve has created a genuinely thoughtful piece of sci-fi which escapes the gravitational pull of its inspiration to become something - to paraphrase Dr. Eldon Tyrrell - more Blade Runner than Blade Runner.", "is_fresh": 1, "author": ["John Bleasdale"]},
{"text": "It seems designed to watch itself even if no one showed up, like a rotating hall of mirrors. The film doesn't need us.", "is_fresh": 0, "author": ["Scout Tafoya"]},
{"text": "... a logical follow-up to Villeneuve's moody, thoughtful sci-fi work Arrival.", "is_fresh": 1, "author": ["Al Hoff"]},
{"text": "2049's future feels safer and cleaner, lacking Blade Runner's sensuous grime (there's not a single cloud of cigarette smoke), but its imagery is no less striking, particularly when Villeneuve and Deakins go wide with hypnotic vistas of a decaying Earth. ", "is_fresh": 1, "author": ["Erik Henriksen"]},
{"text": "\"Blade Runner 2049,\" like most sequels, feels hollow compared with the original. That said, it's still visually masterful and worth watching.", "is_fresh": 1, "author": ["Loren King"]},
{"text": "It's an arresting blend of artistic and blockbuster sensibilities that will stand the test of time right beside its trailblazing predecessor", "is_fresh": 1, "author": ["Robert Kojder"]},
{"text": "Villeneuve sets a bar for sci-fi sequels.", "is_fresh": 1, "author": ["Matt Patches"]},
{"text": "Blade Runner 2049 is an intelligent iteration, 35 years in the making. ", "is_fresh": 1, "author": ["Eli Glasner"]},
{"text": "Boring with spasms of viciousness: whee.", "is_fresh": 0, "author": ["Gregory Weinkauf"]},
{"text": "If you want to bask in a stylistic expression of the introspective search for self, you won't be disappointed.", "is_fresh": 1, "author": ["Alachia Queen "]},
{"text": "A visually-striking yet often ineffective sequel...", "is_fresh": 0, "author": ["David Nusair"]},
{"text": "Blade Runner 2049 is one of those rare times when a sequel to a classic nails it.", "is_fresh": 1, "author": ["Danielle Solzman"]},
{"text": "My immediate wish was for a shorter, more exciting film. ", "is_fresh": 0, "author": ["Paul Chambers"]},
{"text": "Do sci-fi fans dream of immersive future worlds, neon visuals scored by dark synth notes, and existential musings on what it means to be human? Yes, and they dream of Blade Runner 2049.", "is_fresh": 1, "author": ["Sarah Ward"]},
{"text": "It is richer in ideas than is the original film, though it lacks the iconic visuals of that first film did so well. ", "is_fresh": 1, "author": ["Mark R. Leeper"]},
{"text": "This awe-inducing spectacle not only follows up on some major lingering questions, but also marinates longer on the original's heady concepts and gift for world-building.", "is_fresh": 1, "author": ["Courtney Howard"]},
{"text": "Sequels will come and go, and it might be some time before Hollywood throws this much money and this much prestige at a franchise staple like this. But at least we have this movie for now. ", "is_fresh": 1, "author": ["Chris Evangelista"]},
{"text": "Stunning visuals and potent storytelling combine for one stirring sci-fi thriller.", "is_fresh": 1, "author": ["Wesley Lovell"]},
{"text": "In the end, for all its pleasures, it's difficult to view Blade Runner 2049 as anything but an elaborate echo of the original, neither true sequel nor reboot, unclear of its own identity.", "is_fresh": 0, "author": ["Melissa Anderson"]},
{"text": "Beyond the thrill of seeing Scott's whole world resurrected in deep focus, there's a palpable absence of real feelings. Outside of K, we never seem to get close enough to any of the characters to really care about their outcome.", "is_fresh": 1, "author": ["Katherine Monk"]},
{"text": "This movie is obsessed with the idea of women, and I don't mean that in a good way.", "is_fresh": 0, "author": ["Lauren Jernigan"]},
{"text": "Blade Runner 2049 is director Dennis Villeneuve's best film yet. It's an audio-visual masterclass that will be best experienced in IMAX.", "is_fresh": 1, "author": ["Rachit Gupta"]},
{"text": "A terrific sequel to an iconic film. ", "is_fresh": 1, "author": ["Linda Cook"]},
{"text": "Denis Villeneuve a hives a perfect balance between style and emotion. [Full Review in Spanish]", "is_fresh": 1, "author": ["Fernanda Sol\u00f3rzano"]},
{"text": "Dennis Villeneuve's devotion to Ridley Scott's achievements in the first film are clear from the first frame of this film. [Full Review in Spanish]", "is_fresh": 1, "author": ["Juanma Fern\u00e1ndez Par\u00eds"]},
{"text": "A visually stunning and emotionally rich exploration into the eternal questions that plague creation and creator.", "is_fresh": 1, "author": ["Matthew Pejkovic"]},
{"text": "Best described as a drama as opposed to an action film, Blade Runner 2049 offers a chilling view of our future.", "is_fresh": 1, "author": ["Matthew Toomey"]},
{"text": "Blade Runner 2049 is remarkable in its willingness to embrace the original film's slow pacing and philosophical musings. But does it add up to more than just a succession of stunning images and thought experiments? It's difficult to tell. ", "is_fresh": 1, "author": ["Nathanael Hood"]},
{"text": "Why do producers spend millions on stars and special effects and forget to hire writers?", "is_fresh": 0, "author": ["Christopher Frizzelle"]},
{"text": "Blade Runner 2049 honours and even amplifies the vision of its predecessor.", "is_fresh": 1, "author": ["Rashid Irani"]},
{"text": "A masterful progression from the original film.", "is_fresh": 1, "author": ["John Serba"]},
{"text": "There's not going to be a more stunningly composed film this year than \"Blade Runner 2049\". Director Denis Villeneuve and cinematographer Roger Deakins have crafted a remarkable, immersive, sensory experience that embraces you wholly.", "is_fresh": 1, "author": ["Blake Howard"]},
{"text": "Extends and deepens the 1982 original sci-fi noir, expanding on the apocalyptic cyberpunk vision and further exploring fundamental questions about what defines humanity.", "is_fresh": 1, "author": ["Annlee Ellingson"]},
{"text": "In the midst of its bleak dystopian vision, I found Blade Runner 2049's affirmation of the value of individual life to be surprisingly hopeful.", "is_fresh": 1, "author": ["Joel Mayward"]},
{"text": "Director Denis Villeneuve is the modern master of empty, thundering portent, and the dystopic future cinematic universe of Blade Runner gives him a gigantic space to practice his darkly didactic arts.", "is_fresh": 0, "author": ["Daniel Barnes"]},
{"text": "Denis Villeneuve has created a modern work of art.", "is_fresh": 1, "author": ["Diane Pershing"]},
{"text": "Denis Villeneuve is fast approaching the upper echelons of modern-day directors, and his vision here is so well-defined and executed that it wouldn't be a far stretch to say he has already arrived. ", "is_fresh": 1, "author": ["Neil Soans"]},
{"text": "An audiovisual gem. A cinematic achievement. One of the best sequels ever. It was worth the wait. [Full review in Spanish]", "is_fresh": 1, "author": ["Fico Cangiano"]},
{"text": "Like its predecessor, a film preoccupied with its ideas, expanded through pure cinematic ambition. [Full review in Spanish]", "is_fresh": 1, "author": ["Mario Alegre"]},
{"text": "A masterpiece that expands the strength of a classic film. [Full review in Spanish] ", "is_fresh": 1, "author": ["Emmanuel B\u00e1ez"]},
{"text": "In whatever category you file it, 2049 is some kind of miracle: Its submersion in Blade Runner's themes and ambiguities, in its essential mystery, feels both familiar and new. And then it somehow goes even deeper. ", "is_fresh": 1, "author": ["Eric Melin"]},
{"text": "It's a story about fathers and children, about memories and war. But it's the love story - problematic sexual politics and all - that feels so real.", "is_fresh": 1, "author": ["Rochelle Siemienowicz"]},
{"text": "... there is a certain type of cinema that can be quite efficient, but it has no soul. Blade Runner 2049 is of that type. [Full review in Spanish]", "is_fresh": 0, "author": ["Ernesto Diezmartinez"]},
{"text": "With Blade Runner 2049, Villeneuve hasn't just outdone himself. He has outdone most directors working today.", "is_fresh": 1, "author": ["Roe McDermott"]},
{"text": "the best kind of sequel in that it reminds us of what was worthwhile about its predecessor without being shackled to its achievements", "is_fresh": 1, "author": ["James Kendrick"]},
{"text": "[Mimics] the very particular look, sound and feel of the earlier film with eerie specificity ... generally hugely enjoyable ... story-telling is its weakest aspect ... the long third act has elements that are simply incomprehensible.", "is_fresh": 1, "author": ["CJ Johnson"]},
{"text": "[Villeneuve] capably traces the broad strokes of Scott's hard-boiled, mostly action-free original, but he bungles the buttoned-up postmodernism.", "is_fresh": 0, "author": ["J. Olson"]},
{"text": "The film dares to be ambiguous, but ambiguity is a bad fit with the current critical mood that art must be prescriptive rather than reflective.", "is_fresh": 1, "author": ["Tim Hayes"]},
{"text": "I found this new project to be vastly superior in story, acting, score and overall production.", "is_fresh": 1, "author": ["Danny Minton"]},
{"text": "Denis Villeneuve's sequel to Ridley Scott's 1982 science-fiction classic is very much the French-Canadian filmmaker's own work, building and maintaining a tension through the individual confronting an uncertain environment.", "is_fresh": 1, "author": ["Craig Mathieson"]},
{"text": "I really, really liked looking at this.", "is_fresh": 1, "author": ["Bob Grimm"]},
{"text": "For all the admirable world-building and faithfulness to the style of the original, the story is almost a let-down and the soporific pace of the film makes it a tough slog.", "is_fresh": 0, "author": ["Tim Martain"]},
{"text": "Sequels or remakes are seldom as good as the original film (like this year's 'Kingsman: The Golden Circle') but this is an exception. It takes the most intriguing elements of the original film and expands on them. Also, the acting is better.", "is_fresh": 1, "author": ["Robert Roten"]},
{"text": "Two valid readings of the relationship between Joi and K instantaneously begin when she lights a drag of his smoke, and within that paradox is the heart of the entire Blade Runner universe.", "is_fresh": 1, "author": ["David Crow"]},
{"text": "It is a studied and intelligent sequel that feels natural, but best of all it feels necessary, which is a mighty feat for a belated sequel.", "is_fresh": 1, "author": ["Matt Neal"]},
{"text": "In the hands of a director at the top of his game, Blade Runner 2049 is a blockbuster with brains, heart and an abundance of style, that will certainly reward repeat viewings.", "is_fresh": 1, "author": ["Alistair Ryder"]},
{"text": "This imperfect, messy, but energetic film deserves to be seen without any knowledge of the plot. The less you know, the better.", "is_fresh": 1, "author": ["Jordan Ruimy"]},
{"text": "Blade Runner 2049 is made with great care, creating a close balance between the homage and a unique story, capable of moving and fascinating us almost as much as the classic from which it takes its name. [Full review in Spanish]", "is_fresh": 1, "author": ["Carlos D\u00edaz Reyes"]},
{"text": "... Villeneuve is a director of obvious ideas whose edition tends to spell as if the audience could not add two plus two... [Full review in Spanish]", "is_fresh": 0, "author": ["Daniel Krauze"]},
{"text": "Denis Villeneuve's Blade Runner 2049 is everything you want it to be and nothing you don't. ", "is_fresh": 1, "author": ["Bradley Gibson"]},
{"text": "... a big-budget genre movie that respects its audience's intelligence, and an homage that adds something beautifully new.", "is_fresh": 1, "author": ["Margot Harrison"]},
{"text": "Blade Runner 2049 safely derives from the ancestral roots of Ridley Scott's iconic visionary opus without compromising its value in any way.", "is_fresh": 1, "author": ["Michael Lee"]},
{"text": "It's great to see [Harrison] Ford revisiting one of his signature roles. His testy, cynical Deckard plays well against [Ryan] Gosling's smooth aplomb as they become unexpected allies in pursuit of the truth. ", "is_fresh": 1, "author": ["Lisa Jensen"]},
{"text": "2049 goes back to the near future and questions humanity itself.", "is_fresh": 1, "author": ["Brooke Corso"]},
{"text": "Ultimately, you may find \"Blade Runner 2049\" something of a replicant itself. It looks right. It sounds right. It may even have some vestige of a soul.", "is_fresh": 1, "author": ["Eleanor Ringel Cater"]},
{"text": "This is a stunning film that somehow makes you homesick for the original.", "is_fresh": 1, "author": ["Lili Loofbourow"]},
{"text": "Visually striking and surreal, consistently emphasizing the gritty style/production design over the slow-paced story. But it could earn cinematographer Roger A. Deakins his 14th Oscar nomination and first Academy Award win.", "is_fresh": 1, "author": ["Susan Granger"]},
{"text": "There is no question that \"Blade Runner 2049\" is intelligent, very impressive and often even moving. But it doesn't have the philosophical and theoretical depth of the original.", "is_fresh": 1, "author": ["Uri Klein"]},
{"text": "... visually impressive. [Full review in Spanish]", "is_fresh": 1, "author": ["Ernesto Zelaya Mi\u00f1aro"]},
{"text": "... Villeneuve enters into a kind of cryptogram governed by the precepts of Jacques Lacan on the subversion of the subject and the dialectic of desire. [Full review in Spanish]", "is_fresh": 1, "author": ["Alberto S\u00e1ez Villarino"]},
{"text": "On its own merits, Blade Runner 2049 is a very strong film; as a sequel, it's nothing short of brilliant.", "is_fresh": 1, "author": ["Max Weiss"]},
{"text": "Ryan Gosling seems born for this hybrid role. His general monotone detachment works especially well here, and the subtle nuances he shows fits perfectly into the world first etched by Harrison Ford.", "is_fresh": 1, "author": ["Keeva Stratton"]},
{"text": "Several actors in supporting roles give superb performances... ", "is_fresh": 1, "author": ["Diane Carson"]},
{"text": "Not only is Blade Runner 2049 a worthy sequel, you could make the case that it's better than the original.", "is_fresh": 1, "author": ["Brad Keefe"]},
{"text": "Time will tell if it's a masterpiece, but at the very least, Blade Runner 2049 is a worthy successor to a groundbreaking film.", "is_fresh": 1, "author": ["Sarah Marrs"]},
{"text": "Someday on Blu-ray it will be the go-to movie for the attuned to float around in for almost three hours, getting stoned on the bitter and doom-laden toxic mood.", "is_fresh": 1, "author": ["Rob Gonsalves"]},
{"text": "The 163-minute show drags a bit in the last act, but aside from that - and the danger that techies may view it as a documentary - Villeneuve's remake is the slickest fantasy in many moons.", "is_fresh": 1, "author": ["Kelly Vance"]},
{"text": "A film that with no waste and is very enjoyable. [Full review in Spanish]", "is_fresh": 1, "author": ["Lucero Calder\u00f3n"]},
{"text": "Watching Ford and Gosling onscreen together suggests an evolution of masculinity within the films, one that exists along a continuum of noir leading men, from those failing to hide their tenderhearted nature to the solemn figures who make stoicism an art.", "is_fresh": 1, "author": ["Angelica Jade Basti\u00e9n"]},
{"text": "Blade Runner 2049 is the perfect example of a sequel done right. ", "is_fresh": 1, "author": ["Marija Djurovic"]},
{"text": "This is a rare sequel that enhances, arguably even surpasses, the mastery of its original. Harrison Ford dubbed it 'a cathedral' of a movie and he's right - this is one to worship.", "is_fresh": 1, "author": ["Larushka Ivan-Zadeh"]},
{"text": "Though Villeneuve has brilliantly continued the technological and commercial world of Blade Runner, he cleared a lot of clutter. So the urbanist in me was disappointed by 2049. But will Blade Runner 2049 be worth it to the rest of you? Visually, yes.", "is_fresh": 1, "author": ["Charles Mudede"]},
{"text": "Worthy of the title 'Blade Runner' for the imagery alone, and worth your time even if the central conceit is somehow both convoluted and repetitive. See it on the biggest screen you can.", "is_fresh": 1, "author": ["Vincent Mancini"]},
{"text": "... a quiet movie that never avoids certainties and very good action sequences. [Full review in Spanish]", "is_fresh": 1, "author": ["William Venegas"]},
{"text": "At 163 minutes, the film has a lot of room, and a lot of plot to fill it with, but the first 100 minutes are largely taken up with detective movie boilerplate.", "is_fresh": 1, "author": ["Tim Brayton"]},
{"text": "It's probably going to take another viewing to fully appreciate Blade Runner 2049. My gut reaction is it's a great movie bordering on masterpiece.", "is_fresh": 1, "author": ["Jeffrey Lyles"]},
{"text": "An innovative film at a narrative and visual level and at the same time, as original as the prequel. [Full review in Spanish]", "is_fresh": 1, "author": ["Iv\u00e1n Belmont"]},
{"text": "The sequel forges its own identity as a new and intriguing incursion into the metaphysical limits of science fiction. [Full review in Spanish]", "is_fresh": 1, "author": ["Benjam\u00edn Harguindey"]},
{"text": "An intellectually and emotionally satisfying film. [Full review in Spanish]", "is_fresh": 1, "author": ["Sebastian Zavala Kahn"]},
{"text": "A beautiful sequel that needs no comparison. [Full review in Spanish]", "is_fresh": 1, "author": ["Nicol\u00e1s Ruiz"]},
{"text": "The creators of this film had to use old ingredients to reconstruct a rancid and insipid concept that even Ryan Gosling can't save. [Full review in Spanish]", "is_fresh": 0, "author": ["Hugo Lara"]},
{"text": "A valuable balance between the old and the new: it's loyal and at times faithful to Scott's film, and rather than an update, is an extension and an appropriation. [Full review in Spanish]", "is_fresh": 1, "author": ["Hugo Hern\u00e1ndez Valdivia"]},
{"text": "A very well acted film, where everything flows naturally making it complex and complete. [Full review in Spanish]", "is_fresh": 1, "author": ["Daniel Bernal"]},
{"text": "In its well-intentioned efforts to somehow match the impact of the original, this is a film that has become overblown, over-written and massively over-long.", "is_fresh": 0, "author": ["Matthew Bond"]},
{"text": "[Director] Villeneuve never strikes the moral terror that has distinguished his best films. . .Blade Runner's awesomeness is gone.", "is_fresh": 0, "author": ["Armond White"]},
{"text": "Blade Runner 2049 is a worthy - and beautiful - follow-up.", "is_fresh": 1, "author": ["Tom Shone"]},
{"text": "Denis Villeneuve & co. have constructed a follow-up of such satisfyingly detailed echoes, while still managing to retain an identity unique from the shadow under which it thrives. This might be Blade Runner 2049's greatest achievement. ", "is_fresh": 1, "author": ["Leonardo Faierman"]},
{"text": "Visually, this dying future world is immersively hellish. Intellectually, though, its ideas haven't kept up with the rapidly evolving science-fictional conversation.", "is_fresh": 0, "author": ["MaryAnn Johanson"]},
{"text": "More sequel than sequel.", "is_fresh": 1, "author": ["Ed Whitfield"]},
{"text": "Spectacular enough to win over new generations of viewers, yet deep enough to reassure diehard fans that their cherished memories haven't been reduced to tradable synthetic implants.", "is_fresh": 1, "author": ["Mark Kermode"]},
{"text": "The film is mesmerizing to behold. (Full Content Review for Parents - Violence, Profanity, Nudity, etc. - also Available)", "is_fresh": 1, "author": ["Jim Judy"]},
{"text": "Though the film dazzles us with its hauntingly beautiful images, it disappoints with its lack of substance.", "is_fresh": 0, "author": ["Dennis Schwartz"]},
{"text": "From the grayed-out countrysides over which the sky has closed like a lid; to the drizzly neon decadence of Los Angeles; to the Ozymandian wreckage of Las Vegas-the film is a visual splendor of the first order.", "is_fresh": 1, "author": ["Christopher Orr"]},
{"text": "In any futuristic film, it always seems as if the acting takes a backseat to its visual features. In \"Blade Runner 2049,\" Ryan Gosling offers up his most complex and alluring work since \"Drive.\"", "is_fresh": 1, "author": ["Clayton Davis"]},
{"text": "Is Blade Runner 2049 a masterpiece like its predecessor? Definitely not. It's not even a match for 2016's superb Arrival, the previous film from director Denis Villeneuve. Yet on its own terms, it's a dazzling achievement.", "is_fresh": 1, "author": ["Matt Brunson"]},
{"text": ". . . a big, bleak, bold, bad-ass beauty of an adventure.", "is_fresh": 1, "author": ["John Urbancich"]},
{"text": "It's a must-see for fans of the 1982 original film, but there will be heated debates to come between its advocates and its critics.", "is_fresh": 1, "author": ["Daniel M. Kimmel"]},
{"text": "It does something sci-fi movies rarely do anymore, and sequels do even less: it shows us things we've never seen.", "is_fresh": 1, "author": ["Jason Bailey"]},
{"text": "Gosling and Ford are solid performers but it is Ana de Armas whose star is born.", "is_fresh": 1, "author": ["Jackie K. Cooper"]},
{"text": "There's no conceivable way that a Blade Runner sequel could be more satisfying to anyone who loves its predecessor.", "is_fresh": 1, "author": ["Mike McGranaghan"]},
{"text": "A meditative and moving film, sumptuously photographed by legendary cinematographer Roger Deakins in the finest and most astonishing work of his career.", "is_fresh": 1, "author": ["Katie Walsh"]},
{"text": "So much is absolutely spellbinding, particularly the visuals and sound. Many scenes are hauntingly, eerily still.", "is_fresh": 1, "author": ["Jeffrey M. Anderson"]},
{"text": "\"It's too bad she won't live\" - as James Edward Olmos' cop says at the end of the original - but it seems that Scott's punk-noir darling has.", "is_fresh": 1, "author": ["Tom Meek"]},
{"text": "Here, the heroes, villains and themes and even the cyberpunk noir aesthetic feel familiar, but what this lacks in story originality, director Denis Villeneuve makes up in style.", "is_fresh": 1, "author": ["John Lui"]},
{"text": "[2049] is long, laborious (in a good way) and lovingly detailed. It's also visually and aurally spectacular.", "is_fresh": 1, "author": ["Michael Heaton"]},
{"text": "For fans of the original, this should be enough to satisfy your soul (and nostalgia). For a new generation of viewers, the deliberate pacing will be a challenge, and in the end it's Deakins' framing, perspective and wondrous lighting that will carry them.", "is_fresh": 1, "author": ["Kong Rithdee"]},
{"text": "What could have been another exercise in nostalgia instead took on a surprisingly defiant, idiosyncratic life of its own. It isn't perfect, but it's well worth your time.", "is_fresh": 1, "author": ["Melissa Leon"]},
{"text": "Where the original was a 1940's detective story set in the near future, this uses Hollywood's biblical Roman epics as a template and is built with a similar scope, weight and spiritual core.", "is_fresh": 1, "author": ["Chris Hunneysett"]},
{"text": "A film that possesses finesse in its visual discourse, a language that goes from dream to opiate travel, from dream to malice of an imagined situation in the head of a first time dreamer. [Full review in Spanish]", "is_fresh": 1, "author": ["Erick Estrada"]},
{"text": "Blade Runner's world is grotty, grey, crowded and retrofitted. This future doesn't jettison the past. It cannibalizes it, from ancient ziggurats to Art Deco glamour.", "is_fresh": 1, "author": ["Alison Gillmor"]},
{"text": "From the get-go, Villeneuve paints Blade Runner 2049 in his unique style. This is a rare, unhurried, futuristic film, much like Villeneuve's Arrival - philosophical and meditative.", "is_fresh": 1, "author": ["Udita Jhunjhunwala"]},
{"text": "Blade Runner 2049 stands tall as one of the finest science fiction films of the last decade, even if it falls just short of perfection. ", "is_fresh": 1, "author": ["Hayden Mears"]},
{"text": "It avoids strip-mining the original or recycling old ideas, and there aren't any contrived twists.", "is_fresh": 1, "author": ["Peter Lawrence Kane"]},
{"text": "Blade Runner 2049, on the other hand, manages to be prettier but far more prosaic. ", "is_fresh": 1, "author": ["Alison Willmore"]},
{"text": "We replicants, who are critics, think Blade Runner 2049 is worthy of intelligent perception.", "is_fresh": 1, "author": ["Tony Macklin"]},
{"text": "... Blade Runner 2049 will be remembered and studied, but best of all, will influence the future filmmakers... those of 2049. [Full review in Spanish]", "is_fresh": 1, "author": ["Sergio L\u00f3pez Aguirre"]},
{"text": "The rare sequel that truly merits its existence, updating and expanding the themes of the 1982 original to bring them from the 20th century into the 21st.", "is_fresh": 1, "author": ["Kate Taylor"]},
{"text": "A wondrous work of filmmaking, Blade Runner 2049 is something you can get lost inside for darn near three hours. Much like Villeneuve's Oscar-nominated work on Arrival, it's visceral, often spellbinding, even brilliant at times.", "is_fresh": 1, "author": ["Christopher Lawrence"]},
{"text": "Even if Blade Runner 2049 is technically a riff on a previous director's vision, it is a piece of filmmaking that towers above its peers.", "is_fresh": 1, "author": ["Josh Terry"]},
{"text": "Just as Scott did in the original film, Villeneuve adopts an unhurried pace and some may find the plot rather too dense and convoluted. Probably it will take more than one viewing to make complete sense of it. ", "is_fresh": 1, "author": ["David Stratton"]},
{"text": "It took 35 years for a sequel to be made to Blade Runner. But it's a great movie sequel that dishonors no one -- least of all the audience.", "is_fresh": 1, "author": ["Jeff Simon"]},
{"text": "As the plot twists and turns, the settings and gadgets create a retro vision of the future that's almost unnervingly recognisable as where we live right now.", "is_fresh": 1, "author": ["Rich Cline"]},
{"text": "Villeneuve and cinematographer Roger Deakins give us staggering new visions of the future, ones that confound and trance and mystify in Blade Runner 2049 even while making rich cinematic senses. ", "is_fresh": 1, "author": ["Bob Mondello"]},
{"text": "A visual display of sordid elegance and sublime beauty of dystopian nature. [Full review in Spanish]", "is_fresh": 1, "author": ["Jorge (JJ) Negrete"]},
{"text": "Liberation doesn't have quite the same effect when it's done by white people, for other white people.", "is_fresh": 0, "author": ["Abby Olcese"]},
{"text": "Methodical and sad, it's a film with plenty of mood but little emotion, well made but frigid. ", "is_fresh": 0, "author": ["Eric D. Snider"]},
{"text": "As melancholy and bleak as Blade Runner 2049 is, when it ends, you want to see it over again, just to ease back into that mood pocket and savor its dark delicacies.", "is_fresh": 1, "author": ["Stephen Rebello"]},
{"text": "Blade Runner 2049 is heavy with portentous and pretentious hoo-ha.", "is_fresh": 0, "author": ["Peter Rainer"]},
{"text": "This film is everything that cinema should be, both in terms of its plot and its audiovisual proposal, from beginning to end. [Full review in Spanish]", "is_fresh": 1, "author": ["Oswaldo Betancourt Lozano"]},
{"text": "In many ways Blade Runner 2049 is a perfect sequel. Consider that a warning.", "is_fresh": 1, "author": ["Christian Toto"]},
{"text": "An existential sci-fi opus.", "is_fresh": 1, "author": ["Staci Layne Wilson"]},
{"text": "With the appearance of Harrison Ford, I notice that the mediocre bar is raised a little. But he's late in a film that seems eternal to me. [Full review in Spanish]", "is_fresh": 0, "author": ["Carlos Boyero"]},
{"text": "Visually stunning and soaked in atmosphere.", "is_fresh": 1, "author": ["Chris Bumbray"]},
{"text": "... fans of the original should not be disappointed. With questions of human worth, value, choice, and sacrifice, it's what big sci-fi should be: holding onto humanity in the shadow of technology.", "is_fresh": 1, "author": ["Kevin A. Ranson"]},
{"text": "Blade Runner 2049 is a fantastic movie with bold ideas, visually stunning direction, and powerful performances. But underneath it all lies a Hollywood reboot.", "is_fresh": 1, "author": ["Matthew Razak"]},
{"text": "Despite all the overlaps, this is not a simulacrum of a Ridley Scott film. It is unmistakably a Denis Villeneuve film, inviting us to tumble, tense with anticipation, into his doomy clutches.", "is_fresh": 1, "author": ["Anthony Lane"]},
{"text": "There's a frisson in seeing fecundity exalted in a world bent on selling pleasure-sex.", "is_fresh": 1, "author": ["Matthew Lickona"]},
{"text": "Blade Runner 2049 has been made with impeccable craftsmanship and taste, yet the film is so terrified of disreputability that it renders itself dead from the waist down, unable to derive pleasure even from a theoretically kinky robot three-way.", "is_fresh": 0, "author": ["Chuck Bowen"]},
{"text": "Impressive and dazzling and takes nothing away from the iconic original. ", "is_fresh": 1, "author": ["Victoria Alexander"]},
{"text": "When Leto uttered the line \"You do not know what pain is yet,\" I wondered if it had been re-purposed from Hellraiser.", "is_fresh": 1, "author": ["Kurt Loder"]},
{"text": "While [BLADE RUNNER 2049] succeeds in more complex world building, it doesn't achieve a depth of story that couldn't have been told in half the running time.", "is_fresh": 0, "author": ["Rubin Safaya"]},
{"text": "The latest Denis Villeneuve achievement, Blade Runner 2049 is the rare sequel that both pushes the franchise to challenging new places and serves as a natural extension of what's come before.", "is_fresh": 1, "author": ["Robert Yaniz, Jr."]},
{"text": "A film, like the replicants who populate it, that makes a perfectly compelling case for its own existence.", "is_fresh": 1, "author": ["Sonny Bunch"]},
{"text": "Plays like a bloated director's cut.", "is_fresh": 0, "author": ["Phil Villarreal"]},
{"text": "Blade Runner 2049 is breathtakingly dull...It barely has enough story to cover a 90-minute film let alone one that runs 164...It's punishingly slow, the performances are sullen and dour; nobody seems interested in being there...the film is a visual bore.", "is_fresh": 0, "author": ["Jim Schembri"]},
{"text": "Has some significant problems - but is also crammed with dazzling moments.", "is_fresh": 1, "author": ["Robert Horton"]},
{"text": "A motion picture of grand aims and elevated altitudes, \"Blade Runner 2049\" challenges in the best way, as emotionally resounding as it is visually remarkable.", "is_fresh": 1, "author": ["Dustin Putman"]},
{"text": "It takes on the themes and universe set forth in the original and builds on them, and manages to live up to the massive expectations that greet it. This is no replicant, it's the real deal.", "is_fresh": 1, "author": ["Adam Graham"]},
{"text": "With this, there can be little doubt that Denis Villeneuve is one of the greatest science-fiction filmmakers ever - right up there with Kubrick, Fritz Lang, and Nolan.", "is_fresh": 1, "author": ["Rohan Naahar"]},
{"text": "Is it blasphemy to suggest that Blade Runner 2049 is just okay and doesn't suck? ", "is_fresh": 1, "author": ["Luke Y. Thompson"]},
{"text": "Barely fresh. At 2:43 it's too long. Director Dennis Villeneuve is too in love with his effects and drags out his movie by half an hour. Not Blade Runner but blade crawler. ", "is_fresh": 1, "author": ["Gary Wolcott"]},
{"text": "I admire the hard work that went into this film by a team of people who are devotees of the original and strove to do it justice. Fans and admirers will weigh in en masse, I'm sure...but I found Blade Runner 2049 long and boring.", "is_fresh": 0, "author": ["Leonard Maltin"]},
{"text": "...a rich, thought-provoking continuation that benefits from the passage of time.", "is_fresh": 1, "author": ["Charles Koplinski"]},
{"text": "After the movie's sometimes taxing, 164-minute running time, I found that other more immediately pressing needs required attention.", "is_fresh": 0, "author": ["Robert Denerstein"]},
{"text": "The narration of the film wins in suspense, intrigue, humor and emotion reaching an intense end with epic airs and reminiscences of western (futurist, of course). Full review in Spanish]", "is_fresh": 1, "author": ["Diego Batlle"]},
{"text": "To summarise, treat yourself this week with a trip to 2049. You may return with more questions than before you went in, but at least it'll make you think.", "is_fresh": 1, "author": ["Shyama Krishna Kumar"]},
{"text": "I enjoyed this infinitely more than the original and I'm 100 per cent behind the thinking that Denis Villeneuve is the greatest filmmaker alive.", "is_fresh": 1, "author": ["Jamie East"]},
{"text": "A film that is pure escape, pure delight, a nighttime movie tour through the memory and the cinematics. [Full review in Spanish]", "is_fresh": 1, "author": ["Luis Mart\u00ednez"]},
{"text": "As to the those big questions ... Blade Runner 2049 is conclusive about most things, but also asserts its own set of questions. And that's not a spoiler.", "is_fresh": 1, "author": ["Kirk Baird"]},
{"text": "While it's part of the nostalgia-courting blockbuster machine currently dominating mainstream cinema, it isn't interested in simply being a well-made rehash.", "is_fresh": 1, "author": ["Alistair Harkness"]},
{"text": "Against all the odds, Blade Runner 2049 is a majestic, uncompromising science-fiction epic that stands shoulder to shoulder with its predecessor as a film of wondrous images and thought-provoking reflections on what it means to be human.", "is_fresh": 1, "author": ["Charlotte Heathcote"]},
{"text": "Everything is at full strength, and while it is by no means an action film, it is thrilling.", "is_fresh": 1, "author": ["Jonathan Roberts"]},
{"text": "Directed with more style than substance by Denis Villeneuve, Blade Runner 2049 improves upon the original film, even if it cannot capture what made it so special.", "is_fresh": 1, "author": ["Alan Zilberman"]},
{"text": "\"Blade Runner 2049\"... is a film to savor and mull over.", "is_fresh": 1, "author": ["Beth Accomando"]},
{"text": "With more violence than the first film and a stronger emphasis on sex, this also lacks the underlying philosophical conundrums that made Blade Runner so lastingly powerful.", "is_fresh": 0, "author": ["David 'Mad Dog' Bradley"]},
{"text": "... proof of how a sequel can be just as good as the original movie, even if released decades apart.", "is_fresh": 1, "author": ["Julia Alexander"]},
{"text": "The greatness of a film, it is known, is not measured by its budget, its duration or the prestige of its creators but by the artistic discoveries and, in this sense, Blade Runner 2049 intends more than it finally obtains. [Full review in Spanish]", "is_fresh": 1, "author": ["Diego Batlle"]},
{"text": "... profound without being pretentious... [Full review in Spanish]", "is_fresh": 1, "author": ["Jos\u00e9 Felipe Coria"]},
{"text": "The look of Blade Runner 2049 tops the dark chaos of Blade Runner. Roger Deakins' cinematography and Dennis Gassner's production design are beyond stunning. It's hard to imagine anyone topping them for the Oscar.", "is_fresh": 1, "author": ["Maria Sciullo"]},
{"text": "Blade Runner 2049, then, is undoubtedly the most gorgeous thing to come out of a major studio in some time. ", "is_fresh": 1, "author": ["Dom Sinacola"]},
{"text": "There's more to be said, and both Blade Runner films create a distinct world and people it, so to speak, with characters you won't soon forget.", "is_fresh": 1, "author": ["Edward Johnson-Ott"]},
{"text": "Technically almost perfect, but forced and solemn in excess. [Full review in Spanish]", "is_fresh": 1, "author": ["Yago Garc\u00eda"]},
{"text": "Blade Runner 2049 is Gosling's, and while the movie is a bit bloated, it's both a worthy successor to the original and a chilling meditation on what it means to be human.", "is_fresh": 1, "author": ["Garrett Schaffel"]},
{"text": "Harrison Ford, for his part, is nothing less than a revelation.", "is_fresh": 1, "author": ["Joe Morgenstern"]},
{"text": "Blade Runner 2049 is a stunner through and through, a film that works both as a continuation to an all-time classic and as a superior cinematic experience in its own right.", "is_fresh": 1, "author": ["Peter Sobczynski"]},
{"text": "So let's not call Blade Runner 2049 a sequel. Call it the spiritual successor to one of the greatest science-fiction stories ever told. And it lives up to that billing.", "is_fresh": 1, "author": ["Chris Knight"]},
{"text": "When the script - FINALLY - gets around to Deckard, Ford props up the proceedings with some signs of life - but that energy is fleeting.", "is_fresh": 0, "author": ["Dana Barbuto"]},
{"text": "Admiration for Blade Runner 2049 begins with ... the movie's world ... Unfortunately, admiration for this semi-spinoff/semi-sequel ... also ends with its world.", "is_fresh": 0, "author": ["Mark Dujsik"]},
{"text": "Blade Runner 2049 really does look the part. The film is lovingly detailed, astonishingly lit and scored and designed in a way that manages to be both meticulous and pleasantly sparse.", "is_fresh": 1, "author": ["Graeme Tuckett"]},
{"text": "Enigmatic, continually intriguing, and at its heart, a noir film.", "is_fresh": 1, "author": ["Tony Stamp"]},
{"text": "I didn't like Blade Runner 2049 very much in the hours after first watching it. I didn't like the way it resolved the previous film's storylines--how stolid it was in its exposition and how eager it seemed to talk about what was on its mind.", "is_fresh": 1, "author": ["Walter Chaw"]},
{"text": "It's indeed a shame that Blade Runner 2049 doesn't offer up enough food for thought to go with its visual brilliance.", "is_fresh": 0, "author": ["Kristian M. Lin"]},
{"text": "The misandry-prone geek bros won't know what hit them.", "is_fresh": 1, "author": ["Richard von Busack"]},
{"text": "Blade Runner 2049 is the sequel we didn't need, a film that mimics the original's style, but falls short of capturing its danger and romance.", "is_fresh": 0, "author": ["Jason Di Rosso"]},
{"text": "Director Denis Villeneuve and crew have lovingly embraced the weird, neo noir, sci-fi vibe of Ridley Scott's Blade Runner from 1982 and extended its bleak conception of the future to the mid-21st century.", "is_fresh": 1, "author": ["Clint O'Connor"]},
{"text": "2049 is the ultimate successor to Blade Runner. It's the full realization of what Ridley Scott started building in 1982.", "is_fresh": 1, "author": ["Neil Miller"]},
{"text": "By picking up the narrative baton that original Blade Runner director Scott carried for so long, Villeneuve immerses us in the hopeful reawakening to a future that beckons us to rush forward without fear.", "is_fresh": 1, "author": ["tt stern-enzi"]},
{"text": "It's Villeneuve's best picture to date, offering artful reverence to \"Blade Runner\" without altering its gorgeous, forbidding atmosphere and core sci-fi/noir appeal.", "is_fresh": 1, "author": ["Brian Orndorf"]},
{"text": "Director Denis Villeneuve's visual stunner deftly expands the 'Blade Runner' universe.", "is_fresh": 1, "author": ["Roger Tennis"]},
{"text": "Blade Runner 2049 is one of the brainiest films to come out of Hollywood in a long while, asking more questions about the meaning of life than it answers.", "is_fresh": 1, "author": ["Peter Howell"]},
{"text": "Blade Runner 2049 may be breathtaking cinema, but it isn't great storytelling.", "is_fresh": 0, "author": ["Kyle Smith"]},
{"text": "Yet despite Ryan Gosling, a striking visual template and Harrison Ford reprising the role he played in the 1982 sci-fi classic, glitches mar this undeniably ambitious but drawn-out exercise.", "is_fresh": 0, "author": ["Brian Lowry"]},
{"text": "Ford doesn't enliven the film for nostalgic reasons. He brings fierce, potent energy to the role, capturing Deckard's suspicion of K, protectiveness about his past, and will to survive. In a career of iconic roles, this is among his best.", "is_fresh": 1, "author": ["Caryn James"]},
{"text": "Could Villeneuve match, let alone surpass, that original? Well, the answer is a resounding yes. ... Blade Runner 2049 is visually stunning, emotionally stimulating and -- at times -- emotionally devastating.", "is_fresh": 1, "author": ["Rob Carnevale"]},
{"text": "In the pantheon of classic science-fiction films, if Blade Runner is No. 1, as some would argue, there's an argument that Blade Runner 2049 just might be 1A.", "is_fresh": 1, "author": ["Michael Smith"]},
{"text": "Barely fresh. 163 minutes of post apocalyptic eye candy and sci-fi sound and fury signifying not much. ", "is_fresh": 1, "author": ["James Verniere"]},
{"text": "It never properly creates its own world, the drama is plodding, and every character is a tiresome type.", "is_fresh": 0, "author": ["Deborah Ross"]},
{"text": "The film is no less sombre than its predecessor, and the glacial pace at which the characters walk and talk indicates that they know this full well. But the ideas aren't complex enough to justify the time spent unpicking them.", "is_fresh": 0, "author": ["Ryan Gilbey"]},
{"text": "Blade Runner 2049 gives us a hyper-realized aesthetic and tries to convince us that it has given us a world.", "is_fresh": 1, "author": ["K. Austin Collins"]},
{"text": "It could stand to have as much clarity afforded to its narrative and thematics as to its visuals.", "is_fresh": 1, "author": ["Alissa Wilkinson"]},
{"text": "Fans of Ridley Scott's landmark 1982 dystopian noir drama Blade Runner will be thrilled to find that director Denis Villeneuve has soaked his follow-up, Blade Runner 2049, in as much grime-and-neon atmosphere as the original.", "is_fresh": 1, "author": ["Sean P. Means"]},
{"text": "Ryan Gosling's lead performance is actually better than Harrison Ford's was in the 1982 film, which isn't a knock on Ford but rather a testament to his successor's gifts.", "is_fresh": 1, "author": ["Bernard Boo"]},
{"text": "The initial trepidation surrounding Blade Runner 2049 should be replaced by relief and exhilaration, as it's now clear that Villeneuve was the right man to helm such a risky project.", "is_fresh": 1, "author": ["J.R. Kinnard"]},
{"text": "See 2049 on the biggest screen you can possibly find. Let the stunning visuals overwhelm you -- Villeneuve is a brilliant craftsman.", "is_fresh": 1, "author": ["Joe Gross"]},
{"text": "It's a film that's short of soul, and most of the original thinking was already done in Blade Runner 1, but it delivers a powerful impact in other ways. See it on an Imax screen if you can.", "is_fresh": 1, "author": ["Adam Sweeting"]},
{"text": "Director Denis Villeneuve, who earned his sci-fi bona fides with Arrival, successfully replicates the cold austerity Ridley Scott brought to Blade Runner.", "is_fresh": 1, "author": ["J. R. Jones"]},
{"text": "A visually dazzling follow-up to one of science fiction's most iconic films.", "is_fresh": 1, "author": ["Rafer Guzman"]},
{"text": "A powerful, unflinching, despairing, brutal and emotionally devastating film.", "is_fresh": 1, "author": ["Colin Covert"]},
{"text": "\"Blade Runner 2049\" is not just a movie but an event. Don't be the only human on your block not to see it.", "is_fresh": 1, "author": ["Calvin Wilson"]},
{"text": "Villeneuve and company have cast a powerful and disturbing visual spell, thrusting us into a world compelling enough to get lost in.", "is_fresh": 1, "author": ["Kenneth Turan"]},
{"text": "Replicant hunter uncovers a conspiracy that could change the world in an ambitious, uncompromising sci-fi adventure.", "is_fresh": 1, "author": ["Daniel Eagan"]},
{"text": "Blade Runner 2049 is chockablock with rich philosophical questions of what it means to be human and where the line between human and machine blurs into an unrecognizable haze.", "is_fresh": 1, "author": ["Marc Savlov"]},
{"text": "An improvement on the original-a thoughtful, visually striking, emotionally satisfying continuation of Scott's celebrated but rather muddled film.", "is_fresh": 1, "author": ["Frank Swietek"]},
{"text": "... a visual delight.", "is_fresh": 1, "author": ["Jonathan W. Hickman"]},
{"text": "Blade Runner 2049 is a towering sequel to the science fiction classic. It is visually spellbinding, a dark odyssey that flirts with greatness.", "is_fresh": 1, "author": ["Julian Roman"]},
{"text": "Blade Runner 2049 is not only among the year's best films, but arguably one of the best sequels ever issued. Somewhere, Avatar's James Cameron is watching closely and scribbling notes. ", "is_fresh": 1, "author": ["Kim Hughes"]},
{"text": "[A] miraculous, riveting cinematic achievement that does the impossible -- living up to the original film and even at times surpassing it.", "is_fresh": 1, "author": ["Mark Hughes"]},
{"text": "A movie for people who miss the voice-over narration. It turns poetry into prose.", "is_fresh": 0, "author": ["Sean Burns"]},
{"text": "While Blade Runner 2049 may not end up being the classic the original is, in some ways it's as good of a sequel as you could ask for.", "is_fresh": 1, "author": ["Britton Peele"]},
{"text": "Somewhere in \"Blade Runner 2049\" is a terrific 100-minute movie struggling to get out.", "is_fresh": 1, "author": ["Ty Burr"]},
{"text": "Moody, methodical and meticulous, with stunning visuals, strong performances and a sci-fi story that's more ponderous than thrilling.", "is_fresh": 1, "author": ["Josh Bell"]},
{"text": "Blade Runner 2049 embraces the enormous shadow cast by Blade Runner 1982 by crafting a vast immersion in scale and vision.", "is_fresh": 1, "author": ["Simon Foster"]},
{"text": "Blade Runner 2049 is so good, I'd be happy for Denis to tempt fate and make another.", "is_fresh": 1, "author": ["Simon Miraudo"]},
{"text": "A breathtaking sequel to the futuristic classic Blade Runner, the film soars on the wings of its stunning visuals and moody score. It's stunning!", "is_fresh": 1, "author": ["Louise Keller"]},
{"text": "Like the 20-foot-tall ballerina holograms pirouetting through its decrepit Los Angeles streets, \"Blade Runner 2049\" is hauntingly beautiful, technologically stunning and low on substance.", "is_fresh": 0, "author": ["Sara Stewart"]},
{"text": "An ambitious movie that deepens on topics of the first film, such as identity and artificial intelligence. [Full review in Spanish]", "is_fresh": 1, "author": ["Pablo A. Scholz"]},
{"text": "...a work that pays homage to its forebear while simultaneously using that material to push us into new and confronting places...", "is_fresh": 1, "author": ["Travis Johnson"]},
{"text": "Villeneuve has taken the double-edged sword of the update and created a Blade Runner 2049 worthy of honouring its ancestor, while bringing it appropriately into the mid-21st Century.", "is_fresh": 1, "author": ["Sarah Watt"]},
{"text": "Blade Runner 2049 is, hands-down, the greatest sequel in the history of cinema.", "is_fresh": 1, "author": ["Randy Shulman"]},
{"text": "In terms of the imaginative ways it expands on the themes of the first movie, it is the rare sequel that is at least the equal of its iconic original.", "is_fresh": 1, "author": ["Soren Andersen"]},
{"text": "Blade Runner 2049 honors the original in many ways - some small and some large - but it's not a soft reboot. It's a new story with new ideas and new purpose.", "is_fresh": 1, "author": ["James Berardinelli"]},
{"text": "Magnificently imagined, stunningly designed, and one of the best of the year.", "is_fresh": 1, "author": ["Nell Minow"]},
{"text": "In the masterful hands of director Denis Villeneuve, the dystopian story does more than justify its existence, it cements itself as one of the best films of 2017 and Villeneuve as one of the most exciting directors of today.", "is_fresh": 1, "author": ["Wenlei Ma"]},
{"text": "The tone? The giant scope? The philosophical underbelly? A compelling story? ... [T]he sequel lives up to its predecessor in all these ways and manages to stand on its own.", "is_fresh": 1, "author": ["Vivian Kane"]},
{"text": "Despite its blockbuster trappings, this Blade Runner is as much an art movie as the first one: slow, idea-driven, and often emotionally remote. ", "is_fresh": 1, "author": ["Jake Wilson"]},
{"text": "Not since the great Mad Max: Fury Road has a game-changing conceptual vision landed on the big screen so fully and forcefully realised.", "is_fresh": 1, "author": ["Leigh Paatsch"]},
{"text": "The script contains enough core truths and grand philosophical concepts that no spoiler could touch them, such as the co-dependence of slavery and freedom, or the paradoxical way the future echoes and restates the past.", "is_fresh": 1, "author": ["John Wenzel"]},
{"text": "This might be heresy, but I'll argue Villeneuve's sequel is a deeper and more engaging work than its progenitor, less concerned with action beats than with ideas, themes and character.", "is_fresh": 1, "author": ["Norman Wilner"]},
{"text": "One of those films where the sum of the best parts does give a huge cinematographic work. [Full review in Spanish]", "is_fresh": 1, "author": ["Alejandro G. Calvo"]},
{"text": "It catches you and knows how to go further with what was proposed in the first installment, also proposing an enticing scenario for a possible third installment. [Full review in Spanish]", "is_fresh": 1, "author": ["Mikel Zorrilla"]},
{"text": "\"Blade Runner 2049\" explodes on the silver screen as a stunning achievement... ", "is_fresh": 1, "author": ["Dann Gire"]},
{"text": "... in Blade Runner 2049, Villeneuve has not just lived up to lofty expectations, but surpassed them entirely.", "is_fresh": 1, "author": ["Stuart McGurk"]},
{"text": "the rare sequel which matches-or even surpasses-the original", "is_fresh": 1, "author": ["Bill Gibron"]},
{"text": "... a superb action thriller, and a saddening parable about human existence and identity.", "is_fresh": 1, "author": ["Alan Corr"]},
{"text": "If you don't value the artistry of Blade Runner 2049, you might not be human.", "is_fresh": 1, "author": ["Cameron Meier"]},
{"text": "A strange and beautiful beast indeed, Blade Runner 2049 is a science-fiction epic for adults, somehow released in 2017...Blade Runner 2049 dreams big.", "is_fresh": 1, "author": ["Peter Canavese"]},
{"text": "Visually stunning and ambitious sequel to the 1982 film has a cool performance from Ryan Gosling but is blissfully helped by its original star Harrison Ford, even if the two hour and 44 minute running time could definitely use some editing.", "is_fresh": 1, "author": ["Pete Hammond"]},
{"text": "It's a massive, epic piece of science fiction that keeps the audience engaged, entertained and stunned.", "is_fresh": 1, "author": ["Jack Giroux"]},
{"text": "There are no new ideas here, poignancy achieved by rehashing moments of the original film with dollops lifted from Spielberg's \"A.I.\" and Spike Jonze's \"Her.\"", "is_fresh": 0, "author": ["Laura Clifford"]},
{"text": "...Blade Runner 2049 arrives at our doorsteps clocking in at 2 hours and 44 minutes. I dare say that very few of its moments are wasted, and, yes, it has been worth the wait.", "is_fresh": 1, "author": ["Elias Savada"]},
{"text": "Blade Runner 2049 an enthralling science fiction tour de force that will only get better and more emotionally invigorating with each additional viewing.", "is_fresh": 1, "author": ["Sara Michelle Fetters"]},
{"text": "Blade Runner 2049 is the rare sequel that surpasses a classic.", "is_fresh": 1, "author": ["Matt Goldberg"]},
{"text": "Really pretty and intermittently poses interesting questions about where exactly the nature of humanity lies but at the expense of a compelling plot.", "is_fresh": 1, "author": ["Joshua Starnes"]},
{"text": "Yes, this is a movie that takes itself very seriously, but it saves itself by taking its subject even more seriously.", "is_fresh": 1, "author": ["Mick LaSalle"]},
{"text": "Fully fleshed out with a fierce imagination and sharp good looks, it doesn't matter if Blade Runner 2049 is a replica of an original model - it's even better than the real thing.", "is_fresh": 1, "author": ["Ali Gray"]},
{"text": "Blade Runner 2049 is excellent. Hampton Fancher and Michael Green's script continues to push the themes and questions of the original and finds a new angle from which to do so. ", "is_fresh": 1, "author": ["Jonathan Hatfull"]},
{"text": "We end up with an intoxicating, brain-melting yarn that, for all its pleasures, has ideas a little above its station. It's not Kafka. Then again it doesn't need to be. ", "is_fresh": 1, "author": ["Donald Clarke"]},
{"text": "Chilling in its magnificence, but pretty much heartless. ", "is_fresh": 1, "author": ["Roger Moore"]},
{"text": "A brilliant new sci-fi benchmark, an epic movie yardstick against which future science fiction flicks will be compared and measured--it's the 2001 of 2017. ", "is_fresh": 1, "author": ["Neil Pond"]},
{"text": "What a remarkable film this is... ", "is_fresh": 1, "author": ["Brian Viner"]},
{"text": "Villeneuve crafts a movie both cerebral and sensuous, as puzzling and visually striking as its predecessor. The experience should be likewise revered by next generations.", "is_fresh": 1, "author": ["Steve Persall"]},
{"text": "This worthy sequel is a feast for the eyes and ears. The heart? Not so much.", "is_fresh": 1, "author": ["Joanna Langfield"]},
{"text": "For a bleak dystopian future, it sure is a beautiful place to visit.", "is_fresh": 1, "author": ["Ethan Sacks"]},
{"text": "Get ready to see the perfect chill Gosling performance.", "is_fresh": 1, "author": ["Jason Guerrasio"]},
{"text": "Blade Runner 2049 not only succeeds at feeling like a necessary franchise revival, it also makes for a captivating standalone work of science-fiction.", "is_fresh": 1, "author": ["Sandy Schaefer"]},
{"text": "The strength of \"Blade Runner 2049\" lies in its humanity. For a movie dealing mostly with artificial life, the film touches on such issues as memory, freedom of choice and the rights of individuals.", "is_fresh": 1, "author": ["Bob Bloom"]},
{"text": "Masterful in its craft and elegant in its message, it doesn't simply replicate the themes and ideas of the first film, but builds on them in ways that are both authentic and inventive.", "is_fresh": 1, "author": ["Nikki Baughan"]},
{"text": "This is really Villeneuve's film: he surpasses even his own 2016 sci-fi Arrival with this stunning visual masterpiece.", "is_fresh": 1, "author": ["James Mottram"]},
{"text": "The best cyberpunk film since the original Matrix, and the best big-budget American science fiction film in years.", "is_fresh": 1, "author": ["Dan Schindel"]},
{"text": "A big disappointment. All the pretty vistas in the world can't enliven this protracted futuro-slog.", "is_fresh": 0, "author": ["David Jenkins"]},
{"text": "An artistic as well as a philosophical triumph ...", "is_fresh": 1, "author": ["Andrew Collins"]},
{"text": "An extraordinary experience that will leave you open-mouthed with wonder. It deserves to be seen on the biggest screen possible.", "is_fresh": 1, "author": ["Matthew Turner"]},
{"text": "In terms of a sequel besting the original, Blade Runner 2049 is not a unicorn. But it is a breathtaking, non-comformist achievement. ", "is_fresh": 1, "author": ["Mara Reinstein"]},
{"text": "In a world filled with cinema replicants - sturdy, shiny, carefully engineered jobs that almost duplicate the look and warmth of a real movie - \"Blade Runner 2049\" is that rarest of sequels: An original.", "is_fresh": 1, "author": ["Stephen Whitty"]},
{"text": "There is a something to think about here, a fair amount to feel and even more to see.", "is_fresh": 1, "author": ["A.O. Scott"]},
{"text": "While Blade Runner 2049 is always something to look at, an overly elaborate script and some other bad habits common to today's sequel machinery - such as glaring product placement - have broken the Blade Runner spell.", "is_fresh": 0, "author": ["Jake Coyle"]},
{"text": "I don't want to ruin a single surprise in this remarkable film.", "is_fresh": 1, "author": ["David Poland"]},
{"text": "One of the most deeply philosophical and challenging sci-fi films of all time.", "is_fresh": 1, "author": ["Brian Tallerico"]},
{"text": "Denis Villeneuve succeeds in making 2049 feel distinct from Ridley Scott's film without sacrificing aspects that made the original so powerful.", "is_fresh": 1, "author": ["Benjamin Rabinovich"]},
{"text": "The special effects are impeccable, and include sequences that blur the line, evocatively, between what's real and unreal.", "is_fresh": 1, "author": ["Michael O'Sullivan"]},
{"text": "Blade Runner 2049 does what very few sequels can accomplish: it deepens our appreciation of its predecessor, while carving out its own niche in the spaces of our own imaginations. And the visuals it paints are in a word: breathtaking.", "is_fresh": 1, "author": ["Mark Daniell"]},
{"text": "Everything wrong with sequels. There's not one original, awe inspiring moment in this film. It's cold, emotionally inert, uninspired and ultimately an empty experience. ", "is_fresh": 0, "author": ["Michelle Alexandria"]},
{"text": "Blade Runner 2049 is bold, mesmerizing, and grandiose.", "is_fresh": 1, "author": ["Travis Hopson"]},
{"text": "... a moody, broody visual feast that taps into our unease about the advent of artificial intelligence.", "is_fresh": 1, "author": ["Josh Larsen"]},
{"text": "Less a generational iteration from its precursor than an evolutionary leap.", "is_fresh": 1, "author": ["Chris Klimek"]},
{"text": "This film is stop-and-point stunning. It is not without problems, however. ", "is_fresh": 1, "author": ["Kevin Maher"]},
{"text": "If Blade Runner gave us the world, Blade Runner 2049 has come to fill in the universe.", "is_fresh": 1, "author": ["A.A. Dowd"]},
{"text": "One of the best movies of the year.", "is_fresh": 1, "author": ["Jordan Hoffman"]},
{"text": "The brilliance of Blade Runner 2049 is that it makes the questions worth asking, positioning them in a menacing universe that's nevertheless a joy to revisit.", "is_fresh": 1, "author": ["Eric Kohn"]},
{"text": "The film belongs to [Ryan] Gosling. He evokes the classic detective heroes of cinema, hiding his need for connection just beneath a hard surface.", "is_fresh": 1, "author": ["James Luxford"]},
{"text": "This new Blade Runner dazzles the audience with plenty of staggering sights.", "is_fresh": 1, "author": ["Dana Stevens"]},
{"text": "While this might be a bold statement to make, I do believe that Blade Runner 2049 is better than the original.", "is_fresh": 1, "author": ["Scott Menzel"]},
{"text": "Not quite a classic, but this smart and visually stunning sequel will still be poured over by fans for years to come. If this was a poisoned chalice, Villeneuve has grabbed it with both hands.", "is_fresh": 1, "author": ["Andy Lea"]},
{"text": "A meticulously made visual wonder that should put any other filmmaker dabbling in sci-fi futurism on notice. ", "is_fresh": 1, "author": ["Dave Schilling"]},
{"text": "Blade Runner 2049 is a triumph. As good as you want to be, and better than you could have expected.", "is_fresh": 1, "author": ["Jon Lyus"]},
{"text": "It's hard to make a case against reboots and long-delayed sequels when an exception to the rule like Blade Runner 2049 comes along. No cynical cash-grab or by-the-numbers repeat, this sequel manages to go deeper on the ideas from the first film. ", "is_fresh": 1, "author": ["Alonso Duralde"]},
{"text": "Blade Runner 2049 offers a stunning, immersive and fascinating journey through a strange and familiar world.", "is_fresh": 1, "author": ["Rosie Fletcher"]},
{"text": "Careful, dutiful, and beautiful, Blade Runner 2049 cannot achieve the sublime slipperiness of Scott's masterpiece. Whether it even needs to is up to you.", "is_fresh": 1, "author": ["Bilge Ebiri"]},
{"text": "It may seem premature to ascribe the word 'masterpiece' to a legacyquel of a heady sci-fi head-scratcher from the '80s, but its audacity and formal perfection - not to mention its thematic weight - leave no other alternative.", "is_fresh": 1, "author": ["Clint Worthington"]},
{"text": "Forty years after his death, people still argue over which Elvis, the slim young Adonis or the portly middle aged crooner, was better. Forty years from now, people may be having that debate about these Blade Runners.", "is_fresh": 1, "author": ["Matthew Norman "]},
{"text": "As the break between installments would suggest, it's a furthering of not just the original story but the original world, and that's quite an accomplishment.", "is_fresh": 1, "author": ["Bill Goodykoontz"]},
{"text": "Rather than being overly beholden to its predecessor it immediately, but subtly, expands the world, while unraveling its mysterious and meandering plot in a surprising and refreshingly forthright manner.", "is_fresh": 1, "author": ["Gregory Wakeman"]},
{"text": "It organically expands and grows what came before. It's a deep, rich, smart film that's visually awesome and full of great sci-fi concepts, and one that was well worth the 35-year wait.", "is_fresh": 1, "author": ["Scott Collura"]},
{"text": "Will cinematographer Roger Deakins, having been nominated for an Academy Award 13 times, finally receive a damn Oscar? Yes. I hope it's yes. It should be \"yes.\"", "is_fresh": 1, "author": ["Michael Phillips"]},
{"text": "Blade Runner 2049 supersedes its predecessor in a number of ways, and is not only a brilliant sci-fi movie, but one of the best movies of the year.", "is_fresh": 1, "author": ["Kyle Anderson"]},
{"text": "At the helm and in complete command of his movie with dark, ambient magic, Denis Villeneuve crafts a mysterious noir thriller the pushes existential boundaries, and nails the essence of the \"Blade Runner\" spirit.", "is_fresh": 1, "author": ["Rodrigo Perez"]},
{"text": "Villeneuve's dazzling sequel is on its own march to screen legend. Gosling and Ford are double dynamite in a mesmerizing mindbender that asks new questions meant to tantalize, provoke and keep us up nights. Would you have it any other way?", "is_fresh": 1, "author": ["Peter Travers"]},
{"text": "Like The Godfather Part II, it's a sequel to a very celebrated film which may actually be better than the original.", "is_fresh": 1, "author": ["Geoffrey Macnab"]},
{"text": "A ravishing visual colossus, \"Blade Runner 2049\" more than lives up to its predecessor's legacy as a groundbreaking mixture of sound, images and mood. ", "is_fresh": 1, "author": ["Tim Grierson"]},
{"text": "We've grown so used to lowest-common-denominator blockbuster cinema that it's almost shocking to watch a big science fiction movie, featuring these kinds of stars, swinging for the fences in this way.", "is_fresh": 1, "author": ["Bryan Bishop"]},
{"text": "Even when its emotions risk running as cool as its palette, 2049 reaches for, and finds, something remarkable: the elevation of mainstream moviemaking to high art.", "is_fresh": 1, "author": ["Leah Greenblatt"]},
{"text": "It just has to be experienced on the biggest screen possible. Blade Runner 2049 is a narcotic spectacle of eerie and pitiless vastness, by turns satirical, tragic and romantic.", "is_fresh": 1, "author": ["Peter Bradshaw"]},
{"text": "Villeneuve's film is a direct continuation in every respect; it's difficult to imagine anyone - even Ridley Scott - making a better Blade Runner sequel.", "is_fresh": 1, "author": ["Jordan Farley"]},
{"text": "Visually immaculate, swirling with themes as heart-rending as they are mind-twisting, 2049 is, without doubt, a good year. And one of 2017's best.", "is_fresh": 1, "author": ["Dan Jolin"]},
{"text": "Better than the original.", "is_fresh": 1, "author": ["Matt Singer"]},
{"text": "One of the most spectacular, provocative, profound and spiritually staggering blockbusters of our time.", "is_fresh": 1, "author": ["Robbie Collin"]},
{"text": "A voluptuous mood bath that's impressively sustained from beginning to end.", "is_fresh": 1, "author": ["Todd McCarthy"]},
{"text": "A visually breathtaking, long-fuse action movie whose unconventional thrills could be described as many things - from tantalizing to tedious - but never \"artificially intelligent.\"", "is_fresh": 1, "author": ["Peter Debruge"]},
{"text": "I imagine most audiences will like the film ... I thought it was okay.", "is_fresh": 1, "author": ["David Edelstein"]},
{"text": "Super-stylish and deeply human - even with androids and holograms around - the spectacular follow-up takes the detective story of the first film and turns it into a grand mythology of identity, memory, creation and revolution.", "is_fresh": 1, "author": ["Brian Truitt"]},
{"text": "The long-awaited Blade Runner 2049 delivers on the promise of the world of Blade Runner spending more time and visiting more corners of the now even more distant future.", "is_fresh": 1, "author": ["Fred Topel"]},
{"text": "A breathtaking, mind-bending cinematic experience.", "is_fresh": 1, "author": ["Eric Eisenberg"]},
{"text": "Blade Runner 2049 is a gorgeous return to a wearisome world.", "is_fresh": 1, "author": ["Mike Ryan"]},
{"text": "It looks great and boasts solid performances from an underused cast, but (like the original) it's a triumph of style over substance. ", "is_fresh": 0, "author": ["Scott Mendelson"]},
{"text": "Blade Runner 2049 triumphs in many of the same ways as its predecessor -- even more so -- but also suffers from some of the same issues that plagued the original.", "is_fresh": 1, "author": ["Don Kaye"]},
{"text": "A breathtaking return to the awe-inspiring and deeply troubled world of Blade Runner.", "is_fresh": 1, "author": ["William Bibbiani"]},
{"text": "Immersing you in a complete wow, Blade Runner 2049 is the thinking person's sci-fi event of the year.", "is_fresh": 1, "author": ["Joshua Rothkopf"]}
]