[
{"reviews_count": "52", "title": "Blazing Saddles", "avg_audience_rating": "3.9", "rotten_count": "5", "tomatometer": "90", "audience_score": "91", "avg_critic_rating": "8.1", "fresh_count": "47", "user_ratings_count": "218,019"},
{"text": "An extraordinarily gutsy film.", "is_fresh": 1, "author": ["Tim Brayton"]},
{"text": "More than simply a loving spoof of Hollywood westerns, Blazing Saddles is one of the funniest movies ever made... and one of the most audacious satires of racism to come out of Hollywood.", "is_fresh": 1, "author": ["Sean Axmaker"]},
{"text": "Its genius, then and now, was the manner in which director Mel Brooks and his writers turned a broad Western spoof into what was, for its time, a revolutionary satire of race relations.", "is_fresh": 1, "author": ["Jason Bailey"]},
{"text": "A movie that neither blazes or misfires, falling somewhere between the horrors of Spaceballs and the genius of Young Frankenstein.", "is_fresh": 1, "author": []},
{"text": "This all-singing, all-belching western spoof remains one of Mel Brooks's finest creations.", "is_fresh": 1, "author": ["John Ferguson"]},
{"text": "It's the best [director] Brooks has ever offered his audience.", "is_fresh": 1, "author": ["Felix Vasquez Jr."]},
{"text": "...may look like a Western, but in actuality it takes place in just another corner of Mel Brooks' mad brain.", "is_fresh": 1, "author": ["Josh Larsen"]},
{"text": "Kids may not get all of Brooks' Old West parody.", "is_fresh": 1, "author": ["Elliot Panek"]},
{"text": "Goldarned if the whole fool enterprise is not worth the attention of any moviegoer with a penchant for what one actor, commenting on another's Gabby Hayes imitation, calls 'authentic western gibberish.'", "is_fresh": 1, "author": ["Richard Schickel"]},
{"text": "A lewd spoof of westerns and racial prejudice; enough laughs to cover the fact that it is, essentially, a stupid movie.", "is_fresh": 0, "author": []},
{"text": "One of the funniest awful movies ever made.", "is_fresh": 1, "author": ["Don Druker"]},
{"text": "It's tough to beat as an outrageously phlegmy deposit in Hollywood's spittoon.", "is_fresh": 1, "author": ["Jonathan Crocker"]},
{"text": "Although Cleavon Little and Gene Wilder head a uniformly competent cast, pic is handily stolen by Harvey Korman and Madeline Kahn. Kahn is simply terrific doing a Marlene Dietrich lampoon.", "is_fresh": 1, "author": ["Variety Staff"]},
{"text": "The screenplay is credited to five writers, and it shows in the confused melange of styles.", "is_fresh": 0, "author": []},
{"text": "I laughed and laughed while viewing this again. Maybe part of it was nostalgia, but part of it came from a refreshing feeling of being shocked once more.", "is_fresh": 1, "author": ["Jeffrey M. Anderson"]},
{"text": "...at once a parody of old Western movies and a social satire on race and prejudice.", "is_fresh": 1, "author": ["John J. Puccio"]},
{"text": "Madeline Kahn was nominated for the Supporting Actress Oscar for her wonderful parody of all the cabaret singers that Dietrich used to play, including the comedy-Western Destry Rides Again.", "is_fresh": 1, "author": ["Emanuel Levy"]},
{"text": "Chalk up Blazing Saddles as only a lampoon of Hollywood westerns and you miss the point by a Texas mile.... Its humor is the palliative that lets Brooks mock prejudices and, with gloves off, prejudiced people.", "is_fresh": 1, "author": ["Mark Bourne"]},
{"text": "Whacked out and brilliant. Eminently rewatchable.", "is_fresh": 1, "author": ["Widgett Walls"]},
{"text": "Still good for a few chuckles, but I find it somewhat overrated.", "is_fresh": 1, "author": ["Chuck O'Leary"]},
{"text": "Somehow the raunchy humor seemed to pass me by.", "is_fresh": 0, "author": ["Dennis Schwartz"]},
{"text": "The funniest Mel Brooks film, Clevevon Little, who died far too young, is a comic genius. With the success of The Producers on Broadway maybe we can expect a stage version of Saddles which I'd pay good money to see.", "is_fresh": 1, "author": ["Jonathan W. Hickman"]},
{"text": "It's a crazed grabbag of a movie that does everything to keep us laughing except hit us over the head with a rubber chicken.", "is_fresh": 1, "author": ["Roger Ebert"]},
{"text": "Hilarious, irreverant western spoof. One of Mel Brooks' best.", "is_fresh": 1, "author": ["Steve Crum"]},
{"text": "Brooks' wholehearted embracing of rank vulgarity, together with his innovative quickfire sketch structure, titillated crowds more used to sophisticated Hollywood humour.", "is_fresh": 1, "author": ["Adam Smith"]},
{"text": "The movie travels at a fast and furious clip, and the dialogue is endlessly quotable.", "is_fresh": 1, "author": ["Matt Brunson"]},
{"text": "A limp, shapeless mess of a film trades in a genuine respect for westerns' tropes for purile vulgarity and joy-buzzer showmanship.", "is_fresh": 0, "author": ["Eric Henderson"]},
{"text": "Hats off to Mel Brooks!", "is_fresh": 1, "author": ["Gregory Weinkauf"]},
{"text": "Rip-roaring comedy with fine performances from a star-studded cast.", "is_fresh": 1, "author": ["Amber Wilkinson"]},
{"text": "Blazing Saddles has no dominant personality, and it looks as if it includes every gag thought up in every story conference. Whether good, bad, or mild, nothing was thrown out.", "is_fresh": 0, "author": ["Vincent Canby"]},
{"text": "Mel Brooks' funniest film. Cleavon Little's performance is priceless.", "is_fresh": 1, "author": ["Brian Mckay"]},
{"text": "A great cast is eclipsed by the hilarious performances of Harvey Korman and Madeline Kahn, who plays a Marlene Dietrich-like chanteuse.", "is_fresh": 1, "author": ["Marjorie Baumgarten"]},
{"text": "Remember when Mel Brooks was really funny? This is why.", "is_fresh": 1, "author": ["Ken Hanke"]},
{"text": "Blazing Saddles is not for everyone -- but there are great pleasures here for anyone willing to seek them out.", "is_fresh": 1, "author": ["James Rocchi"]},
{"text": "Silly, daring, and absolutely hilarious.", "is_fresh": 1, "author": ["Scott Weinberg"]},
{"text": "I can say with full confidence that this is one of the funniest movies ever made.", "is_fresh": 1, "author": ["John Venable"]},
{"text": "One of Mel Brooks' funniest and most popular films, an unsubtle spoof or parody of all the cliches from the time-honored genre of westerns", "is_fresh": 1, "author": ["Tim Dirks"]},
{"text": "The finale offers the most daring 15 minutes in cinema history", "is_fresh": 1, "author": ["Christopher Null"]},
{"text": "[The] huge popularity of this film, still uncontested after so many years, really shouldn't be that surprising.", "is_fresh": 1, "author": ["Dragan Antulov"]},
{"text": "", "is_fresh": 1, "author": ["Cole Smithey"]},
{"text": "", "is_fresh": 1, "author": ["Nell Minow"]},
{"text": "", "is_fresh": 1, "author": ["Jake Euker"]},
{"text": "", "is_fresh": 1, "author": ["Carol Cling"]},
{"text": "", "is_fresh": 1, "author": ["Greg Maki"]},
{"text": "", "is_fresh": 1, "author": ["Jonathan R. Perry"]},
{"text": "", "is_fresh": 1, "author": ["Walter Chaw"]},
{"text": "", "is_fresh": 1, "author": ["Mike McGranaghan"]},
{"text": "", "is_fresh": 1, "author": ["Josh Gilchrist"]},
{"text": "", "is_fresh": 1, "author": ["Brian J. Arthurs"]},
{"text": "", "is_fresh": 1, "author": ["Jeffrey Westhoff"]},
{"text": "", "is_fresh": 1, "author": ["Philip Martin"]},
{"text": "", "is_fresh": 1, "author": ["Robert Roten"]}
]