[
{"reviews_count": "97", "title": "Blood Simple", "avg_audience_rating": "3.9", "rotten_count": "6", "tomatometer": "94", "audience_score": "88", "avg_critic_rating": "8.3", "fresh_count": "91", "user_ratings_count": "38,977"},
{"text": "From their very first feature, the Coen Brothers already had their brilliance firmly in place. ", "is_fresh": 1, "author": ["Sean Mulvihill"]},
{"text": "Blood Simple is certainly a strikingly assured first feature.", "is_fresh": 1, "author": ["Steve Jenkins"]},
{"text": "An accomplished debut from the Coen brothers, and a slick, despairingly funny piece of noir.", "is_fresh": 1, "author": ["Ross McIndoe"]},
{"text": "The script is as tight as it ever was, keeping attention throughout and little clues and subtleties can easily be missed if you are not paying attention - this film demands focus from the very first frame.", "is_fresh": 1, "author": ["John Higgins"]},
{"text": "Blood Simple is a reminder that the Coens are formalist film-makers first, with keen noses for composition and taut, structured storytelling, as well as masters of black comedy.", "is_fresh": 1, "author": ["Simran Hans"]},
{"text": "A gripping, drum-tight noir masterpiece to compare with Touch of Evil.", "is_fresh": 1, "author": ["Peter Bradshaw"]},
{"text": "With their 1984 directorial debut, the Coen brothers showed the surefootedness with which they would ease themselves into one genre after another, reworking each to fit their deadpan vision.", "is_fresh": 1, "author": ["Philip Kemp"]},
{"text": "One of the great debut features of modern times.", "is_fresh": 1, "author": ["David Jenkins"]},
{"text": "An uneven film in its construction and even something inane in its belligerence towards the enemy against which it is stirred. [Full review in Spanish]", "is_fresh": 0, "author": ["Luis Mart\u00ednez"]},
{"text": "Not just noteworthy as the first picture written and directed by Joel and Ethan Coen, this excellent neo-noir also stands as an important film in the development of the American independent cinema during the 1980s.", "is_fresh": 1, "author": ["Matt Brunson"]},
{"text": "Simpleness and crime have consistently fascinated the pair, who may as well be praying at the temple of Ate...the Coens preach a healthy respect for the randomness and chaos that ensues from our desires. [Criterion Blu-ray]", "is_fresh": 1, "author": ["Peter Canavese"]},
{"text": "\"Blood Simple\" becomes a dazzling comedie noire, a dynamic, virtuoso display by a couple of talented fledgling filmmakers who give the conventions of the genre such a thorough workout that the result is a movie that's fresh and exhilarating.", "is_fresh": 1, "author": ["Kenneth Turan"]},
{"text": "The audience has to work in 'Blood Simple,' and its niftiest trick may not be apparent till the lights have come up.", "is_fresh": 1, "author": ["Matt Prigge"]},
{"text": "Watching this beautiful restoration of \"Blood Simple\" I was actually struck by how non-bleak it is, how much the strength of the film lies in images of beauty, defiance and survival.", "is_fresh": 1, "author": ["Andrew O'Hehir"]},
{"text": "It's a trailblazing masterpiece in any form.", "is_fresh": 1, "author": ["Mike D'Angelo"]},
{"text": "Though the film has a few exposed seams, it's tightly composed and beautifully shot in a way that easily rivals more expensive features.", "is_fresh": 1, "author": ["Chris Packham"]},
{"text": "There's a simple magnetism inherent in this kind of filmmaking, and the Coens know how to orchestrate it.", "is_fresh": 1, "author": ["Chris Cabin"]},
{"text": "It isn't really about anything except making a commercial narrative movie outside the industry.", "is_fresh": 0, "author": ["Pauline Kael"]},
{"text": "With a strong and stylish debut like Blood Simple, it didn't take a P.I. to see that the Coens were made for big things.", "is_fresh": 1, "author": ["James Plath"]},
{"text": "Essential.", "is_fresh": 1, "author": ["Walter Chaw"]},
{"text": "The Coens remain fastidiously indifferent to the plight of their creations, the better to concentrate on the dazzle of their doom", "is_fresh": 0, "author": ["Fernando F. Croce"]},
{"text": "Watch this film, and these film makers, closely. Neither will disappoint.", "is_fresh": 1, "author": ["Richard Corliss"]},
{"text": "An inordinately good low-budget film noir thriller.", "is_fresh": 1, "author": ["Variety Staff"]},
{"text": "A deadpan gothic thriller best described as the steamy, hardboiled fiction of Jim Thompson and James M. Cain filtered through two film-school brats.", "is_fresh": 1, "author": ["Mark Halverson"]},
{"text": "As black, sinful and nasty as a weekful of Hitchcocks, this is as fresh and intoxicating now as it was back then. In a word: deadly.", "is_fresh": 1, "author": ["Ian Nathan"]},
{"text": "The movie remains mired in a smart-alecky film-school sensibility.", "is_fresh": 0, "author": ["Dave Kehr"]},
{"text": "Blood Simple isn't bad, just self-consciously poky and austere -- a James M. Cain homage, rural-art-film division.", "is_fresh": 1, "author": ["Rob Gonsalves"]},
{"text": "A remarkably assured debut for Coen.", "is_fresh": 1, "author": ["Tom Milne"]},
{"text": "A stunning debut, and arguably one of the Coens' two best features, this Gothic noir introduced the wry, sardonic, and playful approach that would shape their future work, and launched the screen career of the brilliant Frances McDormand.", "is_fresh": 1, "author": ["Emanuel Levy"]},
{"text": "The script is so tight you can feel it screwing into the back of your neck.", "is_fresh": 1, "author": ["Mark Bourne"]},
{"text": "The movie is as dark, ironic and fatalistically comic as modern film noir comes.", "is_fresh": 1, "author": ["Louis B. Parks"]},
{"text": "Com um estilo marcante j\u00e1 no filme de estr\u00e9ia, os irm\u00e3os Coen criam uma obra noir tensa, envolvente e que faz do absurdo uma de suas principais armas.", "is_fresh": 1, "author": ["Pablo Villa\u00e7a"]},
{"text": "Someone please explain it to me: why? What's the deal?", "is_fresh": 0, "author": ["Jake Euker"]},
{"text": "Black humor, abundant originality and a brilliant visual style make Joel Coen's Blood Simple, a directorial debut of extraordinary promise.", "is_fresh": 1, "author": ["Janet Maslin"]},
{"text": "...for all its delirious impudence and film school showiness, it's so clearly a movie made by guys crazy about moviemaking.", "is_fresh": 1, "author": []},
{"text": "Useless update", "is_fresh": 0, "author": ["John Esther"]},
{"text": "Stylish shoestring noir, and an admirable filmmaking debut for the brothers Coen.", "is_fresh": 1, "author": []},
{"text": "The Coens' complicated sense of the surreal is consistently entertaining, down to the fleeting, oddball cameos and distinctly weird scripting.", "is_fresh": 1, "author": ["Jeanne Aufmuth"]},
{"text": "The movie is... filled with the little things that make a Coen brothers film unique. Watching it is like going on a ride.", "is_fresh": 1, "author": ["Robert Marley"]},
{"text": "Director Joel Coen and his co-screenwriting brother Ethan rarely miss a beat with their smart film noir dialogue and perfect little details...", "is_fresh": 1, "author": ["Brian Webster"]},
{"text": "...the movie encapsulates all that has come to typify the Coen brothers' style: engaging narrative, inventive direction, and the juxtaposition of grim violence with moments of sublime, sometimes surreal, human behavior.", "is_fresh": 1, "author": ["Tobias Peterson"]},
{"text": "This first Blood is worth a second look (or, of course, a first viewing) by fans who like their plot simple, bloody and completely engaging.", "is_fresh": 1, "author": []},
{"text": "We had no idea what we were in for back then, but the film truly did announce the arrival of two major talents.", "is_fresh": 1, "author": ["Jeffrey M. Anderson"]},
{"text": "A stylish piece of film noir, it has exasperatingly slow pacing but devilishly demented characters and a wonderfully wicked, labyrinthine plot.", "is_fresh": 1, "author": ["Steve Rhodes"]},
{"text": "An amazing, ironic debut thriller.", "is_fresh": 1, "author": ["Susan Granger"]},
{"text": "Taut, quirky, and jump-out-of-your-seat scary...", "is_fresh": 1, "author": ["Kasia Anderson"]},
{"text": "The Coens' trademark aloofness works to perfection in Blood Simple because only the audience has a bird's eye view of the action.", "is_fresh": 1, "author": ["Tom Block"]},
{"text": "Blood Simple is so derivative -- of Dashiell Hammett and James M. Cain and a thousand and one noirs -- that who or what is being ripped off is essentially beside the point.", "is_fresh": 1, "author": ["Manohla Dargis"]},
{"text": "A deliciously decadent, delightfully twisted and masterfully macabre tale.", "is_fresh": 1, "author": ["Frank Swietek"]},
{"text": "[S]till startling and stylish, despite a slew of half-baked imitations that have come along since its original release...", "is_fresh": 1, "author": ["MaryAnn Johanson"]},
{"text": "The story is haunting and violent, yet shot through with the Coens' signature brand of weird, deadpan wit and their peculiar melancholy about place and time.", "is_fresh": 1, "author": ["Margaret A. McGurk"]},
{"text": "The Coens, then as now, are alive to the possibilities of movies. So savor their technique and the sizzling performances.", "is_fresh": 1, "author": ["Peter Travers"]},
{"text": "The whole dusty, humid landscape is satanically alive...", "is_fresh": 1, "author": ["Wesley Morris"]},
{"text": "It tells a story in which every individual detail seems to make sense, and every individual choice seems logical, but the choices and details form a bewildering labyrinth in which there are times when even the murderers themselves don't know who they are.", "is_fresh": 1, "author": ["Roger Ebert"]},
{"text": "There is not one wasted shot in this arty film, nor one that is not a design student's delight... [the camera] gets down on the floor and shows us the dust swirling around a pair of boots and under a door.", "is_fresh": 1, "author": []},
{"text": "The pace can at times be a touch slow, but it's easy to see why the Coens allow certain scenes to simmer, especially when their actors are chewing up the screen as they do.", "is_fresh": 1, "author": ["Almar Haflidason"]},
{"text": "From first shot to last, the Coens seldom miss an opportunity to suggest that theirs is a movie made by evolutionarily advanced life-forms touring a primitive planet.", "is_fresh": 1, "author": ["J. Hoberman"]},
{"text": "Blood Simple is a bit like a horror film interlaced with a film noir backdrop...", "is_fresh": 1, "author": ["Ted Prigge"]},
{"text": "From the get-go, Blood Simple demonstrates the originality, warped sensibility and bravura filmmaking that have marked nearly all Coen brothers films.", "is_fresh": 1, "author": ["Jack Garner"]},
{"text": "[Blood Simple] reinvigorated the classic film noir style and lent a credible face to the burgeoning independent film movement.", "is_fresh": 1, "author": ["Marjorie Baumgarten"]},
{"text": "like watching a classic Hitchcock film with the Master of Suspense tripping on acid", "is_fresh": 1, "author": ["John A. Nesbit"]},
{"text": "Joel and Ethan Coen's spooky tale is still fresh today! They truly opened the door for low budget, intelligent, slow moving films; that real people banter, believable situations all delightfully twisted around a dreamlike state.", "is_fresh": 1, "author": ["Emily Blunt"]},
{"text": "...it is both tense and gruesome; there is little humanity here, but a great script and terrific camera work make even that bearable.", "is_fresh": 1, "author": ["Jean Lowerison"]},
{"text": "Still as dark and brutal today as it was fifteen years ago.", "is_fresh": 1, "author": ["Jon Popick"]},
{"text": "As good as it is on its own merits, the film works as the Coens' announcement of themselves to the moviegoing world.", "is_fresh": 1, "author": ["Ken Hanke"]},
{"text": "The neo-noir debut from the Coen brothers is snappy, cynical and intricate.", "is_fresh": 1, "author": ["James Rocchi"]},
{"text": "Made on a shoestring budget, the film sparkles because its characters are lively and quirky.", "is_fresh": 1, "author": ["Dennis Schwartz"]},
{"text": "Atmospheric and chilling. Among the Coen Brothers best work.", "is_fresh": 1, "author": ["Alex Sandell"]},
{"text": "The Coens explode onto the scene with this blistering neo-noir masterpiece.", "is_fresh": 1, "author": ["Scott Weinberg"]},
{"text": "It's certainly not a bad film, but it's hardly the classic reinvention of film noir that it wants to be.", "is_fresh": 1, "author": ["Jeremy Heilman"]},
{"text": "A good filmmaker can make grim material watchable, but it takes a great one (or two) to make it fun.", "is_fresh": 1, "author": ["Rob Vaux"]},
{"text": "a deliciously wicked film noir given a modern bent and reset on the open plains of central Texas", "is_fresh": 1, "author": ["James Kendrick"]},
{"text": "...a sly, tongue-in-cheek, film-noir thriller...a dark murder mystery laced with black humor.", "is_fresh": 1, "author": ["John J. Puccio"]},
{"text": "The one that started it all. Only we didn't know it back then.", "is_fresh": 1, "author": ["David N. Butterworth"]},
{"text": "", "is_fresh": 1, "author": ["Owen Gleiberman"]},
{"text": "", "is_fresh": 1, "author": []},
{"text": "", "is_fresh": 1, "author": ["Cole Smithey"]},
{"text": "", "is_fresh": 1, "author": ["Emanuel Levy"]},
{"text": "", "is_fresh": 1, "author": ["Linda Cook"]},
{"text": "", "is_fresh": 1, "author": ["Mark R. Leeper"]},
{"text": "", "is_fresh": 1, "author": ["Michael Dequina"]},
{"text": "", "is_fresh": 1, "author": ["Brian Gibson"]},
{"text": "", "is_fresh": 1, "author": ["Carol Cling"]},
{"text": "", "is_fresh": 1, "author": ["Rob Blackwelder"]},
{"text": "", "is_fresh": 1, "author": ["Mark Palermo"]},
{"text": "", "is_fresh": 1, "author": ["Michael Szymanski"]},
{"text": "", "is_fresh": 1, "author": ["Philip Martin"]},
{"text": "", "is_fresh": 1, "author": ["Josh Ralske"]},
{"text": "", "is_fresh": 1, "author": ["Elias Savada"]},
{"text": "", "is_fresh": 1, "author": ["Dan Jardine"]},
{"text": "", "is_fresh": 1, "author": ["Michael W. Phillips, Jr."]},
{"text": "", "is_fresh": 1, "author": ["Jason Clark"]},
{"text": "", "is_fresh": 1, "author": ["Robert Denerstein"]},
{"text": "", "is_fresh": 1, "author": ["Susan Stark"]},
{"text": "", "is_fresh": 1, "author": []},
{"text": "", "is_fresh": 1, "author": ["James Verniere"]},
{"text": "", "is_fresh": 1, "author": ["Blake French"]}
]