[
{"reviews_count": "259", "title": "Dead Men Tell No Tales", "avg_audience_rating": "3.5", "rotten_count": "185", "tomatometer": "29", "audience_score": "61", "avg_critic_rating": "4.7", "fresh_count": "74", "user_ratings_count": "130,062"},
{"text": "Remember when these were good?", "is_fresh": 0, "author": ["Bob Chipman"]},
{"text": "Depp prances about the screen..., slurring and swaying, but he's no joy to watch.", "is_fresh": 0, "author": ["Matt Oakes"]},
{"text": "Dead Men Tell No Tales is a hair better than the previous film, but far removed from even the simple charms of the original. ", "is_fresh": 0, "author": ["Zaki Hasan"]},
{"text": "Dead Men Tell No Tales lazily defaults to a male gaze. No two women ever exchange words, and the only other woman besides Carina is an adulteress who sleeps with Jack Sparrow.", "is_fresh": 0, "author": ["Li Lai"]},
{"text": "What little magic it does manage to recapture of the original film is outweighed by what it inferiorly copies and otherwise fails to innovate the tired formula in any important way.", "is_fresh": 0, "author": ["Jennifer Heaton"]},
{"text": "This is a movie that is greenlit by stockholders hoping that this franchise can continue to churn out billion dollar hits.", "is_fresh": 0, "author": ["Sean Mulvihill"]},
{"text": "[Orlando] Bloom is undoubtedly the best part of \"Pirates 5,\" but there's not nearly enough of him in the movie.", "is_fresh": 0, "author": ["Kirsten Acuna"]},
{"text": "The film presents a new issue graver than juggling countless plots: A case of 'whose story, and in turn, whose character is central anyway?'", "is_fresh": 0, "author": ["Nguyen Le"]},
{"text": "Thankfully, Dead Men Tell No Tales delivers a strikingly heartfelt conclusion to the series and its ever-present lead. ", "is_fresh": 1, "author": ["Aaron Peterson"]},
{"text": "But truly, there is no more milk to be got: this one is already drifting on choppy waters, with a script as formulaic and knotty as they come.", "is_fresh": 0, "author": ["Tomas Trussow"]},
{"text": "Suffers from the same tiresome formula we've come to see in previous installments making it a fun yet forgettable ride.", "is_fresh": 0, "author": ["Rendy Jones"]},
{"text": "The story itself is uninspired, and as with Carina and Henry, is just sad rework of what we've seen before. It's overlong and has too many action pieces.", "is_fresh": 0, "author": ["Kat Hughes"]},
{"text": "A future episode 20 years from now will revolve around a drunken actor wandering into an ancient, abandoned amusement park ride where distinguished actors well past the end of their working careers can be found chewing scenery.", "is_fresh": 0, "author": ["Pat Padua"]},
{"text": "\"Pirates of the Caribbean: Dead Men Tell No Tales\" is a lackluster story filled with mesmerizing special effects.", "is_fresh": 0, "author": ["Pamela Powell"]},
{"text": "Everything about the film is created to make it have that wow impact.", "is_fresh": 1, "author": ["Lapacazo Sandoval"]},
{"text": "It isn't fun, entertaining, and the scenes and character relationships fall flat, while the plot is questionable at best and horribly incoherent at worst.", "is_fresh": 0, "author": ["Mae Abdulbaki"]},
{"text": "Serves as a marginal improvement over the last two movies, in large part thanks to an appealing new female lead, but the end result still feels as much exhausting as it is entertaining. ", "is_fresh": 0, "author": ["Shaun Munro"]},
{"text": "Captain Jack Sparrow at this point in the character's life is not the Jack Sparrow we love.", "is_fresh": 0, "author": ["Jeremy Jahns"]},
{"text": "It's the Salazar show, and Javier Bardem does a good job of bringing him to life--even if his appearance seems to be inspired by Alice Cooper or Edward Scissorhands. . . .", "is_fresh": 1, "author": ["James Plath"]},
{"text": "The setpieces are often funny and the finale visually spectacular, but Depp is hanging on to this series as a source of treasure more than inspiration.", "is_fresh": 1, "author": ["Carl Kozlowski"]},
{"text": "There are some funny scenes, but the plot is a jumble of unnecessary ideas and complications.", "is_fresh": 0, "author": ["Uri Klein"]},
{"text": "... a voyage you should make only if you are a very, very big fan who can cheerfully overlook a boat-full of problems.", "is_fresh": 0, "author": ["Al Hoff"]},
{"text": "Captain Jack Sparrow is back with his special compass directing him to whatever he wants most in life, which after watching Pirates of the Caribbean: Dead Men Tell No Tales should be a better script... but it's still fun and adventurous escapism", "is_fresh": 1, "author": ["Robert Kojder"]},
{"text": "Pirates of the Caribbean: Dead Men Tell No Tales Closes a Chapter", "is_fresh": 0, "author": ["Danielle Solzman"]},
{"text": "As lumbering as its title, Pirates of the Caribbean: Dead Men Tell No Tales will leave you running for the plank, or the exit.", "is_fresh": 0, "author": ["Kristen Lopez"]},
{"text": "... Johnny Depp's Jack Sparrow looks like one of these hamburgers that you leave in the fridge for months. [Full review in Spanish]", "is_fresh": 0, "author": ["Edu Gal\u00e1n"]},
{"text": "It's a perfectly fine, entertaining enough adventure back into the treacherous and fantastical waters. ", "is_fresh": 1, "author": ["Courtney Howard"]},
{"text": "Go on this final voyage. The seas might get a bit rough but the pirates won't rob you off a good time.", "is_fresh": 1, "author": ["Nihit Bhave"]},
{"text": "This is a step up from several of its predecessors but it still feels like the filmmakers wasted anopportunity to reinvigorate the franchise.", "is_fresh": 0, "author": ["John Hanlon"]},
{"text": "Watch it for its mindblowing imagery.", "is_fresh": 1, "author": ["Devesh Sharma"]},
{"text": "Pirates of the Caribbean: Dead Men Tell No Tales is complete garbage.", "is_fresh": 0, "author": ["Sarah Marrs"]},
{"text": "Despite its very obvious attempts at renewal - with not one but two familiar faces returning to the piratical fray - this feels like a franchise that has either run its course or is flogging a dead pirate.", "is_fresh": 0, "author": ["Matthew Bond"]},
{"text": "Dead Men Tell No Tales makes it quite evident that the franchise has run out of ideas and that it's time to finally put it to rest.", "is_fresh": 0, "author": ["Jeff Beck"]},
{"text": "Actually, \"awkward and forced\" is a good way to describe the mishmash of subplots littering the film. ", "is_fresh": 0, "author": ["DaVette See"]},
{"text": "This is the fifth film, but why bother with another one?", "is_fresh": 0, "author": ["Elaine Lee"]},
{"text": "Unfortunately, as Disney strive to create a more commercial film, the story-line has evolved to feel forced, immature and generic.", "is_fresh": 0, "author": ["Rachael Sampson"]},
{"text": "Time to let it sink.", "is_fresh": 0, "author": ["Sarah Deen"]},
{"text": "Another one for Davy Jones' locker.", "is_fresh": 0, "author": ["Wesley Lovell"]},
{"text": "If you've managed to set sale without these Pirates until now, Ronning and Sandberg provide little reason to change your behavior.", "is_fresh": 1, "author": ["Robert Denerstein"]},
{"text": "As far as movies that shouldn't exist go, it's not actually half-bad.", "is_fresh": 1, "author": ["Tim Brayton"]},
{"text": "Is this movie for you? It is not for you. It is not for anyone. Do not look at it. Look anywhere else. Look anywhere but the sunken eyes of Johnny Depp.", "is_fresh": 0, "author": ["Erik Henriksen"]},
{"text": "It's all about the box office and the bottom line for the (not just) animation giant", "is_fresh": 0, "author": ["Bill Gibron"]},
{"text": "It's exhilarating, every bit of it, until the once-great, now depressingly bad Depp steps into the frame, slowing the action with maddeningly predictable pratfalls and faux-drunken slurs.", "is_fresh": 0, "author": ["Kim Hughes"]},
{"text": "Charisma can only hold out so long against a lack of originality.", "is_fresh": 0, "author": ["Brooke Corso"]},
{"text": "However, it's the script's long list of shortcomings that keeps the story from ever recapturing its previous glory, leaving us to think that it is perhaps time to abandon ship, for good.", "is_fresh": 0, "author": ["Marija Djurovic"]},
{"text": "The main problem with this film is that it feels like an unnecessary story since with five films, you can say that we have seen enough about these characters. [Full review in Spanish]", "is_fresh": 1, "author": ["Israel Acosta Aroche"]},
{"text": "The film is an irregular entertainment, but its lack of pretensions and its commitment to the classic adventures of fantastic cut are effective. [Full review in Spanish]", "is_fresh": 1, "author": ["Xavi S\u00e1nchez Pons"]},
{"text": "It's not the worst one of the saga, but this ship already sank long ago. [Full review in Spanish]", "is_fresh": 0, "author": ["Carlos D\u00edaz Reyes"]},
{"text": "Just when Disney's sea-faring fantasy franchise seemed all set to founder comes a leaner, cleaner installment that easily qualifies as the best-paced and most enjoyable of the lot. ", "is_fresh": 1, "author": ["Jim Schembri"]},
{"text": "Plenty of viewers of all ages will gobble it up and holler for more, but only fans of spectacle with no need of story, character development or wit won't feel that they've been robbed.", "is_fresh": 0, "author": ["Tim Appelo"]},
{"text": "Oh, if only dead men told no tales. Then we might have avoided this fifth Pirates of the Caribbean adventure, which fails to justify its own existence in any way whatsoever.", "is_fresh": 0, "author": ["Angie Han"]},
{"text": "There's a glint of life in this franchise yet.", "is_fresh": 1, "author": ["J. Olson"]},
{"text": "An OK blockbuster that looks expensive but lacks truly epic or visually spectacular moments. [Full review in Spanish]", "is_fresh": 0, "author": ["Sebastian Zavala Kahn"]},
{"text": "In its ability to spin mindless fun into heavy-handed bombast, the Pirates franchise is matched only by the Transformers films, and Dead Men Tell No Tales doesn't have the guts to be an exception.", "is_fresh": 0, "author": ["Daniel Barnes"]},
{"text": "There are lame, crude jokes about bottoms and horologists. There is $230 million of CG effects that never look like anything more than pixels. And then there's Depp's panto drunkenness.", "is_fresh": 0, "author": ["Tara Brady"]},
{"text": "undeniably fun at times, but also a little too familiar and derivative to achieve anything other than intermittent pleasures", "is_fresh": 0, "author": ["James Kendrick"]},
{"text": "An exhausting walk down a very long and garish plank.", "is_fresh": 0, "author": ["John Beifuss"]},
{"text": "As special effects refers, it's okay but at times the plot becomes unnecessarily long. [Full review in Spanish]", "is_fresh": 0, "author": ["Adri\u00e1n Ruiz"]},
{"text": "This fifth film in the long-running series never quite gets its sea legs. With a waterlogged script and a startlingly murky production design, this is the first movie in the franchise that lacks a sense of swashbuckling merriment.", "is_fresh": 0, "author": ["Rich Cline"]},
{"text": "The film gives the feeling that is longer than it actually is. In the end is the typical summer film: strident and empty. [Full review in Spanish]", "is_fresh": 0, "author": ["Hugo Hern\u00e1ndez Valdivia"]},
{"text": "The subtitle of the new Pirates of the Caribbean movie is \"Dead Men Tell No Tales.\" The moral of the movie, alas, is that the same cannot be said of dead franchises.", "is_fresh": 0, "author": ["Christopher Orr"]},
{"text": "The temporary alliances and perpetually battered maps are repetitive, while Depp's signature discombobulated banter, all haphazard and huffy, is mostly played out. What was amusing on first encounter in 2003 is now verging on the boilerplate.", "is_fresh": 0, "author": ["Craig Mathieson"]},
{"text": "It's a shame that Disney won't let this franchise sink. Soon enough, we'll forget why we loved this series in the first place.", "is_fresh": 0, "author": ["Yasmin Kleinbart"]},
{"text": "Pirates of the Caribbean: Dead Men Tell No Tales doesn't make much sense, and when it does, it's yo-ho-ho and a bottle of dumb.", "is_fresh": 0, "author": ["Michael Smith"]},
{"text": "Salazar's Revenge may be technically proficient and entertaining enough in fits and starts. But it lacks any real wow factor and struggles to recapture either the ingenuity of the early movies or bring anything new to the mix.", "is_fresh": 0, "author": ["Rob Carnevale"]},
{"text": "Not even a change of directors (Norwegian filmmaking partners Joachim Ronning and Espen Sandberg) can alter this oceanic monster's destructive course.", "is_fresh": 0, "author": ["Vicky Roach"]},
{"text": "It's hard to be too enthused by Depp's performance since he's delivering the same repetitious material from the earlier films. The film is far more entertaining when he's off screen.", "is_fresh": 0, "author": ["Matthew Toomey"]},
{"text": "Pirates of the Caribbean: Dead Men Tell No Tales isn't just standard issue bad; it's mind-numbingly boring. Abandon ship, gang. Seriously.", "is_fresh": 0, "author": ["Stephen Rebello"]},
{"text": "This is a rare sequel that I would argue is just as good, if not somewhat better the original.", "is_fresh": 1, "author": ["Scott Menzel"]},
{"text": "Kaya Scodelario and the wonderful Golshifteh Farahani also feature, as does some mighty CGI. A dead horse flogged, but flogged with gusto.", "is_fresh": 1, "author": ["Hilary A White"]},
{"text": "The plots of these films have always been nonsensical, but this one seems daft above and beyond the call of duty.", "is_fresh": 0, "author": ["Paul Whitington"]},
{"text": "If being dull, gruesome and obnoxiously loud weren't enough, Dead Men Tell No Tales makes sure to get in a blast of sexism, too.", "is_fresh": 0, "author": ["Sara Stewart"]},
{"text": "Zombie sharks are jumped by Pirates of the Caribbean: Dead Men Tell No Tales, our fifth and hopefully final ride through Disney's theme park franchise. You can cut in line ahead of me, if you like.", "is_fresh": 0, "author": ["Steve Persall"]},
{"text": "A rote exercise in Disney accounting.", "is_fresh": 0, "author": ["John Serba"]},
{"text": "A film for fans who don't want the ride to end. Folks, this is what beating a dead pirate looks like.", "is_fresh": 0, "author": ["Kevin A. Ranson"]},
{"text": "Has its rocky moments, but its outlandish action-sequences keep it afloat.", "is_fresh": 1, "author": ["Henry Fitzherbert"]},
{"text": "It would be a dereliction of duty to pretend any of it is fine... Any pretensions that Pirates isn't a shonky rollercoaster, constructed from dead crabs and dirty tights, has been fully abandoned.", "is_fresh": 0, "author": ["Camilla Long"]},
{"text": "It's like a piratical Fast and Furious. ... Equally stupid, too.", "is_fresh": 0, "author": ["Sonny Bunch"]},
{"text": "For a movie that never stops moving, Dead Men Tell No Tales is astoundingly dull, choked to death by expensive CGI, lumbering set-pieces, and a script seemingly cobbled together even after production was underway.", "is_fresh": 0, "author": ["Matt Brunson"]},
{"text": "Perhaps cold, dead men and women write no reviews. Fortunately, there are survivors to herald the warning. \"Pirates of the Caribbean: Dead Men Tell No Tales\" is shamefully unforgivable; wasting money, industry support, talent and time.", "is_fresh": 0, "author": ["Blake Howard"]},
{"text": "The plot is nominal, and so are the film's first 90 minutes (Paul McCartney cameo included).", "is_fresh": 0, "author": ["Simran Hans"]},
{"text": "The cursed part of the sea, that condemns men to a miserable haunted afterlife once entered, is a cave named the Devil's triangle. As Austin Powers once said, \"paging Doctor Freud\".", "is_fresh": 0, "author": ["Ed Whitfield"]},
{"text": "Everything about this new installment seems fresh. Johnny Depp shows once more he was born to play Jack Sparrow.", "is_fresh": 1, "author": ["Jackie K. Cooper"]},
{"text": "This soggy sequel sails off-course. It's a surreal shipwreck. Argh!", "is_fresh": 0, "author": ["Susan Granger"]},
{"text": "Marginally fun, but it's time for this protoplasmic franchise to finally give up the ghost. ", "is_fresh": 1, "author": ["Al Alexander"]},
{"text": "Dead Men Tell No Tales is flawed, but it's still better than Marshall's film and the weirdness that overpowered and eventually ruined Verbinski's original trilogy.", "is_fresh": 1, "author": ["Edward Douglas"]},
{"text": "Directors Joachim R\u00f8nning and Espen Sandberg soon lose control of their vessel, serving up bland nautical action alongside their predictably unbearable protagonist.", "is_fresh": 0, "author": ["Sarah Ward"]},
{"text": "Indeed, the only appreciation for Pirates of the Caribbean: Dead Men Tell No Tales is a damning one: It somehow manages to be worse than the already low expectations set for it.", "is_fresh": 0, "author": ["Kirk Baird"]},
{"text": "Salazar's Revenge is a solid couple of hours escapism and - whilst there might be the law of diminishing returns to some after seeing this - don't bet on Sparrow and Co. sailing off into the sunset just yet.", "is_fresh": 1, "author": ["John Higgins"]},
{"text": "Fantastic visuals, an epic ride, never a dull moment in this coldly calculated, smoothly crafted concoction of action, slapstick and mumbo-jumbo magic.", "is_fresh": 1, "author": ["Barry Paris"]},
{"text": "Except for a few death-defying special effects, it's two-plus hours of yo-ho-ho and a bottle of dumb.", "is_fresh": 0, "author": ["John Urbancich"]},
{"text": "It's not the best movie of the summer, but I guarantee we're going to see worse.", "is_fresh": 1, "author": ["Rob Vaux"]},
{"text": "Pirates of the Caribbean: Dead Men Tell No Tales is so convoluted, it feels like the first seafaring adventure from The Da Vinci Code's Dan Brown.", "is_fresh": 0, "author": ["Christopher Lawrence"]},
{"text": "The bounty of bawdy bits feel borrowed from Benny Hill (\"No woman's ever handled my Herschel before!\" says a stunned telescope operator), while the slapstick violence skews toward the Three Stooges.", "is_fresh": 0, "author": ["Matthew Lickona"]},
{"text": "For the first time since the franchise starter (...The Curse of the Black Pearl, 2003) one is led to exclaim, 'Entertainment, ahoy!'", "is_fresh": 1, "author": ["Rashid Irani"]},
{"text": "Pirates of the Caribbean: Dead Men Tell No Tales is an adequate series sequel, but fails to leave any lasting impression on the audience.", "is_fresh": 0, "author": ["Chris Agar"]},
{"text": "The result is a bloated, lumbering ship with no one at the helm. ", "is_fresh": 0, "author": ["Josh Terry"]},
{"text": "As a movie it's disposable. As this year's edition of a favorite ride, it will likely satisfy.", "is_fresh": 1, "author": ["Daniel M. Kimmel"]},
{"text": "Dead Men shows life when there are big action scenes. If 30 minutes of jumbled mythology and cheesy writing had been cut, the movie would have had an action beat as driving as the heart-pounding score by Geoff Zanelli.", "is_fresh": 1, "author": ["Rick Bentley"]},
{"text": "Is this really only the fifth entry in the Pirates film franchise? It feels like the 50th. Except for Javier Bardem, who brings a dollop of fresh mischief to this paycheck party, Dead Men has all the flavor of rotting leftovers. ", "is_fresh": 0, "author": ["Peter Travers"]},
{"text": "It's a perfunctory film to pass some time, but Pirates of the Caribbean is another series suffering from franchise fatigue and it needs to be put to bed or somehow find a fresh lease of life.", "is_fresh": 0, "author": ["Liam Hanlon"]},
{"text": "So, um, that's it. Pirates 5 is grand. Better than expected. A serviceable sequel. Will there be another one? Dunno. Depends on how fast Johnny Depp spends his pay cheque.", "is_fresh": 1, "author": ["Chris Wasser"]},
{"text": "Directors Joachim R\u00f8nning and Espen Sandberg work up a stormy sea-parting finale that is better than anything in The Ten Commandments. Again, the trick to enjoying this film is to expect nothing.", "is_fresh": 1, "author": ["Peter Rainer"]},
{"text": "Funny But Too Loud and Dark", "is_fresh": 0, "author": ["Diana Saenger"]},
{"text": "I daresay it is the very best fourth sequel ever made to a movie based on a 50-year-old theme park ride.", "is_fresh": 0, "author": ["Chris Klimek"]},
{"text": "Johnny Depp, has long been afflicted with one of his own: The Curse of the Giant Franchise Movie Series. In his fifth (or is it sixth?) reprise as Captain Jack Sparrow, it's pretty clear this is a marriage of extreme financial convenience and little else.", "is_fresh": 0, "author": ["Piers Marchant"]},
{"text": "Depp does what he does best: steal the show with his rum-guzzling, hilarious lines and his devil-may-care attitude.", "is_fresh": 1, "author": ["Debashine Thangevelo"]},
{"text": "The first half-hour seems like a proof of concept of what the series was meant to be -- a binge-worthy, half-hour sitcom rather than a strained, emotionless movie.", "is_fresh": 0, "author": ["Phil Villarreal"]},
{"text": "Since Johnny Depp gave up caring about two films ago, his Captain Jack Sparrow (the role that finally plucked him from teen heart-throbbing and cult popularity and made him a proper star) is no longer especially funny.", "is_fresh": 0, "author": ["David 'Mad Dog' Bradley"]},
{"text": "Fresh. barely. Johnny Depp's now dull, bumbling, mumbling & stumbling Jack Sparrow drives you to the film. His ship sailed long ago. Only the amazing effects make this work. ", "is_fresh": 1, "author": ["Gary Wolcott"]},
{"text": "There are no new treasures to be found in this installment, which is dragged down by the anchor of a prescribed franchise blueprint.", "is_fresh": 0, "author": ["Katie Walsh"]},
{"text": "This amusing buccaneering adventure, fifth time to sea, isn't ready to walk the plank just yet.", "is_fresh": 1, "author": ["Stephen Romei"]},
{"text": "The plot is a tired rehash. Still, there's something to be said for big, buoyant spectacle in a summer movie. (I mentioned the ghost sharks, right?)", "is_fresh": 0, "author": ["Robert Horton"]},
{"text": "The franchise has grown long in the tooth and the film's final scene would be a satisfying end to the series, if Disney's willing to let their cash cow go before it outstays its welcome.", "is_fresh": 0, "author": ["Rebecca Murray"]},
{"text": "This is a franchise which may have run out of the kind of steam film critics are looking for, but it still delivers for the popcorn munchers.", "is_fresh": 1, "author": ["Theresa Smith"]},
{"text": "Like the Disney theme-park attraction, a gently thrilling ride with lots to look at and an unenthusiastic Johnny Depp making an obligatory appearance as Captain Jack Sparrow.", "is_fresh": 1, "author": ["Annlee Ellingson"]},
{"text": "But even with a not-so-subtle passing of the torch hinting at potential future sequels or spinoffs, here's hoping this really is the last cruise of the Black Pearl.", "is_fresh": 0, "author": ["Sara Michelle Fetters"]},
{"text": "Pirates of the Caribbean: Dead Men Tell No Tales is an egregious example of bloated franchise filmmaking, an exercise stuffed with idiocy and sorely lacking in fun.", "is_fresh": 0, "author": ["Roxana Hadadi"]},
{"text": "Dead Men Tell No Tales is an all-around underwhelming experience.", "is_fresh": 0, "author": ["Jack Giroux"]},
{"text": "In the smaller character moments the film is at its best, so it's a shame the script is such a bucket of burley. ", "is_fresh": 0, "author": ["Matt Neal"]},
{"text": "The flick certainly puts its money up on the screen for all to behold. I just wish some of that had gone into paying for a better screenplay. (Full Content Review for Parents - Violence, Sexual Content, etc. - also Available)", "is_fresh": 0, "author": ["Jim Judy"]},
{"text": "Shhhh! Don't wake Master Depp. He's sleeping through his latest paycheck film.", "is_fresh": 0, "author": ["Christian Toto"]},
{"text": "Easily the best since the 2003 original\u0097which is to say it's mediocre but occasionally diverting, and doesn't cause one to want to run screaming from the theater.", "is_fresh": 0, "author": ["Dustin Putman"]},
{"text": "...ultimately feels just as bloated and overlong as any of its subpar predecessors...", "is_fresh": 0, "author": ["David Nusair"]},
{"text": "It often feels like one long chase but the special effects are impressive and the film makes the most of its classy, Oscar-winning cast.", "is_fresh": 1, "author": ["Allan Hunter"]},
{"text": "A watchable picture, even reminiscent here and there of when the franchise still felt fresh and original.", "is_fresh": 1, "author": ["Brian Viner"]},
{"text": "To accuse Depp of phoning it in would be to flatter him. In this fifth run-out as Sparrow he barely has the energy to tweet it in.", "is_fresh": 0, "author": ["Matthew Norman "]},
{"text": "Now in its fifth outing and trying to press reset after an unnecessary fourth movie, Depp's campy performance in that role is losing crucial energy and humour.", "is_fresh": 0, "author": ["Kate Taylor"]},
{"text": "It's fast paced but goes nowhere new and the film's \"bigness\" makes it hard to remember what an amazingly unexpected treasure The Curse of the Black Pearl was.", "is_fresh": 0, "author": ["James Berardinelli"]},
{"text": "Over the course of 14 years of playing this character, Depp has run out of new things to do with his performance, and is now pretty much emailing it in.", "is_fresh": 0, "author": ["Kurt Loder"]},
{"text": "Jack Sparrow may be a second skin for Depp, but he's delightfully, boozily amusing --- a perfect example of an identifiable character.", "is_fresh": 1, "author": ["Jeanne Kaplan"]},
{"text": "I can't recommend this film to anyone but \"Pirates\" diehards, and Johnny Depp devotees.", "is_fresh": 0, "author": ["David Kaplan"]},
{"text": "We had zero hope for the fifth chapter in the waterlogged Pirates of The Caribbean franchise. And we were wrong. This thing is terrific.", "is_fresh": 1, "author": ["Liz Braun"]},
{"text": "The fact is, Pirates, you are so insultingly lazy it's a wonder anyone puts up with you at all. If you were a person, I'd have thrown you out the house years ago.", "is_fresh": 0, "author": ["Deborah Ross"]},
{"text": "As expected, there's little subtlety in Salazar's Revenge. It's over-the-top comedy and loud action, unnecessarily salacious jokes and copied scenes from the original.", "is_fresh": 0, "author": ["Pauline Bock"]},
{"text": "For fans who've stayed on board, this is a rewarding final act. But for others who've long since tired of this ride, there's little reason to sail away for this voyage.", "is_fresh": 0, "author": ["Jeffrey Lyles"]},
{"text": "Johnny Depp is adrift at sea, shipwrecked aboard a sinking vessel, drowning in a typhoon of CGI murkiness. Savvy?", "is_fresh": 0, "author": ["Rohan Naahar"]},
{"text": "With no interesting characters to lean on, R\u00f8nning and Sandberg need lots of imaginative action set pieces to provide any thrills. Sadly, the action is generic and drags on for far too long, which doesn't help the already lethargic pacing.", "is_fresh": 0, "author": ["J.R. Kinnard"]},
{"text": "In short, Dead Men Tell No Tales feels like a lazy rehash of old ideas.", "is_fresh": 0, "author": ["Kanin Srimaneekulroj"]},
{"text": "Productions like this come and go, crumbling tentpoles to be replaced by new timber, but they are self-fulfilling prophecies, and dire ones, about the future of the theatrical movie business. They're accomplices in a soul heist.", "is_fresh": 0, "author": ["Joe Morgenstern"]},
{"text": "Boring. That's how I'd describe the latest Pirates film. Apparently, live men tell leaden tales like this, overstuffed with subplots and uninteresting characters. I'd rather walk the plank than spend another two hours with Jack Sparrow and company.", "is_fresh": 0, "author": ["Leonard Maltin"]},
{"text": "The action set pieces and bravura visual effects are among the franchise's selling points, and at least on this score, [the film] doesn't disappoint one bit.", "is_fresh": 1, "author": ["Nandini Ramnath"]},
{"text": "The show is brilliant and the screenplay is full of incidents so Johnny Depp recreates himself in his facet of comedian. [Full review in Spanish]", "is_fresh": 1, "author": ["Francisco Marinero"]},
{"text": "Unfortunately, giving directors the chance to let their imaginations run riot can lead to tiring excess and that is what happens in this fifth episode of the series.", "is_fresh": 0, "author": ["Grant Rollings"]},
{"text": "Ultimately, buckles are swashed in time-honoured fashion in a series where the splendid special effects have done more than their fair share of keeping things afloat.", "is_fresh": 1, "author": ["Tim Evans"]},
{"text": "If you're willing to pay to see the fifth instalment of a movie that began as a theme park attraction you can't really complain about being taken for a ride.", "is_fresh": 0, "author": ["Alistair Harkness"]},
{"text": "Nothing in the story really takes precedence over the action, but this is about the ride, which for the most part is enjoyable.", "is_fresh": 1, "author": ["James Luxford"]},
{"text": "Occasionally mildly entertaining, but mostly a dreary chore. ", "is_fresh": 0, "author": ["Daniel Rutledge"]},
{"text": "For as much talking as these characters do about it, the magical thingamajig might as well be the movie's central character.", "is_fresh": 0, "author": ["Mark Dujsik"]},
{"text": "The money is on the screen, Captain Jack is still a drunk and Bardem creates another infamous villain. Jack is not gay anymore. ", "is_fresh": 1, "author": ["Victoria Alexander"]},
{"text": "Talented cast can't save tired, action-heavy franchise. ", "is_fresh": 0, "author": ["Sandie Angulo Chen"]},
{"text": "Dead Men Tell No Tales hasn't the faintest residue of piratic thrill. It arouses no joy, no sense of daring. The prevailing register, instead, is indifference -- the bone-deep dispassion of mediocrity.", "is_fresh": 0, "author": ["Calum Marsh"]},
{"text": "No tale at all would have been an improvement on this exhaustively bland one.", "is_fresh": 0, "author": ["Rob Hunter"]},
{"text": "Maybe if I watched it again, Dead Men would make more sense, but here's the thing: I didn't get Curse of the Black Pearl all in one go either, but I knew I wanted to watch it again.", "is_fresh": 0, "author": ["Steven D. Greydanus"]},
{"text": "If you've never seen a Pirates of the Caribbean, this one will pass the time nicely. If you have, Dead Man Tell No Tales may invoke d\u00e9j\u00e0 vu. ", "is_fresh": 0, "author": ["Daniel Eagan"]},
{"text": "Dead Men Tell No Tales, coming in at a mere 129 minutes, is the shortest of the five films, but it feels like a very long slog from titles to credits.", "is_fresh": 0, "author": ["Graeme Tuckett"]},
{"text": "Popcorn munchers and franchise fans will find plenty to like.", "is_fresh": 1, "author": ["Linda Barnard"]},
{"text": "'Pirates of the Caribbean: Dead Men Tell No Tales' is indeed see-worthy.", "is_fresh": 1, "author": ["Roger Tennis"]},
{"text": "Its pleasures are so meager, its delight in its own inventions so forced and false, that it becomes almost the perfect opposite of entertainment.", "is_fresh": 0, "author": ["A.O. Scott"]},
{"text": "It's hard not to get on board this swashbuckling romp - particularly with Johnny Depp in fine form.", "is_fresh": 1, "author": ["Francesca Rudkin"]},
{"text": "[It] tries to turn back time, seeking to replicate the first 2003 film's chemistry. That attempt to swim against the tide doesn't entirely work, but at least delivers moments that fleetingly jolt this... fifth installment to sporadic life.", "is_fresh": 0, "author": ["Brian Lowry"]},
{"text": "Like its predecessors, Dead Men is a wishy-washy movie that isn't violent or edgy enough for adults but feels just a bit too disgusting and unsettling for kids.", "is_fresh": 0, "author": ["Bernard Boo"]},
{"text": "Fans of the originals will recognize enough connective tissue to make them mindful of the first trilogy, & average viewers will find more than enough to enjoy & make them glad they bought a ticket.", "is_fresh": 1, "author": ["Mark Hughes"]},
{"text": "I found Dead Men Tell No Tales to be passably fun and certainly no harder to watch than any of the better-pedigreed blockbusters this year.", "is_fresh": 1, "author": ["Jeffrey Bloomer"]},
{"text": "Pirates of the Caribbean: Dead Men Tell No Tales isn't the best in the franchise, but it's certainly not the worst.", "is_fresh": 1, "author": ["Keisha Hatchett"]},
{"text": "A fairly charmless and wearingly frenetic sequel with a feeling of desperate obligation to it. ", "is_fresh": 0, "author": ["Eric D. Snider"]},
{"text": "\"Pirates of the Caribbean: Dead Men Tell No Tales\" remains true to its Disney theme park roots. Loud, overstimulating and hard to take in all in one sitting, it feels like the vacation that you'll need a vacation from.", "is_fresh": 0, "author": ["Michael O'Sullivan"]},
{"text": "Has any actor ever seemed as comfortable in a role as Johnny Depp channeling Capt. Jack Sparrow? I suppose it's the equivalent of us slapping on saggy sweat pants and a ratty T-shirt for some serious Sunday couch time.", "is_fresh": 1, "author": ["Clint O'Connor"]},
{"text": "Padding out its muddled 129 minutes with the sluggish pace of a funeral barge, it marks the ignominious low of a once great series. It lacks yo-ho-ho.", "is_fresh": 0, "author": ["Colin Covert"]},
{"text": "Better than the last one, but that's not saying much. Time for Jack Sparrow to retire, although Geoffrey Rush occasionally livens things up, and Kaya Scodelario is one to watch. ", "is_fresh": 1, "author": ["Chris Bumbray"]},
{"text": "Depp, who once was among the most risk-taking actors in film, seems to be merely going through the motions.", "is_fresh": 0, "author": ["Calvin Wilson"]},
{"text": "Worth it for the astonishing open set-piece, but the rest is hot garbage.", "is_fresh": 0, "author": ["Adam Woodward"]},
{"text": "Well, blow me down - the fifth entry in a listing franchise is the best \"Pirates\" movie since the first.", "is_fresh": 1, "author": ["Laura Clifford"]},
{"text": "How was the movie? It was okay, I guess! Second best Pirates of the Caribbean movie! With a bullet! (For the record, that's not really a compliment.)", "is_fresh": 0, "author": ["Todd VanDerWerff"]},
{"text": "Dead Men Tell No Tales works mostly as a stand-alone adventure that doesn't require the viewer to be familiar with Pirates canon.", "is_fresh": 1, "author": ["Oktay Ege Kozak"]},
{"text": "I often say of these popcorn movies that even when they're fun, they're forgettable. Dead Men was a movie I was forgetting while I was watching it.", "is_fresh": 0, "author": ["Brad Keefe"]},
{"text": "Better to scupper this armada of waterlogged mediocrity as soon as possible.", "is_fresh": 0, "author": ["Marc Savlov"]},
{"text": "It's stuffed to the gills with effects executed by the highest-paid artists and technicians in the business. But it's still a sorry spectacle.", "is_fresh": 0, "author": ["David Edelstein"]},
{"text": "Been there, plundered that.", "is_fresh": 0, "author": ["Susan Wloszczyna"]},
{"text": "There is a nostalgic charm, but like opening a \"Greatest Hits\" album from an old favorite 14 years on, you aren't at risk of finding anything new here. Much less exciting.", "is_fresh": 0, "author": ["David Crow"]},
{"text": "It's not the worst of the Pirates sequels, but it's not anywhere near as good as the first film either.", "is_fresh": 0, "author": ["Scott Chitwood"]},
{"text": "After sailing around for nearly 15 years, the franchise feels overstuffed and waterlogged, all a-swirl with bustle, swill and bilge.", "is_fresh": 0, "author": ["Neil Pond"]},
{"text": "The dead tell a tale in the latest Pirates of the Caribbean movie, but unfortunately that tale is erratic, filled with holes, peppered with far-too-convenient plot points and tarnished by over-the-top situations ...", "is_fresh": 0, "author": ["Britton Peele"]},
{"text": "Early reports on \"Dead Men\" suggested it was a step up from the last couple of \"Pirates\" pictures. That's like saying Grandma showed impressive speed in outrunning Great-Grandma.", "is_fresh": 0, "author": ["Robert W. Butler"]},
{"text": "Typically convoluted and interminable.", "is_fresh": 0, "author": ["Josh Bell"]},
{"text": "It's a strange thing for a movie to get more quiet when cannons fire.", "is_fresh": 0, "author": ["Mark Feeney"]},
{"text": "It has a few thrilling action sequences, but it's often loud, dumb, exhausting and, most unfortunately, lacks the wit, excitement and fun that made the first Pirates of the Caribbean so entertaining.", "is_fresh": 0, "author": ["Avi Offer"]},
{"text": "\"Tales\" doesn't possess the ambition to be anything more than yet another noisy \"Pirates of the Caribbean\" misfire.", "is_fresh": 0, "author": ["Brian Orndorf"]},
{"text": "The most see-worthy entry in the 'Pirates' franchise since the first installment, but still a comparatively leaky vessel, with Depp's Sparrow in particular a shadow of his former self.", "is_fresh": 0, "author": ["Frank Swietek"]},
{"text": "The best in the series since the original. Manages to capture some of the adventure and magic feel of that first entry. [Full review in Spanish]", "is_fresh": 1, "author": ["Fico Cangiano"]},
{"text": "Maintains its lightweight and sensational standard but seems resigned to continue repeating its Big Hits instead of sailing into unexplored waters. [Full review in Spanish]", "is_fresh": 0, "author": ["Benjam\u00edn Harguindey"]},
{"text": "A cartoonish Depp and a muddled plot send this fifth \"Pirates\" film to the bottom.", "is_fresh": 0, "author": ["Rafer Guzman"]},
{"text": "Won't do more than recast elements from the first film without bothering to figure out why they worked the first time through or if they should be repeated.", "is_fresh": 0, "author": ["Joshua Starnes"]},
{"text": "It's fine for a bit, and even pleasant, but then you realize that you've seen all of these things before, and they aren't getting any fresher.", "is_fresh": 0, "author": ["Norman Wilner"]},
{"text": "Dead men may indeed tell no tales, but dead film franchises will go right on tearing up tickets until audiences finally wise up.", "is_fresh": 0, "author": ["Leigh Paatsch"]},
{"text": "When the opening sequence of Pirates of the Caribbean: Dead Men Tell No Tales was done, I had a huge smile on my face. I wish I could tell you it lasted.", "is_fresh": 0, "author": ["Luke Y. Thompson"]},
{"text": "Does the world really need a fifth Pirates of the Caribbean movie? Is there a limit to the amount of times a Hollywood studio can yell, \"Captain Jack is back!\" before the collective audience replies: \"Who cares?!\"", "is_fresh": 0, "author": ["Kevin Maher"]},
{"text": "Dead men may tell no tales, but bored audience members do. Open bar, anyone? Can we toast the end of this franchise? Please?", "is_fresh": 0, "author": ["Moira MacDonald"]},
{"text": "Depp still charms, although his eccentricities get buried under the galumphing theatrics of directors Joaquim R\u00f8nning and Espen Sandberg.", "is_fresh": 0, "author": ["Bennett Campbell Ferguson"]},
{"text": "Pirates of the Caribbean: Dead Men Tell No Tales isn't a terrible sequel, just a disappointing one.", "is_fresh": 0, "author": ["Dann Gire"]},
{"text": "The series remains as big, brash, action-packed and, well, downright silly as ever.", "is_fresh": 1, "author": ["Chris Newbould"]},
{"text": "A surprisingly sprightly and enjoyable late entry in the Pirates Of The Caribbean franchise.", "is_fresh": 1, "author": ["Geoffrey Macnab"]},
{"text": "In order to survive and thrive, the franchise needs to stop relying solely on Depp and introduce younger characters who can carry future movies.", "is_fresh": 0, "author": ["Julie Washington"]},
{"text": "It feels like an eternity of shtick, a ceaseless rattle of cartoon imagery protracted to the point of boredom and exhaustion.", "is_fresh": 0, "author": ["Blake Goble"]},
{"text": "The whole endeavour skips along at a rate of knots -- however, like too many of its predecessors, Salazar's Revenge runs aground in an overlong and patience-sapping final forty minutes.", "is_fresh": 1, "author": ["Alan Corr"]},
{"text": "We have Oscar winners Geoffrey Rush and Javier Bardem hamming it up beneath all the makeup and CGI trickery, and that's a hoot. Bardem's Salazar is a genuinely frightening creation.", "is_fresh": 1, "author": ["Richard Roeper"]},
{"text": "The problem is that none of it is fresh; larger helpings of stale ideas cannot mask the thinness of the storytelling.", "is_fresh": 0, "author": ["John Lui"]},
{"text": "While the pieces remain, there's no life left in this franchise. It should have sailed off into the horizon ten years ago. The Pirates' life is over.", "is_fresh": 0, "author": ["Matt Goldberg"]},
{"text": "Ever ridden an amusement-park ride once and it was really fun and exciting? And then you rode it again and again and it got less fun, until finally you wondered why you liked it in the first place? And here we are.", "is_fresh": 0, "author": ["Bill Goodykoontz"]},
{"text": "Johnny Depp's perfunctory gestures and flailing pratfalls befit a film that brings the franchise's theme-park roots full circle. ", "is_fresh": 0, "author": ["Jake Cole"]},
{"text": "They get the tone right -- affectionate. Ask the \"Baywatch\" boobs how important that is. ", "is_fresh": 1, "author": ["Roger Moore"]},
{"text": "If it were better - if it were merely a neutral experience - it might be called a waste of time. But sitting in a theater fighting restless leg syndrome is more than a waste of time; it's actively unpleasant.", "is_fresh": 0, "author": ["Mick LaSalle"]},
{"text": "[An] ugly skyscraper of a film; to build it must have been a monumental undertaking (that cost Disney a reported $230million), but what, if anything of merit is the outcome?", "is_fresh": 0, "author": ["Simon Foster"]},
{"text": "Another jolly roger of a comedic adventure in the Caribbean, Pirates 5 (for shorthand) is as robust as it is helter skelter. ", "is_fresh": 1, "author": ["Andrew L. Urban"]},
{"text": "It's not a great movie or top-notch entertainment, but it does tell a fun enough adventure to regain faith in a saga that had given clear symptoms of burnout. [Full review in Spanish]", "is_fresh": 0, "author": ["Mikel Zorrilla"]},
{"text": "Sparrow even jumps over a shark in Dead Men-a zombie shark, but a shark nonetheless.", "is_fresh": 0, "author": ["Ignatiy Vishnevetsky"]},
{"text": "In the end, Dead Men Tell No Tales does what it says on the tin, and that's fine.", "is_fresh": 1, "author": ["Travis Johnson"]},
{"text": "Trouble is you'll probably have amnesia akin to a Sparrow-inspired hangover tomorrow because you're unlikely to remember much from this tall tale.", "is_fresh": 0, "author": ["Oliver Pfeiffer"]},
{"text": "Directors Joachim Ronning and Espen Sandberg do a great job directing a Pirates of the Caribbean movie. They make the sea look majestic as they did in their film Kon-Tiki.", "is_fresh": 1, "author": ["Fred Topel"]},
{"text": "The stench of the inevitable is all over Dead Men Tell No Tales.", "is_fresh": 0, "author": ["Dave Schilling"]},
{"text": "The story once again centers on Johnny Depp's Captain Jack Sparrow, a character who at this point makes more sense in a Party City clearance aisle than on a multiplex screen.", "is_fresh": 0, "author": ["Alan Scherstuhl"]},
{"text": "Proves that it may finally be time for Captain Jack to hang up his sword and give up the pirate's life for good.", "is_fresh": 0, "author": ["Conner Schwerdtfeger"]},
{"text": "But now we're at the fifth movie with Pirates of the Caribbean: Dead Men Tell No Zzzzzzz....sorry, even the title is overlong and dull. ", "is_fresh": 0, "author": ["Travis Hopson"]},
{"text": "The franchise finally overstays its welcome with this cacophony of CGI spectacle, a contrived and confusing plot, and a newly cruel and stupid Jack Sparrow.", "is_fresh": 0, "author": ["MaryAnn Johanson"]},
{"text": "The most enjoyable sequel so far, thanks to a fresh-off-the-boat directing team and a script that actively strives to recapture the magic of the first film.", "is_fresh": 1, "author": ["Matthew Turner"]},
{"text": "Salazar's Revenge quickly reminds you why we all fell in love with Depp's Captain Jack Sparrow and his drunken exploits in the first place.", "is_fresh": 1, "author": ["Ian Sandwell "]},
{"text": "At 129 minutes, it is also the shortest instalment in the Pirates saga, so that's something I suppose.", "is_fresh": 0, "author": ["Simon Miraudo"]},
{"text": "So hollow are Henry Turner, Carina, and at this point Jack Sparrow that there's not nearly as much joy as there should be in watching them run amok across the land and sea.", "is_fresh": 0, "author": ["Michael Arbeiter"]},
{"text": "Poor chemistry between Thwaites and Scodelario also dampens the affair, leaving Depp with too much to do.", "is_fresh": 0, "author": ["Jack Shepherd"]},
{"text": "Five films into the Pirates of the Caribbean series, the truth must be faced: the preening Captain Jack Sparrow, played by Johnny Depp, is just not as charming as he used to be.", "is_fresh": 0, "author": ["Jake Wilson"]},
{"text": "After this fifth episode, you'll wish Disney would just declare the franchise dead and tell no more tales.", "is_fresh": 0, "author": ["Mark Kennedy"]},
{"text": "I left the theater relieved that Dead Men Tell No Tales is better than the last Pirates movie and also hoping that this IS the last Pirates movie.", "is_fresh": 0, "author": ["Jim Vejvoda"]},
{"text": "Maybe it's nostalgia or the fact that nautical adventures remain far less common in the multiplex than superhero fare, but the series' central charm is precious cargo whose returns have yet to entirely diminish.", "is_fresh": 1, "author": ["Michael Nordine"]},
{"text": "The most divertingly enjoyable since the first. A professionally crafted brew of action, slapstick and supernatural mumbo-jumbo, it's less likely to spur timepiece glances than did the last few bloated installments.", "is_fresh": 1, "author": ["Robert Abele"]},
{"text": "Dead Men Tell No Tales is wildly uneven, but an improvement over the last installment. Johnny Depp goes to the well, but still rules the sea as Captain Jack Sparrow.", "is_fresh": 1, "author": ["Julian Roman"]},
{"text": "Whatever charm and charisma Johnny Depp once had is well and truly lost at sea.", "is_fresh": 0, "author": ["Ellie Walker-Arnott"]},
{"text": "Five films in, Pirates still leaves you feeling a lot like the Magic Kingdom ride it's so famously inspired by: alternately thrilled, exhausted, and seriously regretting that last funnel cake.", "is_fresh": 1, "author": ["Leah Greenblatt"]},
{"text": "The film is not unlike a classic rock super group reuniting to play all the greatest hits, with the payday at the end as the only true motivation, rather than returning with something new to say about their work.", "is_fresh": 0, "author": ["Rodrigo Perez"]},
{"text": "Well, at least it's short. ", "is_fresh": 0, "author": ["Matt Prigge"]},
{"text": "Setting a mercifully brisk pace for the often long winded adventures, the story reaches a safe berth in a little over two hours.", "is_fresh": 1, "author": ["Chris Hunneysett"]},
{"text": "Dead men may tell no tales, but with Disney's latest Pirates sequel, I'm not convinced that living men can tell tales with any more intrigue.", "is_fresh": 0, "author": ["Matt Donato"]},
{"text": "With incoming co-directors, fresh faces, surprise cameos and a rollicking script, this fifth instalment sparkles like pirate booty.", "is_fresh": 1, "author": ["James Mottram"]},
{"text": "Better hoist a distress signal fast, maties. This ship's sinking fast -- and there's no safe harbor in sight.", "is_fresh": 0, "author": ["Stephen Whitty"]},
{"text": "Not the return to form you might have been hoping for. Its story might cover all the same beats as the 2003 original, but there's little of that film's spark or spirit.", "is_fresh": 0, "author": ["Dan Jolin"]},
{"text": "A mostly fun partial reset, but this series needs to slip its moorings and make for new horizons.", "is_fresh": 1, "author": ["Robbie Collin"]},
{"text": "Pirates of the Caribbean: Dead Man Tell No Tales is practically incoherent.", "is_fresh": 0, "author": ["Mike Ryan"]},
{"text": "Dead Men Tell No Tales moves at a faster rate of knots than any Pirates film; trouble is, nothing has really been added. It's the same soggy ride, set to a marginally preferable speed.", "is_fresh": 0, "author": ["Mike McCahill"]},
{"text": "Manages to put a bit of wind back in the sails; though not enough to return the franchise to its swashbuckling best.", "is_fresh": 0, "author": ["John Hazelton"]},
{"text": "The long-running joke of the series is that pirate Jack Sparrow never learns and never changes; perhaps after five films a change might do him -- and us -- some good.", "is_fresh": 0, "author": ["Don Kaye"]},
{"text": "Little wonder the plot wobbles like Sparrow negotiating a crumbling rooftop, but its transparent purpose helps keep the footing fleet.", "is_fresh": 1, "author": ["Kevin Harley"]},
{"text": "Cinematic fool's gold. Choppy waters ahead for the franchise...", "is_fresh": 0, "author": ["Hannah Woodhead"]},
{"text": "Depp remains wholeheartedly the focus of this fifth Pirates film, and saying the character's loopy novelty has faded is like complaining that there are maggots in the below-decks gruel: You knew what you were getting when you came aboard.", "is_fresh": 0, "author": ["John DeFore"]},
{"text": "The franchise has lost a bit of its luster with every successive installment, but never has a \"Pirates\" film felt this inessential, this depressingly pro forma.", "is_fresh": 0, "author": ["Andrew Barker"]},
{"text": "The most important lesson from the new Pirates of the Caribbean? Ghost sharks should have been added a long time ago.", "is_fresh": 1, "author": ["Brian Truitt"]},
{"text": "It's a slight, but enjoyable epilogue to what was once a groundbreaking franchise. ", "is_fresh": 1, "author": ["Scott Mendelson"]},
{"text": "Pirates of the Caribbean: Dead Men Tell No Tales suggests the time has come for this franchise to hang up its tricorne hat.", "is_fresh": 0, "author": ["Kristy Puchko"]},
{"text": "The whole movie is so nonsensical that it almost seems like a misguided aesthetic choice.", "is_fresh": 0, "author": ["Matt Singer"]},
{"text": "It is time to let this series rest in peace, or at the very least, spend the rest of its doomed, immortal days sinking to the bottom of the ocean.", "is_fresh": 0, "author": ["Chelsey Grasso"]},
{"text": "Hardly original nor necessary, but a fun and absorbing escapade on the Seven Seas.", "is_fresh": 1, "author": ["Jamie Neish"]}
]