[
{"reviews_count": "45", "title": "Enter the Dragon", "avg_audience_rating": "3.9", "rotten_count": "2", "tomatometer": "96", "audience_score": "92", "avg_critic_rating": "7.8", "fresh_count": "43", "user_ratings_count": "105,119"},
{"text": "A whoop-and-holler entertainment, which is to say that it's a lavish, corny action movie, not boring for a second and as outrageously wry as it is visually appealing. ", "is_fresh": 1, "author": ["Alan R. Howard"]},
{"text": "Director Robert Clouse works the material for efficiency and optimum thrill, while providing a buoyant visual style to the action.", "is_fresh": 1, "author": ["Chris Cabin"]},
{"text": "A pop-masterpiece, and one of the finest pieces of pure action cinema ever made. ", "is_fresh": 1, "author": ["Chris Bumbray"]},
{"text": "As in even the very best Kung Fu movies, mayhem ensues, especially once hundreds of fighting champions storm the island in an out-of-control melee that Lee walks through with complete cold discipline.", "is_fresh": 1, "author": ["J.C. Ma\u00e7ek III"]},
{"text": "A pretty excellent action film that gives [Star] Lee the chance to play the dashing hero...", "is_fresh": 1, "author": ["Felix Vasquez Jr."]},
{"text": "Enter the Dragon is the first classy Kung Fu movie specially designed for Western audiences, and that's not to be confused with first-class.", "is_fresh": 0, "author": ["William Paul"]},
{"text": "[VIDEO ESSAY] From a historical perspective of cultural influence, Bruce Lee's last movie is a martial arts film of epic proportions. ", "is_fresh": 1, "author": ["Cole Smithey"]},
{"text": "The acting is wooden and the sound effects are even worse (especially in terms of voice dubbing). But the fight scenes are excellent especially in reference to Bruce Lee.", "is_fresh": 1, "author": ["Matthew Pejkovic"]},
{"text": "The only real disappointment about Enter the Dragon is that it is Bruce Lee's last movie.", "is_fresh": 1, "author": []},
{"text": "The chop-socky film to beat them all.", "is_fresh": 1, "author": []},
{"text": "If kung fu is now the standard badass language, Enter the Dragon -- featuring Lee's great slow-burn stare -- is the first grammar lesson.", "is_fresh": 1, "author": ["Peter Travers"]},
{"text": "It's worth catching this schlock art film to see Lee play a 007-type super-agent, who is an expert in kung-fu.", "is_fresh": 1, "author": ["Dennis Schwartz"]},
{"text": "Presents a powerful, kinetic ballet by a martial arts master at the peak of his form--just try looking away from him.", "is_fresh": 1, "author": ["Christopher Smith"]},
{"text": "Rising popularity of the Chinese martial arts as screen entertainment climaxes in fine crescendo in this violence-drenched actioner.", "is_fresh": 1, "author": []},
{"text": "Nonstop action is what these films are about, and that's what you get here.", "is_fresh": 1, "author": []},
{"text": "Ripping entertainment overall, with just enough meat for amateur sociologists.", "is_fresh": 1, "author": ["Dave Kehr"]},
{"text": "...it's still great entertainment and remains a first-class action thriller in first-class style.", "is_fresh": 1, "author": ["John J. Puccio"]},
{"text": "High karate and low kitsch ... Forget the dopey James Bond plot and train your eyes, little grasshopper, on Lee as he takes on army of henchmen, demonstrating his revolutionary kung-fu moves and a fire-breathing squint.", "is_fresh": 1, "author": ["Thomas Delapa"]},
{"text": "Worth seeing for Lee, but still unforgivably wasteful of his talents.", "is_fresh": 0, "author": []},
{"text": "The granddaddy of martial arts movies", "is_fresh": 1, "author": ["Jon Niccum"]},
{"text": "On an adventure level, the performances are quite good. The one by Mr. Lee, not only the picture's supermaster killer but a fine actor as well, is downright fascinating.", "is_fresh": 1, "author": ["Howard Thompson"]},
{"text": "For martial arts fans, this is THE one. (I'm not such a fan.)", "is_fresh": 1, "author": ["Steve Crum"]},
{"text": "The opening drums in Lalo Schifrin's musical score can give you chills.", "is_fresh": 1, "author": ["Douglas Pratt"]},
{"text": "It's easy to see why Lee was -- and still is -- such a big star. He had a charm and charisma that few have. The camera loved him. He had that special undefinable quality that James Dean, Marilyn Monroe, Humphrey Bogart and a few others have.", "is_fresh": 1, "author": ["Jeffrey M. Anderson"]},
{"text": "Sit back and marvel at the Master; you won't find a better showcase for his skills.", "is_fresh": 1, "author": ["Rob Vaux"]},
{"text": "Lee's last movie of note features him in full prowess.", "is_fresh": 1, "author": ["Dan Lybarger"]},
{"text": "Bruce Lee's best film, and sadly, his parting opus.", "is_fresh": 1, "author": ["Brian Mckay"]},
{"text": "...one of the all-time best martial-arts action films...", "is_fresh": 1, "author": ["Marjorie Baumgarten"]},
{"text": "One of the great action films. Pure fun.", "is_fresh": 1, "author": ["Gerry Shamray"]},
{"text": "It is a meld of the decade's most pronounced filmic conventions (the long forward zoom; scoring with disco-inspired funk; brief gratuitous nudity; the archetypal Afro).", "is_fresh": 1, "author": ["Rumsey Taylor"]},
{"text": "If you're just now getting into the old-school martial-arts flicks, start right here.", "is_fresh": 1, "author": ["Scott Weinberg"]},
{"text": "Enter The Dragon marked a new high point in Bruce's ability to marry brilliant choreography with dynamic shooting styles.", "is_fresh": 1, "author": ["Almar Haflidason"]},
{"text": "The best of his short lived career.", "is_fresh": 1, "author": ["John A. Nesbit"]},
{"text": "A classic of its genre that must be seen by any self-respecting movie buff.", "is_fresh": 1, "author": ["Christopher Null"]},
{"text": "Certainly one of the baddest movies there is -- in every sense of the term.", "is_fresh": 1, "author": ["Keith H. Brown"]},
{"text": "No one could overstate the degree of Lee's international star power and influence. He honorably held his place in a line of great action stars that goes all the way back to Douglas Fairbanks.", "is_fresh": 1, "author": ["Bob Graham"]},
{"text": "A incredibly entertaining piece of cinema.", "is_fresh": 1, "author": ["Dragan Antulov"]},
{"text": "", "is_fresh": 1, "author": ["Cole Smithey"]},
{"text": "", "is_fresh": 1, "author": ["Chuck O'Leary"]},
{"text": "", "is_fresh": 1, "author": ["Emanuel Levy"]},
{"text": "", "is_fresh": 1, "author": ["Jake Euker"]},
{"text": "", "is_fresh": 1, "author": ["Rich Cline"]},
{"text": "", "is_fresh": 1, "author": ["Michael Dequina"]},
{"text": "", "is_fresh": 1, "author": ["Philip Martin"]},
{"text": "", "is_fresh": 1, "author": ["Robert Roten"]}
]