[
{"reviews_count": "239", "title": "Eternal Sunshine of the Spotless mind", "avg_audience_rating": "4.1", "rotten_count": "17", "tomatometer": "93", "audience_score": "94", "avg_critic_rating": "8.5", "fresh_count": "222", "user_ratings_count": "570,643"},
{"text": "For all its high-falutin' references this is just another rom com with a bit of angst and ontological confusion thrown into the mix.", "is_fresh": 0, "author": ["Will Self"]},
{"text": "...genius, or at least fascinating. [Full review in Spanish]", "is_fresh": 1, "author": ["Fernanda Sol\u00f3rzano"]},
{"text": "The wacky sight gags and psycho-drama slapstick is tinged with melancholy and regret ...", "is_fresh": 1, "author": ["Sean Axmaker"]},
{"text": "One of the most insightfully sad explorations of the human drive for love since Annie Hall concluded that we need the eggs.", "is_fresh": 1, "author": ["Tim Brayton"]},
{"text": "Eternal Sunshine of the Spotless Mind goes by like a fevered dream of love, but one you remember vividly, with profound pleasure.", "is_fresh": 1, "author": ["Joe Morgenstern"]},
{"text": "At its core, Eternal Sunshine of the Spotless Mind could have been just another love story. Refracted through Kaufman's wonderfully weird prism, it's something truly memorable.", "is_fresh": 1, "author": ["Christy Lemire"]},
{"text": "The result is a cinematic vagueness that makes the film less aesthetic yet more persuasive. This is how dreams really look: like reality, only less so.", "is_fresh": 1, "author": ["Christopher Orr"]},
{"text": "Pretty fancy stuff, for a sci-fi romantic comedy.", "is_fresh": 1, "author": ["Stuart Klawans"]},
{"text": "It's a very Kaufmanesque narrative experiment, technically ingenious and sophisticated. It also looks like some lost comedy idea by Philip K Dick; you could call this film We Can Forget It for You Retail.", "is_fresh": 1, "author": ["Peter Bradshaw"]},
{"text": "The latest and loveliest alternative universe created by Charlie Kaufman, America's most -- we should probably say only -- intellectually provocative screenwriter.", "is_fresh": 1, "author": ["Richard Corliss"]},
{"text": "This outing from Kaufman's oddball imagination is wonderfully intriguing, often touching and typically convoluted.", "is_fresh": 1, "author": ["Brian Pendreigh"]},
{"text": "This movie doesn't even try to be for everyone, but it will pierce some of you right in the heart. Give it a shot.", "is_fresh": 1, "author": ["Matt Soergel"]},
{"text": "What follows will knock you silly, upending every single concept of storytelling that you're probably used to.", "is_fresh": 1, "author": ["Dan DeMaggio"]},
{"text": "Kaufman's latest is a weird, visually woozy rom-com-in-reverse that charms, amuses and moves.", "is_fresh": 1, "author": []},
{"text": "Don't be fooled by the glib, offhand nature of the film's surface demeanor. Kaufman's endearingly off-the-wall antics are pronounced as ever, but he's finally learning how to temper his humorous sport with something called humanistic spirit.", "is_fresh": 1, "author": ["Jason Killingsworth"]},
{"text": "Imaginative, loopy romance is for adults only.", "is_fresh": 1, "author": ["Nell Minow"]},
{"text": "A surprisingly bittersweet love story at heart, Eternal Sunshine values the sum of experience, which in this case means a thorns-and-all openness to romantic possibilities.", "is_fresh": 1, "author": ["Scott Tobias"]},
{"text": "Michel Gondry tries to channel Fellini and ends up irrigating faulty plumbing.", "is_fresh": 0, "author": ["Cole Smithey"]},
{"text": "This is a wonderful, often beautiful, heart-wrenching story.", "is_fresh": 1, "author": ["Felix Vasquez Jr."]},
{"text": "The film entertains for the most part and gives us a set of marvellous performances from this outstanding cast, even if it doesn't quite reach the near-genius of Kaufman's other writings.", "is_fresh": 1, "author": ["Urban Cinefile Critics"]},
{"text": "Most imaginative and impressively executed...", "is_fresh": 1, "author": ["Mark Halverson"]},
{"text": "Kaufman and Gondry bring out all the weirdness of the premise, sometimes eliciting disbelieving laughter, sometimes taking us to odd, chilly places.", "is_fresh": 1, "author": ["Rob Gonsalves"]},
{"text": "Walking into a theater with Charlie Kaufman on the screen is like volunteering for that wacky boat trip Willy Wonka took through the chocolate factory tunnel...", "is_fresh": 1, "author": ["Gina Carbone"]},
{"text": "Works marvel after marvel in expressing the bewildering beauty and existential horror of being trapped inside one's own addled mind, and in allegorising the self-preserving amnesia of a broken but hopeful heart.", "is_fresh": 1, "author": ["Jessica Winter"]},
{"text": "Eternal Sunshine is fresh, heartfelt and ultimately heartbreaking in its honest portrayal of a modern relationship.", "is_fresh": 1, "author": ["Mariko McDonald"]},
{"text": "The reality is that Hollywood is such an idea poor place Kaufman tends to get more credit than he deserves for work which only occasionally rises above the level of mind games and showy sleight of hand.", "is_fresh": 0, "author": ["Rick Kisonak"]},
{"text": "It is an enchanting clutter of love and reason that will only appeal to the audience willing to take the time to see the movie and then think about it later.", "is_fresh": 1, "author": ["Jason Zingale"]},
{"text": "A unique deconstruction of man's innate desire to avert heartache.", "is_fresh": 1, "author": ["Nick Schager"]},
{"text": "Romance was never this stark or twisted.", "is_fresh": 1, "author": ["Garth Franklin"]},
{"text": "Jim Carrey and Kate Winslet are perfectly cast in this movie, and Winslet's Oscar nomination was well-deserved. The writing, direction and acting are all top-notch.", "is_fresh": 1, "author": ["Brian Rentschler"]},
{"text": "The kind of movie that only gets better the more you think about it and I think it cries out for repeat viewings.", "is_fresh": 1, "author": ["Ethan Alter"]},
{"text": "You won't soon forget this walk down memory lane. Actually, make that a RUN down memory lane.", "is_fresh": 1, "author": ["Kevin A. Ranson"]},
{"text": "Odd but compelling; one of the year's 10 best", "is_fresh": 1, "author": ["Fr. Chris Carpenter"]},
{"text": "like in the best sci-fi, it's primarily a metaphor for a deeper dilemma: the question of whether or not we'd really be better off eliminating heartbreak from our lives.", "is_fresh": 1, "author": ["Luke Y. Thompson"]},
{"text": "Most Hollywood films tell us we have everything we need within ourselves. [This movie] indicates that we need each other, even ... when togetherness disrupts happiness.", "is_fresh": 1, "author": ["Jeffrey Overstreet"]},
{"text": "...aligned with the Nietzschean idea that we are doomed to be ourselves, that the \"eternal recurrence of the same\" has a gravitational pull on our hearts.", "is_fresh": 1, "author": ["Philip Martin"]},
{"text": "An unusual one but a great one, it will have you asking questions about the true nature of love for some time afterwards.", "is_fresh": 1, "author": ["Glen Bucher"]},
{"text": "Without a connection to the central relationship, all of Kaufman's musings and Gondry's visual frills would be for naught, but... it all fits into place.", "is_fresh": 1, "author": ["Mark Dujsik"]},
{"text": "Hollywood's most adventurous architect of mental space takes us on another head trip.", "is_fresh": 1, "author": ["Brian D. Johnson"]},
{"text": "Dense, complex and moving.", "is_fresh": 1, "author": ["Christopher Smith"]},
{"text": "Maybe this isn't for everyone, but it's so well written, directed, and acted that I found it beguiling, thought provoking entertainment.", "is_fresh": 1, "author": ["Tony Medley"]},
{"text": "A clever and offbeat romance.", "is_fresh": 1, "author": ["Mark Robison"]},
{"text": "Eternal Sunshine is undeniably ambitious filmmaking and a feather in this year's cap of indie movies", "is_fresh": 1, "author": ["Jay Antani"]},
{"text": "Es una de esas pel\u00edculas donde la risa, el humor, la locura y la emoci\u00f3n te producen, al final, ganas de salir y enamorarte.", "is_fresh": 1, "author": ["Enrique Buchichio"]},
{"text": "Carrey gracefully paints the neuroses of a man who has no security or intimacy beyond the close grip of his gloomy knit hat.", "is_fresh": 1, "author": ["Mark Collette"]},
{"text": "Breaks the mold, harnessing some of the same energy and imagination to create a highly original love story.", "is_fresh": 1, "author": ["Mark Sells"]},
{"text": "It's the kind of film that could mean more to people after they've left the theater and thought about it awhile.", "is_fresh": 1, "author": ["Peter Rainer"]},
{"text": "...un hilo conductor que juega con el espacio y el tiempo, construyendo y deconstruyendo una historia que s\u00f3lo puede ser entendida al estilo Kaufman...", "is_fresh": 1, "author": ["Luis Martinez"]},
{"text": "Movies this brilliantly designed and executed are rarities.", "is_fresh": 1, "author": ["Eric Melin"]},
{"text": "Brilliantly original and ingeniously revolutionary, Gondry and Kaufman couldn't be better paired.", "is_fresh": 1, "author": ["Joe Utichi"]},
{"text": "Eternal Sunshine provides a fascinating, utterly captivating education in this curious thing called the power of love.", "is_fresh": 1, "author": ["Jordan Hiller"]},
{"text": "Capturing the joys and pains of romantic obsession as few filmmakers have before, Gondry and Kaufman have come up with a masterpiece.", "is_fresh": 1, "author": ["Josh Ralske"]},
{"text": "Love must flourish in the heart and soul of every romantic and emerge without trepidation or doubt.", "is_fresh": 1, "author": ["Wesley Lovell"]},
{"text": "While I admired the clever screenplay, I found something to be lacking in the movie . . .", "is_fresh": 1, "author": ["James O'Ehley"]},
{"text": "Some people may find the early going tough, but this remarkable movie is in possession of a serious mind and a rare, true heart.", "is_fresh": 1, "author": ["Colin Kennedy"]},
{"text": "Ao contr\u00e1rio da t\u00e9cnica que apresenta em sua trama, certamente ser\u00e1 lembrado por muito tempo.", "is_fresh": 1, "author": ["Pablo Villa\u00e7a"]},
{"text": "Fascinating story about love and how our memories define us.", "is_fresh": 1, "author": ["Robert Roten"]},
{"text": "A sort of existential love story in reverse... a white-hot starburst of extravagant emotionalism...", "is_fresh": 1, "author": ["Brent Simon"]},
{"text": "Brilliantly written, emotionally mature, moving film with terrific performances all round -- this is easily one of the best films of the year.", "is_fresh": 1, "author": ["Matthew Turner"]},
{"text": "If this isn't a great film, it's still a winning cerebro-fantasia that is entertaining and occasionally poignant in its depiction of the callings of the heart.", "is_fresh": 1, "author": ["Anita Katz"]},
{"text": "The fantastical conceit at the heart of ESOTSM envelopes an effective drama about relationships.", "is_fresh": 1, "author": ["Nik Huggins"]},
{"text": "Vibrant, warm and deliriously inventive.", "is_fresh": 1, "author": ["Nev Pierce"]},
{"text": "ultimately a sentimental romance - but never cloyingly so thanks to a mood of melancholy which none of the madcap mindgames ever quite manages to erase.", "is_fresh": 1, "author": ["Anton Bitel"]},
{"text": "It is not as fiendishly cunning as Being John Malkovich or as savage as Adaptation, but the surreal romantic twists are pure Kaufman at his neurotic worst", "is_fresh": 0, "author": ["James Christopher"]},
{"text": "Fascinating, perplexing, occasionally confusing, and often extremely funny. And ultimately, it's also touching.", "is_fresh": 1, "author": ["Brian Webster"]},
{"text": "It's not a movie that you experience with others. Your reaction is personal.", "is_fresh": 1, "author": ["Michael W. Phillips, Jr."]},
{"text": "Character arcs leap, plunge, spiral, and tie themselves into knots, yet somehow they still emerge as definable arcs, with real emotional punch... A rare and precious thing.", "is_fresh": 1, "author": ["Nick Davis"]},
{"text": "...a wonderful little motion picture that perplexes and baffles the audience almost as easy as it charms them.", "is_fresh": 1, "author": ["David Keyes"]},
{"text": "[T]here's something warmly, recognizably, ubiquitously human in Sunshine, cuz don't we all fall in love and sometimes love it and hate it at the same time?", "is_fresh": 1, "author": ["MaryAnn Johanson"]},
{"text": "Significant performances from Carrey and especially Winslet highlight Charlie Kaufman's latest brain tease, which might have worked a little better with concept set to medium.", "is_fresh": 1, "author": ["David N. Butterworth"]},
{"text": "Carrey can play heartbreak with the same conviction that he can perform a fart gag in one of his regular comedies.", "is_fresh": 1, "author": ["Dan Lybarger"]},
{"text": "Part science fiction, part romance, part nothing you've ever seen before, Eternal Sunshine of the Spotless Mind is a fresh spin on love and all things rosy and scary.", "is_fresh": 1, "author": ["Ryan Cracknell"]},
{"text": "... one of those movies that dares to be about something", "is_fresh": 1, "author": ["Willie Waffle"]},
{"text": "It's expressionistic and impressionistic, even if Gondry goes so far in that direction that the film gets a little too complex to follow easily.", "is_fresh": 1, "author": ["Matt Kelemen"]},
{"text": "Being the best film of a year this early on is no gargantuan feat; Eternal Sunshine, however, stands a good chance of still holding that accolade by year's end.", "is_fresh": 1, "author": ["Ken Hanke"]},
{"text": "This is a real science fiction double feature, with the love story and the adventure tales superimposed. I simply adored it both times.", "is_fresh": 1, "author": ["Karina Montgomery"]},
{"text": "Eternal Sunshine of the Spotless Mind continues to come up with such amazing visuals, but its real trick is that it makes us care for Joel and Clementine.", "is_fresh": 1, "author": ["Jeffrey M. Anderson"]},
{"text": "a mind-bending, heart-tugging ode to the highs and lows of romantic love", "is_fresh": 1, "author": ["James Kendrick"]},
{"text": "A provocative, intelligent romance that is as challenging as it is saddening", "is_fresh": 1, "author": ["Erik Childress"]},
{"text": "Every bit as unapologetically old-fashioned and romantic as is it chronologically and visually twisted.", "is_fresh": 1, "author": ["Chris Knight"]},
{"text": "Kaufman is one of the most ingenious screenwriters in Hollywood...the clouds gather with Michel Gondry's breathlessly hyperactive direction.", "is_fresh": 0, "author": ["Thomas Delapa"]},
{"text": "There is little charm in the coupling and almost no erotic intimacy, just a series of nerve-racking conversational collisions.", "is_fresh": 0, "author": ["Andrew Sarris"]},
{"text": "This is quite probably the best new science fiction film I have seen since MINORITY REPORT and well before. It is demanding, but delightfully engaging, and intelligent.", "is_fresh": 1, "author": ["Mark R. Leeper"]},
{"text": "Charlie Kaufman and Michel Gondry's second collaboration is a mind-melting, dramatic masterpiece.", "is_fresh": 1, "author": ["Jeff Otto"]},
{"text": "An exciting, thought-provoking, and overall weird experience at the movies.", "is_fresh": 1, "author": ["Danny Minton"]},
{"text": "A one gimmick affair that's periodically touching and clever but never the heartbreaking work of staggering genius its reviews would lead one to expect.", "is_fresh": 1, "author": ["Rick Kisonak"]},
{"text": "Joel's head is like Dante's (or Matt Groening's) rings of relationship Hell", "is_fresh": 1, "author": ["Marty Mapes"]},
{"text": "Like footprints in the sand of a Montauk beach, no one leaves much of an impression.", "is_fresh": 0, "author": ["James Verniere"]},
{"text": "A wildly imaginative, hugely entertaining tour de force that asks big questions about life and love and fate while never ceasing to fully engage the viewer.", "is_fresh": 1, "author": ["Glenn Kenny"]},
{"text": "...the story's brilliance shines through despite some minor problems.", "is_fresh": 1, "author": ["Tony Toscano"]},
{"text": "Michael Gondry uses New Wave techniques to craft a clever, Philip K. Dick version of love and the human condition. The best stuff Charlie Kaufman has done thus far.", "is_fresh": 1, "author": ["Jimmy O"]},
{"text": "Not just brilliant, but also as emotional and heartfelt as Gondry and Kaufman's previous collaboration, Human Nature, was shallow and crude. ", "is_fresh": 1, "author": ["Sean Burns"]},
{"text": "An odd sort of love story, a melancholy rumination that's as much about the head as the heart.", "is_fresh": 1, "author": ["Matt Brunson"]},
{"text": "A mind-blowing romantic comedy.", "is_fresh": 1, "author": ["John P. McCarthy"]},
{"text": "Aptly reflects Joel's spastically sensible perspective.", "is_fresh": 1, "author": ["Cynthia Fuchs"]},
{"text": "It's as astounding as its title is unusual.", "is_fresh": 1, "author": ["Linda Cook"]},
{"text": "Perhaps the ultimate head trip flick.", "is_fresh": 1, "author": ["Dennis Schwartz"]},
{"text": "Blisteringly funny, thought-provoking and heartfelt romance.", "is_fresh": 1, "author": ["Phil Villarreal"]},
{"text": "Next Valentine's Day, there's room on the cross for one more.", "is_fresh": 1, "author": ["Martin Scribbs"]},
{"text": "...festive identity-crisis romancer...a durable love story that's surrealistic in its compelling and cockeyed wonderment. Adventuresome cinema...intelligent and taut", "is_fresh": 1, "author": ["Frank Ochieng"]},
{"text": "I fully expected a trippy experience. What I didn't expect was to be so moved by the film...Beautiful and life-affirming.", "is_fresh": 1, "author": ["Mike McGranaghan"]},
{"text": "The filmmakers don't just create a puzzle that begs to be solved, they also compose a metaphysical poem that delights in the evanescence of experience and mourns it, a poem that ponders the solitude of the individual and finds it pitiable and immense.", "is_fresh": 1, "author": ["Peter Keough"]},
{"text": "A delightful little wormhole that takes us on a journey to another dimension of consciousness.", "is_fresh": 1, "author": ["Marjorie Baumgarten"]},
{"text": "Feels like something entirely brand-new; such are the gifts of Kaufman and Gondry, inventors and magicians.", "is_fresh": 1, "author": ["Robert Wilonsky"]},
{"text": "Eternal Sunshine of the Spotless Mind wants to be a bittersweet comedy about erotic loss and memory loss. But it doesn't have the heart or brain.", "is_fresh": 0, "author": ["Michael Sragow"]},
{"text": "But what makes the movie so compellingly brilliant is the thunderously beating heart constantly thumping throughout the picture, no recent movie able to so deftly dive into the perplexing insanity of love and romance.", "is_fresh": 1, "author": ["Sara Michelle Fetters"]},
{"text": "Brilliantly constructed and engagingly executed, this has quite a few tricks up its sleeve -- the most impressive being that all concerned trim their talents to the particular needs of the movie.", "is_fresh": 1, "author": ["Jonathan Rosenbaum"]},
{"text": "The disappointment I felt at the end of Eternal Sunshine was almost crushing, simply because there were sections of it that were as daring in their emotional directness as anything I've seen in years.", "is_fresh": 0, "author": ["Stephanie Zacharek"]},
{"text": "With a few adjustments of plot and premise, Gondry and Kaufman might have made their masterpiece here.", "is_fresh": 1, "author": ["Ray Greene"]},
{"text": "The movie is so inventive and beautiful that I don't see how it can be overlooked when next year's awards are given out.", "is_fresh": 1, "author": ["Eric D. Snider"]},
{"text": "[Jim] Carrey and [Kate] Winslet exude just the right chemistry--a destined connection--to make the love story between them ring with emotion and vitality.", "is_fresh": 1, "author": ["Dustin Putman"]},
{"text": "Once again, Charlie Kaufman takes us down the rabbit hole in a way that only he can.", "is_fresh": 1, "author": ["Boo Allen"]},
{"text": "Kaufman has here dug into a deeper, more heartfelt core and come up with one of the best films ever made about memory, its importance and malleability.", "is_fresh": 1, "author": ["Chris Barsanti"]},
{"text": "Neither wholly cynical nor wholly romantic, Kaufman's story is a balance of smarts and sentiment.", "is_fresh": 1, "author": ["Michael O'Sullivan"]},
{"text": "The perfect movie about love's inevitable imperfections.", "is_fresh": 1, "author": ["Ann Hornaday"]},
{"text": "Gets it more than right by stripping the science down to its laptop basics -- it's a 'simple' memory-erasing process -- and by putting greater emphasis on the humanity behind the diodes.", "is_fresh": 1, "author": ["Peter Howell"]},
{"text": "Utterly original, brilliant and complex.", "is_fresh": 1, "author": ["Kevin N. Laforest"]},
{"text": "This is the best movie I've seen in a decade. For once it's no hyperbole to say, 'Unforgettable!'", "is_fresh": 1, "author": ["David Edelstein"]},
{"text": "It's a scruffy, blurry puzzle to put together, and well worth the effort -- just be sure to clear a tabletop for it in your mind.", "is_fresh": 1, "author": ["Moira MacDonald"]},
{"text": "The thinking is shallow. The emotions are tepid. But the creativity is dazzling.", "is_fresh": 1, "author": ["Mick LaSalle"]},
{"text": "The movie's tone -- which is as naturalistic as the plot is fantastic -- heightens the tantalizing sense that maybe, finally, this is the real Carrey we're seeing.", "is_fresh": 1, "author": ["James Hebert"]},
{"text": "Carrey is essentially the straight man, yet he's rarely been funnier. And Winslet is perfect as the model of an unstable woman who's bad news but irresistible.", "is_fresh": 1, "author": ["Joe Baltake"]},
{"text": "Though certainly elliptical and challenging (and it moves well past the typical romantic notions it gently attacks), it's Kaufman's most universal and accessible film to date.", "is_fresh": 1, "author": ["Kim Morgan"]},
{"text": "Like other Kaufman screenplays, this one is devilishly hard to make both lucid and entertaining, but Gondry succeeds on both counts, pulling the audience into an increasingly dark, suspenseful and even touching psychological adventure.", "is_fresh": 1, "author": ["Gary Thompson"]},
{"text": "Works mostly as a showcase of visual wizardry.", "is_fresh": 1, "author": ["Steve Schneider"]},
{"text": "A happy collision of cutting-edge writer, stars up for a challenge and a director with a taste for the symbolic.", "is_fresh": 1, "author": ["Roger Moore"]},
{"text": "Joel and Clementine are played with such human believability by Carrey and Winslet that we feel a real stake in their finding each other again, either in memory or in the real world.", "is_fresh": 1, "author": ["Shawn Levy"]},
{"text": "Gondry still lags behind Jonze in rendering cohesive stories and human connection from Kaufman's adventures in self-analysis.", "is_fresh": 0, "author": ["Lisa Rose"]},
{"text": "Audacious, thought-provoking and ruefully funny.", "is_fresh": 1, "author": ["Lou Lumenick"]},
{"text": "A masterpiece? Probably. Ingenious? Absolutely! Unforgettable? I'll see you at the 10th-year anniversary.", "is_fresh": 1, "author": ["Jack Mathews"]},
{"text": "An amazingly complex and yet strikingly affecting look at love, life and memory that gives us one of the great movie love stories ever told.", "is_fresh": 1, "author": ["Glenn Whipp"]},
{"text": "One of the most realistic movies ever made about the unpredictable impact our experiences have on our sense of self.", "is_fresh": 1, "author": ["Loey Lockerby"]},
{"text": "It's best not to try to make too much sense of it but rather to let it work its quirky magic on a purely entertaining level.", "is_fresh": 1, "author": ["Louis B. Hobson"]},
{"text": "Two mad geniuses and a lot of other talented people transform the crazy ideas embedded in Eternal Sunshine Of The Spotless Mind into a shimmering work of sheer brilliance.", "is_fresh": 1, "author": ["Bruce Kirkland"]},
{"text": "This mind-bender is both funny and touchingly romantic.", "is_fresh": 1, "author": ["Eric Harrison"]},
{"text": "The twists here are the rare sort that seem both narratively surprising and emotionally engaging, particularly the one that boxes us into this interrogative corner.", "is_fresh": 1, "author": ["Rick Groen"]},
{"text": "Dizzying, dazzling, smart and, most importantly, honestly struggling with the variables of love, Eternal Sunshine of the Spotless Mind is a mesmerizing mind game that still manages to find perfect pitch while pulling heartstrings.", "is_fresh": 1, "author": ["Tom Long"]},
{"text": "Eternal Sunshine of the Spotless Min feels like writer Charlie Kaufman going back to the same well one too many times.", "is_fresh": 0, "author": ["Daniel M. Kimmel"]},
{"text": "The pairing of Carrey and Winslet may sound like a stretch, but both make it work with terrific performances.", "is_fresh": 1, "author": ["Jeff Vice"]},
{"text": "The effort can fascinate, even if the result doesn't always match.", "is_fresh": 1, "author": ["Robert Denerstein"]},
{"text": "A loving, often rigorous look at love gone awry.", "is_fresh": 1, "author": ["Lisa Kennedy"]},
{"text": "Despite jumping through the deliberately disorienting hoops of its story, Eternal Sunshine has an emotional center, and that's what makes it work.", "is_fresh": 1, "author": ["Roger Ebert"]},
{"text": "Hectic, muffled, maddeningly near-brilliant.", "is_fresh": 1, "author": ["Ty Burr"]},
{"text": "Charlie Kaufman knows how to write mind-benders. ... In Eternal Sunshine of the Spotless Mind, however, Kaufman makes the crucial jump from mind-bender to heart-render.", "is_fresh": 1, "author": ["Carol Cling"]},
{"text": "Exhilarating cinema - entertaining and challenging, bizarre yet truthful. In many ways, it works like a dream.", "is_fresh": 1, "author": ["Jeffrey Westhoff"]},
{"text": "Intellectually demanding but ultimately satisfying, \"Eternal Sunshine\" plays to the strengths of its cast and well-bred creative team.", "is_fresh": 1, "author": ["David Foucher"]},
{"text": "Jim Carrey finds a muse who combines the subversiveness of Andy Kaufman, the imagination of Dr. Seuss and the fearlessness of the Farrelly Brothers.", "is_fresh": 1, "author": ["Todd Gilchrist"]},
{"text": "It's if Salvador Dali went to bed with heartburn, woke up in the middle of the night and designed a computer game, then tried to erase it all the next morning.", "is_fresh": 1, "author": ["Donald Munro"]},
{"text": "[H]ow does Kaufman keep coming up with these things? How does he keep remembering to forget all the rules?", "is_fresh": 1, "author": ["Austin O'Connor"]},
{"text": "The most daring and bizarre in a string of daring and bizarre films penned by Kaufman.", "is_fresh": 1, "author": ["Audrey Rock-Richardson"]},
{"text": "The cluttered direction by Michel Gondry (who made a botch of another Kaufman screenplay, Human Nature) keeps this story from soaring higher than it does.", "is_fresh": 1, "author": ["Sean P. Means"]},
{"text": "This is the kind of film that warrants repeated viewings just to discover the nuance and subtlety of Kaufman's story.", "is_fresh": 1, "author": ["Robin Clifford"]},
{"text": "The charm and subtle heartbreak of Sunshine is watching how it unlocks secrets and little truths about love.", "is_fresh": 1, "author": ["Jeffrey Bruner"]},
{"text": "Charlie Kaufman has succinctly combined his innate quirkiness with his intuitive imagination to create one of the more ingenious yet simplistic love stories ever written. ", "is_fresh": 1, "author": ["Kit Bowen"]},
{"text": "It's an out-of-body experience that you'll find hard to erase from your memory.", "is_fresh": 1, "author": ["Cherryl Dawson and Leigh Ann Palone"]},
{"text": "Another brain tickler from the creative mind of screenwriter Charlie Kaufman.", "is_fresh": 1, "author": ["Diana Saenger"]},
{"text": "Start with an absurdity, a clinic where memories are erased, then try to conceive of the logical consequences. Then take same and create a romance. Voila!!!", "is_fresh": 1, "author": ["Eric Lurio"]},
{"text": "It's an equally sad, sweet and strange head trip you can't miss.", "is_fresh": 1, "author": []},
{"text": "It's a strange trip, to be sure, sort of like what Fantastic Voyage might have been if some acid-gobbling metaphysicians had been at the helm.", "is_fresh": 1, "author": ["Lance Goldenberg"]},
{"text": "At last Kaufman allows his characters to lift their heads out of the fog of narcissism and solipsism and dare to hope, to engage one another.", "is_fresh": 1, "author": ["Steven D. Greydanus"]},
{"text": "Kaufman's previous screenplays have always been intellectually rigorous, but you wouldn't necessary say they have a lot of passion. This one is different.", "is_fresh": 1, "author": ["Carlo Cavagna"]},
{"text": "If this one doesn't make my year-end Top 10, that means we're due for at least ten more movies as brilliantly entertaining as this one. Somehow I doubt that's going to happen.", "is_fresh": 1, "author": ["Scott Weinberg"]},
{"text": "Writer Charlie Kaufman spins another tale of the search for love among the maladjusted, this one a head-spinning combination of Groundhog Day and Memento, featuring Jim Carrey's best performance to date.", "is_fresh": 1, "author": ["Joe Lozito"]},
{"text": "Just your everyday, surreal, sweet, old-fashioned, science-fiction-flavored romance that tugs at your heart as it blows your mind.", "is_fresh": 1, "author": ["James Rocchi"]},
{"text": "In its clever dystopian conceit, the film hides an astute analysis of, to borrow a phrase from Mandy Moore, how we deal.", "is_fresh": 1, "author": ["Eugene Novikov"]},
{"text": "The most emotional movie I've watched in a while because it reveals the true, priceless value of memories, and makes their loss worthy of panic.", "is_fresh": 1, "author": ["Jeffrey Chen"]},
{"text": "It's both a brilliant piece of visionary filmmaking and a deeply romantic love story, and while Charlie Kaufman's script will undoubtedly become required film-school reading, it's the performances that really make it play.", "is_fresh": 1, "author": ["Ken Fox"]},
{"text": "A poignant story set in a clever plot amidst exceptional performances.", "is_fresh": 1, "author": ["Claudia Puig"]},
{"text": "Carrey and Winslet have a distinct chemistry, their coming-together scenes unfold with a tender credibility and their problems evolve with a poignant inevitability.", "is_fresh": 1, "author": ["William Arnold"]},
{"text": "Begins as another one of Kaufman\u2019s trademark head trips and takes a leap into the sublime.", "is_fresh": 1, "author": ["Ben Kenigsberg"]},
{"text": "A thoughtful, audacious meditation on love and relationships that finds a group of wildly disparate talents clicking together in perfect unison.", "is_fresh": 1, "author": ["Rene Rodriguez"]},
{"text": "What's lacking is what the movie is ostensibly about: the heart that so often leads us to fall in love with the wrong people at the wrong time.", "is_fresh": 0, "author": ["Terry Lawson"]},
{"text": "Another home run for Charlie Kaufman! Carrey and Winslet are fantastic! 10 on a scale of 1 to 10!", "is_fresh": 1, "author": ["John Venable"]},
{"text": "Daffy, gratifyingly inventive.", "is_fresh": 1, "author": ["Lawrence Toppman"]},
{"text": "At once heartfelt and hilarious, another Kaufman-esque mix of black comedy, shaggy-dog romance, retro sci-fi and metaphysics.", "is_fresh": 1, "author": ["Glenn Lovell"]},
{"text": "For all its weirdness, Eternal Sunshine is easily the most accessible, affectionate and satisfying of Kaufman's clever films.", "is_fresh": 1, "author": ["Jack Garner"]},
{"text": "The real breakthrough comes from Kaufman, whose absurdist sensibility has finally coalesced into narrative maturity.", "is_fresh": 1, "author": ["Duane Dudek"]},
{"text": "It's giddy and groundbreaking, a feast for the head and the heart.", "is_fresh": 1, "author": ["Chris Vognar"]},
{"text": "Dazzles as its predecessors did, but its core of melancholy and heartbreak makes it a harder experience to shake off.", "is_fresh": 1, "author": ["Scott Von Doviak"]},
{"text": "Eternal Sunshine of the Spotless Mind is appropriately memorable. ", "is_fresh": 1, "author": ["Gerry Shamray"]},
{"text": "It cheerfully dives down the rabbit hole while other films are searching for the exit, reminding us that happiness -- true happiness -- has no easy answers.", "is_fresh": 1, "author": ["Rob Vaux"]},
{"text": "Brilliant, an endlessly clever, funny and strangely moving story that will leave viewers with a warm heart and smoke curling out of their ears.", "is_fresh": 1, "author": ["Peter Sobczynski"]},
{"text": "Michel Gondry's angular and intelligent romantic comedy isn't entirely consistent. Even as you laugh, it's a movie you admire more than love.", "is_fresh": 1, "author": ["Elvis Mitchell"]},
{"text": "The hiccups and eccentricities that define a Kaufman script -- the anguished neuroses, the narrative kinks -- are firmly in the service of a touching love story, not the other way around.", "is_fresh": 1, "author": ["Manohla Dargis"]},
{"text": "Spreads the brightest cinematic sunbeams of the season.", "is_fresh": 1, "author": ["David Sterritt"]},
{"text": "Although the characters are unremarkable, Kaufman and director Michel Gondry ... have some thought-provoking things to say about the nature of memory.", "is_fresh": 1, "author": ["Bill Muller"]},
{"text": "I'm haunted by its ability to formulate the impossible complexity of the will to love to the screen.", "is_fresh": 1, "author": ["Walter Chaw"]},
{"text": "It's a beautiful, sad, profound film and, although parts of it may remind you of other works of art ... it is like nothing you've ever seen.", "is_fresh": 1, "author": ["Chris Hewitt (St. Paul)"]},
{"text": "Kaufman, who is by far the most exciting screenwriter working today, has taken his trademark loopy storytelling and transformed it into something more mature and wonderful.", "is_fresh": 1, "author": ["Phoebe Flowers"]},
{"text": "Eternal Sunshine of the Spotless Mind is a fascinating psychological drama exploring the manifold meanings of memory, love, desire and disappointment.", "is_fresh": 1, "author": ["Frederic and Mary Ann Brussat"]},
{"text": "It's a trippy but tender examination of human emotions, relationships, all-consuming love.", "is_fresh": 1, "author": ["Steven Rea"]},
{"text": "Ingenious, eccentric and very moving.", "is_fresh": 1, "author": ["John Anderson"]},
{"text": "a remembered place can enter someone's living room with a camera pan", "is_fresh": 1, "author": ["Laura Clifford"]},
{"text": "One of the deepest, most moving dramas in years.", "is_fresh": 1, "author": ["Colin Covert"]},
{"text": "While Kaufman has sprung some world-class brainteasers on us before, 'Sunshine' is the first screenplay he's written that hits the heart.", "is_fresh": 1, "author": ["James Sanford"]},
{"text": "Ingeniously idiosyncratic Charlie Kaufman wraps his head around themes of lucid-dreaming and lost love in Eternal Sunshine, and once again hits the Freudian jackpot.", "is_fresh": 1, "author": ["Rob Blackwelder"]},
{"text": "As a friend joked, 'If you peel away the movie's postmodern tricks, what you're left with is about as profound as a Hugh Grant movie.'", "is_fresh": 0, "author": ["John Powers"]},
{"text": "Eternal Sunshine never betrays its ambitions and never lets you down, offering a complex message about love and human relations that's as universal as it is refreshing.", "is_fresh": 1, "author": ["Josh Bell"]},
{"text": "In addition to matching Kaufman's wild imagination with equally startling visuals, Gondry has also managed to get the best, most mature and sharply focused performance ever from Jim Carrey.", "is_fresh": 1, "author": ["Paul Clinton (CNN.com)"]},
{"text": "You constantly appreciate Kaufman's intelligence and Gondry's lively filmmaking.", "is_fresh": 1, "author": ["Mark Caro"]},
{"text": "As techno-wacky and surreal as the movie gets, what gives it a genuine, beating heart is Kaufman's insight about relationships.", "is_fresh": 1, "author": ["Steve Murray"]},
{"text": "a seductive, intelligent, and engrossing love story that has the viewer in love with its quirky concept. ", "is_fresh": 1, "author": ["Angela Baldassarre"]},
{"text": "...this isn't a romance about the flowering of first love, but about learning how to make a mature love stay in bloom.", "is_fresh": 1, "author": ["Josh Larsen"]},
{"text": "Wholly romantic, but Kaufman focuses less on the grand and sappy, and more on those moments where a heartstring tug is inexplicable to anyone besides those doing the pulling.", "is_fresh": 1, "author": ["Nick Rogers"]},
{"text": "Another unpleasantly glib, shallow demonstration of Kaufman's self-satisfied cleverness, further marred by failed pretensions to profundity about romantic destiny.", "is_fresh": 0, "author": ["Frank Swietek"]},
{"text": "A dizzying film that pulses with confusion, fantasy and heart, asking questions about memory and the nature of love that one can't help but apply to his own life.", "is_fresh": 1, "author": ["Steven Snyder"]},
{"text": "May be the first movie I've seen that bends your brain and breaks your heart at the same time.", "is_fresh": 1, "author": ["Owen Gleiberman"]},
{"text": "[Carrey] adds an ineffable sweet sadness to this complex tale of love found, lost, and then rediscovered in Kaufman's suitably novel way.", "is_fresh": 1, "author": ["Andrea Chase"]},
{"text": "...le premier excellent film de 2004 et une exp\u00e9rience unique au cin\u00e9ma...", "is_fresh": 1, "author": ["Nicolas Lacroix"]},
{"text": "Kaufman cooks up a fascinating premise of mending broken hearts, but Gondry deserves extra credit for conjuring the right images to match the story's wickedly clever asides. ", "is_fresh": 1, "author": ["Sean O'Connell"]},
{"text": "By its delightful end, Eternal Sunshine of the Spotless Mind will have you, heart, mind and soul.", "is_fresh": 1, "author": ["Emily Blunt"]},
{"text": "Easily the most captivating couple of hours you're likely to have at the movies all year, \"Eternal Sunshine of the Spotless Mind\" is brilliant cinema - don't miss it", "is_fresh": 1, "author": ["Clint Morris"]},
{"text": "A unique romantic comedy, unfettered by the normal expectations of the genre, is a rare and wondrous thing.", "is_fresh": 1, "author": ["James Berardinelli"]},
{"text": "An ambitious, spellbinding and fascinating mind trip of a movie. ", "is_fresh": 1, "author": ["Scott A. Mantz"]},
{"text": "Kaufman's scripts have always centered on human vulnerability and neediness, but this is his most mature and genuinely affecting tall tale to date.", "is_fresh": 1, "author": ["Kevin Lally"]},
{"text": "Deft, witty, and vastly enjoyable.", "is_fresh": 1, "author": ["J. Hoberman"]},
{"text": "...a romantic date movie alternative...", "is_fresh": 1, "author": ["JoBlo"]},
{"text": "Great concept but mediocre movie.", "is_fresh": 0, "author": ["Steve Rhodes"]},
{"text": "Delightfully demented and edgy enough to sustain interest.", "is_fresh": 1, "author": ["Jeanne Aufmuth"]},
{"text": "By the third act, the glow has worn off, and the film plods towards its inescapable finale with deadly familiarity.", "is_fresh": 0, "author": ["Jurgen Fauth"]},
{"text": "A bold and venturesome trip down memory lane as only writer Charlie Kaufman could imagine it.", "is_fresh": 1, "author": ["Kirk Honeycutt"]},
{"text": "Manages to present romantic relationships in an incredibly passionate yet astoundingly pessimistic way, and I think that screwed up my equilibrium, or something.", "is_fresh": 1, "author": ["Jon Popick"]},
{"text": "Do you feel clever, punk? Well, do you? Because that's the only way to get your head around the latest Charlie Kaufman flick.", "is_fresh": 1, "author": ["Anthony Lane"]},
{"text": "Even if the script had been more accessible, it's doubtful whether its ultra-high concept will connect with general audiences.", "is_fresh": 0, "author": ["Peter Brunette"]},
{"text": "If films about coping with memory loss and/or reverse-order storytelling now constitute a mini-genre, then pic is arguably the best of the lot.", "is_fresh": 1, "author": ["Todd McCarthy"]},
{"text": "[While] not as good as the Kaufman films directed by Spike Jonze... it's touched by aspects of greatness.", "is_fresh": 1, "author": ["Mark Palermo"]},
{"text": "Electronic alteration of memory cells allows writer Kaufman full liberty to play with flashbacked time warps within a zany conceptual framework.", "is_fresh": 1, "author": ["Jules Brenner"]},
{"text": "Michel Gondry's visual ingenuity is superbly suited to Charlie Kaufman's cleverly intricate and ambiguous narrative on love It's a seductively spellbinding mind-trip!", "is_fresh": 1, "author": ["Susan Granger"]},
{"text": "Vividly and graphically illustrates Calderon's de la Barca's maxim, 'Life is a dream.'", "is_fresh": 1, "author": ["Harvey S. Karten"]},
{"text": "Festive like happiness, buoyant like romance, fiery like a new love, and shattered like a broken heart.", "is_fresh": 1, "author": ["Alex Sandell"]},
{"text": "Both embraces and transcends the quirkiness of Kaufman's previous efforts, forming a moving, inspired mediation on the funny-sad nature of love. ", "is_fresh": 1, "author": ["Gabriel Shanks"]},
{"text": "A remarkable film that can coax a smile about making the same mistakes in love and then sneak up and quietly break your heart.", "is_fresh": 1, "author": ["Peter Travers"]},
{"text": "Works like a visual poem with razor sharp writing and some of the best acting yet from a powerhouse cast.", "is_fresh": 1, "author": ["Rich Cline"]},
{"text": "... a strange, sometimes confusing and often brilliant black comedy.", "is_fresh": 1, "author": ["Richard Roeper"]},
{"text": "Misery wants company.", "is_fresh": 1, "author": ["Victoria Alexander"]},
{"text": "Michel Gondry's Eternal Sunshine of the Spotless Mind is a comedy that has the bracing fright of an identity-crisis horror film.", "is_fresh": 1, "author": ["Jeremiah Kipp"]},
{"text": "A special meeting of minds between Kaufman (who seems to represent at least 80 per cent of the imagination in Hollywood's screenwriting gene pool) and Gondry. The fact that Jim Carrey gives the best turn of his career so far doesn't hurt either.", "is_fresh": 1, "author": ["Daniel Etherington"]},
{"text": "", "is_fresh": 1, "author": ["Daniel Kasman"]},
{"text": "", "is_fresh": 1, "author": []}
]