[
{"reviews_count": "201", "title": "First Reformed", "avg_audience_rating": "3.5", "rotten_count": "14", "tomatometer": "93", "audience_score": "68", "avg_critic_rating": "8.3", "fresh_count": "187", "user_ratings_count": "2,393"},
{"text": "It's the sight of a filmmaker rediscovering the power their voice has - and using it as a cry for help that we are now too powerless to answer.", "is_fresh": 1, "author": ["Alistair Ryder"]},
{"text": "The film is a cry of rage against the polluters and corrupters who, Schrader contends, are destroying the planet, as well as against the commercialisation of the churches and the growth of terrorism.", "is_fresh": 1, "author": ["David Stratton"]},
{"text": "This formalist approach to the narrative takes a hard right into more stylized imagery in the third act which is as breathtaking as it is surprising.", "is_fresh": 1, "author": ["Michelle Kisner"]},
{"text": "Engaging from start to finish despite its slow-burn pace, \"First Reformed\" will likely be one of 2018's best independent films with a career-best effort from (Ethan) Hawke.", "is_fresh": 1, "author": ["Matt Ward"]},
{"text": "One of the most impactful, poignant, thought-provoking movies about faith ever made.", "is_fresh": 1, "author": ["Matt Oakes"]},
{"text": "Schrader puts his character on a collision course between the promises of faith and the tragic realities of world in environmental decay.", "is_fresh": 1, "author": ["Sean Mulvihill"]},
{"text": "One may interpret the final moments of First Reformed as the despondency of Good Friday or the hope of Easter; in either case, it is holy ground.", "is_fresh": 1, "author": ["Joel Mayward"]},
{"text": "Just as redemption plays a role in most of Schrader's work, First Reformed offers self-redemption for a master craftsman who delivers on the best films of 2018.", "is_fresh": 1, "author": ["Joe Friar"]},
{"text": "Part scathing, part ruminative, part tragic but profoundly affecting, First Reformed is an astonishing piece of cinema.", "is_fresh": 1, "author": ["Matt Hudson"]},
{"text": "Then again, few people can wear a clerical uniform to great distinction the way Hawke does here, conveying his eventual downfall into ethical submission with utter tranquility.", "is_fresh": 1, "author": ["Nate Adams"]},
{"text": "I have no hesitation in calling First Reformed one of Schrader's best films, in what frequently registers as a summation of the writer/director's preoccupations and anxieties.", "is_fresh": 1, "author": ["Daniel Nava"]},
{"text": "First Reformed is a treatise on remorse, exposed through fixed planes with constant reframing in which frontality predominates. [Full Review in Spanish]", "is_fresh": 1, "author": ["Javier Oca\u00f1a"]},
{"text": "With the intensity that's made him such a compelling screen presence for decades now, Hawke wears his character's growing uncertainty and unhappiness like a weathered second skin.", "is_fresh": 1, "author": ["Sarah Ward"]},
{"text": "First Reformed is not only [Paul Schrader's] best film in a long time... but it's also the closest thing to a box office success Schrader's had since Affliction. [Full review in Spanish]", "is_fresh": 1, "author": ["Yago Garc\u00eda"]},
{"text": "Paul Schrader offers a very personal and, at the same time, universalist, film... that even allows brief moments of \"magical realism\". [Full review in Spanish]", "is_fresh": 1, "author": ["Elisenda N. Frisach"]},
{"text": "But for all First Reformed's soundless fury, it's the perforated moments of intimate wonder which gnaw against our subconscious, a divine sweetness blossoming between bruises.", "is_fresh": 1, "author": ["Brian Quinn"]},
{"text": "First Reformed ultimately plays as a personal religious polemic, one steeped in an existential despair over the world and God, that somehow manages to avoid even a remote sense of the spiritual. ", "is_fresh": 0, "author": ["Lauren Humphries-Brooks"]},
{"text": "First Reformed ends up feeling like a film that needed another draft or two to help iron out the wrinkles in its main character's arc.", "is_fresh": 0, "author": ["Jeff Beck"]},
{"text": "First Reformed is Paul Schrader's twenty-first film as a director, and probably his best. It seems to sum up a lot of things Schrader believes in, artistically and spiritually.", "is_fresh": 1, "author": ["Rob Gonsalves"]},
{"text": "It's a brilliantly conceived trajectory performed with powerful conviction by Hawke. But a little subtlety [from Schrader] would have gone a long way.", "is_fresh": 1, "author": ["Jared Mobarak"]},
{"text": "A bruising experience; one that left even a non-religious person like me feeling shaken. ", "is_fresh": 1, "author": ["Adam Lubitow"]},
{"text": "They are weird moments of almost hypnotic transcendence, but at the center of it is that tortured God's lonely man character perfectly embodied by Ethan Hawke. ", "is_fresh": 1, "author": ["Mark Kermode"]},
{"text": "First Reformed is a compelling slow burn.", "is_fresh": 1, "author": ["Alexa Dalby"]},
{"text": "A work that most 30 year old's would welcome, and one that a 71 year old might have thought would never come around again.", "is_fresh": 1, "author": ["Robert Daniels"]},
{"text": "Beautifully composed, it is a film that reaches well beyond the surface of its story. It is about the very condition and mood of our times, and the palpable sense of some oncoming cataclysm.", "is_fresh": 1, "author": ["Alci Rengifo"]},
{"text": "If Schrader has had to deal with an onslaught of compromised projects over the past two decades, First Reformed is not only the purest distillation of his intentions in quite some time, but also one of his most acutely reserved.", "is_fresh": 1, "author": [" Nicholas Bell"]},
{"text": "It's a thrilling ride, and Ethan Hawke's performance - the best of his career and worthy of an Oscar nomination - never once lets you out of its grip.", "is_fresh": 1, "author": ["Joe Reid"]},
{"text": "Mixed in with an outstanding performance from Ethan Hawke, First Reformed is a truly stunning film that can only get better on repeat viewings.", "is_fresh": 1, "author": ["Stephanie Watts"]},
{"text": "This is Hawke's best performance to date and a film that is at the top of my list of the year.", "is_fresh": 1, "author": ["Pamela Powell"]},
{"text": "While Hawke is excellent, the film's unrelenting bleakness makes for a punishing two hours.", "is_fresh": 0, "author": ["Alison Rowat"]},
{"text": "Gripping in its unsentimental clarity of vision, startling in its portentous ruminations on belief, sacrifice, and nature, \"First Reformed\" is unsparing even as it spares, a cinematic jolt of agony and transcendence.", "is_fresh": 1, "author": ["Dustin Putman"]},
{"text": "The movie ends with a breathtaking scene that feels like an epiphany.", "is_fresh": 1, "author": ["Kathryn Reklis"]},
{"text": "The Church of Al Gore gets a surprising close-up in First Reformed.", "is_fresh": 1, "author": ["Christian Toto"]},
{"text": "First Reformed manages to sublimely inspire great conviction out of impenetrable darkness. ", "is_fresh": 1, "author": ["Glenn Heath Jr."]},
{"text": "First Reformed is a serious movie that demands serious focus, and in a year where there's such hunger for pop culture that speaks of our times, Paul Schrader may do it better than anyone else.", "is_fresh": 1, "author": ["Kayleigh Donaldson"]},
{"text": "First Reformed is daring and unrelenting-it searches for and pinpoints real harm. ", "is_fresh": 1, "author": ["A.S. Hamrah"]},
{"text": "You won't see a more textured film this summer.", "is_fresh": 1, "author": ["Tara Brady"]},
{"text": "Masterful.", "is_fresh": 1, "author": ["Roe McDermott"]},
{"text": "Schrader wastes the good work of cinematographer Alexander Dynan - whose framing of every scene is flawlessly precise - and by Hawke, who continues to evolve as an actor in independent productions such as this.", "is_fresh": 0, "author": ["Dan Webster"]},
{"text": "Whether art-house, political, or American pop, First Reformed is in between styles in a way that's never satisfactory.", "is_fresh": 0, "author": ["Chelsea Phillips-Carr"]},
{"text": "The film can't quite summon the anguish to go full Taxi Driver - the conclusion balks right at the edge of the abyss - but Schrader's images have never been crisper, and Hawke is transfixing.", "is_fresh": 1, "author": ["Tom Shone"]},
{"text": "Bleak...and slightly barking. ", "is_fresh": 0, "author": ["Matthew Bond"]},
{"text": "Schrader is the divine mortal who wrote Taxi Driver and Raging Bull. He's as passionate as ever; what he has lost is his discipline.", "is_fresh": 1, "author": ["Charlotte O'Sullivan"]},
{"text": "First Reformed is [Paul Schrader's] first screenplay to reach the screen unscathed in a decade, and shows an artist strengthened by the fight.", "is_fresh": 1, "author": ["Nick Hasted"]},
{"text": "This is a film that wrestles with its themes through rigorously crafted dialogue; Schrader sees no benefit in underlining those words with showy camerawork or score, the film-making equivalent of going through the script with a neon highlighter pen.", "is_fresh": 1, "author": ["Wendy Ide"]},
{"text": "Absorbing, uncomfortable, complex and unapologetically bold in the narrative and spiritual roads it travails.", "is_fresh": 1, "author": ["Ross Miller"]},
{"text": "Yet in trying to bring the story to a powerful climax, Schrader lets things get too hectic and surreal, a final psychedelic scene undoing much of the film's hard work.", "is_fresh": 0, "author": ["Tanya Sweeney"]},
{"text": "Hawke responds to the demands of the role fearlessly: his is a sombre, powerfully restrained performance, and throughout he wears an expression of clenched gravitas that seems to hold at bay the pain and unrest roiling inside.", "is_fresh": 1, "author": ["Edward Lawrenson"]},
{"text": "In Hawke, Schrader has found an actor willing to go the full mile - the presentation of self-violence here is extreme and extraordinary.", "is_fresh": 1, "author": ["Michael Bonner"]},
{"text": "...a stellar entry within Schrader's admittedly rocky body of work. ", "is_fresh": 1, "author": ["David Nusair"]},
{"text": "First Reformed is thought-provoking and one of the best films you will see this year.", "is_fresh": 1, "author": ["Jamie East"]},
{"text": "An eccentric and peculiarly gripping film from veteran director Paul Schrader.", "is_fresh": 1, "author": ["Kate Muir"]},
{"text": "The ending will prove divisive but the dialogue sparkles, the atmosphere is brooding and Ethan Hawke chips in with the best performance of his career.", "is_fresh": 1, "author": ["Andy Lea"]},
{"text": "But it is, at least, powerfully puzzling and grippingly puzzling. You may not understand it (completely), but you will come away with the feeling that something was being said, whatever that something may have been.", "is_fresh": 1, "author": ["Deborah Ross"]},
{"text": "Yet ultimately it's so good, and the attention to truthfulness so intense, that Schrader writes himself into a narrative dead end and to a conclusion that bounces, within a few short minutes, from shocking to preposterous to silly to schmaltzy.", "is_fresh": 1, "author": ["Kevin Maher"]},
{"text": "Shaker furniture in movie form - stark, plain, conceived in austere and intelligent good taste; beautifully made, in fact, but maybe more designed for looking at than actually sitting on.", "is_fresh": 1, "author": ["Peter Bradshaw"]},
{"text": "The film is a zinger, with Hawke giving Toller the hungry, doomed conviction of a Graham Greene hero.", "is_fresh": 1, "author": ["Nigel Andrews"]},
{"text": "First Reformed is a tough, masterful movie. ", "is_fresh": 1, "author": ["Larushka Ivan-Zadeh"]},
{"text": "First Reformed is not for the faint hearted, but this raw, blistering, bleak and uncompromising drama raises important questions about faith and morality.", "is_fresh": 1, "author": ["Sarah McIntyre"]},
{"text": "Schrader's best in yonks, a powerful meditation on faith's place in the modern world. Hawke, as a kind of Travis Bickle in a dog collar, gives one of the performances of the year.", "is_fresh": 1, "author": ["Ian Freer"]},
{"text": "Hawke is heart breakingly good in the role of a faltering priest, disillusioned father, and sinner.", "is_fresh": 1, "author": ["Nicole Homer"]},
{"text": "Is it too early to call this Schrader's masterpiece?", "is_fresh": 1, "author": ["Hannah Woodhead"]},
{"text": "Paul Schrader's best for 20 years. A stunning study of one man's flaws and an apocalyptic vision of mankind's fate.", "is_fresh": 1, "author": ["Jamie Graham"]},
{"text": "The work of a passionate, intelligent and audacious artist who knows exactly what he wants to say and how he wants to say it.", "is_fresh": 1, "author": ["Philip Concannon"]},
{"text": "Given today's comic-book-driven climate, a picture this profound is honestly a little like a miracle.", "is_fresh": 1, "author": ["Rick Kisonak"]},
{"text": "\"Schrader still doesn't know how to make movies that express belief in a cause, or naturalism, or anything else.\"", "is_fresh": 0, "author": ["Armond White"]},
{"text": "We are treated to long, delicious scenes filled with dialogue that matters, all of it spearheaded by an unwound, infirmed and strangely sexy priest. ", "is_fresh": 1, "author": ["Molly Laich"]},
{"text": "\"First Reformed,\" is the face of Hawke, which miraculously never gets consumed by the hellfire all around. ", "is_fresh": 1, "author": ["tt stern-enzi"]},
{"text": "An austere film-making exercise, wallowing in anguish and despair. There's a reason why it was rejected by both Netflix and Amazon.", "is_fresh": 0, "author": ["Susan Granger"]},
{"text": "A rare and intriguing example of theological inquiry in American cinema ... driven by an aching conscience.", "is_fresh": 1, "author": ["Jeffrey Overstreet"]},
{"text": "Bleak, wintry and rigorously controlled.", "is_fresh": 1, "author": ["Alison Gillmor"]},
{"text": "Ethan Hawke brilliantly captures the doubt many believers wrestle with, but the film never seriously engages with the counsel the Bible offers to deal with it. ", "is_fresh": 0, "author": ["Megan Basham"]},
{"text": "A film that glides on a knife's edge of seemingly unresolvable contradictions.", "is_fresh": 1, "author": ["Daniel Barnes"]},
{"text": "It's a very heady movie. There isn't much to speak of in terms of action. It's Taxi Driver without the taxi: A long ride inside the mind of a man beginning to see the world around him in a whole new and increasingly hostile way.", "is_fresh": 1, "author": ["Katherine Monk"]},
{"text": "While it invites viewers to ruminate over any number of big ideas, it boasts no crystallizing moment to tie all those ideas together in a satisfying way.", "is_fresh": 0, "author": ["Mike Scott"]},
{"text": "What Schrader does best is show his characters inching forward through their flaws and transgressions.", "is_fresh": 1, "author": ["Brooke Corso"]},
{"text": "A haunting and meditative work.", "is_fresh": 1, "author": ["Matt Brunson"]},
{"text": "Just a strong recommendation and a big thumbs up for Schrader still having so much to say after a recent string of cinematic misfires. ", "is_fresh": 1, "author": ["John Urbancich"]},
{"text": "\"First Reformed\" captures the despair that good and decent people can feel, looking at a world that seems to have turned its back on goodness and decency. ", "is_fresh": 1, "author": ["Rob Thomas"]},
{"text": "It's worth noting that no scene in First Reformed ever leaves its protagonist, and through his spiraling journal entries and increasingly rash Schrader undermines the old-school Protestantism at its center.", "is_fresh": 1, "author": ["George Elkind"]},
{"text": "First Reformed is Schrader's best film in a long time. It provides an unflinching look at many of life's big questions.", "is_fresh": 1, "author": ["Michael Heaton"]},
{"text": "[PODCAST] As Thomas Wolf pointed out in his essay, Christ's primary teaching was that \"loneliness could be destroyed forever by the life of love.\" Is \"First Reformed\" a perfect film? Yes, yes it is.", "is_fresh": 1, "author": ["Cole Smithey"]},
{"text": "First Reformed slowly builds toward an inevitable conclusion, but Schrader confounds those expectations with an ending that will certainly leave you talking. This isn't easy fare, but it's wholly worthwhile.", "is_fresh": 1, "author": ["Brad Keefe"]},
{"text": "The latest film from pugnacious director/writer Paul Schrader is as austere and revelatory as a church confessional...It's a bleak portrait of a man in the midst of a spiritual breakdown that is only slightly undone by its rather unsatisfying conclusion.", "is_fresh": 1, "author": ["Cary Darling"]},
{"text": "A haunting, strange and lyrical narrative on one man's spiritual and political resurrection from the darkest corners of his consciousness. First Reformed brims with insights on anger, guilt, faith and personal autonomy.", "is_fresh": 1, "author": ["Kiko Martinez"]},
{"text": "The movie loses focus when it most needs it.", "is_fresh": 0, "author": ["Lisa Jensen"]},
{"text": "For Schrader, ideas are paramount, and he packs in plenty, none less profound than the proposition that, to survive, we must hold hope and despair in our minds simultaneously.", "is_fresh": 1, "author": ["Cameron Meier"]},
{"text": "...sharp, bleak, and oddly oblique...", "is_fresh": 1, "author": ["Chris Barsanti"]},
{"text": "First Reformed is that rare movie that questions faith from the standpoint of faith. Schrader is a believer, one brave enough to question why - or even what - he believes.", "is_fresh": 1, "author": ["Eleanor Ringel Cater"]},
{"text": "Despite the provocative imagery and subject matter, First Reformed is a film that revels in its solemnity and speaks with a furious sincerity.", "is_fresh": 1, "author": ["Emma Simmonds"]},
{"text": "First Reformed can hardly imagine a hopeful future for the world, [yet] the film is full of longing for redemption... Toller hopes that his journal is a kind of prayer. Perhaps Schrader hopes the same for his film.", "is_fresh": 1, "author": ["Steven D. Greydanus"]},
{"text": "An unforgettable powerhouse.", "is_fresh": 1, "author": ["Sara Michelle Fetters"]},
{"text": "It's nice to know that, at 72, Paul Schrader can still surprise.", "is_fresh": 1, "author": ["Chris Knight"]},
{"text": "Every moment of First Reformed feels perfectly framed and precisely lit.", "is_fresh": 1, "author": ["Sonny Bunch"]},
{"text": "Ethan Hawke soars in writer/director Schrader's masterful (if very bleak) drama about trampled faith.", "is_fresh": 1, "author": ["Kim Hughes"]},
{"text": "Ultimately its sheer archness reveals Paul Schrader as a gifted and deeply persuasive evangelist of the transcendental style - if not quite a canon saint.", "is_fresh": 1, "author": ["John Semley"]},
{"text": "\"First Reformed\" takes some wild, unexpected and uncomfortable turns in its final act that will surely shock some, anger others and disturb just about everyone. For Schrader, it shows that he's still got it. Welcome back.", "is_fresh": 1, "author": ["Adam Graham"]},
{"text": "It is a work that isn't' afraid to look at something most movies try their best to avoid: deep despair.", "is_fresh": 1, "author": ["Robert Denerstein"]},
{"text": "What sets First Reformed apart is Schrader's relentless reserve.", "is_fresh": 1, "author": ["Janet Smith"]},
{"text": "First Reformed deserves all praise.", "is_fresh": 1, "author": ["Peter Howell"]},
{"text": "Ethan Hawke hauntingly embodies Reverend Toller, a middle-aged pastor at a church whose glory days are long past.", "is_fresh": 1, "author": ["Andrea Thompson"]},
{"text": "The anger in it - the American quality, that refuses to swallow wrath instead of expressing it as violence - gives it a simmer.", "is_fresh": 1, "author": ["Richard von Busack"]},
{"text": "\"First Reformed\" is a miracle in its own regard, the rare type of film that leaves us with questions left to answer and for many, a desire to dig into it deeper through a second viewing.", "is_fresh": 1, "author": ["Colin Covert"]},
{"text": "In its consideration of the commercialization of evangelical Christianity for an audience that has no time for the teachings of Christ, First Reformed's concerns are entirely of the moment.", "is_fresh": 1, "author": ["Norman Wilner"]},
{"text": "The scenes with Hawke, Cedric, and Gaston are improbably tense, in part because each character is given a rich and forceful voice in a way that has becoming increasingly rare in modern movies.", "is_fresh": 1, "author": ["Gary Thompson"]},
{"text": "A film that fascinates even as it goes wildly overboard.", "is_fresh": 1, "author": ["Frank Swietek"]},
{"text": "This is a movie about faith tested, and people trying to reconcile hope with a world that can feel hopeless. It's a film to be seen in a dark theater with an audience hushed in reverence of the power of cinema.", "is_fresh": 1, "author": ["Chris Vognar"]},
{"text": "A \"Taxi Driver\" for the present day, with Hawke in a career-best performance.", "is_fresh": 1, "author": ["Rafer Guzman"]},
{"text": "Provocative and mesmerizing, \"First Reformed\" is a film that demands to be seen.", "is_fresh": 1, "author": ["Calvin Wilson"]},
{"text": "This strikingly austere film is a rare movie to meaningfully wrestle with theological concerns-and their application in our ever-more-problematic worldly reality-so you are guaranteed ample discussion fodder afterward. ", "is_fresh": 1, "author": ["Dennis Harvey"]},
{"text": "It's Schrader's on-point filmmaking--a nouveau spin on the spiritual films, character studies, and transcendental style of cinematic Old Masters like Bergman and Bresson--that functions as what Toller calls 'another form of prayer.'", "is_fresh": 1, "author": ["Peter Canavese"]},
{"text": "Hawke masterfully places us inside the head of a man with a disintegrating soul, as he gradually loses a long-running battle with his demons.", "is_fresh": 1, "author": ["Al Alexander"]},
{"text": "It lingers uneasily in the subconscious. Furious and darkly funny, it's a tight, explosive encapsulation of our very specific moment in history.", "is_fresh": 1, "author": ["Alissa Wilkinson"]},
{"text": "Schrader's best screenplay since Taxi Driver.", "is_fresh": 1, "author": ["Tim Appelo"]},
{"text": "Diary of a Country Priest in New York State. A fine Ethan Hawke and Amanda Seyfried. Ending is a bit off the rails.", "is_fresh": 1, "author": ["James Verniere"]},
{"text": "Paul Schrader updates TAXI DRIVER for a new age, resulting in what could be his defining masterpiece.", "is_fresh": 1, "author": ["Jacob Knight"]},
{"text": "A masterwork containing a possible career-best performance by Ethan Hawke.", "is_fresh": 1, "author": ["Chris Bumbray"]},
{"text": "Is ambition is encouraging, and its dark musings are certainly provocative.", "is_fresh": 1, "author": ["Tom Russo"]},
{"text": "The best praise I can give First Reformed is that it makes powerful people feel uncomfortable.", "is_fresh": 1, "author": ["Alan Zilberman"]},
{"text": "It's a harrowing study of this man's life, portrayed in claustrophobic compositions ... [and] Hawke's precisely tuned performance...", "is_fresh": 1, "author": ["Mark Dujsik"]},
{"text": "First Reformed is something of a resurrection for the 71-year-old filmmaker, and an apt one.", "is_fresh": 1, "author": ["Tom Meek"]},
{"text": "A major work by a cinema giant, urgently reckoning with issues both current and eternal.", "is_fresh": 1, "author": ["Sean Burns"]},
{"text": "Schrader's brilliant film seamlessly incorporates the personal, the political, and the spiritual into one dynamic and immersive narrative. ", "is_fresh": 1, "author": ["Noah Gittell"]},
{"text": "Schrader pulls no spiritual punches.", "is_fresh": 1, "author": ["Richard Roeper"]},
{"text": "First Reformed begins to get really interesting when Schrader turns the tables on his hero-and us, and possibly himself.", "is_fresh": 1, "author": ["J. R. Jones"]},
{"text": "A searing, powerful look at the mingling of faith, politics, and activism", "is_fresh": 1, "author": ["Travis Hopson"]},
{"text": "\"First Reformed,\" a mesmerizingly austere drama of one man's apocalyptic crisis of faith, feels like the movie Paul Schrader was put on this planet to make.", "is_fresh": 1, "author": ["Ann Hornaday"]},
{"text": "An act of spiritual inquiry, a coolly assured example of cinematic scholarship in subtly deployed motion and one of the strongest pictures of 2018.", "is_fresh": 1, "author": ["Michael Phillips"]},
{"text": "\"First Reformed\" is an amazing examination of faith, a film that stays with you long after you have left the theater.", "is_fresh": 1, "author": ["Bill Goodykoontz"]},
{"text": "First Reformed hums disquietingly along at Schrader's own clockwork pace which, like Hawke's mesmerizing performance, is austere, stoic, and ultimately self-destructive. It's a glorious piece of filmmaking...", "is_fresh": 1, "author": ["Marc Savlov"]},
{"text": "Hawke gives an extraordinarily controlled performance as a man struggling mightily to retain dominion over himself...every minute detail of which speaks to an almost unendurable act of self-regulation.", "is_fresh": 1, "author": ["Nick Pinkerton"]},
{"text": "A direct expression from the soul onto celluloid, unvarnished and uncompromised, and Schrader's best film in years.", "is_fresh": 1, "author": ["Mick LaSalle"]},
{"text": "Commandingly demonstrates that [Paul] Schrader is still worth listening to.", "is_fresh": 1, "author": ["Sean Nelson"]},
{"text": "A masterful portrait of a priest struggling with his inner torments, and the external realities of the church and the world.", "is_fresh": 1, "author": ["Jeffrey M. Anderson"]},
{"text": "\"First Reformed\" is Ethan Hawke's film and the actor gives a richly textured performance of a man at an important crossroad in his life.", "is_fresh": 1, "author": ["Robin Clifford"]},
{"text": "It's a gorgeous film, mourning the impossibility of being alive as it celebrates that which binds us, a conscious-rattling, viscera-stirring piece of art.", "is_fresh": 1, "author": ["Dom Sinacola"]},
{"text": "The diary allows for Toller's narration to feel natural and place us into the mind on the verge of destruction, and the closing moments express the sensation of good and evil; the closing shot alone is worth the price of admission", "is_fresh": 1, "author": ["Robert Kojder"]},
{"text": "...Hawke delivers what very well may be his career-best performance as Ernst Toller.", "is_fresh": 1, "author": ["Danielle Solzman"]},
{"text": "This scenario is serious almost to the point of silliness: It could be parody of a morality play. But the heaviness is also essential to the architecture and impact of what I'm thinking is the year's first maybe-great American movie.", "is_fresh": 1, "author": ["Adam Nayman"]},
{"text": "Schrader's film is a wise, shocking, intellectually prodigious masterpiece.", "is_fresh": 1, "author": ["K. Austin Collins"]},
{"text": "There's nothing ambiguous about the strength of Hawke's work or the fact that this is a complete artistic comeback for a writer and director who has always refused easy answers.", "is_fresh": 1, "author": ["Don Kaye"]},
{"text": "An embittered look at our world through the eyes of someone who's increasingly horrified to be a part of it, and a film that's one of the most searing experiences of the year.", "is_fresh": 1, "author": ["David Sims"]},
{"text": "A tremendous character study, and a severe depiction of how guilt and the desire to punish oneself manifest.", "is_fresh": 1, "author": ["Tim Brayton"]},
{"text": "It's fearless, yet utterly controlled, terribly moving and beautifully terrifying. ", "is_fresh": 1, "author": ["Jeffrey M. Anderson"]},
{"text": "... an ambitious and sharply written drama that's deliberately paced yet never tedious, bolstered by Hawke's powerfully understated performance.", "is_fresh": 1, "author": ["Todd Jorgenson"]},
{"text": "A slow movie classic which explores a rainbow mix of religious and spiritual themes.", "is_fresh": 1, "author": ["Frederic and Mary Ann Brussat"]},
{"text": "Hawke offers one of his best performances, a masterful blending of outward stoicism and strong and challenging emotions.", "is_fresh": 1, "author": ["Robert Levin"]},
{"text": "Schrader's chief influence here, as in many of his other films, is the great French director Robert Bresson... But Bresson's spare stylistics achieved a sublimity while Schrader's, though intermittently powerful, too often feel schematic.", "is_fresh": 1, "author": ["Peter Rainer"]},
{"text": "Disturbing images in intense, mature character study. ", "is_fresh": 1, "author": ["Michael Ordo\u00f1a"]},
{"text": "A visionary film about the most urgent question facing humanity: ecological ruin. Schrader has made the greatest American film of the decade.", "is_fresh": 1, "author": ["Louis Proyect"]},
{"text": "A stunning, enrapturing film, a crowning work by one of the American cinema's most essential artists.", "is_fresh": 1, "author": ["Godfrey Cheshire"]},
{"text": "First Reformed has its steeple in the clouds and its foundation on solid ground.", "is_fresh": 1, "author": ["Joe Morgenstern"]},
{"text": "Schrader is positing that the real world is, and should be, about the life of the mind, the health of the soul-and love. Ultimately, that is where First Reformed ends up, even if it seems to be going everywhere else.", "is_fresh": 1, "author": ["John Anderson"]},
{"text": "What begins as a patient and unvarnished look inside one man's depression escalates into a crazed psychic and spiritual unravelling.", "is_fresh": 1, "author": ["E. Oliver Whitney"]},
{"text": "...ascetic, poetic, and prophetic.", "is_fresh": 1, "author": ["Josh Larsen"]},
{"text": "It is an exquisite piece of filmmaking and also a blunt, pulpy instrument, a despairing, fully sustained howl of a movie that is easily this director's finest work in years.", "is_fresh": 1, "author": ["Justin Chang"]},
{"text": "Schrader...has made a fine existential-crisis movie. And for all its serious intent, it isn't torture to watch.", "is_fresh": 1, "author": ["Stephanie Zacharek"]},
{"text": "The filmmaker's return to a somber Bressonian mode will work like catnip on his superfans, especially after Schrader's exploitative 2013 Lindsay Lohan disaster The Canyons (little more than dirty-old-man cinema) and two terrible Nic Cage movies.", "is_fresh": 1, "author": ["Joshua Rothkopf"]},
{"text": "Ambitious Paul Schrader drama ultimately loses its way.", "is_fresh": 0, "author": ["Daniel Eagan"]},
{"text": "Mr. Schrader...is 71, and has had a long and varied career, but \"First Reformed\" nonetheless feels like a fresh discovery. More than that: an epiphany.", "is_fresh": 1, "author": ["A.O. Scott"]},
{"text": "Schrader has made his best film in years with his eco-warrior country priest.", "is_fresh": 1, "author": ["Laura Clifford"]},
{"text": "Paul Schrader offers one of the year's best movies-a faith-in-crisis powerhouse about a pastor -Ethan Hawke hitting a new career peak-who is politically awakened by an eco-activist and a new kind of love. ", "is_fresh": 1, "author": ["Peter Travers"]},
{"text": "Could this be Ethan Hawke's Oscar?", "is_fresh": 1, "author": ["Roger Moore"]},
{"text": "Not an easy watch, but required viewing for ambitious cinephiles.", "is_fresh": 1, "author": ["J.R. Kinnard"]},
{"text": "The first two-thirds of this film are utterly riveting... but in the final act... the story threatens to devolve into some sort of eco-thriller. ", "is_fresh": 1, "author": ["Rich Cline"]},
{"text": "A fascinating work of almost mixed media: Ingmar Bergman and Robert Bresson meet outraged editorial cartooning meet the it-always-builds-to-violence pulp sensibility of the movie brats.", "is_fresh": 1, "author": ["Alan Scherstuhl"]},
{"text": "\"First Reformed\" is the kind of film that will stay with you long after the credits.", "is_fresh": 1, "author": ["Lindsey Bahr"]},
{"text": "It's an exacting film, substantial and suspenseful, one of the best of the year so far.", "is_fresh": 1, "author": ["Kyle Smith"]},
{"text": "The searching loss-of-faith drama First Reformed is the happy result of Paul Schrader's entering the what-the-hell-let's-go-for-it stage of his long and bravely self-lacerating career.", "is_fresh": 1, "author": ["David Edelstein"]},
{"text": "A dazzling exploration of the soul of a reverend overwhelmed by his guilt over the death of his son in Iraq.", "is_fresh": 1, "author": ["Harvey S. Karten"]},
{"text": "Until I saw Toller, I didn't know the human soul could frown.", "is_fresh": 1, "author": ["Anthony Lane"]},
{"text": "After more than 20 features, Paul Schrader has been reborn with First Reformed, an unhurried, furious, deeply agonized look at faith and skepticism that's as reverent as it is blasphemous. ", "is_fresh": 1, "author": ["Greg Cwik"]},
{"text": "Shot in 1.37:1 aspect ratio, and devoid of a conventional musical score, it's an austere examination of devotion, grief, self-loathing and the desperate madness those emotions can inspire in an alienated individual's heart. ", "is_fresh": 1, "author": ["Nick Schager"]},
{"text": "First Reformed is a carefully composed and constructed film that should probably be seen more than once, with cinematic rewards aplenty for those open to the Word of Schrader.", "is_fresh": 1, "author": ["Christopher Llewellyn Reed"]},
{"text": "Singular in its distillation of Schrader's decades-spanning preoccupations of film criticism and filmmaking as well as his religious background, First Reformed is a rare object unified in subject and style. ", "is_fresh": 1, "author": ["Aliza Ma"]},
{"text": "A trio of staggering performances by Hawke, Seyfried, and Cedric the Entertainer, a gripping story that mines our current sociopolitical landscape for philosophical fodder, and typically formidable writing make First Reformed a mandatory watch.", "is_fresh": 1, "author": ["Alex Arabian"]},
{"text": "Engrossing thriller over the loss of faith.", "is_fresh": 1, "author": ["Dennis Schwartz"]},
{"text": "First Reformed is an art movie, pure and simple. It won't attract the teenage action-loving crowd. It won't break any box-office records. But it's beautiful, thoughtful and full of grace.", "is_fresh": 1, "author": ["Charles Ealy"]},
{"text": "In First Reformed, depression arises from one's lack of impact, whether that be through inactivity or a lack of tangible results.", "is_fresh": 1, "author": ["Randall Colburn"]},
{"text": "A culmination of Schrader's entire career.", "is_fresh": 1, "author": ["Shawn Glinis"]},
{"text": "A great work by a great artist doing things that great art should do - making us think, feel and reflect.", "is_fresh": 1, "author": ["Jason Gorber"]},
{"text": "First Reformed is a fierce and gratifying modern parable that only someone with the religious and philosophical import like Schrader could pull off.", "is_fresh": 1, "author": ["Tomas Trussow"]},
{"text": "I have been waiting most of my adult life for Paul Schrader to direct a great film.", "is_fresh": 1, "author": ["Kenneth R. Morefield"]},
{"text": "Unique in contemporary cinema, it's a film that takes religion and scripture seriously, and because it does, it must go to the very dark place it eventually goes.", "is_fresh": 1, "author": ["Jason Bailey"]},
{"text": "Paul Schrader has made his masterpiece.", "is_fresh": 1, "author": ["Walter Chaw"]},
{"text": "A truly captivating, pertinent piece of cinema.", "is_fresh": 1, "author": ["Stefan Pape"]},
{"text": "Four decades later, First Reformed may be the full realization of Schrader's vision.", "is_fresh": 1, "author": ["Ethan Vestby"]},
{"text": "A stealthily engrossing work that should appeal to viewers who haven't seen, say, Affliction. ", "is_fresh": 1, "author": ["Kent Turner"]},
{"text": "Quieter and more sensitive than anything else Schrader has directed, with Ethan Hawke giving one of his finest and most moving performances in the lead role.", "is_fresh": 1, "author": ["Ignatiy Vishnevetsky"]},
{"text": "What keeps us alert as viewers is not the slow disintegration of this man's faith, but the deep ambiguity about where the film's sympathies actually lie.", "is_fresh": 1, "author": ["Elena Lazic"]},
{"text": "A film of fascinating conversations, anchored by Hawke's completely genuine performance.", "is_fresh": 1, "author": ["Brian Tallerico"]},
{"text": "Greatness is often intertwined with insanity, and there's no way to describe the finale of First Reformed as anything other than a dual act of extreme devotion and inspired lunacy.", "is_fresh": 1, "author": ["Keith Uhlich"]},
{"text": "Thoughtful, moving, overreaching and uncompromising, \"First Reformed\" is a tremendously tormented work. Ethan Hawke delivers a performance full of grace and sorrow in this powerful portrait of existential and spiritual despair.", "is_fresh": 1, "author": ["Tim Grierson"]},
{"text": "[Ethan] Hawke's performance is his most mature to date, a masterpiece of a man who cannot work himself out and yet is compelled to try.", "is_fresh": 1, "author": ["John Bleasdale"]},
{"text": "Schrader and his cast commit to the project with sharpened and unblinking seriousness, even when the going gets mesmerically weird, with violence, visions, levitations and Neil Young protest songs chanted sombrely by toxic swamps.", "is_fresh": 1, "author": ["Robbie Collin"]},
{"text": "\"First Reformed\" sees Paul Schrader return to his roots, and through the aesthetics of grace, find his way home. ", "is_fresh": 1, "author": ["Rodrigo Perez"]},
{"text": "A fascinating meditation on inner turmoil in which doing the right thing can lead down many wrong directions.", "is_fresh": 1, "author": ["Eric Kohn"]},
{"text": "The sort of stimulating work that a writer-director of a certain age can deliver when he returns to his creative sweet spot; rejoice, Schrader fans, rejoice.", "is_fresh": 1, "author": ["Alonso Duralde"]},
{"text": "First Reformed is a deeply felt, deeply thought picture; impressive in its seriousness and often gripping in the way it frames itself as a debate and a sermon.", "is_fresh": 1, "author": ["Xan Brooks"]},
{"text": "In \"First Reformed,\" Paul Schrader courts respectability and leaves it in the dust, getting stoned on excess. But make no mistake: He's still one hell of a filmmaker.", "is_fresh": 1, "author": ["Owen Gleiberman"]},
{"text": "There's not quite enough oomph or style in the filmmaking to make you forget about the schematic nature of the dramatic construct.", "is_fresh": 0, "author": ["Todd McCarthy"]}
]