[
{"reviews_count": "91", "title": "Forrest Gump", "avg_audience_rating": "4.1", "rotten_count": "25", "tomatometer": "73", "audience_score": "95", "avg_critic_rating": "7.3", "fresh_count": "66", "user_ratings_count": "1,243,857"},
{"text": "Contrasting Forrest's unassuming innocence with the upheavals and rancor of the times, the film is a wisely goofy commentary on the stupidity of smartness. ", "is_fresh": 1, "author": ["Duane Byrge"]},
{"text": "Forrest Gump, the new Tom Hanks movie directed by Robert Zemeckis, is a one-of-a-kind treat.", "is_fresh": 1, "author": ["Jay Carr"]},
{"text": "A hilarious, large-spirited and tender epic.", "is_fresh": 1, "author": ["Jeff Simon"]},
{"text": "Hanks' power as an actor makes us believe in Forrest. He also draws us into Forrest's mind and morality system. And he sets out a singular film persona who will be watched and loved as long as people embrace movies.", "is_fresh": 1, "author": ["Malcolm Johnson"]},
{"text": "...an instant classic. [Full Review in Spanish] ", "is_fresh": 1, "author": ["Virginia Montes"]},
{"text": "Forrest Gump is, for all of it's graces, undeniably broken thanks to [its] shameless ideological manipulation of historical truths. [Full review in Spanish]", "is_fresh": 0, "author": ["\u00c1ngel Fern\u00e1ndez-Santos"]},
{"text": "Tries very hard to be all things to all people, and as a result fails to be anything at all.", "is_fresh": 0, "author": ["Tim Brayton"]},
{"text": "A weirder, darker, and better movie than its reputation suggests.", "is_fresh": 1, "author": ["Jason Bailey"]},
{"text": "It's a lovely and wise story told with honesty and acted out with unassuming grace. To his collection of medals, trophies and kudos, Forrest Gump should add an Oscar or two.", "is_fresh": 1, "author": ["Dennis King"]},
{"text": "A dark and driven work, haunted by violence, cruelty and a sense of the tragically absurd.", "is_fresh": 1, "author": ["Dave Kehr"]},
{"text": "For its 20th anniversary, 'Forrest Gump' is being rereleased for one week in the IMAX format nationwide, including at Rave Cinemas, Davenport. Here is my review from July 1994: Garp + Zelig x Chance = Gump.", "is_fresh": 1, "author": ["Linda Cook"]},
{"text": "Forrest Gump is never sure of what it is or what it wants to be.", "is_fresh": 0, "author": ["Daniel Carlson"]},
{"text": "Pulling the supremely naive yet mystically wise Gump off is a feather in Hanks' hat.", "is_fresh": 1, "author": ["John Wirt"]},
{"text": "One of my all time favorite films.", "is_fresh": 1, "author": ["Felix Vasquez Jr."]},
{"text": "It might hit you right in the feels, even as your eyes are rolling. To quote one of Forrest's truest pieces of wisdom: Maybe both is happening at the same time.", "is_fresh": 1, "author": ["Rob Humanick"]},
{"text": "So afraid to dredge up debate that when Forrest is handed a mic at an antiwar rally, someone unplugs the speakers so we can't hear him - fitting for a movie with nothing to say.", "is_fresh": 0, "author": ["Amy Nicholson"]},
{"text": "It's most successful when it is being off-center, a state of grace it doesn't quite have the nerve to maintain.", "is_fresh": 1, "author": ["Kenneth Turan"]},
{"text": "Hanks is brilliant in evoking Forrest's good-heartedness; he cannot really perceive evil in men, and yet he is so untainted by bigotry or ideology that he makes the perfect witness.", "is_fresh": 1, "author": ["Stephen Hunter"]},
{"text": "This isn't the meaningful movie it pretends to be. But as a goofy entertainment that speeds through the latter half of the 20th century, stopping here and there to snap a photo or two, Forrest Gump does just fine.", "is_fresh": 1, "author": ["Steven Rea"]},
{"text": "Forrest Gump is a schmaltz-Zelig, a Being There engineered from the genetic material of a Hallmark card.", "is_fresh": 0, "author": ["Adam Mars-Jones"]},
{"text": "Good as Wright and Sinise are in their roles as Forrest's near-suicidal soulmates, the movie always comes back to Hanks, and director Robert Zemeckis helps him to achieve some of his finest emotional moments.", "is_fresh": 1, "author": ["John Hartl"]},
{"text": "The performances of Hanks, Gary Sinise, Mykleti Williamson and Robin Wright are worthy. What's missing, though, is a philosophical context in which to gauge what we're watching.", "is_fresh": 1, "author": ["Dan Webster"]},
{"text": "Zemeckis has an exuberant sense of humor, an ability to use good ideas from other movies (he steals from Being There and Zelig) and an unmatched mastery of the technical.", "is_fresh": 1, "author": ["Gary Thompson"]},
{"text": "As played to perfection by recent Oscar winner Tom Hanks, who is fast proving that he has no acting limits, this film is a social comedy that reaches heights of wit and cleverness.", "is_fresh": 1, "author": ["Candice Russell"]},
{"text": "America's loss of innocence as filtered through the eyes of an innocent -- that's the theme of this plodding, heavy-handed parable.", "is_fresh": 0, "author": ["Joanne Kaufman"]},
{"text": "The movie supports its optimistic agenda by evading or overlooking many hard realities of the historical period it supposedly wants to explore and understand. The result is a winning but ultimately dishonest portrait.", "is_fresh": 0, "author": ["David Sterritt"]},
{"text": "The movie's technical tricks are great fun, as is its musical soundtrack, which captures the essences of the eras it traverses. But when you come right down to it, it's the oddly magnetic personality of Forrest himself that is the biggest draw.", "is_fresh": 1, "author": ["Jay Boyar"]},
{"text": "Forrest Gump is a perfectly competent movie. Its major failure is one of morals and ideas, and the fact that so many, many people did not seem to notice or care, is what really flummoxed me. ", "is_fresh": 0, "author": ["Jeffrey M. Anderson"]},
{"text": "Largely enjoyable.", "is_fresh": 1, "author": []},
{"text": "This tall tale may reach monumental proportions, but Forrest Gump always keeps its magical airiness and grace.", "is_fresh": 1, "author": ["Michael Wilmington"]},
{"text": "Credit for the success of the film has to start with director Robert Zemeckis, who has taken his Back to the Future and Who Framed Roger Rabbit success and parlayed it into a more mature, yet equally entertaining, film.", "is_fresh": 1, "author": ["Gene Siskel"]},
{"text": "Warm, wise, and wearisome as hell.", "is_fresh": 0, "author": ["Anthony Lane"]},
{"text": "One can sneer at it, but one can't ignore it.", "is_fresh": 1, "author": ["Adrian Turner"]},
{"text": "All this might have seemed like pressing optimism a bit without the bland but still potent presence of Tom Hanks at its centre, clearly on his way to another Oscar nomination.", "is_fresh": 1, "author": ["Derek Malcolm"]},
{"text": "The greatest pleasure the picture affords Americans is most likely a sense of relief; Forrest Gump assures us that we've awakened from the nightmare of history; that all is forgiven, and most has already been forgotten.", "is_fresh": 0, "author": ["Stuart Klawans"]},
{"text": "...not a wishful paean to a fantasy version of America, but a portrait of America - its awfulness and beauty, promise and pain - as seen through the eyes of an innocent. ", "is_fresh": 1, "author": ["Josh Larsen"]},
{"text": "This Oscar-winner divided critics in its chronicle of the long journey taken by a slow-witted boy through American history and politics, but there was consensus about the high-caliber acting of Hanks, who won a second, consecutive Best Actor Oscar.", "is_fresh": 1, "author": ["Emanuel Levy"]},
{"text": "Moving and wonderful, but parent preview a good idea.", "is_fresh": 1, "author": ["Michael Scheinfeld"]},
{"text": "Even if its success was overblown, so was the backlash.", "is_fresh": 1, "author": ["Jeff Giles"]},
{"text": "Forrest may be dumb, but he ain't stupid.", "is_fresh": 1, "author": ["John J. Puccio"]},
{"text": "For all its ambition, the movie ends up using great historical events in the service of a dubious sentimentality.", "is_fresh": 0, "author": ["David Ansen"]},
{"text": "The wearisome Forrest Gump won six Oscars.", "is_fresh": 0, "author": ["Dennis Schwartz"]},
{"text": "Unashamedly sentimental, this is a technically triumphant tear-jerker.", "is_fresh": 1, "author": []},
{"text": "Despite its flaws, this is simply unmissable.", "is_fresh": 1, "author": ["Angie Errigo"]},
{"text": "Its flaws don't do it any great harm; it's as comforting as an afternoon nap, but also as refreshing.", "is_fresh": 1, "author": ["Rob Gonsalves"]},
{"text": "A picaresque story of a simpleton's charmed odyssey through 30 years of tumultuous American history, Forrest Gump is whimsy with a strong cultural spine.", "is_fresh": 1, "author": ["Todd McCarthy"]},
{"text": "See website for more details.", "is_fresh": 1, "author": ["Rory L. Aronsky"]},
{"text": "Toeing the centreline like a motherf***er while Rome burns. Can I get an \"amen\"?", "is_fresh": 0, "author": ["Walter Chaw"]},
{"text": "Zemeckis's film has lots of heart but little in the way of guts or brains.", "is_fresh": 1, "author": []},
{"text": "Judging by the the movie's enduring popularity, the message that stupidity is redemption is clearly what a lot of Americans want to hear.", "is_fresh": 0, "author": ["Jonathan Rosenbaum"]},
{"text": "As this mawkish conservative movie ultimately goes to prove: ignorance is bliss.", "is_fresh": 0, "author": ["Tom Charity"]},
{"text": "A great film.", "is_fresh": 1, "author": ["Michael Dequina"]},
{"text": "This film is both serious and funny, entertaining and thought-provoking and it could make people laugh and cry with equal degree of ease.", "is_fresh": 1, "author": ["Dragan Antulov"]},
{"text": "A long lovely movie with Hanks playing a sort of goofy Everyman who shows that any of us can make it if we simply persist.", "is_fresh": 1, "author": ["Michael Szymanski"]},
{"text": "Forrest Gump has the elements of an emotionally gripping story. Yet it feels less like a romance than like a coffee-table book celebrating the magic of special effects.", "is_fresh": 0, "author": ["Stephen Holden"]},
{"text": "The press kit says Gump brings a rare clarity to what we went through in the '50s, '60s and '70s. But I only saw a pitiful stooge taking the pie of life in the face, thoughtfully licking his fingers.", "is_fresh": 0, "author": ["Marc Vincenti"]},
{"text": "The good-natured humor is wonderful in the film, but the thing that makes it so entertaining is how it hits all the human emotions dead-center without resorting to cheap melodrama.", "is_fresh": 1, "author": ["Robert Roten"]},
{"text": "Exquisitely made, expertly crafted... and a work of purest, blackest evil.", "is_fresh": 0, "author": ["Rob Vaux"]},
{"text": "Stupid is as stupid does, and this movie is, indeed, stupid.", "is_fresh": 0, "author": ["Luke Y. Thompson"]},
{"text": "Gets my vote for the most offensive, morally repugnant film ever made", "is_fresh": 0, "author": ["Ken Hanke"]},
{"text": "There's only one word to truly describe Forrest Gump: magical.", "is_fresh": 1, "author": ["Kevin N. Laforest"]},
{"text": "Forrest Gump is still an entertaining film, though one of little importance.", "is_fresh": 1, "author": ["Wesley Lovell"]},
{"text": "Clever, sweet and frequently very funny. I think it's a darn good movie.", "is_fresh": 1, "author": ["Scott Weinberg"]},
{"text": "Skillfully adapted by screenwriter Eric Roth, the story belongs in the company of such sweet classics as Rain Man and Harvey.", "is_fresh": 1, "author": ["Rita Kempley"]},
{"text": "The result is an enormously accomplished piece of sentimental glop.", "is_fresh": 1, "author": ["Stephen Farber"]},
{"text": "An enchanting and creative parable about a contemporary holy fool whose brand of selflessness is free of reason's madness and the ego's frivolous grandeur.", "is_fresh": 1, "author": ["Frederic and Mary Ann Brussat"]},
{"text": "I may never fully understand the awe some Gump fans feel over this movie, but it's still a whole lot of good, sweet, silly fun.", "is_fresh": 1, "author": ["Brian Webster"]},
{"text": "views the world with such an open eye and optimistic attitude that you're willing to overlook how much it simplifies complex phenomena just because it makes you feel so good", "is_fresh": 1, "author": ["James Kendrick"]},
{"text": "A movie heart-breaker of oddball wit and startling grace.", "is_fresh": 1, "author": ["Peter Travers"]},
{"text": "There's something in the centre of Forrest Gump, and soft is one thing it definitely ain't.", "is_fresh": 1, "author": ["Andrew Howe"]},
{"text": "Good but flawed.", "is_fresh": 1, "author": ["Scott Renshaw"]},
{"text": "Passionate and magical, Forrest Gump is a tonic for the weary of spirit.", "is_fresh": 1, "author": ["James Berardinelli"]},
{"text": "What a magical movie.", "is_fresh": 1, "author": ["Roger Ebert"]},
{"text": "Hanks is superb, reemploying the childlike presence he brought to Big.", "is_fresh": 1, "author": ["Desson Thomson"]},
{"text": "Forrest Gump has an intricacy and depth that is more rewarding while still being enormously engaging.", "is_fresh": 1, "author": ["MaryAnn Johanson"]},
{"text": "The worst thing is the film goes for brilliance when it really isn't.", "is_fresh": 0, "author": ["Ted Prigge"]},
{"text": "Both dark and sweet.", "is_fresh": 1, "author": ["Robert Faires"]},
{"text": "It was almost like it was written by a committee and everybody got to write 10 minutes of the story.", "is_fresh": 0, "author": ["Steve Rhodes"]},
{"text": "It's been awhile since we've had a movie that offered so much and generally managed to deliver on all counts.", "is_fresh": 1, "author": ["Chris Hicks"]},
{"text": "It sure seemed great at the time, but Gump is aging, and not very well.", "is_fresh": 1, "author": ["Christopher Null"]},
{"text": "It could be said that Forrest Gump is the definitive American movie.", "is_fresh": 1, "author": ["Ben Falk"]},
{"text": "Hanks is so charming as Gump, so heroic in his guilelessness and belief in simple virtues, that you want to excuse the film's excesses and overlook Zemeckis' weakness for easy, maudlin sentiment.", "is_fresh": 1, "author": ["Edward Guthmann"]},
{"text": "Like the best movie actors, Hanks is a superb reactor.", "is_fresh": 1, "author": ["Richard Corliss"]},
{"text": "It was competently made but overlong and occasionally infuriating.", "is_fresh": 0, "author": ["Mark R. Leeper"]},
{"text": "Reduces the tumult of the last few decades to a virtual-reality theme park: a baby-boomer version of Disney's America.", "is_fresh": 0, "author": ["Owen Gleiberman"]},
{"text": "Forrest Gump is a modern classic. It is epic in scope and effortlessly combines humor with pathos, like all the best movies do.", "is_fresh": 1, "author": ["Scott Nash"]},
{"text": "", "is_fresh": 1, "author": ["Rob Blackwelder"]},
{"text": "", "is_fresh": 1, "author": ["Audrey Rock-Richardson"]},
{"text": "", "is_fresh": 1, "author": ["Jeffrey Westhoff"]},
{"text": "", "is_fresh": 0, "author": ["James O'Ehley"]},
{"text": "", "is_fresh": 1, "author": ["Steven Snyder"]}
]