[
{"reviews_count": "48", "title": "From Dusk Till Dawn", "avg_audience_rating": "3.5", "rotten_count": "18", "tomatometer": "63", "audience_score": "76", "avg_critic_rating": "  6", "fresh_count": "30", "user_ratings_count": "273,439"},
{"text": "\"From Dusk Till Dawn\" answers the question about George Clooney, but raises a couple about Quentin Tarantino.", "is_fresh": 0, "author": ["Jay Carr"]},
{"text": "[Robert] Rodriguez pushes the envelope but fails to make any lasting impression except revulsion at the spectacle of acclaimed independent filmmakers wasting their talents on such trash.", "is_fresh": 0, "author": ["David Hunter"]},
{"text": "Still sizzles like a capsaicin-spiked grindhouse meatloaf baked and served just under the wire of its sell-by date.", "is_fresh": 1, "author": ["Nick Rogers"]},
{"text": "This is the \"Reservoir Dogs\" with a twist of \"Near Dark\" set to the tune of \"Assault on Precinct 13.\"", "is_fresh": 1, "author": ["Felix Vasquez Jr."]},
{"text": "Based on an early Tarantino script, Rodriguez' movie is an incoherent B-pic, in which the sensibilities of the two filmmakers clash.", "is_fresh": 1, "author": ["Emanuel Levy"]},
{"text": "It is a shame to see so much good talent giving such low-yield results.", "is_fresh": 0, "author": ["Steve Biodrowski"]},
{"text": "Energetic low-budget vampire nonsense from Robert Rodriguez and Quentin Tarantino.", "is_fresh": 1, "author": []},
{"text": "If you're going to like it, you already know it.", "is_fresh": 1, "author": []},
{"text": "Imagine two movies plucked from opposite sides of the video store.", "is_fresh": 1, "author": ["Owen Gleiberman"]},
{"text": "A deliriously trashy, exuberantly vulgar, lavishly appointed exploitation picture, this weird combo of road-kill movie and martial-arts vampire gorefest is made to order for the stimulation of teenage boys.", "is_fresh": 1, "author": ["Todd McCarthy"]},
{"text": "On a mindless exploitation level this is pretty good, but on other levels it seems to make promises that it fails to deliver on.", "is_fresh": 1, "author": ["Jonathan Rosenbaum"]},
{"text": "A tired, humorless pastiche of various exploitation genres that is not the least bit imaginative in its campy deconstruction of conventions.", "is_fresh": 0, "author": ["Hal Hinson"]},
{"text": "Nihilistic and initally unpleasant ... Once the vampires appear (unfortunately about 60 minutes too late), the movie becomes uproarious entertaiment with the most intense humans vs. vampires showdown since 1985's Fright Night.", "is_fresh": 1, "author": ["Chuck O'Leary"]},
{"text": "Like a Cheesecake Blizzard: It's a pulpy mess loaded with empty calories, but it's so divine that once you start, you can't help but shovel it into your mouth until the last drop, brain freeze and diet be damned.", "is_fresh": 1, "author": ["Phil Villarreal"]},
{"text": "These guys were going for a B-movie feel, lots of blood, lots of guts, lots of tits and ass, and lots of fun, and for the most part, they achieved their goals.", "is_fresh": 1, "author": ["JoBlo"]},
{"text": "This is a B-movie, albeit a largish budget B-movie, but with an undeniable B-movie spirit.", "is_fresh": 1, "author": ["Jeffrey M. Anderson"]},
{"text": "Rodriguez has a lot of fun dreaming up cool ways to kill people (he's making this his life's work), but he also gets something resembling a performance from Tarantino and transforms Clooney into a full-fledged movie star.", "is_fresh": 1, "author": []},
{"text": "Mr. Rodriguez demonstrates his talents more clearly than ever -- he's visually inventive, quick-witted and a fabulous editor -- while still hampering himself with sophomoric material.", "is_fresh": 0, "author": ["Janet Maslin"]},
{"text": "Ask yourself \"am I the kind of person who finds topless vampire strippers a source of constant amusement?\" Only those who answer an enthusiastic \"YES!\" need apply.", "is_fresh": 1, "author": ["Rob Vaux"]},
{"text": "I can think of worse things to sit through than an orgy of bullets, exploding corpses, and stripper vampires.", "is_fresh": 1, "author": ["Brian Mckay"]},
{"text": "This film is 'exploitation' in more than one sense of the word.", "is_fresh": 1, "author": ["Dragan Antulov"]},
{"text": "A weird double-bill in itself: Part one's a crime drama, part two vampire splatter flick. It's an awkward pairing, but there's fun to be had.", "is_fresh": 1, "author": ["Luke Y. Thompson"]},
{"text": "You got to admire how Rodriguez balances elements of action, comedy, horror, thriller, road movie and Western in the same film!", "is_fresh": 1, "author": ["Kevin N. Laforest"]},
{"text": "The picture shows what happens when a writer (Tarantino) and a director (Rodriguez) come together and reinforce each other's worst tendencies and misconceptions.", "is_fresh": 0, "author": ["Mick LaSalle"]},
{"text": "A drop-dead-erotic scene a seduction dance by the bar's featured performer, Santanico Pandemonium ... is one of the two reasons to see this movie.", "is_fresh": 0, "author": ["Kim Williamson"]},
{"text": "For those with a twisted sense of humor, it is entertaining.", "is_fresh": 1, "author": ["Leslie Rigoulot"]},
{"text": "The characters were as empty as the story.", "is_fresh": 0, "author": ["Dennis Schwartz"]},
{"text": "This movie is just too much fun not to like.", "is_fresh": 1, "author": ["James Kendrick"]},
{"text": "From Dusk Till Dawn is an hilarious piece of genre filmmaking.", "is_fresh": 1, "author": ["Ryan Cracknell"]},
{"text": "It's great fun, but certainly not great art.", "is_fresh": 1, "author": ["James Berardinelli"]},
{"text": "The movie, which treats you with contempt for even watching it, is a monument to its own lack of imagination.", "is_fresh": 0, "author": ["Desson Thomson"]},
{"text": "What we have here in From Dusk Till Dawn is Pulp Fiction with teeth.", "is_fresh": 1, "author": ["Liz Braun"]},
{"text": "It's clever, brash and -- if you're into it -- entertaining movie-making that has it all ways, allowing you a stylishly cynical noninvestment, alongside an old-fashioned attachment to the regular guy.", "is_fresh": 1, "author": ["Cynthia Fuchs"]},
{"text": "Fans of the genre will like it, especially in the no-holds barred second half. Others are advised to avoid this one.", "is_fresh": 0, "author": ["Madeleine Williams"]},
{"text": "This is horror with a wink and a nod to drive-in theatres and sweaty back seats. This is how it's done.", "is_fresh": 1, "author": ["Marc Savlov"]},
{"text": "The sickest, most perverted movie within memory. Guiltily, I liked it. But what the hell is it?", "is_fresh": 1, "author": ["Joe Baltake"]},
{"text": "The film is so flamboyantly gory and disgusting, so vulgar and in-your-face obnoxious, with so many offensive subplots and wacked-out elements that you may give up long before you need to reach for your second headache tablet.", "is_fresh": 0, "author": ["Chris Hicks"]},
{"text": "As the bloodsuckers attack our 'heroes' again and again, you feel like you're watching a video game -- from dusk to dawn.", "is_fresh": 0, "author": ["Andy Seiler"]},
{"text": "The way-over-the-top campiness is so completely ridiculous, it's impossible to take anything in the film seriously. And trust me, that's not a bad thing.", "is_fresh": 1, "author": ["Christopher Null"]},
{"text": "I don't mean to dismiss his films, which I enjoy, or cast aspersions on his character, but I've got to admit -- when Tarantino plays his own sordid parts, he gives me the creeps.", "is_fresh": 0, "author": ["Bryant Frazer"]},
{"text": "The filmmakers' references, their winks and nods to the audience, are far more diverting than the picture itself.", "is_fresh": 0, "author": ["Walter V. Addiego"]},
{"text": "From Dusk Till Dawn was probably spawned from an all night bender during which Tarantino and Rodriguez thought it would be fun to see if they could make a deliberately lame movie with someone else's money.", "is_fresh": 0, "author": ["Rob Blackwelder"]},
{"text": "From Dusk Till Dawn will be a real disappointment for most Tarantino fans.", "is_fresh": 0, "author": ["Mark R. Leeper"]},
{"text": "A fun, tongue-in-cheek gorefest that both spoofs and celebrates the glories of B-grade exploitation vehicles.", "is_fresh": 1, "author": ["Michael Dequina"]},
{"text": "", "is_fresh": 0, "author": ["Jeffrey Westhoff"]},
{"text": "", "is_fresh": 1, "author": ["Mark Palermo"]},
{"text": "", "is_fresh": 1, "author": ["Dan Fazio"]},
{"text": "", "is_fresh": 0, "author": ["Jeremiah Kipp"]}
]