[
{"reviews_count": "91", "title": "GoodFellas", "avg_audience_rating": "4.3", "rotten_count": "4", "tomatometer": "96", "audience_score": "97", "avg_critic_rating": "  9", "fresh_count": "87", "user_ratings_count": "428,343"},
{"text": "Is it a great movie? I don't think so. But it's a triumphant piece of filmmaking-journalism presented with the brio of drama.", "is_fresh": 1, "author": ["Pauline Kael"]},
{"text": "Anti-romantic, it nevertheless sweeps us into the allure of mob glamour -- then slams us with its cost of admission.", "is_fresh": 1, "author": ["Jay Carr"]},
{"text": "Scorsese's barely fictionalized adaptation of Hill's memoir captures the charge of being a mobster on New York in the sixties and seventies without glorifying the behavior by keying into Hill's willfully self-deluded perspective. ", "is_fresh": 1, "author": ["Sean Axmaker"]},
{"text": "Robert De Niro is reliably dynamic, and Joe Pesci's portrait of a gangster with a sense of humour is hideously memorable, but there's no doubt that GoodFellas fights a losing battle against numbness.", "is_fresh": 0, "author": ["Adam Mars-Jones"]},
{"text": "The best movie about who gangsters are, and how they came to exert such a magnetic pull on American culture.", "is_fresh": 1, "author": ["Tim Brayton"]},
{"text": "A fascinating, intelligent, and in some ways groundbreaking movie.", "is_fresh": 1, "author": ["Tom Milne"]},
{"text": "It's a film full of thrilling entertainment: a juicy, wry and relentless account of a garish way of life.", "is_fresh": 1, "author": ["Edward Porter"]},
{"text": "For its swaggering energy, the heart-in-your-throat pacing and for some of the most memorable, most imitated scenes in mafia movie history, this must rank as one of Scorsese's finest films, if not the best.", "is_fresh": 1, "author": ["Wendy Ide"]},
{"text": "Goodfellas is a terrifying film because, like much of Scorsese's best work, it is about the lives of avuncular psychopaths, and pretty-boy Liotta brilliantly encapsulates that fetid contradiction.", "is_fresh": 1, "author": ["David Jenkins"]},
{"text": "This is Scorsese at the very height of his powers, orchestrating storytelling with a dynamic urgency and a bravura use of camera, music and outstanding performers.", "is_fresh": 1, "author": ["Allan Hunter"]},
{"text": "Brash and brilliant ...", "is_fresh": 1, "author": ["Peter Bradshaw"]},
{"text": "The rock 'n' roll counterpoint to the grand operatic tragedy of Francis Ford Coppola's Godfather saga.", "is_fresh": 1, "author": ["John Bleasdale"]},
{"text": "Goodfellas is remorseless, its message terminally bleak.", "is_fresh": 1, "author": ["Peter Aspden"]},
{"text": "It hasn't aged in the slightest.", "is_fresh": 1, "author": ["Geoffrey Macnab"]},
{"text": "Sure, it's a rush - but is that enough? ", "is_fresh": 1, "author": ["Tom Huddleston"]},
{"text": "One of the great sustained acts of virtuosity in American cinema. ", "is_fresh": 1, "author": ["Sean Burns"]},
{"text": "One remains detached from the characters, but Scorsese succeeds in smashing all the foolishly romantic myths about the mob with this shocking, vigorously honest portrait of a slick yuppie gangster who couldn't stand being \"an average nobody.\"", "is_fresh": 1, "author": ["Kathleen Carroll"]},
{"text": "Martin Scorsese's soberest, most vivaciously thrilling vision of how hollow (and short) the fast lives of mafios really are. ", "is_fresh": 1, "author": ["Jake Cole"]},
{"text": "Definitive, sky-high Scorsese, and the one towards which all his subsequent films have been reaching, Goodfellas is, put bluntly, the best movie of the director's career.", "is_fresh": 1, "author": ["Kevin Maher"]},
{"text": "It's Joe Pesci who dominates the picture with his fierce performance as Tommy DeVito, an ill-tempered mobster who frequently displays the tendencies of a rabid wolverine.", "is_fresh": 1, "author": ["Matt Brunson"]},
{"text": "It's visually exciting, off-handedly funny, and genuinely informative. ", "is_fresh": 1, "author": ["Noel Murray"]},
{"text": "Even after 25 years, Martin Scorsese's Goodfellas remains the very apex of mobster cinema.", "is_fresh": 1, "author": ["Jeff Beck"]},
{"text": "All of the performances are first-rate; Pesci stands out, though, with his seemingly unscripted manner. GoodFellas is easily one of the year`s best films.", "is_fresh": 1, "author": ["Gene Siskel"]},
{"text": "GoodFellas, which somehow mixes its horrors with a deep vein of mordant humor, flows with the exuberance of a filmmaker who has every detail nailed and a few new lovely moves he wants to show us.", "is_fresh": 1, "author": ["Sheila Benson"]},
{"text": "Spanning thirty years and running two and a half hours, the film bristles with the violent passion, howitzer wit and virtuoso style that made Scorsese's reputation with the gangster drama Mean Streets in 1973.", "is_fresh": 1, "author": ["Peter Travers"]},
{"text": "In GoodFellas, Scorsese, that connoisseur of mean streets and brutish, reflexive rage, has fashioned a stunning film that belongs on the same lonely, top shelf as Coppola's Mafia saga.", "is_fresh": 1, "author": ["Desmond Ryan"]},
{"text": "Scorsese's best film? Difficult to call, though if it doesn't beat Raging Bull, it runs it a close second.", "is_fresh": 1, "author": ["Philip Kemp"]},
{"text": "From its opening scene of shocking brutality through its remaining 150 minutes of electrifying, relentless drama, violence, humor and horror, Martin Scorsese`s spellbinding Mafia saga GoodFellas is a film audiences will long remember.", "is_fresh": 1, "author": ["Roger Hurlburt"]},
{"text": "While Scorsese generates vivid images, he covered this ground in the superb Mean Streets in 1973. Here there's nothing to learn, nobody to sympathize with.", "is_fresh": 0, "author": ["Ralph Novak"]},
{"text": "Robert De Niro gives what has come to be a typical Robert De Niro performance -- understated, sly, ingratiating. Joe Pesci, as the hot-tempered Tommy, steals several scenes from his fellow performers.", "is_fresh": 1, "author": ["Jay Boyar"]},
{"text": "GoodFellas is a movie that savagely and thoroughly obliterates romanticized notions of the Mafia.", "is_fresh": 1, "author": ["Gary Thompson"]},
{"text": "The most profoundly Catholic of contemporary filmmakers, Scorsese has here imagined a world without the slightest notion of sin-everything is permitted, and he is both fascinated and appalled by the total freedom of his characters.", "is_fresh": 1, "author": ["Dave Kehr"]},
{"text": "Be prepared to be completely bowled over by a director at the peak of his talents and in full control of top-notch material.", "is_fresh": 1, "author": ["Alan Jones"]},
{"text": "Martin Scorsese's GoodFellas' is a good film, maybe a great film, but it is also difficult to watch at times. At times, it is so brutal you will find yourself looking away.", "is_fresh": 1, "author": ["Lou Cedrone"]},
{"text": "In GoodFellas, director Martin Scorsese does something simple and audacious: He takes the guilt out of organized crime.", "is_fresh": 1, "author": ["Owen Gleiberman"]},
{"text": "The stylistic blast of what is surely the first rock and roll gangster movie revels in the glamour then twists on the brutality of the mob life...", "is_fresh": 1, "author": ["Sean Axmaker"]},
{"text": "Goodfellas and The Godfather saga tower above their competition and deserve their place in the pantheon of American crime pictures.", "is_fresh": 1, "author": ["John J. Puccio"]},
{"text": "Arguably Scorsese's finest hour.", "is_fresh": 1, "author": []},
{"text": "You walk away, tantalized by a view into the darkest part of yourself, glad that that part is still behind bars.", "is_fresh": 1, "author": ["Richard Corliss"]},
{"text": "Arguably the greatest mob movie ever made.", "is_fresh": 1, "author": ["Kevin McCarthy"]},
{"text": "Based on Pileggi's book, Scorsese's biopic of Henry Hill is so well-crafted, shot, and acted that it easily overcomes some of the film's shortcomings, such as its dramatic shaplessness and less than powerful ending.", "is_fresh": 1, "author": ["Emanuel Levy"]},
{"text": "Colorful but dramatically unsatisfying.", "is_fresh": 0, "author": ["Joseph McBride"]},
{"text": "May well be the most accomplished thing Scorsese's ever done.", "is_fresh": 1, "author": ["Jonathan Rosenbaum"]},
{"text": "It's not only the greatest gangster film ever made, but it's also one of the most glaring omissions in the history of the Oscars.", "is_fresh": 1, "author": ["Jason Zingale"]},
{"text": "A multi-generational tale of bad money, it is the defining American movie of the 1990s; Scorsese hasn't made a film half as good since its 1990 release.", "is_fresh": 1, "author": ["Mark Athitakis"]},
{"text": "...one of the best-- and most influential -- American movies ever made.", "is_fresh": 1, "author": ["Philip Martin"]},
{"text": "Long and brutal, but Scorsese was never better at marshalling his cinematic tools to tell a story ... his definitive statement about the New York City mob.", "is_fresh": 1, "author": ["Thomas Delapa"]},
{"text": "A drama that injects your adrenal glands with the thrill of living from score to score and walking the streets with limitless power.", "is_fresh": 1, "author": ["Phil Villarreal"]},
{"text": "That Martin Scorsese's brilliant GoodFellas lost the 1990 Best Picture and Best Director Oscars to Dances with Wolves is one of the all-time miscarriages of justice in the history of the Academy Awards.", "is_fresh": 1, "author": ["Chuck O'Leary"]},
{"text": "Scorsese's fast, violent, stylish mobster movie is a return to form.", "is_fresh": 1, "author": ["Geoff Andrew"]},
{"text": "The iridescence of, and questions asked by Goodfellas place the film among the great American classics.", "is_fresh": 1, "author": ["James Lap"]},
{"text": "The best gangster movie of all-time and easily, one of the best overall flicks ever.", "is_fresh": 1, "author": ["JoBlo"]},
{"text": "A work of craftsmanship over art.", "is_fresh": 1, "author": ["Dennis Schwartz"]},
{"text": "It was so well made that it still works today.", "is_fresh": 1, "author": ["Douglas Pratt"]},
{"text": "Brutally funny, and often just plain brutal.", "is_fresh": 1, "author": ["Chris Hewitt (UK)"]},
{"text": "the film that Scorsese was born to make, and will be forever cited among Oscar's most glaring omissions", "is_fresh": 1, "author": ["John A. Nesbit"]},
{"text": "Proves that not even crooks can do whatever they want-everybody is accountable.", "is_fresh": 1, "author": ["Frederic and Mary Ann Brussat"]},
{"text": "One of the most perfect movies ever made.", "is_fresh": 1, "author": ["Sarah Chauncey"]},
{"text": "Goodfellas is the movie that sees most directly into the heart of the mob.", "is_fresh": 1, "author": ["Martin Scribbs"]},
{"text": "Scorsese's rich tapestry is both broader in scope and more detailed than a mere recounting of the events in the trio's life of crime.", "is_fresh": 1, "author": []},
{"text": "O filme traz a c\u00e2mera \u00e1gil de Scorsese e a edi\u00e7\u00e3o eficiente de Thelma Schoonmaker, al\u00e9m de excelentes atua\u00e7\u00f5es por parte de todo o elenco - em especial de Joe Pesci, assustador como o cruel Tommy.", "is_fresh": 1, "author": ["Pablo Villa\u00e7a"]},
{"text": "A highly disturbing but mesmerising look at the joys and dangers of life in the mob. One of Scorsese's best.", "is_fresh": 1, "author": ["Dan Lybarger"]},
{"text": "Goodfellas looks and sounds as if it must be absolutely authentic.", "is_fresh": 1, "author": ["Vincent Canby"]},
{"text": "One of the very best gangster films ever made and a prime example of why Scorsese at his best is irresistible.", "is_fresh": 1, "author": ["Steven Snyder"]},
{"text": "A gripping masterpiece that's pure enjoyment from start to end.", "is_fresh": 1, "author": ["Kevin N. Laforest"]},
{"text": "Scorsese brilliantly juxtaposes scenes of family greatness with those of bleak criminal action. The performances are superb examples of action, delivery, and nuance.", "is_fresh": 1, "author": ["Jon Lap"]},
{"text": "Goodfellas is a tour de force that brilliantly evokes both the seductive glamour and moral degradation of organised crime.", "is_fresh": 1, "author": ["Neil Smith"]},
{"text": "It is, in a word, brilliant.", "is_fresh": 1, "author": ["James Kendrick"]},
{"text": "No finer film has ever been made about organized crime.", "is_fresh": 1, "author": ["Roger Ebert"]},
{"text": "GoodFellas is an appalling masterpiece of the kind that, along with New York's current well-publicized troubles, is likely to give pause to anyone planning to make a trip to the city.", "is_fresh": 1, "author": ["John Hartl"]},
{"text": "The performances by everyone are stunning, standout.", "is_fresh": 1, "author": ["Desson Thomson"]},
{"text": "It is not a coincidence that Scorsese's three masterpieces all star Robert De Niro.", "is_fresh": 1, "author": ["James Berardinelli"]},
{"text": "This is the best mob movie ever made.", "is_fresh": 1, "author": ["MaryAnn Johanson"]},
{"text": "An expert blend of narration, period music, and dynamic tableaux creating an energetic, darkly funny, and unforgettable portrait of life among the Mob's bottom feeders", "is_fresh": 1, "author": ["Carlo Cavagna"]},
{"text": "Warner Bros.' GoodFellas (1990) is director Martin Scorsese's stylistic masterpiece - a follow-up film...", "is_fresh": 1, "author": ["Tim Dirks"]},
{"text": "I've come around to admiring this big monster of a movie.", "is_fresh": 1, "author": ["Jeffrey M. Anderson"]},
{"text": "Martin Scorsese is an amazing director, what else can I say?", "is_fresh": 1, "author": ["Matt Easterbrook"]},
{"text": "Director Scorsese does an impeccable job of covering all the ground here in a 21/2-hour film that doesn't seem long at all.", "is_fresh": 1, "author": ["Chris Hicks"]},
{"text": "Compared to less nitpicky gangster fare, GoodFellas still falters.", "is_fresh": 0, "author": ["Christopher Null"]},
{"text": "One comes out of Goodfellas not feeling greatly entertained but with the feeling that you have seen an authentic view of modern crime.", "is_fresh": 1, "author": ["Mark R. Leeper"]},
{"text": "This cinematic gem deserves its rightful place among the best films of 1990s.", "is_fresh": 1, "author": ["Dragan Antulov"]},
{"text": "", "is_fresh": 1, "author": ["Lori Hoffman"]},
{"text": "", "is_fresh": 1, "author": ["Frank Swietek"]},
{"text": "", "is_fresh": 1, "author": ["Andy Klein"]},
{"text": "", "is_fresh": 1, "author": ["Jon Niccum"]},
{"text": "", "is_fresh": 1, "author": ["Jake Euker"]},
{"text": "", "is_fresh": 1, "author": ["Jeffrey Westhoff"]},
{"text": "", "is_fresh": 1, "author": ["Mark Palermo"]},
{"text": "", "is_fresh": 1, "author": ["Nicolas Lacroix"]},
{"text": "", "is_fresh": 1, "author": ["Christopher Smith"]},
{"text": "", "is_fresh": 1, "author": ["Nell Minow"]}
]