[
{"reviews_count": "62", "title": "Gremlins", "avg_audience_rating": "3.4", "rotten_count": "10", "tomatometer": "84", "audience_score": "78", "avg_critic_rating": "7.3", "fresh_count": "52", "user_ratings_count": "451,188"},
{"text": "The film showcases Dante's two cinematic loves: 1950's era sci-fi/horror and The Looney Tunes. The two forms merge together to create a cautionary tale of Christmas gifts gone awry. ", "is_fresh": 1, "author": ["Zac Hestand"]},
{"text": "Spoof horror doesn't horrify, it sickens. Spoof comedy doesn't amuse, it annoys. Spoof comic horror is for the stuffed birds.", "is_fresh": 0, "author": ["Clive James"]},
{"text": "There is satire here: a sense of silly but thoughtful consideration on the Christmas traditions and how easily all the relatable facades crumble as a consequence of simple illusions being so easily shattered.", "is_fresh": 1, "author": ["David Keyes"]},
{"text": "An entertaining and original horror film with top notch effects, a great villain, and a brilliant score...", "is_fresh": 1, "author": ["Felix Vasquez Jr."]},
{"text": "Dante thrives in the spaces between comfort and terror: that mischievous place where you're never quite sure if the monsters are kidding or not.", "is_fresh": 1, "author": ["Rob Vaux"]},
{"text": "A wildly original roller-coaster ride of hilarious mischief.", "is_fresh": 1, "author": ["Richard Corliss"]},
{"text": "Here's the season's most delicious and unexpected surprise. Despite the horror-flick title, Gremlins is a movie of wicked wit and startling invention, and it has a heart that's at least a match for the special effects.", "is_fresh": 1, "author": ["Peter Travers"]},
{"text": "Think of A Christmas Carol visited by The Birds. Think of The Muppet Movie run amok. Imagine a berserk film editor splicing It's a Wonderful Life to Invasion of the Body Snatchers, with quoting from Snow White and a nod to The Texas Chainsaw Massacre.", "is_fresh": 1, "author": ["David Sterritt"]},
{"text": "A horror-comedy about cute little Christmas toy/pets who turn into murderous monsters wreaking havoc on a Norman Rockwellian town.", "is_fresh": 1, "author": ["Michael Wilmington"]},
{"text": "This postmodern, endlessly referential, utterly ruthless film is an ingenious, delightfully scary fairytale horror flick ...", "is_fresh": 1, "author": ["Philip French"]},
{"text": "Phoebe Cates's admirably straight-faced Christmas speech should be compulsory viewing during the festive season.", "is_fresh": 1, "author": ["John Ferguson"]},
{"text": "Brilliantly potent social critique of Reagan-era fear-mongering and consumerism.", "is_fresh": 1, "author": ["Glenn Heath Jr."]},
{"text": "An enchanting yet savagely funny movie, Gremlins belongs alongside Ghostbusters as an enduring mainstream masterpiece from the summer of 1984. Just don't watch it after midnight.", "is_fresh": 1, "author": ["Ben Rawson-Jones"]},
{"text": "The 1984 creature feature in which a Capra-esque idyll is besieged by ravening beasties.", "is_fresh": 1, "author": ["Robbie Collin"]},
{"text": "Director Joe Dante tells a simple story with anarchic spirit, rabid humour and painstaking puppetry to delightfully messy effect.", "is_fresh": 1, "author": ["Kirsty Leckie-Palmer"]},
{"text": "A subversive parable on the dangers of irresponsible pet care that doubles as an antidote to small-town Americana and Yuletide sentimentality.", "is_fresh": 1, "author": ["Neil Smith"]},
{"text": "I don't find the movie the least bit scary or horrific anymore, but I do think it's entertaining.", "is_fresh": 1, "author": ["Eric D. Snider"]},
{"text": "Gremlins hosts the perfect blend of Capraesque Christmas spirit, humorously tainted by stinging horror and hilarious offbeat comedy.", "is_fresh": 1, "author": ["R.L. Shaffer"]},
{"text": "It certainly displays a nasty streak, although that's not one of its problems.", "is_fresh": 1, "author": ["Matt Brunson"]},
{"text": "A comic horror movie classic.", "is_fresh": 1, "author": ["Randy White"]},
{"text": "A wholesome Christmas family flick that veers over to the dark side.", "is_fresh": 1, "author": ["Dennis Schwartz"]},
{"text": "There's a mischievous playfulness about Gremlins, and that's its most endearing quality, but I found it grating on me early on and soon turning to mean-spiritedness.", "is_fresh": 0, "author": ["John J. Puccio"]},
{"text": "See website for more details.", "is_fresh": 1, "author": ["Rory L. Aronsky"]},
{"text": "It appealed enormously to its target audience because it's just the kind of violence kids would like to get away with if they had no consciences nor fear of adults at all.", "is_fresh": 1, "author": ["Jennie Kermode"]},
{"text": "The humans are little more than dress-extras for the mechanics.", "is_fresh": 0, "author": ["Variety Staff"]},
{"text": "An unexpectedly successful skit on Spielberg/Disney movie culture -- that itself became something of a franchise.", "is_fresh": 1, "author": []},
{"text": "What's confusing yet ultimately illuminating is the way his gremlins function as a free-floating metaphor, suggesting at separate junctures everything from teenagers to blacks to various Freudian suppressions.", "is_fresh": 1, "author": ["Jonathan Rosenbaum"]},
{"text": "Dante is perhaps the first filmmaker since Frank Tashlin to base his style on the formal free-for-all of animated cartoons; he is also utterly heartless.", "is_fresh": 0, "author": ["Dave Kehr"]},
{"text": "Yes, Dante gleefully trashes cliches and sentimental Capra-esque notions, but one should not forget this movie was given a \"PG\" rating and cynically aimed to draw an audience of small children who would no doubt be terrorized by this myth-shattering film.", "is_fresh": 0, "author": []},
{"text": "Taking a second look back at Joe Dante's career, I realize he was actually one of the most interesting American directors working.", "is_fresh": 1, "author": ["Jeffrey M. Anderson"]},
{"text": "Dante gleefully sinks his teeth into the kind of fluffy, sugary, sickly small town fantasy beloved of his pal and sometime producer Spielberg.", "is_fresh": 1, "author": ["Tom Huddleston"]},
{"text": "Gleefully mischievous and full of dark, magical energy.", "is_fresh": 1, "author": ["Nick Schager"]},
{"text": "Lot's of fun from start to stop, though Cate's creepy Santa story is a downer.", "is_fresh": 1, "author": ["Michael A. Smith"]},
{"text": "At the level of Serious Film Criticism, it's a meditation on the myths in our movies: Christmas, families, monsters, retail stores, movies, boogeymen. At the level of Pop Moviegoing, it's a sophisticated, witty B movie.", "is_fresh": 1, "author": ["Roger Ebert"]},
{"text": "Great fun.", "is_fresh": 1, "author": ["Rich Cline"]},
{"text": "Joe Dante's most successful film, like William Castle crossed with Looney Tunes.", "is_fresh": 1, "author": ["Blake Davis"]},
{"text": "A movie that lives inside our memories of movies, and tramples all over them with a crazed, subversive joy.", "is_fresh": 1, "author": ["Ian Waldron-Mantgani"]},
{"text": "Pretty neat fantasy comedy with just enough edge.", "is_fresh": 1, "author": ["Ken Hanke"]},
{"text": "There was a kid who went to my high school who looked exactly like Gizmo. Thus, we called him 'Gizmo.'", "is_fresh": 1, "author": ["Gregory Weinkauf"]},
{"text": "Gremlins is far more interested in showing off its knowledge of movie lore and making random jokes than in providing consistent entertainment.", "is_fresh": 0, "author": ["Vincent Canby"]},
{"text": "Good, goofy fun.", "is_fresh": 1, "author": ["Forrest Hartman"]},
{"text": "Fun horror comedy.", "is_fresh": 1, "author": ["Gerry Shamray"]},
{"text": "Gizmo rules!", "is_fresh": 1, "author": ["Jeffrey Westhoff"]},
{"text": "\"It is probably a surefire hit with popcorn and a six-pack of beer on Saturday night.\"", "is_fresh": 0, "author": ["Blake French"]},
{"text": "Crazy Joe Dante at his absolute best.", "is_fresh": 1, "author": ["Scott Weinberg"]},
{"text": "This film was always a favorite of mine as a kid and I'm happy to report that it still comes through today as an adult. A top-notch movie which effectively balances various elements.", "is_fresh": 1, "author": ["JoBlo"]},
{"text": "A tribute the 1950s matinee genre, Gremlins never eases up on the action or its sense of suspense.", "is_fresh": 1, "author": ["Ryan Cracknell"]},
{"text": "This film is still good piece of cinema.", "is_fresh": 1, "author": ["Dragan Antulov"]},
{"text": "Devilishly dark humour and mischief romp.", "is_fresh": 1, "author": ["Almar Haflidason"]},
{"text": "The pitch black comedy works, and it makes you wonder how a generation of parents took their kids to see this -- as children's entertainment -- without question. Ah, salad days.", "is_fresh": 1, "author": ["Caroline Westbrook"]},
{"text": "[Contains] moments of delicious black humour and satire.", "is_fresh": 1, "author": ["James O'Ehley"]},
{"text": "", "is_fresh": 1, "author": ["Chuck O'Leary"]},
{"text": "", "is_fresh": 0, "author": ["Emanuel Levy"]},
{"text": "", "is_fresh": 1, "author": ["Jon Niccum"]},
{"text": "", "is_fresh": 1, "author": ["Andy Klein"]},
{"text": "", "is_fresh": 1, "author": ["Jordan Hiller"]},
{"text": "", "is_fresh": 1, "author": ["Frank Swietek"]},
{"text": "", "is_fresh": 0, "author": ["Jake Euker"]},
{"text": "", "is_fresh": 1, "author": ["Carol Cling"]},
{"text": "", "is_fresh": 1, "author": ["Michael Dequina"]},
{"text": "", "is_fresh": 0, "author": ["Robert Roten"]},
{"text": "", "is_fresh": 1, "author": ["Philip Martin"]}
]