[
{"reviews_count": "16", "title": "Harlem Nights", "avg_audience_rating": "3.3", "rotten_count": "12", "tomatometer": "25", "audience_score": "80", "avg_critic_rating": "3.8", "fresh_count": "4", "user_ratings_count": "34,404"},
{"text": "Murphy's writing is about as snappy as a Sunday school lesson. The constant obscenities become a distraction and an eventual turnoff, and seem to be used when the writer and director can't invent something more creative.", "is_fresh": 0, "author": ["Dolores Barclay"]},
{"text": "The movie is a whirlingly divergent romp, blending serious violence with outrageous comedy, but it has the feel of oral history, of lives and times rescued from oblivion.", "is_fresh": 1, "author": ["Richard Brody"]},
{"text": "Not as bad as you might think, but not all that good either.", "is_fresh": 1, "author": ["Ken Hanke"]},
{"text": "Though it's not easy to watch, Harlem Nights is gorgeous to look at.", "is_fresh": 0, "author": ["Catherine Cantieri"]},
{"text": "Ugly, pushy and over-the-top, but there's still a bunch of laughs to be found.", "is_fresh": 1, "author": ["Scott Weinberg"]},
{"text": "There's maybe two funny moments in this shrill directorial bomb from Eddie Murphy.", "is_fresh": 0, "author": ["Chuck Rudolph"]},
{"text": "An uninspired cross between Cotton Club and the characters of Damon Runyon, told in cliches so broad you keep waiting for it to poke fun at itself, but it never does.", "is_fresh": 0, "author": ["Roger Ebert"]},
{"text": "Once there was Freddy. Once there was Chuckie and Jason and Howard the Duck. Now there is the scariest of them all. Now there is Harlem Nights.", "is_fresh": 0, "author": ["Hal Hinson"]},
{"text": "Does it matter to Eddie Murphy whether Harlem Nights is good or bad? It doesn't look like it.", "is_fresh": 0, "author": ["Desson Thomson"]},
{"text": "It's narcissistic, misogynistic and extremely mean-spirited.", "is_fresh": 0, "author": ["Chris Hicks"]},
{"text": "", "is_fresh": 0, "author": ["Michael Dequina"]},
{"text": "", "is_fresh": 0, "author": ["Emanuel Levy"]},
{"text": "", "is_fresh": 1, "author": ["Ryan Cracknell"]},
{"text": "", "is_fresh": 0, "author": ["Matt Brunson"]},
{"text": "", "is_fresh": 0, "author": ["Michael Szymanski"]},
{"text": "", "is_fresh": 0, "author": ["Philip Martin"]}
]