[
{"reviews_count": "282", "title": "Hidden Figures", "avg_audience_rating": "4.4", "rotten_count": "19", "tomatometer": "93", "audience_score": "93", "avg_critic_rating": "7.6", "fresh_count": "263", "user_ratings_count": "57,786"},
{"text": "...a celebration of women, of African-Americans, of marriage and family, of intellectual pursuit and practice, of patience in the face of opposition, of humble service and doing an exceptional job even when no one recognizes you or tweets about it.", "is_fresh": 1, "author": ["Joel Mayward"]},
{"text": "The story itself needs no embellishment to be riveting and Theodore Melfi's direction is straightforward and unflashy, enlivened by a powerful soul original soundtrack by Pharrell Williams that captures the period feel. ", "is_fresh": 1, "author": ["Alexa Dalby"]},
{"text": "Here's a compliment you don't get to give often: This movie is really good, and it didn't even need to be!", "is_fresh": 1, "author": ["Bob Chipman"]},
{"text": "It's a highly entertaining crowd-pleaser that brings these women to the forefront... These stories intersect in a seamless manner, with all three leads getting a chance to shine.", "is_fresh": 1, "author": ["Micheal Compton"]},
{"text": "It's a movie that reminds us that America is at its best when living up to the pluralistic standards that we as a nation all too often find elusive, but remains the benchmark by which we should strive.", "is_fresh": 1, "author": ["Sean Mulvihill"]},
{"text": "Hidden Figures tells a story of genuine heroes that has been shelved for far too long. It also serves as inspiration to a nation of little girls to never stop reaching for those stars.", "is_fresh": 1, "author": ["Aaron Peterson"]},
{"text": "Hidden Figures shines a light on three real women who deserve great acknowledgement. The movie makes us want to learn more, which is a good thing, but it would be better if we felt better informed coming out of the theatre.", "is_fresh": 1, "author": ["Abbie Bernstein"]},
{"text": "[Janelle Mon\u00e1e] is an irresistible, glittering diamond who effervesces even when she doesn't need to, and I sincerely hope her film offers double now that she's proven how insanely good she is as an actress.", "is_fresh": 1, "author": ["Tomas Trussow"]},
{"text": "With strong performances from the three leads most notably Taraji P. Henson, \"Hidden Figures\" is entertaining enough to leave a nice smile on your face.", "is_fresh": 1, "author": ["Rendy Jones"]},
{"text": "A feel good movie about an important subject and a fascinating moment in our history.", "is_fresh": 1, "author": ["Glynis Costin"]},
{"text": "It's a rousing, patriotic, feel-good picture, with terrific performances from Taraji P. Henson, Janelle Mona\u00e9, and Octavia Spencer.", "is_fresh": 1, "author": ["Marcianne Miller"]},
{"text": "Through strong performances, sensitive direction and the strength of its source material, Hidden Figures transcends clich\u00e9 to become a genuinely moving, inspirational tale of perseverance, strength and love.", "is_fresh": 1, "author": ["Alexandra Heller-Nicholas"]},
{"text": "Director Theodore Melfi has harmoniously married the darkness of racism with feel-good values. Hidden Figures is suitable for all ages.", "is_fresh": 1, "author": ["Anne Brodie"]},
{"text": "While we know the outcome of the project, it is the journey these women travel that makes this such an engaging film.", "is_fresh": 1, "author": ["Pamela Powell"]},
{"text": "\"Hidden Figures\" is compelling, full of heart, and engaging. It's a transforming story that balances humor with drama. A must-see film that allows important themes to play out and is both heartwarming and motivational.", "is_fresh": 1, "author": ["Mae Abdulbaki"]},
{"text": "An inspirational and relevant crowd-pleaser that dutifully respects its characters and their various struggles.", "is_fresh": 1, "author": ["Glenn Heath Jr."]},
{"text": "The movie is beautiful to watch in part because of the tremendous work of cinematographer Mandy Walker, who captures a feeling of a time long gone. The music elevates the true story.", "is_fresh": 1, "author": ["Lapacazo Sandoval"]},
{"text": "... a rousing, powerful film that praises and celebrates Black women in a way that's far too uncommon in today's society. Good. They deserve it.", "is_fresh": 1, "author": ["Mikey Mason"]},
{"text": "...proving that history and human society are more entertaining than the lives of lonely astronauts divorced from social context, who talk to themselves on another planet or float alone in space.", "is_fresh": 1, "author": ["A.S. Hamrah"]},
{"text": "... a safe bet that offers something for everyone, in addition to being well accompanied by new songs by Pharrell. [Full review in Spanish]", "is_fresh": 1, "author": ["Ruben Peralta Rigaud"]},
{"text": "Taraji P. Henson, Octavia Spencer and Janelle Mon\u00e1e are what make this movie. They are the heart. ", "is_fresh": 1, "author": ["Andre Meadows"]},
{"text": "As the first major release of 2017, it's a little early to call Hidden Figures the feel-good movie of the year, but let's at least hope it sets the tone.", "is_fresh": 1, "author": ["Megan Basham"]},
{"text": "... a message more optimistic than pessimistic, and with the music of Pharrell Williams... [Full review in Spanish]", "is_fresh": 1, "author": ["Pablo A. Scholz"]},
{"text": "Here, we right an historical wrong, looking back at the important ... contributions that a group of three African-American women made to our nation's space program. ", "is_fresh": 1, "author": ["Christopher Llewellyn Reed"]},
{"text": "So important, while also just really entertaining and really enjoyable...you can't help but feel for these women. ", "is_fresh": 1, "author": ["Steph Cozza"]},
{"text": "The ultimate value of Hidden Figures is couched in its ability to empower the viewer; it occasionally indulges in populist cinema's most frequent vice of uninhibited emotion but these moments, and our reactions, are always earned.", "is_fresh": 1, "author": ["Lidiya Josifova"]},
{"text": "\"Hidden Figures\" provides a positive image of women as science researchers who were able to balance their personal and professional lives to achieve success.", "is_fresh": 1, "author": ["Jana Monji"]},
{"text": "... \"Hidden Figures\" acquires a potent presence, even if it would be stretching things to say it's a great movie. Still, historically, socially and culturally it may be remembered after the year's better films have faded into the recesses of memory.", "is_fresh": 1, "author": ["Uri Klein"]},
{"text": "It's the quiet fierceness the actresses bring to these roles that make the work compelling.", "is_fresh": 1, "author": ["Al Hoff"]},
{"text": "Even though Hidden Figures is overstuffed with plot points and has way too much going on to properly flesh out in its roughly 2-hour running time, the film deserves praise for putting some unknown heroes into the limelight", "is_fresh": 1, "author": ["Robert Kojder"]},
{"text": "Most of this country's history - like most Hollywood movies - has been written by white men. 'Hidden Figures' is a great reminder of the unsung African-American women who contributed to all our accomplishments. ", "is_fresh": 1, "author": ["Alexandra MacAaron"]},
{"text": "Hidden Figures tells the amazing true story of three women who were pioneers in the space program.", "is_fresh": 1, "author": ["Danielle Solzman"]},
{"text": "Happily, the government hires women for its space program. Otherwise, how would we get this remarkable film?", "is_fresh": 1, "author": ["Harvey S. Karten"]},
{"text": "As far as the viewer goes, the story dates back to the 60s, but when you catch the tributes paid to the the real Johnson, Vaughan, and Jackson during the credit roll, you know that this story of triumph needed to be told, right here, right now.", "is_fresh": 1, "author": ["Meena Iyer"]},
{"text": "Directed by Theodore Melfi, this fascinating, hugely watchable and eventually heart-warming story does occasionally lack subtlety but it's deservedly up for a Best Picture Oscar.", "is_fresh": 1, "author": ["Matthew Bond"]},
{"text": "The pragmatism that flows through Hidden Figures provides a beacon of hope in a modern era that feels marked by uncertainty and despair.", "is_fresh": 1, "author": ["Soraya Nadia McDonald"]},
{"text": "... strong performances by Henson, Spencer and Monae.", "is_fresh": 1, "author": ["Joanne Soh"]},
{"text": "It strikes a careful balance in showing how things were, and what they could be.", "is_fresh": 1, "author": ["George Thomas"]},
{"text": "These are emotional and nuanced performances that powerfully deliver a reminder of just how ugly a world of prejudice is. ", "is_fresh": 1, "author": ["Keeva Stratton"]},
{"text": "Hidden Figures is a story of friendship and inspiration and a reminder to have faith in your abilities - and it's also two hours of guaranteed empowerment that will blast you straight towards your goals.", "is_fresh": 1, "author": ["Rebecca Lewis"]},
{"text": "Watch this movie for the important story it tells - women standing up against racism and sexism in different and complex ways.", "is_fresh": 1, "author": ["Shyama Krishna Kumar"]},
{"text": "Hidden Figures\" is crowd-pleasing entertainment of vital history.", "is_fresh": 1, "author": ["Diane Carson"]},
{"text": "The performances are warm and good-humored, without exception. It is absolutely an inspirational movie.", "is_fresh": 1, "author": ["K. Austin Collins"]},
{"text": "Balancing each woman's story within the structure of the Space Race is deftly handled, as their workdays require them to give 110 percent and then go home and raise families.", "is_fresh": 1, "author": ["Brooke Corso"]},
{"text": "Salutes the trailblazing achievements of three African-American women who worked behind the scenes at Nasa as 'human computers', doing the hard sums before electronic machines were up to the task. ", "is_fresh": 1, "author": ["Jason Best"]},
{"text": "It's mostly fine but largely forgettable, with a script that suffers from flat characters and which treats its story less like the powerful drama it is and more like a straight line evenly peppered with plot points.", "is_fresh": 0, "author": ["Abby Olcese"]},
{"text": "Hidden Figures is smart, funny, beautifully acted and altogether entertaining. And essentially true. What else could you possibly want?", "is_fresh": 1, "author": ["Eleanor Ringel Cater"]},
{"text": "All things considered, Hidden Figures wraps some fairly radical themes - three African-American women entrusted with important NASA jobs at a time (1961-1962) when Jim Crow was still the law of the land - in a largely unradical package.", "is_fresh": 1, "author": ["Rob Gonsalves"]},
{"text": "... terrific drama, eye-opening history, and a great lesson for Hollywood.", "is_fresh": 1, "author": ["Sean Axmaker"]},
{"text": "There's nothing wrong with Hidden Figures, and uncomplicated movies like it. It's certainly doing good by shedding light on some figures who shouldn't remain hidden in history. ", "is_fresh": 1, "author": ["Rain Jokinen"]},
{"text": "This drama, which puts black women at its center, is so triumphant, highlighting both the brilliance and lives of three women whose stories have been neglected in history books, and at the same time it elevates the profile of three great actresses.", "is_fresh": 1, "author": ["Candice Frederick"]},
{"text": "I liked Hidden Figures so much I went back to see it again. And I liked it just as much the second time.", "is_fresh": 1, "author": ["Diane Pershing"]},
{"text": "It may be predictable but it's also one of the most uplifting and triumphant movies of the year.", "is_fresh": 1, "author": ["John Hanlon"]},
{"text": "Taraji P. Henson, Octavia Spencer and Janelle Mon\u00e1e are very, very hard to dislike.", "is_fresh": 1, "author": ["Matthew Toomey"]},
{"text": "The film isn't always subtle, but a broad brush sometimes leaves behind a big, beautiful swath of color.", "is_fresh": 1, "author": ["John Serba"]},
{"text": "A largely prosaically told reworking of the outsider-versus-the-system paradigm that gains piquancy from the story it has to tell and the vibrant personages at its centre.", "is_fresh": 1, "author": ["Matt Wolf"]},
{"text": "Taraji P. Henson as Katherine Johnson grows more and more confident in each scene. Her gentle no-problem-sir demeanour melts away into pure passion.", "is_fresh": 1, "author": ["Nathania Gilson"]},
{"text": "Hidden Figures is a rich and uplifting experience. ", "is_fresh": 1, "author": ["Paul Mount"]},
{"text": "It's a terrific story told with a lot of verve and charm.", "is_fresh": 1, "author": ["Sandra Hall"]},
{"text": "It's the sparkling individual components that comprise the ideal equation here, rather than any attempt to craft a new formula.", "is_fresh": 1, "author": ["Sarah Ward"]},
{"text": "A movie that is important, well-performed, and entertaining. It's a real crowd-pleaser, in other words.", "is_fresh": 1, "author": ["Alex Doenau"]},
{"text": "Just like NASA is feeling its way around space, one rocket at a time, the women in Hidden Figures are launching minor revolutions on the ground, one mathematical formula at a time.", "is_fresh": 1, "author": ["Nandini Ramnath"]},
{"text": "Hidden Figures is engaging, entertaining and enlightening -- but by playing fast and loose with historical fact, it risks blunting some of the story's eye-opening emotional force.", "is_fresh": 1, "author": ["Rob Garratt"]},
{"text": "In the two years since Margot Lee Shetterly's non-fiction book was optioned, the film's reflection on privilege feels even more relevant.", "is_fresh": 1, "author": ["Roe McDermott"]},
{"text": "\"Hidden Figures\" is a rousing story of unsung heroism adapted with the mass appeal of a colouring book. ", "is_fresh": 1, "author": ["Blake Howard"]},
{"text": "Very uplifting.", "is_fresh": 1, "author": ["Aine O'Connor"]},
{"text": "The title is an amazing pun, based on black women working at NASA -- and the calculations they made to help the space race.", "is_fresh": 1, "author": ["Camilla Long"]},
{"text": "Well, I know which film I'll be rooting for come Oscar night.", "is_fresh": 1, "author": ["Henry Fitzherbert"]},
{"text": "This splashy, feelgood period piece is every bit as enjoyable as a best picture Oscar-nominated blockbuster could hope to be.", "is_fresh": 1, "author": ["Simran Hans"]},
{"text": "Almost every one of the fudges makes the film more entertaining and less truthful.", "is_fresh": 1, "author": ["Paul Byrnes"]},
{"text": "Despite the stellar cast, though, the film is weighted down by an overload of subplots.", "is_fresh": 0, "author": ["Rashid Irani"]},
{"text": "Hugely engaging, as well as important and inspiring.", "is_fresh": 1, "author": ["Rich Cline"]},
{"text": "No people have ever deserved their own movie more than they do. And what a lovely movie this is. ", "is_fresh": 1, "author": ["Tara Brady"]},
{"text": "As [Melfi] proved in his previous film, St Vincent, he's good with actors and is a competent storyteller, but he can't resist underlining things that are already obvious.", "is_fresh": 1, "author": ["David Stratton"]},
{"text": "A heart-warming film and not one to be missed if you have lately been running low on inspiration in life. Let the stories of three geniuses tell you how a woman, despite several hurdles, can still cross the finish line. ", "is_fresh": 1, "author": ["Soumya Srivastava"]},
{"text": "Directed with Oscar-baiting flourish by Theodore Melfi, Hidden Figures works well as a well-meaning, corrective history lesson designed to honour the talented women who worked away in historical silence while castigating the system that oppressed them.", "is_fresh": 1, "author": ["Jim Schembri"]},
{"text": "Even if some details have been massaged to fit the template of a Hollywood crowd-pleaser, the main thrust of the story is true and all the more remarkable for that.", "is_fresh": 1, "author": ["Stella Papamichael"]},
{"text": "Yes, the story may have been panel-beaten into a gleaming, Oscar-friendly shape. That Hidden Figures is still so entertaining and moving is due in large part to a hugely likeable central trio of performances.", "is_fresh": 1, "author": ["Ed Potton"]},
{"text": "This is an immensely likeable film and one that draws overdue attention to a story that has been neglected for far too long.", "is_fresh": 1, "author": ["Geoffrey Macnab"]},
{"text": "Melfi's option for a brazenly feelgood formula could have easily undermined quite what a brutally obstructive status quo these women were facing up to but - thanks to trio of terrific performances - this is never an issue.", "is_fresh": 1, "author": ["Tim Evans"]},
{"text": "Hidden Figures is light on its feet, warm-hearted and determined to entertain as well as educate.", "is_fresh": 1, "author": ["Allan Hunter"]},
{"text": "Hidden Figures completes its mission by landing a deeply touching and buoyant story that shoots for the stars.", "is_fresh": 1, "author": ["Laura Delaney"]},
{"text": "Hidden Figures is not a good movie. Sorry, but it's not.", "is_fresh": 0, "author": ["David Jenkins"]},
{"text": "It's touching, sobering, sometimes funny, this lesson in racial history ...", "is_fresh": 1, "author": ["Nigel Andrews"]},
{"text": "This is heartfelt and inspiring stuff.", "is_fresh": 1, "author": ["John Bleasdale"]},
{"text": "Hidden Figures isn't pushing the cinematic boat out in any new directions, but it steers its prescribed course nimbly and nicely.", "is_fresh": 1, "author": ["Tim Robey"]},
{"text": "A remarkable biopic that demonstrates how holding back the tide of equality is detrimental to us all.", "is_fresh": 1, "author": ["Matt Neal"]},
{"text": "You'd need to have a cold stone heart - or, I suppose, prejudicially racialist views - to dislike Hidden Figures ... A wonderful, rather incredible story, full of triumphant moments and performed by a perfect cast.", "is_fresh": 1, "author": ["CJ Johnson"]},
{"text": "Hidden Figures chronicles the trials and tribulations of these trailblazing women at an extraordinary time in human history.", "is_fresh": 1, "author": ["Vicky Roach"]},
{"text": "Melfi's cast are so cool, and this truly is a story that should be told, particularly while race and gender are still such burning issues.", "is_fresh": 1, "author": ["David 'Mad Dog' Bradley"]},
{"text": "Race and gender politics enter as small, personal insults -- a segregated coffee pot, a condescending smirk, a closed meeting-room door -- but every setback is tied up neatly with a victory.", "is_fresh": 1, "author": ["John Lui"]},
{"text": "The performances here are wonderful and it is undoubtedly a \"feel good\" film with its warmth, vitality and empowering energy. ", "is_fresh": 1, "author": ["Wenlei Ma"]},
{"text": "A terrific film in the style of Hollywood 'applause' films, where the heroes or heroines are portrayed as not only morally superior but endlessly likeable", "is_fresh": 1, "author": ["Andrew L. Urban"]},
{"text": "It's a great, uplifting story filled with 'firsts' at a time in the 60s when segregation was rife, women's roles were compromised and the NASA space program was keenly competing against the Russians ... Three delightful performances bring the women to life", "is_fresh": 1, "author": ["Louise Keller"]},
{"text": "An old-fashioned story about discrimination and overcoming; inspiring, hopeful and impeccably acted. [Full review in Spanish]", "is_fresh": 1, "author": ["Sebastian Zavala Kahn"]},
{"text": "Essentially Parabolas & Prejudice, it isn't the most nuanced piece of work out this month. But nuance be damned - an uplifting plea for equality, this is a story calibrated for maximum effect.", "is_fresh": 1, "author": ["Nick De Semlyen"]},
{"text": "The pacey script is as slickly engineered as a Mercury rocket to include girl-power fun, romance and against-the-clock launchpad crises.", "is_fresh": 1, "author": ["Kate Stables"]},
{"text": "While anger-inducing, Melfi ensures this film just about remains uplifting and inspiring, without compromising on the severity of the themes being explored.", "is_fresh": 1, "author": ["Stefan Pape"]},
{"text": "Hidden Figures isn't nearly as revolutionary or convention-busting as its subjects, but it illuminates an important story, and is given flight by three charismatic performers.", "is_fresh": 1, "author": ["Simon Miraudo"]},
{"text": "It's helpful that the acting trio sell the somewhat saccharine story well.", "is_fresh": 1, "author": ["Amy West"]},
{"text": "A simple and extremely enjoyable film, one that brings smiles and keeps them for the rest of the day. [Full review in Spanish]", "is_fresh": 1, "author": ["Fausto Ponce"]},
{"text": "The sheer energy of the cast of Hidden Figures and the pure curiosity provoked by its subject are simply too warm and inviting to resist.", "is_fresh": 1, "author": ["Leigh Paatsch"]},
{"text": "A classic biopic with great one liners, endearing characters and a great cast. [Full review in Spanish]", "is_fresh": 1, "author": ["Alejandro Alem\u00e1n"]},
{"text": "The actual story of a group of African-American employees working for NASA in the late 1950s in the segregationist state of Virginia deserved a better movie. In any case, much more complex. [Full review in Spanish]", "is_fresh": 0, "author": ["Ernesto Diezmartinez"]},
{"text": "A film that fulfills its goal is to entertain with a real story of overcoming and prodigy of those who really inspire and invite you to know the real story once the credits begin to rise. [Full review in Spanish]", "is_fresh": 1, "author": ["Emmanuel B\u00e1ez"]},
{"text": "An elegantly elaborate film with a script that marks the perfect balance between serious historical drama and entertainment. [Full review in Spanish]", "is_fresh": 1, "author": ["Luis Fernando Galv\u00e1n"]},
{"text": "A completely motivational story, which we might well consider anti-Trump, because it's a group of African-American women helping to fulfill a country's mission to reach the stars. [Full review in Spanish]", "is_fresh": 1, "author": ["Mario P. Sz\u00e9kely"]},
{"text": "A biopic that is characterized by being entertaining, full of nuances that highlight familiar situations and it doesn't decay at any time creating boredom, nor in wants to victimize its protagonists. [Full review in Spanish]", "is_fresh": 1, "author": ["Israel Acosta Aroche"]},
{"text": "A conventional and optimistic story that has the merit of showing the contribution of the three women to North America. [Full review in Spanish]", "is_fresh": 1, "author": ["Hugo Hern\u00e1ndez Valdivia"]},
{"text": "Too bad that the film doesn't have more rage, reaction and resistance. A real pity. [Full review in Spanish]", "is_fresh": 0, "author": ["Erick Estrada"]},
{"text": "Hidden Figures is not a particularly sharp or revealing film about race relations in the United States. However, the current conjuncture of that country allows these \"talents\" to take effect, but not transcendence. [Full review in Spanish]", "is_fresh": 0, "author": ["Jorge (JJ) Negrete"]},
{"text": "An irresistible and entertaining film that is effective in its objectives. [Full review in Spanish]", "is_fresh": 1, "author": ["Diego Batlle"]},
{"text": "Including some fine acting, the film is easy to appreciate and digest, without ever becoming preachy. [Full review in Spanish]", "is_fresh": 1, "author": ["Fico Cangiano"]},
{"text": "A film with a powerful cast, remarkable emotional strength, closeness freshness and breathtaking vitality. [Full review in Spanish]", "is_fresh": 1, "author": ["Javier Porta Fouz"]},
{"text": "A film that works because of the chemistry of its cast, the successful formula of feel-good movies and those inspiring stories that leaves you in a good mood. [Full review in Spanish]", "is_fresh": 1, "author": ["Lucero Sol\u00f3rzano"]},
{"text": "A sort of familiar biopic, something according to the predictable and already marked milestones that frame its footage, and conducive to combine the effect of entertainment with instruction. [Full review in Spanish]", "is_fresh": 1, "author": ["Ignacio Navarro"]},
{"text": "Not only an entertaining and heartfelt story, but an informative and important one as well. ", "is_fresh": 1, "author": ["Matthew Pejkovic"]},
{"text": "By skillfully avoiding polemical statements and scenes of high drama, ... the film sends a powerful message about the evils of racism.", "is_fresh": 1, "author": ["Richard James Havis"]},
{"text": "Looking for an entertaining film starring women of colour dominating an intellectual field? Then skip this review and watch Hidden Figures right bloody now. ", "is_fresh": 1, "author": ["Liam Maguren"]},
{"text": "A conventional but very curious and amusing biopic with an interesting story and the added attraction of revealing little-known events and characters from American history. [Full review in Spanish]", "is_fresh": 1, "author": ["Pilar Ayuso"]},
{"text": "A film that reveals the stories of its protagonists in three well compartmentalized plots and as calculated towards its objective as the trajectory of a space flight. [Full review in Spanish]", "is_fresh": 1, "author": ["Jordi Costa"]},
{"text": "In spite of its calculated excess of superficiality, it's an interesting, entertaining and very well interpreted film. [Full review in Spanish]", "is_fresh": 1, "author": ["Alberto Luchini"]},
{"text": "The story is a good one, and the movie never feels too heavy or preachy.", "is_fresh": 1, "author": ["Jeffrey M. Anderson"]},
{"text": "It's not intended to be the definitive film about what it addresses, but it's a fairly close approach and anyone can enjoy it. [Full review in Spanish]", "is_fresh": 1, "author": ["Mikel Zorrilla"]},
{"text": "The true story of three patient and patriotic African-American women who make an invaluable contribution to the success of the early space program.", "is_fresh": 1, "author": ["Frederic and Mary Ann Brussat"]},
{"text": "Hidden Figures doesn't try to push many artistic boundaries, but it tells its story so well that it doesn't really have to.", "is_fresh": 1, "author": ["Lenika Cruz"]},
{"text": "We might already know the end of the film, which tends to feel a bit formulaic at times, but it still sucks us in. It's a feel-good story that's every bit worth rooting for.", "is_fresh": 1, "author": ["Michelle Jaworski"]},
{"text": "With some audacity and ingenuity, \"Hidden Figures\" might have been something extraordinary. Instead, it's merely about something extraordinary.", "is_fresh": 0, "author": ["J. Olson"]},
{"text": "If the currently released \"Jackie\" has an edge in glossy production design, the heart and soul of this film makes it stand a full head taller.", "is_fresh": 1, "author": ["Ron Wilkinson"]},
{"text": "It's the kind of movie where you compliment the performances and then trail off because there's nothing much left to say that won't make you sound like a jerk.", "is_fresh": 0, "author": ["Walter Chaw"]},
{"text": "Uplifting, if not a little heavy handed, \"Hidden Figures\" is based on the true story of three very remarkable women and all three stars make the wise choice of not being stereotypical in their performances", "is_fresh": 1, "author": ["Michael A. Smith"]},
{"text": "It's a 'feel good movie' but Hidden Figures is never schmaltzy and is doesn't gloss over the weighty issues. ", "is_fresh": 1, "author": ["Staci Layne Wilson"]},
{"text": "It [Hidden Figures] makes our eyes wander and our ears perk, always on the look out for those who may next pioneer us into greater, undiscovered territories.", "is_fresh": 1, "author": ["Allyson Johnson"]},
{"text": "With any luck, Hidden Figures will bring viewers to the nonfiction account by Margot Lee Shetterly on which it's based -- and serve as an inspiration for STEM-minded kids who rarely see parallels to themselves on film.", "is_fresh": 1, "author": ["Margot Harrison"]},
{"text": "Three heroic African-American women carry this true NASA story to the heights of crowd-pleasing. The recent death of living legend/astronaut John Glenn adds even more heft to a movie that should serve as an inspiration to anyone who perseveres. ", "is_fresh": 1, "author": ["John Urbancich"]},
{"text": "its story of triumph over adversity is not so much a historical lesson as it is a call to ensure that we stop making the same old mistakes", "is_fresh": 1, "author": ["James Kendrick"]},
{"text": "The film never relinquishes its tight focus on three remarkable individuals who repeatedly demonstrate that they, too, possess the right stuff.", "is_fresh": 1, "author": ["Matt Brunson"]},
{"text": "A historical and pastel color drama that focuses in social awareness and sentimentality. [Full review in Spanish]", "is_fresh": 1, "author": ["Daniel de Partearroyo"]},
{"text": "Hidden Figures isn't a ground-, ceiling-, door-, or wall-breaking movie, but it entertains through its cast's charm.", "is_fresh": 1, "author": ["Armond White"]},
{"text": "This is a movie that should be seen featuring a story that needed to be told.", "is_fresh": 1, "author": ["Kristian Harloff"]},
{"text": "It's an uplifting cinematic experience that virtually anyone can enjoy, all while learning a story that deserved to be told.", "is_fresh": 1, "author": ["Mark Ellis"]},
{"text": "Hidden Figures is a great time at the theater.", "is_fresh": 1, "author": ["Andy Crump"]},
{"text": "... inspirational but predictable celebration of sacrifice, can-do spirit of three exploited NASA workers ... feels pat, too self-aware ... may be overdoing things to redress past sins.", "is_fresh": 1, "author": ["Glenn Lovell"]},
{"text": "The film's light, breezy entertainment value hides a deeper poignance, making it a nice complement to the heavier films that take the opposite approach.", "is_fresh": 1, "author": ["Eric D. Snider"]},
{"text": "Hidden Figures deserves consideration as another great black hope of putting that #OscarsSoWhite problem to rest. More importantly, it's a lesson that African-American culture offers more inspiring stories than Hollywood has chosen to tell.", "is_fresh": 1, "author": ["Steve Persall"]},
{"text": "It's as uplifting as watching a rocket take off.", "is_fresh": 1, "author": ["Linda Cook"]},
{"text": "Three strong, brilliant black women doing it for themselves by forcing a racist, sexist government agency to swallow a little Jim Crow in order to take America to the stars and back. ", "is_fresh": 1, "author": ["Al Alexander"]},
{"text": "You can start 2017 with positive vibes.", "is_fresh": 1, "author": ["Tony Macklin"]},
{"text": "Three women of color transcended the boundaries of their time. They rose above a segregated, sexist society to show that intellect is color blind and gender neutral. Hidden Figures is a long overdue story.", "is_fresh": 1, "author": ["Julian Roman"]},
{"text": "A lovely movie, buoyed by understated performances.", "is_fresh": 1, "author": ["Rich Heldenfels"]},
{"text": "Smart and sweet, the movie doesn't so much press viewers to examine their own potential prejudices as it assumes the persuasive power of its own vision.", "is_fresh": 1, "author": ["Cynthia Fuchs"]},
{"text": "It's pretty much perfect, and I cannot wait for general audiences to get the opportunity to head to the theatre and learn that blissful truth for themselves.", "is_fresh": 1, "author": ["Sara Michelle Fetters"]},
{"text": "Taraji P. Henson, Octavia Spencer and Janelle Mon\u00e1e bring every ounce of their considerable charm to a script filled with humor and heart.", "is_fresh": 1, "author": ["Samantha Miller"]},
{"text": "Yes, the movie is idealized in its portrait of women who have undoubtedly been denied very ordinary human flaws and failings. But then, so what? They're heroes, every one of them.", "is_fresh": 1, "author": ["Jeff Simon"]},
{"text": "If Quentin Tarantino really only has two movies left, I pray that at least one of them stars Janelle Mon\u00e1e.", "is_fresh": 1, "author": ["Daniel Barnes"]},
{"text": "The film is dominated by the energetic and often moving performances of its three leads, and bolstered by the quieter but still excellent work of the supporting players.", "is_fresh": 1, "author": ["Allison Shoemaker"]},
{"text": "Of the formidable threesome, it's Monae who most stands out.", "is_fresh": 1, "author": ["Jake Coyle"]},
{"text": "Hidden Figures may be the most entertaining civil rights movie I've ever seen.", "is_fresh": 1, "author": ["Christopher Lawrence"]},
{"text": "Despite admirable efforts from its high-powered cast, Hidden Figures takes a remarkable story and makes it feel the same as so many other movies.", "is_fresh": 0, "author": ["Kristian M. Lin"]},
{"text": "We learn about a largely unknown venue of the civil rights movement, but we also gain a general appreciation for the Herculean task of getting the Mercury astronauts into space at all.", "is_fresh": 1, "author": ["Josh Terry"]},
{"text": "Hidden Figures is the rare true story-based historical drama that succeeds at being as inspirational and feel-good as it aspires to be.", "is_fresh": 1, "author": ["Sandy Schaefer"]},
{"text": "An assertion of humanity and civil rights that is pure cinematic nourishment for soul.", "is_fresh": 1, "author": ["Katie Walsh"]},
{"text": "A by-turns infuriating and rousing feel-good drama.", "is_fresh": 1, "author": ["Annlee Ellingson"]},
{"text": "Brings to light a little-known facet of the American space program that simultaneously represents the best and the worst of what America had to offer at the time.", "is_fresh": 1, "author": ["Frank Wilkins"]},
{"text": "... in light of national pride and recent politics, it's refreshing to see a film that shows individuals not only can work together but often enough had damn well better.", "is_fresh": 1, "author": ["Kevin A. Ranson"]},
{"text": "Not enough can be said about the effort Henson, Mon\u00e1e or Spencer put in. The three have impeccable chemistry and build their characters from the ground up, indelibly.", "is_fresh": 1, "author": ["Tom Meek"]},
{"text": "Imagine The Help meets The Right Stuff and you get a very good sense of which buttons and emotional thrusters director Melfi is using to guide his plastic model of a moon rocket. ", "is_fresh": 1, "author": ["Katherine Monk"]},
{"text": "With its by-the-numbers storytelling, 'Hidden Figures' has all the right stuff to enlighten the audience.", "is_fresh": 1, "author": ["Roger Tennis"]},
{"text": "Hidden Figures succeeds where other movies have failed in making mathematical equations interesting.", "is_fresh": 1, "author": ["Mal Vincent"]},
{"text": "It's a good family film in the sense that it probably won't upset anyone, but it's hard to escape the suspicion the real people on whose stories it is based deserve a more nuanced treatment.", "is_fresh": 0, "author": ["Philip Martin"]},
{"text": "The story that Hidden Figures tells is so irresistible that you can almost forgive the fact that the movie itself is resistibly unoriginal.", "is_fresh": 1, "author": ["Peter Rainer"]},
{"text": "Considering it could be an inspirational calling card for girls and kids of all colors to brandish their smarts in the world of science and math, that only makes it all the better. (Full Content Review for Parents - Profanity, etc. - also Available)", "is_fresh": 1, "author": ["Jim Judy"]},
{"text": "Square but rousing portrait of real-life figures who helped U.S. win Space Race. Great cast.", "is_fresh": 1, "author": ["James Verniere"]},
{"text": "Underneath convention is an inspection of tremendous intelligence finding its place in the world, with the production valuing education and problem solving, which doesn't come across the screen nearly enough. ", "is_fresh": 1, "author": ["Brian Orndorf"]},
{"text": "In 2017, when the country feels as angry and divided as ever, \"Hidden Figures\" becomes more than just a well-made, inspiring and rousing piece of entertainment. It becomes vital.", "is_fresh": 1, "author": ["Rob Thomas"]},
{"text": "...an unabashedly feel-good movie, setting obstacles before its heroines and then showing their triumphs, while also offering the delights of a well-done period film. ", "is_fresh": 1, "author": ["Sarah Boslaugh"]},
{"text": "Johnson, Vaughan and Jackson were trailblazers whose fight deserves to be heard, and \"Hidden Figures\" honors them by turning their story into an audience-pleaser.", "is_fresh": 1, "author": ["Adam Graham"]},
{"text": "A movie about great people is not the same thing as a great movie.", "is_fresh": 0, "author": ["Josh Bell"]},
{"text": "Hidden Figures soars in bringing their stories to light and it's long past due.", "is_fresh": 1, "author": ["Daniel M. Kimmel"]},
{"text": "Hidden Figures is triumphant in a way that can restore your faith in the dreams we can achieve in this nation if we all are willing to work together as one.", "is_fresh": 1, "author": ["Michael Smith"]},
{"text": "It's clear that Hidden Figures is a story that demands to be told, and it's a pity it wasn't told better.", "is_fresh": 0, "author": ["Richard von Busack"]},
{"text": "Hidden Figures celebrates the achievements of these accomplished women, not only as pioneers in the space race but also as heroes battling obstacles big and small.", "is_fresh": 1, "author": ["Sean P. Means"]},
{"text": "Hidden Figures is exactly the type of movie that you think that it is. Only, it's better at being that type of movie than you probably expected. ", "is_fresh": 1, "author": ["Sean O'Connell"]},
{"text": "The film hews closely to the facts in important respects, and evokes the outrages of the Jim Crow era, as well as the feverish competition of the space race, through the fascinating work of its extraordinary heroines.", "is_fresh": 1, "author": ["Joe Morgenstern"]},
{"text": "Hidden Figures is a mash-up of the space race and civil rights that serves both well.", "is_fresh": 1, "author": ["Jim Slotek"]},
{"text": "\"Hidden Figures\" is more than just an inspirational history lesson. It does the vital service of bringing long-ignored figures out of hiding and making their case to the world.", "is_fresh": 1, "author": ["Loey Lockerby"]},
{"text": "This overeager, if oddly satisfying film details what it took for the U.S. to put a man in space at the height of the Cold War with Russia", "is_fresh": 1, "author": ["Ken Eisner"]},
{"text": "\"Hidden Figures\" tells a singular story in textbook fashion, creating a conventional, feel-good, part-fictional history lesson that would fit in any high school.", "is_fresh": 1, "author": ["Colin Covert"]},
{"text": "It's consistently good, very well acted, and it introduces us to a group of patriots previously overlooked.", "is_fresh": 1, "author": ["Edward Johnson-Ott"]},
{"text": "Both a dazzling piece of entertainment and a window into history ...", "is_fresh": 1, "author": ["Stephanie Zacharek"]},
{"text": "This affecting story of reclaimed history is something to enjoy and celebrate with family members of all generations.", "is_fresh": 1, "author": ["Marjorie Baumgarten"]},
{"text": "Solving institutional discrimination has proven to be harder than getting John Glenn to circle the globe. But Hidden Figures focuses on people, not numbers or policies or platitudes. ", "is_fresh": 1, "author": ["Amy Nicholson"]},
{"text": "The story is compelling and the acting is very good in this historical drama about three women who succeeded in grand style against very long odds.", "is_fresh": 1, "author": ["Robert Roten"]},
{"text": "Hidden Figures is a crowd-pleaser in the purest sense - it's a charming, heartwarming and inspirational tale that skillfully combines light-hearted comedy with racially-charged drama.", "is_fresh": 1, "author": ["Jason Zingale"]},
{"text": "Director Theodore Melfi ... creates an atmosphere in which Johnson, Vaughan and Jackson must be twice as good as those around them simply to succeed.", "is_fresh": 1, "author": ["Bob Bloom"]},
{"text": "Melfi tends to paint too much in the broad, amiable strokes of a triumph-of-the-week TV movie. But even his earthbound execution can't dim the sheer magnetic pull of an extraordinary story.", "is_fresh": 1, "author": ["Leah Greenblatt"]},
{"text": "\"Hidden Figures\" is a feel-good film of incalculable charm.", "is_fresh": 1, "author": ["Calvin Wilson"]},
{"text": "Goes beyond calling out prejudice because \"it's wrong\" and into its willfully ignorant blindness to bigger pictures of potential or accomplishment. It sees how cultural perseverance factors into much larger equations & earns inspirational bona fides.", "is_fresh": 1, "author": ["Nick Rogers"]},
{"text": "Henson, Spencer and Mon\u00e1e all bring spunk, sass and heart to a story that oozes inspiration and rings with righteous pride.", "is_fresh": 1, "author": ["Neil Pond"]},
{"text": "Executed with love and peopled with actors who breathe life into their characters ... \"Hidden Figures\" is precisely the delight it aims to be.", "is_fresh": 1, "author": ["Barbara VanDenburgh"]},
{"text": "The film's made with more heart than art and more skill than subtlety, and it works primarily because of the women that it portrays and the actresses who portray them.", "is_fresh": 1, "author": ["Ty Burr"]},
{"text": "Spencer gets most of the laughs, and Mon\u00e1e has the showiest speeches, so they've been nominated for most of the awards. But Henson has the hardest role: a prodigy ill-used by a society that barely knows she's alive.", "is_fresh": 1, "author": ["Lawrence Toppman"]},
{"text": "It's both a vital and important piece of our history and a strikingly slapdash movie, clumsily executed and filled with scenes that are barely half-written, if that. These two facts can co-exist. One may matter more to you than the other.", "is_fresh": 1, "author": ["Jason Bailey"]},
{"text": "A rousing, uplifting tribute to three unsung American heroes. Splendid performances give the film full power.", "is_fresh": 1, "author": ["Mike McGranaghan"]},
{"text": "It might not leave an award-season mark, but its blend of heart, humor and history should score where it counts the most: at the box office, and in the minds of young viewers.", "is_fresh": 1, "author": ["Mike Scott"]},
{"text": "A triumph, that never feels like homework or a history lesson (Splice Today) ", "is_fresh": 1, "author": ["Stephen Silver"]},
{"text": "...a beautifully crafted film... ", "is_fresh": 1, "author": ["Sophia Watson"]},
{"text": "Could hardly be more historically important, culturally significant, or inspirational, and as a PG-rated film, it's especially valuable as a STEM education boost for young girls. ", "is_fresh": 1, "author": ["Peter Canavese"]},
{"text": "Melfi never loses sight of his heroines' dual struggle, as women and as black people. He encourages his actors to play on that duality with wisdom, anger, and a nuanced sort of farce.", "is_fresh": 1, "author": ["Michael Sragow"]},
{"text": "...a rare glimpse of the black experience as it pertains to wider American history.", "is_fresh": 1, "author": ["Josh Larsen"]},
{"text": "A potent film with strong performances that will bolster your belief that change can still be made with the right level of conviction.", "is_fresh": 1, "author": ["Wesley Lovell"]},
{"text": "Paint-by-numbers biopic about people who were almost beyond a shadow of a doubt more interesting than the film ever suggests.", "is_fresh": 0, "author": ["Tim Brayton"]},
{"text": "Surprising and Uplifting", "is_fresh": 1, "author": ["Diana Saenger"]},
{"text": "... a valuable history lesson with plenty of built-in drama that eventually takes off.", "is_fresh": 1, "author": ["Todd Jorgenson"]},
{"text": "This untold story of African-American females who helped NASA conquer the cosmos features three incredible performances. Corny at times, sure, but you'll still want to stand up and cheer.", "is_fresh": 1, "author": ["Peter Travers"]},
{"text": "This gloriously entertaining slice of American history will make you want to stand up and cheer. In many ways, it is just the movie we need right now.", "is_fresh": 1, "author": ["Joanna Langfield"]},
{"text": "Despite at least one counterfactual scene and a runtime far too long, it's an interesting and intriguing tale and writer Margo Lee Slatterly, along with director Theodore Melfi, deserve a lot of plaudits for bringing the story to light.", "is_fresh": 1, "author": ["Tony Medley"]},
{"text": "Tells a genuinely compelling story, but does so in a fashion that too often feels artificial, even borderline sitcomish [though] it's hard to resist the charm of the three lead actresses.", "is_fresh": 0, "author": ["Frank Swietek"]},
{"text": "A worthwhile, teachable moment about the indignities suffered by three heroic NASA mathematicians simply because they had the misfortune to be black during the South's shameful days of Jim Crow segregation.", "is_fresh": 1, "author": ["Kam Williams"]},
{"text": "This film is designed to rouse an audience, and I can't see how it can fail to do so. The heroines of this tale are both admirable and likable, what the movie may lack in nuance it makes up for in good will ", "is_fresh": 1, "author": ["Leonard Maltin"]},
{"text": "a crowd-pleaser that pleases by tweaking formula in significant ways, even if the film subscribes to certain conventions.", "is_fresh": 1, "author": ["Blake Crane"]},
{"text": "This movie is as much about science-faction, as it is a tense racial drama and a light-hearted comedy. It's an education film that should be mandatory viewing for the whole family.", "is_fresh": 1, "author": ["Valerie Complex"]},
{"text": "Hidden Figures has a lot of fine lines to walk, and it does so with grace and grit equal to the trio of stellar performances from Henson, Spencer, and Mon\u00e1e.", "is_fresh": 1, "author": ["Roxana Hadadi"]},
{"text": "...it's ultimately difficult to recall a more promising endeavor that so thoroughly squandered its various positive attributes.", "is_fresh": 0, "author": ["David Nusair"]},
{"text": "Junior high and high school classes across the country should take field trips to see this movie.", "is_fresh": 1, "author": ["Richard Roeper"]},
{"text": "Hidden Figures provides an example of determination and talent triumphing over an unfair and repressive system - something that ... has relevance beyond the decade or the century in which it transpires.", "is_fresh": 1, "author": ["James Berardinelli"]},
{"text": "The film's immensely agreeable real-life story has so much joy and energy, we're willing to go the predictable distance.", "is_fresh": 1, "author": ["Anita Katz"]},
{"text": "Hidden Figures is charming, smart, capable, and uncompromising -- just like its subjects.", "is_fresh": 1, "author": ["Alissa Wilkinson"]},
{"text": "Ultimately, it is a very satisfying movie, with historical significance, and it is great to see these women finally get their due.", "is_fresh": 1, "author": ["Neil Rosen"]},
{"text": "Heartwarming, inspiring.", "is_fresh": 1, "author": ["Nell Minow"]},
{"text": "Thoroughly entertaining with terrific performances all around. ", "is_fresh": 1, "author": ["Chris Bumbray"]},
{"text": "Strong female characters spitting in Jim Crow's eye. Hearkens back to the feel-good, morally-upright films of an earlier day.", "is_fresh": 1, "author": ["Kimberly Gadette"]},
{"text": "[A] significant story, told well and with feeling.", "is_fresh": 1, "author": ["Mark Dujsik"]},
{"text": "For all that it tells a highly unusual story, Hidden Figures is a classic Hollywood feel-good movie.", "is_fresh": 1, "author": ["Kate Taylor"]},
{"text": "Taraji P. Henson, Octavia Spencer and Janelle Mon\u00e1e serve both history and the demands of popular entertainment with serious performances that also have a good sense of humour.", "is_fresh": 1, "author": ["Peter Howell"]},
{"text": "A distaff counterpart to The Right Stuff, this exuberant, inspiring drama tells the fact-based story of three black women who strove for upward mobility -- both professional and atmospheric.", "is_fresh": 1, "author": ["J. R. Jones"]},
{"text": "I kept wishing director Theodore Melfi had approached his trio's story with the respect it deserves. Instead, he keeps trying to make their struggle \"fun,\" chasing easy laughs and easy inspiration.", "is_fresh": 0, "author": ["John Powers"]},
{"text": "In broad but mostly satisfying terms, Hidden Figures celebrates the few African-American women who broke out of the West Area Computers building because their talent was no longer worth suppressing.", "is_fresh": 1, "author": ["Scott Tobias"]},
{"text": "The it's-about-damn-time true story that puts paid to the notion that only white men had the Right Stuff. Often funny, ultimately feel-good, hugely exhilarating.", "is_fresh": 1, "author": ["MaryAnn Johanson"]},
{"text": "Adding social issues to its many inspirational themes, Hidden Figures equals one satisfying slice of history that'll entertain adults as well as kids looking to the stars.", "is_fresh": 1, "author": ["Brian Truitt"]},
{"text": "Like the calculating women whose lives it celebrates, \"Hidden Figures\" knows what it's doing.", "is_fresh": 1, "author": ["Kenneth Turan"]},
{"text": "There is something to be said for a well-told tale with a clear moral and a satisfying emotional payoff.", "is_fresh": 1, "author": ["A.O. Scott"]},
{"text": "...pays worthy tribute to their brilliance and determination in the face of overwhelming social odds, and does so in a way that engages emotionally.", "is_fresh": 1, "author": ["Travis Hopson"]},
{"text": "This is old-fashioned storytelling at its best: a tear-jerker and a feel-good movie all in one.", "is_fresh": 1, "author": ["Jeffrey Edalatpour"]},
{"text": "As a reminder of what can happen when Americans pull together behind a collective and ambitious cause, it's welcome, a rejoinder to the great strife and division that permeates the national mood today.", "is_fresh": 1, "author": ["Robert Levin"]},
{"text": "This movie adroitly portrays the sheer waste and inefficiency of racism and misogyny. Just think how much has been lost, the movie suggests, over centuries of depriving ourselves of the brains, talents and leadership of more than half our population?", "is_fresh": 1, "author": ["Ann Hornaday"]},
{"text": "\"Hidden Figures\" is a fairly entertaining gloss of a docudrama elevated by its cast.", "is_fresh": 1, "author": ["Michael Phillips"]},
{"text": "\"Hidden Figures\" may be a thoroughly upbeat, entertaining movie, but it's too smart to sugarcoat the truth about race relations in America - past or present.", "is_fresh": 1, "author": ["Rafer Guzman"]},
{"text": "The miracle lies in how the film gently touches on some of the most intractable social problems addressed by the civil rights movement, while maintaining an infectiously buoyant vibe - not to mention a bouncy soundtrack.", "is_fresh": 1, "author": ["Tirdad Derakhshani"]},
{"text": "Inspiring true story of African-American women at NASA. ", "is_fresh": 1, "author": ["Sandie Angulo Chen"]},
{"text": "Timeliness shouldn't ever be a mark for excellence. But the barndoor broad \"Hidden Figures\" would likely be entertaining at any time.", "is_fresh": 1, "author": ["Matt Prigge"]},
{"text": "I expect that anyone can find inspiration in the script's attention to the small, concrete steps real people make to create change.", "is_fresh": 1, "author": ["Alan Scherstuhl"]},
{"text": "The film aims for the stars but might have gone stratospheric if it cooled its jets ever so slightly.", "is_fresh": 1, "author": ["Joshua Rothkopf"]},
{"text": "Hidden Figures does a remarkable job demonstrating that women may all want different things but all desire opportunity.", "is_fresh": 1, "author": ["Lauren Chval"]},
{"text": "It is in essence a feature-length version of an inspiring social media image macro, or perhaps a Google Doodle. ", "is_fresh": 0, "author": ["Dan Schindel"]},
{"text": "Taraji P. Henson, Octavia Spencer and Janelle Mon\u00e1e are irresistible (and unstoppable) in this engaging story of pioneering black female mathematicians at NASA.", "is_fresh": 1, "author": ["Kevin Lally"]},
{"text": "\"Hidden Figures\" provides a fresh angle on how demeaning, demoralizing and crazy it was to live in an era of officially sanctioned white supremacy, one that people had grown used to pretending was perfectly normal.", "is_fresh": 1, "author": ["Kyle Smith"]},
{"text": "Theodore Melfi has a light touch not often found in dramas like this, which makes the material all the more effective.", "is_fresh": 1, "author": ["Odie Henderson"]},
{"text": "Henson, Spencer and Monae all excel, conveying the intensity and worthiness of these women's ambitions, even as they deal, almost in a matter of fact way, with obstacles that are maddening.", "is_fresh": 1, "author": ["Mick LaSalle"]},
{"text": "For all of its current touchstones, Hidden Figures feels far too late, both in the recognition these women deserve and the filmmakers' goodhearted but dull approach to their stories.", "is_fresh": 0, "author": ["Jesse Hassenger"]},
{"text": "A crucial episode of the nineteen-sixties, centered on both the space race and the civil-rights struggle, comes to light in this energetic and impassioned drama.", "is_fresh": 1, "author": ["Richard Brody"]},
{"text": "An accomplished and deftly executed movie that entertains, engages and earns your time, money and attention.", "is_fresh": 1, "author": ["Simon Thompson"]},
{"text": "It has a few slow patches but the sheer volume of material it covers means there's always something worth paying attention to.", "is_fresh": 1, "author": ["Jennie Kermode"]},
{"text": "Here's a crowd-pleaser that hits all the predictable notes, but you won't mind.", "is_fresh": 1, "author": ["Susan G. Cole"]},
{"text": "Uplifting true story, delivering an inspiring message of hope...", "is_fresh": 1, "author": ["Susan Granger"]},
{"text": "An inspiring story that had to be told - and finally has been. Superb acting all around and a remarkable tale make this a big winner.", "is_fresh": 1, "author": ["Pete Hammond"]},
{"text": "The worthy upbeat historical film on the early pioneers of NASA never fails to point out how courageous and saintly were its three black protagonists..", "is_fresh": 1, "author": ["Dennis Schwartz"]},
{"text": "This inspirational story of three brilliant women is like a bright ray of hope breaking out from the pre-Civil Rights South.", "is_fresh": 1, "author": ["Edward Douglas"]},
{"text": "Hidden Figures is sensational, spirited and necessary. It reminds us not only where we've been, but how far we still have to go, and gives us signs of hope and direction.", "is_fresh": 1, "author": ["Kristy Puchko"]},
{"text": "Although it looks like a movie machine-tooled to ride the wave of #OscarsSoWhite backlash, its actual ambitions seem far more modest: to entertain a lot, to educate a bit and to cheerlead pretty much constantly.", "is_fresh": 1, "author": ["Catherine Shoard"]},
{"text": "This is the movie America needs right now.", "is_fresh": 1, "author": ["Clay Cane"]},
{"text": "Real history rendered with Hollywood (fictional) flourishes, but never less than uplifting and entertaining", "is_fresh": 1, "author": ["Roger Moore"]},
{"text": "An Erin Brockovich-type feel-good biopic about 3 female African-American NASA math-wizard engineers who saved the 1960s Apollo rocket program and contributed to Civil Rights.", "is_fresh": 1, "author": ["Mark Jackson"]},
{"text": "Some sparkling performances and an inviting milieu can't completely overcome the bland trappings of a feel-good message movie. Everything in \"Hidden Figures\" is smoothly efficient but also a little anticlimactic and friction-less. ", "is_fresh": 0, "author": ["Tim Grierson"]},
{"text": "The central characters' dogged refusal to cede their places on a team that keeps trying to reject them is a moving display of heroism.", "is_fresh": 1, "author": ["Elise Nakhnikian"]},
{"text": "\"Hidden Figures\" is empowerment cinema at its most populist, and one only wishes that the film had existed at the time it depicts - though ongoing racial tensions and gender double-standards suggest that perhaps we haven't come such a long way, baby.", "is_fresh": 1, "author": ["Peter Debruge"]},
{"text": "Boy, is it a crowd pleaser", "is_fresh": 1, "author": ["Mike Ryan"]},
{"text": "With spunky determination and spirit, Melfi's film manages to calculate the path to a winning formula that succeeds.", "is_fresh": 1, "author": ["Rodrigo Perez"]},
{"text": "The highlights of \"Hidden Figures\" are in the two show-stopping performances of musical artist turned actress Janelle Monae and Academy Award winner Kevin Costner. ", "is_fresh": 1, "author": ["Clayton Davis"]},
{"text": "Feel-good history, but it works, and it works on behalf of heroes from a cinematically under-served community. These smart, accomplished women had the right stuff, and so does this movie.", "is_fresh": 1, "author": ["Alonso Duralde"]},
{"text": "With an air of optimism and hope for the future, Hidden Figures is a balm for the current political landscape, inspiring audiences to stand up for their ideals and continue striving forward.", "is_fresh": 1, "author": ["Robert Yaniz, Jr."]},
{"text": "Great story and powerful performances in a film that dramatizes a neglected aspect of the Civil Rights movement.", "is_fresh": 1, "author": ["Louis Proyect"]}
]