[
{"reviews_count": "34", "title": "Highlander", "avg_audience_rating": "3.5", "rotten_count": "11", "tomatometer": "68", "audience_score": "79", "avg_critic_rating": "6.1", "fresh_count": "23", "user_ratings_count": "135,164"},
{"text": "It's all here, folks: fancy wipes, expressionistic angles, quick-cut close-ups, stylized backlighting, camera moving in endless illogic.", "is_fresh": 0, "author": ["Paul Attanasio"]},
{"text": "It's easy to see why many love this picture (great premise, fine action scenes, a score by Queen, Connery) but just as easy to see why many despise it (cheesy production values, stone-faced Lambert, ludicrous supporting characters, thudding dialogue).", "is_fresh": 1, "author": ["Matt Brunson"]},
{"text": "Highlander is the visual counterpart to rock band Queen (who supply a number of songs on the soundtrack) - big, brash and operatic filmmaking of the highest order.", "is_fresh": 1, "author": ["Adam Lowes"]},
{"text": "Before it came to a thudding halt with a craven, creatively bankrupt franchise cash-grab, the rich world of \"Highlander\" - in all its bombast and bereavement - was, and is, worth getting lost in for two hours.", "is_fresh": 1, "author": ["Nick Rogers"]},
{"text": "A bit clumsy in spots, but Highlander is a thoroughly entertaining action-fantasy picture.", "is_fresh": 1, "author": ["R.L. Shaffer"]},
{"text": "OK fantasy adventure film that has achieved cult status to many.", "is_fresh": 1, "author": ["Steve Crum"]},
{"text": "Connery, on the other hand, is a welcome sight. It is director Russell Mulcahy's style that doesn't work here.", "is_fresh": 0, "author": []},
{"text": "Lambert, with his beetle brow, broken nose, and vaguely crossed eyes, remains an amiable oddball presence, and Sean Connery radiates charm and nobility in a bit as an elder immortal who shows Lambert the rules of the game.", "is_fresh": 1, "author": ["Dave Kehr"]},
{"text": "Don't go in expecting too much and you should be ok.", "is_fresh": 0, "author": ["Chris Hewitt (UK)"]},
{"text": "It's a lot of utterly preposterous fun, even if it doesn't quite hang together.", "is_fresh": 0, "author": ["Derek Adams"]},
{"text": "Highlander's plot is one of the most original ever filmed.", "is_fresh": 1, "author": ["Scott Nash"]},
{"text": "Great concept + sharp-edged weapons + Connery = enduring fantasy classic.", "is_fresh": 1, "author": ["Widgett Walls"]},
{"text": "Since none of the characters makes sense even on the movie's own terms, Highlander keeps on exploding for almost two hours, with nothing at stake.", "is_fresh": 0, "author": ["Walter Goodman"]},
{"text": "\"There can only be one!\" And that's one too many.", "is_fresh": 0, "author": ["Ken Hanke"]},
{"text": "Another example of a decent first film that led to a mediocre series. Great performances from Connery and Brown.", "is_fresh": 1, "author": ["Brian Mckay"]},
{"text": "A terrific idea, taken about as far as it can go. Why, oh why, did they start making sequels?", "is_fresh": 1, "author": ["Rob Vaux"]},
{"text": "One of the all time greatest B-Movies!", "is_fresh": 1, "author": ["Stefan Birgir Stefansson"]},
{"text": "For me, the worst movie of the 1980s.", "is_fresh": 0, "author": ["Jeffrey Westhoff"]},
{"text": "It is a silly film, but it is fun to watch.", "is_fresh": 1, "author": ["Robert Roten"]},
{"text": "No equal among sword-and-sorcery flicks.", "is_fresh": 1, "author": ["Christopher Null"]},
{"text": "Joins Pete's Dragon, Condorman, and Unidentified Flying Oddball in the category of films better remembered than re-watched.", "is_fresh": 0, "author": ["Walter Chaw"]},
{"text": "Maybe it was the sheer audacity of the film's silliness that made it so popular or the brief, swaggering presence of Connery.", "is_fresh": 0, "author": ["John J. Puccio"]},
{"text": "This is a bad, bad movie that I really, really like. And I'm not embarrassed to say so.", "is_fresh": 1, "author": ["MaryAnn Johanson"]},
{"text": "Lambert is likeable as the highlander of the title and the villain is quite memorable and steals the show.", "is_fresh": 1, "author": ["James O'Ehley"]},
{"text": "A truly heroic stomp through time and space.", "is_fresh": 1, "author": ["Matt Ford"]},
{"text": "", "is_fresh": 1, "author": ["Chuck O'Leary"]},
{"text": "", "is_fresh": 1, "author": ["Emanuel Levy"]},
{"text": "", "is_fresh": 0, "author": ["Philip Martin"]},
{"text": "", "is_fresh": 1, "author": ["Nicolas Lacroix"]},
{"text": "", "is_fresh": 0, "author": ["Jake Euker"]},
{"text": "", "is_fresh": 1, "author": ["Andy Klein"]},
{"text": "", "is_fresh": 1, "author": ["Daniel M. Kimmel"]},
{"text": "", "is_fresh": 1, "author": ["Tony Toscano"]},
{"text": "", "is_fresh": 1, "author": ["David Poland"]},
{"text": "It's all here, folks: fancy wipes, expressionistic angles, quick-cut close-ups, stylized backlighting, camera moving in endless illogic.", "is_fresh": 0, "author": ["Paul Attanasio"]},
{"text": "It's easy to see why many love this picture (great premise, fine action scenes, a score by Queen, Connery) but just as easy to see why many despise it (cheesy production values, stone-faced Lambert, ludicrous supporting characters, thudding dialogue).", "is_fresh": 1, "author": ["Matt Brunson"]},
{"text": "Highlander is the visual counterpart to rock band Queen (who supply a number of songs on the soundtrack) - big, brash and operatic filmmaking of the highest order.", "is_fresh": 1, "author": ["Adam Lowes"]},
{"text": "Before it came to a thudding halt with a craven, creatively bankrupt franchise cash-grab, the rich world of \"Highlander\" - in all its bombast and bereavement - was, and is, worth getting lost in for two hours.", "is_fresh": 1, "author": ["Nick Rogers"]},
{"text": "A bit clumsy in spots, but Highlander is a thoroughly entertaining action-fantasy picture.", "is_fresh": 1, "author": ["R.L. Shaffer"]},
{"text": "OK fantasy adventure film that has achieved cult status to many.", "is_fresh": 1, "author": ["Steve Crum"]},
{"text": "Connery, on the other hand, is a welcome sight. It is director Russell Mulcahy's style that doesn't work here.", "is_fresh": 0, "author": []},
{"text": "Lambert, with his beetle brow, broken nose, and vaguely crossed eyes, remains an amiable oddball presence, and Sean Connery radiates charm and nobility in a bit as an elder immortal who shows Lambert the rules of the game.", "is_fresh": 1, "author": ["Dave Kehr"]},
{"text": "Don't go in expecting too much and you should be ok.", "is_fresh": 0, "author": ["Chris Hewitt (UK)"]},
{"text": "It's a lot of utterly preposterous fun, even if it doesn't quite hang together.", "is_fresh": 0, "author": ["Derek Adams"]},
{"text": "Highlander's plot is one of the most original ever filmed.", "is_fresh": 1, "author": ["Scott Nash"]},
{"text": "Great concept + sharp-edged weapons + Connery = enduring fantasy classic.", "is_fresh": 1, "author": ["Widgett Walls"]},
{"text": "Since none of the characters makes sense even on the movie's own terms, Highlander keeps on exploding for almost two hours, with nothing at stake.", "is_fresh": 0, "author": ["Walter Goodman"]},
{"text": "\"There can only be one!\" And that's one too many.", "is_fresh": 0, "author": ["Ken Hanke"]},
{"text": "Another example of a decent first film that led to a mediocre series. Great performances from Connery and Brown.", "is_fresh": 1, "author": ["Brian Mckay"]},
{"text": "A terrific idea, taken about as far as it can go. Why, oh why, did they start making sequels?", "is_fresh": 1, "author": ["Rob Vaux"]},
{"text": "One of the all time greatest B-Movies!", "is_fresh": 1, "author": ["Stefan Birgir Stefansson"]},
{"text": "For me, the worst movie of the 1980s.", "is_fresh": 0, "author": ["Jeffrey Westhoff"]},
{"text": "It is a silly film, but it is fun to watch.", "is_fresh": 1, "author": ["Robert Roten"]},
{"text": "No equal among sword-and-sorcery flicks.", "is_fresh": 1, "author": ["Christopher Null"]}
]