[
{"reviews_count": "69", "title": "Hold The Dark", "avg_audience_rating": "2.5", "rotten_count": "21", "tomatometer": "70", "audience_score": "31", "avg_critic_rating": "6.5", "fresh_count": "48", "user_ratings_count": "820"},
{"text": "Alternately gorgeous and foreboding, Saulnier deftly doles out breadcrumbs for a tense and dark mystery", "is_fresh": 1, "author": ["Ed Travis"]},
{"text": "While Hold the Dark isn't as enrapturing as his previous two films, it is still a brutal, tense journey through the snow into the heart of darkness.", "is_fresh": 1, "author": ["Sean Mulvihill"]},
{"text": "Hold the Dark feels like a mask which, when removed, reveals little underneath.", "is_fresh": 0, "author": ["Joel Mayward"]},
{"text": "Holding the dark - embracing it within, or keeping it away - is what all of Saulnier's films are about.", "is_fresh": 1, "author": ["Adam Kempenaar"]},
{"text": "There are a lot of big, heady themes woven throughout the story, none of which are ever fully developed, but rather are left as tantalizing, ambiguous nods toward deeper philosophical wells.", "is_fresh": 1, "author": ["James Kendrick"]},
{"text": "The film ends up being an exceptional reflexive exercise, a solid challenge that is based on the strength - but also on the apparent distance - of its images. [Full review in Spanish]", "is_fresh": 1, "author": ["Aar\u00f3n Rodr\u00edguez Serrano"]},
{"text": "A werewolf movie that isn't a werewolf movie, but really kind of is...", "is_fresh": 1, "author": ["Josh Larsen"]},
{"text": "In making it difficult for viewers to embrace the frame do Jeremy Saulnier and company find a way to paint \"dark\" rightly.", "is_fresh": 1, "author": ["Nguyen Le"]},
{"text": "Provided you've enjoyed Saulnier's previous flicks, \"Hold the Dark\" should again tickle your dark fancy.", "is_fresh": 1, "author": ["Joey Magidson"]},
{"text": "'Holding the dark' is the perfect analogy for defining what's essentially indefinable.", "is_fresh": 1, "author": ["Walter Chaw"]},
{"text": "A grim, unsettling and ultimately forgettable Netflix horror flick that has a surprisingly high daytime body count for something that takes place mostly in the dark night of the Alaskan winter. ", "is_fresh": 1, "author": ["Brad Newsome"]},
{"text": "If \"Green Room\" was a thrash masterpiece, \"Hold The Dark\" is bad prog rock: cold, soupy, faux-philosophical miscellany, wielding a few good ideas and oozing bad ones. ", "is_fresh": 0, "author": ["J. Olson"]},
{"text": "...an incredibly deliberate and subdued drama that's been punctuated with admittedly electrifying moments...", "is_fresh": 0, "author": ["David Nusair"]},
{"text": "A beautiful if grotesque thriller.", "is_fresh": 1, "author": ["Felix Vasquez Jr."]},
{"text": "It is incredibly mirthless - aggressively, obsessively so.", "is_fresh": 0, "author": ["Tim Brayton"]},
{"text": "Saulnier's lens has become more defined and his pursuit of the shot intenser...Saulnier's pursuit of the shot gives the film not just an authenticity, but encapsulates the mood of the adapted screenplay.", "is_fresh": 1, "author": ["Robert Daniels"]},
{"text": "It's not as tight, defined, and powerful as possible, but \"Hold the Dark\" stays on target for a good portion of the time.", "is_fresh": 1, "author": ["Brian Orndorf"]},
{"text": "Hyperviolent, compelling thriller is graphic and brutal. ", "is_fresh": 1, "author": ["Renee Schonfeld"]},
{"text": "Often it's the mark of a good film when you're left with questions about what just happened, but Hold the Dark mostly just leaves that feeling of cold.", "is_fresh": 0, "author": ["Audra Schroeder"]},
{"text": "While the movie arrives at a bit of an anti-climax... Hold the Dark still returns to the key idea that we all run with our own packs, in one way or another. ", "is_fresh": 1, "author": ["Jacob Knight"]},
{"text": "While Hold the Dark is ambitious, as all Saulnier films are, it's also confusing to watchers - and confused in its purpose.", "is_fresh": 0, "author": ["AJ Caulfield"]},
{"text": "This dark, pitiless story about a psychotic veteran's bloody tear through remote Alaska wields haunting grandeur along with reductive plotting.", "is_fresh": 0, "author": ["Chris Barsanti"]},
{"text": "Bracing mood piece with compelling characters in a palpably, cinematically bleak setting.", "is_fresh": 1, "author": ["Eric D. Snider"]},
{"text": "Saulnier delivers a provocative and nuanced film that explores the primal side of human nature.", "is_fresh": 1, "author": ["Jonathan W. Hickman"]},
{"text": "From its very first scenes, Hold the Dark latches onto your neck and drags you, despite your protests, to where it wants you. And in its final moments, it goes in for the kill.", "is_fresh": 1, "author": ["Rohan Naahar"]},
{"text": "A moody, bloody rural Alaska thriller that goes wrong every time it loses track of Jeffrey Wright and reality. ", "is_fresh": 0, "author": ["Roger Moore"]},
{"text": "It's the Big Swing every director attempts at some point in their career; Saulnier simply felt he could stand up to the plate. Swing and miss, sadly, but what a swing it is. ", "is_fresh": 0, "author": ["Michael Roffman"]},
{"text": "Hold the Dark may be pretty to look at, but all its Alaskan beauty can't help distract from its lack of plot and character motivation.", "is_fresh": 0, "author": ["Rafael Motamayor"]},
{"text": "Consistently suffused with eerie atmosphere, thanks to the stark (and gorgeously shot) locations, the sparse but sometimes quasi-mystical dialogue, and the strong performances.", "is_fresh": 1, "author": ["Josh Bell"]},
{"text": "Jeremy Saulnier is an absolute master of portraying the vicious and dour nature of humanity, and Hold The Dark is his latest gem.", "is_fresh": 1, "author": ["Mike Reyes"]},
{"text": "It's easy enough to explain what Hold the Dark is about ... As for what the movie is About, that's much more difficult to deduce.", "is_fresh": 0, "author": ["Mark Dujsik"]},
{"text": "The film never coheres outside of those flashes, ultimately delivering a disappointing, confusing, but undeniably fascinating experience.", "is_fresh": 1, "author": ["David Sims"]},
{"text": "A crime thriller meets a twisted dark fairytale in its abstract but haunting quality that leaves room for some twisted folklore undercurrents and the threat of the supernatural.", "is_fresh": 1, "author": ["Lewis Knight "]},
{"text": "Stream it, but feel free to bail if it starts to try your patience.", "is_fresh": 1, "author": ["Joe Reid"]},
{"text": "Hold the Dark is a confident, vicious and haunting piece of work from Saulnier, carried brilliantly by his cast.", "is_fresh": 1, "author": ["Garry McConnachie"]},
{"text": "Mileage will vary in the eyes of many viewers, and some might write it off as a curiosity or a misfire, but in an age where creativity and thoughtfulness are in short supply in genre fare, Hold the Dark is something worth celebrating.", "is_fresh": 1, "author": ["Andrew Parker"]},
{"text": "It would be nice to report that Hold the Dark extends the promise of Blue Ruin and Green Room, but it doesn't, at least not for me. ", "is_fresh": 0, "author": ["Adam Nayman"]},
{"text": "This is unlike any movie I've seen in some time, an art film that takes risks at every turn, and if Netflix is in the business of financing risk-taking, god bless them.", "is_fresh": 1, "author": ["Taylor Antrim"]},
{"text": "Wright's disturbed visage conveys his character's torn-between-two-worlds distress, with the actor using darting looks and burdened body language to beautifully articulate the war raging within.", "is_fresh": 1, "author": ["Nick Schager"]},
{"text": "Some directors want to make you meditate. Jeremy Saulnier just wants to kick your ass. ", "is_fresh": 1, "author": ["Vincent Mancini"]},
{"text": "It makes for intriguing and often gripping viewing, but delivers a more confounding experience than is necessary.", "is_fresh": 1, "author": ["Barry Hertz"]},
{"text": "Anger, violence and surrealism pervade the engrossing new thriller from \"Blue Ruin\" director Jeremy Saulnier.", "is_fresh": 1, "author": ["Tim Grierson"]},
{"text": "[Hold the Dark] strives to depict, with unflinching sincerity, the imbalance and upset in the natural order that arises from the murder of innocents. It's harrowing, but strangely beautiful too.", "is_fresh": 1, "author": ["Kevin Maher"]},
{"text": "Actually, a whole mess of things are amiss, and the longer you stick with Hold the Dark, the more you'll realize that when a local cop (James Badge Dale) says, \"I'm not convinced the answers exist,\" he's speaking for all of us.", "is_fresh": 0, "author": ["Chris Knight"]},
{"text": "A bold, mesmerizing and journey into a land of shadows and mystery that will leave a deep and unnerving impression.", "is_fresh": 1, "author": ["Bruce DeMara"]},
{"text": "Its determined ambition and atmospheric skill keeps Saulnier firmly in the category of directors to watch.", "is_fresh": 1, "author": ["Robert Abele"]},
{"text": "Suddenly, what seemed like a man-vs-nature survivalist tale morphs into something that's part Arctic Noir and part violent art-horror.", "is_fresh": 1, "author": ["David Fear"]},
{"text": "Considering the (pardon the expression) glacial pace of much of the lead-up, Hold the Dark's eruption into massacre-level violence is jarring. Once it takes hold, it is relentless and grueling. ", "is_fresh": 1, "author": ["Jim Slotek"]},
{"text": "If Hold The Dark lacks the sheer razor-wire tension of Saulnier's earlier crime-horror corkers, it still knows how to make the carnage count-to force us to experience, on a gut level, every casualty.", "is_fresh": 1, "author": ["A.A. Dowd"]},
{"text": "Challenging, dreamlike, and unrelentingly bleak, Hold the Dark is a western - and a Saulnier film - unlike any other.", "is_fresh": 1, "author": ["Matthew Monagle"]},
{"text": "Hold the Dark might have made a compelling book, but the film is one grim and pitiless journey.", "is_fresh": 0, "author": ["Lindsey Bahr"]},
{"text": "A thriller that aspires to something deeper but never figures out what.", "is_fresh": 0, "author": ["Manohla Dargis"]},
{"text": "Hold the Dark's ludicrous seriousness comes to feel like a mask for what's essentially a genre story of murder and mayhem.", "is_fresh": 0, "author": ["Chuck Bowen"]},
{"text": "Hold the Dark proves that Jeremy Saulnier can lend a violent unpredictability to even the most familiar of thrillers.", "is_fresh": 1, "author": ["Alistair Ryder"]},
{"text": "Although unpredictable, explosive and engrossing, Hold the Dark doesn't find the depth and resonance it seeks.", "is_fresh": 1, "author": ["Emma Simmonds"]},
{"text": "Difficult to watch and only occasionally impressive.", "is_fresh": 0, "author": ["Chris Bumbray"]},
{"text": "Saulnier continues his knack for visceral violence, you feel every gunshot wound, every stabbing of the knife, every punch, with the director inserting a kind of magical-surrealism that compliments the world being created ", "is_fresh": 1, "author": ["Jordan Ruimy"]},
{"text": "Hold the Dark is a challenging, fascinating film, but not quite the slam dunk that fans of Saulnier, particularly those who favored the more straightforward Green Room, were likely hoping for.", "is_fresh": 1, "author": ["Joe Lipsett"]},
{"text": "[Skarsg\u00e5rd] goes on a bloodlust of his own that is the tip of an iceberg that places order against chaos, and rationality against the kind of primal, bug-nuts gun craziness that can only occur in America.", "is_fresh": 1, "author": ["David Crow"]},
{"text": "Getting the chance to be an exceedingly dull stab at Elevated Horror, Elevated Thriller, and Elevated Action all in one fell swoop, Hold the Dark is nothing but a staggering failure in both the realm of art and entertainment.", "is_fresh": 0, "author": ["Ethan Vestby"]},
{"text": "A brutal slog of a film, admirable in its fearlessness in terms of dark subject matter, but the brutality doesn't feel worth it in the end.", "is_fresh": 0, "author": ["Brian Tallerico"]},
{"text": "The story doesn't entirely hold together after the fact... but as is typical for Saulnier, it's shocking and moving while it's actually going on.", "is_fresh": 1, "author": ["Tasha Robinson"]},
{"text": "Hold the Dark evades the payoff of easy explanations, but the filmmaker crafts such an immersive blend of shocking, violent developments and lyrical imagery that the specifics rarely matter.", "is_fresh": 1, "author": ["Eric Kohn"]},
{"text": "Blair and Saulnier render Giraldi's plot as a jumble of disquieting images and inexplicable character choices.", "is_fresh": 0, "author": ["Norman Wilner"]},
{"text": "While the shifts in genre, plot and location do prove intriguing for much of the film, they ultimately result in a feeling of mild dissatisfaction, the whole never quite the sum of its parts.", "is_fresh": 0, "author": ["Benjamin Lee"]},
{"text": "A strangely seductive film, and one that understands the difference between simple plot resolution and catharsis, leading us on a journey into Alaska's frigid heart of darkness that poses more questions than it answers.", "is_fresh": 1, "author": ["Andrew Barker"]},
{"text": "With Hold the Dark, Green Room director Jeremy Saulnier crafts a bleak, unforgiving film with an ever-increasing body count. ", "is_fresh": 1, "author": ["Chris Evangelista"]},
{"text": "It's a moody, scary, post-Peckinpah meditation on masculinity.", "is_fresh": 1, "author": ["Jason Bailey"]},
{"text": "Pitch-black to a fault.", "is_fresh": 1, "author": ["Keith Uhlich"]}
]