[
{"reviews_count": "38", "title": "Innerspace", "avg_audience_rating": "3.2", "rotten_count": "7", "tomatometer": "82", "audience_score": "65", "avg_critic_rating": "6.7", "fresh_count": "31", "user_ratings_count": "35,419"},
{"text": "Innerspace is a movie that sucks you in from the get-go, then keeps you hooked with the way it effortlessly moves from sci-fi to comedy to action, then back again.", "is_fresh": 1, "author": ["Mike McGranaghan"]},
{"text": "'80s sci-fi adventure comedy has some drinking, swearing.", "is_fresh": 1, "author": ["Betsy Bozdech"]},
{"text": "While the sci-fi is pretty hard to fault for what it is, and the adventure is aces for a high-concept 1980s family movie, the comedy is awfully wan and reedy.", "is_fresh": 1, "author": ["Tim Brayton"]},
{"text": "For all the Amblin technology on display, Dante's greatest effects are humanistic", "is_fresh": 1, "author": ["Fernando F. Croce"]},
{"text": "The plot is standard fantasy-adventure pulp, though director Joe Dante has so many screwball things going on in it that the comedy all but overwhelms the formulaic line of action.", "is_fresh": 1, "author": ["Pat Graham"]},
{"text": "Formulaic fun, helped by two winning leads.", "is_fresh": 1, "author": []},
{"text": "Short has infinitely more possibilities and makes the most of them, coming into his own as a screen personality as a mild-mannered little guy who rises to an extraordinary situation.", "is_fresh": 1, "author": ["Variety Staff"]},
{"text": "Though the film plays like a mix of exhilarating adventure and smart comedy, it's deepened by the notion that little Quaid is floating around inside Short's body sinking hooks into things, ripping open veins, triggering stomach acid, and the like.", "is_fresh": 1, "author": ["Jeffrey M. Anderson"]},
{"text": "While the anatomical special effects are imaginative enough, the manic rather than magical tone fails to achieve the sense of awe that made Fantastic Voyage -- clearly this film's inspiration -- so fascinating.", "is_fresh": 0, "author": ["Geoff Andrew"]},
{"text": "A really inventive and truly funny fantasy-comedy.", "is_fresh": 1, "author": ["Rob Thomas"]},
{"text": "A funny for all family. A classical 80s movie.", "is_fresh": 1, "author": ["Luis Martinez"]},
{"text": "Director Joe Dante throws in every special effects trick in the book to give some heft to the skimpy script but it doesn't work.", "is_fresh": 0, "author": ["Frederic and Mary Ann Brussat"]},
{"text": "Aventura de fic\u00e7\u00e3o cient\u00edfica que, com o toque amalucado de Joe Dante, vira uma com\u00e9dia quase besteirol - ali\u00e1s, em alguns momentos vai at\u00e9 longe demais. No entanto, os efeitos s\u00e3o bacanas, o esp\u00edrito \u00e9 de divers\u00e3o e o filme agrada.", "is_fresh": 1, "author": ["Pablo Villa\u00e7a"]},
{"text": "It has been made in a style best described as enthusiastic.", "is_fresh": 1, "author": ["Janet Maslin"]},
{"text": "I loved it at 14 years old. I was mildly amused 14 years later. Make of that what you will.", "is_fresh": 1, "author": ["Alex Sandell"]},
{"text": "An underrated comic masterpiece from the talented director Joe Dante.", "is_fresh": 1, "author": ["Blake Davis"]},
{"text": "[Innerspace] is pure entertainment, with plenty of gags and cameos that demand repeat viewings.", "is_fresh": 1, "author": ["David Nusair"]},
{"text": "A Beautifully Told Comedy/Adventure by Joe Dante. My personal favorite of his.", "is_fresh": 1, "author": ["Erik Childress"]},
{"text": "a lame, SF proving Martin Short is no movie star", "is_fresh": 0, "author": ["Bob Bloom"]},
{"text": "It's good to have friends on the inside, you know?", "is_fresh": 1, "author": ["John J. Puccio"]},
{"text": "The picture's haphazardness lends itself to being appreciated.", "is_fresh": 1, "author": ["Bill Chambers"]},
{"text": "Innerspace is high-concept all the way, but if all such 'high-concept' movies were crafted with this much affection and good humour, then lots of movie critics would be out of jobs/", "is_fresh": 1, "author": ["Scott Weinberg"]},
{"text": "Short's physical humor is exuberant and fun to watch, and Dennis Quaid, playing the pilot of the miniature ship that voyages through Short, puts in a good performance as the hot-shot with the \"right stuff.\"", "is_fresh": 1, "author": ["Cathy Burke"]},
{"text": "Here is an absurd, unwieldy, overplotted movie that nevertheless is entertaining - and some of the fun comes from the way the plot keeps laying it on.", "is_fresh": 1, "author": ["Roger Ebert"]},
{"text": "It's an easy-to-get-along-with movie -- bouncy, rabbity fun.", "is_fresh": 1, "author": ["Hal Hinson"]},
{"text": "Innerspace is significant for one thing -- the establishment of Martin Short as the funniest new kid on the Hollywood block. Too bad that's not enough for the sensation-a-second makers of Innerspace.", "is_fresh": 0, "author": ["Desson Thomson"]},
{"text": "Fun is to be had, but not too memorable in retrospect.", "is_fresh": 1, "author": ["James O'Ehley"]},
{"text": "The film is packed. It has science fiction, comedy, chases, really weird situations, and really weird characters, and it just keeps delivering.", "is_fresh": 1, "author": ["Mark R. Leeper"]},
{"text": "", "is_fresh": 1, "author": ["Jon Niccum"]},
{"text": "", "is_fresh": 0, "author": ["Brandon Judell"]},
{"text": "", "is_fresh": 0, "author": ["Emanuel Levy"]},
{"text": "", "is_fresh": 1, "author": ["Daniel M. Kimmel"]},
{"text": "", "is_fresh": 1, "author": ["Greg Maki"]},
{"text": "", "is_fresh": 1, "author": ["Andy Klein"]},
{"text": "", "is_fresh": 1, "author": ["Edward Havens"]},
{"text": "", "is_fresh": 1, "author": ["Jeffrey Westhoff"]},
{"text": "", "is_fresh": 0, "author": ["Philip Martin"]},
{"text": "", "is_fresh": 1, "author": ["Robert Roten"]},
{"text": "Innerspace is a movie that sucks you in from the get-go, then keeps you hooked with the way it effortlessly moves from sci-fi to comedy to action, then back again.", "is_fresh": 1, "author": ["Mike McGranaghan"]},
{"text": "'80s sci-fi adventure comedy has some drinking, swearing.", "is_fresh": 1, "author": ["Betsy Bozdech"]},
{"text": "While the sci-fi is pretty hard to fault for what it is, and the adventure is aces for a high-concept 1980s family movie, the comedy is awfully wan and reedy.", "is_fresh": 1, "author": ["Tim Brayton"]},
{"text": "For all the Amblin technology on display, Dante's greatest effects are humanistic", "is_fresh": 1, "author": ["Fernando F. Croce"]},
{"text": "The plot is standard fantasy-adventure pulp, though director Joe Dante has so many screwball things going on in it that the comedy all but overwhelms the formulaic line of action.", "is_fresh": 1, "author": ["Pat Graham"]},
{"text": "Formulaic fun, helped by two winning leads.", "is_fresh": 1, "author": []},
{"text": "Short has infinitely more possibilities and makes the most of them, coming into his own as a screen personality as a mild-mannered little guy who rises to an extraordinary situation.", "is_fresh": 1, "author": ["Variety Staff"]},
{"text": "Though the film plays like a mix of exhilarating adventure and smart comedy, it's deepened by the notion that little Quaid is floating around inside Short's body sinking hooks into things, ripping open veins, triggering stomach acid, and the like.", "is_fresh": 1, "author": ["Jeffrey M. Anderson"]},
{"text": "While the anatomical special effects are imaginative enough, the manic rather than magical tone fails to achieve the sense of awe that made Fantastic Voyage -- clearly this film's inspiration -- so fascinating.", "is_fresh": 0, "author": ["Geoff Andrew"]},
{"text": "A really inventive and truly funny fantasy-comedy.", "is_fresh": 1, "author": ["Rob Thomas"]},
{"text": "A funny for all family. A classical 80s movie.", "is_fresh": 1, "author": ["Luis Martinez"]},
{"text": "Director Joe Dante throws in every special effects trick in the book to give some heft to the skimpy script but it doesn't work.", "is_fresh": 0, "author": ["Frederic and Mary Ann Brussat"]},
{"text": "Aventura de fic\u00e7\u00e3o cient\u00edfica que, com o toque amalucado de Joe Dante, vira uma com\u00e9dia quase besteirol - ali\u00e1s, em alguns momentos vai at\u00e9 longe demais. No entanto, os efeitos s\u00e3o bacanas, o esp\u00edrito \u00e9 de divers\u00e3o e o filme agrada.", "is_fresh": 1, "author": ["Pablo Villa\u00e7a"]},
{"text": "It has been made in a style best described as enthusiastic.", "is_fresh": 1, "author": ["Janet Maslin"]},
{"text": "I loved it at 14 years old. I was mildly amused 14 years later. Make of that what you will.", "is_fresh": 1, "author": ["Alex Sandell"]},
{"text": "An underrated comic masterpiece from the talented director Joe Dante.", "is_fresh": 1, "author": ["Blake Davis"]},
{"text": "[Innerspace] is pure entertainment, with plenty of gags and cameos that demand repeat viewings.", "is_fresh": 1, "author": ["David Nusair"]},
{"text": "A Beautifully Told Comedy/Adventure by Joe Dante. My personal favorite of his.", "is_fresh": 1, "author": ["Erik Childress"]},
{"text": "a lame, SF proving Martin Short is no movie star", "is_fresh": 0, "author": ["Bob Bloom"]},
{"text": "It's good to have friends on the inside, you know?", "is_fresh": 1, "author": ["John J. Puccio"]}
]