[
{"reviews_count": "365", "title": "Jurassic World", "avg_audience_rating": "3.2", "rotten_count": "191", "tomatometer": "48", "audience_score": "51", "avg_critic_rating": "5.5", "fresh_count": "174", "user_ratings_count": "28,092"},
{"text": "This movie is the epitome of dumb fun.", "is_fresh": 1, "author": ["Joey Magidson"]},
{"text": "There is one scene that provides any amount of decent action, and even that feels like a bad ripoff of the Brontosaurus stampede from Peter Jackson's \"King Kong.", "is_fresh": 0, "author": ["Kent Garrison"]},
{"text": "Fallen Kingdom is vibrant and broad, but lacks the emotional depth and message (director J.A.) Bayona attempts to infuse.", "is_fresh": 0, "author": ["Matt Ward"]},
{"text": "There's nothing wrong with the movie-as-theme-park-ride concept but the ineptitude of the script knows no ends and makes it hard to buy into the supposed fun. Fallen Kingdom is a cash grab, pure and simple, and a lazy one at that. ", "is_fresh": 0, "author": ["Brian Gill"]},
{"text": "The thrill of dinosaurs invading our cineplexes has gone extinct.", "is_fresh": 0, "author": ["Matt Oakes"]},
{"text": "Bayona's adrenaline-fuelled, sometimes emotional, often nightmarishly scary effort is brought roaringly to life by the Jurassic stars of the show.", "is_fresh": 1, "author": ["Cameron Frew"]},
{"text": "It takes everything that didn't work about the last movie and makes that the focus, telling an incoherent and laughable story that feels like it was written by an eight-year-old...", "is_fresh": 0, "author": ["Jennifer Heaton"]},
{"text": "Credit where due to Fallen Kingdom - it at least finally feels like they've left the story in a place they can't take back.", "is_fresh": 1, "author": ["Bob Chipman"]},
{"text": "Bayona's direction is so stylish and confident that he's able to paper over the movie's narrative flaws and make for an engrossing experience that feels at times like a classic Jurassic movie and at others like a gothic horror movie in the Del Toro mould.", "is_fresh": 1, "author": ["Zaki Hasan"]},
{"text": "What's most disheartening about all this is the knowledge that there's going to be at least one more installment in the series...", "is_fresh": 0, "author": ["Eliza C. Thompson"]},
{"text": "It's visually impressive, and the fact that it even exists is a wonder in and of itself, but it's also slow, ponderous, and has a brain the size of a walnut.", "is_fresh": 0, "author": ["Johnny Gayzmonic"]},
{"text": "If you're just going to this movie to see Chris Pratt try and save some dinosaurs while other dinosaurs eat the bad guys (what usually happens in these movies), then you'll be satisfied.", "is_fresh": 1, "author": ["Kirsten Acuna"]},
{"text": "Jurassic World: Fallen Kingdom is step up from its predecessor but kind of a wobbly drunken step in the right direction, always teetering on the brink of falling backwards. ", "is_fresh": 0, "author": ["Sean Mulvihill"]},
{"text": "In order to squeeze all this nonsense into a mere two hours and eight minutes the plot has more holes than Blackburn, Lancashire.", "is_fresh": 0, "author": ["John McDonald"]},
{"text": "Fallen Kingdom stumbles from the start and can't recover -- a pale retread of everything we have seen before in this franchise.", "is_fresh": 0, "author": ["Micheal Compton"]},
{"text": "Bayona tries his best to make this movie feel different from all its predecessors, but he comes up short. [Full Review in Spanish]", "is_fresh": 0, "author": ["Mario Alegre"]},
{"text": "Jurassic World is an oddly white world. I say \"odd\", because the films target an international audience.", "is_fresh": 0, "author": ["Li Lai"]},
{"text": "There are no longer any ambitions beyond creature-feature thrills and popcorn fun.", "is_fresh": 0, "author": ["Sean Collier"]},
{"text": "It's starting to seem like the entire purpose of each subsequent entry in this series is to outdo its predecessor in terms of sheer stupidity.", "is_fresh": 0, "author": ["Aaron Leggo"]},
{"text": "A vacuous excuse for a film that's as frustrating as summer blockbusters get.", "is_fresh": 0, "author": ["Doug Jamieson"]},
{"text": "Buoyed by the Bayona, this film is, and so it would be beyond-smart to have him again when (or if) this planet does go to the dinos.", "is_fresh": 1, "author": ["Nguyen Le"]},
{"text": "These dinos need to go extinct", "is_fresh": 0, "author": ["Nate Adams"]},
{"text": "Uselessly tries to reinvent the dinosaur, but it also sloppily tries to reshape the entire franchise.", "is_fresh": 0, "author": ["Kyle Wilson"]},
{"text": "It [Jurassic World: Fallen Kingdom] is chalked full of callbacks to the original, yet it does not understand what made the original scenes so good", "is_fresh": 0, "author": ["Alan French"]},
{"text": "The kingdom has fallen and it can't get up in this lifeless rehash completely devoid of anything new and interesting. ", "is_fresh": 0, "author": ["Joe Friar"]},
{"text": "Whatever was of Steven Spielberg's original film ... has been demolished and replaced by a tacky new marquee that looks more expensive, is more expensive, and means absolutely nothing.", "is_fresh": 0, "author": ["Daniel Nava"]},
{"text": "The film undoubtedly was made in workmanlike fashion by the actors, artists and technicians. They gave their best with the material provided. It's just the material was sadly lacking.", "is_fresh": 0, "author": ["Paul Chambers"]},
{"text": "This overlong, over-the-top continuation sniffs and scratches so desperately to establish its pedigree it could be a mutt cousin of Spielberg's original blockbuster. You feel less like criticizing the thing than putting it down ...", "is_fresh": 0, "author": ["Glenn Lovell"]},
{"text": "Jurassic World: Fallen Kingdom makes a few slight improvements over the first film, including injecting the franchise with a little originality, but quickly finds itself becoming another tedious entry with its static center and elongated climax.", "is_fresh": 0, "author": ["Jeff Beck"]},
{"text": "Colin Trevorrow's belated follow-up to Jurassic Park is one of the most intriguing of recent reboots, since the premise of a theme park inhabited by actual dinosaurs directly dramatises the dangers of bringing the past back to life. ", "is_fresh": 1, "author": ["Jake Wilson"]},
{"text": "The pacing was a little too fast...a lot of it was far-fetched, super horror-like. ", "is_fresh": 0, "author": ["Tony Baker"]},
{"text": "As infuriating as Jurassic Park 3. Nobody needed this.", "is_fresh": 0, "author": ["Brandon Collins"]},
{"text": "Stupid...basically a disaster movie with dinosaurs.", "is_fresh": 0, "author": ["Justin Brown"]},
{"text": "... it's all just \"Jurassic Park: Greatest Hits.\" ", "is_fresh": 0, "author": ["Alci Rengifo"]},
{"text": "Despite the fact that this is a movie that has a lot of action...this movie somehow paradoxically is very slow. ", "is_fresh": 0, "author": ["Dan Murrell"]},
{"text": "It feels like the middle of a trilogy, but it achieves its goal of creating uncertainty for what's to come.", "is_fresh": 1, "author": ["Jared Mobarak"]},
{"text": "Fallen Kingdom is wholly lacking in shock and awe.", "is_fresh": 0, "author": ["Anupama Chopra"]},
{"text": "The plot really, really, really made no sense what so ever. ", "is_fresh": 0, "author": ["Mark Kermode"]},
{"text": "Jurassic World: Fallen Kingdom essentially requires parking one's brain in the lobby. Still, it's livelier and more playful than its immediate predecessor...Generally speaking, if adventures with CGI dinosaurs sound appealing, this delivers. ", "is_fresh": 1, "author": ["Abbie Bernstein"]},
{"text": "It's basically The Lost World with more volcano and less Vince Vaughn.", "is_fresh": 0, "author": ["Hope Madden"]},
{"text": "It does a pretty damn good job, and overcomes its shortcomings in relation to its villain. It doesn't live up to the magic of the first, but you get past that with the thrills and horrors and scares that a Jurassic movie gives you.", "is_fresh": 1, "author": ["John Campea"]},
{"text": "It's a shame; the writers' wish to create parallels to animal abuse and poaching means the dinosaurs spend too much time in cages, shackled, and sedated.", "is_fresh": 0, "author": ["Akhil Arora"]},
{"text": "It was alright... it was fun. ", "is_fresh": 0, "author": ["Jaby Koay"]},
{"text": "Is there any future in the Jurassic Park franchise? They were so preoccupied with whether or not they could, that they didn't stop to think if they should. ", "is_fresh": 0, "author": ["Clarisse Loughrey"]},
{"text": "While Bayona's penchant for visual artifice is in full-force, including a handful of minorly tense chase sequences, his signature gets a bit lost in this jungle of jarring tangents.", "is_fresh": 0, "author": [" Nicholas Bell"]},
{"text": "It's become just another tired franchise that keeps finding a way to live.", "is_fresh": 0, "author": ["Rendy Jones"]},
{"text": "The key attraction of these pictures is their portrayal of dinosaurs in the modern age. Unfortunately, this movie places greater focus on humanity's flaws, further questioning whether people deserve to experience their magnificence.", "is_fresh": 0, "author": ["Sarah Gopaul"]},
{"text": "The action and the dinosaurs are superior to all of the human characters, which is a big problem, and the main theme fails to take hold and have an effect.", "is_fresh": 0, "author": ["Mae Abdulbaki"]},
{"text": "The (latest in the) ultra-popular franchise ... finds itself functioning as cautionary tale of its narrative... just because something can be done, it doesn't mean it should. ", "is_fresh": 0, "author": ["Kimberly Pierce"]},
{"text": "The magic that existed behind those massive doors of the original park are completely gone, and \"Fallen Kingdom\" is a cheap clone.", "is_fresh": 0, "author": ["Tom Santilli"]},
{"text": "Jurassic World: Fallen Kingdom is a welcome addition to the Jurassic Park franchise.", "is_fresh": 1, "author": ["Britany Murphy"]},
{"text": "They're bigger than ever, and they're endangered again.", "is_fresh": 1, "author": ["Linda Cook"]},
{"text": "Jurassic World: Fallen Kingdom functions as a decently entertaining film, shallow but amusing. [Full review in Spanish]", "is_fresh": 1, "author": ["Fausto Ponce"]},
{"text": "There is a twin sense of safety and d\u00e9j\u00e0 vu all throughout the film, and the only real standout moments occur when director J.A. Bayona breaks out of the mold and does things his own way.", "is_fresh": 0, "author": ["James Kendrick"]},
{"text": "Although \"Fallen Kingdom\" gets no points for logic, it checks every popcorn movie box, staying true to \"Jurassic Park\" in its purest form: movie magic.", "is_fresh": 1, "author": ["J. Olson"]},
{"text": "Unfortunately, what the movie is trying to say about the inherent destructiveness of exploiting these creatures as commodities is overshadowed by the glaring aspects of the film's own commercialization. Postmodern, indeed.", "is_fresh": 0, "author": ["Brooke Corso"]},
{"text": "Fallen Kingdom delivers on its promise and then some. But once fully digested, this high-calorie snack will likely not rank very high on the Jurassic franchise food chain.", "is_fresh": 1, "author": ["David Weiner"]},
{"text": "I want to see this again. This got me...and it's fun to talk about.", "is_fresh": 1, "author": ["Andre Meadows"]},
{"text": "The film tilts more toward action than ethics, but it's still a good film. ", "is_fresh": 1, "author": ["Sr. Rose Pacatte"]},
{"text": "The first Jurassic World was incredibly retrograde and dumb, but it was also driven by an irresistible premise, while this dutiful follow-up just feels numb and exhausted.", "is_fresh": 1, "author": ["Daniel Barnes"]},
{"text": "That said, the film is good. It won't change your life, or hold a candle to the first movie (Jurassic Park of course), but it definitely solidifies the franchise of Jurassic World, and we can expect many more to come in this style.", "is_fresh": 1, "author": ["Aisha Jordan"]},
{"text": "Most of the film feels like Hostel but with dinosaurs.", "is_fresh": 0, "author": ["Diana Metzger"]},
{"text": "Bayona directs with such style and verve that he almost glosses over the script's patchiness and paper-thin characterizations. But it's the beautifully realized CGI beasts that convey so much more heart, charisma and likability.", "is_fresh": 1, "author": ["Stephen Rebello"]},
{"text": "Struggles to drudge through a bog of nonsensical character decisions and eye rolling social justice warrior messaging, to make for a frustratingly pretentious blockbuster of little entertainment value.", "is_fresh": 0, "author": ["Matthew Pejkovic"]},
{"text": "Pratt deserves better than this paint-by-numbers silliness.", "is_fresh": 0, "author": ["Edward Johnson-Ott"]},
{"text": "Very much a big, dumb, fun movie, the best triangulation of those three qualities in quite some while.", "is_fresh": 1, "author": ["Tim Brayton"]},
{"text": "The plot is clumsily spelled out through a hysterical series of exposition scenes that are as lazy as they are cliched. Mad Scientist, would you like to explain it from here?", "is_fresh": 0, "author": ["Tim Martain"]},
{"text": "Jurassic World: Fallen Kingdom is worth catching to see the interesting direction this franchise is taking. [Full Review in Spanish]", "is_fresh": 1, "author": ["Jonathan Eslui"]},
{"text": "In spite of the fact that we all know at some point that T. rex is going to hit an iconic tableaux shot and roar... this one will nevertheless have you on the edge of your seat.", "is_fresh": 1, "author": ["Mark Jackson"]},
{"text": "It's junk food at its best; it doesn't give us anything good, but it kills the craving none the less. [Full Review in Spanish] ", "is_fresh": 1, "author": ["Carlos D\u00edaz Reyes"]},
{"text": "The dinosaurs have ceased being sources of excitement and are now superficial showpieces in a plot that piles one ludicrous moment on top of another, without providing us much time to react or contemplate them.", "is_fresh": 0, "author": ["David Keyes"]},
{"text": "Jurassic World: Fallen Kingdom needed more polishing and clearly, its writers are unable to come up with a more creative way to bring back the dinosaurs and their history. [Full Review in Spanish]", "is_fresh": 0, "author": ["Rafael Rosales Santos"]},
{"text": "As sequels go, this one is not bad, considering the fact that they have to try to make each of these sequels bigger, more flashy, more spectacular, and inevitably more absurd than the last one.", "is_fresh": 1, "author": ["Robert Roten"]},
{"text": "Fallen Kingdom manages a few moments of visual showmanship that almost help pave over the clunky script and the feeling this is the runt of the dino litter.", "is_fresh": 1, "author": ["Matt Neal"]},
{"text": "Scenes from a class struggle on the Morrison Formation.", "is_fresh": 1, "author": ["Pete Vonder Haar"]},
{"text": "Unforgivably dumb. ", "is_fresh": 0, "author": ["Bob Grimm"]},
{"text": "What matters is that the director J. A. Bayona has prepared a cocktail of genres and styles full of indelible images. [Full review in Spanish]", "is_fresh": 1, "author": ["Daniel Krauze"]},
{"text": "'Jurassic World: Fallen Kingdom' is the perfect example of [a] fun and light blockbuster. [Full review in Spanish]", "is_fresh": 1, "author": ["Sebastian Zavala Kahn"]},
{"text": "This new episode of the saga about dinosaurs, directed by J.A. Bayona, wants to be a lot of things at once, but ends up being an example of why more is not always better. [Full Review in Spanish]", "is_fresh": 0, "author": ["Fernanda Sol\u00f3rzano"]},
{"text": "Golly, maybe life really will find a way, even in a franchise whose last installment played like a zombified version of the original entry from Steven Spielberg.", "is_fresh": 1, "author": ["Matthew Lickona"]},
{"text": "Like many years-later sequels, it attempts to capture the spirit of what made the first film so wondrously memorable, yet it barely offers anything new in that direction.", "is_fresh": 0, "author": ["David Fontana"]},
{"text": "Bully for the filmmakers for trying to have their cake and have a dinosaur eat it too.", "is_fresh": 1, "author": ["Jason Gorber"]},
{"text": "Save yourself a few bucks and just pick up a copy of The Lost World: Jurassic Park.", "is_fresh": 0, "author": ["Rick Bentley"]},
{"text": "There is a surfeit of running and screaming... done mostly by Bryce Dallas Howard, whose relation to the far more interesting Laura Dern is like the difference between the first movie and this tired and strangely vicious sequel.", "is_fresh": 1, "author": ["Richard von Busack"]},
{"text": "Overall, \"Fallen Kingdom\" is a fun ride but not a truly resonant or memorable one.", "is_fresh": 1, "author": ["Carl Kozlowski"]},
{"text": "I totally believe that Michael Crichton would be on board with the fresh ideas--and especially, the terrifying child & ginormous-sized new hybrid \"Indoraptor\" dinosaur scene.", "is_fresh": 1, "author": ["Sarah Knight Adamson"]},
{"text": "How did we get to the point where we are shedding tears over the potential deaths of dinosaurs while cheering the grisly demise of human villains?", "is_fresh": 0, "author": ["Kenneth R. Morefield"]},
{"text": "But if we have to be sequeled to death as every drop of originality gets drained from every successful franchise, I choose to march down the path to creative extinction with my dino-buddies. They at least know the way. ", "is_fresh": 1, "author": ["Mathew DeKinder"]},
{"text": "Fallen Kingdom is the silliest and most purely enjoyable variation on a story that a few big studio productions have been offering recently.", "is_fresh": 1, "author": ["Alison Willmore"]},
{"text": "Jurassic Park: Fallen Kingdom is a bad movie, but it is mostly a good bad movie in that it is fun and often stupid enough to be hilarious. ", "is_fresh": 1, "author": ["Rich Juzwiak"]},
{"text": "Bayona's skill extends to evoking suspense and menace via a playfully retro horror style... If only all of this wasn't undermined by the emotional sinkhole between Pratt and Howard.", "is_fresh": 1, "author": ["Jason Di Rosso"]},
{"text": "But visuals can't obscure the lack of a compelling protagonist or the fact that the new dinosaur we're supposed to find scarier than any dinosaur ever is just another rehash.", "is_fresh": 0, "author": ["Margot Harrison"]},
{"text": "Perhaps this franchise is simply at the stage of breeding where the pedigree starts to fade, you know the pets are going to get debilitating hip dysplasia after a few years, and yet you just press on anyway because you simply cannot do anything else.", "is_fresh": 0, "author": ["Nick Rogers"]},
{"text": "... Embraces its own insanity and runs with it at breakneck speed toward the finish line.", "is_fresh": 1, "author": ["Greg Maki"]},
{"text": "All growl and no bite, and all spectacle with little substance, Fallen Kingdom instead succeeds where most modern franchise instalments place too much of their focus: as a placeholder for the next movie.", "is_fresh": 0, "author": ["Sarah Ward"]},
{"text": "\"The moral of 1993's Jurassic Park (\"Just because we can do something doesn't mean we should\") bounces back in our faces with Jurassic World: Fallen Kingdom.\"", "is_fresh": 0, "author": ["Armond White"]},
{"text": "Falls into genre cliches. [Full Review in Spanish]", "is_fresh": 0, "author": ["Adri\u00e1n Ruiz"]},
{"text": "Bayona swings between a certain Speilbergian spirit and passages of Gothic terror. [Full Review in Spanish] ", "is_fresh": 1, "author": ["Diego Batlle"]},
{"text": "Jurassic World: Fallen Kingdom might be the first film in the series that breaks the mould of its predecessors, ditching the tenuous social concern of Michael Crichton's cautionary original in favour of a gleeful contempt for humanity's failings. ", "is_fresh": 1, "author": ["Luke Goodsell"]},
{"text": "Fallen Kingdom is stately to the point of reserved; immensely weird; and overtly critical of the current state of affairs. I'm not sure it's a good dinosaur movie, but it's an angry, swollen-red metaphor. All things being equal, I guess I'll take angry.", "is_fresh": 1, "author": ["Walter Chaw"]},
{"text": "Jurassic World: The Fallen Kingdom is a weak film despite being a strong movie in [a] silly ruckus and with a stronger jumble of incoherent images. [Full review in Spanish]", "is_fresh": 0, "author": ["William Venegas"]},
{"text": "Never quite achieves the amusement ride thrill that made its ancestors such scary good fun.", "is_fresh": 0, "author": ["Tom Meek"]},
{"text": "This is yet another action-packed sequel with exquisite special effects, wonderful shots of an erupting volcano, which if seen in IMAX are captivating, and filled with various types of dinosaurs that couldn't possibly look more lifelike. ", "is_fresh": 1, "author": ["Tony Medley"]},
{"text": "Jurassic World: Fallen Kingdom isn't a sequel but a clone.", "is_fresh": 0, "author": ["Kirk Baird"]},
{"text": "Somehow simultaneously better *and* worse than its predecessor. ", "is_fresh": 0, "author": ["Chris Evangelista"]},
{"text": "In the new installment of the Jurassic franchise, Jurassic World: Fallen Kingdom takes new paths that generate ideas about the morality of man's actions against the creation of life. [Full Review in Spanish]", "is_fresh": 1, "author": ["Sergio L\u00f3pez Aguirre"]},
{"text": "\"Kingdom\" is fine but familiar.", "is_fresh": 1, "author": ["Charles Koplinski"]},
{"text": "Stating that Jurassic World: Fallen Kingdom is the best of the sequels is a largely empty declaration, equivalent to opining that a Hostess Twinkie is the best of the largely inedible sugary snacks flooding the marketplace.", "is_fresh": 0, "author": ["Matt Brunson"]},
{"text": "The ideas of these one-note villains are so dumb and clich\u00e9d they belong in a Scooby Doo cartoon.", "is_fresh": 0, "author": ["Matthew Toomey"]},
{"text": "\"Fresh\" because there is no \"overripe tomato about to go completely off\". ", "is_fresh": 1, "author": ["Sarah Marrs"]},
{"text": "With world-building a priority and more ethics questions introduced regarding the use of technology, Fallen Kingdom will satisfy the diehard dinosaur lovers but is far more interesting in suggesting what future sequels might hold.", "is_fresh": 1, "author": ["Kevin A. Ranson"]},
{"text": "Having lost its original awe and wonder, it's suspenseful, yet somewhat stale, opening a window for future installments.", "is_fresh": 0, "author": ["Susan Granger"]},
{"text": "I'll give it this. When it leaps off the rails into utter inanity, it does so with grim determination and the courage of its (misguided) convictions.", "is_fresh": 0, "author": ["Andrea Chase"]},
{"text": "If Jurassic World: Fallen Kingdom is indicative of anything, it's that Spanish director, Jose Antonio Bayona is able to take the most absurd premise and give it some artistic gravitas. [Full Review in Spanish]", "is_fresh": 0, "author": ["Juanma Fern\u00e1ndez Par\u00eds"]},
{"text": "J.A. Bayona has managed to give blockbuster cinema a soul. [Full Review in Spanish]", "is_fresh": 1, "author": ["Erick Estrada"]},
{"text": "Fallen Kingdom tackles the evolution of hubris that motivated humans to resurrect [dinosaurs], while injecting the series' pulpy fun into a new genre: gothic horror.", "is_fresh": 1, "author": ["Annlee Ellingson"]},
{"text": "J.A. Bayona demonstrates a flair for the gothic... which has less pyrotechnics but more suspense.", "is_fresh": 1, "author": ["Andrea Gronvall"]},
{"text": "Audiences deserve so much better than this drivel...", "is_fresh": 0, "author": ["Felix Vasquez Jr."]},
{"text": "Still... there are very entertaining and well structured sequences. [Full review in Spanish]", "is_fresh": 1, "author": ["Antonio Sempere"]},
{"text": "A film located somewhere between arthouse and haunted house.", "is_fresh": 1, "author": ["Sandra Hall"]},
{"text": "...a passable followup that's lacking most of the awe and wonder (and fun) of Steven Spielberg's superlative 1993 original.", "is_fresh": 1, "author": ["David Nusair"]},
{"text": "For the target audience, like my 11-year-old son, Gabe, who adored it, the sequel is sure to delight, while the rest of us hold out hope that the next installment grows stronger legs under its story.", "is_fresh": 1, "author": ["Brandy McDonnell"]},
{"text": "Almost all the fun that isn't dependent on CGI technology is brushed aside to make room for toothy displays from creatures more like horror movie monsters than wild animals.", "is_fresh": 0, "author": ["Megan Basham"]},
{"text": "Missing nearly everything that made the original so much fun 25 years ago. ", "is_fresh": 0, "author": ["Eric D. Snider"]},
{"text": "As it happens, the best performances in this movie come from the most serious fakes, the animatronic and CGI dinos. It is in them that we have emotional investment. ", "is_fresh": 1, "author": ["Stephen Romei"]},
{"text": "The real stars are the dinosaurs and Fallen Kingdom gives us plenty of them.", "is_fresh": 1, "author": ["Norman Wilner"]},
{"text": "While there's certainly more here than in, say, a \"Transformers\" sequel, \"Fallen Kingdom\" is still a sequel that doesn't have much to add to its series. ", "is_fresh": 0, "author": ["Jeffrey M. Anderson"]},
{"text": "Nothing but a blatant money grab propped up by its beloved legacy.", "is_fresh": 0, "author": ["Frank Wilkins"]},
{"text": "Jurassic World: Fallen Kingdom might make a ton of money, but it'll be a shock if it doesn't end up being the biggest creative dud of Summer 2018. ", "is_fresh": 0, "author": ["Mike McGranaghan"]},
{"text": "Not Pterrible, but hardly dinomite either.", "is_fresh": 1, "author": ["James Croot"]},
{"text": "Jurassic World: Fallen Kingdom causes the extinction of the franchise's one true thrill. What's left is a twisted plot and cautionary tales we already knew.", "is_fresh": 0, "author": ["Sharareh Drury"]},
{"text": "The uninspired script by Derek Connolly and Colin Trevorrow recycles the usual conflict between good-and-bad-guy scientists, government agents and private profiteers.", "is_fresh": 0, "author": ["Barry Paris"]},
{"text": "The effects are top-notch, but there's not enough scare moments, there's not enough thought to it, there's not enough wit, there's not enough engagement in the story that's unfolding. ", "is_fresh": 0, "author": ["Alonso Duralde"]},
{"text": "Although each Jurassic movie is fated to essentially repeat the same idea-oh no, dinosaurs!-this new era has come up with ways to surprise, terrify, and inspire, which is enough to keep the heart of the franchise beating.", "is_fresh": 1, "author": ["Josephine Livingstone"]},
{"text": "Individually, there is really artful and muscular camerawork going on here, but for the most part it is kind of mindless. ", "is_fresh": 0, "author": ["Christy Lemire"]},
{"text": "A handsome but ridiculous film built around hollow and moronic human characters who demonstrate once and for all that natural selection does not apply to Hollywood.", "is_fresh": 0, "author": ["Mike Scott"]},
{"text": "Even though it is as predictable as the rising sun, it is still fun to watch. The action never lets up for a second, and the whole movie is a terrific, exciting summer action romp.", "is_fresh": 1, "author": ["Michael Heaton"]},
{"text": "The viewer might be left with a few decent frights, but at this point the mortal terror of Spielberg's original film has been diminished beyond repair.", "is_fresh": 0, "author": ["David Sims"]},
{"text": "The latest and arguably least of the series. At this point, you've seen one velociraptor, you've seen them all.", "is_fresh": 0, "author": ["Peter Rainer"]},
{"text": "In other words, there's nothing in \"Jurassic World: Fallen Kingdom\" that you haven't seen before, other than the third of the movie that finds the dinosaurs locked inside cages so small they can barely move, which isn't very exciting.", "is_fresh": 0, "author": ["Michael Smith"]},
{"text": "Another uninspired ride down dino memory lane.", "is_fresh": 0, "author": ["James Verniere"]},
{"text": "This 'World' of incredibly silly dialogue, dumb villains and absurd plot points deserves to follow the B-movie dinosaurs that dominate to complete and total extinction. But, don't count on it: The next 'Jurassic' already has a 2021 opening date.", "is_fresh": 0, "author": ["John Urbancich"]},
{"text": "If it all sounds calculated, that's how it plays, although the film is peppier than the first Jurassic World. ", "is_fresh": 0, "author": ["Robert Horton"]},
{"text": "At this point in the seemingly never-ending Jurassic film franchise, it can safely be said that humans are idiots and they should just let the dinosaurs have the planet.", "is_fresh": 0, "author": ["Rain Jokinen"]},
{"text": "This uninspired sequel extensively rehashes what's come before and teases what's ahead without providing much incentive to invest in what's currently on the screen.", "is_fresh": 0, "author": ["Todd Jorgenson"]},
{"text": "Fallen Kingdom is bad. It's really bad. And some of you are going to love it.", "is_fresh": 0, "author": ["Leigh Monson"]},
{"text": "What follows is the standard \"good humans vs. bad humans\" trope with a healthy dash of \"unrestrained capitalism is evil\" for seasoning. ", "is_fresh": 1, "author": ["Brandon Judell"]},
{"text": "Despite some good jump scares, Jurassic World: Fallen Kingdom is irritatingly derivative of every preceding film in this franchise. ", "is_fresh": 0, "author": ["Roxana Hadadi"]},
{"text": "Somehow it takes all the childhood wonder that Jurassic Park encapsulated so perfectly and forgets it, leaving behind the fossilizing bones of a behemoth that once ruled many years ago.", "is_fresh": 0, "author": ["Matthew Razak"]},
{"text": "One thing you can say about this soupy sequel: The filmmakers leave very little to chance. ", "is_fresh": 1, "author": ["Piers Marchant"]},
{"text": "The best entries in the franchise elicit a genuine sense of wonder. The only wonder on display here is wondering how things turned out so terribly dull.", "is_fresh": 0, "author": ["Christopher Lawrence"]},
{"text": "The dinosaurs are still clomping and snarling and hurling each other around, desperately attempting to distract us from the fact that digital dinos haven't actually been that big a deal for many years.", "is_fresh": 0, "author": ["Kurt Loder"]},
{"text": "It should make for a satisfying sequel to 2015's \"Jurassic World\" and a worthwhile entry to a series that has admittedly struggled to match the quality of that first '93 film.", "is_fresh": 1, "author": ["Josh Terry"]},
{"text": "Feels more like one of those off-brand, cheapo sequels from the 1980s than a modern franchise behemoth. This might be the shoddiest-looking $170 million movie I've ever seen.", "is_fresh": 0, "author": ["Sean Burns"]},
{"text": "The plot's generic and there's too much time spent on the human villain who if he had a mustache would have been twirling it. ", "is_fresh": 0, "author": ["Rebecca Murray"]},
{"text": "Subtlety is not this movie's high point. ", "is_fresh": 1, "author": ["Phil Villarreal"]},
{"text": "This is without question the best \"Jurassic Park\" sequel - smart, scary, and even emotionally powerful.", "is_fresh": 1, "author": ["Matthew Rozsa"]},
{"text": "Stop trying to save these dinosaurs.", "is_fresh": 0, "author": ["Sonny Bunch"]},
{"text": "As brainless summer-escapism movies go, this one can't go fast enough.", "is_fresh": 0, "author": ["Rex Reed"]},
{"text": "Prepare for typical 'Jurassic Park' action, tinged with the dark humor of men and women at risk of losing their limbs and lives. Bring the family. ", "is_fresh": 1, "author": ["Steve Crum"]},
{"text": "The wow factor of the \"Jurassic Park\" series is long gone, replaced by a routine sense of tedium. Close the park for good already.", "is_fresh": 0, "author": ["Adam Graham"]},
{"text": "Like almost every other major studio film this summer, Fallen Kingdom plays dumb, and happily.", "is_fresh": 0, "author": ["Barry Hertz"]},
{"text": "It raises some interesting questions, all the while providing the requisite thrills from volcanoes, runaway dinosaurs, and duplicitous humans. ", "is_fresh": 1, "author": ["Daniel M. Kimmel"]},
{"text": "Great visuals and fun action get devoured by a lazy, copy/paste story. [Full review in Spanish]", "is_fresh": 0, "author": ["Fico Cangiano"]},
{"text": "As derivative as Fallen Kingdom is, it's still a step up from its immediate ancestor.", "is_fresh": 0, "author": ["Chris Klimek"]},
{"text": "Fallen Kingdom leans heavily on action while shortchanging build up.", "is_fresh": 0, "author": ["Robert Denerstein"]},
{"text": "J.A. Bayona does a fine job of blending Jaws' people-chomping with sweetness.", "is_fresh": 1, "author": ["Tim Appelo"]},
{"text": "Get ready for #6, \"Jurassic World: Electric Blue-galoo.\"", "is_fresh": 1, "author": ["Nell Minow"]},
{"text": "After a somewhat jerky start, Bayona manages to keep things moving nicely.", "is_fresh": 1, "author": ["Chris Knight"]},
{"text": "A museum tour of past thrills... At this point even the thrill kills have lost their shiver, objectively less frightening than a bucket of fried chicken parts.", "is_fresh": 0, "author": ["Liam Lacey"]},
{"text": "Turn your brain off, lower your expectations, and you'll survive it just fine.", "is_fresh": 0, "author": ["Anthony Ray Bench"]},
{"text": "The scattershot quality is crazy-making, but still entertaining if you keep your expectations in check.", "is_fresh": 1, "author": ["Joe Morgenstern"]},
{"text": "All I really took from Jurassic World: Fallen Kingdom is proof - again - that all the money, on-screen talent and CGI wizardry in Hollywood doesn't add up to a hill of beans without a decent story to tell and a reason to exist.", "is_fresh": 0, "author": ["Graeme Tuckett"]},
{"text": "Other than that, between the big bites and sudden frights, there ain't too much to be remembered past the closing credits.", "is_fresh": 0, "author": ["Leigh Paatsch"]},
{"text": "It wouldn't be a surprise to discover that the film wasn't based on a script but a schematic, a blueprint for everything Hollywood desires in popcorn-crunching entertainment during the dog days.", "is_fresh": 1, "author": ["Cary Darling"]},
{"text": "Not worthy of extinction but clearly not as good as it could and should have been with a greater level of imagination and creativity applied to it. (Full Content Review for Parents - Violence, Profanity, etc. - also Available)", "is_fresh": 0, "author": ["Jim Judy"]},
{"text": "[T]he filmmakers can go through the motions again ... but for the first time in the 25-year-old franchise, it seems like folly to do so.", "is_fresh": 0, "author": ["Mark Dujsik"]},
{"text": "I just know that it throws everything at the wall, and that it's a blessing more of it sticks than doesn't.", "is_fresh": 1, "author": ["Angie Han"]},
{"text": "Like an ancient volcano thundering to life, the \"Jurassic\" realm keeps roaring onto film screens with unexpected energy. The fifth episode in the series, \"Jurassic World: Fallen Kingdom,\" is the latest and arguably greatest of all.", "is_fresh": 1, "author": ["Colin Covert"]},
{"text": "Like his other work, Jurassic World: Fallen Kingdom is not a great movie. But it's a more inventive bit of ridiculousness than its nostalgia-minded predecessor.", "is_fresh": 1, "author": ["Jesse Hassenger"]},
{"text": "It's time for these dinos to become extinct again.", "is_fresh": 0, "author": ["Peter Howell"]},
{"text": "The film feels like a placeholder, like it was made just to make the next one. ", "is_fresh": 0, "author": ["Chris Stuckmann"]},
{"text": "Frustrating and, at times, nonsensical to the extreme, \"Jurassic World: Fallen Kingdom\" fails to capitalize on the promise hinted at with the last flawed, but fun, installment. ", "is_fresh": 0, "author": ["Jonathan W. Hickman"]},
{"text": "The awe and wonder of dinosaurs come back to life has turned into the schlock and exploitation of a bargain-bin creature feature.", "is_fresh": 0, "author": ["Josh Bell"]},
{"text": "[It's] is a movie that pounds us with a pretentious, nearly operatic score while indulging in B-movie clich\u00e9s and calling for the main characters to make idiotic decisions just to keep the story rolling.", "is_fresh": 0, "author": ["Richard Roeper"]},
{"text": "An even goofier sequel that'll either keep this saga a global phenomenon or run it into the ground.", "is_fresh": 1, "author": ["Chris Bumbray"]},
{"text": "Another \"Jurassic\" flick wasn't necessary, but it's a fantastic ride all the same.", "is_fresh": 1, "author": ["Calvin Wilson"]},
{"text": "Barely fresh. A talented cast is wasted in a total rehash of stuff we've seen in the three other sequels. Jeff Goldblum's Ian Malcolm says let the Dinos die. Not a bad idea. ", "is_fresh": 1, "author": ["Gary Wolcott"]},
{"text": "Although the script is by Colin Trevorrow and Derek Connolly (co-writers of the first Jurassic World), [director] J.A. Bayona (The Orphanage, The Impossible) makes \"his\" Jurassic movie. [Full review in Spanish]", "is_fresh": 1, "author": ["Pablo A. Scholz"]},
{"text": "His mastery of tone, visuals, pacing, and theme elevate what should have been a disaster into something worth watching and, astonishingly, sets the stage for a relevant sequel.", "is_fresh": 1, "author": ["J.R. Kinnard"]},
{"text": "Not even the dinosaurs themselves stand out on this occasion. [Full review in Spanish]", "is_fresh": 0, "author": ["Emmanuel B\u00e1ez"]},
{"text": "It's an entertaining romp with plenty of interesting ideas, but little in the way of genuine tension.", "is_fresh": 1, "author": ["Dominic Corry"]},
{"text": "Go team T-Rex! Who needs humans, anyway? Dumb, thy name is Jurassic.", "is_fresh": 0, "author": ["Christopher Llewellyn Reed"]},
{"text": "Not even [director J.A.] Bayona's efforts can quite overcome the fact that Jurassic Park: Fallen Kingdom is a painfully unnecessary extension of a franchise that has been creatively extinct for years.", "is_fresh": 0, "author": ["Peter Sobczynski"]},
{"text": "As for Bayona, he's clearly picking up a paycheck, but that doesn't mean he still can't stage some crackerjack moments overflowing in visual ingenuity and bristling in viscerally unsettling elegance.", "is_fresh": 1, "author": ["Sara Michelle Fetters"]},
{"text": "Yet while the previous film distinguished itself in part by making its dinosaurs bigger and badder, the latest trip to \"Jurassic World\" merely manages to make them bigger -- and worse.", "is_fresh": 0, "author": ["Brian Lowry"]},
{"text": "Jurassic World: Fallen Kingdom has fun moments, stylish sequences and cool imagery but is ultimately undone and undercut by a script that has no emotional weight and makes no logical sense.", "is_fresh": 0, "author": ["Rob Dean"]},
{"text": "it is better than its predecessor, Bayona's Gothic sensibilities giving his film some creepy classicism in its second half.", "is_fresh": 0, "author": ["Laura Clifford"]},
{"text": "While it's got its faults, \"Fallen Kingdom\" provides plenty of thrills.", "is_fresh": 1, "author": ["Ross Raihala"]},
{"text": "Building on the scope and fantasy sequences of his previous work in A Monster Calls, Bayona proves himself to be a dynamic visual director, something sorely missing from the first entry in the trilogy.", "is_fresh": 1, "author": ["Matthew Monagle"]},
{"text": "Look, usually blockbusters and sequels to blockbusters and blockbuster reboots and sequels to blockbuster reboots are just bland, but Jurassic World: Fallen Kingdom f---ing GOES FOR IT.", "is_fresh": 1, "author": ["Erik Henriksen"]},
{"text": "Here, the door is flung wide open, leaving almost nothing to the imagination.", "is_fresh": 0, "author": ["Brian Thompson"]},
{"text": "The real scene stealer, though, is the Stygimoloch, a head-banging dinosaur with an unusually large noggin who comes through in the clutch. Unlike the movie, the Stygimoloch at least is boneheaded for a reason.", "is_fresh": 0, "author": ["Dana Barbuto"]},
{"text": "The film commits the rookie horror movie mistake of equating suffering with fear. We the audience pay the price.", "is_fresh": 0, "author": ["Rob Vaux"]},
{"text": "Little dinos, big dinos, sad dinos, scary dinos, angry dinos, rampaging dinos, even a crying dino. If you come for the creatures, you'll definitely leave with a paleo pallet-full.", "is_fresh": 1, "author": ["Neil Pond"]},
{"text": "The only moments where the film tries to do something of consequence with the plot, tying back (albeit barely) into the gene research drama that kicked off the series, end up being pretty dumb.", "is_fresh": 0, "author": ["Britton Peele"]},
{"text": "Bayona and his writers wanted to give audiences a different kind of monster movie. That they did.", "is_fresh": 1, "author": ["Michael Phillips"]},
{"text": "This newest entry in the \"Jurassic\" series is a pretty good dinosaur movie, entertaining most of the way.", "is_fresh": 1, "author": ["Mick LaSalle"]},
{"text": "Fallen Kingdom is so committed to thunderous spectacle that it fails to capture the poetry of these beasts in all their spiky, scaly, long-necked wonder. They deserve better.", "is_fresh": 0, "author": ["Stephanie Zacharek"]},
{"text": "It's enough for a fun fright night at the movies but lacks anything else: character, mystery, wonder, danger. The film's a rush for an audience that only wants the high.", "is_fresh": 1, "author": ["Ty Burr"]},
{"text": "Kids who like having the life scared out of them will especially enjoy the bedroom scene in this film, which appears to have been designed from universal childhood nightmares about monsters in the closet. ", "is_fresh": 1, "author": ["Jim Schembri"]},
{"text": "The most fun is had when the \"bad guys\" get their due --- in very interesting ways. ", "is_fresh": 1, "author": ["Jeanne Kaplan"]},
{"text": "From the exceptional special effects, to Oscar recipient Michael Giacchino's exciting score, to a cast of characters to care about, the film is a sequel to embrace. ", "is_fresh": 1, "author": ["David Kaplan"]},
{"text": "The movie is stupid, but it is a success.", "is_fresh": 1, "author": ["Jordan Hoffman"]},
{"text": "Fallen Kingdom is pretty hardcore.", "is_fresh": 1, "author": ["Fred Topel"]},
{"text": "Fallen Kingdom offers enough twists that give the film an air of freshness when accompanied by taut, rapid-paced directing from J.A. Bayona.", "is_fresh": 1, "author": ["George Thomas"]},
{"text": "Jurassic World: Fallen Kingdom is more entertaining than its predecessor by virtue of its action and better special effects, but nothing distracts from a stupid and illogical script. [Full Review in Spanish]", "is_fresh": 0, "author": ["Benjam\u00edn Harguindey"]},
{"text": "I want to see dinosaurs smash things and eat people as much anyone. And \"Fallen Kingdom\" has this. But I also found myself not engaged, and even occasionally bored. And one should never be bored when watching a dinosaur movie.", "is_fresh": 0, "author": ["Brad Keefe"]},
{"text": "Eventually it spirals into \"gothic horror, except with dinosaurs,\" a concept I personally can get behind.", "is_fresh": 1, "author": ["Alissa Wilkinson"]},
{"text": "The visual effects are typically fine in 'Fallen Kingdom,' but the thrill is gone. ", "is_fresh": 0, "author": ["Frank Swietek"]},
{"text": "Let's hope life will find a way to redeem Fallen Kingdom.", "is_fresh": 0, "author": ["Robert Kojder"]},
{"text": "It's a crowd-pleasing popcorn flick that's fun to see with a vocal audience.", "is_fresh": 1, "author": ["Scott Chitwood"]},
{"text": "It makes a few gestures toward \"Planet of the Apes\"-style apocalypticism, attempts a bit of tongue-in-cheeky humor and phones in the rest.", "is_fresh": 0, "author": ["A.O. Scott"]},
{"text": "Does best what other Jurassic Park movies just talked about, which is the fact that these dinosaurs are not monsters. They're just animals. ", "is_fresh": 1, "author": ["Jeremy Jahns"]},
{"text": "It halfheartedly attempts something that engages our minds, only to abandon it in favor of a creature feature that borderline insults our intelligence.", "is_fresh": 0, "author": ["Alan Zilberman"]},
{"text": "It commits the worst possible sin: It makes dinosaurs boring.", "is_fresh": 0, "author": ["Travis M. Andrews"]},
{"text": "'Fallen Kingdom' is a clich\u00e9-ridden succession of useless and superfluous expository and hoary dialogue interspersed with formulaic sequences of narrow escapes and close calls.", "is_fresh": 0, "author": ["Bob Bloom"]},
{"text": "...quadruples down on scenes of forced wonder and emotional manipulation.", "is_fresh": 0, "author": ["Josh Larsen"]},
{"text": "A dinosaur jumps away from an explosion in this movie. Every scene needed a dinosaur jumping away from an explosion - at least in spirit.", "is_fresh": 1, "author": ["Matt Patches"]},
{"text": "The movie too often defaults to people running around screaming - which is, to be fair, the backbone of this franchise, but it gets awfully old here.", "is_fresh": 0, "author": ["Moira MacDonald"]},
{"text": "J.A. Bayona's film never figures out what it wants to be, casting about for a coherent tone. Thanks in large part to Derek Connolly and Colin Trevorrow's script, it doesn't find one.", "is_fresh": 0, "author": ["Bill Goodykoontz"]},
{"text": "Director J.A. Bayona cooks up one socko, armrest-clenching situation after the next.", "is_fresh": 1, "author": ["Dustin Putman"]},
{"text": "Not nearly enough people are eaten by dinosaurs.", "is_fresh": 0, "author": ["Joe Gross"]},
{"text": "It's more appetizer than meal.", "is_fresh": 0, "author": ["Gary Thompson"]},
{"text": "Bayona knows why audiences flock to a \"Jurassic\" movie and the best thing he does is create a strong empathy for the exquisitely detailed computer-generated dinos.", "is_fresh": 1, "author": ["Brian Truitt"]},
{"text": "Whatever you might have to say about Jurassic World: Fallen Kingdom, at least it picks a more consistent mode for itself. ", "is_fresh": 0, "author": ["Dominick Suzanne-Mayer "]},
{"text": "Despite everything I didn't like about \"Fallen Kingdom,\" I'll be first in line to see part three.", "is_fresh": 0, "author": ["Jason Guerrasio"]},
{"text": "In what starts to feel like a 'meta' running joke (or admission of creative exhaustion), the characters keep stumbling upon the leftovers of the earlier films...", "is_fresh": 0, "author": ["Peter Canavese"]},
{"text": "We're willing to accept a lot for this movie, and all we ask in return is for it not to feel so much like a teaser for future movies. ", "is_fresh": 0, "author": ["Vincent Mancini"]},
{"text": "...It's a poor choice to keep making Jurassic Park movies that feel as soulless as this.", "is_fresh": 0, "author": ["Josh Spiegel"]},
{"text": "Fallen Kingdom isn't dino-myte. It's dino doo-doo.", "is_fresh": 0, "author": ["James Berardinelli"]},
{"text": "For those open to the limited storytelling scope of the franchise, the movie captures intensity and escapism with ease, finding Bayona quite skilled at arranging dinosaur and human peril.", "is_fresh": 1, "author": ["Brian Orndorf"]},
{"text": "To paraphrase the great and recently-returned Ian Malcolm, \"Retread finds a way.\"", "is_fresh": 1, "author": ["Travis Hopson"]},
{"text": "Three years after the Indominus Rex caused chaos, Jurassic World: Fallen Kingdom raises the stakes with moral questions of ethical behavior.", "is_fresh": 1, "author": ["Danielle Solzman"]},
{"text": "This story has run its course, but with his clear-eyed vision, J.A. Bayona is at least going to milk this milieu for all its worth.", "is_fresh": 0, "author": ["Jordan Raup"]},
{"text": "'Transformers' dull -- a summer bore that no matter how much it earns, fails to justify its existence. ", "is_fresh": 0, "author": ["Roger Moore"]},
{"text": "One day maybe we'll get something as outlandish as dinosaurs with guns, but for now the franchise is content to play it safe.", "is_fresh": 0, "author": ["Tony Stamp"]},
{"text": "The best thing \"Jurassic World: Fallen Kingdom\" has going for it is director J.A. Bayona, who takes a mediocre script by Derek Connolly and Colin Trevorrow and directs the living daylights out of it. ", "is_fresh": 1, "author": ["Katie Walsh"]},
{"text": "Jurassic Park is Melting in the Dark, But Chris Pratt and Bryce Dallas Howard Will Save the Day. ", "is_fresh": 1, "author": ["Leah Sydney"]},
{"text": "Bloodless, soulless, bereft of personality or idiosyncrasy, delivering only meticulously engineered thrills based on repeating what has worked in the past.", "is_fresh": 0, "author": ["Glenn Kenny"]},
{"text": "Sequel to the 2015 franchise revival wastes its stars and feels like a T. Rex-sized cashgrab. Why cast Pratt, that rare movie star with a comic's sense of mischief, and then reduce him to a pawn who runs around hitting his marks like a robot?", "is_fresh": 0, "author": ["Peter Travers"]},
{"text": "Fallen Kingdom understands that, as much as Jurassic Park has the shape of an action movie, its roots are in horror, and Bayona takes evident glee in drawing out his scares.", "is_fresh": 1, "author": ["Sam Adams"]},
{"text": "Jurassic World: Fallen Kingdom isn't so much gripping as passable. D\u00e9j\u00e0 vu has well and truly set in.", "is_fresh": 0, "author": ["Wenlei Ma"]},
{"text": "The dumbest Jurassic movie to date is also the funnest since the original Jurassic Park.", "is_fresh": 1, "author": ["Simon Miraudo"]},
{"text": "[Director J.A.] Bayona does some wonderful things with light, dark and shadow... but otherwise the attempt to shoehorn dinosaurs into a haunted house monster movie is an ill fit.", "is_fresh": 0, "author": ["Ali Gray"]},
{"text": "Fallen Kingdom ups the ante with a new, genetically enhanced super predator.", "is_fresh": 1, "author": ["Vicky Roach"]},
{"text": "All the heart-thumping familiarity should thrill longtime fans of this epic franchise - and frustrate anyone looking for a dynamic (dino-mic?) shakeup.", "is_fresh": 0, "author": ["Mara Reinstein"]},
{"text": "You'll have to admit that Jurassic World: Fallen Kingdom worked its magic in its own way, even if its aura doesn't have a long-lasting effect. ", "is_fresh": 1, "author": ["Dwight Brown"]},
{"text": "If this is the best the \"Jurassic\" series can manage, it's the real endangered species.", "is_fresh": 0, "author": ["Stephen Whitty"]},
{"text": "In the end, Fallen Kingdom is a pretty unnecessary movie, but it's a mostly enjoyable one.", "is_fresh": 1, "author": ["Travis Johnson"]},
{"text": "Fallen Kingdom is one of the better installments in this never-extinct film series. Lots of fun, and yes - do see it in IMAX!", "is_fresh": 1, "author": ["Staci Layne Wilson"]},
{"text": "An expertly manufactured hunk of corporate moviemaking whose success will mostly depend upon one's appetite for slow push-ins of astonished or terrified scientists.", "is_fresh": 0, "author": ["Mark Keizer"]},
{"text": "A madcap adventure that is a crowd pleaser best served after pizza and beer. ", "is_fresh": 1, "author": ["Louise Keller"]},
{"text": "Jurassic World: Fallen Kingdom is good old-fashioned summer entertainment, and it does a cunning job of setting up the next instalment.", "is_fresh": 1, "author": ["Nicholas Barber"]},
{"text": "A limp, mangled and dull mess, with its filmmakers forgetting what made the original such a magical experience.", "is_fresh": 0, "author": ["Joseph Walsh"]},
{"text": "A worthy addition to the franchise ... if you're already a fan of the series, then you're likely to go see this regardless of reviews, which is how it should be.", "is_fresh": 1, "author": ["Edward Douglas"]},
{"text": "If you're just looking for more massive dinosaurs causing havoc then this does what it says on the clawed tin.", "is_fresh": 1, "author": ["Ross Miller"]},
{"text": "Jurassic World: Fallen Kingdom is a nostalgic thriller for fans of the older franchises, and a great introduction into the story world for newcomers. ", "is_fresh": 1, "author": ["Jonita Davis"]},
{"text": "Chris Pratt and Bryce Dallas Howard play Cary Grant and Katherine Hepburn again with pleasant results... [Full Review in Spanish] ", "is_fresh": 1, "author": ["Luis Mart\u00ednez"]},
{"text": "And yet, the pervading sensation is unfortunately one of a film brand trapped within its own blueprint and unable to evolve.", "is_fresh": 0, "author": ["Hilary A White"]},
{"text": "J.A. Bayona's gothic flourishes suggest opioid hallucinations, and they're a welcome escape from the doldrums of the writing, but they seem at odds with the rest of the film.", "is_fresh": 0, "author": ["Josh Wise"]},
{"text": "But not even Pratt's powers of self-amusement last long in this halting sequel, which starts strong and seems to get smaller as it goes along.", "is_fresh": 0, "author": ["Tom Shone"]},
{"text": "I think this sequel did a damn good job with what it was given from that last movie.", "is_fresh": 1, "author": ["Mark Ellis"]},
{"text": "The movie was just okay...the military guys were so terrible, and everyone is so generic in it.", "is_fresh": 0, "author": ["Kristian Harloff"]},
{"text": "As for the chemistry, and indeed comedy, that Pratt and Howard shared first time around...you barely notice either this time.", "is_fresh": 0, "author": ["Matthew Bond"]},
{"text": "[Director] J.A. Bayona ends up composing a pastiche that weaves the Jurassic saga with The Orphanage, synthesized in the monster that ends up roaming by a huge and gloomy mansion at its leisure... [Full review in Spanish] ", "is_fresh": 0, "author": ["Juanma Ruiz"]},
{"text": "All in all, we [have] a perfectly enjoyable blockbuster... [Full review in Spanish]", "is_fresh": 1, "author": ["Jos\u00e9 Mart\u00edn"]},
{"text": "An enjoyable rehash of the series' narrative beats and an oddly shaped story with one eye set on establishing a far more ludicrous next instalment.", "is_fresh": 1, "author": ["Edmund Lee"]},
{"text": "Though there are some interesting genre flourishes, and a set piece involving a gorgeous, shadowy gothic mansion, this overlong instalment is merely serviceable.", "is_fresh": 0, "author": ["Simran Hans"]},
{"text": "A fun enough couple of hours but sadly, unless it just plays for fun next time, this series is now in the same kind of danger as its stars.", "is_fresh": 1, "author": ["Jamie East"]},
{"text": "The sense is of a once dominant futuristic franchise becoming ever more irretrievably ossified in the monster B-movie amber of the ancient cinematic past.", "is_fresh": 0, "author": ["Matthew Norman "]},
{"text": "Co-writers Colin Trevorrow (who directed last time) and Derek Connolly are evidently aware that for these films not to face extinction themselves, a lively undercurrent of wit is required.", "is_fresh": 1, "author": ["Brian Viner"]},
{"text": "J. A. Bayona's Fallen Kingdom is immensely more watchable than its predecessor, but it's still a pointless and visually exhausting chapter in a tired series.", "is_fresh": 0, "author": ["Tomris Laffly"]},
{"text": "Though peppered with well-crafted setpiece action, it's a largely perfunctory and senseless retread of Parks past. ", "is_fresh": 0, "author": ["Ed Whitfield"]},
{"text": "The self-awareness along with the on-screen charisma of all our protagonists is what makes this film such a joy to watch.", "is_fresh": 1, "author": ["Jamal-Dean Grootboom"]},
{"text": "Whenever any energy builds up, the film falls into its tired old patterns, resorting to either safety or danger at the last minute.", "is_fresh": 0, "author": ["Aakash Karkare"]},
{"text": "[Jurassic World: Fallen Kingdom] is a perfectly serviceable summer blockbuster with some roof-rattling action scenes and the occasional brain-teasing idea for good measure.", "is_fresh": 1, "author": ["Adam Sweeting"]},
{"text": "While Fallen Kingdom gets a little too frantic and busy for its own good late on, it's a worthy addition to the franchise and will surely earn a sequel.", "is_fresh": 1, "author": ["Paul Whitington"]},
{"text": "Bayona summons some creepy moments as our heroes are chased through the mansion's labyrinthine passages. Crucially there is also a sprinkling of humour.", "is_fresh": 1, "author": ["Andy Lea"]},
{"text": "Even for such a transparently commercial franchise, Jurassic World: Fallen Kingdom is a flimsy, cynical retread of better material.", "is_fresh": 0, "author": ["Gavia Baker-Whitelaw"]},
{"text": "One of the best replicates of [the originals] spirit. [Full Review in Spanish] ", "is_fresh": 1, "author": ["Alberto Corona"]},
{"text": "Bayona brings a sense of gothic glee. It's a different look for the series, but also a welcome change.", "is_fresh": 1, "author": ["Kim Newman"]},
{"text": "Dinosaurs are dangerous and people are greedy. Got that? It's the foundation of Fallen Kingdom and if that mantra sounds way too familiar (and obvious), it's the answer to why this film isn't better. By the two-thirds mark I was bored", "is_fresh": 0, "author": ["Leonard Maltin"]},
{"text": "The sense of wonder that such creatures as dinosaurs once walked the same planet as we now walk, which Spielberg channelled to such potent and lucrative effect, is gone.", "is_fresh": 0, "author": ["Tom Holland"]},
{"text": "Here's the thing, though: I'd watch the next one. These mechanical films are efficient at making people want more and this one's formula ends with an idea that is genuinely new.", "is_fresh": 1, "author": ["Jonathan Dean"]},
{"text": "Throughout [director J.A. Bayona's] career, he's excelled at building tension and creating atmospheric unease... But all too often, the script hinders the impact.", "is_fresh": 0, "author": ["Bryan Bishop"]},
{"text": "Jurassic World: Fallen Kingdom excels when it allows the real stars - the CGI dinosaurs - to shine, and roar louder than most of their predecessors.", "is_fresh": 1, "author": ["Neil Soans"]},
{"text": "Devoid of its milieu, the film kind of loses its punch.", "is_fresh": 0, "author": ["Devesh Sharma"]},
{"text": "Bayona may serve up the occasional poignant image, but much of the film feels like yet another try-hard tribute to Steven Spielberg's directorial ticks and tricks.", "is_fresh": 0, "author": ["Alistair Harkness"]},
{"text": "Jurassic World: Fallen Kingdom is a midnight movie that snuck into primetime billing, amplified itself in the process and came out boastfully committed to the sci-fi looney bin (in a most admirable way).", "is_fresh": 1, "author": ["Matt Donato"]},
{"text": "The evil masterminds behind the creatures' abduction just want to make a buck, and so does everybody responsible for Jurassic World: Fallen Kingdom. Such financial expediency isn't going to go extinct anytime soon.", "is_fresh": 0, "author": ["Tim Grierson"]},
{"text": "Hollywood finds a way. To keep telling the same stories over and over again, that is. There's too much going on in Fallen Kingdom, and yet somehow not enough, either. Still: dinosaurs!", "is_fresh": 1, "author": ["MaryAnn Johanson"]},
{"text": "The real hybrid here, however, is the movie itself. While more coherent than its 2015 predecessor, it stills feels lumpily composed of bits from other science-fiction and disaster films.", "is_fresh": 1, "author": ["John Lui"]},
{"text": "Even a handful of nice flourishes from director J.A. Bayona can't rescue [the] appallingly paced, nonsensical script.", "is_fresh": 0, "author": ["Christopher Machell"]},
{"text": "Jurassic World: Fallen Kingdom is a new low for the iconic series; extinction is the only cure. ", "is_fresh": 0, "author": ["Rohan Naahar"]},
{"text": "The most aggressively idiotic film in the series to date.", "is_fresh": 0, "author": ["Witney Seibold"]},
{"text": "Bayona directs with grace and a number of memorable set pieces combine tension and thrills in the right, delicate balance. but overall, these dinosaurs deserve so much better.", "is_fresh": 1, "author": ["Drew Taylor"]},
{"text": "After a first half that suggests franchise fatigue is setting in, Fallen Kingdom zooms in for some scarily good set-pieces.", "is_fresh": 1, "author": ["Jamie Graham"]},
{"text": "Overall, Jurassic World: Fallen Kingdom is a fun romp with some unusual new ideas...", "is_fresh": 1, "author": ["Huw Fullerton"]},
{"text": "The sequel to the hugely enjoyable Jurassic World has very little going for it beyond the usual special-effects wizardry.", "is_fresh": 0, "author": ["Kyle Smith"]},
{"text": "Two hours of running and screaming, or watching others do so, are just what we want from popular cinema in June. Enter Jurassic World: Fallen Kingdom.", "is_fresh": 1, "author": ["Nigel Andrews"]},
{"text": "Fallen Kingdom clears the extraordinarily low bar of being better made than its predecessor, but screenwriter and executive producer Colin Trevorrow crafts a follow-up to his own capital-b bad film with a story that's even broader and dumber.", "is_fresh": 0, "author": ["Todd Gilchrist"]},
{"text": "The movie plays like a strenuous imitation of Steven Spielberg instead of the real deal.", "is_fresh": 0, "author": ["David Edelstein"]},
{"text": "Fallen Kingdom is a gorgeous, mostly enjoyable blockbuster that looked great in IMAX. That it doesn't cash all the checks it tries to write is why it's merely a good movie instead of a great one.", "is_fresh": 1, "author": ["Scott Mendelson"]},
{"text": "It's nice to have Goldblum back, even if his role is basically a cameo.", "is_fresh": 1, "author": ["Rich Cline"]},
{"text": "Anyone who goes to see Jurassic World: Fallen Kingdom looking for a good time in the dark with some dinosaurs is in for a treat. It's outrageously entertaining and an excellent addition to the dinosty.", "is_fresh": 1, "author": ["John Byrne"]},
{"text": "A two-hour roller-coaster trip, Jurassic World: Fallen Kingdom is worth a ride.", "is_fresh": 1, "author": ["Rashid Irani"]},
{"text": "It's not a perfect film, and it misses some opportunities, but it's a big improvement on Jurassic World, and is the best film in the franchise since The Lost World.", "is_fresh": 1, "author": ["Abigail Chandler"]},
{"text": "Fallen Kingdom doesn't quite re-engineer the franchise, but it does move it along some interesting directions that open a new world of possibilities.", "is_fresh": 1, "author": ["Iain McNally"]},
{"text": "Fallen Kingdom is a viciously entertaining treat - one that embodies the values that have helped sustain this franchise to five films and counting...", "is_fresh": 1, "author": ["Rob Carnevale"]},
{"text": "Forget evolution, this franchise needs a hard reset.", "is_fresh": 0, "author": ["Adam Woodward"]},
{"text": "The film is often self-aware - as mega-budget franchises go this is one of the better ones, and the casting certainly helps.", "is_fresh": 1, "author": ["Emma Simmonds"]},
{"text": "Fallen Kingdom tries out a few new ideas. Butthe sense of wonder and awe is missing this time around, and Jeff Goldblum's much teased appearance is a let down.", "is_fresh": 1, "author": ["Matthew Turner"]},
{"text": "Deliciously daft and ridiculously entertaining... the adventure is like a Greatest Hits of Jurassic Park.", "is_fresh": 1, "author": ["Jo Berry"]},
{"text": "The fifth installment injects much needed terror into the dinosaur franchise. Director J.A. Bayona adds a visceral element that elevates the film above its predecessor. ", "is_fresh": 1, "author": ["Julian Roman"]},
{"text": "Jurassic World: Fallen Kingdom is the Jurassic Park sequel that I have been waiting 25 years to see.", "is_fresh": 1, "author": ["Scott Menzel"]},
{"text": "The series continues to move away from the depth, realism and magic of the original, but as a diehard fan of the franchise, Fallen Kingdom still offers up a satisfying ride set in this franchise.", "is_fresh": 1, "author": ["Perri Nemiroff"]},
{"text": "J.A. Bayona succeeds in taking the reigns of the Jurassic World franchise. ", "is_fresh": 1, "author": ["Ashley Menzel"]},
{"text": "Its a...pleasing surprise, that a relatively low-profile Spanish director, JA Bayona...has brought this branded corpse back from the dead with a furiously entertaining jab of creative adrenaline.", "is_fresh": 1, "author": ["Kevin Maher"]},
{"text": "Exactly why would anyone visit a dinosaur-infested island for a fifth time, when all four previous excursions had ended in limb-gobbling pandemonium?", "is_fresh": 0, "author": ["Robbie Collin"]},
{"text": "These movies will go on and on, but some of us are still waiting for them to evolve.", "is_fresh": 0, "author": ["Justin Chang"]},
{"text": "\"Jurassic World: Fallen Kingdom\" gets away with its unoriginality for the most part, but this franchise's desperation is starting to show. It's time to evolve or go extinct.", "is_fresh": 1, "author": ["Lindsey Bahr"]},
{"text": "As a lava-spewing, raptor-training, teeth-gnashing, monster-in-the-basement creature feature, it has a certain freshness.", "is_fresh": 1, "author": ["Jesse Hassenger"]},
{"text": "The end results are unsatisfying to say the least, muddled at best and egregious at worst.", "is_fresh": 0, "author": ["Meg Downey"]},
{"text": "The sheer absurdity is unappealing, as a film that is risible at best.", "is_fresh": 0, "author": ["Stefan Pape"]},
{"text": "This sequel takes what goodwill we had, douses it in kerosene, lights a match, and laughs as the flames burn higher and higher.", "is_fresh": 0, "author": ["Courtney Howard"]},
{"text": "A fresh, funny bite of popcorn entertainment.", "is_fresh": 1, "author": ["Chris Hunneysett"]},
{"text": "This is a summer popcorn movie with all the trimmings - action, cheesy in-jokes, startling visual effects and a storyline with a moralising, eco-friendly subtext.", "is_fresh": 1, "author": ["Geoffrey Macnab"]},
{"text": "The visual effects are beyond spectacular, and the dinos are the star players, especially the new and downright scary hybrid.", "is_fresh": 1, "author": ["Joanne Soh"]},
{"text": "There will be a sequel. The ending makes that abundantly clear. But in all honestly, I'm rooting for one. Because Fallen Kingdom kind of feels like one big set-up for a much more complex, nuanced, and interesting premise (and no hybrid dinosaurs!).", "is_fresh": 1, "author": ["Anne Cohen"]},
{"text": "In making even the most vicious creatures more than just hungry, hungry dinos, the aging franchise has rediscovered its inner child. And ours.", "is_fresh": 1, "author": ["Johnny Oleksinski"]},
{"text": "Maybe we've just become so desensitized to seeing dinosaurs running around and eating people that we need something new and bigger to impress us. ", "is_fresh": 0, "author": ["Germain Lussier"]},
{"text": "The new Jurassic World is a messy menagerie of dino-related quirks and twists, a boisterous but muddled franchise-iteration which reshuffles all the old constituent plot points. ", "is_fresh": 0, "author": ["Peter Bradshaw"]},
{"text": "It's sad to say this after such a fun, adventurous return to the franchise in Jurassic World, but Fallen Kingdom is not the sequel we were hoping for.", "is_fresh": 0, "author": ["George Simpson"]},
{"text": "Despite some familiar echoes, Fallen Kingdom also takes big, brave, irreversible strides, deriving tantalising logical conclusions from Michael Crichton's premise and setting up a brave new World for this trilogy's final chapter.", "is_fresh": 1, "author": ["Ben Travis"]},
{"text": "Jurassic World: Fallen Kingdom is a fun ride full of adventure - and scares - that builds on the mythology of Jurassic Park in very interesting ways.", "is_fresh": 1, "author": ["Molly Freeman"]},
{"text": "This fun, pacy addition to the dino disaster franchise doesn't do much that's particularly new -- though what it does, it does with a fair whack of panache.", "is_fresh": 1, "author": ["Philip De Semlyen"]},
{"text": "The only characters who behave rationally are the dinosaurs.", "is_fresh": 0, "author": ["Matt Singer"]},
{"text": "This latest dutiful and earnest installment... [is] like a roller coaster that you've ridden many times.", "is_fresh": 1, "author": ["David D'Arcy"]},
{"text": "It all just hangs there like so much else in this movie, undeveloped concepts that could one day be turned into a genuinely exciting, surprising film. Jurassic World: Fallen Kingdom is, sadly, not it.", "is_fresh": 0, "author": ["Bilge Ebiri"]},
{"text": "There is a little bit of the wonder and joy that made the original so special embedded deep within Fallen Kingdom, which I credit to Bayona, whose primary drive has always been to sprinkle just enough emotion into the stories he tells.", "is_fresh": 1, "author": ["Emma Stefansky"]},
{"text": "Its opening plays less like a scene from a Spielbergian classic, such as Jurassic Park or Jaws, and more like an effectively directed and higher budgeted sequence out of Jaws 3D.", "is_fresh": 0, "author": ["David Crow"]},
{"text": "As we know from The Impossible, [director J.Al.] Bayona owes his reputation to how well it he takes on Hollywood styles. It is logical, then, that his work behind the camera fares well. [Full review in Spanish]", "is_fresh": 1, "author": ["Yago Garc\u00eda"]},
{"text": "I did not think I could hate a Jurassic Park movie more than I hated the last (Jurassic World). But here we are. Trevorrow found away.", "is_fresh": 0, "author": ["Kristy Puchko"]},
{"text": "It's a brave choice to literally blow up everything that's come before but one that definitely pays off in Fallen Kingdom.", "is_fresh": 1, "author": ["Gav Murphy"]},
{"text": "Jurassic World: Fallen Kingdom is a high-class summer blockbuster, with some unexpected emotions, a heap of the action that one would expect from such a film, and a dash of surprisingly dark moments.", "is_fresh": 1, "author": ["Mike Reyes"]},
{"text": "Fallen Kingdom sticks to the series' dependable template.", "is_fresh": 1, "author": ["Rafer Guzman"]},
{"text": "A thrill ride that finally escapes the theme park.", "is_fresh": 1, "author": ["John DeFore"]},
{"text": "The franchise's latest entry takes its cues from the knuckleheaded plotting and CGI overload of Jurassic World, where super-sized dinos face dumb capitalists and bleeding-heart environmentalists toil to save the day. We all know the drill.", "is_fresh": 0, "author": ["Eric Kohn"]},
{"text": "The initial joy of Fallen Kingdom's action extravaganza is tempered by the smaller-scale feel of its second half, even as a strong ending suggests another evolution in this storyline. All of which balances out into a perfectly enjoyable franchise entry...", "is_fresh": 1, "author": ["Matt Chapman"]},
{"text": "The wonder has long gone. But there is, in such sequences, still some fun to be had. That is enough to be going on with.", "is_fresh": 1, "author": ["Donald Clarke"]},
{"text": "The less you try to dissect it, the more you'll enjoy it.", "is_fresh": 1, "author": ["Chris Nashawaty"]},
{"text": "But at least Fallen Kingdom considers the idea of letting go, making it a more thoughtful and interesting film than its immediate predecessor.", "is_fresh": 1, "author": ["Richard Lawson"]},
{"text": "The first \"Jurassic World\" was, quite simply, not a good ride. \"Fallen Kingdom\" is an improvement, but it's the first \"Jurassic\" film to come close to pretending it isn't a ride at all, and as a result it ends up being just a passable ride.", "is_fresh": 1, "author": ["Owen Gleiberman"]},
{"text": "How hard is it to make running away from a rampaging dinosaur look at least a little exciting?", "is_fresh": 0, "author": ["Dan Callahan"]}
]