[
{"reviews_count": "184", "title": "Let The Right One In", "avg_audience_rating": "4.2", "rotten_count": "4", "tomatometer": "98", "audience_score": "90", "avg_critic_rating": "8.3", "fresh_count": "180", "user_ratings_count": "61,080"},
{"text": "I'm not exaggerating when I say that it's probably the best vampire movie in the last 75 years... Let the Right One In takes its sting from the fact that the one you let in your door may, in the long run, not be so right after all.", "is_fresh": 1, "author": ["John Powers"]},
{"text": "Who better to sympathize with during the lonely alienation common to adolescence than the equally forlorn existence of a teenage vampire?", "is_fresh": 1, "author": ["Daniel Kasman"]},
{"text": "Every drop of blood is well-earned, and often well deserved.", "is_fresh": 1, "author": ["Dorothy Woodend"]},
{"text": "Let the Right One In will please horror fans who revel in the gritty, messy aspects of vampire love inside a solid screenplay. ", "is_fresh": 1, "author": ["Julie Washington"]},
{"text": "Let the Right One In, perhaps more subtly than its predecessors in the sub-genre, perfectly captures the nature of love as a delicate and dangerous balancing act.", "is_fresh": 1, "author": ["Tina Park"]},
{"text": "A strange, stunning and surprisingly sweet Swedish film about childhood friendship and first love.", "is_fresh": 1, "author": ["Barrett Hooper"]},
{"text": "A smart and beautifully realized feature from Sweden.", "is_fresh": 1, "author": ["Katherine Monk"]},
{"text": "Alfredson's light touch adds soulful delicacy and a certain ambiguity to the proceedings, making this a horror movie more likely to prompt tears than screams.", "is_fresh": 1, "author": ["Jamie Russell"]},
{"text": "Sinister but gorgeous and compelling.", "is_fresh": 1, "author": ["Carina Chocano"]},
{"text": "A remarkably moving horror tale, about a pale, bullied twelve-year-old boy (K\u00e5re Hedebrant) and his first love (Lina Leandersson), who happens to be a vampire.", "is_fresh": 1, "author": ["Bruce Diones"]},
{"text": "Pre-adolescent angst has rarely been as eerie or unsettlingly honest as it is in director Tomas Alfredson's stylish, psychologically complex tale,", "is_fresh": 1, "author": ["Jason Buchanan"]},
{"text": "Let the Right One In eschews all the crap that has plagued vampire films for years. This is a dark, serious and twisted film. ", "is_fresh": 1, "author": ["Adam Ross"]},
{"text": "One of the best foreign language films of the year", "is_fresh": 1, "author": ["Emanuel Levy"]},
{"text": "Let the Right One In is a shot in the arm for the anaemic vampire movie genre, a thrilling transfusion of fresh blood.", "is_fresh": 1, "author": ["Jason Best"]},
{"text": "Swedish vampire tale is much grislier than Twilight.", "is_fresh": 1, "author": ["Charles Cassady"]},
{"text": "As singular as any vampire film.", "is_fresh": 1, "author": ["Rob Humanick"]},
{"text": "The film is a bevy of contradictions - beauty and horror, young love and violence, innocence and guilt. The fact that it works at all is impressive. The fact that it's a mind-blowing sensory experience is inexplicable.", "is_fresh": 1, "author": ["Simon Miraudo"]},
{"text": "Let the Right One In is a slow burning film with an engulfing atmosphere that leaves you feeling moved and mesmerised long after the credits have finished.", "is_fresh": 1, "author": ["Thomas Caldwell"]},
{"text": "A remarkable vampire film, as raw and frightening as it is tender and intelligent.", "is_fresh": 1, "author": ["Gerald Peary"]},
{"text": "Lovelier than most bloodsucker flicks, but it doesn't quite transcend its well-chewed genre.", "is_fresh": 1, "author": ["Mark Jenkins"]},
{"text": "Exquisitely crafted.", "is_fresh": 1, "author": ["Laura Kern"]},
{"text": "A masterful blend of macabre storytelling, coming-of-age frankness, some shocking gore, and eerie melding of quiet sounds and incomplete imagery, as well as some subtle gender-line exploration.", "is_fresh": 1, "author": ["Ken Eisner"]},
{"text": "That rare breed of modern horror that goes for the throat...", "is_fresh": 1, "author": ["Felix Vasquez Jr."]},
{"text": "Calling to mind the work of Anne Rice and Stephen King, atmospheric adaptation of Swedish author John Ajvide Lindqvist's bestseller is well directed by his countryman Tomas Alfredson.", "is_fresh": 1, "author": ["Alissa Simon"]},
{"text": "Una pel\u00edcula fascinante, bell\u00edsima en su formulaci\u00f3n visual y sonora, y narrada con sorprendente precisi\u00f3n. M\u00e1s una historia de amor y amistad entre dos seres solitarios que una pel\u00edcula de vampiros, definitivamente no recomendable para quienes busquen al", "is_fresh": 1, "author": ["Enrique Buchichio"]},
{"text": "For every moment of bloodshed [and] special effects ... there are subtleties and surprises that transcend this exhausted genre.", "is_fresh": 1, "author": ["Jeffrey Overstreet"]},
{"text": "Svim horor-fanovima koji ne podnose Sumrak ovaj film %u0107e do%u0107i kao melem na ljutu ranu", "is_fresh": 1, "author": ["Dragan Antulov"]},
{"text": "Acaba funcionando tamb\u00e9m como uma contundente alegoria sobre a imprevisibilidade da natureza humana, que traz, em sua imensa diversidade, monstros infinitamente piores do que aqueles com longos caninos.", "is_fresh": 1, "author": ["Pablo Villa\u00e7a"]},
{"text": "this is a moody, original take on the vampire film. ... Anyone interested in vampire films or relationship films will enjoy this fantastic picture", "is_fresh": 1, "author": ["Sonny Bunch"]},
{"text": "If Twilight is the Vampire film for starry-eyed teenage girls, Let the Right One In is the Vampire film for everyone else.", "is_fresh": 1, "author": ["Anders Wotzke"]},
{"text": "click for full review", "is_fresh": 1, "author": ["Joseph Proimakis"]},
{"text": "Anyone who's ever felt marginalised will find their heart captured by this subtle, touching, highly original take on vampire mythology.", "is_fresh": 1, "author": ["Ian Berriman"]},
{"text": "The body count piles up, but it's the way a boy named Oskar is treated that may get your blood boiling.", "is_fresh": 1, "author": ["Peter Paras"]},
{"text": "Excellent storytelling and a handful of very good shots add up to one of the year's best", "is_fresh": 1, "author": ["Marty Mapes"]},
{"text": "As layered as its title (lifted from the Morrissey song, Let The Right One Slip In), this is the most original vampire movie since Guillermo del Toro's Cronos, and is likely to hit every top ten films list of the year.", "is_fresh": 1, "author": ["Rob Daniel"]},
{"text": "A true original: love story, horror film and social drama. At once brilliant in its parts, and more than the sum of them.", "is_fresh": 1, "author": ["Matt Bochenski"]},
{"text": "The film is a fresh and memorable mix of grimy realism and gothic fantasy.", "is_fresh": 1, "author": ["Cosmo Landesman"]},
{"text": "Let the Right One In has invention and stamina, a rich arterial flow of fear.", "is_fresh": 1, "author": ["Peter Bradshaw"]},
{"text": "It's a major addition to the vampire genre.", "is_fresh": 1, "author": ["Philip French"]},
{"text": "It's everything Twilight wanted to be but wasn't: beautiful to gaze at, achingly romantic, emotionally involving, unexpectedly terrifying.", "is_fresh": 1, "author": ["Sukhdev Sandhu"]},
{"text": "The fact that it doesn't feel like a vampire flick at all makes it one of the best of its kind.", "is_fresh": 1, "author": ["David Edwards"]},
{"text": "K\u00e5re Hedebrant as Oskar and Lina Leandersson as Eli both give incredibly sensitive performances.", "is_fresh": 1, "author": []},
{"text": "Let the Right One In manages its own sense of doubleness with uncommon daring: you don't see many love stories that bring together pubescence and vampirism in such an elegant clinch.", "is_fresh": 1, "author": ["Anthony Quinn"]},
{"text": "Beautifully crafted and expertly acted, Let The Right One In eschews the easy options of excessive gore and cheap laughs to create a haunting, emotionally involving journey into the macabre. It can only become a classic of the genre.", "is_fresh": 1, "author": ["Allan Hunter"]},
{"text": "A beautiful, brutal yet understated film.", "is_fresh": 1, "author": ["Charlotte Smith"]},
{"text": "Powerful performances from the kids at the centre of it all help add to a superb film.", "is_fresh": 1, "author": ["Mickey McMonagle"]},
{"text": "At once a devastating, curiously uplifting inhuman drama and a superbly crafted genre exercise, Let The Right One In can stand toe-to-toe with Spirit Of The Beehive, Pan's Labyrinth or Orphee. See it.", "is_fresh": 1, "author": ["Kim Newman"]},
{"text": "This bruised and brilliant fairy tale is one of the year's true originals.", "is_fresh": 1, "author": ["David Jenkins"]},
{"text": "Let the Right One In, a deliciously macabre story of a tentative romance between a bullied 12-year-old boy and the strange girl who moves in next door, is pure magic.", "is_fresh": 1, "author": ["Wendy Ide"]},
{"text": "Let The Right One In is one of the most layered, atmospheric and textured movies of the year.", "is_fresh": 1, "author": ["Simon Reynolds"]},
{"text": "As cold as a corpse, as warm as love and thick with shady business in between, Alfredson's chiller is moving and nerve-jangling. A vampire movie to nourish the heart, mind and fear glands.", "is_fresh": 1, "author": ["Kevin Harley"]},
{"text": "The brilliantly eerie Let the Right One In is the European Angst Zone's answer to Hollywood's Twilight.", "is_fresh": 1, "author": ["Nigel Andrews"]},
{"text": "As vampire movies go this touches the cloak hem of masterpiece.", "is_fresh": 1, "author": ["Larushka Ivan-Zadeh"]},
{"text": "He and his team have conjured up, from a remarkable piece of writing, one of the best, most imaginative and resonant vampire stories I've seen.", "is_fresh": 1, "author": ["Derek Malcolm"]},
{"text": "By turns sweet, shocking and ultimately moving, Let the Right One In is a genuinely stunning, bracingly original film that demands to be seen.", "is_fresh": 1, "author": ["Matthew Turner"]},
{"text": "This is bold, haunting filmmaking that pulls us all the way in.", "is_fresh": 1, "author": ["Rich Cline"]},
{"text": "A real hidden gem of a film-if you only see one Swedish, gender-bending teen vampire love story this year, this has got to be it.", "is_fresh": 1, "author": ["Robbie Collin"]},
{"text": "Transcending its grim theme, this is an astonishingly beautiful and visually inventive film that explores the cliches of the vampire genre with a deft, everyday approach.", "is_fresh": 1, "author": ["David Stratton"]},
{"text": "Tomas Alfredson directs this Swedish art house cult alternative to \"Twilight\"", "is_fresh": 1, "author": ["Keith Cohen"]},
{"text": "Yet another example of why Sweden is a filmmaking nation to watch.", "is_fresh": 1, "author": ["Dov Kornits"]},
{"text": "A modern genre classic, reinterpreting a familiar story with emotional delicacy and visual force.", "is_fresh": 1, "author": ["Eddie Cockrell"]},
{"text": "It's a cold, still little film with remarkably beautiful images. It's actually strangely touching.", "is_fresh": 1, "author": ["Margaret Pomeranz"]},
{"text": "It skillfully combines an art house sensibility with the horror genre and makes the combination absolutely seamless.", "is_fresh": 1, "author": ["Steve Biodrowski"]},
{"text": "Tomas Alfredson's Swedish vampire film / young love horror piece... is grounded in a devoted friendship that bonds two outcasts in a predatory world.", "is_fresh": 1, "author": ["Sean Axmaker"]},
{"text": "Think Twilight, but directed by Ingmar Bergman and starring twelve-year-olds instead of teens then you'll have a good idea what to expect of this Swedish vampire movie . . .", "is_fresh": 1, "author": ["James O'Ehley"]},
{"text": "A sparse Nordic horror that combines the innocent, stilted quality of a childhood crush with the pitiless bloodlust of a vampire fable.", "is_fresh": 1, "author": ["Jason Di Rosso"]},
{"text": "The torments of childhood, in Let the Right One in, are as disturbing in their own way as anything that the supernatural has to offer.", "is_fresh": 1, "author": ["Philippa Hawker"]},
{"text": "a stunningly poetic work that will appeal not just to the niche market of horror fans, but to any viewer discerning enough to appreciate the beauty of melancholy, the pain of growing up, and the irresistibility of violence.", "is_fresh": 1, "author": ["Anton Bitel"]},
{"text": "The perfect amalgam of classic horror archetypes and coming of age stories.", "is_fresh": 1, "author": ["Wesley Lovell"]},
{"text": "A chilling coming-of-age story in which a miserable adolescent strikes up a friendship with a vampire girl who appears to be own his age but has, she says, been 12 \"for a very long time.\"", "is_fresh": 1, "author": ["Maitland McDonagh"]},
{"text": "Almost ethereal, subtle, nuanced and the calmest vampire movie you're ever likely to see", "is_fresh": 1, "author": ["Andrew L. Urban"]},
{"text": "How vampire movies have changed, babe. A bewitching film about the relationship between two twelve year olds, when one is a vampire, this delicate Swedish offering explodes with understatement, unfathomable longing coupled with bloody murder", "is_fresh": 1, "author": ["Louise Keller"]},
{"text": "Vampire films are often shallow, sensational and obvious, which is why they can be an acquired taste. But for those who favor them or don't, this is the right one to let in.", "is_fresh": 1, "author": ["Duane Dudek"]},
{"text": "The director approaches this potentially sensationalistic material the way a cat creeps up on a live meal: with quiet patience and cunning.", "is_fresh": 1, "author": ["John Beifuss"]},
{"text": "Vast amounts of empty space take up the formalistic widescreen compositions ... Then there are the sounds: a heartbeat, sniffling, breathing. All these things bring the audience closer to the characters and help make our experience theirs.", "is_fresh": 1, "author": ["Eric Melin"]},
{"text": "The film is done with style. Mostly through images.", "is_fresh": 1, "author": ["Robert Roten"]},
{"text": "An American remake seems inevitable, but it will be hard to re-create the haunting spell cast by this wonderfully strange film about being young and going steady with a monster.", "is_fresh": 1, "author": ["Tom Long"]},
{"text": "Like a horror romance Kieslowski might have made, as it explores both a tender, tentative relationship -- a connection in an otherwise dark world -- and relative morality.", "is_fresh": 1, "author": ["Jeffrey Chen"]},
{"text": "...the anti-Twilight of 2008.", "is_fresh": 1, "author": ["Josh Larsen"]},
{"text": ",,,could even be read as a kind of grim metaphor for marriage in that it explores the thanklessness of constancy and the long-distance loneliness of the impenetrable soul.", "is_fresh": 1, "author": ["Philip Martin"]},
{"text": "The best vampire movie of 2008 -- heck, the best vampire movie of the last 20 years -- is Let the Right One In.", "is_fresh": 1, "author": ["Robert W. Butler"]},
{"text": "Forget... Twilight... this story far more likely illustrates what would happen when a seemingly under-aged vampire moves in next door (hint: no one's going to the prom).", "is_fresh": 1, "author": ["Kevin A. Ranson"]},
{"text": "The best vampire movie of the year.", "is_fresh": 1, "author": ["Victoria Alexander"]},
{"text": "LET THE RIGHT ONE IN is not a piece of throwaway fluff. It is a dark film of pain, most not of a supernatural origin.", "is_fresh": 1, "author": ["Mark R. Leeper"]},
{"text": "A haunting, suspenseful coming-of-age tale, giving a tender, unique twist to the bloodsucking genre that dates back to the classic 1922 'Nosferatu.'", "is_fresh": 1, "author": ["Susan Granger"]},
{"text": "What a relief -- and what a delight -- it is to be able to praise a horror film without a string of qualifiers and excuses!", "is_fresh": 1, "author": ["Ken Hanke"]},
{"text": "...effectively dark-minded Swedish chiller.", "is_fresh": 1, "author": ["Chris Barsanti"]},
{"text": "How can a movie be so tender, poignant, horrific, and gory all at once?", "is_fresh": 1, "author": ["Eric D. Snider"]},
{"text": "\"Let the Right One In\" is a much scarier vampire movie than the megahit \"Twilight,\" but that's no great shakes. Would you believe, though, that it's also a much better love story?", "is_fresh": 1, "author": ["Rob Thomas"]},
{"text": "The best fantasy stories excel because they give new perspective to real-life issues through the lens of the supernatural, and the Swedish film uses vampirism to tackle adolescence in all its glorious agony.", "is_fresh": 1, "author": ["Phil Villarreal"]},
{"text": "A bloody good offbeat relationship vampire film.", "is_fresh": 1, "author": ["Dennis Schwartz"]},
{"text": "Both sweet and unsettling.", "is_fresh": 1, "author": ["Josh Bell"]},
{"text": "As Oskar and Eli grow closer, in scenes with a tender intimacy, the violence also turns more personal.", "is_fresh": 1, "author": ["Sean P. Means"]},
{"text": "A Swedish import that uses its frozen environment to great advantage.", "is_fresh": 1, "author": ["Matt Brunson"]},
{"text": "The casting of the youngsters is nearly perfect.", "is_fresh": 1, "author": ["Jeff Vice"]},
{"text": "Let the Right One In can safely be called a classic, even before its name is pulled from the theater marquee.", "is_fresh": 1, "author": ["Brandon Fibbs"]},
{"text": "A tale that proves there's life in the undead yet, when they fall into the hands of imaginative storytellers.", "is_fresh": 1, "author": ["Lawrence Toppman"]},
{"text": "John Ajvide Lindqvist's script (from his novel) nails adolescent pain perfectly and is realized by Tomas Alfredson's expert direction.", "is_fresh": 1, "author": ["Bill Goodykoontz"]},
{"text": "A really nice little movie.", "is_fresh": 1, "author": ["Ben Mankiewicz"]},
{"text": "This is a really good movie.", "is_fresh": 1, "author": ["Ben Lyons"]},
{"text": "LET THE RIGHT ONE IN is a welcome addition to the horror genre. One that I think will get better with age, like a fine wine.", "is_fresh": 1, "author": ["Austin Kennedy"]},
{"text": "Let the Right One In is so fresh and original that it makes what's currently available in horror seem stale and formulaic.", "is_fresh": 1, "author": ["Beth Accomando"]},
{"text": "You've never seen a vampire movie like this before -- that I can promise you. There hasn't been one like this before.", "is_fresh": 1, "author": ["MaryAnn Johanson"]},
{"text": "It misses classic status because the script isn't as good as Alfredson's direction.", "is_fresh": 1, "author": ["Chris Hewitt (St. Paul)"]},
{"text": "[Director Tomas] Alfredson's style is as elegant and laconic as Twilight is amateurish and campy.", "is_fresh": 1, "author": ["Joe Morgenstern"]},
{"text": "It is certainly one of the most accomplished and intriguing vampire films released in quite some time.", "is_fresh": 1, "author": ["Christopher Long"]},
{"text": "With its bursts of horrific violence and stark, matter of fact mannerism, Let the Right One In instantly becomes one of the few outright foreign fright film classics.", "is_fresh": 1, "author": ["Bill Gibron"]},
{"text": "Let the Right One In is one of the essential horror films of the decade. It's also one of the most enthralling romances and one of the best films about children.", "is_fresh": 1, "author": ["Colin Covert"]},
{"text": "An awfully wonderful vampire story, thanks largely to pushing itself so far beyond the limits that \"vampire story\" usually implies.", "is_fresh": 1, "author": ["Tim Brayton"]},
{"text": "I'm not a big fan of scary movies like I once was, but I was mesmerized by the entire film (when I didn't have my head covered).", "is_fresh": 1, "author": ["Jeanne Kaplan"]},
{"text": "The deliberate pace sets us up for some horrific moments, accompanied by terrific special effects.", "is_fresh": 1, "author": ["David Kaplan"]},
{"text": "A moodily effective thriller that shows that there's life in the undead yet.", "is_fresh": 1, "author": ["Frank Swietek"]},
{"text": "A spooky Swedish thriller that manages to break the rules of the genre while holding on to many of the rituals that remain dear to the hearts of vampire fans.", "is_fresh": 1, "author": ["John Hartl"]},
{"text": "Funny, fear-inducing, with periods of voyeuristic gore and an undercurrent of anxiety and dread, Let the Right One In is up there with the bloodsucking classics.", "is_fresh": 1, "author": ["Steven Rea"]},
{"text": "Let the Right One In could be described as a vampire horror romance, but that seems like too easy a label for this beautiful, unnerving little movie.", "is_fresh": 1, "author": ["Mike Russell"]},
{"text": "Like the best vampire sagas, the film is rife with aching melancholy and existential crises. Its haunting beauty isn't marred, but complemented by strong, disquieting images.", "is_fresh": 1, "author": ["Lisa Kennedy"]},
{"text": "The beauty of Let the Right One In resides in the way the horror remains grounded in a tragic kind of love.", "is_fresh": 1, "author": ["Wesley Morris"]},
{"text": "Let the Right One In could be summarized as a vampire tween romance, but that cheap and tawdry sum-up does zero justice to the magnificent emotional resonance of this gemlike bloodstone of a film.", "is_fresh": 1, "author": ["Marc Savlov"]},
{"text": "The Scandinavian moodiness of the first half gives way to a series of jolting set pieces in the second.", "is_fresh": 1, "author": ["J. R. Jones"]},
{"text": "Remove the vampire elements, and this is the story of two lonely and desperate kids capable of performing dark deeds without apparent emotion.", "is_fresh": 1, "author": ["Roger Ebert"]},
{"text": "As Oskar and Eli gaze into the seeming mirrors of one another's faces, their mouths smeared with the victim's blood, their eyes soften and they look, at last, close, their fates entwined in ways they can't anticipate.", "is_fresh": 1, "author": ["Cynthia Fuchs"]},
{"text": "A beautiful, heartbreaking horror film that transcends its genre to become one of the most memorable and powerful movies of the year.", "is_fresh": 1, "author": ["Brian Tallerico"]},
{"text": "Bloody and beautiful in equal measure, this is a horror film that is so good that I almost don't want to describe it as such for fear of putting off some viewers who wouldn't dream of spending good money to see such a thing.", "is_fresh": 1, "author": ["Peter Sobczynski"]},
{"text": "Tomas Alfredson's Swedish vampire film is a young love horror piece full of chilly moods and twisted allegiances...", "is_fresh": 1, "author": ["Sean Axmaker"]},
{"text": "I'm so sick of Swedish vampire movies, aren't you? ... If you can stomach just one more, however, \"Let the Right One In\" is the Swedish vampire movie to see. The film is terrific.", "is_fresh": 1, "author": ["Michael Phillips"]},
{"text": "Its portrayal of the relationship between two improbably alike pre-teens is more believable than what we see in many 'realistic' dramas.", "is_fresh": 1, "author": ["James Berardinelli"]},
{"text": "There's a commendable amount of originality in Lindqvist's story and even in Alfredson's elegant vision of it...[but] you get the feeling the book supplied a lot of details that didn't make it into the screenplay.", "is_fresh": 1, "author": ["Tricia Olszewski"]},
{"text": "Let the Right One In is not your typical boy meets vampire, boy falls in love with vampire saga.", "is_fresh": 1, "author": ["Christian Toto"]},
{"text": "Let the Right One In strikes a surprising array of notes: scary, sad and hopeful.", "is_fresh": 1, "author": ["Reyhan Harmanci"]},
{"text": "A spectacularly moving and elegant movie, and to dismiss it into genre-hood, to mentally stuff it into the horror pigeonhole, is to overlook a remarkable film.", "is_fresh": 1, "author": ["John Anderson"]},
{"text": "It's a sweetly queasy film that suggests the spirit that sustains us, the demons we hide from the world, and the monsters that prey upon us in the dark might all be variations on the same beast.", "is_fresh": 1, "author": ["Keith Phipps"]},
{"text": "What finally emerges is a tender, moving relationship between two confused, lost young people.", "is_fresh": 1, "author": ["Jeffrey M. Anderson"]},
{"text": "Sweet within its own bloodthirsty idiom, the film inhabits a twilight world in which love doesn't merely conquer all; it'll rip your damn head off if you get in its way.", "is_fresh": 1, "author": ["Steve Schneider"]},
{"text": "Not the be-all-end-all groundbreaker some are labeling it as, but it does put a new, sweet spin on a subgenre long in need of some freshening up.", "is_fresh": 1, "author": ["Dustin Putman"]},
{"text": "A limited how-to on efficiently cracking necks after biting and draining them. But whether this frosty Nordic couch potato vampire gore is your cup of bodily fluid, will depend on your preference for bloodsucker cinema as a dish best served cold.", "is_fresh": 0, "author": ["Prairie Miller"]},
{"text": "The exceptional Swedish vampire film Let the Right One In warms your heart as it chills your blood, and that's the most disturbing thing about it.", "is_fresh": 1, "author": ["Peter Howell"]},
{"text": "A terrific Halloween surprise.", "is_fresh": 1, "author": ["Andrew O'Hehir"]},
{"text": "Sometimes one has to be reminded that there are other ways to tell a horror tale than the ones insultingly force-fed to us by Hollywood for audiences with short attention spans.", "is_fresh": 1, "author": ["Jim Slotek"]},
{"text": "A wicked trick, a cinematic treat, this is some Halloween offering.", "is_fresh": 1, "author": ["Rick Groen"]},
{"text": "A horror film unlike any other.", "is_fresh": 1, "author": ["Kurt Loder"]},
{"text": "[Melds] genres with a haunting poignancy that's mildly undercut by a script that, during its last act, bounces around like a jeep on a dirt road.", "is_fresh": 1, "author": ["Nick Schager"]},
{"text": "Brings the pain in genre fashion. But it's also a kind of Scandinavian gothic -- a love story between 12-year-olds, one of whom has been 12 for a very long time.", "is_fresh": 1, "author": ["Bryant Frazer"]},
{"text": "...a thoroughly original and consistently engaging piece of work...", "is_fresh": 1, "author": ["David Nusair"]},
{"text": "Just when you think you've seen pretty much everything that can be done with that exhausted horror genre, the vampire picture, somebody comes along with a new twist.", "is_fresh": 1, "author": ["Roger Moore"]},
{"text": "One of the greatest vampire films ever made ...", "is_fresh": 1, "author": ["Lucius Gore"]},
{"text": "The film plays like a lullaby by the Brothers Grimm.", "is_fresh": 1, "author": ["Laura Clifford"]},
{"text": "A gorgeous vampire love story from Sweden...seriously", "is_fresh": 1, "author": ["Tim Basham"]},
{"text": "An imaginative, sympathetic spin on a classic horror theme.", "is_fresh": 1, "author": ["Justin Lowe"]},
{"text": "I don't care how cold it is in Sweden, I'm not Ok with twelve-year-olds who don't wipe their noses. That being said, I just saw something completely unique and surprising. Who knew the vampire genre wasn't over and done with?", "is_fresh": 1, "author": ["Jenna Busch"]},
{"text": "Next month's Twilight may get more attention, but Tomas Alfredson's understated vampire tale is one you won't want to overlook.", "is_fresh": 1, "author": ["Elizabeth Weitzman"]},
{"text": "A smart and welcome vampire film. And although it provides the usual horrors, its most frightening one may be the stark loneliness of a child.", "is_fresh": 1, "author": ["Stephen Whitty"]},
{"text": "Hoyte Van Hoytema's bleak and spooky camerawork is perfectly suited to this intelligent horror film. Happy Halloween!", "is_fresh": 1, "author": ["V.A. Musetto"]},
{"text": "With HBO's eccentric True Blood series and Twilight galvanizing vampiric bloodlust, Let the Right One In might not be invited to the party, but it belongs in the hall of fame.", "is_fresh": 1, "author": ["Chris Cabin"]},
{"text": "The film works best when allowing us to intuit that going steady with a vampire, though it raises a few moral issues, still gives Oskar his Best Winter Ever.", "is_fresh": 0, "author": ["Amy Nicholson"]},
{"text": "While [director] Alfredson takes a darkly amused attitude toward the little world he has fashioned with such care, he also takes the morbid unhappiness of his young characters seriously.", "is_fresh": 1, "author": ["Manohla Dargis"]},
{"text": "It quietly pushes the envelope of what stories like this are supposed to be: a feat more shocking than a thousand Hollywood boogeymen.", "is_fresh": 1, "author": ["Rob Vaux"]},
{"text": "Requires more patience than most contemporary horror films but the payoff is significantly greater.", "is_fresh": 1, "author": ["Geoff Berkshire"]},
{"text": "Right One is a marvel: an ingenious genre film that manages to terrify and endear in the same instant, deftly erecting one of the most persuasive, haunting film experiences of the year.", "is_fresh": 1, "author": ["Brian Orndorf"]},
{"text": "A vampire movie like no other.", "is_fresh": 1, "author": ["David Ansen"]},
{"text": "If random arty blood thrills are your cup of fear, perhaps you'll enjoy Let the Right One In, a Swedish head-scratcher that has a few creepy images but very little holding them together.", "is_fresh": 0, "author": ["Owen Gleiberman"]},
{"text": "A most original meal of magical horror and gothic fiction. I can't remember the last time I wanted a film to be longer.", "is_fresh": 1, "author": ["Jules Brenner"]},
{"text": "Just when you thought every ounce of metaphor and meaning had been wrung from the vampire movie, along comes Tomas Alfredson's chilly, claustrophobic tale to infuse fresh blood into the genre.", "is_fresh": 1, "author": ["David Fear"]},
{"text": "Tomas Alfredson somehow takes a wild premise -- a ravenous 12-year-old bloodsucker who strikes up a romance with a bullied young boy in small-town Sweden -- and executes it with restraint and style.", "is_fresh": 1, "author": ["Logan Hill"]},
{"text": "A more thoughtful approach to such a knotty set of concerns would have been welcome.", "is_fresh": 0, "author": ["Andrew Schenker"]},
{"text": "Novelist/screenwriter John Ajvide Lindqvist's script is a study in connecting the inner lives of emotionally bound characters to a suspenseful vampire plot in a cold foreign setting.", "is_fresh": 1, "author": ["Cole Smithey"]},
{"text": "Let the Right One In is certainly well-made and miles more thoughtful than you might expect a teenage vampire film to be.", "is_fresh": 1, "author": ["Karina Longworth"]},
{"text": "...not only delivers gorgeous wintry panoramas, but also the requisite metaphors -- in this case, vampirism as both adolescent power fantasy and terminal-disease medicament.", "is_fresh": 1, "author": ["Luke Y. Thompson"]},
{"text": "Made in Sweden, this oddball teen love fable plays out like Twilight meets My Bodyguard as directed by Ingmar Bergman.", "is_fresh": 1, "author": ["Staci Layne Wilson"]},
{"text": "A bloodsucker story that's rich with originality and feeling, this Swedish import is a terrific love story and vampire tome that not only rewards the genre's fans but rekindles interest in its virtually exhausted foundations.", "is_fresh": 1, "author": ["Todd Gilchrist"]},
{"text": "Alfredson has helmed a classic-in-the-making, with a final set piece that uses visuals in a fresh, inventive, and startling combination that will be talked about for years to come.", "is_fresh": 1, "author": ["KJ Doughton"]},
{"text": "It is frequently not what you see but what you hear which holds the horror.", "is_fresh": 1, "author": ["Amber Wilkinson"]},
{"text": "Please be sure to keep an eyeball out for this one, horror fans. Let the Right One In is very smart, very sweet, very sick, and very special indeed.", "is_fresh": 1, "author": ["Scott Weinberg"]},
{"text": "While the film's ending is, quite literally, overkill, this poetic and unexpectedly tender film is mesmerizing from start to finish. Lets hope they don't screw up the inevitable American remake too badly...", "is_fresh": 1, "author": ["Marlow Stern"]},
{"text": "Let the Right One In wasn't my favorite movie at Tribeca 2008, but it's definitely the one that's stuck with me", "is_fresh": 1, "author": ["Jay Antani"]},
{"text": "Quiet, touching and poetic are not normally terms associated with vampire films, but there are no better words to describe Lat den r\u00e4tte komma in (Let the Right One in) from director Tomas Alfredson.", "is_fresh": 1, "author": ["Boyd van Hoeij"]},
{"text": "Stick your neck out for this Swedish horror show.", "is_fresh": 1, "author": ["Peter Travers"]},
{"text": "One of the greatest vampire movies ever made.", "is_fresh": 1, "author": ["Kofi Outlaw"]},
{"text": "It is a rare film that comes across as instant horror classic, multilevel preteen wish-fulfillment fantasy and Euro-arty critical darling all at once.", "is_fresh": 1, "author": ["Jonathan Kiefer"]},
{"text": "Already scheduled for an English-language remake, Let the Right One In is perfectly all right as it is in Swedish.", "is_fresh": 1, "author": ["James Verniere"]},
{"text": "A quietly beautiful, fiendishly gripping Swedish import which is likely to stay with you longer than your average teen romance novel.", "is_fresh": 1, "author": ["Joe Lozito"]},
{"text": "Beautifully shot, lit and framed, featuring completely believable performances from its two young leads.", "is_fresh": 1, "author": ["Coco Forsythe"]},
{"text": "Young Kare Hedebrant as Oskar and Lina Leandersson as Eli do a fantastic job in the lead roles.", "is_fresh": 1, "author": ["Scott Nash"]},
{"text": "Carves out a unique niche in the vampire genre.", "is_fresh": 1, "author": ["Joe Williams"]},
{"text": "Let the Right One In is a chiller in more ways than one.", "is_fresh": 1, "author": ["Michael Sragow"]}
]