[
{"reviews_count": "210", "title": "Minions", "avg_audience_rating": "3.3", "rotten_count": "92", "tomatometer": "56", "audience_score": "49", "avg_critic_rating": "5.8", "fresh_count": "118", "user_ratings_count": "136,615"},
{"text": "It promises a chaotic, anarchic movie that it fails to deliver - forcing characters who are by very definition destructive and unpredictable into a formulaic three act structure that can be wrapped up nicely in 90 minutes.", "is_fresh": 0, "author": ["Alistair Ryder"]},
{"text": "Pacing is problematic; there may be too much Minionism and too little relief. The comic set pieces aren't threaded together at points, but there are many smiles to be had.", "is_fresh": 1, "author": ["Anne Brodie"]},
{"text": "[It's] a film that both adults and children can enjoy together, and clever editing wraps everything up in 91 minutes-the perfect timing for a family film.", "is_fresh": 1, "author": ["Lisa Johnson Mandell"]},
{"text": "Parents, I would recommend sending the kids with the babysitter to this one. It's worth the price to pay for one more to go when that \"one more\" isn't you.", "is_fresh": 0, "author": ["Pamela Powell"]},
{"text": "One can't help but think that Minions would have been much better off being a short film rather than a full-length animated feature.", "is_fresh": 1, "author": ["Mae Abdulbaki"]},
{"text": "There is only so much you can do with a bare-bones plot featuring little to no character development", "is_fresh": 0, "author": ["Robert Kojder"]},
{"text": "If it's a cheerful chuckle-along that you and your family are after, then Minions certainly fits the bill. Ba-na-nas and all.", "is_fresh": 1, "author": ["Matthew Bond"]},
{"text": "There's nothing memorable about Minions, a problem compounded by [Sandra] Bullock's completely forgettable efforts as Scarlett. ", "is_fresh": 0, "author": ["Sarah Marrs"]},
{"text": "How much more of these yellow, gibberish animated critters can we take?", "is_fresh": 0, "author": ["Joanne Soh"]},
{"text": "Poor Minions. They just want an evil master with a bit of dash. They get depressed easily. I did, too.", "is_fresh": 0, "author": ["Brooke Corso"]},
{"text": "Minions is a funny film which will be loved by the kids, with enough winks and nods for adults to be entertained during its very quick and breezy run time.", "is_fresh": 1, "author": ["Alex Lines"]},
{"text": "The little, yellow, different Minions who split sides in two smash Despicable Me movies manage -- just barely -- to frolic through enough sight gags, pop culture references and sheer lunacy to keep their madcap 91-minute star vehicle rolling.", "is_fresh": 1, "author": ["Brandy McDonnell"]},
{"text": "...the relatively short running time results in a general lack of lulls...", "is_fresh": 1, "author": ["David Nusair"]},
{"text": "It's sometimes aimless, often hilarious and always silly, everything you would expect the minions to be.", "is_fresh": 1, "author": ["Nandini Ramnath"]},
{"text": "The only foreseeable problem with this movie is that parents are going to have to be dealing with wee ones mimicking minion-ese for as long as this franchise shall flourish.", "is_fresh": 1, "author": ["Mark Jackson"]},
{"text": "As a film, Minions may not be as clever or heartfelt as the Despicable Me films, but it's still plenty of fun.", "is_fresh": 1, "author": ["Francesca Rudkin"]},
{"text": "When today's youth inevitably look back on their favorite tiny, yellow, goggled henchman, they won't be thinking of this movie.", "is_fresh": 0, "author": ["J. Olson"]},
{"text": "The film eventually comes to hint at and vaguely explains the connection between Minions and Despicable Me which holds a certain satisfaction in itself, but this will certainly satisfy minion-fans, if not particularly wow the rest of us.", "is_fresh": 1, "author": ["Marija Djurovic"]},
{"text": "The colourful 3D animation is as first-rate as you'd expect, with Coffin and co packing the film with rich sight gags.", "is_fresh": 1, "author": ["James Mottram"]},
{"text": "There's no denying the minions are adorable, but they're strictly for the kids.", "is_fresh": 1, "author": ["David Blaustein"]},
{"text": "This is a hugely enjoyable ride and, with Despicable Me 3 not due until 2017, provides a welcome fix of Minion-shaped hilarity to see us through till then.", "is_fresh": 1, "author": ["Alex Zane"]},
{"text": "As it is, Minions is one of the summer film highlights and pokes fun at just about everything.", "is_fresh": 1, "author": ["Marie Asner"]},
{"text": "Some gags might be saucy, in a European sort of way, but they're never crass.", "is_fresh": 1, "author": ["Violet LeVoit"]},
{"text": "Divorced from the be-thankful-for-family homilies that motivate the 'Despicable Me' movies, this first solo outing for the lozenge-shaped scene-stealers improves on its predecessors: It's a Looney loop-de-loop of nonstop funny noises and sight gags.", "is_fresh": 1, "author": ["John Beifuss"]},
{"text": "This third in the animated 'Despicable Me' series finds the familiar balance between villainy and heroism, silliness and relevance, but it is a bit thinner. As characters, the Minions have a lot of limitations. This is for kids only.", "is_fresh": 1, "author": ["Robert Roten"]},
{"text": "An incessant assault of mindless, mirthful mayhem with enough cultural allusions mixed in to hold the attention of adults, too. ", "is_fresh": 1, "author": ["Kam Williams"]},
{"text": "Like many supporting characters, the minions were better in that role: idiotic foils for Despicable Me's brooding, tormented Gru.", "is_fresh": 1, "author": ["Jay Stone"]},
{"text": "The overall effect is mildly diverting and almost instantly forgettable.", "is_fresh": 0, "author": ["Robert W. Butler"]},
{"text": "Forget a never ending stream of superheroes or the dredging up of long-dead nostalgia properties; this is the real death-knell of modern cinema.", "is_fresh": 0, "author": ["Alex Leadbeater"]},
{"text": "Lightly Miniony fun throughout, this Minionish comedy should please fans of general Minionishness who don't mind the goofiest Mininionesque gags.", "is_fresh": 1, "author": ["David 'Mad Dog' Bradley"]},
{"text": "The Minions crave a strong parental figure but, as creatures of pure mischief, they don't need hugs -- and their antics quickly become tiresome.", "is_fresh": 0, "author": ["Nick Dent"]},
{"text": "Minions is a fun backstory for a popular group of sidekicks, but it really shouldn't extend beyond that. It does a good job with what it has, but it won't leave you asking for more.", "is_fresh": 1, "author": ["Josh Terry"]},
{"text": "So much here's fairly uninspired, lacking depth and detail, or not so zippily zany. Mostly these underlings just underperform.", "is_fresh": 0, "author": ["Brian Gibson"]},
{"text": "Without the clever plotting of the first, the presence of the bumbling brilliance of Gru, or a wall-to-wall array of ludicrous jokes, the film almost succumbs to its own ego.", "is_fresh": 1, "author": ["Wesley Lovell"]},
{"text": "Backing up all the funny Minions antics is one of the best soundtracks ever and some very cute musical numbers.", "is_fresh": 1, "author": ["Betty Jo Tucker"]},
{"text": "An idea is only as good as its execution, and after spending three sessions with these characters, one is left with the speculation that some ideas, perhaps, would have been better left as part of a rough draft on the printed page.", "is_fresh": 0, "author": ["David Keyes"]},
{"text": "Minions is despicable, or maybe it's just me.", "is_fresh": 0, "author": ["Steve Persall"]},
{"text": "The Minions movie is almost complete nonsense, but it's good natured, enjoyable nonsense nonetheless.", "is_fresh": 1, "author": ["Iain McNally"]},
{"text": "The most impressively flavorless movie in many a long age.", "is_fresh": 0, "author": ["Tim Brayton"]},
{"text": "It keeps most of its modest promises and if its shortcomings stand out, you can't say you didn't see them coming.", "is_fresh": 1, "author": ["Rob Vaux"]},
{"text": "The script barely acknowledges the apparent contradiction between their adorable innocence and their vocation of evil sycophancy, much less milk it for satire.", "is_fresh": 0, "author": ["Margot Harrison"]},
{"text": "Maybe the Minions have simply worn out their welcome, but perhaps they're just more effective as proper henchmen...can we have more Gru and the girls?", "is_fresh": 1, "author": ["Kevin A. Ranson"]},
{"text": "enjoyable in all the right ways, is just clever enough to stand apart from its predecessors, and doesn't overstay its welcome", "is_fresh": 1, "author": ["James Kendrick"]},
{"text": "If all you need to be entertained is to watch the \"Minions\" run around, you'll be satisfied with this spinoff/prequel.", "is_fresh": 0, "author": ["Linda Cook"]},
{"text": "Plays at times like a Muppets sketch in which every character is Beaker.", "is_fresh": 1, "author": ["Stephen Silver"]},
{"text": "This one burns out after the first half hour.", "is_fresh": 0, "author": ["Bob Grimm"]},
{"text": "Too many Minions can lead to overkill.", "is_fresh": 0, "author": ["James Mottram"]},
{"text": "I got tired of this joke before the movie ended, but I appreciate the gusto with which the filmmakers -- particularly Coffin, with his nimble vocalizations -- carried it out.", "is_fresh": 0, "author": ["Ben Sachs"]},
{"text": "It's a fast-paced 91 minutes that will not leave you longing for Minions, Part II but glad that you sat through this one. ", "is_fresh": 1, "author": ["Daniel M. Kimmel"]},
{"text": "Minions should not get a free pass simply because it's a \"children's film.\" It is an insult to both children and film. ", "is_fresh": 0, "author": ["Josh Cabrita"]},
{"text": "Packed with period songs and with a refreshingly unsentimental anarchic vibe, this could have been great. Unfortunately, it is seriously wanting in the villain department.", "is_fresh": 1, "author": ["Ken Hanke"]},
{"text": "In its own helter-skelter way, Minions achieves a loony symmetry. It starts with evolution and ends with revolution.", "is_fresh": 1, "author": ["Michael Sragow"]},
{"text": "Filled with ridiculous slapstick - which should amuse youngsters until 'Despicable Me 3' is released in the summer of 2017...", "is_fresh": 1, "author": ["Susan Granger"]},
{"text": "I don't demand that every children's movie be the newest, best thing to ever happen to film (though neither do I assume a children's movie has to be formulaic and banal). Minions, though, is an almost aggressively hollow project.", "is_fresh": 0, "author": ["Jackson Cuidon"]},
{"text": "Brightly colored, inordinately silly, kind of charming, and yes, a bit one-note. Still, you know what you're getting, and if that's what you want, here it is. ", "is_fresh": 1, "author": ["Mike McGranaghan"]},
{"text": "With its episodic stream of slapstick gags, Minions has moments of piquant absurdity, but mostly its shrill-but-cutesy anarchy works as a visual sugar rush for the preschool set.", "is_fresh": 0, "author": ["Liam Lacey"]},
{"text": "Lightweight entertainment that the under-10s will no doubt love, but without the subtext to make it a classic enjoyable by the whole family.", "is_fresh": 1, "author": ["Scott Nash"]},
{"text": "[The prologue] is actually a better idea for a story about these characters than the one the movie ultimately gives us.", "is_fresh": 0, "author": ["Mark Dujsik"]},
{"text": "when saddled with a supervillain who lacks panache, and a story that has so little pizzazz, there is only so much these oblong dynamos can accomplish", "is_fresh": 1, "author": ["Andrea Chase"]},
{"text": "While 'Minions' may lack a lot of the heartwarming depth of its predecessors, this goofy little movie is still a whole lot of fun.", "is_fresh": 1, "author": ["Mathew DeKinder"]},
{"text": "Fittingly, because they're pill-shaped, the Minions work best in small doses.", "is_fresh": 0, "author": ["Christy Lemire"]},
{"text": "There's plenty of high-velocity comic inanity on display to keep kids happily diverted. But the movie's major flaw is an extension of its own premise: Search as they may, the minions never find a villain worthy of their subservience.", "is_fresh": 0, "author": ["Christopher Orr"]},
{"text": "\"Minions\" is proof that the sidekicks of the \"Despicable Me\" movies are, like most tiny yellow pill-like things, better in measured doses.", "is_fresh": 0, "author": ["Sean P. Means"]},
{"text": "They may look like goggle-wearing cartoon versions of the psychrotrophic Paxil, but they don't ease depression, they just cause it. ", "is_fresh": 0, "author": ["Al Alexander"]},
{"text": "This is something craftily designed to sell toys and theme park tickets and special cans of Tic-tacs. But it's not a movie. It's an eyesore.", "is_fresh": 0, "author": ["Drew Taylor"]},
{"text": "Minions delivers just enough of what people love about the eponymous Despicable Me characters to please their fanbase - but not much else.", "is_fresh": 1, "author": ["Sandy Schaefer"]},
{"text": "A comedy for all ages that stands out from a crowded genre. [full review in Spanish]", "is_fresh": 1, "author": ["Erick Estrada"]},
{"text": "The Minions always worked best in small doses. Tasked with carrying out the entire movie, they get tiresome quickly.", "is_fresh": 0, "author": ["Pete Vonder Haar"]},
{"text": "Scarlet Overkill is no Felonious Gru. The boys are irresistible, movie not so much.", "is_fresh": 1, "author": ["James Verniere"]},
{"text": "Seeing the minions end up in your Happy Meal would not have been a stretch in this absurd, tangential movie. (Actually, it would have been more to the point.)", "is_fresh": 0, "author": ["Radheyan Simonpillai"]},
{"text": "It proves that its pill-shaped protagonists who served as little yellow sidekicks in their two previous appearances aren't deserving of the spotlight.", "is_fresh": 0, "author": ["Todd Jorgenson"]},
{"text": "It made me think of the Three Stooges recast for the modern age as pint-size, goggle-wearing, butter-hued niblets. It may not be high humor, but boy, it sure made me laugh.", "is_fresh": 1, "author": ["Neil Pond"]},
{"text": "While Minions are insanely cute and do offer you short spells of laughter, this is nothing to go bananas over.", "is_fresh": 0, "author": ["Soumya Srivastava"]},
{"text": "Cuteness overload.", "is_fresh": 1, "author": ["Mohar Basu"]},
{"text": "It offers simple humor although effective.[full review in Spanish]", "is_fresh": 1, "author": ["Arturo Aguilar"]},
{"text": "It was only natural to give the little yellow pill-like creatures from \"Despicable Me\" their own movie. They are cute and funny most of the time, but their new film, \"Minions\" is loud and violent. And to many adults, it will be a noisy, yellow blur. ", "is_fresh": 0, "author": ["Paul Chambers"]},
{"text": "An energetic and pleasant adventure. [full review in Spanish]", "is_fresh": 1, "author": ["Jordi Batlle Caminal"]},
{"text": "Minions fails to deliver a moral or wise message for the kids, and it won't be interesting enough for the adult audience. [full review in Spanish]", "is_fresh": 0, "author": ["Luis Fernando Galv\u00e1n"]},
{"text": "Though the first few minutes of \"Minions\" are rather amusing, it quickly devolves into the same mean-spiritedness which abounded in \"Despicable Me\". ", "is_fresh": 0, "author": ["Jeanne Kaplan"]},
{"text": "\"Minions\" does feature a \"groovy\" soundtrack, but it's not enough to overcome the movie's lesser elements.", "is_fresh": 0, "author": ["David Kaplan"]},
{"text": "Minions is a cute, hyperkinetic hodgepodge of '60s jokes, a rocking soundtrack and visual puns. It's just cute and clever enough to keep the wee ones entertained and the parents nodding along to an \"Abbey Road\" or The Who reference.", "is_fresh": 1, "author": ["Monica Castillo"]},
{"text": "(These movies) are higgledy-piggledy and filled with jibber-jabber - and trying to sell you snacks and bric-a-brac - but they never really sink to the level of jiggery-pokery.", "is_fresh": 1, "author": ["John Serba"]},
{"text": "It's not whether this prequel can mint money; that's a given. The questions is: Can the minions carry a movie all by their mischievous mini-selves? 'Fraid not. ", "is_fresh": 0, "author": ["Peter Travers"]},
{"text": "Less inventive and entertaining than the \"Despicable Me\" movies but still engaging.", "is_fresh": 1, "author": ["John Wirt"]},
{"text": "Prequel is fun, with less peril than previous films.", "is_fresh": 1, "author": ["Sandie Angulo Chen"]},
{"text": "While not as end-to-end funny and clever as the original Despicable Me, Minions does serve as a nice holdover for more Gru with the already announced Despicable Me 3 in 2017.", "is_fresh": 1, "author": ["Kirk Baird"]},
{"text": "The movie is also missing the subversive chuckles this series is known for, and sight gags are all that's left. There are only so many ways to dress up a Minion to build a movie around.", "is_fresh": 0, "author": ["Michael Smith"]},
{"text": "My 2-year old granddaughter loves minions so we made this her first theater experience. Is it memorable? Probably not. Mixed results for her. Grandpa laughed his butt off. ", "is_fresh": 1, "author": ["Gary Wolcott"]},
{"text": "An overwhelming sense of goofiness here keeps the smiles coming even when the film doesn't reach the comedy heights it could've.", "is_fresh": 1, "author": ["John Hanlon"]},
{"text": "Utterly charming, this silly prequel rewrites the origin story of the minions and sends them on a series of adventures that are gently anarchic and refreshingly low-key for an animated blockbuster.", "is_fresh": 1, "author": ["Rich Cline"]},
{"text": "A slapstick triumph!", "is_fresh": 1, "author": ["Willie Waffle"]},
{"text": "\"Minions\" is every bit as cute as it's supposed to be, a happily empty-headed animated frolic that rarely pauses to take a breath.", "is_fresh": 1, "author": ["Tom Long"]},
{"text": "Little. Yellow. Not that different.", "is_fresh": 0, "author": ["Rob Thomas"]},
{"text": "The set-up sequence is the funniest thing in the film. And \"Minions\" certainly could have used more of that early promise, because it gets pretty silly fast.", "is_fresh": 1, "author": ["Jonathan W. Hickman"]},
{"text": "Having main characters who jabber in nonsense syllables punctuated with real words in English, Spanish, etc. quickly cloys, like an overextended Danny Kaye routine.", "is_fresh": 0, "author": ["Charles Solomon"]},
{"text": "While they're probably better-suited in hilarious background roles there's a lot of fun to be had for fans.", "is_fresh": 1, "author": ["Jeffrey Lyles"]},
{"text": "'Minions' swings wildly from inventive and hilarious, to oddly dark and boring in stretches.", "is_fresh": 1, "author": ["Julian Roman"]},
{"text": "The Minions were the funniest aspect of the Despicable Me films. Stretching their supportive roles to feature length has caused their appeal to wear thin.", "is_fresh": 0, "author": ["Chris Stuckmann"]},
{"text": "A reasonably diverting entertainment with some great visuals, a few classic songs, some good ideas, and some missed opportunities ", "is_fresh": 1, "author": ["Nell Minow"]},
{"text": "Inconsistent and undisciplined, Minions is more an adjunct to marketing than a legitimate motion picture.", "is_fresh": 0, "author": ["James Berardinelli"]},
{"text": "The secret of this film's success is that co-directors Kyle Balda and Pierre Coffin have a superb sense of the sight gag, very much beholden to the classic Warner Bros. 'toons of Bugs Bunny and the Road Runner.", "is_fresh": 1, "author": ["Randall King"]},
{"text": "There's just not enough to the little fellas to warrant an entire movie that, even at just 91 minutes, feels padded.", "is_fresh": 0, "author": ["Christopher Lawrence"]},
{"text": "Not as funny as you were expecting, but still a pretty decent film. [full review in Spanish]", "is_fresh": 1, "author": ["Oswaldo Betancourt Lozano"]},
{"text": "While \"Minions\" explores nominally new narrative ground, it folds neatly into a series that now includes two features, various shorts, books, video games, sheet music and a theme park attraction. So, you know, different but also the same.", "is_fresh": 0, "author": ["Manohla Dargis"]},
{"text": "Impressive as it is that the filmmakers get so much comedic mileage out of their characters' half-intelligible prattling, the conventional dialogue is bafflingly flat.", "is_fresh": 0, "author": ["Tom Russo"]},
{"text": "The film turns its back on all but the most fleeting brand of comic anarchy.", "is_fresh": 0, "author": ["Eric Henderson"]},
{"text": "The begoggled, capsule-shaped, banana-colored scamps who stole the show in two installments of the popular Despicable Me franchise deserved something better than this indifferently animated, catch-as-catch-can venture in comedic chaos.", "is_fresh": 0, "author": ["Joe Morgenstern"]},
{"text": "It isn't a bad film, and it's often engaging, but it's also little more than adequate.", "is_fresh": 0, "author": ["Anders Wright"]},
{"text": "An entire movie about them feels like eating a bowl of pure sugar. Which means very young kids will love it, while adults might feel a bit nauseous by the end.", "is_fresh": 0, "author": ["Steve Tilley"]},
{"text": "Few gags hit solidly. Minions relies on mayhem too often - too loud, too much and too pointless.", "is_fresh": 0, "author": ["Linda Barnard"]},
{"text": "likeable, but limited", "is_fresh": 0, "author": ["Bill Gibron"]},
{"text": "\"Minions'\" all-silliness all-the-time philosophy will put a smile on faces and keep it there, like a fizzy beverage on a hot afternoon.", "is_fresh": 1, "author": ["Kenneth Turan"]},
{"text": "A loud, frenetic kid pleaser, though parents' brains may short-circuit.", "is_fresh": 0, "author": ["Rafer Guzman"]},
{"text": "Minions may just be an excuse to cash in on the phenomenal success of the Despicable Me franchise (Part 3 already has a release date: June 30, 2017), but as crass commercial enterprises go, this prequel gives its all.", "is_fresh": 1, "author": ["Steven Rea"]},
{"text": "Writer Brian Lynch and co-directors Pierre Coffin and Kyle Balda throw everything they can against the wall, only to find that very little sticks.", "is_fresh": 0, "author": ["Chris Knight"]},
{"text": "Hilarious. [full review in Spanish]", "is_fresh": 1, "author": ["Pablo A. Scholz"]},
{"text": "A shallow and half-hearted film. [full review in Spanish]", "is_fresh": 0, "author": ["Adri\u00e1n Ruiz"]},
{"text": "Brian Lynch's screenplay features a series of amusing sight gags and physical comedy that mostly hits; watching the Minions play polo while riding Corgis is an exercise in cuteness.", "is_fresh": 1, "author": ["Brian Truitt"]},
{"text": "Young kids may enjoy the hulabaloo of what amounts to a manic but rarely inspired prequel--cinematic hamburger rather than filet minion.", "is_fresh": 0, "author": ["Frank Swietek"]},
{"text": "Look, there's a reason no one eats an entire dinner of cilantro or writes music that features triangle solos. They're both meant to play supporting roles and so, unfortunately, are the \"Minions.\"", "is_fresh": 0, "author": ["Chris Hewitt (St. Paul)"]},
{"text": "\"Minions\" is product, pure and simple. Little kids will love it, but grown-ups will feel like they're being held hostage in a Fisher-Price test laboratory.", "is_fresh": 0, "author": ["Joe Williams"]},
{"text": "Despite the dizzying pace of carefully calibrated incongruities, \"Minions\" somehow never generates more than the occasional chuckle.", "is_fresh": 0, "author": ["Kerry Lengel"]},
{"text": "The technical execution is strong...but the invention is weak...simply feels late to the party by spinning off sidekicks...as it trades on '60s style...", "is_fresh": 0, "author": ["Peter Canavese"]},
{"text": "The new team thinks that if mayhem is funny, five times the mayhem will be five times as hilarious. That's not how movie math works, and too many scenes spin out of control.", "is_fresh": 0, "author": ["Lawrence Toppman"]},
{"text": "I, too, once enjoyed the Minions, in the small doses that they came in. But the extra-strength \"Minions\" is, for better or for worse, too much of a good thing.", "is_fresh": 0, "author": ["Michael O'Sullivan"]},
{"text": "Gru isn't missed, finding Brian Lynch's screenplay teeming with knowing jokes and sharp high jinks, keeping the spirit of the Minions alive while delivering an adventure that supports their newfound starring role. ", "is_fresh": 1, "author": ["Brian Orndorf"]},
{"text": "The bottom line is that the filmmakers are working with nothing here - no characters to speak of, no interpersonal relationships, no story with any suspense or capacity to engage, and no script with any humor or wit. What can they do?", "is_fresh": 0, "author": ["Mick LaSalle"]},
{"text": "I'm a fan of silliness and nonsense, and Minions are about as silly and nonsensical as kiddie entertainment gets. But everyone has limits.", "is_fresh": 0, "author": ["Steven D. Greydanus"]},
{"text": "This film's villain...isn't very interesting and Sandra Bullock has nothing on Steve Carrell in comic vocal performance, but [the] directors and their animation team keep things lively with non stop, character driven, often subversive visual gags", "is_fresh": 1, "author": ["Laura Clifford"]},
{"text": "As you would expect, the script - there is one, sort of - feels as if it was written to fill the blanks in a Mad Libs story.", "is_fresh": 1, "author": ["Colin Covert"]},
{"text": "Even though its protagonists appear to be demons sent from the deepest reaches of Hades to annoy moviegoers into a premature grave, Minions is not an entirely evil film.", "is_fresh": 0, "author": ["Charles Bramesco"]},
{"text": "Struggling to come up with a reason for its sidekick characters to have their own adventure, Minions proves far too much of a little thing.", "is_fresh": 0, "author": ["Norm Schrager"]},
{"text": "It's a slight, bright, bopping entertainment.", "is_fresh": 1, "author": ["Kimberley Jones"]},
{"text": "Those little Minions made terrific supporting players in their two previous adventures. As main stars, they're sporadically comical, yes, but not all that interesting. They don't particularly learn anything or evolve as characters.", "is_fresh": 0, "author": ["Dann Gire"]},
{"text": "A group of benevolent, joyful creatures willingly dedicate their lives to serving the worst forms of life on the planet: that is a terrible concept for a comedy.", "is_fresh": 0, "author": ["David Medsker"]},
{"text": "Watching Minions is like watching a spastic colon spew little yellow turds at you. It's less a movie than a brand strategy meeting, all the way through.", "is_fresh": 0, "author": ["Blake Goble"]},
{"text": "While there are creative, imaginative, witty & funny moments throughout, the overall effort isn't as entertaining as the series from which the characters have been spun off. (Full Content Review -- Violence, etc. -- for Parents also available)", "is_fresh": 1, "author": ["Jim Judy"]},
{"text": "\"Minions\" is a big, slobbery dog who licks your face, brings your slippers and humps your leg before turning into an adorable kitten with big eyes and a soulful mew.", "is_fresh": 1, "author": ["Odie Henderson"]},
{"text": "This is what happens when filmmakers throw everything against a wall and see what sticks. A lot of it doesn't stick.", "is_fresh": 0, "author": ["Michael Sauter"]},
{"text": "Minions has idiosyncratic roots, but it's a franchise play all the way. Finally, even 5-year-olds have their own movie that mechanically cashes in on something they loved when they were younger.", "is_fresh": 0, "author": ["Jesse Hassenger"]},
{"text": "Two words: mild chuckles. Two more words: needs Gru.", "is_fresh": 0, "author": ["Soren Andersen"]},
{"text": "Given the task of carrying their own 90-minute feature, they quickly wear out their welcome.", "is_fresh": 0, "author": ["Josh Bell"]},
{"text": "The charm and humor they brought in tiny doses in the previous films now comes in a massive blast that wears thin quickly.", "is_fresh": 0, "author": ["Rick Bentley"]},
{"text": "The film manages the by-no-means easy feat of turning sidekicks into full-blown protagonists.", "is_fresh": 1, "author": ["Kirk Honeycutt"]},
{"text": "Since the Minions themselves are barely characters, much of the film falls on the shoulders of Bullock. She isn't up to the challenge.", "is_fresh": 0, "author": ["Jacob Hall"]},
{"text": "Like trying to form a rock band out of three Ringos.", "is_fresh": 0, "author": ["Kyle Smith"]},
{"text": "Proof that these are good times for animation. [full review in Spanish]", "is_fresh": 1, "author": ["Suso Aira"]},
{"text": "It has a lot of what any Minion lover could expect. [full review in Spanish]", "is_fresh": 1, "author": ["Mabel Salinas"]},
{"text": "Minions is a very fun and entertaining film. [full review in Spanish]", "is_fresh": 1, "author": ["Mikel Zorrilla"]},
{"text": "A fun and amusing movie that makes you feel like a child again. [full review in Spanish]", "is_fresh": 1, "author": ["Sergio Ben\u00edtez"]},
{"text": "Basically meant as pure and harmless entertainment, nothing more or less, and in that sense, it succeeds.", "is_fresh": 1, "author": ["Edward Douglas"]},
{"text": "A fun, cheerful time passer that's filled with many random zingers that will leave you snickering afterward.", "is_fresh": 1, "author": ["Randy Myers"]},
{"text": "Parts of the story are quite dark and unnecessarily gruesome for younger audiences. Even a bedtime story is turned into a humorless plot point. ", "is_fresh": 0, "author": ["Maricar Estrella"]},
{"text": "OK for tykes, but the biggest laugh may be that somebody took a writing credit for this non-verbal mish-mash.", "is_fresh": 1, "author": ["Roger Moore"]},
{"text": "On paper, there's no reason this film should work. But these Minions, they work in mysterious ways. As a result, the uneven but entirely genial Minions does, too.", "is_fresh": 1, "author": ["Mike Scott"]},
{"text": "Like most kid franchise spin-offs, this headache-inducing snooze from the 'Despicable Me' team is just a cash grab. ", "is_fresh": 0, "author": ["Chris Barsanti"]},
{"text": "A frothy family comedy, no more and no less. It may not endure the way the best animated films do, but as an answer to where these cheerful yellow servants of villainy come from, it proves a good deal more winning than most will be expecting.", "is_fresh": 1, "author": ["Dustin Putman"]},
{"text": "Why shell out money to see this in the theater when you can just buy a DVD next year? Or, more to the point, buy the plush toys that something like this is really all about.", "is_fresh": 0, "author": ["Stephen Whitty"]},
{"text": "The equivalent of a meal made entirely of french fries - by the end, you're stuffed, but you're hardly satisfied.", "is_fresh": 0, "author": ["Marshall Fine"]},
{"text": "Minions isn't a disaster; it's probably just too much of a potentially good thing.", "is_fresh": 0, "author": ["Stephanie Zacharek"]},
{"text": "If all it was was 90 minutes of them reading the phone book, all would be well, especially since they'd do it in a made-up language that's far cooler than Jodie Foster's in 'Nell' though not nearly as cool as Milla Jovovich's in 'The Fifth Element.'", "is_fresh": 1, "author": ["Matt Prigge"]},
{"text": "Minions is an old-school spy flick for a younger generation, but without Gru's guidance, this jovial spinoff is simply about base-value laughs and one-off gags. It's a neat little way to pass the time, but not much else.", "is_fresh": 1, "author": ["Matt Donato"]},
{"text": "What are the Minions but stand-ins for kids?... Nothing makes them double over like a good pratfall, and they will insist on a goodnight kiss or bedtime story. Teaming and relentless, they will melt the heart of any guardian, even a supervillain.", "is_fresh": 1, "author": ["Jake Coyle"]},
{"text": "Where the first two Despicable Me's had a heart, Minions has only an adrenal gland.", "is_fresh": 0, "author": ["William Bibbiani"]},
{"text": "It struggles to maintain a consistent gags-to-giggles ratio. But it's brightly coloured and fast-paced and should keep kids entertained for the summer.", "is_fresh": 1, "author": ["Alistair Harkness"]},
{"text": "What was the funniest bit? The Minions.", "is_fresh": 1, "author": ["Ali Gray"]},
{"text": "The film's trailers suggested that Sandra Bullock's leading character might offer the bulk of the entertainment. That hasn't eventuated. ", "is_fresh": 0, "author": ["Matthew Toomey"]},
{"text": "Bright, breezy and brought to life with some impressive 3D, make no mistake, Minions is going to be one of the biggest hits of the year.", "is_fresh": 1, "author": ["David Edwards"]},
{"text": "It is not moving in any way, but it is entertainingly off-beam and doolally with an eccentricity and quirky charm thatcan only described as very British.", "is_fresh": 1, "author": ["Henry Fitzherbert"]},
{"text": "Although the opening \"minions through history\" sequence proves a very tough act to follow, this slice of burbling slapstick animation did keep me grinning and giggling throughout.", "is_fresh": 1, "author": ["Mark Kermode"]},
{"text": "The Minions' adventures don't stretch the Despicable Me formula particularly far, but there's still something irresistibly comic about their slapstick pratfalls, the macaronic gibberish they spout and, above all, their blithe bumbling innocence.", "is_fresh": 1, "author": ["Jason Best"]},
{"text": "The conventional cartoon story arcs of self-realisation and redemption are skipped, but any sacrifice in emotional resonance is compensated for by the pace and purity of the fun.", "is_fresh": 1, "author": ["Andrew Osmond"]},
{"text": "The Minions are sometimes very funny. They have a winning way of gargling out dialogue. The problem is a plot that is as indeterminate as their body shapes.", "is_fresh": 1, "author": ["Geoffrey Macnab"]},
{"text": "Dang, it's hard to think straight when faced with the Minions. Their skittish cuteness somehow preempts scorn.", "is_fresh": 1, "author": ["Charlotte O'Sullivan"]},
{"text": "Minions, their very own spin-off film, takes [the] undifferentiated mass of fun and nonsense and successfully channels it into a pleasing movie shape.", "is_fresh": 1, "author": ["Tara Brady"]},
{"text": "How do you craft a film about a hoard of nearly identical yellow oval creatures who speak no identifiable language and live solely to serve the most evil master they can find? Rather successfully, it turns out.", "is_fresh": 1, "author": ["Wendy Ide"]},
{"text": "Not quite one in a minion then. But, certainly not despicable either.", "is_fresh": 1, "author": ["Rob Daniel"]},
{"text": "The slapstick sidekicks were tasty in small portions but they don't make much of a main course.", "is_fresh": 0, "author": ["Andy Lea"]},
{"text": "Safe, silly fun.", "is_fresh": 1, "author": ["Sophie Monks Kaufman"]},
{"text": "Bring a two or three year old to Minions, if you can find one, and probably you'll both have a pretty good time. ", "is_fresh": 1, "author": ["Jake Wilson"]},
{"text": "Minions is like a sugar rush -- short and sweet, but just a little shallow. Nevertheless, it's an anarchic bit of silliness for kids to enjoy.", "is_fresh": 1, "author": ["Krystal Sim"]},
{"text": "Minions is an uninspired but more than marginally entertaining animation guaranteed to hit the mark for its key demographic.", "is_fresh": 1, "author": ["Alex Doenau"]},
{"text": "...a gleefully anarchic and just plain fun cartoon that's refreshing to enjoy in a world where Disney thinks it has to try and make you cry every time.", "is_fresh": 1, "author": ["Luke Y. Thompson"]},
{"text": "Minions starts strong but quickly runs out of steam.", "is_fresh": 0, "author": ["Chris Tilly"]},
{"text": "I love the Minions and I thought they totally deserved their own movie. But I was wrong. Or, at least, this movie is not the movie they deserve.", "is_fresh": 0, "author": ["MaryAnn Johanson"]},
{"text": "There isn't much point to any of the madness, but that doesn't mean it isn't an enjoyable ride.", "is_fresh": 1, "author": ["James Luxford"]},
{"text": "Farty, burpy, fall-y over fun tied to a pretty inconsequential plot. Your kids will explode with joy.", "is_fresh": 1, "author": ["Olly Richards"]},
{"text": "It's well up to the standard of the hyperkinetic fun we've come to expect from this sort of thing, both knowing and silly ...", "is_fresh": 1, "author": ["Andrew Pulver"]},
{"text": "You sense a shuddering apprehension in every creative choice - as if one false move, or even an overly brazen one, would destabilise the formula. ", "is_fresh": 0, "author": ["Robbie Collin"]},
{"text": "Wonderfully absurd, brilliantly inventive and totally adorable, the Minions is literally a laugh a minute... You don't need a kid to see this film", "is_fresh": 1, "author": ["Louise Keller"]},
{"text": "The more Minions, the merrier.", "is_fresh": 1, "author": ["Stefan Pape"]},
{"text": "Being a French film, there are endless jokes at the expense of the English ... and the human characters are sexier than you'd find walking around in a Pixar flick. Even Britain's Queen - quite a major character! - slouches louchely. C'est tres amusant.", "is_fresh": 1, "author": ["CJ Johnson"]},
{"text": "Filling in the edges, Minions can still bring the goods. Front and center, however, and it's quite irritating. ", "is_fresh": 0, "author": ["Jordan Hoffman"]},
{"text": "Fast, frenetic, gleefully silly fun is the order of the day here, and this well-crafted production (involving many of the key creatives behind the Despicable Me series) delivers it all by the truckload.", "is_fresh": 1, "author": ["Leigh Paatsch"]},
{"text": "If Minions were a toy, you'd hide its batteries.", "is_fresh": 0, "author": ["Joe McGovern"]},
{"text": "The film has rather lost the sweetness of its predecessors.", "is_fresh": 0, "author": ["James Mottram"]},
{"text": "Just let sidekicks be sidekicks.", "is_fresh": 0, "author": ["Matt Singer"]},
{"text": "Tests the notion that what audiences enjoyed as a side dish can satisfy as an entr\u00e9e; I don't know if the movie picks up as it goes along, or if it merely beat me into submission, but after 20 minutes or so, I did finally start laughing.", "is_fresh": 1, "author": ["Alonso Duralde"]},
{"text": "The Minions have busted out of the 'Despicable Me' franchise and gone rogue in this berserk slice of slapstick silliness.", "is_fresh": 1, "author": ["Tom Huddleston"]},
{"text": "Minions has an inspired visual lunacy and some solid gags, but it can't sustain a feature-length story and barely tries to tell one. ", "is_fresh": 0, "author": ["Scott Mendelson"]},
{"text": "A Despicable Me spin-off so busy, witty and all-round entertaining you won't have time to pine for the absent Steve Carell.", "is_fresh": 1, "author": ["Neil Smith"]},
{"text": "The commitment Morel and his animators have to creating one sight gag after another is almost overwhelming. ", "is_fresh": 1, "author": ["Gregory Ellwood"]},
{"text": "This film is a frequently hysterical romp, packed with explosions, pratfalls and even a smidge of a history lesson.", "is_fresh": 1, "author": ["David Moynihan"]},
{"text": "The origin story of those little yellow jibberish-spouting helpers who populate the Despicable Me franchise is an hilarious, ridiculously entertaining, joyfully infectious affair...a cheesy, cheeky knockout. ", "is_fresh": 1, "author": ["Jim Schembri"]},
{"text": "far more kids-only than either of those featuring Gru.", "is_fresh": 1, "author": ["Giles Hardie"]},
{"text": "The best voice work, though, was by co-director Pierre Coffin, who breathes life into Kevin, Stuart, Bob and a whole bunch of other Minions.", "is_fresh": 1, "author": ["Boon Chan"]},
{"text": "A crazy, spirited, if simplistic fusion of off-beat adult humour blended with the sensibility of an anarchic toddler.", "is_fresh": 1, "author": ["Fionnuala Halligan"]},
{"text": "The minions -- like the proper sidekicks they are -- never really learn or change, always getting caught in variations of the same scenario.", "is_fresh": 0, "author": ["Boyd van Hoeij"]},
{"text": "There must have been a million Minion ideas that Lynch and everyone involved simply weren't able to incorporate into the film. Here's hoping the best of them find their way into \"Despicable Me 3,\" due out summer 2017.", "is_fresh": 1, "author": ["Peter Debruge"]},
{"text": "A vibrant and lively animation that perfectly captures the goofy energy of its zany title characters.", "is_fresh": 1, "author": ["Matthew Pejkovic"]}
]