[
{"reviews_count": "243", "title": "Moonrise Kingdom", "avg_audience_rating": "4.1", "rotten_count": "17", "tomatometer": "93", "audience_score": "86", "avg_critic_rating": "8.2", "fresh_count": "226", "user_ratings_count": "139,210"},
{"text": "The filmmakers have not gone to children for the sake of their bewildered innocence but for their ferocious clarity of intention and their radiant intelligence not yet reined in or habituated to sullen conformity.", "is_fresh": 1, "author": ["Geoffrey O'Brien"]},
{"text": "Moonrise Kingdom is so charming, so quaintly and perfectly designed, like a pretty diorama in which Wes Anderson carefully places his actor-dolls, that it feels curmudgeonly to dislike it.", "is_fresh": 1, "author": ["Molly Templeton"]},
{"text": "Bruce Willis, of all people, wrings the most emotion out of this theatrical straitjacket.", "is_fresh": 1, "author": ["Pat Padua"]},
{"text": "\"Moonrise Kingdom\" continues Anderson's winning streak.", "is_fresh": 1, "author": ["Steve Erickson"]},
{"text": "Eccentric and sweet and director/writer Wes Anderson's best live-action contribution since The Royal Tenenbaums.", "is_fresh": 1, "author": ["Kiko Martinez"]},
{"text": "Anderson's movie is a musical, composed work about how all of the instruments \ufeff\ufeff\ufeff\ufeff\ufeff\ufeff\ufeff\ufeff\ufeffplay together; what it achieves is a rare harmony of form, tone, and subject.", "is_fresh": 1, "author": ["Ignatiy Vishnevetsky"]},
{"text": "The movie is neither stupid nor offensive, which puts it ahead of a lot of pictures. But I was still perplexed. And, let's face it, disappointed.", "is_fresh": 0, "author": ["Eleanor Ringel Cater"]},
{"text": "Moonrise Kingdom makes a winning appeal to the precious joys of the pre-teen imagination circa 1965.", "is_fresh": 1, "author": ["Nick James"]},
{"text": "After a while, you want. . .the characters to evince some level of real feeling, ugly, extreme, agonized, whatever, as long as there is something that breaks the spell.", "is_fresh": 0, "author": ["Dorothy Woodend"]},
{"text": "'Moonrise Kingdom' magically recreates a child's-eye view of the early 1960s, bringing back memories of tents, tree houses, campfires, cub scouts, innocence, and first kisses. ", "is_fresh": 1, "author": ["Mark Jackson"]},
{"text": "It is no insult to tag Wes Anderson's Moonrise Kingdom as \"charming\" or \"enchanting.\" Those qualities, sadly missing in this vertigo-inducing era of big screen alien invasions and superhero exploits, are here, three times filled and overflowing.", "is_fresh": 1, "author": ["Bill Newcott"]},
{"text": "This is the work of an auteur - confident, but understated; beautiful, but heartbreaking; intoxicating, but sobering.", "is_fresh": 1, "author": ["J. Olson"]},
{"text": "It's funny, it's playful, it's full of nostalgic blasts and period trappings, but most of all it is loving: accepting of the headstrong kids determined to find their place in the world... ", "is_fresh": 1, "author": ["Sean Axmaker"]},
{"text": "The script may be the film's greatest strength: the movie is probably Anderson's most quotable.", "is_fresh": 1, "author": ["Austin Trunick"]},
{"text": "Moonrise Kingdom may be a light summer entr\u00e9e, but it rewards us by serving up a rich romantic fantasy and isn't afraid to share its sweet, beating young heart.", "is_fresh": 1, "author": ["Stephen Rebello"]},
{"text": "It's Anderson's most carefully constrained, painstakingly overdesigned movie, yet also his most gushing and emotionally accessible.", "is_fresh": 1, "author": ["Sean Burns"]},
{"text": "Endlessly subjective to the kids' fantasy of the world around them, a memory in mind compacted from impressions half-glimpsed, Anderson confects and even perfects a headlong heaven's-to-Etsy esthetic, in hothouse glory.", "is_fresh": 1, "author": ["Ray Pride"]},
{"text": "Anderson's woodsy thought process... elicits a thorough batch of the rainy summer daydreams where most grand childhood adventures and romances are so often had: in heads and hearts, if not in flesh.", "is_fresh": 1, "author": ["Rob Boylan"]},
{"text": "Wes Anderson remains trapped in the aquarium of his own imagination.", "is_fresh": 0, "author": ["Katherine Monk"]},
{"text": "All the grounding you need comes from the performances of Hayward and Gilman as the young runaways. They seem to have internalized Anderson's wonky worldview completely.", "is_fresh": 1, "author": ["Chris Knight"]},
{"text": "It's Wes Anderson's dollhouse as a home for wayward boys. Turns out, it's a safe place for adults to hide as well.", "is_fresh": 1, "author": ["Will Leitch"]},
{"text": "The film is frequently funny, always elegant (or mock-elegant), and something that would make Humbert Humbert laugh all the way to his asylum. ", "is_fresh": 1, "author": ["David Thomson"]},
{"text": "Anderson delivers a magnificent blend of artistry, humor and emotional resonance. ", "is_fresh": 1, "author": ["Al Alexander"]},
{"text": "To date my favorite Wes Anderson and I don't characterize myself as an Anderson fan.", "is_fresh": 1, "author": ["Wesley Lovell"]},
{"text": "It's doubtful this will win over any outright Anderson sceptics, but ... this is an exciting reaffirmation of talent.", "is_fresh": 1, "author": ["Catherine Bray"]},
{"text": "Wes Anderson's darkest movie yet retains his whimsical sense of humour and Fantastic Mr Fox-styled absurdity. ", "is_fresh": 1, "author": ["Tom Glasson"]},
{"text": "One of the ten best films of 2012.", "is_fresh": 1, "author": ["Fr. Chris Carpenter"]},
{"text": "At its heart, Moonrise Kingdom is a sweet and surprising love story with a healthy twist of typically warped humour.", "is_fresh": 1, "author": ["Matt Neal"]},
{"text": "The Houston native and University of Texas graduate beautifully blends humor and pathos to create what's bound to be one of the best movies of the year.", "is_fresh": 1, "author": ["Charles Ealy"]},
{"text": "People who enjoy being immersed in his singular vision won't be disappointed at all.", "is_fresh": 1, "author": ["Perry Seibert"]},
{"text": "Anderson's manner becomes a second skin and essential to the script, making Moonrise Kingdom a most comfortable way to watch matters uncomfortable.", "is_fresh": 1, "author": ["Jordan Hiller"]},
{"text": "Easily among the best of [Anderson's] works, it's a technically marvelous film with spot-on performances, a gorgeously realized score, and impeccable production design.", "is_fresh": 1, "author": ["Jason Gorber"]},
{"text": "In the summer of big, expensive superhero flicks, Moonrise Kingdom evokes awe, wonder and the magic of escapism in a much smaller and more precious way.", "is_fresh": 1, "author": ["Rob Gonsalves"]},
{"text": "Another quirky comedy from Wes Anderson who is an acquired taste I have not acquired.", "is_fresh": 0, "author": ["Jackie K. Cooper"]},
{"text": "a farce of whimsical philosophical import ", "is_fresh": 1, "author": ["Andrea Chase"]},
{"text": "It's like a picturesque, ride down a long countryside road in autumn bursting with wonderful imagery; richly developed characters complimented by an excellent score that quickly brings you into this small in scope, but big on brilliance effort.", "is_fresh": 1, "author": ["Jeffrey Lyles"]},
{"text": "Films that can charm kids and adults in equal measure are rare. This is one of them. ", "is_fresh": 1, "author": ["Andy Lea"]},
{"text": "So precise it could be alien, so raw and aching it has to be human. Competes with the best of Anderson. A film to be celebrated.", "is_fresh": 1, "author": ["Rob Humanick"]},
{"text": "This is the best film I've seen so far this year.", "is_fresh": 1, "author": ["Robert Roten"]},
{"text": "With its deadpan dialogue and damaged characters, Moonrise Kingdom casts a unique and charming spell and is surprisingly hopeful.", "is_fresh": 1, "author": ["Eric Melin"]},
{"text": "Moonrise Kingdom remains - for the most part - a gem of a film, and clear indication that Wes Anderson is only getting better with age.", "is_fresh": 1, "author": ["Kofi Outlaw"]},
{"text": "If you can fully get on Anderson's wavelength you may find this film transportive. I, however, thought it was far too quaint.", "is_fresh": 1, "author": ["Adam Ross"]},
{"text": "How Wes Anderson stitches it all together is far beyond the reach of most filmmakers. His approach is artful without pretension, gorgeous and composed without feeling forced, charming and innocent but never trite.", "is_fresh": 1, "author": ["Patrick Kolan"]},
{"text": "Moonrise Kingdom is a totally charming and enchanting piece of work from director Wes Anderson, who along with a great cast provide one of the delights of the year.", "is_fresh": 1, "author": ["Will Chadwick"]},
{"text": "Moonrise Kingdom is enchanting and warm like fond memories of your first love; but with a self-awareness that sees the hilarity in the eccentrics that abound.", "is_fresh": 1, "author": ["Blake Howard"]},
{"text": "Wes Anderson's refreshingly original \"Moonrise Kingdom\" is an unconventional children's adventure for adults, filled with with striking colors, textures and humor, and teeming with childhood innocence.", "is_fresh": 1, "author": ["Justin Craig"]},
{"text": "...it reminds us of the way we (mis)apprehended the world when we were children, the way we strained to hear the adults in conference, the way we looked for clues in their manner and fastened our attention on ... random or inconsequential details.", "is_fresh": 1, "author": ["Philip Martin"]},
{"text": "The reputation of Wes Anderson as one of America's most consistently over-rated directors gets another boost with his latest exercise in stylistic posturing and forced whimsy.", "is_fresh": 0, "author": ["Jim Schembri"]},
{"text": "The divide between childhood and adolescence as a nature stroll", "is_fresh": 1, "author": ["Fernando F. Croce"]},
{"text": "So many scenes will leave you with raised eyebrows and a wry smile.", "is_fresh": 1, "author": ["Matthew Toomey"]},
{"text": "The most Wes Anderson-ish film Wes Anderson has ever made, 'Moonrise Kingdom' won't convert any naysayers to the cause, but fans of his work will have a ball.", "is_fresh": 1, "author": ["Dominic Corry"]},
{"text": "Moonrise Kingdom, which the director wrote with regular collaborator Roman Coppola, feels like his most emotionally honest work since his 1998 breakthrough, Rushmore. ", "is_fresh": 1, "author": ["Craig Mathieson"]},
{"text": "It's not my favourite Wes Anderson film but I do like it very much.", "is_fresh": 1, "author": ["David Stratton"]},
{"text": "His singular take on young love on the run from any sort of authority has moments of sheer oddness, but it's all of a piece with his other work and you are either an Anderson fan or you're not. ", "is_fresh": 1, "author": ["Margaret Pomeranz"]},
{"text": "There are many echoes of Anderson's earlier films, particularly Rushmore and Tenenbaums. He's an unapologetic romantic and Moonrise Kingdom is a study in wish-fulfillment. ", "is_fresh": 1, "author": ["Sandra Hall"]},
{"text": "Let the haters hate, but Anderson continues to build a distinctive filmography on par with any of his contemporaries.", "is_fresh": 1, "author": ["Jim Poe"]},
{"text": "Most will happily accept, and be truly enraptured by what unfolds.", "is_fresh": 1, "author": ["Leigh Paatsch"]},
{"text": "Moonrise Kingdom is an extremely sweet and heartfelt portrayal of young love and how such love inspires the lives of others who encounter it.", "is_fresh": 1, "author": ["Thomas Caldwell"]},
{"text": "A hit of nostalgia in 50 shades of brown", "is_fresh": 1, "author": ["Cameron Williams"]},
{"text": "Around the time of his disappointing and detached The Life Aquatic, I wondered if Wes could still tell real stories. He can. His way. That is all we can ever ask of a filmmaker.", "is_fresh": 1, "author": ["Simon Miraudo"]},
{"text": "A complex set of cinematic pleasures, ranging from its vibrant, eccentric visual presentation to its deadpan humour and superb performances. Oh, and the music!", "is_fresh": 1, "author": ["Andrew L. Urban"]},
{"text": "The brush strokes are uniquely Anderson", "is_fresh": 1, "author": ["Louise Keller"]},
{"text": "It's a collection of cockeyed ideas compressed into a narrative that's utterly devoid of any actual attachment.", "is_fresh": 0, "author": ["Erick Weber"]},
{"text": "As detached as the filmmaking sometimes appears, I daresay you can feel something pure coming off of the screen. Moonrise Kingdom is a stellar film.", "is_fresh": 1, "author": ["William Bibbiani"]},
{"text": "Summer lovin' just got a whole more stylish thanks to Wes Anderson.", "is_fresh": 1, "author": ["Alice Tynan"]},
{"text": "Quirky, random, and surprisingly endearing for a Wes Anderson film--likely his best.", "is_fresh": 1, "author": ["Bruce Bennett"]},
{"text": "Funny, touching, sweet and drenched in '60s nostalgia, but reverberating with distant, haunting echoes of adolescent longing for practically anyone who grew up anytime, anyplace, anywhere. ", "is_fresh": 1, "author": ["Neil Pond"]},
{"text": "\"Moonrise Kingdom\" is the type of movie that is charming for the soul and makes your brain happy in the process. All in all, it's just a heartfelt and well-written experience that will appeal to everyone.", "is_fresh": 1, "author": ["Chris Sawin"]},
{"text": "These charming kids give \"Moonrise Kingdom\" the warm glow of a summer fairy-tale, one you'll want to hear again. ", "is_fresh": 1, "author": ["Sean P. Means"]},
{"text": "A sweet love story.", "is_fresh": 1, "author": ["Dennis Schwartz"]},
{"text": "Pure Joy. This film's heroes may be pint-sized but their emotions and dreams are larger than life.", "is_fresh": 1, "author": ["Kirk Honeycutt"]},
{"text": "My immediate response is that it's a masterpiece and the best film to come out so far this year.", "is_fresh": 1, "author": ["Ken Hanke"]},
{"text": "The offbeat, pixilated universes created by writer/director Wes Anderson (Rushmore, The Royal Tenenbaums, Fantastic Mr. Fox) are an acquired taste. ", "is_fresh": 1, "author": ["Lori Hoffman"]},
{"text": "It's hard to judge a movie as a movie when you want to live inside it.", "is_fresh": 1, "author": ["Margot Harrison"]},
{"text": "Magical Moonrise a Romantic Delight.", "is_fresh": 1, "author": ["Charles Koplinski"]},
{"text": "Sweet, not saccharine", "is_fresh": 1, "author": ["Marty Mapes"]},
{"text": "Intermittently amusing, distinctive, not always easy to digest", "is_fresh": 0, "author": ["Robert Denerstein"]},
{"text": "Moonrise Kingdom left me thunderstruck. ... Anderson contrasts a world in disorder with a well-pitched campsite, where everything is in its right place. ", "is_fresh": 1, "author": ["Jeffrey Overstreet"]},
{"text": "Anderson's movies work best if they're about kids or cartoon animals.", "is_fresh": 1, "author": ["Dan Lybarger"]},
{"text": "Among the all-stars, Edward Norton made me repeatedly chuckle, and it's always a pleasure to see Bruce Willis when he's not operating in paycheck-whore mode.", "is_fresh": 1, "author": ["Matt Brunson"]},
{"text": "A sweetly kooky ode to the intensity of young love. The movie balances broad comedy with occasionally surreal quirk, while still holding the emotional center. ", "is_fresh": 1, "author": ["Mike McGranaghan"]},
{"text": "The adults who are so desperate to return the kid fugitives to their care actually envy the children's freedom, irresponsibility and, yes, love -- in a word, their youth: The kingdom that makes exiles of us all.", "is_fresh": 1, "author": ["John Beifuss"]},
{"text": "The frustrating Anderson is improving, and he may one day shed the collegiate hipster aura that infuses his work.", "is_fresh": 1, "author": ["Jon Niccum"]},
{"text": "The plot isn't as fetching as the presentation, starting with the tersely whimsical dialogue. There aren't punch lines for big laughs, but rather a seamless series of non sequiturs for smiles.", "is_fresh": 1, "author": ["Steve Persall"]},
{"text": "It's funny, it's touching, it's Anderson doing what he does better than he's ever done before.", "is_fresh": 1, "author": ["John Wirt"]},
{"text": "Wonderfully inventive and entirely immersing.", "is_fresh": 1, "author": ["Mike Scott"]},
{"text": "The great thing about Wes Anderson, other than his fabulously childlike imagination, is his deep attention to the smallest details.", "is_fresh": 1, "author": ["Clint O'Connor"]},
{"text": "This isn't Wes Anderson's best effort by any stretch. However, any Anderson is better than no Anderson at all.", "is_fresh": 1, "author": ["Gary Wolcott"]},
{"text": "Kingdom benefits as well from a better designed story that does not weave restlessly the way his last did, but it's still not going to convince anyone who doesn't already like what Anderson does to follow along.", "is_fresh": 1, "author": ["Joshua Starnes"]},
{"text": "This film contains some of cinema history's best lightning strikes.", "is_fresh": 1, "author": ["Bob Grimm"]},
{"text": "Wes Anderson's films are stylistic carbon copies of each other, merely swapping out storylines and characters. It's like going to a bunch of different restaurants and ordering the exact same meal -- you walk in knowing what you're going to get.", "is_fresh": 0, "author": ["Christopher Lloyd"]},
{"text": "Most of Wes Anderson's previous pictures came from the head; Moonrise Kingdom is one from the heart.", "is_fresh": 1, "author": ["Rene Rodriguez"]},
{"text": "Moonrise Kingdom is a charming reminder of Anderson's particular talent for spinning fantasies about the collective childhood we all wish we had.", "is_fresh": 1, "author": ["Jeremy Heilman"]},
{"text": "Anderson never loses his core themes - young love, the need to escape, the bind and bluster of family. His \"Kingdom\" may not be large, but it is perfectly appointed.", "is_fresh": 1, "author": ["Tom Long"]},
{"text": "As fussy as anything Anderson has ever done, but instead of being overstuffed, as virtually all of his movies have been, for good and ill, [the film] is mostly delicate.", "is_fresh": 1, "author": ["Tim Brayton"]},
{"text": "A sometimes precocious but mostly whimsical and artfully fluent evocation of adolescent enthusiasm and adult ennui.", "is_fresh": 1, "author": ["Duane Dudek"]},
{"text": "Anderson's latest effort is like an Instagram photo - a nostalgic snapshot that seems to be of different time and place but is really the twee affectation of a world that never existed.", "is_fresh": 1, "author": ["Jeff Meyers"]},
{"text": "[Anderson] may make it look easy because of how firmly his mannerisms are established at this point, but it takes a real artist to evoke the rocky emotional storms of adolescence and adulthood with such clear eyes and precise voice.", "is_fresh": 1, "author": ["Drew McWeeny"]},
{"text": "Anderson's films have been described as quirky, eccentric and whimsical. But there is also a genuine charm and heart that is driven by the Anderson's love for his characters, and the love those characters have for one another.", "is_fresh": 1, "author": ["Matthew Pejkovic"]},
{"text": "Wes Anderson, at 43, is still grappling with adolescence.", "is_fresh": 0, "author": ["Kelly Vance"]},
{"text": "More unbearable Anderson whimsy. ", "is_fresh": 0, "author": ["Boo Allen"]},
{"text": "When the storm arrives, it's a doozy, especially as it intensifies a final, thrilling chase sequence.", "is_fresh": 1, "author": ["Kimberley Jones"]},
{"text": "Only Anderson could find the subtle brilliance in a shirtless, ax-wielding Murray dejectedly declaring \"I'm going outside to find a tree to chop down.\"", "is_fresh": 1, "author": ["Mathew DeKinder"]},
{"text": "Did you think Wes Anderson had no more tricks up his sleeve, that he was just showing us the same thing over and over again, that he couldn't surprise us? Wrong. ", "is_fresh": 1, "author": ["Stephen Silver"]},
{"text": "\"Moonrise Kingdom,\" which could be Anderson's most honest movie yet, also contains arguably his two most mature characters, who both happen to be 12.", "is_fresh": 1, "author": ["Jeffrey M. Anderson"]},
{"text": "Exactly what you expect from Anderson, and also dangerously close to overstaying its welcome.", "is_fresh": 1, "author": ["Alison Gang"]},
{"text": "The performances from Hayward and Gilman, as runaways, are at the heart of the film, and they manage to seem both innocent and powerful.", "is_fresh": 1, "author": ["Jenny McCartney"]},
{"text": "Phonies may complain that Anderson's island of misfit toys is a retreat from the real world, but for pure-hearted adventurers who share the secret map, \"Moonrise Kingdom\" is a joy that cannot be eclipsed.", "is_fresh": 1, "author": ["Joe Williams"]},
{"text": "Though undeniably smart and charming, \"Moonrise Kingdom\" loves itself the way the callow Holden Caulfield loves himself: unconditionally. Salinger understood the problem with that. Anderson may not.", "is_fresh": 1, "author": ["Rafer Guzman"]},
{"text": "It's sweet, charming, quirky, imaginative, poignant, and whimsical. Just what a Wes Anderson film should be. ", "is_fresh": 1, "author": ["Austin Kennedy"]},
{"text": "Anderson has trouble sticking the landing, but \"Moonrise Kingdom\" is in many ways the most satisfying flight he's taken us on in years.", "is_fresh": 1, "author": ["Shawn Levy"]},
{"text": "\"Moonrise Kingdom\" takes place in a world where everything seems pleasantly faded, where people read crackly-covered library books rather than e-books, and where young people are allowed to be genuinely innocent.", "is_fresh": 1, "author": ["Moira MacDonald"]},
{"text": "A remarkable story, stopping to survey the author's superlative descriptions and attention to the tiniest fragments of heartbreak. It's a treat to watch unfold, sweetened gorgeously by Anderson's magical manner of thinking.", "is_fresh": 1, "author": ["Brian Orndorf"]},
{"text": "The latest unadulterated delight from Wes Anderson, director of \"Rushmore,\" \"The Royal Tenenbaums\" and \"Fantastic Mr. Fox.\"", "is_fresh": 1, "author": ["Colin Covert"]},
{"text": "The usual complaints and caveats about Anderson - he's precious, his characters have no grounding in the real world - can be made about Moonrise Kingdom, but so what?", "is_fresh": 1, "author": ["Steven Rea"]},
{"text": "I loved every second of \"Moonrise Kingdom.\"", "is_fresh": 1, "author": ["Chris Hewitt (St. Paul)"]},
{"text": "Anderson and his actors are able to convey more genuine feeling through these devices than most filmmakers can with more-traditional means.", "is_fresh": 1, "author": ["Bill Goodykoontz"]},
{"text": "Thoroughly well scripted and well-acted. May be the greatest work to date from one of the greatest directors working.", "is_fresh": 1, "author": ["Ron Wilkinson"]},
{"text": "Moonrise Kingdom\u2019s heartfelt search and rescue of a feel-good result provides a perfect, even musical counterpoint to its regimented summer camp.", "is_fresh": 1, "author": ["Peter Canavese"]},
{"text": "One knock against some of Anderson's previous efforts is that they're too clever - so clever, in fact, that the humanity gets sucked out of them. That doesn't happen here.", "is_fresh": 1, "author": ["James Berardinelli"]},
{"text": "For the first time, Anderson's artifice has worked against him.", "is_fresh": 0, "author": ["Derek Smith"]},
{"text": "This is a Wes Anderson film. It's gonna be quaint. It's gonna be wry. It's gonna look just like Anderson's other features. But is that such a bad thing? ", "is_fresh": 1, "author": ["Tricia Olszewski"]},
{"text": "A marvelously funny, wry script", "is_fresh": 1, "author": ["Jeanne Kaplan"]},
{"text": "Despite the star power on display here, the movie is not for everyone", "is_fresh": 1, "author": ["David Kaplan"]},
{"text": "Anderson's best feature since Rushmore, in part because, like that film, it takes as its primary subject matter odd, precocious children, rather than the damaged and dissatisfied adults they will one day become. ", "is_fresh": 1, "author": ["Christopher Orr"]},
{"text": "Wes Anderson's best work in a decade, as he returns to the nimble territory precariously balanced between fairy-tale whimsy and genuine emotion", "is_fresh": 1, "author": ["James Kendrick"]},
{"text": "There's no denying the extravagant pleasures \"Moonrise Kingdom\" affords as an erudite wish-fulfillment fantasy of empowerment and autonomy.", "is_fresh": 1, "author": ["Ann Hornaday"]},
{"text": "A tad too twee for its own good.", "is_fresh": 1, "author": ["Roger Moore"]},
{"text": "Moonrise Kingdom might be Wes Anderson's purest work yet -- a tender tale of longing and melancholy as seen through the eyes of a handful of people on an isolated (fictional) island off the coast of New England.", "is_fresh": 1, "author": ["Norman Wilner"]},
{"text": "Last time out, in Fantastic Mr. Fox, Wes Anderson adapted a children's book by Roald Dahl. Now, in Moonrise Kingdom, he's made one of his own.", "is_fresh": 1, "author": ["Rick Groen"]},
{"text": "Anderson's most involving and sardonically funny movie since Rushmore (and maybe better).", "is_fresh": 1, "author": ["Jim Slotek"]},
{"text": "Another great film from Anderson, and the beginning of a fantastic career for Hayward. ", "is_fresh": 1, "author": ["Willie Waffle"]},
{"text": "The adventurous circumstances and sensations of young love permeate Moonrise Kingdom.", "is_fresh": 1, "author": ["Mark Dujsik"]},
{"text": "It's the filmmaker's best piece of live-action cinematic art since 'Rushmore' and nicely joins 'Fantastic Mr. Fox' in his return to fine form. (Full Content Review for Parents also available)", "is_fresh": 1, "author": ["Jim Judy"]},
{"text": "Moonrise Kingdom feels like a culmination, like Anderson has been working towards this one movie.", "is_fresh": 1, "author": ["Devin Faraci"]},
{"text": "Wes Anderson films are not so much directed as curated. ", "is_fresh": 1, "author": ["Nell Minow"]},
{"text": "Funny and heartfelt in equal measure, \"Moonrise Kingdom\" is a top-to-bottom charmer and one of the most heartfelt peans to the power of young love that you will see anytime soon.", "is_fresh": 1, "author": ["Peter Sobczynski"]},
{"text": "It's an adventure, a love story, a biblical allegory complete with approaching storm, a mash note to composer Benjamin Britten and a profoundly touching discourse on the needs of troubled children.", "is_fresh": 1, "author": ["Amy Biancolli"]},
{"text": "Has individual moments that are alluring to the eyes, but like the aforementioned dollhouse where Suzy lives, take a closer look inside and it becomes obvious how artificial all the parts are.", "is_fresh": 0, "author": ["Dustin Putman"]},
{"text": "\"Moonrise Kingdom\" is Anderson's seventh movie, and it's the first since \"Rushmore\" that works from the opening shot to the final image.", "is_fresh": 1, "author": ["Wesley Morris"]},
{"text": "Who else can capture with such chilling accuracy that fragile period between childhood and disillusionment, the time when the novelty of true love overwhelms the heart with its immensity and futility?", "is_fresh": 1, "author": ["Peter Keough"]},
{"text": "If you can meet with realism and surrealism and treat those two impostors just the same, then yours are the movies and everything in them. I'm paraphrasing Emilio Estevez but I think you get the idea.", "is_fresh": 1, "author": ["Ed Whitfield"]},
{"text": "It's a fable about what it feels like to be 12 years old and afflicted, from head to toe, by a romantic crush the size of a planet.", "is_fresh": 1, "author": ["Michael Phillips"]},
{"text": "A true delight - a fun, clever, and, of course, whimsical tale about the days when love seemed worth running away from home over and getting a scout badge meant the world.", "is_fresh": 1, "author": ["Brian Tallerico"]},
{"text": "Anderson's most delightfully bittersweet live-action movie since The Royal Tenenbaums.", "is_fresh": 1, "author": ["Matt Pais"]},
{"text": "Like all Wes Anderson movies, it is na\u00efve, mannered, pretentious and incomprehensible.", "is_fresh": 0, "author": ["Rex Reed"]},
{"text": "Wes Anderson's mind must be an exciting place for a story idea to be born.", "is_fresh": 1, "author": ["Roger Ebert"]},
{"text": "Wes Anderson's most intimate film since Bottle Rocket (1996) and maybe his most deeply felt overall.", "is_fresh": 1, "author": ["Ben Sachs"]},
{"text": "Hayward and Gilman are newcomers who are asked to carry much of the film and pull it off with lovely understatement and extraordinary believability.", "is_fresh": 1, "author": ["Charlie McCollum"]},
{"text": "Its moments of transporting beauty and visual brilliance overcame my growing aversion to Wes Anderson's brand of ultra-stylized archness. ", "is_fresh": 1, "author": ["Jon Frosch"]},
{"text": "A gossamer fable of adolescent romance, played out with the cheekily whimsical, visually delicious style for which Anderson is famous.", "is_fresh": 1, "author": ["Frank Swietek"]},
{"text": "We may look back on Anderson's works as we do on the boxes of Joseph Cornell -- formal troves of frippery, studded with nostalgic private jokes, that lodge inexplicably in the heart. In Moonrise Kingdom, that lodging is already under way.", "is_fresh": 1, "author": ["Anthony Lane"]},
{"text": "Wes Anderson's most sartorially significant film yet.", "is_fresh": 1, "author": ["Chris Laverty"]},
{"text": "At once funny and melancholic, whimsical and poignantly true.", "is_fresh": 1, "author": ["Michael Dequina"]},
{"text": "One is at times reminded of AE Housman.", "is_fresh": 1, "author": ["Philip French"]},
{"text": "Moonrise Kingdom is a delight... stuffed full of the quirky details and gags that are Anderson's trademarks, but it also possesses an emotional undertow that will tug at those viewers in tune with its singular sensibility.", "is_fresh": 1, "author": ["Jason Best"]},
{"text": "Capturing our inner children", "is_fresh": 1, "author": ["S. James Wegg"]},
{"text": "If the deadpan sensibility of the film ultimately leaves it feeling a tad lightweight, that isn't to say that Moonrise Kingdom isn't a funny, witty and well-crafted film.", "is_fresh": 1, "author": ["Martin Roberts"]},
{"text": "Typically quirky Wes Anderson dramedy has lots of heart.", "is_fresh": 1, "author": ["S. Jhoanna Robledo"]},
{"text": "A bittersweet and evocative period piece that's both a visual and narrative delight.", "is_fresh": 1, "author": ["Todd Jorgenson"]},
{"text": "No one has an eye or sensibility like Anderson's, but this is a chilly disappointment. The unaffecting kids are meant to be the emotional center, yet the adults steal the film.", "is_fresh": 1, "author": ["Caryn James"]},
{"text": "I really wanted to like this film. I respect Wes Anderson and his distinctive voice as a writer-director ('Rushmore' is one of my favorite films of the 1990s), but this latest endeavor is so precious and self-aware that it nearly smothers itself. ", "is_fresh": 0, "author": ["Leonard Maltin"]},
{"text": "Those who find the director's work flawed by preciousness, however, may grow impatient well before the movie reaches the 90-minute mark.", "is_fresh": 0, "author": ["Kurt Loder"]},
{"text": "It makes you nostalgic for the pangs of young love.", "is_fresh": 1, "author": ["Peter Rainer"]},
{"text": "Anderson has imagined the '60s on the East Coast as if from an Eddie Bauer catalog and Boys' Life, with the sensibility of The New Yorker.", "is_fresh": 1, "author": ["Kent Turner"]},
{"text": "Like many holiday locations, you wouldn't want to live there, but a mini-break from the norm can be a real tonic.", "is_fresh": 1, "author": ["Robbie Collin"]},
{"text": "A sweet, charming and altogether delightful bit of whimsy from writer/director Wes Anderson.", "is_fresh": 1, "author": ["Ethan Alter"]},
{"text": "I normally end up liking Wes Anderson's films, but I love this one.", "is_fresh": 1, "author": ["Grae Drake"]},
{"text": "'Moonrise Kingdom captures,' as few films ever have, the thrilling flush of a first love (or crush, at least), but it also remembers the agony of pre-teen solitude.", "is_fresh": 1, "author": ["Jason Bailey"]},
{"text": "The delightful Moonrise Kingdom marks a career high for offbeat auteur Wes Anderson.", "is_fresh": 1, "author": ["Matt Stevens"]},
{"text": "Moonrise Kingdom is bewitching.", "is_fresh": 1, "author": []},
{"text": "What makes it an Anderson movie are the things he adds which mark all his films - the pop-cultural obsessions and excruciatingly detailed set decorations, overarching thematic concerns and little stylistic tics.", "is_fresh": 1, "author": ["Stephen Whitty"]},
{"text": "I liked this one because of its young performers, the evocative island setting (filmed in Rhode Island), Alexandre Desplat's lovely score and Robert Yeoman's slightly grainy cinematography.", "is_fresh": 1, "author": ["Lou Lumenick"]},
{"text": "There's a whole lot wonderful running around this particular Kingdom ... once we embrace the tongue-in-cheek firmly hammered into place.", "is_fresh": 1, "author": ["Kimberly Gadette"]},
{"text": "'Moonrise Kingdom' made a believer out of a long-time naysayer, and that's really something.", "is_fresh": 1, "author": ["Eugene Novikov"]},
{"text": "...a courtship both innocent and precocious.", "is_fresh": 1, "author": ["Josh Larsen"]},
{"text": "The quirk might be laid on a bit thick... [but] the Andersonian humor is also laid on pretty thick in a good way, and most of it comes at the expense of the adults.", "is_fresh": 1, "author": ["Bob Westal"]},
{"text": "Visually striking and boasting beautifully measured central performances, this tale of love, redemption and dissipating innocence should delight viewers of every age.", "is_fresh": 1, "author": ["James O'Brien"]},
{"text": "Beautifully written, amazing to look at, funny and moving, fans of Anderson will have a ball with this truly wonderful film.", "is_fresh": 1, "author": ["Alex Zane"]},
{"text": "The director's best film since 1998's Rushmore, it has none of the self-conscious smugness of The Life Aquatic or the empty eccentricity of The Royal Tenenbaums.", "is_fresh": 1, "author": ["Claudia Puig"]},
{"text": "A gorgeously shot, ingeniously crafted, \u00fcber-Andersonian bonbon that, even in its most irritatingly whimsical moments, remains an effective deliverer of cinematic pleasure.", "is_fresh": 1, "author": ["Dana Stevens"]},
{"text": "\"Moonrise Kingdom\" breezes along with a beautifully coordinated admixture of droll humor, deadpan and slapstick.", "is_fresh": 1, "author": ["Manohla Dargis"]},
{"text": "Beguiling and endearing...", "is_fresh": 1, "author": ["Joe Morgenstern"]},
{"text": "In this tale about growing up and falling in love, it seems Anderson has found his true heart.", "is_fresh": 1, "author": ["Betsy Sharkey"]},
{"text": "The auteur's calculated quality persists in his latest film, but Moonrise Kingdom exudes a warmth and innocence generated by the earnest adolescent romance at its core.", "is_fresh": 1, "author": ["Annlee Ellingson"]},
{"text": "With lots of good jokes and very funny child actors, plus adults who carry the emotional weight the children cannot, Moonrise Kingdom has elements that hold up to the best of what Anderson has done", "is_fresh": 1, "author": ["Katey Rich"]},
{"text": "The hilarious and heartfelt Moonrise Kingdom is a consistent pleasure. By evoking the joys and terrors of childhood, it reminds us how to be alive. ", "is_fresh": 1, "author": ["Peter Travers"]},
{"text": "For all the self-conscious distancing techniques and quirky humor Anderson employs, when he's at his best, his work can be surprising in its disarming emotion.", "is_fresh": 1, "author": ["Ian Buckwalter"]},
{"text": "From the opening shot of a cross-stitched house hanging on a wall of the home it pictures, \"Moonrise Kingdom\" is unmistakably a Wes Anderson film and it is his best film since his best film \"Rushmore...\"", "is_fresh": 1, "author": ["Laura Clifford"]},
{"text": "For all the movie's technical meticulousness, the storytelling still has a wiggly-waggly quality, like a dangly loose tooth.", "is_fresh": 0, "author": ["Stephanie Zacharek"]},
{"text": "Even as Anderson pushes us away, the kids - and a wonderful Willis, as their self-appointed protector - reach out and pull us back in.", "is_fresh": 1, "author": ["Elizabeth Weitzman"]},
{"text": "Only now and again does one get a wash of something unifying, deep - a suggestion of adult depression and disillusion.", "is_fresh": 1, "author": ["Antonia Quirke"]},
{"text": "It's never hugely funny or moving - Anderson's movies are too stylised and detached for that - but it has charm and a lovely performance from Willis as a weary local cop who's never found true love. ", "is_fresh": 1, "author": ["Henry Fitzherbert"]},
{"text": "Tender, melancholy and nostalgic, it's one of Wes Anderson's best fantasy films.", "is_fresh": 1, "author": ["Susan Granger"]},
{"text": "A whimsical tale about a different kind of storm - adolescence before adulthood.", "is_fresh": 1, "author": ["Mark Sells"]},
{"text": "This gently engaging adventure is his warmest, wittiest film since The Life Aquatic. It keeps us smiling all the way through.", "is_fresh": 1, "author": ["Rich Cline"]},
{"text": "Moonrise Kingdom is Anderson's most completely satisfying film since the one-two of Rushmore and The Royal Tenenbaums, in part because it's the perfect distillation of both.", "is_fresh": 1, "author": ["Scott Tobias"]},
{"text": "Director Wes Anderson releases a quirky, almost storybook tale of adolescent love in a bygone era.", "is_fresh": 1, "author": ["Julian Roman"]},
{"text": "A wonderfully refreshing experience, one that's got humor and heart, and, overall, is just a very well planned and well made production.", "is_fresh": 1, "author": ["Perri Nemiroff"]},
{"text": "Moonrise is a typical Wes Anderson production, quirky to the point of becoming irritating.", "is_fresh": 1, "author": ["Graham Young"]},
{"text": "As per the director's norm, the film offers a triumph of style over substance. But sometimes, when it's not just typical summertime bombast, that's what you need.", "is_fresh": 1, "author": ["Robert Levin"]},
{"text": "Anderson hasn't lost his puckishly charming genius for cinema-as-diorama visuals. Yet a lot happens in this film, and not a lot of it matters.", "is_fresh": 1, "author": ["Owen Gleiberman"]},
{"text": "Wes Anderson's fanciful, heartfelt tale of two 12-year-old runaways will delight his fans and may even win some converts among those who've resisted his hermetic style.", "is_fresh": 1, "author": ["Kevin Lally"]},
{"text": "Moonrise Kingdom is a deeply romantic film, perhaps the sweetest and most compassionate Anderson has ever made.", "is_fresh": 1, "author": ["Andrew O'Hehir"]},
{"text": "Resembles a novelization of Godard's Pierrot le Fou as conceived by storybook artist Richard Scarry.", "is_fresh": 1, "author": ["Alonso Duralde"]},
{"text": "A living storybook with the emotional depth to boot.", "is_fresh": 1, "author": ["Matt Patches"]},
{"text": "A wonder-inducing film from Wes Anderson about the authentic quest of two oddball teens who just want to be free.", "is_fresh": 1, "author": ["Frederic and Mary Ann Brussat"]},
{"text": "Only die-hard curmudgeons will remain unmoved.", "is_fresh": 1, "author": ["Elliott Noble"]},
{"text": "Wes Anderson's seventh feature is a delight from start to finish, thanks to a wonderful script, a typically fabulous soundtrack, achingly stylish direction, gorgeous production design work and terrific performances from a superb cast.", "is_fresh": 1, "author": ["Matthew Turner"]},
{"text": "The most extraordinary usage of mise en sc\u00e8ne I've seen. By that I mean ", "is_fresh": 1, "author": ["Jules Brenner"]},
{"text": "A continuously surprising and delightful adolescent romance set in 1965, in what appears to be a dollhouse.", "is_fresh": 1, "author": ["Keith Uhlich"]},
{"text": "Its portrait of young love is both mature and defiantly utopian.", "is_fresh": 1, "author": ["Karina Longworth"]},
{"text": "It's an extraordinary thing, from start to finish. ", "is_fresh": 1, "author": ["Glenn Kenny"]},
{"text": "There's a certain giddy airlessness to Moonrise Kingdom ... And yet that cinematic hypoxia creates its own kind of high, if you can adjust to the altitude.", "is_fresh": 1, "author": ["Marshall Fine"]},
{"text": "If you love Wes Anderson, you'll love this: The best of what he can do is vibrantly on display.", "is_fresh": 1, "author": ["Christy Lemire"]},
{"text": "It left me bemused instead of moved, but true Andersonites will likely float away in a state of nirvana.", "is_fresh": 1, "author": ["David Edelstein"]},
{"text": "As funny, bittersweet and as distinct as you'd expect from Wes Anderson, a director who helps you know you are not alone.", "is_fresh": 1, "author": ["Nev Pierce"]},
{"text": "This jaunty romp, written by Anderson with Roman Coppola, is a delightful succession of sombre pronouncements and sight gags in the service of a tale with a bittersweet emotional core.", "is_fresh": 1, "author": ["Lisa Nesselson"]},
{"text": "If you hate Wes Anderson, this movie won't change your mind, but believers should be enchanted.", "is_fresh": 1, "author": ["Mike D'Angelo"]},
{"text": "Fleet, funny, impeccably orchestrated: whimsical Wes returns on top of his game.", "is_fresh": 1, "author": ["Kevin Harley"]},
{"text": "Terrific work by an enviably talented filmmaker, with a wistful poignance that will stick with you.", "is_fresh": 1, "author": ["Eric D. Snider"]},
{"text": "Wes Anderson's seventh film feels like a Greatest Hits package. Which if you're a Wes fan will make you very happy.", "is_fresh": 1, "author": ["James Mottram"]},
{"text": "[VIDEO ESSAY] Wes Anderson has honed his formally composed vernacular of kitschy nostalgic magic realism cinema to a super fine point.", "is_fresh": 1, "author": ["Cole Smithey"]},
{"text": "For the first 15 minutes or so, Moonrise Kingdom feels like the movie Wes Anderson's detractors have always accused him of churning out. Then it finds its footing and becomes a film that only Anderson could have made.", "is_fresh": 1, "author": ["Andrew Schenker"]},
{"text": "Its childishness, sense of innocence and eye for fun all make it a very easy film to love.", "is_fresh": 1, "author": ["Dave Calhoun"]},
{"text": "Cheers for a Cannes director who has infused his technical mastery with radiant life. In the Museum of the World of Wes Anderson, the dolls are dancing.", "is_fresh": 1, "author": ["Richard Corliss"]},
{"text": "The biggest coup here is that Anderson has finally managed to anchor his trademark whimsy with a sincere and heady romanticism, and by the end, you may even be reaching for your immaculately embroidered handkerchief (or neck scarf) to wipe away the tears.", "is_fresh": 1, "author": ["David Jenkins"]},
{"text": "A worthy addition to Anderson's canon -- his deadpan wit meshes nicely with a generous view of human imperfections.", "is_fresh": 1, "author": ["David Gritten"]},
{"text": "The film is almost unfailingly funny, but it also has a rapt quality, as if we are viewing the events through Suzy's binoculars or reading the story under the covers by a flashlight.", "is_fresh": 1, "author": ["Kristin M. Jones"]},
{"text": "An absolute smash. It's a gloriously overemotional tale of two pre-teen lovers full of lime-soaked scenery and pleasingly stilted 1960s telephone conversations.", "is_fresh": 1, "author": ["Charlie Lyne"]},
{"text": "This is an adult film about children rather than a children's film, per se. Youngsters should, however, love it and their parents be pleased they've seen it too. Very rare, that.", "is_fresh": 1, "author": ["Derek Malcolm"]},
{"text": "Anderson aficionados are bound to warm to Moonrise Kingdom. Non-fans may take more persuading, but should enjoy themselves in the end.", "is_fresh": 1, "author": ["Geoffrey Macnab"]},
{"text": "Anderson throws so much non-sensical stuff at the weaker-than-normal script that Moonrise Kingdom feels like a giant waste of money and a cach\u00e9 of squandered talent.", "is_fresh": 0, "author": ["Edward Douglas"]},
{"text": "Hugely charming, and featuring both typically excellent cast performances, and some wonderful technical flourishes.", "is_fresh": 1, "author": ["Simon Gallagher"]},
{"text": "Anderson's film breezes irresistibly on style, charm, a lovely score by Alexandre Desplat and that winning indie ensemble.", "is_fresh": 1, "author": ["Jonathan Crocker"]},
{"text": "Moonrise Kingdom represents a sort of non-magical Neverland -- that momentous instant when the world can seem so small and a naive crush can feel all-consuming.", "is_fresh": 1, "author": ["Peter Debruge"]},
{"text": "A literate, knowing and sweet-hearted reverie about adolescence, that strange gap between childhood and adulthood. It's beautifully rendered by a filmmaker very much in touch with his inner rebel kid.", "is_fresh": 1, "author": ["Peter Howell"]},
{"text": "Undeniably the work of a director with a very specific and pointed comic style who's not for every taste. Those who succumb to its charms will be transported.", "is_fresh": 1, "author": ["Pete Hammond"]},
{"text": "Wes Anderson's fable of misunderstood youths is a meticulously made, overly calculated art film in which the director controls every element", "is_fresh": 1, "author": ["Emanuel Levy"]},
{"text": "A very charming, beautifully wrought, if somehow depthless film - eccentric but heartfelt, and thought through to the tiniest, quirkiest detail in the classic Anderson style...", "is_fresh": 1, "author": ["Peter Bradshaw"]},
{"text": "As in Fantastic Mr. Fox, Anderson is able to express sincere personal connection and compatibility while employing a highly artificial style.", "is_fresh": 1, "author": ["Todd McCarthy"]},
{"text": "The enchanting sweetness of \"Fantastic Mr. Fox\" has been transplanted into \"Moonrise Kingdom,\" a delicate period love story whose slightness is mitigated by its deep feeling.", "is_fresh": 1, "author": ["Tim Grierson"]},
{"text": "This is Anderson being Anderson. I'm quite happy with that. It's realistic imagination overload.", "is_fresh": 1, "author": ["Jeff Bayer"]}
]