[
{"reviews_count": "138", "title": "Murderball", "avg_audience_rating": "3.9", "rotten_count": "3", "tomatometer": "98", "audience_score": "89", "avg_critic_rating": "8.4", "fresh_count": "135", "user_ratings_count": "11,497"},
{"text": "There's little room for tears in the testosterone-riddled territory of quadriplegic rugby. \"Murderball\" spat on that power of the human spirit stuff and rolled along to a kick-ass showcase of not what spinal injury excluded, but what it enabled.", "is_fresh": 1, "author": ["Nick Rogers"]},
{"text": "a triumph of filmmaking: of structure, character development, and pacing", "is_fresh": 1, "author": ["Jay Antani"]},
{"text": "The quadriplegic rugby sport referred to as \"Murderball\" is lovingly examined in a well-crafted documentary that goes a long way toward showing the mental and physical fortitude of these wheelchair bound athletes who insist on living life to the fullest.", "is_fresh": 1, "author": ["Cole Smithey"]},
{"text": "Arguably the greatest sports movie since Hoop Dreams and When We Were Kings.", "is_fresh": 1, "author": ["Richard Luck"]},
{"text": "Murderball is no Rocky-esque hymn to the human spirit. It's more like a prison movie...", "is_fresh": 1, "author": ["Richard Corliss"]},
{"text": "Filmmakers Henry Alex Rubin and Dana Adam Shapiro wisely chose a high-energy aesthetic to portray quadriplegic rugby (a.k.a. \"Murderball\") through the story of Mark Zupan and his American teammates battling for Paralympic gold.", "is_fresh": 1, "author": ["Matthew Sorrento"]},
{"text": "Even when the movie tries to shoe-horn its stories into the standard documentary mold, it serves to drive home the point: these guys aspire to the same clich\u00e9s as the rest of us.", "is_fresh": 1, "author": ["Robert Davis"]},
{"text": "An honest, down-to-earth account of how life goes on for people with disabilities.", "is_fresh": 1, "author": ["J. R. Jones"]},
{"text": "What emerges is more interesting, thankfully, than a linear offering of sporting triumph in the face of adversity.", "is_fresh": 1, "author": ["Dave Calhoun"]},
{"text": "All of the men are striking examples of the indomitable human spirit.", "is_fresh": 1, "author": ["Jim Lane"]},
{"text": "A leftfield sports documentary that's as insightful and thought-provoking as it is fast and furious.", "is_fresh": 1, "author": ["Steve O'Hagan"]},
{"text": "Al\u00e9m de revelador e interessante, sua inteligente montagem prende a aten\u00e7\u00e3o do espectador atrav\u00e9s do desenvolvimento de seus \"personagens\" e do conflito entre os dois times principais.", "is_fresh": 1, "author": ["Pablo Villa\u00e7a"]},
{"text": "It's an ode to the indomitable stubbornness of people, really, to pursue what gets them off, no matter what it takes.", "is_fresh": 1, "author": ["Jeffrey Chen"]},
{"text": "Murderball doesn't want you to feel sorry for anyone. It wants the viewer to see them for who they are, not what they aren't. They're athletes with the same drive and passion for their sport as other athletes.", "is_fresh": 1, "author": ["Ryan Cracknell"]},
{"text": "A deftly crafted window into a sport few know much about.", "is_fresh": 1, "author": ["Joe Utichi"]},
{"text": "Most importantly, Murderball isn't afraid to depict its characters in a less than flattering light, so we really get a good feel for what each of the individuals are like.", "is_fresh": 1, "author": ["Matthew Turner"]},
{"text": "One of 2005's very best documentaries.", "is_fresh": 1, "author": ["Matthew Leyland"]},
{"text": "Murderball is the best documentary I have seen in some time.", "is_fresh": 1, "author": ["Robert Roten"]},
{"text": "tough, touching, exciting and surprisingly hilarious. The men profiled... take competition seriously, talk like jocks and don't shy away from partying or romance.", "is_fresh": 1, "author": ["James Sanford"]},
{"text": "Murderball and everyone portrayed in it are winners.", "is_fresh": 1, "author": ["Forrest Hartman"]},
{"text": "We are all so fragile. And we are all so strong. ", "is_fresh": 1, "author": ["Linda Cook"]},
{"text": "Few sports movies with a premise this powerful ever bother to dig this deep.", "is_fresh": 1, "author": ["Tasha Robinson"]},
{"text": "Inspiring.", "is_fresh": 1, "author": ["Garry Maddox"]},
{"text": "With all the summer movies disappointing audiences, here's one that's sure to give you your thrills.", "is_fresh": 1, "author": ["Fred Topel"]},
{"text": "Murderball is a unique portrait of physically challenged men who transform themselves into warriors on wheels.", "is_fresh": 1, "author": ["James Verniere"]},
{"text": "Simple, brutal, wild and emotionally charged.", "is_fresh": 1, "author": ["Urban Cinefile Critics"]},
{"text": "This offbeat documentary is inspiring and jaw-droppingly original.", "is_fresh": 1, "author": ["Roger Moore"]},
{"text": "Unflinching, level-headed and filled with compelling characters, Murderball is an exuberant testament to the joys of being alive and tingling with physical confidence.", "is_fresh": 1, "author": ["Philip Martin"]},
{"text": "Honest and refreshing.", "is_fresh": 1, "author": ["Dennis Schwartz"]},
{"text": "While it's an effective sports film...the players and their enormous spirits take precedence over the outcome of the games.", "is_fresh": 1, "author": ["Mark Pfeiffer"]},
{"text": "Works as an educational piece on a unique lifestyle and as a competitive sports flick.", "is_fresh": 1, "author": ["Sean O'Connell"]},
{"text": "If \"Murderball\" tells us anything, it's that quadriplegia isn't for wussies.", "is_fresh": 1, "author": ["Rob Thomas"]},
{"text": "Glimpses of a more affecting documentary surface now and again, and for what's there, Murderball earns a mild recommendation.", "is_fresh": 1, "author": ["Walter Chaw"]},
{"text": "What wins us over isn't our front-row seat at the exciting rugby games but our intimate access to the lives of the players. ", "is_fresh": 1, "author": ["John Beifuss"]},
{"text": "Sculpted by smart editors from a huge amount of footage", "is_fresh": 1, "author": ["Marty Mapes"]},
{"text": "You thought Lance Armstrong was hell on wheels? Wait until you meet the men from Murderball.", "is_fresh": 1, "author": ["Duane Dudek"]},
{"text": "Not only one of the most gripping and flat-out entertaining documentaries you're ever likely to see, it's also one of the best sports movies in existence.", "is_fresh": 1, "author": ["Phil Villarreal"]},
{"text": "Murderball is a sports film, an inspirational piece and a portrait of people who face unusual challenges.", "is_fresh": 1, "author": ["Jean Lowerison"]},
{"text": "It's hard not to be awestruck by these folks, especially when the film delves into the extreme effort it takes to merely function, much less thrive, after sustaining a spinal-cord injury.", "is_fresh": 1, "author": ["Carla Meyer"]},
{"text": "It's a very good film that satisfies the most essential requirement of a documentary: opening an audience's eyes to the fact that the world is bigger than most of us might have suspected.", "is_fresh": 1, "author": ["Shawn Levy"]},
{"text": "Henry Alex Rubin and Dana Adam Shapiro ... pack an amazing amount of storytelling into these 86 minutes, alternating between several distinct narrative threads to create a documentary as engrossing as any fictional movie.", "is_fresh": 1, "author": ["Rene Rodriguez"]},
{"text": "Both a superb sports movie and a first-rate documentary that explores the personalities of these men in near-merciless depth.", "is_fresh": 1, "author": ["Robert W. Butler"]},
{"text": "The frank lack of condescension and mean moments of Murderball make it more than a film about sports or quadriplegics: It becomes a movie about life, about struggle, about pain, bitterness and pushing forward.", "is_fresh": 1, "author": ["Tom Long"]},
{"text": "It's one of the best sports documentaries to come along since 1994's Hoop Dreams and is among this still-young year's best films.", "is_fresh": 1, "author": ["Jeff Vice"]},
{"text": "Wheels us through an emotional obstacle course so rigorous and satisfying you'll be gulping for air by the end.", "is_fresh": 1, "author": ["Michael Booth"]},
{"text": "This insightful and entertaining documentary scores because it lets these champions reveal their whole selves.", "is_fresh": 1, "author": ["Sean P. Means"]},
{"text": "None of this is treated as anything but what it is: trying to get the most out of life by --- to paraphrase the famous Warren Zevon hockey tribute -- getting the ball, keeping it and trying to hurt somebody.", "is_fresh": 1, "author": ["Terry Lawson"]},
{"text": "I don't know whether directors Henry Alex Rubin and Dan Adam Shapiro set out to show the jock mentality with such clarity, but that's precisely what their gripping movie does.", "is_fresh": 1, "author": ["Robert Denerstein"]},
{"text": "Most entertaining when it is being honest and unflinching in its portrait of the film's central figures.", "is_fresh": 1, "author": ["Dan Jardine"]},
{"text": "A game -- and the people who play it -- comes to bruising, bold life in one of the year's best documentaries.", "is_fresh": 1, "author": ["James Rocchi"]},
{"text": "This is not heartwarming, cuddly, or safe. it is bracing, brash, harsh, and angry. And it is thrilling. ", "is_fresh": 1, "author": ["Nell Minow"]},
{"text": "Poignant and funny and suspenseful.", "is_fresh": 1, "author": ["Chris Hewitt (St. Paul)"]},
{"text": "Murderball is foul-mouthed, raucous, obscenely entertaining and profoundly touching.", "is_fresh": 1, "author": ["Phoebe Flowers"]},
{"text": "While the game itself is enough to hold viewers' interest, the filmmakers go much further. They delve into the psyche of the players.", "is_fresh": 1, "author": ["Jeff Strickler"]},
{"text": "Its energy is unmistakable, born of a fiery determination and single-minded spirit rarely witnessed onscreen or off.", "is_fresh": 1, "author": ["Jeanne Aufmuth"]},
{"text": "Murderball opens our eyes to many things, but the greatest is that handicapped people don't have to be silent to inspire us.", "is_fresh": 1, "author": ["Jeffrey Westhoff"]},
{"text": "Their game is ugly, raucously verbal, overtly physical and, as displayed in Murderball's rapid-pace editing, a heck of a lot of fun to watch.", "is_fresh": 1, "author": ["Bob Longino"]},
{"text": "It's everything a doc should be: Informative, funny, touching and ending with Canada spanking the US.", "is_fresh": 1, "author": ["Jon Popick"]},
{"text": "Co-directors Rubin and Shapiro deliver the rare documentary that totally entertains, informs, and inspires.", "is_fresh": 1, "author": ["Marjorie Baumgarten"]},
{"text": "No exercise in seeking sympathy, Murderball does achieve remarkable empathy", "is_fresh": 1, "author": ["John A. Nesbit"]},
{"text": "The emotional resonance that results from the focus on several unique individuals is what makes this a worthwhile viewing experience.", "is_fresh": 1, "author": ["James Berardinelli"]},
{"text": "It's the best sports documentary since Hoop Dreams, a great piece of work.", "is_fresh": 1, "author": ["Stephen Hunter"]},
{"text": "Ultimately, the film is an affectionately manly tribute to these athletes, for whom every game -- and every day -- is a triumph.", "is_fresh": 1, "author": ["Moira MacDonald"]},
{"text": "In less than an hour and a half, the athletes profiled in the documentary will frustrate you, amaze you, make you laugh and make you cry -- but you'll never feel sorry for them.", "is_fresh": 1, "author": ["Peter Hartlaub"]},
{"text": "Compelling and at times heartbreaking.", "is_fresh": 1, "author": ["Catherine Lucey"]},
{"text": "Tough, terse, funny, ribald, and heartbreaking.", "is_fresh": 1, "author": ["Ty Burr"]},
{"text": "Hugely entertaining ... the very determination [of the players] to not be role models (particularly in the case of Mark Zupan, a trash-mouthed force of nature) makes them so.", "is_fresh": 1, "author": ["Andrew Wright"]},
{"text": "Real human drama doesn't get much more gripping...", "is_fresh": 1, "author": ["Josh Larsen"]},
{"text": "A... push-and-pull conflict -- between wild, raging passion and playing nice so as not to upset the neighbors -- characterizes [the film]...", "is_fresh": 1, "author": ["MaryAnn Johanson"]},
{"text": "It's a bit disorganized and deluged with topics for discussion, sure, but its grasp keeps up with its reach.", "is_fresh": 1, "author": ["Eugene Novikov"]},
{"text": "Put away the tissues! Murderball is not some weepy, feel good portrayal of \"special\" people. These guys party, fight, curse and date more women than I do. ", "is_fresh": 1, "author": ["Willie Waffle"]},
{"text": "Murderball begins unflinchingly hardcore... but quickly goes the touchy-feely route.", "is_fresh": 0, "author": ["Jeffrey M. Anderson"]},
{"text": "As a sports documentary, Murderball is tame and uninvolving.", "is_fresh": 0, "author": ["Bill White"]},
{"text": "[Rubin and Shapiro] were good enough to recognize wheelchair rugby as a prime documentary topic and lucky enough to uncover a collection of human stories that makes Murderball more than just another sports movie.", "is_fresh": 1, "author": ["Bill Muller"]},
{"text": "One of the most powerful films of the year.", "is_fresh": 1, "author": ["Desson Thomson"]},
{"text": "This is a tremendously life-affirming film that will be remembered as one of the year's best.", "is_fresh": 1, "author": ["Chris Vognar"]},
{"text": "To consider the bleak months and sleepless nights when these men first confronted the reality of their injuries, and now to see them in the full force of athletic exuberance, is to learn something valuable about the human will.", "is_fresh": 1, "author": ["Roger Ebert"]},
{"text": "Murderball is most entertaining when it is being most honest and unflinching in its portrait of the film's central figures.", "is_fresh": 1, "author": ["Dan Jardine"]},
{"text": "Murderball has all the ingredients of a powerful sports documentary: magnetic characters, triumph over adversity and bone-crunching action shots.", "is_fresh": 1, "author": ["Robert K. Elder"]},
{"text": "Brilliant filmmaking. Each of the stories, very interesting", "is_fresh": 1, "author": ["Richard Roeper"]},
{"text": "An inspiring tale of courage. \"Murderball\" defies misconceptions.", "is_fresh": 1, "author": ["Angela Baldassarre"]},
{"text": "Murderball's most impressive blow is the one it strikes against feel-good stereotypes.", "is_fresh": 1, "author": ["Geoff Pevere"]},
{"text": "It feels all real, all human, all involving.", "is_fresh": 1, "author": ["Bruce Kirkland"]},
{"text": "Entertaining jock-umentary.", "is_fresh": 1, "author": ["Liam Lacey"]},
{"text": "In the rowdy and inspiring Murderball, Zupan is, quite frankly, mesmerizing.", "is_fresh": 1, "author": ["Cynthia Fuchs"]},
{"text": "Its honesty makes Murderball compelling and rewarding. What makes it so downright entertaining is its subjects' charisma and strength - both spiritual and physical.", "is_fresh": 1, "author": ["Frank Houston"]},
{"text": "It's original, outrageous and murderous fun.", "is_fresh": 1, "author": ["Peter Travers"]},
{"text": "It's the humanity on display, and the complexity and resilience it exemplifies, that's memorable here--which is exactly as it should be in a good film, fiction or not.", "is_fresh": 1, "author": ["Frank Swietek"]},
{"text": "These intimidating combatants have real character - and that's what makes this film extraordinary.", "is_fresh": 1, "author": ["Susan Granger"]},
{"text": "The level of humanity and truth in Murderball are more breathtaking than any summer-blockbuster special effects.", "is_fresh": 1, "author": ["Kevin Biggers"]},
{"text": "This unique brotherhood of players is an inspiration for anyone who thinks their own problems are bad.", "is_fresh": 1, "author": ["Robin Clifford"]},
{"text": "The personal and athletic dramas surrounding the team are sufficiently absorbing that you relate to Soares, Zupan and the film's other characters principally as charismatic, driven and often pigheaded guys locked in ruthless competition.", "is_fresh": 1, "author": ["Andrew O'Hehir"]},
{"text": "The fast-moving, psychologically savvy Murderball treats its subjects not only with respect, but with humor.", "is_fresh": 1, "author": ["Lou Lumenick"]},
{"text": "Murderball is a nonfiction film for people who generally hate documentaries, but I'm not convinced that it's a good documentary for people who love the genre.", "is_fresh": 0, "author": ["Dan Fienberg"]},
{"text": "Murderball brilliantly captures the intensity of the little-known athletic competition, offering more intimacy and drama than most Hollywood sports movies.", "is_fresh": 1, "author": ["Claudia Puig"]},
{"text": "The film is filled with humor, compassion and cajones, and never once glosses over the fact that these guys are prickly personalities who can sometimes act like jerks.", "is_fresh": 1, "author": ["Ken Fox"]},
{"text": "Murderball is a rush.", "is_fresh": 1, "author": ["Pam Grady"]},
{"text": "Brilliant.", "is_fresh": 1, "author": ["Eric Lurio"]},
{"text": "It is the full-bodied personalities we meet in Murderball that really make it more than either a sports movie or one about overcoming disability.", "is_fresh": 1, "author": ["Bob Strauss"]},
{"text": "Even though Murderball founders in the sports department, it's a champ as a character-driven piece of entertainment.", "is_fresh": 1, "author": ["Lisa Rose"]},
{"text": "When it comes to sports movies, there's nothing like the real thing, and there's never been anything quite as real as the documentary Murderball.", "is_fresh": 1, "author": ["Jack Mathews"]},
{"text": "These guys may be confined to chairs, but they're tough, they're competitive, and they refuse to let life pass them by... it's an intense and uplifting film.", "is_fresh": 1, "author": ["Cherryl Dawson and Leigh Ann Palone"]},
{"text": "Featuring quadriplegic athletes who don't play well with others, \"Murderball\" is the essential human competitive spirit unchained.", "is_fresh": 1, "author": ["Ron Wilkinson"]},
{"text": "You can feel sorry for these guys if you want to...but they'll probably kick your ***.", "is_fresh": 1, "author": ["John Venable"]},
{"text": "In one shot, the directors may have inadvertently made the year's most political film.", "is_fresh": 1, "author": ["Kent Turner"]},
{"text": "The bone-jarring footage of the sometimes-brutal matches brings the tension to a fever pitch, making Murderball as thrilling as it is engrossing.", "is_fresh": 1, "author": []},
{"text": "Never less than intriguing, and often adrenalized....[depicts] men who live harder than most \"able-bodied\" individuals.", "is_fresh": 1, "author": ["Peter Canavese"]},
{"text": "The Fast and the Furious of quadriplegic sports documentaries... should really be the material of a Disney sports movie, sort of a paralyzed Mighty Ducks.", "is_fresh": 1, "author": ["Fred Topel"]},
{"text": "Murderball isn't just one of the year's best documentaries, it's one of the year's best movies period.", "is_fresh": 1, "author": ["Devin Faraci"]},
{"text": "depicts the hope that comes from challenging those notions in a very unsentimental, yet moving, way", "is_fresh": 1, "author": ["David Thomas"]},
{"text": "These handicapped guys are not out to inspire you -- they're out to crush you.", "is_fresh": 1, "author": ["Laura Clifford"]},
{"text": "... gripping sports documentary ...", "is_fresh": 1, "author": ["Stephen Holden"]},
{"text": "Rubin and Shapiro have crafted the best of this year's sports films -- fiction or documentary.", "is_fresh": 1, "author": ["Kevin Crust"]},
{"text": "This is a lively, life-affirming documentary no viewer is likely to forget.", "is_fresh": 1, "author": ["David Sterritt"]},
{"text": "A great sports drama first and a heart-wrenching triumph-over-adversity weepie almost never.", "is_fresh": 1, "author": ["Scott Foundas"]},
{"text": "You're roused from your seats by men who aren't able to get up from theirs. How cool is that?", "is_fresh": 1, "author": ["Gene Seymour"]},
{"text": "The first sports documentary where you can really feel the thrill of victory and the agony of defeat.", "is_fresh": 1, "author": ["Edward Douglas"]},
{"text": "The filmmaking is as strong as the subject matter, with an elegant structure. And that's something that can't be said of every entry in this nonfiction boom.", "is_fresh": 1, "author": ["Lisa Schwarzbaum"]},
{"text": "What keeps Murderball from devolving into redemptive drivel is its insistence on treating the players it profiles as jocks first and disabled men second.", "is_fresh": 1, "author": ["Mark Holcomb"]},
{"text": "In an excellent lesson for documentarians and fabulists alike, filmmakers here show, rather than narrate, their tale in 86 minutes, make the point and know when to get out. ", "is_fresh": 1, "author": ["Donald J. Levit"]},
{"text": "Debunks just about every clich\u00e9d stereotype we are brainwashed with about the handicapped.", "is_fresh": 1, "author": ["Lexi Feinberg"]},
{"text": "Rubin and Shapiro don't patronize their subjects or their audience, portraying the players realistically and sympathetically but without kid gloves.", "is_fresh": 1, "author": ["Josh Bell"]},
{"text": "Murderball gleefully smashes preconceptions about quadriplegics, with no apologies to the squeamish.", "is_fresh": 1, "author": ["Daniel Eagan"]},
{"text": "The filmmakers capture the game's high energy, the players' off-the-court highjinks and moments of intimacy with equal skill.", "is_fresh": 1, "author": ["Sheri Linden"]},
{"text": "Fascinating, thoroughly engaging...", "is_fresh": 1, "author": ["David Nusair"]},
{"text": "Every bit as exciting, funny, heartwarming and uplifting as any Hollywood sports movie.", "is_fresh": 1, "author": ["Eric D. Snider"]},
{"text": "The movie's best special effect is the players' own moxie.", "is_fresh": 1, "author": ["Steve Schneider"]},
{"text": "Murderball isn't a great sports movie, but it does a superb job of getting inside the heads of some of the most compelling, and highly unlikely, athletes ever caught on film.", "is_fresh": 1, "author": ["Dan DeLuca"]},
{"text": "A blast and a half -- as entertaining as mainstream American docus get.", "is_fresh": 1, "author": ["Robert Koehler"]},
{"text": "A rip-roaring documentary that will take you to places you have never been before and introduce you to some extraordinary quadriplegics. ", "is_fresh": 1, "author": ["Frederic and Mary Ann Brussat"]},
{"text": "It knows how to cover its bases, but its tidy structure doesn't exactly gel with the rough-and-tumble nature of the sport at its center.", "is_fresh": 1, "author": ["Ed Gonzalez"]},
{"text": "Who would expect a documentary with such a title about these men to be such a moving exploration about life after a period that many would consider as death", "is_fresh": 1, "author": ["Erik Childress"]},
{"text": "Murderball isn't a documentary played in the key of those Olympics stories that inspire you with sugary drivel, although it is ultimately inspiring.", "is_fresh": 1, "author": ["Jeremy Mathews"]},
{"text": "Bring[s] viewers into the world of the severely handicapped without any high-mindedness or sentimentality.", "is_fresh": 1, "author": ["Kirk Honeycutt"]},
{"text": "", "is_fresh": 1, "author": ["Michelle Thomas"]},
{"text": "", "is_fresh": 1, "author": []},
{"text": "", "is_fresh": 1, "author": []},
{"text": "", "is_fresh": 1, "author": []}
]