[
{"reviews_count": "170", "title": "Ocean's Eleven", "avg_audience_rating": "3.6", "rotten_count": "31", "tomatometer": "82", "audience_score": "80", "avg_critic_rating": "  7", "fresh_count": "139", "user_ratings_count": "32,601,531"},
{"text": "Extremely slick yet consistently entertaining...", "is_fresh": 1, "author": ["David Nusair"]},
{"text": "One of the greatest dessert courses in contemporary cinema.", "is_fresh": 1, "author": ["Tim Brayton"]},
{"text": "Soderbergh's most commercial film to date is a star-driven, semi-successful, slightly better remake of the 1960 origianl feature.", "is_fresh": 1, "author": ["Emanuel Levy"]},
{"text": "Fun heist movie for older kids and their families.", "is_fresh": 1, "author": ["Nell Minow"]},
{"text": "A perfect example of smart, fun mainstream entertainment. David Holmes' mod-jazz score pulses with pep, and even with the star power, Steven Soderbergh makes room for winning supporting turns from Eddie Jemison, Shaobo Qin and Carl Reiner.", "is_fresh": 1, "author": ["Nick Rogers"]},
{"text": "An entertaining witty, funny, and well acted piece of comedy heist.", "is_fresh": 1, "author": ["Felix Vasquez Jr."]},
{"text": "A lark for everybody concerned, including the audience.", "is_fresh": 1, "author": ["Todd McCarthy"]},
{"text": "Whatever you do, don't pay attention.", "is_fresh": 0, "author": ["Joe Lozito"]},
{"text": "Soderbergh and Griffin concoct a doozy of a robbery, seemingly impossible with a new hitch around every corner. The cast, headed by Clooney, never loses its cool and never gives away a surprise beforehand.", "is_fresh": 1, "author": ["Jeffrey M. Anderson"]},
{"text": "This wholly enjoyable entertainment sees Soderbergh setting himself a new challenge - the hi-tech robbery procedural - and relishing the clich\u00e9s even as he freshens them with a dab of polish, wit, pace and a light touch of irony.", "is_fresh": 1, "author": ["Geoff Andrew"]},
{"text": "A fast paced, enjoyable flick, stylishly filmed, filled with great, or at least well-known actors, that doesn't disappoint, but doesn't make a lasting impression either.", "is_fresh": 1, "author": ["Scott Nash"]},
{"text": "We're not talking about reinventing the genre here. This is just a Big Mac and fries of a movie, and those movies, like the food, can hit the spot sometimes, especially when you're hung over.", "is_fresh": 1, "author": ["David Medsker"]},
{"text": "L'humour est raffin\u00e9 et subtil, le sc\u00e9nario est bien construit et rempli d'invraisemblances que l'on ne prend jamais au s\u00e9rieux.", "is_fresh": 1, "author": ["Louis-J\u00e9r\u00f4me Cloutier"]},
{"text": "I'm left feeling like I went to the All-Star Game and only got to see them shoot free-throws.", "is_fresh": 0, "author": ["Jeffrey Overstreet"]},
{"text": "A crowd pleaser of enormous star magnitude.", "is_fresh": 0, "author": ["Steve Crum"]},
{"text": "When all the cards have been turned over, nothing seems to be at stake in this movie...Has the feel of a put-on. It put me off.", "is_fresh": 0, "author": ["Thomas Delapa"]},
{"text": "Soderbergh continues the roll that he's been on ...", "is_fresh": 1, "author": ["Greg Maki"]},
{"text": "It's more of a novelty item than a film, really, and most of the fun comes from seeing just about all of Hollywood's most well-known faces show up in the span of two hours.", "is_fresh": 1, "author": ["Eugene Novikov"]},
{"text": "All the principals (and the director, for that matter) are doing work they could do in their sleep, resulting in an eminently watchable film built on a very run-of-the-mill story.", "is_fresh": 1, "author": ["John R. McEwen"]},
{"text": "Entertaining, fast-paced, and just plain fun.", "is_fresh": 1, "author": ["Rebecca Murray"]},
{"text": "One expertly made piece of pure, unpretentious popcorn entertainment", "is_fresh": 1, "author": ["Michael T. Grace"]},
{"text": "Vegas heist flick with style, charm and an ensemble cast of the coolest cats in town makes it safe for grown-ups to enter the theater again.", "is_fresh": 1, "author": ["James Rocchi"]},
{"text": "Stylish remake of an iconic-if-not-very-good original film, with a to-die-for cast, a great soundtrack and healthy measure of 'cool' -- it drags in places but is fun to watch.", "is_fresh": 1, "author": ["Matthew Turner"]},
{"text": "Give yourself a break from the holiday rush and thinking about politics. You won't regret it.", "is_fresh": 1, "author": ["Jean Lowerison"]},
{"text": "What a fun crowd director Steven Soderbergh put together.", "is_fresh": 1, "author": ["Margaret A. McGurk"]},
{"text": "This isn't by any mean an 'important' film. Heck, it doesn't even try to be. What this is is slick. S-L-I-C-K.", "is_fresh": 1, "author": ["Kevin N. Laforest"]},
{"text": "Ocean's Eleven forsakes moral complexity and simple heist-movie excitement.", "is_fresh": 0, "author": ["Mark Palermo"]},
{"text": "It's clear that Soderbergh knows this is a movie about two things: star power and plot twists", "is_fresh": 1, "author": ["Jon Niccum"]},
{"text": "Refreshing, humorous and romantic to boot.", "is_fresh": 1, "author": ["Urban Cinefile Critics"]},
{"text": "A ho-hum heist film.", "is_fresh": 0, "author": ["Betty Jo Tucker"]},
{"text": "If you've seen other heist/con movies, you won't find new twists or surprises here, and you'll have little other reason to see Ocean's Eleven than to go star-gazing.", "is_fresh": 0, "author": ["Jeffrey Chen"]},
{"text": "Soderbergh and Griffin understand the best part of a heist movie is watching the intricacies of the heist as it goes down.", "is_fresh": 1, "author": ["Jeffrey Westhoff"]},
{"text": "A bright and breezy caper flick without any pretensions at all.", "is_fresh": 1, "author": ["Rich Cline"]},
{"text": "It rarely shows you anything you haven't seen in comparable pictures, and has no layer of depth to its coolness", "is_fresh": 0, "author": ["Jason Clark"]},
{"text": "Steven Soderbergh is wasting his talent making fluff this inconsequential.", "is_fresh": 0, "author": ["Jimmy O"]},
{"text": "It's a giant ice-cream cake of a movie that tickles the pleasure centers of your brain--restoring the good name of large-scale, old-fashioned Hollywood entertainment.", "is_fresh": 1, "author": ["Sean Burns"]},
{"text": "It doesn't take itself too seriously like some of its brooding, maudlin peers.", "is_fresh": 1, "author": ["Audrey Rock-Richardson"]},
{"text": "Stealing from the thieves...but not in a bad way.", "is_fresh": 1, "author": ["Collin Souter"]},
{"text": "A landfill of toxic star personas and auteur laziness.", "is_fresh": 0, "author": ["Chuck Rudolph"]},
{"text": "Ejemplo de que el entretenimiento puro no necesariamente tiene que ser banal y condescendiente.", "is_fresh": 1, "author": ["Jorge Avila Andrade"]},
{"text": "...a slick, slight, breezy affair that's easy to take if it's not taken too seriously.", "is_fresh": 1, "author": ["John J. Puccio"]},
{"text": "The action is tight and the comedy is loose, and the result is a sharp, giddy blast.", "is_fresh": 1, "author": ["David Cornelius"]},
{"text": "Generic heist movies with high-caliber casts are trendy this year (see The Score and Heist). And for sheer extravagance and superfluousness, Ocean's Eleven tops them all.", "is_fresh": 1, "author": ["Gary Susman"]},
{"text": "Ocean's Eleven seems as if it coasting by on reputation alone.", "is_fresh": 0, "author": ["Jeremy Heilman"]},
{"text": "Suffice to say, Ocean's 11 is a safe bet on which you can place your chips on.", "is_fresh": 1, "author": ["Frank Ochieng"]},
{"text": "Stylish and smart, even if it lacks a little soul.", "is_fresh": 1, "author": ["Noah Davis"]},
{"text": "Fun, exciting, smart, and not too self-absorbed.", "is_fresh": 1, "author": ["Michael W. Phillips, Jr."]},
{"text": "Takes a piece of '60s pop culture and effectively turns it into a piece of '00s pop culture.", "is_fresh": 1, "author": ["Mark Dujsik"]},
{"text": "Ocean's 11 was a sea of good times. (Okay I know that was corny...)", "is_fresh": 1, "author": ["Kamal 'The Diva' Larsuel"]},
{"text": "A caper movie oozing old-school style and peppered with cute little dashes of contemporary self-consciousness... feels plain cool and makes us want to grin", "is_fresh": 1, "author": ["Ian Waldron-Mantgani"]},
{"text": "A ridiculously enjoyable caper...", "is_fresh": 1, "author": ["Peter Bradshaw"]},
{"text": "What does it matter if Soderbergh's a far better craftsman than Tony Scott and his ilk when he's lost his soul?", "is_fresh": 0, "author": ["Jeremiah Kipp"]},
{"text": "It can, at times, be forgettable in a fun way, especially when its funniest performers are caught in Soderbergh's spinning crosshairs.", "is_fresh": 1, "author": ["Peter Rainer"]},
{"text": "Raises the benchmark for all future blockbusters and is guaranteed to put a grin on your face from ear to ear.", "is_fresh": 1, "author": ["Jamie Russell"]},
{"text": "Entretenimiento, simple, puro y duro...", "is_fresh": 1, "author": ["Alex Ramirez"]},
{"text": "The heist itself is sufficiently daunting that it'll keep you watching long past the time when you've ceased to give a damn about the participants.", "is_fresh": 1, "author": ["Andrew Howe"]},
{"text": "[Soderbergh] cleverly hews to the requirements of a thriller style and puts out a taut entertainment that doesn't disappoint.", "is_fresh": 1, "author": ["Jules Brenner"]},
{"text": "Fun-loving, carefully crafted romp.", "is_fresh": 1, "author": ["Rita Kempley"]},
{"text": "With the stylish Soderbergh in the driver's seat, this is a smart, elaborate heist film with a Rat Pack pedigree, some laughs and surprises along the way.", "is_fresh": 1, "author": ["Ed Kelleher"]},
{"text": "One expertly made piece of pure, unpretentious popcorn entertainment.", "is_fresh": 1, "author": ["Michael Dequina"]},
{"text": "It's merely OK, but it is completely watchable, and equally forgettable.", "is_fresh": 0, "author": ["Karina Montgomery"]},
{"text": "Forget Oscar, Ocean's Eleven is the coolest damned thing around.", "is_fresh": 1, "author": ["Peter Travers"]},
{"text": "This one is proof that \"big\" movies can also be stylish and sophisticated while still being immensely entertaining.", "is_fresh": 1, "author": ["Mike McGranaghan"]},
{"text": "As Frank, Dean, Sammy, Peter and Joey might have said, \"Ocean's 11 ... it's a gas, man!\"", "is_fresh": 1, "author": ["Matt Easterbrook"]},
{"text": "Ocean's Eleven\" is a very thin, but very slick caper movie. There is no substance to it, but it is a lot of fun to watch.", "is_fresh": 1, "author": ["Robert Roten"]},
{"text": "Fun but forgettable, Ocean's Eleven stays north of average by virtue of a charismatic cast, and its straightforward goal to keep things light.", "is_fresh": 1, "author": ["Andrew Manning"]},
{"text": "There's a decent heist movie hidden under all that smarm but you have to dig pretty deep to unearth it.", "is_fresh": 0, "author": ["David N. Butterworth"]},
{"text": "Think of Ocean's Eleven as one of those $7.99 all-you-can-eat buffet dinners featured at Vegas casino-hotels. You get a lot for the money, but the next day you'll be hungry for something more substantial.", "is_fresh": 1, "author": ["Gary Brown"]},
{"text": "The only time Soderbergh attempts anything borderline Hitchcockian, he literally runs out of battery power", "is_fresh": 0, "author": ["John A. Nesbit"]},
{"text": "No one can fault Soderbergh for restoring a little dignity to the Hollywood event film. Ideally, every big budget extravaganza should be this good.", "is_fresh": 1, "author": ["Rob Vaux"]},
{"text": "[A] triumph of style and story...", "is_fresh": 1, "author": ["Richard Roeper"]},
{"text": "It succeeds where the original failed and fails where the original succeeded.", "is_fresh": 1, "author": ["Jim Lane"]},
{"text": "If you ever saw a heist film before, this one has nothing new to add.", "is_fresh": 0, "author": ["Dennis Schwartz"]},
{"text": "You focus on the boys, because they really seem like they love themselves and one another.", "is_fresh": 1, "author": ["Cynthia Fuchs"]},
{"text": "Cinematic junk food of the highest, tastiest order.", "is_fresh": 1, "author": ["MaryAnn Johanson"]},
{"text": "A holiday movie that's good enough, but a long way from great.", "is_fresh": 1, "author": ["Jason Anderson"]},
{"text": "It's a kick, it's a gas, and it gives the Rat Pack itself a run for its money.", "is_fresh": 1, "author": ["Marc Savlov"]},
{"text": "a vivacious, quirky, throwaway crime-comedy", "is_fresh": 1, "author": ["James Kendrick"]},
{"text": "The banter is droll and dry, the action is brisk, everybody looks great, and everybody gets to do a bit.", "is_fresh": 1, "author": ["Glenn Kenny"]},
{"text": "movie classic dialogue repartee, Joe Friday delivery coupled with modern sarcasm and clipping pace make this an entertaining film.", "is_fresh": 1, "author": ["Ross Anthony"]},
{"text": "Clooney and Pitt have more onscreen chemistry than most celluloid lovers. ", "is_fresh": 1, "author": ["Laura Clifford"]},
{"text": "Go and enjoy - give your sense of play a workout! ", "is_fresh": 1, "author": ["Frederic and Mary Ann Brussat"]},
{"text": "It's got a to-die-for cast, a great caper, smart dialogue, lots of laughs and a slick production design.", "is_fresh": 1, "author": ["Brian Webster"]},
{"text": "A hip, joyfully contemporary retelling of its vintage predecessor, but someone of director Steven Soderbergh's caliber deserves slightly better than this material.", "is_fresh": 1, "author": ["Dustin Putman"]},
{"text": "A simple plan with a straightforward execution.", "is_fresh": 1, "author": ["Jeanne Aufmuth"]},
{"text": "A triumph of style over substance, swagger over common sense, and it's almost impossible not to get jazzed by the sheer audacity of the plotters and their plot.", "is_fresh": 1, "author": ["Joe Leydon"]},
{"text": "Good acting and clever dialogue do not ultimately prevail over the formula plot and all of the cliches and stereotypes.", "is_fresh": 0, "author": ["Jim Chastain"]},
{"text": "A great looking film.", "is_fresh": 1, "author": ["David Forsmark"]},
{"text": "A fun, intelligent caper film.", "is_fresh": 1, "author": ["Tony Toscano"]},
{"text": "It's the kind of movie you really like, but not as much as you want to.", "is_fresh": 1, "author": ["Eric D. Snider"]},
{"text": "Sin City never looked so beautiful.", "is_fresh": 1, "author": ["Sean P. Means"]},
{"text": "The heist comes off clean, and the twist is satisfying.", "is_fresh": 1, "author": ["Sean O'Connell"]},
{"text": "The hippest and coolest thing about Ocean's Eleven, both old and new, is that it brings together such high-wattage personalities, and it's fun to see so many of them on screen at the same time.", "is_fresh": 1, "author": ["Donald Munro"]},
{"text": "Despite dashes of droll dialogue from screenwriter Ted Griffin, the remake aims for cool but instead gets chilly.", "is_fresh": 0, "author": ["Mike Clark"]},
{"text": "For all its gloss and marquee power, the new flick feels calculated. The original Ocean's Eleven was cool. The new one is cold.", "is_fresh": 0, "author": ["Todd Anthony"]},
{"text": "Buzzes along at a mildly entertaining pitch from start to finish.", "is_fresh": 1, "author": ["Mick LaSalle"]},
{"text": "All glitz and glibness, the film makes 1960's ego party, which had the mock substance of happy-hour celebrity, seem rather deep.", "is_fresh": 0, "author": ["David Elliott"]},
{"text": "Soderbergh's crisp, funny heist flick makes out like a bandit. George Clooney and Elliott Gould steal the show.", "is_fresh": 1, "author": ["Stephanie Zacharek"]},
{"text": "The perfect movie for New Year's Eve.", "is_fresh": 1, "author": ["Joe Baltake"]},
{"text": "At its best when it forgets about personalities and focuses on the mechanics of high-tech plunder.", "is_fresh": 1, "author": ["Steve Schneider"]},
{"text": "Despite a lot of snappy dialogue supplied by screenwriter Ted Griffin, Ocean's Eleven bogs down in technological minutiae, pointless set pieces that aren't very funny and by indulging the urge to constantly sell itself.", "is_fresh": 0, "author": ["John Anderson"]},
{"text": "Pure Hollywood moonshine.", "is_fresh": 1, "author": ["Lou Lumenick"]},
{"text": "Slight but pretty diverting.", "is_fresh": 1, "author": ["Robert W. Butler"]},
{"text": "Ocean's Eleven is a merry romp that delivers laughs in aces and boasts a full house of marquee talent.", "is_fresh": 1, "author": ["Louis B. Hobson"]},
{"text": "How much fun it is could depend on two factors -- which sex you like to look at, and as the movie progresses, how much you liked or disliked Mission: Impossible.", "is_fresh": 1, "author": ["Jim Slotek"]},
{"text": "The new Ocean's Eleven is altogether different -- it isn't content to let star power, shtick and easy camaraderie carry the day; it works for your money.", "is_fresh": 1, "author": ["Eric Harrison"]},
{"text": "To be sure, Soderbergh has proved his entertaining point, and done the Rat Pack one better, converting a paltry failure into a paltry success. But just how cool is that?", "is_fresh": 0, "author": ["Rick Groen"]},
{"text": "Vigorous, involving entertainment.", "is_fresh": 1, "author": ["Susan Stark"]},
{"text": "Admittedly, little of Ocean's Eleven is likely to hang around in your head past closing time. But that only gives you a good excuse to see it again.", "is_fresh": 1, "author": ["Terry Lawson"]},
{"text": "Despite all the names, though, the real star here may be Ted Griffin's quippy script, which the cast seems to relish reading.", "is_fresh": 1, "author": ["Jeff Vice"]},
{"text": "I think it's time for Soderbergh to be leaving Las Vegas.", "is_fresh": 0, "author": ["Steven Rosen"]},
{"text": "It's pretty as a butterfly and just as lightweight.", "is_fresh": 1, "author": ["Bob Strauss"]},
{"text": "It didn't shake me up and I wasn't much involved, but I liked it as a five-finger exercise.", "is_fresh": 1, "author": ["Roger Ebert"]},
{"text": "So beautifully watchable and enjoyable that you'll happily inhale its jazzy, madcap ether.", "is_fresh": 1, "author": ["Annette Cardwell"]},
{"text": "Top-of-the-line studio eye candy.", "is_fresh": 1, "author": ["Jay Carr"]},
{"text": "This is a popcorn movie, pure enjoyment, plain and simple.", "is_fresh": 1, "author": ["Widgett Walls"]},
{"text": "Sharp, witty dialogue snappily delivered.", "is_fresh": 1, "author": ["Harvey S. Karten"]},
{"text": "The man who helped spark the indie revolution is now making pictures that bow and scrape before the most depleted Hollywood conventions.", "is_fresh": 0, "author": ["Tom Block"]},
{"text": "A brand-new ride, complete with humor, action, explosives, good-looking men in tuxedos and high-tech toys.", "is_fresh": 1, "author": ["Michael O'Sullivan"]},
{"text": "One of those rare movies in which it doesn't feel as though the cast's fun is being had at the viewer's expense.", "is_fresh": 1, "author": ["Maitland McDonagh"]},
{"text": "Need a good argument for remakes? Look no further than Steven Soderbergh's Ocean's Eleven.", "is_fresh": 1, "author": ["Moira MacDonald"]},
{"text": "Devilishly entertaining.", "is_fresh": 1, "author": ["William Arnold"]},
{"text": "You probably won't go wrong with this heist flick despite its relatively mild problems and shortcomings.", "is_fresh": 1, "author": ["Jim Judy"]},
{"text": "Happily Soderbergh's updated Ocean's Eleven, reconceived by screenwriter Ted Griffin, has only three things in common with its source: a Vegas location, a casino-heist plot, and a crew of cool cuties.", "is_fresh": 1, "author": ["Carrie Rickey"]},
{"text": "This script could have used another write or two before it was ready to be shot.", "is_fresh": 0, "author": ["Mark R. Leeper"]},
{"text": "A respectable heist movie.", "is_fresh": 1, "author": ["Gary Thompson"]},
{"text": "If you see only one utterly undemanding, totally inconsequential motion picture this season, make it Ocean's Eleven.", "is_fresh": 1, "author": ["Jay Boyar"]},
{"text": "For those not so taken by the star power, this new Ocean's Eleven is the equivalent of a domineering team you can't stand that enters the Super Bowl. Even if you don't like the players, the odds are so good that it's tough to bet against them.", "is_fresh": 1, "author": ["Elvis Mitchell"]},
{"text": "A playful romp without much oomph or zest.", "is_fresh": 1, "author": ["Duane Dudek"]},
{"text": "A champagne bubble of a movie, lively, effervescent and diverting. If it bursts earlier than we'd like -- and it does -- that takes nothing away from the considerable pleasure it provides along the way.", "is_fresh": 1, "author": ["Kenneth Turan"]},
{"text": "Completely preposterous and totally enjoyable.", "is_fresh": 1, "author": ["Dave White"]},
{"text": "This is the perfect guy movie.", "is_fresh": 1, "author": ["Eric Lurio"]},
{"text": "A sure bet.", "is_fresh": 1, "author": []},
{"text": "Vastly superior to the 1960 Rat Pack original, it boasts a well-structured, if engagingly improbable, story line and a glistening cast that performs with brio.", "is_fresh": 1, "author": ["Philip Wuntch"]},
{"text": "A fun heist movie.", "is_fresh": 1, "author": ["Annlee Ellingson"]},
{"text": "Free of cruelty and sexuality, free of violence and very much profanity, and free of the pretence that it is something other than a sleek, expert star piece.", "is_fresh": 1, "author": ["Walter Chaw"]},
{"text": "It is all very slick and isn't the kind of flick that you'll watch again and again, but it is a lot of fun and reps a bit of light entertainment for the holidays.", "is_fresh": 1, "author": ["Robin Clifford"]},
{"text": "A movie that is the epitome of that old-fashioned good time people have been asking me about. ", "is_fresh": 1, "author": ["Erik Childress"]},
{"text": "A thriller that doesn't thrill and a heist that's not much fun ... It's a sleek snoozer.", "is_fresh": 0, "author": ["Steve Rhodes"]},
{"text": "Bouncy and amusing...utter fluff, to be sure, but it's highly enjoyable fluff, far superior to the earlier picture.", "is_fresh": 1, "author": ["Frank Swietek"]},
{"text": "The kind of movie that makes you wish you were having as much fun watching it as they obviously had making it.", "is_fresh": 0, "author": ["Bruce Newman"]},
{"text": "Hollywood finally remade a movie that deserved remaking.", "is_fresh": 1, "author": ["Jack Garner"]},
{"text": "Ocean's Eleven is probably the best brochure for Las Vegas tourism since Robert Urich's Dan Tanna cruised the Strip in television's Vega$.", "is_fresh": 1, "author": ["Pam Grady"]},
{"text": "It's extremely confusing, but you quickly learn to ignore the details and just watch the glam cast have fun.", "is_fresh": 1, "author": ["Rex Reed"]},
{"text": "Its overall composition just doesn't add up.", "is_fresh": 0, "author": ["Gregory Weinkauf"]},
{"text": "There is considerable pleasure to be had watching a Hollywood formula crowd-pleaser, no matter how irreverent, that's been made with intelligence, wit and style.", "is_fresh": 1, "author": ["Rene Rodriguez"]},
{"text": "Brad Pitt turns in a performance of effortless charm, subtle and witty, completely in service to the character and the movie and yet completely movie star mesmerizing.", "is_fresh": 1, "author": ["Nell Minow"]},
{"text": "Soderbergh and Griffin work some new comic scenes into the story, though they lay the yuks on thickly.", "is_fresh": 1, "author": ["Lawrence Toppman"]},
{"text": "Clooney's performance serves as a metaphor for the entire movie: It's not challenging, but it's mighty pleasant and easy to watch.", "is_fresh": 1, "author": ["Mary F. Pols"]},
{"text": "The cinematic version of a Happy Meal -- tasty and filling, not particularly nutritious, but generally pleasing for all.", "is_fresh": 1, "author": ["Paul Clinton (CNN.com)"]},
{"text": "The film drags a bit after the characters are introduced, but then the well-paced heist begins.", "is_fresh": 1, "author": ["Ross Brooks"]},
{"text": "Good, expensive, easygoing fun.", "is_fresh": 1, "author": ["Michael Wilmington"]},
{"text": "One of those sit-back, relax and enjoy-it movies.", "is_fresh": 1, "author": ["Eleanor Ringel Cater"]},
{"text": "Leave it to the sublimely inventive Steven Soderbergh to do a remake the right way around -- starting from a mediocre movie...then setting out to make it better.", "is_fresh": 1, "author": ["Rob Blackwelder"]},
{"text": "If you're looking for a cool caper, some hip, light-hearted fun and a good time at the movies, this is definitely your best bet.", "is_fresh": 1, "author": ["Susan Granger"]},
{"text": "Rarely has a film been as simultaneously pleasurable and as disappointing as Steven Soderbergh's version of Ocean's Eleven.", "is_fresh": 1, "author": ["Jon Popick"]},
{"text": "Made with so much wit and brains and dazzle and virtuosity that the sheer speed and cleverness of the caper hits you like a shot of pure oxygen.", "is_fresh": 1, "author": ["Owen Gleiberman"]},
{"text": "So how is the actual movie? It's okay. It's not great, it's not bad...it's so-so.", "is_fresh": 1, "author": ["JoBlo"]},
{"text": "Not only is it tedious and boring, just Brad Pitt and Andy Garcia shine in this heavily puffed up cast of all stars.", "is_fresh": 0, "author": ["Victoria Alexander"]},
{"text": "Jazzy and insouciant, if not quite what Frank would have called classy.", "is_fresh": 1, "author": ["J. Hoberman"]},
{"text": "The story crackles, the stars pop, the dialogue zips, the music grooves.", "is_fresh": 1, "author": ["Mark Ramsey"]},
{"text": "There's a world of difference between an accomplished popcorn movie like this one and one that's oversalted.", "is_fresh": 1, "author": ["James Berardinelli"]},
{"text": "Represents a mostly successful stylistic shift into sheer artifice, where the force of the personalities involved compels your interest.", "is_fresh": 1, "author": ["Kirk Honeycutt"]},
{"text": "The acting was great, the story was fun with good dialogue, and it was enjoyable.", "is_fresh": 1, "author": ["Scott Chitwood"]},
{"text": "Deprives the viewer of the type of heightened suspense desirable for the heist genre, and rather, distracts him and her with its superficial treatment of character and plot.", "is_fresh": 0, "author": ["Yazmin Ghonaim"]},
{"text": "Ocean's Eleven is not going to win any awards, and it's not going to break any new ground, but like a good round at the Blackjack table, it's just good fun.", "is_fresh": 1, "author": ["Scott A. Mantz"]},
{"text": "Soderbergh is so cool he can make anything go down like fine wine.", "is_fresh": 1, "author": ["Ed Gonzalez"]},
{"text": "", "is_fresh": 1, "author": []},
{"text": "", "is_fresh": 1, "author": ["Garth Franklin"]},
{"text": "", "is_fresh": 0, "author": ["Bob Bloom"]},
{"text": "Propelled by a jazzy David Holmes score, Ocean's Eleven bounces along with finger-snapping high spirits. This time out the versatile Soderbergh has cast himself as a sleight-of-hand artist. ", "is_fresh": 0, "author": ["David Ansen"]}
]