[
{"reviews_count": "50", "title": "Once Upon a Time in America", "avg_audience_rating": "4.2", "rotten_count": "7", "tomatometer": "86", "audience_score": "94", "avg_critic_rating": "8.6", "fresh_count": "43", "user_ratings_count": "74,624"},
{"text": "The movie's four hours long, but no one had the time to write a single real character.", "is_fresh": 0, "author": ["Paul Attanasio"]},
{"text": "Complex gangster epic has strong violence, sex. ", "is_fresh": 1, "author": ["Jeffrey M. Anderson"]},
{"text": "This would-be epic schlep, dragging almost 50 years of chronology over a sluggish 140 minutes, is far too slight of text and ponderous of presentation to sustain more than nodding-off dramatic interest.", "is_fresh": 0, "author": ["Gary Arnold"]},
{"text": "Adding 22 minutes only enhances Leone's brilliant saga of guilt and betrayal", "is_fresh": 1, "author": ["Lou Lumenick"]},
{"text": "A tale of haunting introspection, unremitting power and potent symbolism. \"America\" ruminates on the corrosive effects of greed, violence, objectification and pain, and forces us to face despicable acts of a stand-in for our nation's worst impulses.", "is_fresh": 1, "author": ["Nick Rogers"]},
{"text": "While Sergio Leone's \"Once Upon a Time in America\" is not quite the masterpiece that some make it out to be due to its excess, there are still plenty of things to recommend about it.", "is_fresh": 1, "author": ["Jeff Beck"]},
{"text": "The film, photographed by Tonino Delli Colli, is striking to look at, especially its New York street scenes, which were shot in Manhattan, Montreal and a back lot near Rome. The acting is stunning.", "is_fresh": 1, "author": ["Ralph Novak"]},
{"text": "Just gasp at the scale, at the immaculate period reconstruction and at that incredible opening with its endlessly ringing phone.", "is_fresh": 1, "author": ["Adrian Turner"]},
{"text": "A striking tale of loyalty, love, friendship and ambition, Once Upon A Time is a work of technical beauty and sombre emotion.", "is_fresh": 1, "author": []},
{"text": "Sergio Leone explores the seamiest byways of urban Americana through the story of two gangsters who start their partnership as Brooklyn kids in 1921 and tragically end it in the late '60s.", "is_fresh": 1, "author": ["David Sterritt"]},
{"text": "A work of tremendous intellectual depth and emotional range", "is_fresh": 1, "author": ["Dan Jardine"]},
{"text": "Here was a filmmaker who specialized in pure, blistering images, and this operatic earthiness just doesn't play as well as the horrifying, salacious stuff. ", "is_fresh": 0, "author": ["Steve Macfarlane"]},
{"text": "Sergio Leone's languid, lovely and lengthy ode to Lower East Side mobsters (more specifically, mobster films) ...", "is_fresh": 1, "author": ["David Fear"]},
{"text": "Sad and vast yet compelling throughout, this remain Leone's most towering achievement.", "is_fresh": 1, "author": []},
{"text": "Handsomely mounted beyond a shadow of a doubt, but as the final statement in Leone's career, it mostly makes me think of how fantastic his Westerns were.", "is_fresh": 1, "author": ["Tim Brayton"]},
{"text": "Leone is less interested in arousing an audience's easier emotions than in presenting, at a dispassionate distance, the horror of two men warily walking toward each other on a tightrope suspended above the snake pit of their , deepest compulsions.", "is_fresh": 1, "author": ["Richard Corliss"]},
{"text": "Every gesture is immediate, and every gesture seems eternal.", "is_fresh": 1, "author": ["Dave Kehr"]},
{"text": "While The Godfather delivers certainty and a comforting dramatic resolution, Once Upon A Time In America delivers a profound kind of mystery.", "is_fresh": 1, "author": ["Adam Smith"]},
{"text": "In a post The Godfather world, for Leone to even consider taking on an epically scoped New York gangster film took tremendous courage if not foolishness, Coppola had set the bar at an impossible height.", "is_fresh": 1, "author": ["Jordan Hiller"]},
{"text": "A disappointment of considerable proportions.", "is_fresh": 0, "author": ["Variety Staff"]},
{"text": "Spaghetti western master Sergio Leone turns his eye toward an American gangster epic spanning 50 years with surprisingly positive results.", "is_fresh": 1, "author": ["Joe Lozito"]},
{"text": "Sergio Leone's cut is wonderful! Avoid the butchered theatrical version unleashed in the U.S.--I actually walked out on that indecipherable mess.", "is_fresh": 1, "author": ["John A. Nesbit"]},
{"text": "Hugely complex, achingly sad and splendidly gorgeous.", "is_fresh": 1, "author": ["Jeffrey M. Anderson"]},
{"text": "Pure cinematic bliss.", "is_fresh": 1, "author": ["Cole Smithey"]},
{"text": "While Leone's vision still has a magnificent sweep, the film finally subsides to an emotional core that is sombre, even elegiac, and which centres on a man who is bent and broken by time, and finally left with nothing but an impotent sadness.", "is_fresh": 0, "author": []},
{"text": "Sergio Leone's swan song is an undisputed masterpeice, a self-reflexive crime-gangster epic with towering performances from De Niro and Tuesday Weld.", "is_fresh": 1, "author": ["Emanuel Levy"]},
{"text": "Haunting, thematically complex.", "is_fresh": 1, "author": ["Nick Schager"]},
{"text": "There are times when we don't understand exactly what is happening, but never a time when we don't feel confidence in the film's narrative.", "is_fresh": 1, "author": ["Roger Ebert"]},
{"text": "A obviedade da meia hora final compromete o impacto do filme - que, ainda assim, impressiona por sua escala \u00e9pica, por suas elegantes transi\u00e7\u00f5es de tempo e \u00f3timas atua\u00e7\u00f5es.", "is_fresh": 1, "author": ["Pablo Villa\u00e7a"]},
{"text": "I'm as big a fan of misogyny as the next guy, but how did this hateful and often tasteless Godfather ripoff become a classic?", "is_fresh": 0, "author": ["Christopher Null"]},
{"text": "Visually stunning, rich in detail, and filled with outstanding performances.", "is_fresh": 1, "author": []},
{"text": "A cinematic masterpiece.", "is_fresh": 1, "author": ["Diana Saenger"]},
{"text": "Great scene follows great scene with inventive direction for almost four hours.", "is_fresh": 1, "author": ["Mark Robison"]},
{"text": "As one would expect from Leone, the film is a brilliant stylistic accomplishment.", "is_fresh": 1, "author": ["Douglas Pratt"]},
{"text": "The perfect swan song for Leone.", "is_fresh": 1, "author": ["Bill Chambers"]},
{"text": "A lazily haullucinatory epic that means to encapsulate approximately 50 years of American social history into a single film.", "is_fresh": 0, "author": ["Vincent Canby"]},
{"text": "Sergio Leone shot the film with such style, grace, and patience that it is impossible not to get caught up in the story.", "is_fresh": 1, "author": ["Derek Smith"]},
{"text": "The film slips easily back and forth in time, dancing between the decades, often making the connection from one era to another solely by means of brilliant cuts that work like magic.", "is_fresh": 1, "author": ["Kenneth Turan"]},
{"text": "Seeing what Leone always intended is like getting your dirty glasses washed.", "is_fresh": 1, "author": ["John Hartl"]},
{"text": "At its restored 229-minute cut, Leone in his directorial swan song proves in its first half-hour how he's the master of cinematic hypnosis.", "is_fresh": 1, "author": ["Erik Childress"]},
{"text": "Masterfully edited.", "is_fresh": 1, "author": ["Marty Mapes"]},
{"text": "The film seems to be too ambiguous for its own good. But somehow it holds together, and becomes a masterpiece, and a wonderful little exit piece for the genius Mr. Leone.", "is_fresh": 1, "author": ["Ted Prigge"]},
{"text": "", "is_fresh": 1, "author": ["Daniel M. Kimmel"]},
{"text": "", "is_fresh": 1, "author": ["Nell Minow"]},
{"text": "", "is_fresh": 1, "author": ["Walter Chaw"]},
{"text": "", "is_fresh": 1, "author": ["Jeffrey Westhoff"]},
{"text": "", "is_fresh": 1, "author": ["Nicolas Lacroix"]},
{"text": "", "is_fresh": 1, "author": ["KJB"]},
{"text": "", "is_fresh": 1, "author": ["Philip Martin"]},
{"text": "", "is_fresh": 1, "author": ["Scott Weinberg"]}
]