[
{"reviews_count": "214", "title": "Paddington 2", "avg_audience_rating": "4.3", "rotten_count": "0", "tomatometer": "100", "audience_score": "88", "avg_critic_rating": "8.7", "fresh_count": "214", "user_ratings_count": "7,170"},
{"text": "Imagine the spirit of Amelie Poulain, the quirkiness of a Wes Anderson film, and the humor of Monsieur Hulot or Charlie Chaplin, all set in jolly ol' England.", "is_fresh": 1, "author": ["Joel Mayward"]},
{"text": "The jokes in this sequel come as thick as the cute bear's fur and as fast as the National Treasures' cameos. I laughed so much I cried, and then I sad-cried too. Hugh Grant is brilliant as ageing ham Phoenix.", "is_fresh": 1, "author": ["Sarah Cartland"]},
{"text": "Paddington 2 is a family film for the ages. A charming, superior sequel brimming with stunning visual designs, hilarious characters and overall, a gentle rush of emotions that warm the heart.", "is_fresh": 1, "author": ["Alistair Ryder"]},
{"text": "Paddington 2 has the same tone and feel of the first film, but it explores a completely different style of story and includes plenty of fun new characters to keep it fresh. ", "is_fresh": 1, "author": ["Kt Schaefer"]},
{"text": "This may be a story of a bear trying to do a good deed. However, it's a film with a larger message of respecting one self and showing kindness to each other.", "is_fresh": 1, "author": ["Christopher James"]},
{"text": "Paddington 2 isn't just a perfect family film, it's a perfect film; a cinematic marvel that is humorous and heartfelt, suspenseful and sentimental, and witty without cynicism.", "is_fresh": 1, "author": ["Sean Mulvihill"]},
{"text": "We are lucky to have a film so pure, so in tune with what is right and decent, and so hugely entertaining as Paddington 2 is.", "is_fresh": 1, "author": ["Tomas Trussow"]},
{"text": "With an almost Wes Anderson-like quality, 'Paddington 2' is visually gorgeous and narratively beautiful, delivering something truly delightful for both young and old.", "is_fresh": 1, "author": ["Doug Jamieson"]},
{"text": "Amid the antics, Paddington 2 still manages to be a sweet, moving tale about what families are willing to do for one another. ", "is_fresh": 1, "author": ["Clint Worthington"]},
{"text": "King embraces the fantastical and unabashedly wields aesthetic anachronisms to ensure his film proves as timeless as its source.", "is_fresh": 1, "author": ["Jared Mobarak"]},
{"text": "Paddington 2 is a full-blown charm assault...", "is_fresh": 1, "author": ["Sarah Voon"]},
{"text": "It is rare that a January movie would come and be tremendous but yet, \"Paddington 2\" exists.", "is_fresh": 1, "author": ["Rendy Jones"]},
{"text": "Remove diversity and things fall apart; in this post-Brexit age, is there a more relevant theme for British filmmakers to consider? Paddington 2 does so effortlessly.", "is_fresh": 1, "author": ["Glenn Heath Jr."]},
{"text": "Paddington 2 joins the ever-exclusive club of sequels that are as good as or better than their predecessors.", "is_fresh": 1, "author": ["Qamar Shafiq"]},
{"text": "The best movie of any and all genres this year.", "is_fresh": 1, "author": ["Christopher Campbell"]},
{"text": "A top notch follow up to the original gem...", "is_fresh": 1, "author": ["Felix Vasquez Jr."]},
{"text": "Happiness is a film like this! It's a movie you should not miss.", "is_fresh": 1, "author": ["Betty Jo Tucker"]},
{"text": "If you didn't lose your heart to the little bear first time around, and you are indeed possessed of such an organ, prepare to surrender it now. ", "is_fresh": 1, "author": ["Alison Rowat"]},
{"text": "...it's virtually impossible not to get an ongoing kick out of King's continuously creative approach to the material. ", "is_fresh": 1, "author": ["David Nusair"]},
{"text": "Riotously enjoyable sequel, which again combines silly chaos with razor-sharp wit.", "is_fresh": 1, "author": ["Rich Cline"]},
{"text": "Paddington 2 is a romp! It's a delight... the rare all-ages triumph.", "is_fresh": 1, "author": ["Joe Reid"]},
{"text": "There is no series of images that is not a delight, nor an action sequence that does not flow smoothly. [Full review in Spanish]", "is_fresh": 1, "author": ["Daniel Krauze"]},
{"text": "How can you possibly match or even top that splendid soiree for the Peruvian bear? You'd think it would be an impossible task, but marvellously King has somehow shocked us once more.", "is_fresh": 1, "author": ["Andrew Pollard"]},
{"text": "Is anything as improbable as a \"feel-good\" movie that actually leaves us feeling terrific? How about two of them in the same series?", "is_fresh": 1, "author": ["Michael Sragow"]},
{"text": "Well worth a marmalade sandwich. [Full Review in Spanish]", "is_fresh": 1, "author": ["Mauricio Gonz\u00e1lez Lara"]},
{"text": "Paddington 2 is not only an intelligent, fun and funny film, but now, in the times of Brexit, it has become counterculture. [Full Review in Spanish] ", "is_fresh": 1, "author": ["Alejandro Alem\u00e1n"]},
{"text": "It's just so charming and cute and adorable. It paces itself well, it takes it's time. It respects the original source material.", "is_fresh": 1, "author": ["Andre Meadows"]},
{"text": "It can be easy to forget there is good in the world and sometimes it comes in the form of a furry brown bear in a hat ", "is_fresh": 1, "author": ["Eli Glasner"]},
{"text": "Paddington 2 is a film full of life that picks up where the first left off and adds a more charismatic villain (sorry, Nicole Kidman)... [Full review in Spanish]", "is_fresh": 1, "author": ["Diana Su"]},
{"text": "This sequel is huggable, plush family entertainment, able to captivate audiences of all ages. [Full Review in Spanish] ", "is_fresh": 1, "author": ["Adri\u00e1n Ruiz"]},
{"text": "A colorful, good-hearted romp for all ages.", "is_fresh": 1, "author": ["Linda Cook"]},
{"text": "[Hugh Grant's] role is the true hidden treasure in Paddington 2. [Full review in Spanish]", "is_fresh": 1, "author": ["Nazareno Brega"]},
{"text": "Noble and nostalgic, colorful and visually striking, as well endearing entertainment for the whole family. [Full Review in Spanish] ", "is_fresh": 1, "author": ["Rolando Gallego"]},
{"text": "A balm for our troubled times.", "is_fresh": 1, "author": ["Charles Koplinski"]},
{"text": "...creativity for the sheer joy of it.", "is_fresh": 1, "author": ["Josh Larsen"]},
{"text": "The spirit of adventure is really strong in this continuation... [Full review in Spanish]", "is_fresh": 1, "author": ["Emmanuel B\u00e1ez"]},
{"text": "The Paddington films preach a message of acceptance that's no less straightforward than that of The Shape of Water, encouraging viewers to share in the hero's tolerant worldview. ", "is_fresh": 1, "author": ["Ben Sachs"]},
{"text": "In 2015, I marveled at the very existence of a movie that championed good manners and kindness, but I had no idea how much more those things would matter in 2018. ", "is_fresh": 1, "author": ["Jeffrey M. Anderson"]},
{"text": "How rare that a sequel improves upon its original, and rarer still is a perfect film. But Paddington 2 is both, encouraging gentleness, politeness, and decency.", "is_fresh": 1, "author": ["Roxana Hadadi"]},
{"text": "Maintains all of the considerable charm of the first film and throws in a hefty bit of whimsy, cheer, and good fun. (Full Content Review for Parents - Violence, etc. - also Available)", "is_fresh": 1, "author": ["Teddy Durgin"]},
{"text": "Paddington 2 surprised the hell out of me, and this is coming from somebody who loved the first. This is a sequel that doesn't disappoint.", "is_fresh": 1, "author": ["Chris Stuckmann"]},
{"text": "Director Paul King has once again come up with the perfect antidote to the cynicism, selfishness and hatred of the times we live in. This is a light, touching, magical film with imaginative visuals, interesting characters and an uplifting message.", "is_fresh": 1, "author": ["Robert Roten"]},
{"text": "A dash of Wes Anderson and a sprinkle of Jean-Pierre Jeunet, swirled around with a wonderfully fluid sense of airiness and light. It's mannered, yet carefree, colorful, and evocative. ", "is_fresh": 1, "author": ["Katie Walsh"]},
{"text": "I don't want to review Paddington 2: I want to live in it, and invite you to live in it with me.", "is_fresh": 1, "author": ["Steven D. Greydanus"]},
{"text": "Charming and enjoyable, despite the weird hook that has Paddington in prison for much of the movie ", "is_fresh": 1, "author": ["Stephen Silver"]},
{"text": "More comforting than creative, but so warm, fuzzy, and cozy in its comfort that one desperately longs to force it on everybody in earshot.", "is_fresh": 1, "author": ["Tim Brayton"]},
{"text": "Like a dream from which you don't want to wake, Paddington 2 is a sweet respite from life in 2018. Don't sleep on it.", "is_fresh": 1, "author": ["Andrew Todd"]},
{"text": "A movie that promotes the importance of family and good manners might seem like it could become the squarest of snoozes, but Paddington 2 is so transcendentally cheerful that it carries the day - and then some. ", "is_fresh": 1, "author": ["Peter Rainer"]},
{"text": "Best of all is Hugh Grant as a villainous ham actor who gets to dress up in any number of ridiculous costumes before ending the film with a production number that only Mel Brooks has ever matched.", "is_fresh": 1, "author": ["M. Faust"]},
{"text": "Marmalade-loving Paddington will sweeten the day of anyone, young or just young at heart, in this delightful sequel.", "is_fresh": 1, "author": ["Laura DeMarco"]},
{"text": "The result is the kind of irresistible family-friendly fantasy that could wind up giving \"sweetness and light\" a good name. ", "is_fresh": 1, "author": ["Jim Lane"]},
{"text": "It's that extra dose of creativity that elevates Paddington 2 from the status of routine sequel to the kind of film parents will find worth packing up the kids for, even when the weather outside is still frightful.", "is_fresh": 1, "author": ["Josh Terry"]},
{"text": "With a heartening, valuable and wholesome message, coupled with dazzling animation and a smashing dose of whimsical hilarity and fun, this is an unforgettable cinematic gift. ", "is_fresh": 1, "author": ["Courtney Howard"]},
{"text": "If at no point does it make your heart swell with positive emotion, then you're probably dead. Not just dead inside, you're probably an actual corpse.", "is_fresh": 1, "author": ["Sarah Marrs"]},
{"text": "Let's hope Paddington's warmth and humanity rolls onto the next generation as smoothly as marmalade on bread.", "is_fresh": 1, "author": ["Jon Winkler"]},
{"text": "Paddington 2 has a homey appeal and design that feels fresh yet cozy all at once-like nostalgia crystallizing right in front of your eyes.", "is_fresh": 1, "author": ["Yohana Desta "]},
{"text": "All in all, \"Paddington 2\" has a warmth and wit that's missing from many a children's movie. Don't let your January go by without it.", "is_fresh": 1, "author": ["Rafer Guzman"]},
{"text": "This isn't the expected, rushed off kid's movie, just out to make a quick buck. This is clearly a labor of love for each person involved, with each person dedicated to bringing this beloved character and story to life. ", "is_fresh": 1, "author": ["Ross Bonaime"]},
{"text": "It's a fun movie, within which lurks a poignant idea-and, yes, an oversimple one-about communities and their outsiders. ", "is_fresh": 1, "author": ["K. Austin Collins"]},
{"text": "[Paddington 2] has one out-loud laugh, plenty of sincere cleverness, vast technical ingenuity, a warm heart, lively performances and enough gyroscopic camera moves to make Max Oph\u00fcls jealous.", "is_fresh": 1, "author": ["Richard Brody"]},
{"text": "It's kind of like what [Martin] Scorses did with Hugo where there's just a lot of interesting film making techniques that the director Paul King does in this movie that really give it a flare. ", "is_fresh": 1, "author": ["Mark Ellis"]},
{"text": "As funny as Paddington 2 is - and it's really funny - the movie's big heart is perhaps its finest quality. ", "is_fresh": 1, "author": ["Mike McGranaghan"]},
{"text": "This is one sequel it's a pleasure to review.", "is_fresh": 1, "author": ["James Berardinelli"]},
{"text": "In the hands of the wrong director and/or actor, any script, even one this fine, might have been a disaster. Luckily, all involved were up to the task, and have delivered to us a warm, hilarious, joy-filled film. It's just what we all need right now.", "is_fresh": 1, "author": ["DaVette See"]},
{"text": "Everything that a kids' movie should be: sweet and adorable and kind, and adults can enjoy it too.", "is_fresh": 1, "author": ["Alonso Duralde"]},
{"text": "A nearly perfect movie that thoroughly and genuinely restores something we haven't seen a lot of lately - childhood wonder.", "is_fresh": 1, "author": ["Al Alexander"]},
{"text": "Adorable, thoroughly enjoyable sequel, reinforcing the sublime belief: \"If you're kind and polite, the world will be right.\"", "is_fresh": 1, "author": ["Susan Granger"]},
{"text": "Years later, the sequel only gilds the franchise with yet another story full of heart, humour, adventure and friendship.", "is_fresh": 1, "author": ["Soumya Srivastava"]},
{"text": "Paddington 2 is a charming confection of a film that manages to exceed its predecessor in terms of both visual splendor and good-natured storytelling.", "is_fresh": 1, "author": ["Sandy Schaefer"]},
{"text": "This sequel is funnier, more charming and heartwarming than the original; one you'll enjoy tremendously, with or without kids in tow.", "is_fresh": 1, "author": ["Neil Soans"]},
{"text": "Paddington 2 is a rare film, in that the sequel bests the original. Just like the Pixar films, Paddington 2 manages to be a movie that simultaneously makes children squeal with delight, and warms the heart of watching parents.", "is_fresh": 1, "author": ["Jo Bradley"]},
{"text": "Much of the appeal of Paddington 2 is the way it combines classic British nostalgia with fast-forward contemporary filmmaking.", "is_fresh": 1, "author": ["Stephen Schaefer"]},
{"text": "Good news! This sequel is very nearly as good as the first version of the story of a bear in London.", "is_fresh": 1, "author": ["Martha K. Baker"]},
{"text": "There's a warmth and a joy running through the Paddington films that overwhelms in the best possible way, without ever tipping into syrupy manipulation. Maybe that's just the difference between treacle and marmalade.", "is_fresh": 1, "author": ["Norman Wilner"]},
{"text": "I might even go so far as to proclaim Paddington 2 pretty much perfect, but let me indulge in one more marmalade sandwich before I make the decision to say just that.", "is_fresh": 1, "author": ["Sara Michelle Fetters"]},
{"text": "A rare sequel that lives up to (and even improves on) the original, Paddington 2 finds the beloved bear of children's literature off on another wondrous adventure.", "is_fresh": 1, "author": ["Rashid Irani"]},
{"text": "It may be difficult to find a review of director and co-writer Paul King's followup to [Paddington] that does not employ some form of the word \"charming.\" This is right and just, and the achievement is surely harder than the devoted cast makes it look.", "is_fresh": 1, "author": ["Matthew Lickona"]},
{"text": "The lightweight material and charmingly quaint depiction of a London that surely exists only in colouring books prove as hard to resist as Paddington's warm brown eyes.", "is_fresh": 1, "author": ["Nandini Ramnath"]},
{"text": "...everyone involved in the making of this wonderful little fantasy story give their all and the result is magical.", "is_fresh": 1, "author": ["Robin Clifford"]},
{"text": "The message is there: be kind unto others, and they'll be kind unto you - and a dollop of marmalade doesn't hurt either.", "is_fresh": 1, "author": ["Blake Goble"]},
{"text": "Paddington 2 is a feel-good masterpiece, a cinematic salve for the prejudice of our times.", "is_fresh": 1, "author": ["Kayti Burt"]},
{"text": "I don't know exactly what I saw in Paddington 2, or why it struck me with such wonder when the little bear slapped a glob of vermilion jam on the glistening noggin of an ill-tempered patron. All I know is that it took me somewhere. ", "is_fresh": 1, "author": ["Michael Arbeiter"]},
{"text": "Paddington 2 may not be the novel revelation that its predecessor was, but it has its heart-and its stomach-in the right place.", "is_fresh": 1, "author": ["Christy Lemire"]},
{"text": "... retains plenty of gentle charm while not becoming burdened by prior success or expectations.", "is_fresh": 1, "author": ["Todd Jorgenson"]},
{"text": "Like watching a remake of Papillon directed by Wes Anderson, Paddington 2 is charming beyond belief. [Full Review in Spanish]", "is_fresh": 1, "author": ["Mario Alegre"]},
{"text": "Paddington 2 is the quintessential family film that had me smiling throughout.", "is_fresh": 1, "author": ["Sr. Rose Pacatte"]},
{"text": "King isn't content to simply tell a marvelous tale. His film is full of magical transitions, such as a flight of fancy where Paddington steps into the pop-up book to show his aunt the sights or where his nighttime prison tears sprout a jungle dream.", "is_fresh": 1, "author": ["Laura Clifford"]},
{"text": "Sick of surly Facebook posts and angry Tweets? Paddington 2 is the movie we need now more than ever.", "is_fresh": 1, "author": ["Christian Toto"]},
{"text": "Supplies a happy ration of kid-friendly slapstick, grown-up jokes, and a batch of the most recognizable actors in Britain.", "is_fresh": 1, "author": ["Robert Horton"]},
{"text": "Even in a sequel, Bond's furry metaphor survives its animation intact.", "is_fresh": 1, "author": ["Kate Taylor"]},
{"text": "If you have kids, take them. If you have nieces and nephews, take them. If you don't have kids but just want to feel like one yourself, go see it. Paddington is a bear for all seasons.", "is_fresh": 1, "author": ["Adam Graham"]},
{"text": "Utterly beguiling.", "is_fresh": 1, "author": ["Nell Minow"]},
{"text": "Paddington could melt the coldest of hearts.", "is_fresh": 1, "author": ["Dustin Putman"]},
{"text": "The movie is full of bright wit and sincere joy, as Paddington's innate kindness permeates all around him, providing a weary world just what it needs right now.", "is_fresh": 1, "author": ["Sean P. Means"]},
{"text": "If you see these movies and don't like them, there's something wrong with you.", "is_fresh": 1, "author": ["Eric D. Snider"]},
{"text": "Paddington 2 reminds us how difficult it can be to pull off a sweetly tempered, gently moving children's movie by doing exactly that, and doing it so well.", "is_fresh": 1, "author": ["Michael Burgin"]},
{"text": "Paddington 2 is just as adorable as the first live-action Paddington movie.", "is_fresh": 1, "author": ["Fred Topel"]},
{"text": "The result might just be the best bear movie since Winnie the Pooh. ", "is_fresh": 1, "author": ["Chris Knight"]},
{"text": "This bear is constantly striving to earn the approval of the humans in his life. One day, maybe we can all be worthy of his.", "is_fresh": 1, "author": ["Andrew Lapin"]},
{"text": "The utterly delightful Paddington 2 feels like the right film for this moment in time...", "is_fresh": 1, "author": ["Mark Dujsik"]},
{"text": "''Paddington 2\" is \"The Godfather Part II\" of Peruvian bear movies, a sequel that surpasses the superb original.", "is_fresh": 1, "author": ["Joe Morgenstern"]},
{"text": "Literally, everything about \"Paddington 2\" is pitch perfect.", "is_fresh": 1, "author": ["Gregory Wakeman"]},
{"text": "It's an exquisite reminder of the wondrous things that can happen when a storyteller of boundless imagination avails himself of some rigorous discipline.", "is_fresh": 1, "author": ["Justin Chang"]},
{"text": "Family-friendly fun for all ages, thanks to a marvellous script, a sterling cast and the adept, sure-handed direction of Paul King.", "is_fresh": 1, "author": ["Bruce DeMara"]},
{"text": "It's a perfect flick for families, but also a jolly time for anyone with a pulse.", "is_fresh": 1, "author": ["Johnny Oleksinski"]},
{"text": "The first movie based on Michael Bond's Paddington Bear books was an absolute delight, and defying the usual laws of sequelitis, the second is equally charming. ", "is_fresh": 1, "author": ["Frank Swietek"]},
{"text": "We need a new Paddington movie every January. ", "is_fresh": 1, "author": ["Matt Goldberg"]},
{"text": "The sequel has the same tone as the original but is livelier and funnier, mostly due to Hugh Grant, who gleams as the bad guy.", "is_fresh": 1, "author": ["Jody Mitori"]},
{"text": "Given the rocky paths of many sequels, it's a special joy that \"Paddington 2\" is sweet as marmalade.", "is_fresh": 1, "author": ["Colin Covert"]},
{"text": "... \"Paddington 2\" is a total delight.", "is_fresh": 1, "author": ["Lindsey Bahr"]},
{"text": "Will appeal to anyone who has a heart for whimsy, no matter her age.", "is_fresh": 1, "author": ["Anna Storm"]},
{"text": "The entire film sparkles with a Wes Anderson-ish whimsy and a kind heart that'll leave you feeling warm and fuzzy. Just like the film's protagonist.", "is_fresh": 1, "author": ["Devan Coggan"]},
{"text": "Mainly, though, Paddington 2 is a comic triumph chock-full of slapstick, heart, and hope. Well done, Mr. Paddington Brown, well done.", "is_fresh": 1, "author": ["Marc Savlov"]},
{"text": "Could it be that Hugh Grant was born to play a villainous dandy in a kid's movie?", "is_fresh": 1, "author": ["Stephanie Merry"]},
{"text": "These movies simply know what they're doing. They retain the spirit and the humane reassurance of the source material.", "is_fresh": 1, "author": ["Michael Phillips"]},
{"text": "There are slapstick hijinks and silly scenarios aplenty, but at its heart \"Paddington 2\" has something serious to say about making the world a better place through daily acts of kindness.", "is_fresh": 1, "author": ["Barbara VanDenburgh"]},
{"text": "I must admit I was very concerned about \"Paddington 2\". Sequels are rarely as good as the first. But I am thrilled that \"Paddington 2\" is every bit as good as the original, and that Hugh Grant is spectacular!", "is_fresh": 1, "author": ["Jeanne Kaplan"]},
{"text": "\"Paddington 2\" is a sweet and fun family adventure, full of laughs, some surprises and a glittering array of actors.", "is_fresh": 1, "author": ["David Kaplan"]},
{"text": "An adorable sequel that manages to surpass the original thanks in part to Hugh Grant's scene-stealing villain gig. [Full review in Spanish] ", "is_fresh": 1, "author": ["Fico Cangiano"]},
{"text": "Enormous heart and energy, smartly building on the previous installment to generate a more precise cute bear attack, keeping the marmalade flowing and the smiles constant.", "is_fresh": 1, "author": ["Brian Orndorf"]},
{"text": "Paddington 2, like its hero, manages to surprise in its winning tone, its fierce cleverness, its heart, and its humor. ", "is_fresh": 1, "author": ["Josh Spiegel"]},
{"text": "Calling it a \"kids film\" is a disservice; Paul King has directed an of-the-moment family comedy that rivals any in recent memory.", "is_fresh": 1, "author": ["Christopher Schobert"]},
{"text": "Paddington 2 stands out for its atmosphere of homey cheer and profound belief in the harmonizing power of warmth, politeness, and the absurd.", "is_fresh": 1, "author": ["Keith Watson"]},
{"text": "What could be overbearing (sorry) kid stuff instead is wonderfully droll and charming throughout, a children's film that really does not talk down to its intended audience and should please every member of the family. ", "is_fresh": 1, "author": ["Pete Hammond"]},
{"text": "And familiarity with the characters means less time spent establishing them, and more time for just enjoying who they are.", "is_fresh": 1, "author": ["Al Hoff"]},
{"text": "This is a film of such open-hearted joy and grace, which feels rare in an industry that often embraces cynicism and sarcasm, including in its children's stories.", "is_fresh": 1, "author": ["David Sims"]},
{"text": "An emotional masterpiece that digs deep while keeping you smiling, and a pure example of why sequels can still be a good thing.", "is_fresh": 1, "author": ["Mike Reyes"]},
{"text": "Mr. King and his excellent team of actors and animators spin good writing and seamless digital effects into Rococo children's entertainment.", "is_fresh": 1, "author": ["Teo Bugbee"]},
{"text": "As with the first film, Paddington 2 never feels like it's speaking above the level of it intended primary audience, and thus the performances by the adult actors feel less like larks and more like tremendous acts of generosity.", "is_fresh": 1, "author": ["Emily Yoshida"]},
{"text": "Can we have every year start off with a Paddington movie? The world would be a much nicer place, I think.", "is_fresh": 1, "author": ["Travis Hopson"]},
{"text": "Paddington has a way of finding the good in others and the lovable bear finds himself on a new adventure in the family-friendly Paddington 2.", "is_fresh": 1, "author": ["Danielle Solzman"]},
{"text": "Yes, it's a little silly watching him converse and become friends with criminals, but it's another beautiful reminder that we should all look for the good in everyone. Can Paddington even find the good in his former producer Harvey Weinstein?", "is_fresh": 1, "author": ["Robert Kojder"]},
{"text": "\"If we're kind and polite, the world will be right,\" Paddington says multiple times throughout this sequel. While that can be hard to believe, the energetic optimism of \"Paddington 2\" might inspire you yet. ", "is_fresh": 1, "author": ["Will Ashton"]},
{"text": "These actors all yield the floor to Hugh Grant's delightful performance as Phoenix Buchanan, a vain thespian who lives near the Browns in London. ", "is_fresh": 1, "author": ["Carla Meyer"]},
{"text": "If you can believe it, Paddington 2 is even better. It's bigger, smarter, and funnier than its predecessor; it's an absolute delight. ", "is_fresh": 1, "author": ["Karen Han"]},
{"text": "Overflowing with heart and humor, this delightful romp is a charmer for the whole family.", "is_fresh": 1, "author": ["Roger Tennis"]},
{"text": "PADDINGTON 2 pulls you in with its humor, just as it is getting ready to bring a tear to your eye. This is a perfect film for all audiences. ", "is_fresh": 1, "author": ["JimmyO"]},
{"text": "Paddington 2 never betrays the sweet-tempered worldview of its source material, the long-running series of children's books written by the late Michael Bond.", "is_fresh": 1, "author": ["Ignatiy Vishnevetsky"]},
{"text": "Paddington is, above all, dedicated to celebrating the myths of abiding Britishness, from civility and restraint to an inexplicable love of riding old-timey trains. ", "is_fresh": 1, "author": ["Vincent Mancini"]},
{"text": "Paddington is as gangsta as they come.", "is_fresh": 1, "author": ["Phil Villarreal"]},
{"text": "Charming, heartfelt sequel entertains, inspires compassion. ", "is_fresh": 1, "author": ["Sandie Angulo Chen"]},
{"text": "Aside from being a disarming, refreshing wallow in kindness, Paddington 2 also has the benefit of being well-constructed and exceedingly well-performed.", "is_fresh": 1, "author": ["Bilge Ebiri"]},
{"text": "Paddington 2 is a stellar comedy with smart setups, superb payoffs, and belly-rocking laughs. It's a thrilling and whimsical adventure that will have your heart soaring.", "is_fresh": 1, "author": ["Kristy Puchko"]},
{"text": "Paddington 2 ticks right along through its initially dense plot, eventually settling on a compelling narrative.", "is_fresh": 1, "author": ["Kate Erbland"]},
{"text": "The way Paddington embraces his fellow outsiders, like the inmates in Portobello Prison, subtly reminds viewers that even those without Paddington's good manners have kindness in their hearts.", "is_fresh": 1, "author": ["Claudia Puig"]},
{"text": "'Paddington 2' is so good that, yes, I would compare it to 'Babe'.", "is_fresh": 1, "author": ["Scott Mendelson"]},
{"text": "Grant somehow filches the entire movie, in the course of which he gets to dress as a candle-carrying nun, a knight in armor, and, to his eternal mortification, a giant spaniel.", "is_fresh": 1, "author": ["Anthony Lane"]},
{"text": "As with its predecessor, this sequel adores its furry protagonist every bit as much as generations of readers have, and is determined to bring that love to his latest big-screen excursion. ", "is_fresh": 1, "author": ["Sarah Ward"]},
{"text": "Could not be more adorable. ", "is_fresh": 1, "author": ["Roger Moore"]},
{"text": "One of those rare movies that really is meant for both adults and children ... it's a skilful mix of physical comedy, warm humour and sheer delight that should enchant everyone.", "is_fresh": 1, "author": ["Jo Berry"]},
{"text": "[Paddington 2] balances sentiment and slapstick while hymning the joys of multiculturalism.", "is_fresh": 1, "author": ["Kate Stables"]},
{"text": "It goes without saying that Paddington remains as loveable as ever, but it is Hugh Grant as the dastardly villain of the piece that steals the show, offering a belly-achingly funny performance.", "is_fresh": 1, "author": ["Joseph Walsh"]},
{"text": "Unless you're dead inside, you will not fail to be utterly charmed by Paddington 2.", "is_fresh": 1, "author": ["Wenlei Ma"]},
{"text": "Gleeful sequel to the 2014 hit family film that avoids the law of diminishing returns by studding a decent plot about a secret treasure with deliciously cheesy turns from A-list actors.", "is_fresh": 1, "author": ["Jim Schembri"]},
{"text": "Follow-ups are hard to do, but Paddington 2 knows which side its bread is buttered (with added marmalade, of course) and repeats the winning recipe.", "is_fresh": 1, "author": ["Matt Neal"]},
{"text": "A wonderful film for the young and the young-at-heart.", "is_fresh": 1, "author": ["Stephen Romei"]},
{"text": "If more writers and directors respected their audiences as King and Farnaby clearly does, the world's entertainment output would be significantly improved. Just like the bear himself, Paddington 2 makes the world a slightly better place.", "is_fresh": 1, "author": ["Alex Doenau"]},
{"text": "You shudder at how cheesy this could, and perhaps should, be, but in the hands of the British Paddington 2 is warm, witty and wonderfully eccentric. It'll certainly make you laugh, and perhaps cry, and remind you of the incredible power of kindness.", "is_fresh": 1, "author": ["Francesca Rudkin"]},
{"text": "... Paddington, who must have the most expressive eyes ever seen on a CGI animal, has such durable charm that the film's shortcomings are overridden by its good-natured spirit.", "is_fresh": 1, "author": ["Sandra Hall"]},
{"text": "Not only does it keep the same characters and setting, but maintains the same level of heart and humor to become a truly unforgettable, lovely time at the theater.", "is_fresh": 1, "author": ["Alex Welch"]},
{"text": "With the expected soft-heartedness, a few glorious gags, a nod to the Paddington TV series and especially funny turns by Gleeson and Grant, this is surely the best option for a Christmas movie for the whole family.", "is_fresh": 1, "author": ["David 'Mad Dog' Bradley"]},
{"text": "As with the hilarious and highly entertaining 2014 original, Paddington 2 provides some of the best family entertainment you'll have at the cinema all year.", "is_fresh": 1, "author": ["James Croot"]},
{"text": "This film is a little ripper that put a smile on my face that - hours after the screening - is showing no signs of fading.", "is_fresh": 1, "author": ["Graeme Tuckett"]},
{"text": "Paddington 2 is ultimately about the importance of remaining civil and tolerant despite a world increasingly being overwhelmed by prejudice and bigotry.", "is_fresh": 1, "author": ["Ben Sin"]},
{"text": "Most sequels feel inferior to the original but this is a rare case where that isn't true.", "is_fresh": 1, "author": ["Matthew Toomey"]},
{"text": "The suspense-thriller plot involving a frame-up is throwaway for anyone older than 12, but there is so much going on - the Wes-Anderson-meets-Studio-Ghibli visuals, the skits, Grant's over-the-top work - that the older ones will be kept happy.", "is_fresh": 1, "author": ["John Lui"]},
{"text": "Undeniably charming and infectiously disarming, it's almost impossible not to be swept away or even find a fault in the follow-up to Paul King's 2014's Paddington. ", "is_fresh": 1, "author": ["Marija Djurovic"]},
{"text": "Chock full of fantastical London sets, a million and one famous British thespians having a whale of a time, and good cheer, love and joy. It's even better than the first one, having more jokes for the adults while a much better villain for the kids.", "is_fresh": 1, "author": ["CJ Johnson"]},
{"text": "Action and laughs are aplenty, but it is the film's overall tenderness and charm that will keep you smiling throughout the 104 minutes.", "is_fresh": 1, "author": ["Joanne Soh"]},
{"text": "The good news on the sequel is that one good minor miracle deserves another: Paddington 2 is the equal of its predecessor, not allowing standards to slip anywhere.", "is_fresh": 1, "author": ["Leigh Paatsch"]},
{"text": "With cameos from Meera Syal, Joanna Lumley and Jim Broadbent, this unapologetically British film hits all the right festive feelings. ", "is_fresh": 1, "author": ["Felicity Campbell"]},
{"text": "There are wonderful little jokes hidden amid the slapstick: a perfectly delivered take on the word \"baguette\", and every line that leaves a delightfully camp Hugh Grant's mouth.", "is_fresh": 1, "author": ["Anna Leszkiewicz"]},
{"text": "[An] unbeatable distribution of actors outside their genre. [Full Review in Spanish]", "is_fresh": 1, "author": ["Francisco Marinero"]},
{"text": "[Hugh Grant] is the icing on the cake. [Full Review in Spanish]", "is_fresh": 1, "author": ["Fausto Fernandez"]},
{"text": "It's children's cinema, without the pretense of being anything else. [Full Review in Spanish]", "is_fresh": 1, "author": ["Alberto Corona"]},
{"text": "What Paddington 2 demonstrates is that in the currently messed-up and hectic world we currently live in, we need films like this to remind us how we need something loving to make our lives endearing, akin to the warm message of It's a Wonderful Life.", "is_fresh": 1, "author": ["Ryan Pollard"]},
{"text": "The film's deceptive genius is not just a renewed faithfulness to the spirit of Bond's books but the clever way it is set in the present day and yet constantly harks back to the more innocent times when the stories were written.", "is_fresh": 1, "author": ["Matthew Bond"]},
{"text": "The new film is every bit as bright, funny and cosy as its predecessor.", "is_fresh": 1, "author": ["Edward Porter"]},
{"text": "Yet again Paul King and his co-writer Simon Farnaby have wonderfully caught the playful innocence of the original stories while adding more than enough adult humour to keep the guardians entertained.", "is_fresh": 1, "author": ["Paul Whitington"]},
{"text": "It's as unlikely and as charming as a talking bear... a cute family film topping my list of the best films of the year.", "is_fresh": 1, "author": ["Andy Lea"]},
{"text": "Something to treasure rather than just to entertain.", "is_fresh": 1, "author": ["Wendy Ide"]},
{"text": "It's also refreshingly designed with a timeless style that's quirky and inventive rather than gimmicky-cool, undercutting the sentimentality with good-hearted sarcasm while making the important point that we need to take care of each other.", "is_fresh": 1, "author": ["Rich Cline"]},
{"text": "Hugh Grant preens and puffs magnificently. Brendan Gleeson scowls and softens with similar aplomb. Both look to be having an absolute ball.", "is_fresh": 1, "author": ["Tara Brady"]},
{"text": "Beyond all the brilliant actors involved, the team behind the camera is thoroughly deserving of merit too.", "is_fresh": 1, "author": ["Ben Skipper"]},
{"text": "But it works. The inclusive, plainly pro-immigration stance of the original 2014 film is carried over here and multiplied, with a welcome anti-Brexit message.", "is_fresh": 1, "author": ["Ryan Gilbey"]},
{"text": "There is such kindness here, such humanity, such warmth and optimism. This is a fantasy of unique scope and astonishing emotional depth beneath the silliness.", "is_fresh": 1, "author": ["MaryAnn Johanson"]},
{"text": "Paul King's crazy rhythms are all his own, packing practically every frame with a sight-gag or goofy reference that will make small screen rewatches endlessly enjoyable.", "is_fresh": 1, "author": ["Jamie Dunn"]},
{"text": "The fim's optimistic messages about embracing otherness rather than fearing it, and the power of goodness and courtesy to overwhelm shouty aggression, seem oddly relevant at this moment in national life.", "is_fresh": 1, "author": ["Matthew Norman "]},
{"text": "Most of the credit belongs to Paul King, who again directs and co-writes, and is better-served this time by the clever folk in the special- effects department.", "is_fresh": 1, "author": ["Brian Viner"]},
{"text": "Paddington 2 is a sheer delight.", "is_fresh": 1, "author": ["Allan Hunter"]},
{"text": "Paddington 2 really is simply more of the same joyous warmth, with a sprinkling of Hugh Grant on top form.", "is_fresh": 1, "author": ["Jamie East"]},
{"text": "Even though the plot's about as substantial as one of Paddington marmalade sandwiches, it's hard not to be won over by the duffel coat-sporting furball.", "is_fresh": 1, "author": ["Alistair Harkness"]},
{"text": "It's hard to resist this understated, delicate, winningly eccentric movie.", "is_fresh": 1, "author": ["Edward Lawrenson"]},
{"text": "It might just be the quirkiest, most quintessentially British film phenomenon of the decade.", "is_fresh": 1, "author": ["Kevin Maher"]},
{"text": "Paddington 2 is that rare thing, a sequel that is more engaging than the original by dint of having a far better baddie.", "is_fresh": 1, "author": ["Saskia Baron"]},
{"text": "By turns charming and hilarious, Paddington 2 is that rare sequel that actually betters the original in almost every way.", "is_fresh": 1, "author": ["Rob Carnevale"]},
{"text": "But the secret weapon here is Grant: as a vain, once-A-list actor reduced to advertising doggie dinners, he hams it up with just the right amount of self-loathing. At his finest, no one can do comedy quite like him and this is an incomparable performance.", "is_fresh": 1, "author": ["Larushka Ivan-Zadeh"]},
{"text": "The gags, one-liners and set-pieces just keep on coming with a breathlessness that's the hallmark of the best family movies.", "is_fresh": 1, "author": ["Harry Guerin"]},
{"text": "Paddington 2 is the perfect tonic for these troubled times. Anyone who disagrees should be fixed with a Very Hard Stare.", "is_fresh": 1, "author": ["Matthew Turner"]},
{"text": "It's terribly sad that Paddington's creator Michael Bond - to whom the film is dedicated - died in June without seeing how absolutely wonderfully his legacy has been continued.", "is_fresh": 1, "author": ["Angie Errigo"]},
{"text": "State-of-the-art effects combine with playful, generous storytelling in a feelgood sequel only marmalade haters could resist.", "is_fresh": 1, "author": ["Neil Smith"]},
{"text": "A perfect sequel - an utterly charming, beautifully judged and genuinely heartwarming tale of triumph of good over evil", "is_fresh": 1, "author": ["Linda Marric"]},
{"text": "Too many times, a franchise has almost been taken by surprise at its success and produced a follow-up that is rushed and soulless. This film happily avoids that trap, but also might be one of the best movies of the year.", "is_fresh": 1, "author": ["James Luxford"]},
{"text": "Mixing live action with CGI, it's a wonderfully enjoyable and brightly coloured romp through a picture postcard pretty London and beyond.", "is_fresh": 1, "author": ["Chris Hunneysett"]},
{"text": "A sure-footed, sweet-natured family comedy which isn't set at Christmas, but which glows with so much warmth and fun that it might well be a staple of festive television for years to come. ", "is_fresh": 1, "author": ["Nicholas Barber"]},
{"text": "Effortlessly great, immensely satisfying.", "is_fresh": 1, "author": ["David Jenkins"]},
{"text": "A family adventure that's the right sort of heartwarming, delivering real human emotion through the medium of a small bear.", "is_fresh": 1, "author": ["Helen O'Hara"]},
{"text": "He is a movie hero without a shade of cynicism, one who never loses either his sticky-pawed innocence or his idealism.", "is_fresh": 1, "author": ["Geoffrey Macnab"]},
{"text": "Paddington 2 is as irresistible as the dessert trolley our hero pilots, and as sweet as the marmalade that perpetually clags his fur.", "is_fresh": 1, "author": ["Wendy Ide"]},
{"text": "Paddington 2 should be prescribed as an antidote to anyone who finds the madness of the modern world a bit wearing. It's probably possible to not absolutely love it, but it's hard to see how.", "is_fresh": 1, "author": ["Olly Richards"]},
{"text": "Paddington was uncommonly charming and Paddington 2 is very nearly as good.", "is_fresh": 1, "author": ["Tim Robey"]},
{"text": "Paddington 2 won't save the world, sadly, but it's existence makes everything just that tiny bit better and more, well, bearable.", "is_fresh": 1, "author": ["Leslie Felperin"]},
{"text": "Another near-pawfect family entertainment, honoring the cozy, can-do spirit of Bond's stories while bringing them smoothly into a bustling, diverse 21st-century London - with space for some light anti-Brexit subtext to boot.", "is_fresh": 1, "author": ["Guy Lodge"]},
{"text": "The film is pitched with insouciant ease and a lightness of touch at both children and adults without any self-conscious shifts in irony or tone: it's humour with the citrus tang of top-quality thick-cut marmalade.", "is_fresh": 1, "author": ["Peter Bradshaw"]}
]