[
{"reviews_count": "18", "title": "Police Academy", "avg_audience_rating": "3.2", "rotten_count": "11", "tomatometer": "39", "audience_score": "64", "avg_critic_rating": "4.3", "fresh_count": "7", "user_ratings_count": "194,458"},
{"text": "Now comes without any doubt the absolute pits of this genre, the least funny movie that could possibly have been inspired by Airplane! or any other movie.", "is_fresh": 0, "author": ["Roger Ebert"]},
{"text": "The movie had its moment in the sun, somebody made a lot of money from it and then it vanished. Mercifully so in most ways, but not without leaving at least a little whiff of younger, happier days behind. ", "is_fresh": 0, "author": ["Rob Vaux"]},
{"text": "Sophomoric '80's cop-spoof has profanity, sex, stereotypes. ", "is_fresh": 0, "author": ["Brian Costello"]},
{"text": "Funny! Funny! Funny!", "is_fresh": 1, "author": ["Michael A. Smith"]},
{"text": "Goofy group makes 'Car 54 Where Are You?' seem like Shakespeare.", "is_fresh": 0, "author": ["Steve Crum"]},
{"text": "A tasteless comedy.", "is_fresh": 0, "author": ["Frederic and Mary Ann Brussat"]},
{"text": "A Reagan-era screed against affirmative action, Police Academy warns what misfits and lowlifes wait to pour through the floodgates.", "is_fresh": 0, "author": ["Martin Scribbs"]},
{"text": "It's harmless stuff, to be sure, but almost invisible, it disappears from memory so fast. A stealth comedy, perhaps?", "is_fresh": 0, "author": ["John J. Puccio"]},
{"text": "You know how people talk about a movie being so bad it's good? Police Academy is that movie.", "is_fresh": 1, "author": ["Christopher Null"]},
{"text": "Excellent misfit comedy. The R rating gives it edge that the sequels lack.", "is_fresh": 1, "author": ["Fred Topel"]},
{"text": "And it only went downhill from here", "is_fresh": 0, "author": ["Ken Hanke"]},
{"text": "One of the worst popular comedies of all time.", "is_fresh": 0, "author": ["Bob Grimm"]},
{"text": "", "is_fresh": 0, "author": ["Emanuel Levy"]},
{"text": "", "is_fresh": 1, "author": ["KJB"]},
{"text": "", "is_fresh": 1, "author": ["Christopher Smith"]},
{"text": "", "is_fresh": 1, "author": ["Scott Weinberg"]},
{"text": "", "is_fresh": 0, "author": ["Rob Vaux"]},
{"text": "", "is_fresh": 1, "author": ["Wesley Lovell"]}
]