[
{"reviews_count": "75", "title": "Raiders Of The Lost Ark", "avg_audience_rating": "4.1", "rotten_count": "4", "tomatometer": "95", "audience_score": "96", "avg_critic_rating": "9.2", "fresh_count": "71", "user_ratings_count": "825,344"},
{"text": "Entertainment that propels the audience inexorably from one excitement to the next.", "is_fresh": 1, "author": ["Bob Thomas"]},
{"text": "If you've only seen the more recent films and find them somewhat wanting, you owe it to yourself to check out the original to see how fresh and original these blockbuster films once felt. ", "is_fresh": 1, "author": ["Sarah Boslaugh"]},
{"text": "It's all done with such a great spirit of high adventure and good humor that you don't even begin to count the corpses... The finale suggests that Ford's Indiana Jones character will soon be back with further adventures, and I'm all in favor of it.", "is_fresh": 1, "author": ["Arthur Knight"]},
{"text": "Raiders is an assured, relaxed, impressive work. It's almost impossible to resist. It's no more substantial than cotton candy -- but it's easily the best piece of entertainment Hollywood has produced in 1981.", "is_fresh": 1, "author": ["Bruce McCabe"]},
{"text": "This bullwhip-cracking action-adventure launched the series starring Harrison Ford.", "is_fresh": 1, "author": ["Kate Muir"]},
{"text": "The script Lawrence Kasdan constructed from Lucas and Philip Kaufman's original treatment built a real structure for those breathless set pieces, and populated it with characters that moved far beyond the cardboard cutouts of the originals.", "is_fresh": 1, "author": ["Jason Bailey"]},
{"text": "Raiders of the Lost Ark could be a silent film at times, because Spielberg favors actions over words, telling his story with great camerawork. [Full review in Spanish]", "is_fresh": 1, "author": ["Sebastian Zavala Kahn"]},
{"text": "Raiders of the Lost Ark has more size than substance but nevertheless it's a delightful special big surprise package of a movie that should turn Indiana Jones into a national figure.", "is_fresh": 1, "author": ["Ernest Leogrande"]},
{"text": "It is intensely watchable, with the relentless accumulation of effects used here for the purposes of eliciting suspense rather than provoking comedy.", "is_fresh": 1, "author": ["Peter Ackroyd"]},
{"text": "Raiders of the Lost Ark is my favorite movie. I don't have to tell you why it's great. You know why it's great. Instead, what follows is a list of very personal moments.", "is_fresh": 1, "author": ["Alexander Huls"]},
{"text": "There is a charm and vitality to Raiders of the Ark, which Spielberg later admitted was \"the first movie where I actually shot the movie without thinking\".", "is_fresh": 1, "author": ["Martin Chilton"]},
{"text": "Harrison Ford embodies the persona of Indiana Jones with perfection and paves him as an iconic hero.", "is_fresh": 1, "author": ["Felix Vasquez Jr."]},
{"text": "This film is a volcano of creative ideas in full eruption -- the modern high action adventure against which all others must now be measured.", "is_fresh": 1, "author": ["Ralph Novak"]},
{"text": "Hold on tight, because it starts at full throttle and never lets up.", "is_fresh": 1, "author": ["Alan Jones"]},
{"text": "Yes, it's as entertaining as you have heard. Maybe more so. Raiders of the Lost Ark is, in fact, about as entertaining as a commercial movie can be.", "is_fresh": 1, "author": ["Gene Siskel"]},
{"text": "impossibly good", "is_fresh": 1, "author": ["Walter Chaw"]},
{"text": "As action adventure goes, it's about the best there is.", "is_fresh": 1, "author": ["Derek Malcolm"]},
{"text": "Steven Spielberg's rollicking adventure yarn still looks buoyant and dashing after 30 years.", "is_fresh": 1, "author": ["Peter Bradshaw"]},
{"text": "The first and finest Indiana Jones adventure.", "is_fresh": 1, "author": ["Robbie Collin"]},
{"text": "The boulder has never looked bigger, the guns have never sounded louder and Indy's whip has never cracked sharper than they do here.", "is_fresh": 1, "author": ["Neil Smith"]},
{"text": "If Lucas is Raiders' guts and Kasdan its head, then Spielberg is its beating heart. Little wonder Part IV is still on the cards.", "is_fresh": 1, "author": ["Mark Dinning"]},
{"text": "Raiders is a classic and repeated viewings, especially when presented properly on the big screen, only reinforce this further.", "is_fresh": 1, "author": ["Thomas Caldwell"]},
{"text": "Breathtakingly efficient, immaculately constructed... This is the ne plus ultra of blockbuster filmmaking.", "is_fresh": 1, "author": ["Tim Brayton"]},
{"text": "Raiders of the Lost Ark has it all -- or, anyway, more than enough to transport moviegoers back to the dazzling, thrill-sated matinee idyls of old.", "is_fresh": 1, "author": ["Richard Schickel"]},
{"text": "It is the classic film [by] Lucas, Spielberg...back before they were replaced by automatons put here by aliens.", "is_fresh": 1, "author": ["Widgett Walls"]},
{"text": "Indy's first adventure is a rip-roaring action masterpiece.", "is_fresh": 1, "author": ["Randy White"]},
{"text": "The thrills are fully consumed while you're seeing this movie, and it's totally over when it's over. It's a workout. You feel as if you'd been to the desert digs: at the end your mind is blank, yet you're parched, you're puffing hard -- you want relief.", "is_fresh": 0, "author": ["Pauline Kael"]},
{"text": "Justifiably one of the most indelible adventure films in cinematic history...", "is_fresh": 1, "author": ["David Nusair"]},
{"text": "It's the perfect vacation-time movie: not a serious moment in its whole two hours but so crammed with laughter, thrills and cinematic sleight of hand that audiences will be sorry when it's over.", "is_fresh": 1, "author": ["Robert W. Butler"]},
{"text": "Lost Ark holds up for many reasons, not least of which is because of Spielberg's consummate skill as a visual storyteller and his ability to draw charged performances from his actors.", "is_fresh": 1, "author": ["Jeremiah Kipp"]},
{"text": "The postmodern heir to North By Northwest...Like any deathless classic, Raiders is a perfect marriage of star and material.", "is_fresh": 1, "author": ["Peter Canavese"]},
{"text": "...despite the fast pace, the movie is never frenetic or tiring, just pure, unadulterated fun throughout. (Blu-ray edition)", "is_fresh": 1, "author": ["John J. Puccio"]},
{"text": "The most purely fun movie ever made.", "is_fresh": 1, "author": ["Rob Gonsalves"]},
{"text": "...lets us indulge in childish thrills without feeling silly about it.", "is_fresh": 1, "author": ["Josh Larsen"]},
{"text": "Vastly entertaining, Spielberg's adventure herladed a new breed of Hollywood blockbuster (and event film), a tale that combines classic Hollywood story-telling, playful postmodern sensibility and spectacular stunts presented in rapid-fire pacing.", "is_fresh": 1, "author": ["Emanuel Levy"]},
{"text": "Unrivalled entertainment.", "is_fresh": 1, "author": []},
{"text": "perhaps the greatest adventure movie of all time", "is_fresh": 1, "author": ["Stefan Birgir Stefansson"]},
{"text": "With an unforgettable opening sequence in which our hero flees through a trap-filled tunnel from a great ball of rock, Raiders Of The Lost Ark is a film which wastes no time and never lets go of our attention.", "is_fresh": 1, "author": ["Jennie Kermode"]},
{"text": "...a crackerjack fantasy-adventure that shapes its pulp sensibilities and cliff-hanging serial origins into an exhilarating escapist entertainment that will have broad-cased summer audiences in the palm of its hand.", "is_fresh": 1, "author": ["Stephen Klain"]},
{"text": "One would think that a collaboration between Steven Spielberg and George Lucas would produce something better than this giggly pastiche of a Republic serial...", "is_fresh": 0, "author": ["Dave Kehr"]},
{"text": "What follows is one breathtaking action sequence after another, each one surpassing the next in thrills.", "is_fresh": 1, "author": ["Andy Kurtz"]},
{"text": "The picture is offering you a pact: you agree to be a kid again, in return for which Raiders will give you old-time movie thrills expressed in slick modern cinematic terms. No, thanks.", "is_fresh": 0, "author": ["Stanley Kauffmann"]},
{"text": "New Hollywood moguls Spielberg and Lucas teamed up to create the first -- and best -- of their extremely popular plunderings of old adventure serials ... In retrospect, it also appears as a precise pop-culture inauguration of Reagan-era retro Americanism.", "is_fresh": 1, "author": ["Thomas Delapa"]},
{"text": "Whether you swallow it or not, see it for a handful of totally unexpected visual jokes, worth the price of admission alone.", "is_fresh": 1, "author": ["Rod McShane"]},
{"text": "Classic action set pieces, Harrison Ford at his swashbuckling best, Old Testament spirituality, and a satiric jab at Nazi anti-Semitism.", "is_fresh": 1, "author": ["Steven D. Greydanus"]},
{"text": "This is the kind of movie that, even today, audiences immediately fall in love with. It has all the right ingredients: a smart script, a likable hero, a dash of romance, more than a touch of comedy, and a lot of fast-paced action.", "is_fresh": 1, "author": ["James Berardinelli"]},
{"text": "Throughout the film, Spielberg evokes the kind of armchair-clutching action sequences that remind us why they're called motion pictures.", "is_fresh": 1, "author": ["James Kendrick"]},
{"text": "You'd have to be a heathen to argue with the fact that Raiders of the Lost Ark stands as the best action-adventure movie ever made.", "is_fresh": 1, "author": ["Christopher Null"]},
{"text": "Most viewers are powerless to resist the kinetic pleasures of this endlessly inventive action adventure.", "is_fresh": 1, "author": []},
{"text": "Imaginitive set pieces and a quick pace make this a wonderful debut for the series.", "is_fresh": 1, "author": ["Dan Lybarger"]},
{"text": "To get to the point immediately, Raiders of the Lost Ark is one of the most deliriously funny, ingenious and stylish American adventure movies ever made.", "is_fresh": 1, "author": ["Vincent Canby"]},
{"text": "I have nothing against the film for what it is. I'm just not wild about what it is.", "is_fresh": 1, "author": ["Ken Hanke"]},
{"text": "One of the best films -- if not THEE best film -- ever made!", "is_fresh": 1, "author": ["Alex Sandell"]},
{"text": "My big complaint: Take Indiana Jones out of the story, and nothing changes. The Nazis still find the Ark, still open it, still die.", "is_fresh": 0, "author": ["Jeffrey Westhoff"]},
{"text": "Allows for a certain worldliness, cautiousness, and darkness in Indy's character. He's far from reckless or noble.", "is_fresh": 1, "author": ["Jeffrey M. Anderson"]},
{"text": "The film that enchanted a generation and made Ford an action hero.", "is_fresh": 1, "author": ["Brian Mckay"]},
{"text": "The purpose of the exercise. If you can't love this film, you have no business loving movies at all.", "is_fresh": 1, "author": ["Rob Vaux"]},
{"text": "Spielberg can never top this. Period.", "is_fresh": 1, "author": ["Luke Y. Thompson"]},
{"text": "One of the all-time great films.", "is_fresh": 1, "author": ["Mike McGranaghan"]},
{"text": "George Lucas and Steven Spielberg's classic movie did not invent adventure, as it was largely inspired by old serials, pulp magazines and B-movies, but it certainly revamped our conception of big screen adventure.", "is_fresh": 1, "author": ["Kevin N. Laforest"]},
{"text": "Raiders of the Lost Ark is a wonderful movie. The good news for exhibitors is that it's also one of those rollercoaster-like movies that people will be lining up for again and again.", "is_fresh": 1, "author": ["Jimmy Summers"]},
{"text": "Spielberg's and Lucas's collaborative rip-roaring adventure story with a hero of epic proportions makes this film one of the best screen entertainments of 1981.", "is_fresh": 1, "author": ["Frederic and Mary Ann Brussat"]},
{"text": "Watching Raiders of the Lost Ark again on the big screen I was again reminded how summer films were once thoroughly entertaining and fulfilling.", "is_fresh": 1, "author": ["John A. Nesbit"]},
{"text": "The movie is just plain fun.", "is_fresh": 1, "author": ["Roger Ebert"]},
{"text": "Ford, in a career-minting performance, plays what would've been a cardboard cut-out in the 1930s as grubby, coy, impertinent, imperfect, phobic of snakes and agnostic (describing the Ark's magic as \"the power of God or something\").", "is_fresh": 1, "author": ["Andrew Collins"]},
{"text": "Raiders of the Lost Ark (1981) is the spectacular, cliff-hanger, breathlessly-paced, non-stop action/adventure film of the early 1980s -", "is_fresh": 1, "author": ["Tim Dirks"]},
{"text": "Think of it as a high quality version of one of the old movie serials that kids used to get every Saturday at the theater before the double feature.", "is_fresh": 1, "author": ["Steve Rhodes"]},
{"text": "Spielberg brings his signature blend of action/adventure and humor to the film, celebrating its 19th anniversary with this re-release.", "is_fresh": 1, "author": ["Marjorie Baumgarten"]},
{"text": "Raiders Of The Lost Ark was the first in the Indiana Jones trilogy, and it can be argued that it changed the course of filmmaking for the better part of a decade.", "is_fresh": 1, "author": ["Matt Easterbrook"]},
{"text": "Astounding movie packed with non-stop action, stunts galore, an interesting story line, great one-liners, a solid cast, a catchy musical score, and all the fun and adventure that you could squeeze into a two-hour thrill ride.", "is_fresh": 1, "author": ["JoBlo"]},
{"text": "This film was also not only the subject of my very first movie review, but also the reason why I started reading movie reviews in newspapers and paying attention what the critics actually think about movies.", "is_fresh": 1, "author": ["Dragan Antulov"]},
{"text": "It has the perfect blend of action, humor, and suspense. And Harrison Ford defined the action hero for the new decade.", "is_fresh": 1, "author": ["Scott Nash"]},
{"text": "", "is_fresh": 1, "author": ["Ryan Cracknell"]},
{"text": "", "is_fresh": 1, "author": ["Matt Bailey"]},
{"text": "", "is_fresh": 1, "author": ["Nell Minow"]}
]