[
{"reviews_count": "217", "title": "Rango", "avg_audience_rating": "3.6", "rotten_count": "27", "tomatometer": "88", "audience_score": "69", "avg_critic_rating": "7.6", "fresh_count": "190", "user_ratings_count": "119,825"},
{"text": "The level of detail is awe-inspiring, and originality and charm oozes from every pixel.", "is_fresh": 1, "author": ["Matt Knowler"]},
{"text": "Rango is quite beautiful in its harsh, perverse way.", "is_fresh": 1, "author": ["Eileen Jones"]},
{"text": "Rango is a new stoner cult classic in the making.", "is_fresh": 1, "author": ["Charlie Jane Anders"]},
{"text": "The weirdness of the film is fascinating, but there's just so damn much of it.", "is_fresh": 0, "author": ["Sean Burns"]},
{"text": "Delivers the western genre goods along with generous laughs and some impressive animation--and some brazenly warped sensibilities.", "is_fresh": 1, "author": ["Michael Dequina"]},
{"text": "Amusing in small doses, marketed to kids and not really FOR kids. An undeserving Oscar winner.", "is_fresh": 0, "author": ["Roger Moore"]},
{"text": "Meditations on identity make Rango unique, and somewhat special, in the current animated film landscape.", "is_fresh": 1, "author": ["Ben Kendrick"]},
{"text": "If the writers had dared to step a little outside the borders of the western formula or if they'd even just shaken up the old formula a bit, this really could have been something special, but sadly, it just ends up being pretty standard.", "is_fresh": 0, "author": ["Jeff Beck"]},
{"text": "Depp isn't as annoying in this as he has been elsewhere.", "is_fresh": 1, "author": ["Wesley Lovell"]},
{"text": "Packed with in-jokes, great characters and an offbeat anti-hero, Rango is the perfect shake-up the animated genre needed.", "is_fresh": 1, "author": ["R.L. Shaffer"]},
{"text": "At long last, a spaghetti Western for the kiddie set -- and one that doesn't sell older viewers short.", "is_fresh": 1, "author": ["Jason Buchanan"]},
{"text": "Oddball existential western animation.", "is_fresh": 1, "author": ["Dennis Schwartz"]},
{"text": "An animated walk on the dry side", "is_fresh": 1, "author": ["S. James Wegg"]},
{"text": "Unfocused and absolutely scattered...", "is_fresh": 0, "author": ["Felix Vasquez Jr."]},
{"text": "... The best non-Pixar animated movie in recent memory ...", "is_fresh": 1, "author": ["Greg Maki"]},
{"text": "Set in a surreally off-kilter version of the Wild West populated entirely by animals, computer-animated Western Rango is both a witty spoof and loving homage to the genre.", "is_fresh": 1, "author": ["Jason Best"]},
{"text": "Kudos to the director for making it as oddball as it could get away with.", "is_fresh": 1, "author": ["Jeffrey Chen"]},
{"text": "Fans of Johnny Depp will enjoy his voice work as the nutty Rango; he is obviously having a good time. Ned Beatty's voice is easily recognizable as the main villain, giving him a one-two punch after working as the nasty Lotso in Toy Story 3...", "is_fresh": 0, "author": ["Leonard Maltin"]},
{"text": "... this southwestern goof is really for really big kids with a love of movies, a sense of whimsy and a soft spot for the hideously gorgeous creatures of the desert. ", "is_fresh": 1, "author": ["Sean Axmaker"]},
{"text": "It's one of those movies that will reveal more and more to youngsters as they rewatch it in years to come... and that's the best kind of film.", "is_fresh": 1, "author": ["Matt Neal"]},
{"text": "For good or for bad, this is not your run-of-the-mill animated feature.", "is_fresh": 0, "author": ["John J. Puccio"]},
{"text": "Rango is Disney by way of Hunter S. Thompson, Chinatown recast with a lizard, Blazing Saddles with existential angst, Sergio Leone's spaghetti westerns romanticallyspoofed. Rango is both weird and wonderful.", "is_fresh": 1, "author": ["Brandon Fibbs"]},
{"text": "Inevitably, as seems to be the law with any modern animation, there's an intertextual dimension to the proceedings.", "is_fresh": 1, "author": ["Ed Whitfield"]},
{"text": "This chameleon stands out.", "is_fresh": 1, "author": ["Grae Drake"]},
{"text": "Part celebration of the spaghetti western with a stunning resolutely 2:D visual style, is geared primarily for adults and is quirky in all the right ways.", "is_fresh": 1, "author": ["Bruce Bennett"]},
{"text": "Rango is as gloriously cinematic as it is witty and ironic.", "is_fresh": 1, "author": ["Dan Gear"]},
{"text": "OK, kids, who's ready for an animated version of \"Fear and Loathing in Las Vegas\"?", "is_fresh": 1, "author": ["Glenn Lovell"]},
{"text": "Sergio Leone meets Chuck Jones", "is_fresh": 1, "author": ["Robert Denerstein"]},
{"text": "A third act cameo sets a high water mark of awesome, especially for fans of Deadwood.", "is_fresh": 1, "author": ["Rob Humanick"]},
{"text": "If ever there was an animated film made for film critics, Rango is it.", "is_fresh": 0, "author": ["Jonathan W. Hickman"]},
{"text": "The kind of computer animation that lingers so exquisitely on the little things. The romance is sweetly underplayed and Coen-like moments of hyper-erudition and eccentric, grizzled characters make for a rollicking escapade.", "is_fresh": 1, "author": ["Brian Gibson"]},
{"text": "A smart, satirical, and expertly animated adventure aimed at adults and children alike.", "is_fresh": 1, "author": ["Mark Sells"]},
{"text": "...reminds one of how special animation can be.", "is_fresh": 1, "author": ["Bill Gibron"]},
{"text": "Brilliantly bonkers, this animated Western weirdo should scare little kids while dazzling adults with its inspired approach to demented homage.", "is_fresh": 1, "author": ["Zach Gibson"]},
{"text": "Inventive visuals and lively voice cast lift this finely animated film above the fray. So it's a shame that the story feels both random and predictable.", "is_fresh": 1, "author": ["Rich Cline"]},
{"text": "Any serious, dark-minded child who's up on High Noon, The Good, the Bad and the Ugly, Chinatown, Fear and Loathing in Las Vegas and the writings of Carlos Castaneda will really find their precociousness rewarded.", "is_fresh": 1, "author": ["Dave White"]},
{"text": "'Rango' is one of the best works of literature I've enjoyed for many years. 'Rango' is one of the best family films I've seen in years. 'Rango' is one of the best Westerns I've ever seen.", "is_fresh": 1, "author": ["Linda Cook"]},
{"text": "Going in, I was expecting much more standard children's fare, not an existential undertaking with shout-outs to everything from Chinatown to Don Quixote. ", "is_fresh": 1, "author": ["Pete Vonder Haar"]},
{"text": "Just when you thought you'd seen everything, here comes Chinatown, the animated version.", "is_fresh": 0, "author": ["Rafer Guzman"]},
{"text": "Una pel\u00edcula sumamente entretenida, y especialmente disfrutable por un p\u00fablico adulto y cin\u00e9filo, que es todo un homenaje al universo del spaghetti western que inmortalizaran Sergio Leone (director), Clint Eastwood (actor) y Ennio Morricone (compositor).", "is_fresh": 1, "author": ["Enrique Buchichio"]},
{"text": "It would be unfair, and inaccurate, to call Rango a one-joke movie. There may be two or three; I didn't count. The first laugh comes with the appearance of a... ", "is_fresh": 0, "author": ["Leonard Maltin"]},
{"text": "Rango is a precision-built, artistically rich and intelligently entertaining movie that deserves to become a hit and a classic.", "is_fresh": 1, "author": ["Tim Martain"]},
{"text": "\"Rango\" has everything going for it -- strong characters, complex plotting, and a knowledge of the genre it parodies without excluding newcomers to it. It's smart without being alienating and exciting without being mindless. ", "is_fresh": 1, "author": ["Christopher Smith"]},
{"text": "Channeling spaghetti westerns, Cervantes, Castaneda, and a dash of CHINATOWN as refracted through the visual sensibilities of Dali, it is a fiendishly clever concretion of high- and low-brow in a story that is both vision quest and farce", "is_fresh": 1, "author": ["Andrea Chase"]},
{"text": "Quick-witted animated Western spoof gets plenty mileage out of good writing, a grand sense of fun, and the voice of Johnny Depp.", "is_fresh": 1, "author": ["Kelly Vance"]},
{"text": "Rango a dynamic tribute to a lost genre.", "is_fresh": 1, "author": ["Charles Koplinski"]},
{"text": "Sergio Leone meets 'The Shakiest Gun in the West' in this odd movie about a chameleon who -- credit the filmmakers for their cleverness -- doesn't blend in.", "is_fresh": 1, "author": ["John Beifuss"]},
{"text": "A welcome change from formula as it travels on tangents that vary from the crazed to the surreal", "is_fresh": 1, "author": ["Garth Franklin"]},
{"text": "There is never a doubt Rango will succeed by film's end, but the movie does have its charms. ", "is_fresh": 1, "author": ["John Esther"]},
{"text": "Boasts a richer, stranger cinematic flavor than anything in Verbinski's Pirates of the Caribbean movies", "is_fresh": 1, "author": ["Fernando F. Croce"]},
{"text": "Already the best animated movie of 2011, Rango is a must-watch for anybody with a brain, a heart or a functioning pair of eyes.", "is_fresh": 1, "author": ["Charlie Lyne"]},
{"text": "Though young children may enjoy it, the film is built for viewers of any age with a taste for joyful anarchy.", "is_fresh": 1, "author": ["Bruce Diones"]},
{"text": "It is not a coincidence that the mayor (Ned Beatty) sounds like the evil John Huston character from Chinatown as the film makes an obvious nod toward that film classic. ", "is_fresh": 1, "author": ["Lori Hoffman"]},
{"text": "what it loses in coherence and dexterity it gains in pure sensationalism, whether it be visual, verbal, or narrative", "is_fresh": 1, "author": ["James Kendrick"]},
{"text": "Roger Deakins (True Grit) may have just lost the Academy Award for a criminal ninth time, but his talent as a cinematographer is one of the secret weapons in the first CG movie from live-action director Gore Verbinski.", "is_fresh": 1, "author": ["Brett Michel"]},
{"text": "What a joy to see an original vision constructed with so much passion and smarts.", "is_fresh": 1, "author": ["Eugene Novikov"]},
{"text": "If the art of the mashup is what passes for originality these days, then Rango is a creative tour de force. ", "is_fresh": 1, "author": ["Cindy White"]},
{"text": "The first film of 2011 that I can recommend without reservations.", "is_fresh": 1, "author": ["Ken Hanke"]},
{"text": "Existential, inventive and irreverent", "is_fresh": 1, "author": ["Susan Granger"]},
{"text": "full review at Movies for the Masses", "is_fresh": 1, "author": ["Joseph Proimakis"]},
{"text": "\"Rango\" is proof that not all new animated films need to go the gimmicky way of 3-D.", "is_fresh": 1, "author": ["Michael A. Smith"]},
{"text": "The stunning overall look -- which tips its ten-gallon hat at western classicists like John Ford and Sergio Leone while winking slyly at Salvador Dali -- qualifies as a work of art in its own right.", "is_fresh": 1, "author": ["Leigh Paatsch"]},
{"text": "The film unspools as an admittedly bizarre blending of an animated adventure film for kids and a meta-comedy about a character who must morph from being a fictitious hero to being a real one.", "is_fresh": 1, "author": ["Jim Schembri"]},
{"text": "Not often does one see an animated family film where someone talks about experiencing a \"paradigm shift\" or says, \"I think your metaphor broke my spleen.\" ", "is_fresh": 1, "author": ["Margot Harrison"]},
{"text": "Very funny, packed with solid action, animated with a remarkable degree of care and creativity, and delivered with a breathless sense of energy.", "is_fresh": 1, "author": ["Scott Weinberg"]},
{"text": "There's absolutely no arguing that it comes from the same mentality of test-marketing and formula and commercial calculation as most American animation does right now.", "is_fresh": 1, "author": ["Tim Brayton"]},
{"text": "Even if the story about a dust bowl town's diminished water supply isn't quite thrilling enough, the film makes up for it with wacked-out dream sequences and a general oddball tone", "is_fresh": 1, "author": ["Andrew Hedley"]},
{"text": "In the end, Rango, despite its many pleasures, is a bit too smart for its own good.", "is_fresh": 1, "author": ["David Stratton"]},
{"text": "It's very, very interesting but it's sort of like you've got to have that magic combination: you've got to have looks and heart.", "is_fresh": 1, "author": ["Margaret Pomeranz"]},
{"text": "With its many allusions to other films like Chinatown, The Three Amigos and any number of spaghetti Westerns, Rango seems to have pulled off the Pixar trick of entertaining both young and old.", "is_fresh": 1, "author": ["Beth Wilson"]},
{"text": "Rango is an impressive and wonderfully strange film.", "is_fresh": 1, "author": ["Thomas Caldwell"]},
{"text": "There are some great sight gags and the script has some good lines, but there aren't enough of them - and the plot is rather slight and predictable.", "is_fresh": 1, "author": ["Roz Laws"]},
{"text": "The Western isn't dead. It's just become more animated... literally.", "is_fresh": 1, "author": ["Kevin A. Ranson"]},
{"text": "Fantastical tale of the reptile that conquered the Wild West.", "is_fresh": 1, "author": ["Don Groves"]},
{"text": "Rango is like Chinatown meets A Fistful of Dollars meets a Geico commercial. And it's totally awesome.", "is_fresh": 1, "author": ["Mike McGranaghan"]},
{"text": "This one is for Johnny Depp devotees only. The animation is good but the overall effect of the movie is dull.", "is_fresh": 0, "author": ["Jackie K. Cooper"]},
{"text": "It doesn't know what kind of a film it is.", "is_fresh": 0, "author": ["Paul Verhoeven"]},
{"text": "Closer to a comedy for adults than a kids' flick, this ground-breaking and simply unmissable animation bursts with creativity, humour and clever references.", "is_fresh": 1, "author": ["Annette Basile"]},
{"text": "Minutes into the audaciously animated Rango, I wondered whether someone had slipped peyote into my soft drink... This movie is obviously not right in the head, and I love it.", "is_fresh": 1, "author": ["Steve Persall"]},
{"text": "I just don't know if we'll see a film as smart or fun or overwhelmingly rich as Rango for the rest of the year. ", "is_fresh": 1, "author": ["Simon Miraudo"]},
{"text": "A film so committed (and respectful) to the western flubs by basing itself on another style.", "is_fresh": 1, "author": ["Matthew Sorrento"]},
{"text": "While the pace of the film is slow, the colorful characters, witty dialog, movie references and beautiful artwork make this a pony ride worth taking.", "is_fresh": 1, "author": ["Robert Roten"]},
{"text": "The movie basically adheres to the conventions of the genre as well as the Western spoofs made popular by comedians such as Bob Hope, Abbott and Costello, and Mel Brooks in \"Blazing Saddles.\"", "is_fresh": 1, "author": ["Bob Bloom"]},
{"text": "Presented in glorious bug-eyed 2-D, Paramount's animated western fantasia \"Rango\" arrives, and the Old West gets \"Pirates of the Caribbean''-ized.", "is_fresh": 1, "author": ["James Verniere"]},
{"text": "See Gnomeo & Juliet instead.", "is_fresh": 0, "author": []},
{"text": "Gore Verbinski's sophisticated, extremely amusing CGI animated movie, a cartoon for adults as opposed to an adult cartoon...", "is_fresh": 1, "author": ["Philip French"]},
{"text": "Visualmente espetacular (...), \u00e9 repleto de momentos que surgem po\u00e9ticos de t\u00e3o evocativos.", "is_fresh": 1, "author": ["Pablo Villa\u00e7a"]},
{"text": "Who else but Johnny Depp would Gore Verbinski want to voice the character of Rango, given how they worked together to create Jack Sparrow, a Pirate in the Caribbean ... Rango, let's face it, is another colourful character. ", "is_fresh": 1, "author": ["Andrew L. Urban"]},
{"text": "There's a lot to like about Rango, the colourful, kooky chameleon looking for enlightenment in this unique and imaginative animation that takes the form of a Western, and embraces a zoo of weird and wonderful characters", "is_fresh": 1, "author": ["Louise Keller"]},
{"text": "Hypnotic. I'd be shocked if there is a better animated film in 2011. ", "is_fresh": 1, "author": ["Jeff Bayer"]},
{"text": "This is a smart, hip comedy that works for adults and youngsters alike.", "is_fresh": 1, "author": ["Mark R. Leeper"]},
{"text": "The first animated film from ILM is also the first memorable motion picture of 2011.", "is_fresh": 1, "author": ["James Berardinelli"]},
{"text": "These strange looking characters are hard to love. They didn't generate the excitement and enthusiasm that I was hoping for.", "is_fresh": 0, "author": ["Matthew Toomey"]},
{"text": "The film reunites director Gore Verbinski with star Johnny Depp, and just as with their Pirates of the Caribbean collaboration it begins very promisingly before descending into a chaotic mess.", "is_fresh": 1, "author": ["Beth Accomando"]},
{"text": "There's more visual wit in Gore Verbinski's Rango than the last two Pixar films combined.", "is_fresh": 1, "author": ["Adam Nayman"]},
{"text": "There are a couple of frightening sequences with a rattlesnake and a hawk that may scare small children, but all ends well. Rango will rope you in.", "is_fresh": 1, "author": ["Roger Tennis"]},
{"text": "Kids don't always need primary colors and fluffy bunnies and 3-D effects. Sometimes a scrawny, ugly chameleon in the dirty Old West will do.", "is_fresh": 1, "author": ["Josh Jackson"]},
{"text": "A work that in its finest moments comes across as a Coen Brothers film with anthropomorphic animals instead of flesh-and-blood humans.", "is_fresh": 1, "author": ["Matt Brunson"]},
{"text": "Anytime you have a rattlesnake attached to a machine gun and voiced by Bill Nighy, you can sign me up. Cleverly written, not for kids and not in 3D. Go see it. Now.", "is_fresh": 1, "author": ["Kevin McCarthy"]},
{"text": "Admirably ambitious animated ode to Spaghetti Westerns featuring a Johnny Depp-voiced lizard as the unlikely hero.", "is_fresh": 1, "author": ["Joe Lozito"]},
{"text": "...whole-heartedly casts its lot with the grown-ups in the audience, paying homage to Sergio Leone, Carlos Castaneda, Hunter S. Thompson, and Roman Polanski's Chinatown. ...So, let's dispel the illusion that this movie is for kids.", "is_fresh": 1, "author": ["Jeff Meyers"]},
{"text": "It's almost like Sergio Leone was adapting a Kenneth Grahame story.", "is_fresh": 1, "author": ["Widgett Walls"]},
{"text": "With all of these crazy characters running around and Hans Zimmer's perfect Spaghetti Western score, \"Rango\" is a treat for everyone who enjoys animation. ", "is_fresh": 1, "author": ["Jeanne Kaplan"]},
{"text": "\"Rango\" is a delight from start to finish, both visually and in its creative writing.", "is_fresh": 1, "author": ["David Kaplan"]},
{"text": "Adults and slightly older children should have a great time.", "is_fresh": 1, "author": ["Stephen Whitty"]},
{"text": "The funny and powerfully weird Rango is probably the closest I've seen a big-budget, computer-animated feature get to the comic vibe of my favorite Chuck Jones cartoons.", "is_fresh": 1, "author": ["M.E. Russell"]},
{"text": "A CGI western comedy populated by desert critters, Rango gives the film year a belated jump start with a passel of movie-wise fun and a knockout animation style.", "is_fresh": 1, "author": ["Richard Corliss"]},
{"text": "All in all, Rango is a freaky and fun ride, with some tasty philosophical asides and references for the grownups to chew on. ", "is_fresh": 1, "author": ["Jim Slotek"]},
{"text": "With his first animated feature, Pirates of the Caribbean director Gore Verbinski shows ambitions considerably beyond producing the usual standard of most children's fare. To put it plainly, Rango is one weird movie.", "is_fresh": 1, "author": ["Liam Lacey"]},
{"text": "Yes, [there are] enough nods to other sources to make Rango a bobblehead. But the movie, and much of John Logan's writing, is still pretty durn clever.", "is_fresh": 1, "author": ["Lisa Kennedy"]},
{"text": "The best of Rango is a lot like the best of the first Pirates movie -- crazily funny and rambunctious.", "is_fresh": 1, "author": ["Peter Rainer"]},
{"text": "What elevates it above a cheeky romp is the skilled CGI work, not only the wealth of tactile detail lavished on the parched townsfolk but also the painterly, sand-swept vistas they call home.", "is_fresh": 1, "author": ["Andrea Gronvall"]},
{"text": "Rango might be the first animated feature film from Industrial Light & Magic, but in many ways it's easy to forget you are watching an actual cartoon.", "is_fresh": 1, "author": ["Adam Tobias"]},
{"text": "Amusing and thrilling albeit slightly overlong with dazzling visuals and clever nods to classic Westerns. ", "is_fresh": 1, "author": ["Avi Offer"]},
{"text": "He is \"sinking deeper into the guacamole of his own deception,\" says the owl who leads a Mexican mariachi band that serves as the story's Greek chorus - a description that shows you just how willfully weird are the goings-on. ", "is_fresh": 1, "author": ["Matt Soergel"]},
{"text": "The humor is dry, dusty and packed with animated caricatures of legendary movie characters. ", "is_fresh": 1, "author": ["Gary Wolcott"]},
{"text": "The best animated film I've seen since Coraline (and yes, that includes the Pixar films). ", "is_fresh": 1, "author": ["Jeffrey M. Anderson"]},
{"text": "Guns and deep thoughts make this best for older kids.", "is_fresh": 1, "author": ["Sandie Angulo Chen"]},
{"text": "beautiful yet hollow, the first real missed opportunity of 2011.", "is_fresh": 1, "author": ["Walter Chaw"]},
{"text": "Some good bits about the nature of heroism, but not enough to elevate Rango to the ranks of Pixar. Still, when viewed as a silly comedy-adventure, it's enjoyable.", "is_fresh": 1, "author": ["Russ Breimeier"]},
{"text": "A defiantly weird and unexpectedly charming effort that could easily feel at home at both matinees and on the midnight movie circuit.", "is_fresh": 1, "author": ["Peter Sobczynski"]},
{"text": "A delightfully strange, if somewhat inconsistent, animated western.", "is_fresh": 1, "author": ["Thomas Leupp"]},
{"text": "No tightly-plotted Pixar masterpiece, Rango is its own insane expression, a nervy bundle of outrageous daring, jangled and tangled to a free-wheeling fare-thee-well. Green hasn't been this much fun since early Shrek.", "is_fresh": 1, "author": ["Kimberly Gadette"]},
{"text": "Parents will be nudging aside their children to check out the thoroughly mature western known as Rango", "is_fresh": 1, "author": ["Christian Toto"]},
{"text": "I suspect the young'uns will...take a shine to the hero of Rango: a chameleon that's part Kermit the Frog, part street-corner kook (and all Johnny Depp, who supplies the often hilarious voice).", "is_fresh": 1, "author": ["Peter Canavese"]},
{"text": "Whether your a fan of film, a fan of animation or just a fan of having fun in the theater Rango is a delight across the board.", "is_fresh": 1, "author": ["Matthew Razak"]},
{"text": "A damn fine western, an entertaining throwback to classic B-pictures that pays clever tribute to its predecessors.", "is_fresh": 1, "author": ["Robert Levin"]},
{"text": "Rango's not just a kiddie-flick (though it has enough silly slapstick to qualify as a pretty good one). It's a real movie lover's movie, conceived as a Blazing Saddles-like comic commentary on genre that's as back-lot savvy as it is light in the saddle.", "is_fresh": 1, "author": ["Bob Mondello"]},
{"text": "Clear proof that a great director can work in any genre and medium and produce great results.", "is_fresh": 1, "author": ["Edward Douglas"]},
{"text": "The only thing more astonishing than its subversive sense of humor and general anarchy is the fact that a studio is putting it in wide release.", "is_fresh": 1, "author": ["Eric D. Snider"]},
{"text": "It is only the first week of March and we are still getting over last year's award season. But the race for 2011's Best Animated Feature may have just begun. And may have just ended.", "is_fresh": 1, "author": ["Erik Childress"]},
{"text": "This is one of those movies where the grandiose vision is there, but it never gels.", "is_fresh": 0, "author": ["Bill Clark"]},
{"text": "Rango is clever and entertaining. Not for the very young perhaps, but ideal for teens and adults.", "is_fresh": 1, "author": ["David Edwards"]},
{"text": "...viewers will eventually find themselves growing tired of the movie's meandering structure and unusually deliberate pace...", "is_fresh": 0, "author": ["David Nusair"]},
{"text": "As animation, this is top class, and a mile away from the orthodox. Some of the detail is terrific, and the screenplay is sharply intelligent.", "is_fresh": 1, "author": ["Derek Malcolm"]},
{"text": "The strangeness is off the scale in a kooky concoction that might have been hatched at the bottom of a bong. Then again, what do you expect with Johnny involved?", "is_fresh": 1, "author": ["Neil Smith"]},
{"text": "An ultra-quirky animated Western with a vocal tour de force by Johnny Depp that's quite unlike anything I've ever seen.", "is_fresh": 1, "author": ["Lou Lumenick"]},
{"text": "A sun-baked symphony of rust and dust, Rango has a spiky, unsentimental appeal, sending out slightly risque jokes to parents while staying safely out of the danger zone for kids.", "is_fresh": 1, "author": ["Ann Hornaday"]},
{"text": "The whole enterprise is redolent of past movies (and drug trips), yet it somehow whiffs fresh.", "is_fresh": 1, "author": ["Peter Howell"]},
{"text": "Nothing about this witty, inventive film obeys the rules.", "is_fresh": 1, "author": ["Chris Hewitt (St. Paul)"]},
{"text": "What it borrows and what it builds combine to feel original and strange.", "is_fresh": 1, "author": ["Gary Thompson"]},
{"text": "Without double-crossing the kiddie contingent, \"Rango\" is iconic like a spaghetti Western, smart like a '70s conspiracy thriller and lively like a Coen brothers comedy.", "is_fresh": 1, "author": ["Joe Williams"]},
{"text": "It's a one-of-a-kind film that could have faltered in numerous places and yet somehow hangs together and works. Best of all? It's not in 3D.", "is_fresh": 1, "author": ["Daniel M. Kimmel"]},
{"text": "Frantically and refreshingly fun.", "is_fresh": 1, "author": ["Mark Dujsik"]},
{"text": "One of my favorites of this young year and among the most unique features I've seen from an American animation house in recent memory.", "is_fresh": 1, "author": ["Ethan Alter"]},
{"text": "The movie is astonishing as a technical feat alone, proving you don't need 3-D to make CG pop.", "is_fresh": 1, "author": ["Luke Y. Thompson"]},
{"text": "Wry, genial, and not at all interested in jumping on the bandwagon of flash-in-the-pan pop-cultural hipness, \"Rango\" holds an eclectic eye for finding beauty in the unusual.", "is_fresh": 1, "author": ["Dustin Putman"]},
{"text": "From start to finish this is a wonderful and immensely creative animated film about a loser who arises to the challenges faced in a town without water. ", "is_fresh": 1, "author": ["Frederic and Mary Ann Brussat"]},
{"text": "There are hundreds of clever details and imaginative flourishes to make it worthy of being put into the same category as the films to which it so charmingly pays tribute. ", "is_fresh": 1, "author": ["Nell Minow"]},
{"text": "It is Depp, however, who really nails this thing by simply blending in with all the other voice talent and characters and not reverting to the oversized Captain Jack Sparrow swagger.", "is_fresh": 1, "author": ["Marjorie Baumgarten"]},
{"text": "Gore Verbinski has created a truly left field, oddball, hilarious film that again, like Toy Story 3, proves animation is today's most exciting cinema form.", "is_fresh": 1, "author": ["Alex Zane"]},
{"text": "A possible cult hit, it's too self-indulgent to find a mass audience.", "is_fresh": 0, "author": ["Christopher Tookey"]},
{"text": "Verbinski has made an animated feature unlike any other on the current mainstream landscape: For a big-budget animated picture, Rango sure is an odd little varmint.", "is_fresh": 1, "author": ["Stephanie Zacharek"]},
{"text": "For a movie about finding one's identity, Rango spends an awful lot of time searching for one of its own.", "is_fresh": 0, "author": ["David Medsker"]},
{"text": "The film itself is a magically strange hybrid, a spoofy computer-animated Western acted out by anthropomorphic desert creatures.", "is_fresh": 1, "author": ["Amy Biancolli"]},
{"text": "It is not self-conscious knowingness that drives Rango but rather a quirky and sincere enthusiasm for all the strange stuff that has piled up in the filmmakers' heads over the years.", "is_fresh": 1, "author": ["A.O. Scott"]},
{"text": "Every other week, it seems there is some new creation full of fantastically realized creatures engaging in eye-tricking action. The ironic effect of this... is a so-what-else-you-got state of jaded exhaustion. And then along comes Rango.", "is_fresh": 1, "author": ["Tom Maurstad"]},
{"text": "I've made a good case for seeing \"Rango,\" and why not; an eye feast is still a feast in this lean multiplex season.", "is_fresh": 1, "author": ["Joe Morgenstern"]},
{"text": "Its strong suit is visual panache. It's too bad that consistent comedy and emotional resonance get lost amid the dust and cacti.", "is_fresh": 0, "author": ["Claudia Puig"]},
{"text": "Say what you will about 'Rango,' the computer-animated Western riding hard on Johnny Depp doing the voice of a lizard - just don't call it business as usual. ", "is_fresh": 1, "author": ["Peter Travers"]},
{"text": "It's Verbinski's trust in the audience to get his jokes and pop-culture references that makes \"Rango\" such an engaging ride.", "is_fresh": 1, "author": ["Cathy Jakicic"]},
{"text": "The film features some of the most astounding computer animation ever, and, thanks to a slew of terrific voice actors who are obviously having a great time, the film is wildly, weirdly amusing.", "is_fresh": 1, "author": ["Robert W. Butler"]},
{"text": "Sharp-edged, surreal, and often astonishing in its giddy creativity.", "is_fresh": 1, "author": ["Elizabeth Weitzman"]},
{"text": "In a world choked with animated films -- the good, the bad and the ugly -- it's hard to be either original or great. Yet director Gore Verbinski has done both -- and without 3-D...", "is_fresh": 1, "author": ["Betsy Sharkey"]},
{"text": "It's an exuberant, audacious love letter to spaghetti westerns, masquerading as a kiddie cartoon. And it delivers deliciously on both levels.", "is_fresh": 1, "author": ["Colin Covert"]},
{"text": "What makes this unhinged, wildly self-conscious comedy-adventure more than a two-hour gimmick is an inspired vocal performance by Verbinski's \"Pirates of the Caribbean\" star, Johnny Depp.", "is_fresh": 1, "author": ["Tom Keogh"]},
{"text": "You know those animated films that have bits that the parents will enjoy? Rango is mostly those bits.", "is_fresh": 1, "author": ["Carrie Rickey"]},
{"text": "Verbinski's scored an offbeat oddity, a classic Western with surreal elements and references to films from \"Chinatown\" to \"Star Wars\"...If only he'd known when enough is enough...", "is_fresh": 1, "author": ["Laura Clifford"]},
{"text": "It doesn't always work, but it does set itself resolutely apart from the pack, and if you look closely, you can spot the occasional moment of genius.", "is_fresh": 1, "author": ["Rob Vaux"]},
{"text": "\"Rango'' is a highly watchable but somewhat frustrating mix of sloppy plotting, rascally attitude, and Big Action.", "is_fresh": 1, "author": ["Ty Burr"]},
{"text": "Ignoring the weak storyline entirely, Rango is a joyously weird experience, far more concerned with texture and flavor than with elaborate narrative.", "is_fresh": 1, "author": ["Tasha Robinson"]},
{"text": "Consistently plays like an adult movie in uncomfortably fitting family-friendly clothes.", "is_fresh": 0, "author": ["Geoff Berkshire"]},
{"text": "Rango is the revitalising injection of new blood that animated cinema didn't know it needed.", "is_fresh": 1, "author": ["Adam Woodward"]},
{"text": "absolutely wonderful", "is_fresh": 1, "author": ["Jason McKiernan"]},
{"text": "It loosens the shackles of a post-Pixar/post-Blue Sky animation landscape, where family entertainment must either be an emotional roller coaster or mindless slapstick.", "is_fresh": 1, "author": ["Jordan Hoffman"]},
{"text": "An animated picture that can bear comparison to Pixar's best...In attitude and style it's distinctive and witty, walking a fine line between respectful homage and spoof.", "is_fresh": 1, "author": ["Frank Swietek"]},
{"text": "Doesn't build to anything substantial, instead dragging along interminably while its sense of humor succumbs to heat exhaustion...a gorgeous picture, but its soullessness wears down the viewing experience.", "is_fresh": 0, "author": ["Brian Orndorf"]},
{"text": "A neon-colored, sun-baked fantasia that's part Western spoof and part surrealist jag through the desert with Johnny Depp as our theatrically unhinged, reptilian tour guide, Rango is anything but your standard kiddie animated flick.", "is_fresh": 1, "author": ["Christopher Lloyd"]},
{"text": "If you have kids, aged five to 10, they'll have a rollicking good time, but anyone over that age might marvel at the look of the film, but after about 20 minutes, will be bored.", "is_fresh": 0, "author": ["Neil Rosen"]},
{"text": "Well, visually Rango looks excellent. Then characters start talking.", "is_fresh": 0, "author": ["Matt Pais"]},
{"text": "It's all technically brilliant, but maybe lacking a little in charm and true wit.", "is_fresh": 1, "author": ["David Aldridge"]},
{"text": "Rango never shuts up, but he never has anything funny or touching or clever to say.", "is_fresh": 0, "author": ["Michael Phillips"]},
{"text": "I'm honestly not sure whether or not it's a good movie, but it doesn't leave you much time to ponder that question.", "is_fresh": 1, "author": ["Andrew O'Hehir"]},
{"text": "\"Rango\" is some kind of a miracle: An animated comedy for smart moviegoers, wonderfully made, great to look at, wickedly satirical, and (gasp!) filmed in glorious 2-D.", "is_fresh": 1, "author": ["Roger Ebert"]},
{"text": "It coasts on strangeness only so long before the novelty wears off.", "is_fresh": 0, "author": ["Josh Bell"]},
{"text": "It's a droll and invigorating alternative to the Disney and Dreamworks models. At the same time, you wish that Verbinski had a tighter grip on his storyline.", "is_fresh": 1, "author": ["Sandra Hall"]},
{"text": "Rango turns out to be a master of adaptability and good will in the end, in fact, an educating and entertaining little ambassador for all with an addictive personality.", "is_fresh": 1, "author": ["Lisa Giles-Keddie"]},
{"text": "This digimated all-animal western borders on the inspired.", "is_fresh": 1, "author": ["Nigel Andrews"]},
{"text": "Neither Rango the mash-up movie nor Rango the lizard is particularly lovable. But there's no denying the intrigue in its combination of the good, the bad, and the ugly.", "is_fresh": 1, "author": ["Lisa Schwarzbaum"]},
{"text": "Toplined by Johnny Depp, who's in great form, Rango is a thematically witty, visually striking animated Western, a movie that could be enjoyed by younger and mature viewers in different ways.", "is_fresh": 1, "author": ["Emanuel Levy"]},
{"text": "There are some wonderful things in 'Rango': the dialogue is witty, the animation is dizzying and the action is stunningly choreographed.", "is_fresh": 1, "author": ["Tom Huddleston"]},
{"text": "Not many animated escapades aim to please such a broad audience. Even the poo jokes are sophisticated.", "is_fresh": 1, "author": ["Elliott Noble"]},
{"text": "Visually inventive and enjoyably quirky...", "is_fresh": 1, "author": ["Matthew Turner"]},
{"text": "It's refreshing to see an animated movie that doesn't look as though the idea for the Happy Meal came first.", "is_fresh": 1, "author": ["Bill Goodykoontz"]},
{"text": "While Depp turns his bug-eyed reptile into a charismatic character, the plot gets lost in a maze of tangents and the story has too many tasteless jokes -- like a prostate gag -- that are not kid-friendly.", "is_fresh": 0, "author": ["Thelma Adams"]},
{"text": "Perhaps a new classification has been born: the \"SpaghettiOs Western.\"", "is_fresh": 1, "author": ["Jake Coyle"]},
{"text": "An animated homage to western movies-from classic to revisionist, old-fashioned to postmodern--Rango plumbs existential depths and hits movie-lover highs.", "is_fresh": 1, "author": ["Frank Lovece"]},
{"text": "[W]hat a [Coen Brothers'] animated flick might look like and sound like, if they got an assist from Terry Giliam: this is a deeply weird and deeply demented movie, and thrillingly so.", "is_fresh": 1, "author": ["MaryAnn Johanson"]},
{"text": "Visually, so stunning and clever that you can almost forgive that, really, it's not very funny. Incredibly artful - but its grasp of the art of comedy is unfortunately slight.", "is_fresh": 0, "author": ["Marshall Fine"]},
{"text": "The most satisfying non-Pixar animated movie to emerge in some time.", "is_fresh": 1, "author": ["Simon Reynolds"]},
{"text": "So weird I can't believe they got to make this movie.", "is_fresh": 1, "author": ["Fred Topel"]},
{"text": "A terrific Saturday matinee for pretty much anyone.", "is_fresh": 1, "author": ["Chris Bumbray"]},
{"text": "A rollicking, surreal, and existential kids' Western that worships at the altars of Sergio Leone, Hunter S. Thompson, and Chinatown, Rango drowns under the weight of discordant objectives and influences.", "is_fresh": 0, "author": ["Nick Schager"]},
{"text": "Rango is the most beautiful animated film since the golden age of hand-drawn cartoons. Shame that the movie has no heart beneath all that beauty, though.", "is_fresh": 1, "author": ["Devin Faraci"]},
{"text": "Rango feels unhinged at its best moments, like anything might happen, and it's liberating to see such talented people running so absolutely off the rails.", "is_fresh": 1, "author": ["Drew McWeeny"]},
{"text": "Johnny Depp isn't the sort of star to blend in, so it's saying something that his turn as the world's most conspicuous chameleon in Rango is so full-bodied, you forget the actor and focus on the character.", "is_fresh": 1, "author": ["Peter Debruge"]},
{"text": "Madly clever animated sagebrush saga has style and wit to burn.", "is_fresh": 1, "author": ["Todd McCarthy"]},
{"text": "\"...a fleet, quirky, computer-animated feature that I found ingenious, charming and almost entirely engaging.\"", "is_fresh": 1, "author": ["Glenn Kenny"]},
{"text": "[VIDEO] The folks at Pixar should be worried. In conjunction with Industrial Light and Magic, director Gore Verbinski has created a gorgeously animated western that doesn't need any stinking 3D effects to entertain or pump up its profit margin. ", "is_fresh": 1, "author": ["Cole Smithey"]},
{"text": "state-of-the-art animation collides with postmodern pastiche on a busy road along which wayside legend will always count for more than supposed progress.", "is_fresh": 1, "author": ["Anton Bitel"]},
{"text": "This reteaming of Depp with his Pirates of the Caribbean director Gore Verbinski looks like a lock to emerge as the first genuine blockbuster of 2011.", "is_fresh": 1, "author": ["Pam Grady"]},
{"text": "Western myths infuse with the story of a lizard facing an existential crisis. His name? Rango.", "is_fresh": 1, "author": ["Matthew Pejkovic"]},
{"text": "It's ultimately a pastiche-by-numbers and doesn't live up to its full potential, but as a visual treat and one of Depp's better vehicles of recent years, it delivers the basic goods.", "is_fresh": 1, "author": ["Shaun Munro"]},
{"text": "Spoofs such kiddie favourites as Fear And Loathing In Las Vegas, the mystical writings of Carlos Castaneda, and Sergio Leone's Dollars trilogy.", "is_fresh": 1, "author": ["Robbie Collin"]},
{"text": "", "is_fresh": 1, "author": ["Nell Minow"]},
{"text": "", "is_fresh": 1, "author": ["Jason Bailey"]},
{"text": "", "is_fresh": 1, "author": []}
]