[
{"reviews_count": "53", "title": "Roman Holiday", "avg_audience_rating": "4.1", "rotten_count": "1", "tomatometer": "98", "audience_score": "93", "avg_critic_rating": "8.4", "fresh_count": "52", "user_ratings_count": "63,246"},
{"text": "The best comedy ever written on the horrors of being a royal.", "is_fresh": 1, "author": ["Camilla Long"]},
{"text": "What a never-to-be-forgotten brief holiday it was, befitting one of filmdom's true regal princesses. ", "is_fresh": 1, "author": ["Donald J. Levit"]},
{"text": "Immaculately directed by William Wyler, and written and played with style and grace, this is a film to treasure, both for its endearing action and marvellous performances.", "is_fresh": 1, "author": ["Tony Sloman"]},
{"text": "Only the big screen can do justice to its scintillating monochrome images.", "is_fresh": 1, "author": ["Philip French"]},
{"text": "As welcome as a cooling gelato on a hot summer's day.", "is_fresh": 1, "author": ["Allan Hunter"]},
{"text": "A lovely film.", "is_fresh": 1, "author": ["Peter Bradshaw"]},
{"text": "Hepburn represents all western cinema, finally allowed out to play on the cobbled streets of postwar Europe.", "is_fresh": 1, "author": ["David Jenkins"]},
{"text": "Hepburn and Peck revel in their shared duplicity but almost take a backseat to the splendour of the Italian capital, which has rarely been given so much lens-love since.", "is_fresh": 1, "author": ["Jessica Mellor"]},
{"text": "The Paramount crew that worked on Roman Holiday reminded me of expert marksmen who had made \"charm\" their target and seldom if ever missed it.", "is_fresh": 1, "author": ["Manny Farber"]},
{"text": "The reason Roman Holiday works is because it understands Hepburn's place in the pantheon of Silver Screen icons", "is_fresh": 1, "author": ["Walter Chaw"]},
{"text": "The newcomer named Audrey Hepburn gives the popular old romantic nonsense a reality it has seldom had before.", "is_fresh": 1, "author": []},
{"text": "Mixes the romantic comedy formula of an unlikely couple slowly falling in love with some classic slapstick to create a movie that's tough not to be delighted by.", "is_fresh": 1, "author": ["Ryan Cracknell"]},
{"text": "If only more filmmakers would remember that not all fairy-tale romances need to have a pat, happily-ever-after ending.", "is_fresh": 1, "author": ["Kent Turner"]},
{"text": "It's a beautiful snapshot into the past, both for the historic look of Rome and to witness the birth of the romantic comedy.", "is_fresh": 1, "author": ["Kevin Carr"]},
{"text": "For lovers of romantic comedies through the ages, Roman Holiday remains a favorite.", "is_fresh": 1, "author": ["James Berardinelli"]},
{"text": "[An] unfailingly lovely fairy tale.", "is_fresh": 1, "author": []},
{"text": "Delicious and delectable Audrey's Oscar-winning American debut. But not such a difficult feat with William Wyler backing you up.", "is_fresh": 1, "author": []},
{"text": "[Wyler] times the chuckles with a never-flagging pace, puts heart into the laughs, endows the footage with some boff bits of business and points up some tender, poignant scenes in using the smart script and the cast to the utmost advantage.", "is_fresh": 1, "author": ["Variety Staff"]},
{"text": "Wyler lays out all the elements with care and precision, but the romantic comedy never comes together -- it's charm by computer.", "is_fresh": 0, "author": ["Dave Kehr"]},
{"text": "Wyler's direction is heavyhanded (imagine what Lubitsch or Capra would have done with the romantic tale), but the actors (Audrey Hepburn, Gregory Peck, and Eddie Albert) are charming and on-location shoot in Rome is major benefit even if the film is b/w.", "is_fresh": 1, "author": ["Emanuel Levy"]},
{"text": "The movie remains a great tonic.", "is_fresh": 1, "author": ["Geoff Andrew"]},
{"text": "A delicious romantic-comedy.", "is_fresh": 1, "author": ["Dennis Schwartz"]},
{"text": "Features one of the greatest endings to come from Hollywood", "is_fresh": 1, "author": ["Jon Niccum"]},
{"text": "The Roman travelogue is pleasant enough, and Audrey Hepburn is positively peerless.", "is_fresh": 1, "author": ["Dan Jardine"]},
{"text": "When you say 'They don't make movies like that anymore,' you're really talking about this film.", "is_fresh": 1, "author": ["Widgett Walls"]},
{"text": "Hepburn is utterly beguiling in her star-making role opposite Peck in a delightful romantic comedy about a poised young princess of an unspecified European country who spends a magical day with an American reporter playing hooky.", "is_fresh": 1, "author": ["Steven D. Greydanus"]},
{"text": "Mr. Wyler and his associates have fashioned a natural, tender, and amusing yarn about the heiress to the throne of a mythical kingdom who is sick unto death of an unending schedule of speeches, greetings, and interviews attendant on her goodwill tour...", "is_fresh": 1, "author": ["A.H. Weiler"]},
{"text": "Timeless, exuberant classic, with Hepburn's na\u00efve sense of fun and perfectly charming performance matched equally by Peck's lauche and charismatic worldy American.", "is_fresh": 1, "author": ["David Parkinson"]},
{"text": "Audrey Hepburn won an Oscar and popular acclaim in this story of a princess who breaks free of the palace and has a fling with Gregory Peck.", "is_fresh": 1, "author": ["Marjorie Baumgarten"]},
{"text": "The film itself is a classic of romantic wish fulfillment, exactly the sort of beautiful lie that Hollywood specialized in.", "is_fresh": 1, "author": ["Ty Burr"]},
{"text": "Paramount restored Roman Holiday for its release on DVD, and the result is crisp and glorious.", "is_fresh": 1, "author": ["Forrest Hartman"]},
{"text": "The final moments of Roman Holiday are among the most moving and memorable of any romantic comedy I can think of", "is_fresh": 1, "author": ["James Kendrick"]},
{"text": "A sparkling romcom.", "is_fresh": 1, "author": ["Edward Lawrenson"]},
{"text": "A lovely little romance, full of fun and playfulness, stellar performances (Hepburn won an Oscar and Albert was nominated), and all set against the beauty of Rome", "is_fresh": 1, "author": ["Christopher Null"]},
{"text": "Nice little bittersweet comedy", "is_fresh": 1, "author": ["Ken Hanke"]},
{"text": "A stunning film debut by Audrey Hepburn, charming, gaminlike, a delight.", "is_fresh": 1, "author": ["Bob Bloom"]},
{"text": "One of the best romantic films of all time.", "is_fresh": 1, "author": ["Matt Easterbrook"]},
{"text": "The mix of silly comedy and innocent love turns the viewer into a willing tourist.", "is_fresh": 1, "author": ["Almar Haflidason"]},
{"text": "Audrey Hepburn and Gregory Peck are just magic together in this delightful romantic comedy, which is perhaps one of the happiest and most enjoyable films ever made.", "is_fresh": 1, "author": ["Louise Keller"]},
{"text": "Roman Holiday (1953) is a delightful, captivating fairy-tale romance shot entirely on location in Rome, and produced and directed by one of Hollywood's most", "is_fresh": 1, "author": ["Tim Dirks"]},
{"text": "Roman Holiday is [Audrey Hepburn's] perfect picture.", "is_fresh": 1, "author": ["Jeffrey M. Anderson"]},
{"text": "Director William Wyler delivers some of the most stunning black and white visions of Rome ever put on film. Considering how many eye-filling extravaganzas have been set in the eternal city, that's really saying something.", "is_fresh": 1, "author": ["Bob Westal"]},
{"text": "", "is_fresh": 1, "author": ["John A. Nesbit"]},
{"text": "", "is_fresh": 1, "author": ["Cole Smithey"]},
{"text": "", "is_fresh": 1, "author": ["Philip Martin"]},
{"text": "", "is_fresh": 1, "author": ["Michael Dequina"]},
{"text": "", "is_fresh": 1, "author": ["Susan Granger"]},
{"text": "", "is_fresh": 1, "author": ["Rich Cline"]},
{"text": "", "is_fresh": 1, "author": ["Rebecca Murray"]},
{"text": "", "is_fresh": 1, "author": ["Tony Toscano"]},
{"text": "", "is_fresh": 1, "author": ["Nell Minow"]},
{"text": "", "is_fresh": 1, "author": ["Brian J. Arthurs"]},
{"text": "", "is_fresh": 1, "author": ["Jeffrey Westhoff"]}
]