[
{"reviews_count": "292", "title": "Room", "avg_audience_rating": "4.3", "rotten_count": "19", "tomatometer": "93", "audience_score": "93", "avg_critic_rating": "8.4", "fresh_count": "273", "user_ratings_count": "48,858"},
{"text": "With Room [Lenny Abrahamson] has succeeded yet again in making truly moving cinema that is bursting with love and the triumph of the human spirit.", "is_fresh": 1, "author": ["Michelle Kisner"]},
{"text": "Brie Larson delivers one of the strongest performances of her career as Ma, a victim of a kidnapping who has been forced to create a home out of the petty 10\u2033x 10\u2033 woodshed where she is being held captive.", "is_fresh": 1, "author": ["Morgan Rojas"]},
{"text": "Any of its ancillary benefits as a work of sheer emotional force and its performances of staggering grace are obscured by the bludgeoning conceitedness of its scenario.", "is_fresh": 0, "author": ["PJ Nabarro"]},
{"text": "Abrahamson has dropped all his quirks and softened the grit in his approach, making something occasionally traumatising and far more palatable to the human interest story-loving general public ready to shed a tear.", "is_fresh": 1, "author": ["Alistair Ryder"]},
{"text": "Room shows us a horrible situation from the most innocent of perspectives, and in doing so creates a truly unique film experience.", "is_fresh": 1, "author": ["Jennifer Heaton"]},
{"text": "Two brilliant performances and a script willing to let the audience piece the puzzle together for themselves, this is an inspiring tale of the bond between a parent and child.", "is_fresh": 1, "author": ["Aaron Peterson"]},
{"text": "A movie that improves on the novel on which it's based is a rare bird - and Room is all the more rare, as Emma Donoghue wrote both.", "is_fresh": 1, "author": ["Molly Templeton"]},
{"text": "Abrahamson's direction finds the right balance of thriller, drama and even comedy, managing an extraordinary difficult tone that allows the full depth of the film's emotional landscape.", "is_fresh": 1, "author": ["Erik Anderson"]},
{"text": "Often suffocatingly dark, but hope and warmth emerge from unlikely places thanks to sensitive direction, beautiful performances and a rich understanding of human emotions and what a relationship between mother and child can be and do. ", "is_fresh": 1, "author": ["Jamie Neish"]},
{"text": "Room domesticates repugnant horror with spiritual uplift. ", "is_fresh": 0, "author": ["A.S. Hamrah"]},
{"text": "In Room, [director Lenny] Abrahamson has created a masterful oddity; a world that's spatially confined, but emotionally limitless and arresting.", "is_fresh": 1, "author": ["Michael Lee"]},
{"text": "The relationship between Brie Larson and Jacob Tremblay's characters is genuine, and the fact that the film is told through the eyes of a child gives it a sense of innocence that touches the soul without being overly sentimental.", "is_fresh": 1, "author": ["Kiko Martinez"]},
{"text": "Room is worth seeing because of its first part and because of the fine work done by Brie Larson and Jacob Tremblay. The second part offers them far fewer opportunities to display their talents.", "is_fresh": 1, "author": ["Uri Klein"]},
{"text": "Room is a deeply moving film about the inexplicable, tender, unbreakable bond between parent and child; it's one of the greatest love stories of all time.", "is_fresh": 1, "author": ["Robert Kojder"]},
{"text": "The script is so fine, the performances so fearless and the story so engrossing that the background becomes simply background. This is one of the richest stories of motherhood (and human-hood) we've seen.", "is_fresh": 1, "author": ["Alexandra MacAaron"]},
{"text": "While Room is in some ways an obviously manipulative fairy tale that suffers from some story compression in the first half, it has the capacity to hit some deeper insights later. ", "is_fresh": 1, "author": ["Jason Di Rosso"]},
{"text": "Room is a surprisingly uneasy affair, split between an ugly start that points to uplifting things to come, and a restorative coda that stubbornly forecloses as much as it promises comfort.", "is_fresh": 0, "author": ["Angelo Muredda"]},
{"text": "This is a beautiful tale of a mother's love for her child, selfless and pure. ", "is_fresh": 1, "author": ["Reagan Gavin Rasquinha"]},
{"text": "It's not awful by any means, just tough-going and rather unrewarding.", "is_fresh": 1, "author": ["Matthew Bond"]},
{"text": "We tell ourselves the world is a big place, but director Lenny Abrahamson, adapting Emma Donoghue's novel Room, shows us just how infinite the space can truly be.", "is_fresh": 1, "author": ["tt stern-enzi"]},
{"text": "Never has a pre-teen pulled off a more adult performance.", "is_fresh": 1, "author": ["Dan Webster"]},
{"text": "Director Lenny Abrahamson (\"Frank\") has made a delicate, beautiful film of visuals and smells and textures, told from the boy's point of view as he experiences everything with both a wide-eyed wonderment and a careful, tactile method.", "is_fresh": 1, "author": ["Brooke Corso"]},
{"text": "The strength of this film hinges on the strength of Larson and Tremblay's performances, and neither disappoint.", "is_fresh": 1, "author": ["Lisa Rosman"]},
{"text": "I remain struck by both the simplicity and tenderness of the narrative that is haunted by a deep tragedy.", "is_fresh": 1, "author": ["Candice Frederick"]},
{"text": "Room takes a nightmarish premise in an impossibly contained set and turns it into one of this year's most emotionally poignant films. ", "is_fresh": 1, "author": ["Kristen Yoonsoo Kim"]},
{"text": "Though it is a mostly audience-accessible look at a devastating situation, it also does not shy away from the realities of just how something so drastic can change our reality.", "is_fresh": 1, "author": ["David Fontana"]},
{"text": "A story of survival scripted by Emma Donoghue, from her novel about an imprisoned woman (the excellent Brie Larson) and her child.", "is_fresh": 1, "author": ["Camilla Long"]},
{"text": "If the measure of a story's worth is the empathy you feel for the characters and the amount that you are unable to remove yourself from their circumstances, then Room succeeds by miles.", "is_fresh": 1, "author": ["Taia Handlin"]},
{"text": "Room is a lithe, deeply moving wonder that builds to a miraculous coda.", "is_fresh": 1, "author": ["Sara Michelle Fetters"]},
{"text": "[A] very moving portrait of motherhood, hope and determination, a brilliantly made film about the fight and right to freedom and the beauty of life.", "is_fresh": 1, "author": ["Alan Corr"]},
{"text": "In our webbed-up world of total information, it's something we get to experience less and less of. Make the effort with this one, keep yourself rigorously uninformed... Buy the ticket, take the ride.", "is_fresh": 1, "author": ["Giovanni Fazio"]},
{"text": "Room is a harrowing, joyful experience that stays with you.", "is_fresh": 1, "author": ["Tara Thorne"]},
{"text": "Room still manages to be strangely uplifting, and there is light and warmth beyond the darkness if you can bear to hold on that long.", "is_fresh": 1, "author": ["Becky Suter"]},
{"text": "A cathartic fable that's much more about hope than pain.", "is_fresh": 1, "author": ["Emma Dibdin"]},
{"text": "To call the movie one of the great human achievements of recent cinema does not begin to describe the power that lives within its gripping frames.", "is_fresh": 1, "author": ["David Keyes"]},
{"text": "As ugly as it gets", "is_fresh": 1, "author": ["S. James Wegg"]},
{"text": "Room can be, at times, an almost unbearably emotional experience, but that's a good thing. It feels good to feel so much at the movies.", "is_fresh": 1, "author": ["Max Weiss"]},
{"text": "Let's get the dull part out of the way: yes, Brie Larson is fantastic.", "is_fresh": 1, "author": ["Tim Brayton"]},
{"text": "[A] serious, thought-provoking drama with the bonus of pitch-perfect performances from its leads.", "is_fresh": 1, "author": ["John Lui"]},
{"text": "A mesmerising tale of hope, survival and (if we're going to get all fancy about it) the sheer resilience of the human spirit.", "is_fresh": 1, "author": ["Chris Wasser"]},
{"text": "Gripping, moving and profoundly thought-provoking.", "is_fresh": 1, "author": ["Jason Best"]},
{"text": "Should Larson win the Oscar -- and I'm sure she will, judging from the wind she's riding -- it's from her complex rendition of a mum forced to grow up and face the complications of the world along with her child.", "is_fresh": 1, "author": ["Kong Rithdee"]},
{"text": "With impressive performances, this experimental drama could've been deeper with a better worked script. [Full review in Spanish]", "is_fresh": 1, "author": ["Carlos D\u00edaz Reyes"]},
{"text": "This is a film that trusts its audience, and takes its time letting them in on the particulars of what these two are doing in this room.", "is_fresh": 1, "author": ["Jason Bailey"]},
{"text": "Lapses of plausibility aside, it's a moving testament to the indomitability of the human spirit, though it's a pretty unsettling one.", "is_fresh": 1, "author": ["Peter Calder"]},
{"text": "Room is an ephemeral moment in time and I will always remember it with fondness because there's no way in hell I'm watching it again.", "is_fresh": 1, "author": ["Rohan Naahar"]},
{"text": "\"Room\" is lowest common denominator goop, so interested in feeling that it neglects to say or do.", "is_fresh": 0, "author": ["J. Olson"]},
{"text": "A terrifying film with no supernatural elements, just the cruelty and perversion that come natural to human beings. [Full review in Spanish]", "is_fresh": 1, "author": ["Fausto Ponce"]},
{"text": "Chilling, emotional and ultimately rewarding, Room may be a difficult watch, but that doesn't mean you shouldn't try.", "is_fresh": 1, "author": ["Marija Djurovic"]},
{"text": "Abrahamson is never less than sensitive in his handling, never close to exploitation. It's a tough film, not easy to watch but equally hard to take your eyes off.", "is_fresh": 1, "author": ["James Mottram"]},
{"text": "Room is the black horse of the season & the greatest way to give credit to independent cinema, as well as authors turning their own production into screenplays.", "is_fresh": 1, "author": ["Mahmoud Mahdy"]},
{"text": "The last moments of Room end with a whisper - one barely audible above the sobs and sniffles of the audience. Like so much of Room, it is perfect.", "is_fresh": 1, "author": ["Bill Newcott"]},
{"text": "The result is vague and confused. A movie tha happens mostly inside a room doesn't know about the importance of concretion. [Full Review in Spanish]", "is_fresh": 0, "author": ["Daniel Krauze"]},
{"text": "A brilliant and heart-wrenching drama, Room richly deserves all the accolades it has received.", "is_fresh": 1, "author": ["Lauren Humphries-Brooks"]},
{"text": "Brie Larson and Jacob Tremblay offer a couple of performances so out of series that are literally unforgettable. [Full review in Spanish]", "is_fresh": 1, "author": ["Edgardo Res\u00e9ndiz"]},
{"text": "The most interesting is that even though the story could be very dark, the director injects a hopeful tone that moves and makes it an experience. [Full review in Spanish]", "is_fresh": 1, "author": ["Eduardo Molina"]},
{"text": "With an outstanding, Oscar-winning performance from Brie Larson and a mostly-compelling narrative, Room makes for an intriguing and powerful character piece.", "is_fresh": 1, "author": ["Jeff Beck"]},
{"text": "Brie Larson's work as the protective mother is more than remarkable, but the film is leaded by the young Jacob Tremblay. [Full review in Spanish]", "is_fresh": 1, "author": ["Jordi Costa"]},
{"text": "A painful but necessary goodbye to the years where imagination and mother's love is all there is. [Full review in Spanish]", "is_fresh": 1, "author": ["Alberto Abu\u00edn"]},
{"text": "The movie works fantastically thanks to its cast's great chemistry and talent. [Full review in Spanish] ", "is_fresh": 1, "author": ["Iv\u00e1n Belmont"]},
{"text": "Even while the premise might be grim, director Abrahamson finds the beauty in each situation by concentrating on what makes the characters human, in this case their resilience.", "is_fresh": 1, "author": ["Theresa Smith"]},
{"text": "Room's omissions are the more sinister kind that the Oscars have long been guilty of ... reducing complicated development and trauma to a sententious paste.", "is_fresh": 0, "author": ["Dominic Barlow"]},
{"text": "An unsentimental yet incredibly compassionate film about maternal love.", "is_fresh": 1, "author": ["Emine Yildirim"]},
{"text": "It's movies like this one that made fall in love with cinema in the first place. [Full review in Spanish] ", "is_fresh": 1, "author": ["Mikel Zorrilla"]},
{"text": "The problem with the film is that the second halfs is terrible, or maybe, the first 50 minutes are so amazing that the second halfs doesn't live up to it. [Full review in Spanish] ", "is_fresh": 0, "author": ["Ernesto Diezmartinez"]},
{"text": "Room has strong staying power. ... [I found] something deeply, hurtfully familiar about it. We all can name a 'Room' that we've experienced.", "is_fresh": 1, "author": ["Jeffrey Overstreet"]},
{"text": "Leaving lots of room for interpretation, this is a film that is both unconfortable as it is moving. [Full review in Spanish]", "is_fresh": 1, "author": ["Sergio Ben\u00edtez"]},
{"text": "Room offers us a quality dramatic experince, touching without evident effort and top notch performances by the two leads.[Full review in Spanish]", "is_fresh": 1, "author": ["Juan Tolentino"]},
{"text": "A great film that embraces the love of mother and child as a treasure to protect and defend. [Full review in Spanish]", "is_fresh": 1, "author": ["Mario P. Sz\u00e9kely"]},
{"text": "Room is a film that's good and yet it's frustrating to watch it flirt with greatness so often but never consistently hit its emotional mark beyond the strength of its two leads. ", "is_fresh": 1, "author": ["Matt Goldberg"]},
{"text": "Room has an impressive potential, but it decides soon to leave behind all the possibilities for a more solid and overwhelming drama. [Full review in Spanish]", "is_fresh": 0, "author": ["Uriel Barco"]},
{"text": "A fascinating tale that's vigorously dark. [Full review in Spanish]", "is_fresh": 1, "author": ["Carlos Bonfil"]},
{"text": "Oscar's material in sight. Forgettable. One hit wonder. [Full review in Spanish]", "is_fresh": 0, "author": ["Ali L\u00f3pez"]},
{"text": "You have to applaud the work by director Lenny Abrahamson and screenwritter Emma Donoghe in creating believable characters with honest emotions to allow a balance with the extraordinary circumstances they're put in. [Full review in Spanish]", "is_fresh": 1, "author": ["Cuauht\u00e9moc Ruelas"]},
{"text": "Room is an irritating film thanks to its initial premise and frustrating becuase of all the missed opportunities. [Full review in Spanish[", "is_fresh": 0, "author": ["Alejandro Alem\u00e1n"]},
{"text": "Since Jack uses a succession of nouns to describe his living space, I'll string together a bunch of adjectives to describe Room: harrowing, truthful, lean, heartbreaking and (surprisingly) life-affirming.", "is_fresh": 1, "author": ["Brian Formo"]},
{"text": "Perhaps its most significant achievement is its ability to make one greater appreciate every sense the world has for us to experience.", "is_fresh": 1, "author": ["Jordan Raup"]},
{"text": "A film where what happens or how it ends goes to second term. This is an amazing cinematic experience. [Full review in Spanish]", "is_fresh": 1, "author": ["Jessica Oliva"]},
{"text": "One of the mos touching and humane films I've seen in recent years. [Full review in Spanish]", "is_fresh": 1, "author": ["Lucero Sol\u00f3rzano"]},
{"text": "Larson's transmutation (from a protective mother to a young woman that crumbles because of her guilt) is subtle and craftily handled without victimizing her nor falling in melodramatic temptaions that would increase her suffering. [Full Review in Spanish]", "is_fresh": 1, "author": ["Luis Fernando Galv\u00e1n"]},
{"text": "Chemistry between the two leads is amazing and Larson could easily win an Oscar, but just being nominated is a triumph. [Full review in Spanish]", "is_fresh": 1, "author": ["Oswaldo Betancourt Lozano"]},
{"text": "There's no denying that Room starts from a dark place, but that does not necessarily make it a bleak film.", "is_fresh": 1, "author": ["Stephen Romei"]},
{"text": "that rarest of films: one that finds a genuine sense of uplift out of the most despairing of situations without ever feeling forced or mawkish", "is_fresh": 1, "author": ["James Kendrick"]},
{"text": "Full of hope.", "is_fresh": 1, "author": ["Linda Cook"]},
{"text": "The emotional effect from such a foggy aesthetic is a film that feels lost in itself. Like Jack, Room seems to be in the process of coming to terms with its own existence.", "is_fresh": 1, "author": ["Luke Buckmaster"]},
{"text": "A chilling story that becomes more intriguing for being told from the point of view of its most innocent character. [Full review in Portuguese.]", "is_fresh": 1, "author": ["Pablo Villa\u00e7a"]},
{"text": "Room is both horrifying and inspiring. It shows us the best and worst of the human condition. ", "is_fresh": 1, "author": ["Matthew Toomey"]},
{"text": "A haunting, uncomfortable, occasionally voyeuristic movie, which ultimately serves as a life-affirming evocation of the durability and resilience of the human spirit. Brilliant.", "is_fresh": 1, "author": ["Paul Mount"]},
{"text": "One of the most extraordinary films of the year, this drama cleverly weaves in events from the news headlines to tell a raw, deeply involving story that's unnervingly personal.", "is_fresh": 1, "author": ["Rich Cline"]},
{"text": "By the nature of its conflict in Room, the movie holds from its two protagonist. [Full Review in Spanish]", "is_fresh": 1, "author": ["Jonathan S\u00e1nchez"]},
{"text": "Dabbles in tough stuff, but holds a lot of its details at a remove.", "is_fresh": 0, "author": ["Rob Gonsalves"]},
{"text": "[Brie Larson's] phenomenal, and very much deserving of the Oscar, but Jacob Tremblay's performance as her son Jack is so stunning, he more or less asserts his own status as the film's actual protagonist. ", "is_fresh": 1, "author": ["Dominic Corry"]},
{"text": "Although cast members other than Larson and Tremblay do eventually appear, this is nevertheless built entirely upon their characterisations, and both are quite brilliant in deeply challenging roles.", "is_fresh": 1, "author": ["David 'Mad Dog' Bradley"]},
{"text": "Room is a powerful imagining of an extraordinary situation, but it's also a poignant evocation of the ordinary, everyday intensity and complexity of the bond between mother and child.", "is_fresh": 1, "author": ["Philippa Hawker"]},
{"text": "Abramson accomplish to trap us and moving us making us witnesses of a terrible situation without exaggeration in a direct and clean way. [Full Review in Spanish]", "is_fresh": 1, "author": ["Erick Gallardo"]},
{"text": "Despite its grim subject matter, Room never wallows in darkness, but instead stares defiantly into the light. ", "is_fresh": 1, "author": ["Tom Clift"]},
{"text": "At the heart of Room is the tenderness and interdependence of mother and son. The nuanced, believable performances of the very young Tremblay and the wonderful Brie Larson bring to life a bond that is repeatedly tested and affirmed. ", "is_fresh": 1, "author": ["Rochelle Siemienowicz"]},
{"text": "...holds you in a vice for much of its running time, and how could it not?", "is_fresh": 1, "author": ["Josh Larsen"]},
{"text": "Room has the combined talents of Larson, Allen and Tremblay behind it, but it boasts a banality that robs it of the punch that it needs. This is low impact cinema, but not entirely without its merits.", "is_fresh": 0, "author": ["Alex Doenau"]},
{"text": "An Oscar nominated film that's more about relationships between mothers and sons that being kept captive. [Full review in Spanish]", "is_fresh": 1, "author": ["Pablo A. Scholz"]},
{"text": "An honest film that can be sometimes a little dark, but also full of hope at the same time. [Full review in Spanish]", "is_fresh": 1, "author": ["Sebastian Zavala Kahn"]},
{"text": "The feature as a whole may not match Larson's performance, but as a Brie Larson-delivery device, Room is second to none.", "is_fresh": 1, "author": ["Simon Miraudo"]},
{"text": "The first half of the film, all taking place inside Room, filled with action and suspense, is intense, engaging and intriguing, with the best, most inventive writing. It isn't sustained, though", "is_fresh": 1, "author": ["Andrew L. Urban"]},
{"text": "It's powerful and arresting, although it may fall short of delivering the psychological impact for which the novel is known", "is_fresh": 1, "author": ["Louise Keller"]},
{"text": "Larson's economical, yet electrifying performance is all but guaranteed to win her the next Best Actress Oscar. Her intimate chemistry with young Tremblay (also unbelievably strong, in totally different ways) is a force that cannot be denied throughout.", "is_fresh": 1, "author": ["Leigh Paatsch"]},
{"text": "Room is a most extraordinary achievement, finding light and love and hope in even the darkest of places.", "is_fresh": 1, "author": ["Kirk Baird"]},
{"text": "Abrahamson's film does the virtually unimaginable: It stares down inhumanity and, in the process, emerges as perhaps the year's most uplifting cinematic experience. Room won't win Best Picture but it will win your admiration. Maybe even your heart. ", "is_fresh": 1, "author": ["Rick Kisonak"]},
{"text": "Larson delivers every line to perfection and, as it happens, there's not one weak link in the cast.", "is_fresh": 1, "author": ["Charlotte O'Sullivan"]},
{"text": "Sounds like heavy going, and at times it is, but it's also utterly compelling and Larson's performance - which has already started picking up major awards - really is remarkable.", "is_fresh": 1, "author": ["Alistair Harkness"]},
{"text": "Told with intelligence and discretion, Room is distinguished by exceptional performances.", "is_fresh": 1, "author": ["Allan Hunter"]},
{"text": "Room is superbly acted but is, ironically, less convincing in the \"real\" world than the \"fake\" one established by Ma to protect her son in the room.", "is_fresh": 1, "author": ["Henry Fitzherbert"]},
{"text": "Abrahamson has the intelligence to trust his cast to show us the world through their eyes. And oh, what a world it is.", "is_fresh": 1, "author": ["Mark Kermode"]},
{"text": "Room, though an improvement on the source novel, remains a prisoner of its limited point of view. ", "is_fresh": 0, "author": ["Ed Whitfield"]},
{"text": "A soul-stirring feel-good weepie.", "is_fresh": 1, "author": ["Kevin Maher"]},
{"text": "Both uplifting and thought-provoking, thanks to impressive direction, a superb script and a pair of pitch-perfect performances from Larson and Tremblay.", "is_fresh": 1, "author": ["Matthew Turner"]},
{"text": "Room offers highly imaginative and, at times, visionary film-making that transcends its claustrophobic settings and defies genre stereotyping.", "is_fresh": 1, "author": ["Geoffrey Macnab"]},
{"text": "The film's problem... lies in its efforts to convert the story into a metaphor for something larger.", "is_fresh": 0, "author": ["Ryan Gilbey"]},
{"text": "It is as compelling as it is frightening.", "is_fresh": 1, "author": ["Rick Bentley"]},
{"text": "The excellent Larson explores the psychology of a kidnap victim. Room deserves its place on the Oscar shortlist.", "is_fresh": 1, "author": ["Alex Zane"]},
{"text": "It's a shoo-in for the top ten list of this or any other year.", "is_fresh": 1, "author": ["Jasen Govinden"]},
{"text": "Room is a moving, heartbreaking portrait of familial love in the face of insurmountable odds, but it also explores the complexity and hypocrisy of what we think of as \"reality\", as seen through Jack's eyes.", "is_fresh": 1, "author": ["Andrew Collins"]},
{"text": "No praise is too high for the amazing Tremblay... And the peerless Larson charts every shift in perspective of a child-woman forced to mature in unthinkable ways before her time.", "is_fresh": 1, "author": ["Matt Wolf"]},
{"text": "We are left with a film that manages a degree of optimism in the most unpromising circumstances. It is a substantial achievement. ", "is_fresh": 1, "author": ["Donald Clarke"]},
{"text": "This is a disturbing and absorbing film, shrewdly acted, particularly by Larson. It lets the audience in; it does not just let the nightmare stun them into submission.", "is_fresh": 1, "author": ["Peter Bradshaw"]},
{"text": "Room ... is not a thriller, but a moving feminist tract which explores questions of what it means to be a mother, what it means to give love, and what it means to receive it.", "is_fresh": 1, "author": ["David Jenkins"]},
{"text": "No lurid exploitationer but a thoughtful, at times poetic meditation on how one endures and makes bearable a nightmarish dilemma.", "is_fresh": 1, "author": ["Neil Smith"]},
{"text": "Room avoids tabloid sensationalism completely and seeks to explore its tremendously challenging subject with honesty. ", "is_fresh": 1, "author": ["CJ Johnson"]},
{"text": "The film derives much of its power, during the times it is powerful, from its central performances. ", "is_fresh": 1, "author": ["Deborah Ross"]},
{"text": "It's a story so abhorrent and seemingly hopeless that there may be times you don't want it to go on, but within its tight confines Lenny Abrahamson, with a script by Emma Donoghue, finds warmth and hope.", "is_fresh": 1, "author": ["Olly Richards"]},
{"text": "This is a gripping film, and not to be missed.", "is_fresh": 1, "author": ["Mark Demetrius"]},
{"text": "It's hard to think of a movie adaptation of a book that feels truer and more loyal to its source than Room.", "is_fresh": 1, "author": ["Sophie Gilbert"]},
{"text": "It's a deeply satisfying, profoundly moving adaptation of a popular novel, an all-too-rare occurrence in modern Hollywood.", "is_fresh": 1, "author": ["Preston Jones"]},
{"text": "Room is upsetting and challenging; a film that is nearly impossible to watch at times. But that grim horror gives way to transcendence, turning one of the darkest movies in recent memory into an awe-inspiring act of beauty.", "is_fresh": 1, "author": ["Bryan Bishop"]},
{"text": "It is a deeply intimate introduction to sordid, extraordinary circumstances, and a cramped stage for two of the year's finest performances.", "is_fresh": 1, "author": ["Steve Persall"]},
{"text": "Room is astonishing: It transmutes a lurid, true-crime situation into a fairy tale in which fairy tales are a source of survival.", "is_fresh": 1, "author": ["David Edelstein"]},
{"text": "It's a brutal, wonderful performance, bolstered by the screenplay, which Donoghue adapted herself. Clever, nimble, and smart, it gives these actors room to truly work, all of which is supported by Abrahamson's sharp direction.", "is_fresh": 1, "author": ["Anders Wright"]},
{"text": "Jack's inability to connect with his new environment is devastatingly rendered, aided tremendously by Tremblay's remarkably credible performance, and Larson's palpable pain.", "is_fresh": 1, "author": ["Nigel M. Smith"]},
{"text": "It will remind you of the lifeline that love and hope and courage can provide in the darkest of circumstances and rooms.", "is_fresh": 1, "author": ["Barbara Vancheri"]},
{"text": "As remarkable as Larson and Tremblay are individually, it's the interaction between them that takes Room to its emotional heights. Their depiction of a mother and child... is a joy to experience.", "is_fresh": 1, "author": ["Sean P. Means"]},
{"text": "Room is a good movie with a great performance at its core. Larson's career was already going places... But Room will be remembered as the movie that etched her permanent place on the map. ", "is_fresh": 1, "author": ["Chris Vognar"]},
{"text": "This movie is a wonder in several ways. The casting is sharp and the performances of such a caliber that awards talk is unavoidable.", "is_fresh": 1, "author": ["Philip Martin"]},
{"text": "Larson's impressively focused acting never lets you blink-she's bonded in a tight inner circle, with the superb, young Tremblay. Whenever director Lenny Abrahamson has the two together, he never goes wrong.", "is_fresh": 1, "author": ["Richard von Busack"]},
{"text": "Room begins with a ripped-from-the- tabloids premise and then systematically rejects every bit of conventional wisdom regarding how that premise might unfold.", "is_fresh": 1, "author": ["Alison Hallett"]},
{"text": "Director Lenny Abrahamsson brings out the underlying dynamic of sanctuary versus prison with flying colors, aided by Jacob Tremblay's sincere, wonderstruck performance as little Jack. ", "is_fresh": 1, "author": ["Lauren Terry"]},
{"text": "Arresting and heartbreaking, wrought with extremes of tension and love, Room is as evocative and unforgettable on screen as in the bestselling novel that inspired it.", "is_fresh": 1, "author": ["Sandy Cohen"]},
{"text": "Another in a line of original and unique films that [Brie] Larson makes her own, delivering one of the most layered and heartbreaking performances of the year.", "is_fresh": 1, "author": ["Felix Vasquez Jr."]},
{"text": "While watching this unforgettable film, I pondered the nature of humanity, so capable of good and evil, and the righteous bond between mother and child.", "is_fresh": 1, "author": ["John Serba"]},
{"text": "This movie, memorably, asks us what life means in a big world that is beyond our control and how we are shaped by the confined scope of our upbringing. It demands attention.", "is_fresh": 1, "author": ["Mal Vincent"]},
{"text": "Watching Room is essentially the act of barely breathing and nearly crying for two hours.", "is_fresh": 1, "author": ["Bill Clark"]},
{"text": "2015's most multi-layered film. It's complex, charming, a little frightening, but ultimately it's a wholly unique viewing experience unlike anything I've seen in years.", "is_fresh": 1, "author": ["Jeffrey Lyles"]},
{"text": "Emotionally exhausting, \"Room\" is a film that you will continue to think of long after you've left the theatre. ", "is_fresh": 1, "author": ["Michael A. Smith"]},
{"text": "It is a great, original, story and very compelling. The film is also expertly directed by Lenny Abrahamson ('Frank') who does a great job of showing us the world through the eyes of a child. This is one of the year's best films.", "is_fresh": 1, "author": ["Robert Roten"]},
{"text": "Brie Larson gives a sensational performance in a demanding role.", "is_fresh": 1, "author": ["Dennis Schwartz"]},
{"text": "Room demands not just to be seen, but felt-and the feelings echo long after you've left the theater. This is destined to be one of the year's best and most celebrated films.", "is_fresh": 1, "author": ["Molly Laich"]},
{"text": "Brie Larson and Jacob Tremblay are the reason to see this fine rendering of Emma Donoghue's unusual and contained novel of the same name.", "is_fresh": 1, "author": ["David N. Butterworth"]},
{"text": "The resulting film is twisted and amazing, anchored by tremendous performances from Larson and especially 8-year-old Tremblay.", "is_fresh": 1, "author": ["Christopher Lawrence"]},
{"text": "If acting awards are given not for mastery of craft or career achievement but for the impact of a performance on an audience, then go ahead and give 'em all this year to Jacob Tremblay, who was only 7 years old when he acted in 'Room.'", "is_fresh": 1, "author": ["John Beifuss"]},
{"text": "A stunning, soul-stirring, not-to-be-missed film. Brie Larson is beyond superb. Young Jacob Tremblay matches her note for note. ", "is_fresh": 1, "author": ["Mike McGranaghan"]},
{"text": "Tremblay, who was actually 8 when the film was shot, holds up well in a demanding role. This movie doesn't work without Larson, though.", "is_fresh": 1, "author": ["Kristian M. Lin"]},
{"text": "This dramatic thriller is small-scale but profound, with great performances from Larson and a young Tremblay.", "is_fresh": 1, "author": ["Rafer Guzman"]},
{"text": "For all the suffocating claustrophobia at the outset, it contrasts beautifully with the cathartic deep breaths in the second half. ", "is_fresh": 1, "author": ["Mara Reinstein"]},
{"text": "A challenging and triumphant look at the pangs of parenthood.", "is_fresh": 1, "author": ["Daniel Gelb"]},
{"text": "Room will leave you battered, bruised and exhausted, but it's unlike any other moviegoing experience you will encounter this year. ", "is_fresh": 1, "author": ["Adam Tobias"]},
{"text": "Highly-acclaimed -- and admittedly unusual -- tale that doesn't live up to its premise or its reception. ", "is_fresh": 1, "author": ["Ken Hanke"]},
{"text": "It's still a terrific manifestation of the truth behind fairy tales -- both their underlying horror, and their goal of keeping children safe.", "is_fresh": 1, "author": ["Scott Renshaw"]},
{"text": "Movie theaters keep adding new amenities, from recliner seats to fancy bars and restaurants. But where are the Sobbing Lounges for those of us who have just seen \"Room\"?", "is_fresh": 1, "author": ["Rob Thomas"]},
{"text": "Quietly devastating and surprisingly uplifting. I spend at least half of the film's running time on the verge of tears.", "is_fresh": 1, "author": ["Brad Keefe"]},
{"text": "Brie Larson stands on the shoulders of her 2013 film Short Term 12 and establishes herself as one of the top craftspeople in her trade, laying out years of unspeakable horror with a gesture or a tremble.", "is_fresh": 1, "author": ["Daniel Barnes"]},
{"text": "Room is one of 2015's most well-constructed films, with astonishing performances so authentic that you will be moved to tears, among other emotions.", "is_fresh": 1, "author": ["Michael Smith"]},
{"text": "Room is a tender observation of a mother/son relationship masquerading as a suspense film.", "is_fresh": 1, "author": ["Shawn Hazelett"]},
{"text": "The movie is still sticking to me, like a sweat-soaked T-shirt after a night of dark, distressed dreams.", "is_fresh": 1, "author": ["Matt Brunson"]},
{"text": "ROOM. Even the word stands in isolation. There is no \"The\" to give it a sense of meaning, nor any descriptive to give it a sense of occasion. It is \"ROOM:\" A word, a place, an idea of structure unto itself.", "is_fresh": 1, "author": ["Katherine Monk"]},
{"text": "It's pretty special stuff as offered up by Donoghue and director Lenny Abrahamson.", "is_fresh": 1, "author": ["John Urbancich"]},
{"text": "Heartbreaking, heartwarming and heart-stopping, it's one of the best movies of the year.", "is_fresh": 1, "author": ["Joanna Connors"]},
{"text": "Not a word or a gesture seems false.", "is_fresh": 1, "author": ["Lawrence Toppman"]},
{"text": "An emotional emotional roller coaster ride that is at turns touching, harrowing, crushing and flat-out beautiful.", "is_fresh": 1, "author": ["Mike Scott"]},
{"text": "When everything's new, learning your previously limited world is in fact boundless is just another lesson to accept on the path to growing up.", "is_fresh": 1, "author": ["Alison Willmore"]},
{"text": "A moving, lyrical meditation on love, imagination, bravery, strength, happiness, home, holding on and letting go, looking back and moving on, and the unbreakable, unshakeable bond between a mother and child.", "is_fresh": 1, "author": ["Neil Pond"]},
{"text": "This film will linger in your heart long after the lights go up in the theater. It's the best movie of the year.", "is_fresh": 1, "author": ["Sam Watermeier"]},
{"text": "Room is ultimately not something you'd readily call enjoyable, but it is a cathartic and provocative reminder that life is full of possibilities and outcomes.", "is_fresh": 1, "author": ["Marjorie Baumgarten"]},
{"text": "It's an enormously powerful film, one wrought with emotional vulnerability as it shows the worst of human nature in Old Nick and the best in Ma and Jack and their unwavering love.", "is_fresh": 1, "author": ["Allyson Johnson"]},
{"text": "The special bond between Ma and Jack is the emotional vise that glues you to the screen. You laugh and cry with them, fear for them and finally embrace their triumph.", "is_fresh": 1, "author": ["Bob Bloom"]},
{"text": "Its action peaks early and the second half doesn't resonate as strongly as the first, but Larson and Tremblay radiate a warmth that transcends the screen.", "is_fresh": 1, "author": ["Adam Graham"]},
{"text": "Think of \"Room\" as \"Boyhood\" as it might have been made by David Fincher.", "is_fresh": 1, "author": ["Gary Thompson"]},
{"text": "By its lyrical end, you recognize anew the beauty of small miracles - sunshine, a backyard, a new morning, an open door.", "is_fresh": 1, "author": ["Moira MacDonald"]},
{"text": "A cowardly movie about brave people.", "is_fresh": 0, "author": ["Matthew Lickona"]},
{"text": "Sure, your stomach will be in knots, your fingers clenched, your heart racing. But it will also fill that heart with a sense of the goodness, the courage, the enduring love that is out there to be discovered ...", "is_fresh": 1, "author": ["Steven Rea"]},
{"text": "If you've already read the book, you may not like the movie quite as much, but I bet you'll enjoy seeing a faithful re-telling. And if you haven't yet read the book, the movie should whet your appetite for that beautifully told tale.", "is_fresh": 1, "author": ["Chris Hewitt (St. Paul)"]},
{"text": "What happens in this tiny space gives you more to think about than 10 blockbuster action films.", "is_fresh": 1, "author": ["Kristin Tillotson"]},
{"text": "With visual and psychological precision, Abrahamson brilliantly evokes the experience of living outside of everyday reality. And he does so without resorting to either creepiness or sentimentality.", "is_fresh": 1, "author": ["Calvin Wilson"]},
{"text": "Hollywood insists on healing and closure, but Room is more interested in the wonder of childhood, regardless of circumstances.", "is_fresh": 1, "author": ["Brian Miller"]},
{"text": "It may seem like an intolerable sit, but to miss seeing \"Room\" means skipping one of the best pictures of the year.", "is_fresh": 1, "author": ["Brian Orndorf"]},
{"text": "Room isn't merely a thriller; like our lives, it winds onward past immediate trauma, because Donoghue knows that freedom is only half the battle. ", "is_fresh": 1, "author": ["Connie Ogle"]},
{"text": "Room is honest and challenging but it's more uplifting than one might expect from a film with such a horrific backstory.", "is_fresh": 1, "author": ["James Berardinelli"]},
{"text": "A devastatingly effective piece of entertainment.", "is_fresh": 1, "author": ["Adrian Mack"]},
{"text": "Stark yet tender, managing to find salvation after lightly indicated but genuine horror... Unspeakable, unfathomable, unthinkable, but here we are at Room... unnerving screen acting of a high order.", "is_fresh": 1, "author": ["Ray Pride"]},
{"text": "Larson delivers on the promise of her attention-getting performance in 2013's \"Short Term 12,\" while Tremblay embodies the innocence and resilience of childhood in a way movies rarely capture.", "is_fresh": 1, "author": ["Marc Mohan"]},
{"text": "Tremblay is a remarkable find, a scene-stealer whose naturalism brings their scenes together with humour, sadness and fear. ", "is_fresh": 1, "author": ["Damien Straker"]},
{"text": "For two hours, Larson and Tremblay make their struggles our struggles, Ma and Jack's perceptions challenging our own...the most potent pairing on screen this year.", "is_fresh": 1, "author": ["Peter Canavese"]},
{"text": "\"Room\" is a touching and thought-provoking film --- one of the best so far this year. ", "is_fresh": 1, "author": ["Jeanne Kaplan"]},
{"text": "\"Room\" is a powerful, emotionally-charged drama that should be an Oscar contender on many levels.", "is_fresh": 1, "author": ["David Kaplan"]},
{"text": "There are no cheap Hollywood thrills, no manipulations, no special effects. Just nail-biting suspense. And that probing question: What would we do if this were us? ", "is_fresh": 1, "author": ["Al Alexander"]},
{"text": "This is one of those situations in which mere words seem insufficient in describing a film's profoundly moving power.", "is_fresh": 1, "author": ["Christy Lemire"]},
{"text": "pure transcendence", "is_fresh": 1, "author": ["Andrea Chase"]},
{"text": "Room is a truly beautiful work regarding the inextricable bonds between mother and child, and the capacity of the human mind to transcend the body, to continue on when all else appears lost.", "is_fresh": 1, "author": ["Dominick Suzanne-Mayer "]},
{"text": "Wrenching", "is_fresh": 1, "author": ["Roger Moore"]},
{"text": "Fresh, just barely. Beautifully acted miserabilist slog.", "is_fresh": 1, "author": ["James Verniere"]},
{"text": "Most of all, the movie is a life-embracing story of a mother-child bond and the strength and beauty of a mother's love, made stirring by its lead performers.", "is_fresh": 1, "author": ["Anita Katz"]},
{"text": "Room, the new film based on the best-selling Emma Donoghue novel of the same name, is a perfect example of how to execute something very tricky: translating a first-person-perspective novel to film.", "is_fresh": 1, "author": ["Todd VanDerWerff"]},
{"text": "All involved manage to pull it off, thanks in great part to the stellar performances by Larson and Tremblay. (Full Content Review - Sex, Violence, Profanity, etc. - for Parents also available)", "is_fresh": 1, "author": ["Jim Judy"]},
{"text": "The wisest element of [Emma] Donoghue's screenplay and director Lenny Abrahamson's approach to the material is the narrative's point of view.", "is_fresh": 1, "author": ["Mark Dujsik"]},
{"text": "Part captivity thriller and part gut-wrenching familial drama, \"Room\" strikes a number of emotional chords that will make it tough to ignore this awards season.", "is_fresh": 1, "author": ["Travis Hopson"]},
{"text": "The end result is a profound work of genuine emotional heft - two hours of hope surrounded by the worst conceit imaginable. Miracles, even in a place as dire as Room, do come true.", "is_fresh": 1, "author": ["Barry Hertz"]},
{"text": "\"Room\" could turn mawkish at any moment, or merely sentimental. That it stays honest and true is a tribute to its makers.", "is_fresh": 1, "author": ["Ty Burr"]},
{"text": "It works on a tiny canvas, but in doing so it emphasizes that great things can be accomplished in tight spaces, whether a single room or the chamber of our minds.", "is_fresh": 1, "author": ["Chris Knight"]},
{"text": "Room works as a film because of the completely engaging performances from Brie Larson and Jacob Tremblay.", "is_fresh": 1, "author": ["Liz Braun"]},
{"text": "A strong, remarkably acted tale of the bond between mother and child tested by the most extreme circumstances. ", "is_fresh": 1, "author": ["Frank Swietek"]},
{"text": "Almost everything seen in the first half of Room will set an audience to wondering: \"What would I do? How would I cope?\"", "is_fresh": 1, "author": ["Linda Barnard"]},
{"text": "This is one of the best movies of the decade.", "is_fresh": 1, "author": ["Richard Roeper"]},
{"text": "The first half of this Irish-Canadian indie is so depressing I could barely stand it, but in the second half my emotional investment paid off handsomely.", "is_fresh": 1, "author": ["J. R. Jones"]},
{"text": "A potentially sensational premise is handled with grace and incisiveness in Room, Lenny Abrahamson's adaptation of Emma Donoghue's best-selling novel.", "is_fresh": 1, "author": ["Nick Schager"]},
{"text": "Room begins as a mystery. Slowly, it reveals itself to be a story of survival, first physical, then emotional and psychological.", "is_fresh": 1, "author": ["Dann Gire"]},
{"text": "A closely observed testament to what parents and children learn first-hand every day: the pride and pain of separation, and the discovery, empowerment and liberation to be found in simply growing up.", "is_fresh": 1, "author": ["Ann Hornaday"]},
{"text": "\"Room\" goes its own way, in a state of poetic realism that can break your heart.", "is_fresh": 1, "author": ["Michael Phillips"]},
{"text": "Abrahamson paces the movie as though the audience were in the palm of his hand, so that he follows slow scenes with musical interludes in which nothing happens, and he keep this up for 118 long, long minutes.", "is_fresh": 0, "author": ["Mick LaSalle"]},
{"text": "\"Room\" is a terrific movie, one that has two outstanding performances, confident direction and a story line that is both harrowing and moving.", "is_fresh": 1, "author": ["Bill Goodykoontz"]},
{"text": "An affecting drama approached from an uncommonly perceptive angle.", "is_fresh": 1, "author": ["Dustin Putman"]},
{"text": "The movie that finally should turn Larson from hugely underrated to a justly recognized talent. ", "is_fresh": 1, "author": ["Matt Pais"]},
{"text": "While Jack on the page exhausted me, I was amazed by the actor who plays him, Jacob Tremblay.", "is_fresh": 1, "author": ["Melissa Anderson"]},
{"text": "A beautiful and humane response to inhumanity.", "is_fresh": 1, "author": ["Jamie Dunn"]},
{"text": "There's acting, there's ACTING and then there's what Brie Larson and Jacob Tremblay achieve here, which is something closer to a small miracle.", "is_fresh": 1, "author": ["Robert Levin"]},
{"text": "One of the year's best films.", "is_fresh": 1, "author": ["Randy Myers"]},
{"text": "[Jacob Tremblay's performance] will rank as one of the best modern juvenile acting feats, so lacking in self-consciousness that it's seamless.", "is_fresh": 1, "author": ["Kent Turner"]},
{"text": "A tender, heartfelt tearjerker that genuinely earns its tears. Brie Larson and Jacob Tremblay give Oscar-worthy performances. Don't be surprised if you see it on many Top 10 lists. ", "is_fresh": 1, "author": ["Avi Offer"]},
{"text": "Couched in reality and replete with great performances Room is a well done, topical film that succeeds by all measures and I do appreciate it greatly. But I still don't like it.", "is_fresh": 1, "author": ["Tim Cogshell"]},
{"text": "It's a little masterpiece. [Full review in Spanish]", "is_fresh": 1, "author": ["Arturo Aguilar"]},
{"text": "The film, an indictment in part of the culture's fascination with the lurid details of cases like these, is harrowing, wrenching and redemptive.", "is_fresh": 1, "author": ["Annlee Ellingson"]},
{"text": "Moving, real, surprising and dramatic... a delicate balance ably handled by director, Abrahamson. See it before letting the buzz seep in...", "is_fresh": 1, "author": ["Leonard Maltin"]},
{"text": "Room deserves to be seen unspoiled. All you need to know is that the performances of Larson and Tremblay will blow you away. OK, Room is a small movie, but its impact is enormous. ", "is_fresh": 1, "author": ["Peter Travers"]},
{"text": "On the page, we can fill in the gaps with our own imagination, but \"Room\" is content to offer us Jack's while Ma's endured horrors remain confined in words.", "is_fresh": 1, "author": ["Laura Clifford"]},
{"text": "Room is a sensitive and even uplifting but very realistic psychological drama about abuse, depression, courage, and a lot more, even if the story of its inciting situation is terrifying, especially for women.", "is_fresh": 1, "author": ["Alissa Wilkinson"]},
{"text": "It's all blink-and-miss close-ups of their cluttered, cramped space, mimicking how Jacob has never tired of seeing the same-old for the five years he's been alive.", "is_fresh": 1, "author": ["Matt Prigge"]},
{"text": "I wouldn't say it's Best Picture worthy, but I'll be mighty pissed off if it doesn't get some acting noms; #LarsonForActress (and heck, #TremblayForSupporting) begin now.", "is_fresh": 1, "author": ["Alex Leadbeater"]},
{"text": "...just enough beauty here to keep it from drowning in darkness, but not enough to cheapen what's at stake.", "is_fresh": 1, "author": ["Chris Barsanti"]},
{"text": "Difficult to watch but beautifully performed survival tale.", "is_fresh": 1, "author": ["Sandie Angulo Chen"]},
{"text": "What could have been a sordid, exploitive film is really a tribute to a mother's love, and a child's imagination.", "is_fresh": 1, "author": ["Stephen Whitty"]},
{"text": "\"Room\" gets in its own way so much that it seems to apologize for what it is: an important exploration of post-traumatic suffering and resilience.", "is_fresh": 1, "author": ["Inkoo Kang"]},
{"text": "\"Room\" is several things by turn: creepy, frightening, exhilarating and then frightening and exhilarating all over again.", "is_fresh": 1, "author": ["Kenneth Turan"]},
{"text": "Larson is one of the finest young actors making movies today and her interaction with the gifted Tremblay is natural, fiercely devoted, and deeply moving.", "is_fresh": 1, "author": ["Nell Minow"]},
{"text": "While it flickers with grace and imagination during its initial half, largely because of Jack, it devolves into a dreary, platitudinous therapy movie in its second ...", "is_fresh": 0, "author": ["Manohla Dargis"]},
{"text": "The film goes on, in unsettling fashion, past the point when news media usually stop caring about nightmares like this. And Larson goes on with it, showing us that she never really leaves her Room.", "is_fresh": 1, "author": ["Andrew Lapin"]},
{"text": "Beautifully rendered and acted drama about a young captive and her remarkable bond with the child she bore while held prisoner is a potent award-season contender.", "is_fresh": 1, "author": ["Kevin Lally"]},
{"text": "A small container for a host of enthralling ideas about child development, the maternal bond, the nature of reality, the psychic cost of repression and the existential perils, as well as the ineffable joys, of freedom. How do they all fit?", "is_fresh": 1, "author": ["Joe Morgenstern"]},
{"text": "This remarkable adaptation is unnerving, intimate and surprisingly cool. You'll be as moved, curious and safe as you might want to be. ", "is_fresh": 1, "author": ["Joanna Langfield"]},
{"text": "Room should hit home with everyone who worries about how to tell the generation behind them what lies ahead-especially when we can't always see what's in front of ourselves.", "is_fresh": 1, "author": ["Noel Murray"]},
{"text": "Dopey as the film is on a plot level, it's equally vapid in its psychology.", "is_fresh": 0, "author": ["Kyle Smith"]},
{"text": "Abrahamson is fascinated by happiness and hope: how Jack can see joy in this dungeon, and how Joy can dream of freedom when her son can't comprehend that there's anywhere else to go.", "is_fresh": 1, "author": ["Amy Nicholson"]},
{"text": "A glorious experience that transcends its simple dramatic premise. You would have to be fairly heartless not to be moved by it.", "is_fresh": 1, "author": ["Edward Douglas"]},
{"text": "An extraordinary film so powerful and unforgettable that it must be seen.", "is_fresh": 1, "author": ["Rex Reed"]},
{"text": "Though it goes to places as dark as any you could imagine, Room carries at its heart a message of hope: Two people in four walls can create a world worth surviving for, if they love each other enough.", "is_fresh": 1, "author": ["Dana Stevens"]},
{"text": "\"Room' is a soul-searing celebration of the impenetrable bond that endures even under the most unbearable of circumstances between a parent and a child.", "is_fresh": 1, "author": ["Susan Wloszczyna"]},
{"text": "A riveting tour de force featuring a pair of powerful performances by co-stars Brie Larson and Jacob Tremblay.", "is_fresh": 1, "author": ["Kam Williams"]},
{"text": "Anchored by two tremendous performances from Brie Larson and young Jacob Tremblay, \"Room\" mixes an emotionally harrowing story with classic film techniques that surprises even the most dedicated movie-goer.", "is_fresh": 1, "author": ["Clayton Davis"]},
{"text": "The film, never sensational or saccharine, is a tough but tender tribute to the creative power of maternal love.", "is_fresh": 1, "author": ["Elise Nakhnikian"]},
{"text": "I wish I could have stopped the film - numerous times - simply to give myself a chance to step back from an emotional precipice of horror and tension.", "is_fresh": 1, "author": ["MaryAnn Johanson"]},
{"text": "What's it like for a kidnapped mother and daughter to live together in one room for seven years and never leaving it? \"Room\" has two excellent performances to tell us.", "is_fresh": 1, "author": ["Harvey S. Karten"]},
{"text": "Much of Room survives in the subtext, with Larson's performance in particular so full of subtlety and nuance.", "is_fresh": 1, "author": ["Stefan Pape"]},
{"text": "A heartbreaking, profound and tremblingly taut experience, that plays almost as an upside down version of Alice's Adventures in Wonderland ...", "is_fresh": 1, "author": ["Katherine McLaughlin"]},
{"text": "Room may not be a pleasant place to spend two hours, but it's an unsettling experience you won't forget.", "is_fresh": 1, "author": ["Chris Nashawaty"]},
{"text": "Resilient & cathartic, combining a wondrous metaphor with a suspenseful thriller...", "is_fresh": 1, "author": ["Susan Granger"]},
{"text": "Room becomes something specific and something genuinely powerful.", "is_fresh": 1, "author": ["Scott Mendelson"]},
{"text": "I think Abrahamson understands that Jack is more than a little f*****-up. If that's true, Room has betrayed him terribly, too. ", "is_fresh": 0, "author": ["Walter Chaw"]},
{"text": "[G]ives the tear ducts a workout.", "is_fresh": 1, "author": ["Jordan Hoffman"]},
{"text": "A devastating, must-see movie. Finds hope and tenderness in an inhuman situation.", "is_fresh": 1, "author": ["Radheyan Simonpillai"]},
{"text": "Funny, sad, and powerfully moving, the only time I closed my eyes in Room was to wipe the tears from beneath my eyelids.", "is_fresh": 1, "author": ["Josh Cabrita"]},
{"text": "See it without tissues at your own risk.", "is_fresh": 1, "author": ["Matt Singer"]},
{"text": "It's good, but also a somewhat glassy experience, lacking the cathartic lift-off we might have anticipated.", "is_fresh": 1, "author": ["Tim Robey"]},
{"text": "An emotional roller-coaster with dazzling performances by Brie Larson and Jacob Tremblay.", "is_fresh": 1, "author": ["Chris Bumbray"]},
{"text": "See it you must for the Oscar-caliber Larson and young Tremblay, whose remarkable mother-and-child bond is nothing sort of astonishing to watch.", "is_fresh": 1, "author": ["Lou Lumenick"]},
{"text": "It's a juicy, challenging role for an actress, one that the film's star, Brie Larson, handles with restraint and sensitivity.", "is_fresh": 1, "author": ["Richard Lawson"]},
{"text": "Room ultimately isn't always the easiest picture to sit through, and yet it's difficult to recall a more successful book-to-film adaptation.", "is_fresh": 1, "author": ["David Nusair"]},
{"text": "Abrahamson has made a deeply moving story about how adults try to explain the world to their children - even when they don't always understand it themselves.", "is_fresh": 1, "author": ["Tim Grierson"]},
{"text": "Once the story opens up, a good deal of tension goes out, but Larson's performance carries Room through to the end.", "is_fresh": 1, "author": ["Norman Wilner"]},
{"text": "With two lead remarkable lead performances, Room is a powerfully moving story told from a strongly distinct inside perspective.", "is_fresh": 1, "author": ["Darren Ruecker"]},
{"text": "Room is a delight, a film both thoughtful and moving, with at times an astonishing capacity to get under one's skin.", "is_fresh": 1, "author": ["Jason Gorber"]},
{"text": "So fraught with tension that I kept waiting for something worse to happen, because it always could. ", "is_fresh": 1, "author": ["Fred Topel"]},
{"text": "If Abrahamson were as gifted with a camera as he was with his cast (he inspires subtlety even from the tiny Tremblay), Room could have been truly worthy of the astonishing performances that provide its foundation. ", "is_fresh": 1, "author": ["David Ehrlich"]},
{"text": "\"Room\" has unforgettable, must-witness performances and its soulful mother and son narrative is one of the most touching dynamics you'll see in theaters this year. ", "is_fresh": 1, "author": ["Rodrigo Perez"]},
{"text": "Involving and moderately heartwarming here and there, even if doesn't reach the higher levels of psychological insight and emotional profundity to which it aspires.", "is_fresh": 1, "author": ["Todd McCarthy"]},
{"text": "Brie Larson and Jacob Tremblay give this truncated but still-powerful adaptation of Emma Donoghue's novel its beating heart.", "is_fresh": 1, "author": ["Justin Chang"]},
{"text": "Abrahamson seamlessly translates Donaghue's work into cinematic terms.", "is_fresh": 1, "author": ["Eric Kohn"]},
{"text": "Lenny Abrahamson guides Jack Temblay to the finest performance by a young actor since Quvenzhan\u00e9 Wallis in \"Beasts of the Southern Wild.\" ", "is_fresh": 1, "author": ["Gregory Ellwood"]}
]