[
{"reviews_count": "137", "title": "Saving Private Ryan", "avg_audience_rating": "  4", "rotten_count": "10", "tomatometer": "93", "audience_score": "95", "avg_critic_rating": "8.6", "fresh_count": "127", "user_ratings_count": "992,132"},
{"text": "Spielberg is at his absolute best here, with the true stroke of genius being the camera work and editing.", "is_fresh": 1, "author": ["Kent Garrison"]},
{"text": "A masterpiece in every sense of the word .", "is_fresh": 1, "author": ["Brian Gill"]},
{"text": "Not simply a 1990s classic or among the better prestige films of my generation, Saving Private Ryan is a stone cold masterpiece ranking among the very best war films of all time.", "is_fresh": 1, "author": ["Ed Travis"]},
{"text": "No audience can resist it. You may walk out of the theater rich with indignation at the shamelessness of it all, but you cannot get rid of the lump in your throat.", "is_fresh": 1, "author": ["Louis Menand"]},
{"text": "Steven Spielberg's war film, Saving Private Ryan, not only redefined the genre for war movies but the film holds up on the 20th anniversary.", "is_fresh": 1, "author": ["Danielle Solzman"]},
{"text": "After a generation of films revisiting Vietnam, Steven Spielberg steered Hollywood back to the pride and accomplishment of \"the greatest generation.\"", "is_fresh": 1, "author": ["Sean Axmaker"]},
{"text": "The visual masterwork finds Spielberg atop his craft, weaving heart-pounding action and gut-wrenching emotion that will leave viewers silently shaken... If words occasionally fail the picture, the images speak indelible volumes.", "is_fresh": 1, "author": ["Michael Rechtshaffen"]},
{"text": "[Saving Private Ryan] accomplishes something I had been taught was most difficult -- making an action-filled anti-war film or, at least, one that doesn't in some way glorify or lie about combat.", "is_fresh": 1, "author": ["Gene Siskel"]},
{"text": "Steven Spielberg's film is not perfect: it plays its strongest card first, the middle section is slightly uneven, and there are sallies into sentimentality. But it is a modern war classic.", "is_fresh": 1, "author": ["Martin Chilton"]},
{"text": "Saving Private Ryan is a masterpiece. It cements Steven Spielberg's reputation as one of the seminal filmmakers of the era.", "is_fresh": 1, "author": ["Rex Reed"]},
{"text": "The result, I am sorry to say, is that Saving Private Ryan seems almost banal in its achievement, a film that sacrifices humanity for technical wizardry.", "is_fresh": 0, "author": ["Neil Norman"]},
{"text": "One of Spielberg's most difficult \"problem\" films.", "is_fresh": 1, "author": ["Tim Brayton"]},
{"text": "The film is directed by Steven Spielberg, and breaks new ground in content and style. It merges some of the most realistically disturbing battle footage ever included in a feature film with a touching human story.", "is_fresh": 1, "author": ["Jeff Strickler"]},
{"text": "This is Spielberg's way of showing that these warriors were ordinary men -- men who, if they survived, became the grandfathers and great-grandfathers who, these days, pass largely unnoticed through life.", "is_fresh": 1, "author": ["Matt Soergel"]},
{"text": "If Steven Spielberg's emotional intelligence matched his visual genius, his harrowing, passionately felt and honorably flawed new film might qualify for one of the greatest American movies ever made about World War II.", "is_fresh": 1, "author": ["Ella Taylor"]},
{"text": "Spielberg is telling his fellow Americans to appreciate the sacrifices their forebears have made and to act accordingly.", "is_fresh": 1, "author": ["Philip French"]},
{"text": "Spielberg puts us through the hair-trigger terrors of combat in a way no other filmmaker has ever dared, and yet there's a gentleness to his enterprise. He's interested in the humaneness that comes through the horror.", "is_fresh": 1, "author": ["Peter Rainer"]},
{"text": "Spielberg's latest masterwork, pairing America's director with '90s Everyman Tom Hanks, makes a natural companion piece to his similarly disturbing Schindler's List.", "is_fresh": 1, "author": ["Philip Booth"]},
{"text": "Spielberg's typically overindulgent sensibilities mute the impact of the film's more overtly captivating moments.", "is_fresh": 1, "author": ["David Nusair"]},
{"text": "Spielberg accomplishes these goals with a technical virtuosity that no other director, arguably in the history of the cinema, can even approach.", "is_fresh": 1, "author": ["Paul Tatara"]},
{"text": "Saving Private Ryan is the war movie to end all war movies. It's the ultimate combat film, far outdistancing what until now had been the genre's World War II classics. ", "is_fresh": 1, "author": ["Jay Carr"]},
{"text": "Ultimately, it lacks the resonance of such classics as All Quiet on the Western Front, but this is still well-meaning, strongly acted and slickly mounted, and ranks among the director's very best films.", "is_fresh": 1, "author": ["David Parkinson"]},
{"text": "By now we expect this level of performance and narrative competence from a Spielberg film. But what makes Saving Private Ryan a watershed is its emotional maturity.", "is_fresh": 1, "author": ["Ann Hornaday"]},
{"text": "Technically, it may be the best-made war movie yet, but dramatically, it barely delivers.", "is_fresh": 1, "author": []},
{"text": "Its dramatic shortcomings may demote Private Ryan from the ranks of battlefield classics, but the film explodes romantic notions of World War II like an artillery shell bursting through the center of your rib cage.", "is_fresh": 1, "author": ["Todd Anthony"]},
{"text": "The cast functions as an effective and believable unit. And Hanks gives a strong, increasingly solemn performance as its mysterious leader.", "is_fresh": 1, "author": ["Jay Boyar"]},
{"text": "Steven Spielberg has made a film about bravery that doesn't shy away from the horrors encountered by soldiers even in a \"good\" war. But he wasn't quite brave enough to present the story without a comforting coat of saccharine.", "is_fresh": 0, "author": ["Serena Donadoni"]},
{"text": "After seeing Ryan, many of us will look at our aging fathers or grandfathers with a newfound respect.", "is_fresh": 1, "author": ["Leah Rozen"]},
{"text": "Dramatic lapses notwithstanding, Saving Private Ryan goes beyond technical dazzlement to put a new, indelibly terrible face on war.", "is_fresh": 1, "author": ["Joe Morgenstern"]},
{"text": "Calling it the greatest war movie ever made does a disservice to other, equally worthwhile, lower-profile films. But it's still an excellent movie, as effective in battle scenes as it is in that of soldiers ruminating on an Edith Piaf song.", "is_fresh": 1, "author": ["Keith Phipps"]},
{"text": "The result is staggering.", "is_fresh": 1, "author": ["Gary Thompson"]},
{"text": "Anyone who would like to know what superb filmmaking is all about need look no further than this overpowering movie.", "is_fresh": 1, "author": ["Desmond Ryan"]},
{"text": "What Steven Spielberg has accomplished in Saving Private Ryan is to make violence terrible again. Nothing in the movie's melodramatic narrative can diminish the shocking immediacy of its combat scenes.", "is_fresh": 1, "author": ["David Edelstein"]},
{"text": "Searing, heartbreaking, so intense it turns your body into a single tube of clenched muscle, this is simply the greatest war movie ever made, and one of the great American movies.", "is_fresh": 1, "author": ["Stephen Hunter"]},
{"text": "Spielberg goes a long, long way toward overcoming his tendencies toward the shallow, but the visceral punch of his not-quite-masterful film is softened by an almost neurotic slickness that keeps getting in the way of the [issues it raises].", "is_fresh": 1, "author": ["Michael O'Sullivan"]},
{"text": "Spielberg obviously decided that blood and guts meant just that, and so he arranged his violence into a semblance of pure disorder. The illusion holds, complete with severed limbs and wellsprings of blood, and it feels honorable.", "is_fresh": 1, "author": ["Anthony Lane"]},
{"text": "Saving Private Ryan is Steven Spielberg's best war film and one of the two or three best movies the director has made.", "is_fresh": 1, "author": ["Dave Kehr"]},
{"text": "The great Hollywood battle films have told us repeatedly that war is hell. Saving Private Ryan, more than any other, is the one that shows it.", "is_fresh": 1, "author": ["Michael Wilmington"]},
{"text": "War may be a faceless affair, but war movies shouldn't be.", "is_fresh": 0, "author": ["Hillel Italie"]},
{"text": "Thanks to Hanks, and Spielberg's technical finesse, this develops into a powerful and potent portrayal of men at war, and those opening 20 minutes are worth the price of entry alone.", "is_fresh": 1, "author": []},
{"text": "Bloody, tragic war epic doesn't hold back.", "is_fresh": 1, "author": ["Charles Cassady"]},
{"text": "It deserved all the honors it received, looks and sounds great on Blu-ray, and safely remains among the best war movies of all time.", "is_fresh": 1, "author": ["John J. Puccio"]},
{"text": "Saving Private Ryan set a new benchmark for realism in WWII films, and defined war movies for a generation. A film of scope and vision rarely experienced, its award-winning cinematography and sound editing helped convey the blood-chilling images of", "is_fresh": 1, "author": ["AskMen.com Staff"]},
{"text": "Private Ryan resembles the director's other so-called mature efforts by putting a positive spin on unspeakable horrors.", "is_fresh": 1, "author": ["Rob Nelson"]},
{"text": "Violent, harrowing, and horrific; you bet. This is not a movie to take your children to see, or even a date. And it's definitely not worth seeing alone. How the ratings board gave this movie an \"R\" rating is a mystery. Well, maybe not.", "is_fresh": 0, "author": ["Cole Smithey"]},
{"text": "I personally have never fought in a war before but I would go out on a limb and say that the first twenty minutes of the film may be the most realistic war scene I have seen.", "is_fresh": 1, "author": ["Kevin McCarthy"]},
{"text": "No further commentary is needed when the raw brutality of combat is presented as indelibly as it is here.", "is_fresh": 1, "author": ["Todd McCarthy"]},
{"text": "It's forty minutes of steely violence and two hours of cliche-ridden flab.", "is_fresh": 0, "author": ["Rob Gonsalves"]},
{"text": "I found it tediously manipulative despite its Herculean energy.", "is_fresh": 0, "author": ["Andrew Sarris"]},
{"text": "Why did Spielberg make it? He wants us to imagine we can feel the terror of being there, but does that make us any wiser about this or any other conflict? Probably not.", "is_fresh": 0, "author": ["Geoff Andrew"]},
{"text": "Saving Private Ryan is an incredible movie, a near-masterpiece.", "is_fresh": 1, "author": ["Jeffrey M. Anderson"]},
{"text": "The opening 30 minutes are so devastating that much of what follows ends up feeling anticlimactic. Good, but overrated.", "is_fresh": 1, "author": ["Chuck O'Leary"]},
{"text": "The movie epitomizes the paradox of all great filmmaking: It's a thrillingly violent war drama about an unbearably painful subject.", "is_fresh": 1, "author": ["Emanuel Levy"]},
{"text": "Neither wholly condemning war, nor spouting patriotism, Spielberg shows us the price we pay.", "is_fresh": 1, "author": ["Ron Wells"]},
{"text": "Saving Private Ryan is a first-class war movie with some absolutely brilliant, gut-wrenching moments, especially the beginning minutes.", "is_fresh": 1, "author": ["Robin Clifford"]},
{"text": "Most of the film is an accomplished, visionary work.", "is_fresh": 1, "author": ["Jeffrey Overstreet"]},
{"text": "Uncompromising, powerful war movie that does not pull any punches. Pefectly balances the inhumanity of war and the humanity of its protagonists. Devastating and essential viewing.", "is_fresh": 1, "author": []},
{"text": "It's Spielberg at his best, although the movie doesn't match the primal thrills of Jaws or the overwhelming excellence of Schindler's List.", "is_fresh": 1, "author": ["Judith Egerton"]},
{"text": "Even the music score by John Williams, one of the most important ingredients of Spielberg's magic formula, is hardly memorable. The acting, on the other hand, is very good.", "is_fresh": 1, "author": ["Dragan Antulov"]},
{"text": "The first half hour alone forever redefines the war movie genre. Ryan has just one minor flaw: the plot is completely contrived. And if you can characterize a weak story as just a minor flaw... well, that's some damn fine filmmaking.", "is_fresh": 1, "author": ["Carlo Cavagna"]},
{"text": "The movie's greatest strength lies in phenomenal performances that reach from the leads right down to the smallest supporting roles...", "is_fresh": 1, "author": ["Maitland McDonagh"]},
{"text": "The platoon is an unlikely combination of heroes, cowards and crusaders.", "is_fresh": 1, "author": ["Jeanne Aufmuth"]},
{"text": "One of the best war films ever made. You don't just see it, you live through it. You survive it and after it, you feel like you know just a little bit what it is like to be in a war.", "is_fresh": 1, "author": ["Robert Roten"]},
{"text": "This film does for World War II what Platoon and The Deer Hunter did for Vietnam. It takes you there.", "is_fresh": 1, "author": ["John R. McEwen"]},
{"text": "Saving Private Ryan is an extraordinary experience at many moments, and it deserves to be seen...", "is_fresh": 1, "author": ["Nick Davis"]},
{"text": "Saving Private Ryan is far from flawless, but it's an important movie. It shows what America was once capable of, how a threat to freedom and justice was met with resolve and bravery, and how a great victory came at great cost.", "is_fresh": 1, "author": ["James Rocchi"]},
{"text": "Very few movies strike the delicate balance that Private Ryan maintains between harsh reality and higher purpose.", "is_fresh": 1, "author": ["Margaret A. McGurk"]},
{"text": "The combat scenes alone make it a must-see, but I sometimes wished I could fast-forward through the rest.", "is_fresh": 1, "author": ["Kevin N. Laforest"]},
{"text": "...the landing on Omaha Beach, should be shown in every high school classroom in America", "is_fresh": 1, "author": ["Philip Martin"]},
{"text": "The greatest Steven Spielberg movie since the last great one? Sure.", "is_fresh": 1, "author": ["Liam Lacey"]},
{"text": "What can be saved from Private Ryan is the recognition that some pain and heroism is beyond imagination and the consolation of meaning.", "is_fresh": 1, "author": ["Peter Keough"]},
{"text": "Violence is not redemptive, and there is no grandeur in dying for one's country. All that really matters in this setting of hell is small acts of kindness.", "is_fresh": 1, "author": ["Frederic and Mary Ann Brussat"]},
{"text": "El desembarco en Normand\u00eda es un evento famoso de la Historia, pero nunca hab\u00eda sido fotografiado en esta forma.", "is_fresh": 1, "author": ["Alex Ramirez"]},
{"text": "\"That old guy I'm honking at while I am driving to swing dance lessons went through all that for me? So I can drive my Honda and speak English and watch cable TV?\"", "is_fresh": 1, "author": ["Karina Montgomery"]},
{"text": "Spielberg trades in his usually powerful ideals for an unsettling combination of phony humanism and pandering realism.", "is_fresh": 0, "author": ["Chuck Rudolph"]},
{"text": "This is an important film that deconstructs war machines into separate, frightened men as it so likely was.", "is_fresh": 1, "author": ["Almar Haflidason"]},
{"text": "A message which can never be spoken too often, or for too long.", "is_fresh": 1, "author": ["Andrew Howe"]},
{"text": "a masterpiece of its kind, a war film that redefined the possibilities of a genre that had long been considered closed", "is_fresh": 1, "author": ["James Kendrick"]},
{"text": "A powerful and impressive milestone in the realistic depiction of combat, Saving Private Ryan is as much an experience we live through as a film we watch on screen.", "is_fresh": 1, "author": ["Kenneth Turan"]},
{"text": "A soberly magnificent new war film.", "is_fresh": 1, "author": ["Janet Maslin"]},
{"text": "Saving Private Ryan may be the most mature war film ever made.", "is_fresh": 1, "author": ["Scott Renshaw"]},
{"text": "For those who are willing to brave the movie's shocking and unforgettable images, Saving Private Ryan offers a singular motion picture experience.", "is_fresh": 1, "author": ["James Berardinelli"]},
{"text": "It has a few pretty good action moments, a lot of spilled guts, a few moments of drama that don't seem phony or hollow, some fairly strained period ambience, and a bit of sentimental morphing that reminds me of Forrest Gump.", "is_fresh": 0, "author": ["Jonathan Rosenbaum"]},
{"text": "Using the overpowering techniques of modern film, Steven Spielberg has cut through the glory-tinged gauze that shrouds World War II to reveal its brutal reality, creating a phenomenology of violence unsurpassed in the history of cinema.", "is_fresh": 1, "author": ["Gary Kamiya"]},
{"text": "A powerful experience.", "is_fresh": 1, "author": ["Roger Ebert"]},
{"text": "A flawed but masterful film.", "is_fresh": 1, "author": ["Peter Brunette"]},
{"text": "Gripping and satisfying in a way that no mere summer event movie could ever be.", "is_fresh": 1, "author": ["Ted Fry"]},
{"text": "Despite nearly six decades of filmmakers trying to come to grips with [World War II, Saving Private Ryan] feels like the first truly honest attempt to deal with the horrors of combat -- and the terrible responsibility shared by all survivors.", "is_fresh": 1, "author": ["John Hartl"]},
{"text": "Has 'masterpiece' written all over it.", "is_fresh": 1, "author": ["Robert Horton"]},
{"text": "What ultimately sets Saving Private Ryan apart from its golden age lineage, however, is its unflinchingly brutal depiction of the horrors of war as seen from a foot soldier's perspective.", "is_fresh": 1, "author": ["Wade Major"]},
{"text": "Except for the maudlin bookends from the present day that frame the story, Spielberg doesn't over-sentimentalize.", "is_fresh": 1, "author": []},
{"text": "Spielberg has captured the hair-trigger instability of modern combat.", "is_fresh": 1, "author": ["Owen Gleiberman"]},
{"text": "Spectacular, wrenching masterpiece that unflinchingly documents the random horror, the grisly spectacle and the ugliness of war.", "is_fresh": 1, "author": ["Andy Jones"]},
{"text": "Saving Private Ryan is almost three hours long, but it never drags.", "is_fresh": 1, "author": ["Liz Braun"]},
{"text": "Saving Private Ryan is one of the most brilliant pieces of film ever created. I don't think I'll ever be able to watch it again.", "is_fresh": 1, "author": ["MaryAnn Johanson"]},
{"text": "The performances are all superb.", "is_fresh": 1, "author": ["Elspeth Haughton"]},
{"text": "An instant classic.", "is_fresh": 1, "author": ["Dennis Schwartz"]},
{"text": "With its riveting combat drama played out against a D-Day backdrop, Saving Private Ryan is a masterpiece of World War II heroism.", "is_fresh": 1, "author": ["Jack Garner"]},
{"text": "The most intense modern war movie ever made.", "is_fresh": 1, "author": ["Madeleine Williams"]},
{"text": "With Private Ryan the object is to put you in a place no sane person would choose to go. And it does.", "is_fresh": 1, "author": ["Oz"]},
{"text": "The diverse effects that war has on human nature has never been captured with such aching reality.", "is_fresh": 1, "author": ["Andrew L. Urban"]},
{"text": "The standard has been raised.", "is_fresh": 1, "author": ["Marty Mapes"]},
{"text": "As compelling, intimate and brutally realistic an account of men at war as you've ever seen.", "is_fresh": 1, "author": ["Susan Stark"]},
{"text": "An experience that left me shaken and deeply moved.", "is_fresh": 1, "author": ["Edward Johnson-Ott"]},
{"text": "An experience sometimes hard to endure but not to be missed.", "is_fresh": 1, "author": ["Steve Rhodes"]},
{"text": "Once again, Steven Spielberg proves that as a constructer of movie images, he's unbeatable.", "is_fresh": 1, "author": ["Harvey S. Karten"]},
{"text": "A stunning piece of work that aims and hits the audience square in the gut.", "is_fresh": 1, "author": ["Michael Dequina"]},
{"text": "Spielberg has done and said a lot more about war in this film than any other film in history ever has.", "is_fresh": 1, "author": ["Ted Prigge"]},
{"text": "Saving Private Ryan surely is one of the most intense combat movies ever made, surpassing even the bloody realism, the raw exhilaration and the terrifying brutality of such recent battle epics as Glory, Gettysburg, Platoon and Full Metal Jacket.", "is_fresh": 1, "author": ["Dennis King"]},
{"text": "A bitter, bloody masterpiece with adrenalized emotions and hyper-realized images.", "is_fresh": 1, "author": ["Marc Savlov"]},
{"text": "Saving Private Ryan is not a film that one takes pleasure in, or even enjoys in the usual sense, but rather, it's a movie that elicits a hushed admiration and an uneasy appreciation.", "is_fresh": 1, "author": ["Joe Baltake"]},
{"text": "Spielberg throws you right down there in the middle of all the action, and you have no choice but to experience it.", "is_fresh": 1, "author": ["Matt Easterbrook"]},
{"text": "Superbly cast and well-acted.", "is_fresh": 1, "author": ["Jeff Vice"]},
{"text": "Spielberg opens in flashback with a half-hour set piece brilliant enough to climax any other masterpiece.", "is_fresh": 1, "author": ["Mike Clark"]},
{"text": "Spielberg has obviously poured his heart into this movie.", "is_fresh": 1, "author": ["Christopher Null"]},
{"text": "Spielberg has taken us back to basics -- back to art, back to amazement at the film medium itself.", "is_fresh": 1, "author": ["David Denby"]},
{"text": "Verge on greatness.", "is_fresh": 1, "author": ["Bryant Frazer"]},
{"text": "Certain to be one of the year's most popular and talked-about movies.", "is_fresh": 1, "author": ["David Sterritt"]},
{"text": "Spielberg's assembled cast is as fine an ensemble as one could hope for.", "is_fresh": 1, "author": ["Chris Grunden"]},
{"text": "...Features the strongest character interactions of any Spielberg work post-Jaws", "is_fresh": 1, "author": ["Bill Chambers"]},
{"text": "Launches and climaxes with two of the greatest extended battle sequences ever put on film.", "is_fresh": 1, "author": ["Bob Graham"]},
{"text": "You feel you are under siege with the combatants.", "is_fresh": 1, "author": ["Barbara Shulgasser"]},
{"text": "A good movie, but, like Amistad, it has its problems.", "is_fresh": 1, "author": ["David Keyes"]},
{"text": "It is the battle scenes, which burn in your mind for days afterwards, that distinguish this film.", "is_fresh": 1, "author": ["Rob Blackwelder"]},
{"text": "A war film that, entirely aware of its genre's conventions, transcends them as it transcends the simplistic moralities that inform its predecessors, to take the high, morally haunting ground.", "is_fresh": 1, "author": ["Richard Schickel"]},
{"text": "Absolutely genuine, graphic, testament of the actual horrors of war.", "is_fresh": 1, "author": ["JoBlo"]},
{"text": "An intense, technically brilliant, wonderfully acted film.", "is_fresh": 1, "author": ["Arthur Lazere"]},
{"text": "Una de las experiencias cinematogr\u00e1ficas mejor logradas y m\u00e1s impactantes de muchos, muchos a\u00f1os", "is_fresh": 1, "author": ["Jorge Avila Andrade"]},
{"text": "The word that springs to mind is 'intense', but that is an understating insult.", "is_fresh": 1, "author": ["Widgett Walls"]},
{"text": "Saving Private Ryan is a brilliant, savage piece of filmmaking, a soaring paean to the courage of man -- as individual and as family.", "is_fresh": 1, "author": ["Bob Bloom"]},
{"text": "The only thing surprising about Saving Private Ryan is how conventional it is. I fully expected a much more 'noir' vision of WWII along the lines of Oliver Stone's Platoon.", "is_fresh": 0, "author": ["Louis Proyect"]},
{"text": "Hanks is perfectly cast as the sincere Miller, whose take-charge attitude barely conceals his lack of confidence.", "is_fresh": 1, "author": ["James Sanford"]},
{"text": "This picture attempts to bring about a fuller understanding of sacrifice on the battlefield and in that respect it is a moving and dignified salute to the fallen.", "is_fresh": 1, "author": ["Wallace Baine"]},
{"text": "The honesty and realism of some of the scenes of this film may forever change the war film.", "is_fresh": 1, "author": ["Mark R. Leeper"]},
{"text": "Ralph Waldo Emerson once said that 'war educates the senses,' and that statement has never been truer than when applied to Steven Spielberg's \"Saving Private Ryan.\"", "is_fresh": 1, "author": ["David N. Butterworth"]},
{"text": "All in all a remarkable and yet very uneven film.", "is_fresh": 1, "author": ["Scott Nash"]},
{"text": "The remaining battle scenes are riveting, and in war as nowhere else difficult choices can have shattering consequences.", "is_fresh": 1, "author": ["Steven D. Greydanus"]}
]