[
{"reviews_count": "197", "title": "School of Rock", "avg_audience_rating": "3.2", "rotten_count": "17", "tomatometer": "91", "audience_score": "64", "avg_critic_rating": "7.8", "fresh_count": "180", "user_ratings_count": "32,784,193"},
{"text": "Black turns it up to 11 in every scene, throwing shapes, striking poses and zealously preaching the healing power of rock, never once selling-out to the threat of cute, kiddie-friendly fare.", "is_fresh": 1, "author": ["Leigh Paatsch"]},
{"text": "School of Rock just doesn't rock. It has no appetite for destruction. No raw power. It's like late Whitesnake. Tidied-up, over-produced. Jack Black is not, sad to say, Jack White.", "is_fresh": 0, "author": ["Antonia Quirke"]},
{"text": "It's genuinely good hearted, and features child actors that look like real kids, all permeation of geeky, fat, skinny, sullen and silent in that way that only actual kids can be.", "is_fresh": 1, "author": ["Dorothy Woodend"]},
{"text": "It's great fun. It's like one of those inspirational sports movies where you want to stand up and cheer at the end.", "is_fresh": 1, "author": ["John J. Puccio"]},
{"text": "Standout Jack Black in nerd-becomes-cool comedy.", "is_fresh": 1, "author": ["Nell Minow"]},
{"text": "Jack Black is a one-man rock 'n roll powerhouse in this infectious musical comedy directed by Gen X wunderkind Richard Linklater...", "is_fresh": 1, "author": ["Cole Smithey"]},
{"text": "Not only will your kids love this movie, but, hey, they'll learn what real music is.", "is_fresh": 1, "author": ["Felix Vasquez Jr."]},
{"text": "School of Rock made me laugh harder than any movie I've seen this year.", "is_fresh": 1, "author": ["David Ansen"]},
{"text": "It's another case of independent film artists beating Hollywood at its own game.", "is_fresh": 1, "author": ["Rob Gonsalves"]},
{"text": "As Dewey Finn, Mr. Black gets to capitalize on everything he does best -- basically being Jack Black. And loudly.", "is_fresh": 1, "author": ["Joe Lozito"]},
{"text": "The film that rocks your prep-school socks off.", "is_fresh": 1, "author": ["Jason Gorber"]},
{"text": "A cathartic class comedy for kids of all sizes, it's Bugsy Malone in rock pomp, Slacker meets Spy Kids.", "is_fresh": 1, "author": ["Derek Adams"]},
{"text": "The best comedy to come around in years.", "is_fresh": 1, "author": ["Jason Zingale"]},
{"text": "One of the best comedies in years...the film never sells out to itself.", "is_fresh": 1, "author": ["Bill Clark"]},
{"text": "Despite Black's reputation as a comedy anarchist, the movie has a big heart, avoids crude indulgence, and gives viewers of all ages something to enjoy.", "is_fresh": 1, "author": ["Jeffrey Overstreet"]},
{"text": "Good cast, good acting, good script, ridiculous premise, good music (if you like rock) equals entertaining movie.", "is_fresh": 1, "author": ["Tony Medley"]},
{"text": "It's funny, it's heartfelt, and it just rocks!", "is_fresh": 1, "author": ["Mark Sells"]},
{"text": "It would be a shame if only kids went to see this film. Adults who can still plug in to their inner rocker, if only to play air guitar, will love it, too.", "is_fresh": 1, "author": ["Peter Rainer"]},
{"text": "It's one of those films that'll require you to be in a good mood to enjoy, but if you are - you definitely will.", "is_fresh": 1, "author": ["Joe Utichi"]},
{"text": "A raucous crowd pleaser with a pumping soundtrack, some awe inspiringly talented kids, and perfect comic performances.", "is_fresh": 1, "author": ["Chris Hewitt (UK)"]},
{"text": "The bus to the School of Rock runs on one source of fuel, and that is Jack Black.", "is_fresh": 1, "author": ["Jeffrey Chen"]},
{"text": "...no pace, no backbeat, just Black hamming it up so manically that he makes Little Richard seem like Mel Torme.", "is_fresh": 0, "author": ["Thomas Delapa"]},
{"text": "A musical comedy with more power chords than Jimmy Page.", "is_fresh": 1, "author": ["Nik Huggins"]},
{"text": "...a lighthearted fantasy that rocks, dude, with Jack Black as the pied piper of rock purity...", "is_fresh": 1, "author": ["Lori Hoffman"]},
{"text": "Black (who is also a musician in the rock band Tenacious D) makes the most of a role he was born to play, and plays it like a person possessed by the demons of rock 'n' roll.", "is_fresh": 1, "author": ["James Verniere"]},
{"text": "An embarrassing mess of poor jokes and mixed messages.", "is_fresh": 0, "author": ["Anton Bitel"]},
{"text": "Escola de Rock j\u00e1 havia acabado h\u00e1 mais de meia hora quando percebi que continuava a sorrir - um sinal inequ\u00edvoco de que o filme funcionara maravilhosamente bem.", "is_fresh": 1, "author": ["Pablo Villa\u00e7a"]},
{"text": "Absolutely the funniest movie to hit theater screens in a good long while.", "is_fresh": 1, "author": ["Steve Head"]},
{"text": "It's irreverent without crossing the line, and hits a tender note without lapsing into maudlin sentiment.", "is_fresh": 1, "author": ["Stella Papamichael"]},
{"text": "The School of Rock's Dewey Finn ... is the role Jack Black was born to play. His volume goes up to 11 -- and Black never turns it down.", "is_fresh": 1, "author": ["Greg Maki"]},
{"text": "... Black personally lends enough energy to the film to power a third-world country for a few years, and that's just with his eyebrows.", "is_fresh": 1, "author": ["Kevin A. Ranson"]},
{"text": "A breath of fresh air for Hollywood comedies, providing proof that intelligent comedies can still make money if they're made of the right ingredients.", "is_fresh": 1, "author": ["Derek Smith"]},
{"text": "For a silly kids' comedy, this is exceptionally well-made.", "is_fresh": 1, "author": ["Rich Cline"]},
{"text": "The movie is predictable and formulaic, but it counters with a disarming charm, it doesn't condescend and Black's performance is a jewel of youthful enthusiasm.", "is_fresh": 1, "author": ["Christopher Smith"]},
{"text": "Very much worth seeing.", "is_fresh": 1, "author": ["Kamal 'The Diva' Larsuel"]},
{"text": "With its energetic, highly contagious and zany fun pitched at a thousand decibels, School of Rock combines hefty laughs with a truly sweet heart.", "is_fresh": 1, "author": ["Urban Cinefile Critics"]},
{"text": "...With School of Rock director Richard Linklater delivers a warm-hearted and irresistible valentine to the music he loves. ", "is_fresh": 1, "author": ["Rachel Deahl"]},
{"text": "Easily one of the funniest films of the year, thanks to a terrific script and a truly hilarious performance from comic powerhouse Jack Black.", "is_fresh": 1, "author": ["Matthew Turner"]},
{"text": "It sounds like the sort of sanitized product that might star Eddie Murphy (Dokken Day Care?), yet what gives the movie any semblance of an edge is Jack Black.", "is_fresh": 1, "author": ["Matt Brunson"]},
{"text": "A welcome reminder that studio comedies need not be shoddy, dumbed down, vulgar, and impersonal.", "is_fresh": 1, "author": ["Elbert Ventura"]},
{"text": "The movie rolls along with the attitude of children's classics like ", "is_fresh": 1, "author": ["Forrest Hartman", "Kelly Borgeson", "John R. McEwen", "Mark Palermo", "Ross Anthony", "Jonathan R. Perry", "Bruce Bennett", "Frank Ochieng", "Brian Webster", "Stephen Himes", "Robert Roten", "Audrey Rock-Richardson", "David Edelstein", "Brian Orndorf", "Steven D. Greydanus", "Mark Dujsik", "Peter Travers", "Karina Montgomery", "Linda Cook", "Mike McGranaghan"]},
{"text": "Jack Black rocks in this funny, snarky celebration of music.", "is_fresh": 1, "author": ["Kelly Borgeson"]},
{"text": "This should really be a fish-out-of-water role, but Black will have none of that: he's a fish in the water, and he swims around in it with abandon.", "is_fresh": 1, "author": ["John R. McEwen"]},
{"text": "Despite its earnest demeanor, School of Rock is without purpose -- a feel-good message movie without an identifiable message.", "is_fresh": 0, "author": ["Mark Palermo"]},
{"text": "Strong B+. I suppose the film is true to Rock 'n' Roll by being both fun and irresponsible.", "is_fresh": 1, "author": ["Ross Anthony"]},
{"text": "The very anarchic spirit Black's Dewey Finn imparts on the youngsters falls away in an avalanche of tidy sentiment and warm fuzzies, and it becomes clearer than in the Farrelly Brothers' 'Shallow Hal' that he's at sea when he's forced to dial down his per", "is_fresh": 0, "author": ["Jonathan R. Perry"]},
{"text": "Black's iconic performance here perfectly blends his naturally slovenly persona with his obvious passion for, and knowledge of, rock and roll.", "is_fresh": 1, "author": ["Bruce Bennett"]},
{"text": "Heartfelt, charming and devoid of anything to be misrepresented as manipulative piffle, School of Rock is solid in its celebration of rock and for those who recognize this pop culture movement as its orgasmic realm.", "is_fresh": 1, "author": ["Frank Ochieng"]},
{"text": "While Jack Black deservedly gets most of the credit, it's director Richard Linklater's work with a gaggle of youngsters that makes the difference between success and failure.", "is_fresh": 1, "author": ["Brian Webster"]},
{"text": "Linklater's film does a great service by bending clich\u00e9s to express deeper truths about teaching that most other films miss.", "is_fresh": 1, "author": ["Stephen Himes"]},
{"text": "A movie with an electric performance by funnyman Jack Black, a very funny story and several songs in its heart.", "is_fresh": 1, "author": ["Robert Roten"]},
{"text": "The chief reason to see School of Rock is that it's your chance to see Hollywood's newest comic star in the making.", "is_fresh": 1, "author": ["Audrey Rock-Richardson"]},
{"text": "School of Rock is uncut bliss.", "is_fresh": 1, "author": ["David Edelstein"]},
{"text": "The picture that gets the valentine to rock music precisely the way it deserves.", "is_fresh": 1, "author": ["Brian Orndorf"]},
{"text": "Almost entertaining enough and harmless enough for a pass\u0085 More interesting than the film, perhaps, are the comparisons and contrasts to another current music-themed hit comedy: The Fighting Temptations.", "is_fresh": 0, "author": ["Steven D. Greydanus"]},
{"text": "Director Richard Linklater has assembled a funny, sweet, and subversively anarchistic, blatantly antiauthoritarian little confection that never once loses its charm.", "is_fresh": 1, "author": ["Mark Dujsik"]},
{"text": "Hail! Hail! Jack Black: He's the clown king of rock & roll.", "is_fresh": 1, "author": ["Peter Travers"]},
{"text": "1. Jack Black must be funny. 2. The kids must not be precious. Done and donner.", "is_fresh": 1, "author": ["Karina Montgomery"]},
{"text": "Here's the perfect education for those about to rock.", "is_fresh": 1, "author": ["Linda Cook"]},
{"text": "This film is an excellent example of how synergy can work in a movie's favor. There is a combination of the right script, the right star, and the right director.", "is_fresh": 1, "author": ["Mike McGranaghan"]},
{"text": "Smart, funny and unapologetically upbeat.", "is_fresh": 1, "author": ["Rick Kisonak"]},
{"text": "A shining example of how good Hollywood comedies can be when the right minds are behind them.", "is_fresh": 1, "author": ["James Kendrick"]},
{"text": "A studio comedy that's actually funny.", "is_fresh": 1, "author": ["Ethan Alter"]},
{"text": "[School of Rock] merely aspires to be a good time and is just that and nothing more, a grin-worthy buzz that wears off in the parking lot.", "is_fresh": 1, "author": ["Robert Wilonsky"]},
{"text": "Black rocks as Dewey, simply because he refuses to treat the kids like children. Linklater eschews any sentimentality, holding what little there is in check.", "is_fresh": 1, "author": ["Bob Bloom"]},
{"text": "Black works better as a team player than carrying a movie alone, and neither White nor Linklater have their hearts in this kind of parade-of -the- cute-kids flick.", "is_fresh": 0, "author": ["Jim Lane"]},
{"text": "The problem is that the film has about as much creativity as the episode of Brady Bunch where the kids decide to put together a band.", "is_fresh": 0, "author": ["Josh Gilchrist"]},
{"text": "Black's charismatic, hyperactive, adrenaline-infused performance makes the simple storyline come alive.", "is_fresh": 1, "author": ["Rebecca Murray"]},
{"text": "Linklater proves you can make a hit movie without being a sell-out.", "is_fresh": 1, "author": ["John Beifuss"]},
{"text": "By casting moppets with real musical talent, there's a core of authenticity beneath the obvious fantasy.", "is_fresh": 1, "author": ["Susan Granger"]},
{"text": "[A] great big ball of entertainment ...", "is_fresh": 1, "author": ["Richard Roeper"]},
{"text": "An energetic burst that rises above its flaws to become one of the most entertaining pictures of 2003.", "is_fresh": 1, "author": ["Gabe Leibowitz"]},
{"text": "Jack Black... deftly guides the family film away from the genre's usual mawkishness and into a sort of Bad-Company-meets-Peter-Pan Rock 'n' Roll Never Never Land.", "is_fresh": 1, "author": ["Mac Verstandig"]},
{"text": "\"Rock is about the passion,\" preaches Jack, \"specifically, the passion between Tawny Kitaen and the hood of a car in a Whitesnake video.\"", "is_fresh": 1, "author": ["Mark Ramsey"]},
{"text": "Makes for unessential viewing.", "is_fresh": 0, "author": ["Dennis Schwartz"]},
{"text": "Pure fun.", "is_fresh": 1, "author": ["Marc Savlov"]},
{"text": "A clever and sometimes a beautiful thing.", "is_fresh": 1, "author": ["Andrew O'Hehir"]},
{"text": "Director Rick Linklater gets all the jokes and keeps the film from ever getting cute or maudlin, despite the presence of children as a linchpin of the plot.", "is_fresh": 1, "author": ["Marshall Fine"]},
{"text": "A great big chord of fun.", "is_fresh": 1, "author": ["Robert Denerstein"]},
{"text": "This is a crude, loopy, slightly unhinged motion picture, put together almost as if it was some particularly industrial bootleg Rock album.", "is_fresh": 1, "author": ["Sara Michelle Fetters"]},
{"text": "...a thoroughly enjoyable comedy that finally gives Jack Black a role he can really sink his teeth into.", "is_fresh": 1, "author": ["David Nusair"]},
{"text": "Linklater possesses the rare gift of irony without condescension.", "is_fresh": 1, "author": ["Peter Keough"]},
{"text": "A family film that quietly despises family, a wholesome values picture that comically worships at the altar of rock'n'roll anti-establishment.", "is_fresh": 1, "author": ["Gabriel Shanks"]},
{"text": "Roll over, Beethoven.", "is_fresh": 1, "author": ["Harvey S. Karten"]},
{"text": "The School of Rock is a high-energy comedy propelled by the antics of Joe Black as one who serves society by rocking and by sticking it to \" The Man.\"", "is_fresh": 1, "author": ["Frederic and Mary Ann Brussat"]},
{"text": "Just like it's possible to have fun sober, it's possible to enjoy a Jack Black movie with kids.", "is_fresh": 1, "author": ["Michael Szymanski"]},
{"text": "A movie for almost everyone, from boomer parents (who remember their teens and twenties) to their teenage kids (who can't wait to get started with same).", "is_fresh": 1, "author": ["Desson Thomson"]},
{"text": "Exuberant, raucous and thoroughly endearing.", "is_fresh": 1, "author": ["Ann Hornaday"]},
{"text": "The kids -- most of them first-timers cast for natural charisma and musical ability -- steal the show.", "is_fresh": 1, "author": ["Angel Cohn"]},
{"text": "Not only a glove-fit of a movie for the volcanic Black, School Of Rock proves a surprisingly deft foray into pure, unadulterated fun for the gifted indie smart guy Linklater.", "is_fresh": 1, "author": ["Geoff Pevere"]},
{"text": "Obvious but sometimes funny.", "is_fresh": 1, "author": ["Sean Piccoli"]},
{"text": "You'll think about it, weeks after seeing it, with a dopey grin on your face. (Yes, right now I have just such a grin on my face. Wanna make something of it?)", "is_fresh": 1, "author": ["Moira MacDonald"]},
{"text": "Coherent, hilarious and surprisingly sweet.", "is_fresh": 1, "author": ["Peter Hartlaub"]},
{"text": "Black's performance carries the movie.", "is_fresh": 1, "author": ["Andrew Fu"]},
{"text": "It's got a dynamo of a lead performance that will bust guts and melt faces! It's a JackBlacksterpiece.", "is_fresh": 1, "author": ["Kevin N. Laforest"]},
{"text": "I like this film. But that doesn't deny it's naggingly familiar.", "is_fresh": 1, "author": ["Joe Baltake"]},
{"text": "Soaring over the enterprise like a Robert Plant wail is the irrepressible Jack Black. A barrel-chested ball of manic energy, he's finally found a role worthy of his unique and slightly demented abilities.", "is_fresh": 1, "author": ["Jack Garner"]},
{"text": "[Linklater is] so smart and has such a sure touch that he was able to take the otherwise formulaic School of Rock and make it into something worth seeing.", "is_fresh": 1, "author": ["Jeffrey M. Anderson"]},
{"text": "It's the latest brilliant addition to the rock 'n' roll genre.", "is_fresh": 1, "author": ["Pam Grady"]},
{"text": "A hoot.", "is_fresh": 1, "author": ["Steve Schneider"]},
{"text": "A happy, hoot-and-holler crowd-pleasing package.", "is_fresh": 1, "author": ["Roger Moore"]},
{"text": "The film is, unlike so many of its predecessors in this often woeful genre, wall-to-wall funny and cheerfully comforting.", "is_fresh": 1, "author": ["Shawn Levy"]},
{"text": "Linklater's direction -- right from the tossed-off opening credits -- is the happiest and most relaxed it's been since Dazed and Confused.", "is_fresh": 1, "author": ["Stephen Whitty"]},
{"text": "A hip and consistently hilarious family comedy.", "is_fresh": 1, "author": ["Lou Lumenick"]},
{"text": "This is fun for everyone, even those (like me) who hate contemporary rock music.", "is_fresh": 1, "author": ["Jack Mathews"]},
{"text": "A family movie in the way The Osbournes is a family TV show. It puts the brimstone back into the treacle and, in the process, puts in the fun.", "is_fresh": 1, "author": ["Duane Dudek"]},
{"text": "An inspired, invigorating comedy that will have you laughing from its opening moments to its closing credits.", "is_fresh": 1, "author": ["Glenn Whipp"]},
{"text": "Fall-down, grab-your-sides, throw-up funny.", "is_fresh": 1, "author": ["Robert W. Butler"]},
{"text": "Black can go to the head of the class.", "is_fresh": 1, "author": ["Louis B. Hobson"]},
{"text": "One of those kid-movies that hits home with Boomer and Gen-X adults as well as their offspring.", "is_fresh": 1, "author": ["Jim Slotek"]},
{"text": "Linklater strikes just the right power chords here. He respects rock enough to keep it real, and he has enough rein on Black to ground his wildness in warmth while avoiding easy sentiment.", "is_fresh": 1, "author": ["Bruce Westbrook"]},
{"text": "A picture with pop's delicious energy yet none of its attendant risk, a flick that no one will love but everyone will like.", "is_fresh": 1, "author": ["Rick Groen"]},
{"text": "Director Richard Linklater and writer Mike White hit all of the right notes with the perfect combination of funny for families, groovy enough for grown-ups and campy enough for cool kids.", "is_fresh": 1, "author": []},
{"text": "Splendid fare, a fun-filled power chord of a flick all ages can enjoy.", "is_fresh": 1, "author": ["Tom Long"]},
{"text": "One of the sweetest, most appealing comedies to come along in quite some time, and much of that can be attributed to Black, who reveals a considerably more tender side here.", "is_fresh": 1, "author": ["Jeff Vice"]},
{"text": "School of Rock will play you like a Gibson Flying V. And you will like it.", "is_fresh": 1, "author": ["Lisa Kennedy"]},
{"text": "Not only is the heart of rock 'n' roll still beating, it's also highly amusing.", "is_fresh": 1, "author": ["Matt Weitz"]},
{"text": "Credit for its hilarity goes largely to Black, who gives the performance of his career as a character who might have seemed merely coarse and crude in less gifted hands.", "is_fresh": 1, "author": ["David Sterritt"]},
{"text": "Here is a movie that proves you can make a family film that's alive and well-acted and smart and perceptive and funny -- and that rocks.", "is_fresh": 1, "author": ["Roger Ebert"]},
{"text": "There's nothing like a cleverly written bildungsromanic underdog makeover movie with the mother of all music-deity- laden soundtracks to Rock your world.", "is_fresh": 1, "author": ["Christine James"]},
{"text": "School could best be described as The Bad News Bears with heavy-metal guitar moves instead of home runs, but that it touches all the predictable bases somehow becomes part of its charm.", "is_fresh": 1, "author": ["Ty Burr"]},
{"text": "This raucous riff teaches that there's no substitute for a single, dynamic performer, one who can make us giggle just by walking into a shot.", "is_fresh": 1, "author": ["Bill Muller"]},
{"text": "... an outrageously entertaining -- and deliciously subversive -- curriculum presided over by that irresistible force of nature, Jack Black ...", "is_fresh": 1, "author": ["Carol Cling"]},
{"text": "The themes of The School of Rock ... are as safely old-fashioned as Leave It to Beaver. But the way Black and the kids deliver that message, sharp and funny and never pandering, is itself delightfully subversive.", "is_fresh": 1, "author": ["Sean P. Means"]},
{"text": "Gladiator for the downtrodden and flabby", "is_fresh": 1, "author": ["Jim Chastain"]},
{"text": "Black has found the signature role for his singular talent.", "is_fresh": 1, "author": ["Josh Larsen"]},
{"text": "Don't skip school to see this movie, but maybe you can talk your principal into a field trip and go see it as a class project. Jack Black rocks and so does his mini-band.", "is_fresh": 1, "author": ["Cherryl Dawson and Leigh Ann Palone"]},
{"text": "It's a formula-driven movie, but it becomes irresistably fun", "is_fresh": 1, "author": ["Marty Mapes"]},
{"text": "It's bust-a-gut funny without resorting to gross-out humor; it's sentimental without being syrupy; and it's charming without being manipulative. Most importantly, it actually rocks.", "is_fresh": 1, "author": ["Jon Niccum"]},
{"text": "This movie also has some of the biggest laughs of a comedy this year.", "is_fresh": 1, "author": ["Shirley Klass"]},
{"text": "Unless Tenacious D - The Movie ever comes out, we may never get that ultimate flick for Jack Black, but this at least comes close.", "is_fresh": 1, "author": ["John Venable"]},
{"text": "Richard Linklater delivers a family film that is hilarious, honest and inherently good-natured...", "is_fresh": 1, "author": ["Guylaine Cadorette"]},
{"text": "A potentially A-B-C generi-comedy concept flick that's salvaged at every turn by the infectiously funny leading man and a collection of kid actors more sincerely personable than seriously precocious.", "is_fresh": 1, "author": ["Scott Weinberg"]},
{"text": "Jack Black kicks out the jams in the smartest, most exuberant, best comedy about the power of music since The Blues Brothers.", "is_fresh": 1, "author": ["James Rocchi"]},
{"text": "A delightful, hugely entertaining crowd-pleaser of a comedy with a great central performance and a lot of laughs throughout.", "is_fresh": 1, "author": ["Peter Sobczynski"]},
{"text": "Not since Marty McFly have we seen someone so in love with being a rocker.", "is_fresh": 1, "author": ["Erik Childress"]},
{"text": "Whether you take it as an homage or a parody -- that is, whether you take rock 'n roll seriously or not -- it's either way a truly joyful, funny movie.", "is_fresh": 1, "author": ["Eric D. Snider"]},
{"text": ".. a familiar song -- the journey of arrested adolescent/adult Dewey Finn (Jack Black) to maturity, helped along the way by the wisdom of children -- but the fun is in the performance.", "is_fresh": 1, "author": ["Sean Axmaker"]},
{"text": "[A]bout as rebellious and free and rockin' as a Clear Channel radio station, packaging payola-ed 'cool' for a mass audience and dishing out focus-grouped, MBA-approved 'hip'...", "is_fresh": 0, "author": ["MaryAnn Johanson"]},
{"text": "[Black's} charm is difficult to resist", "is_fresh": 1, "author": ["Leslie Katz"]},
{"text": "This isn't a movie about honor, or honesty, or even \"being yourself;\" instead, it's about not letting \"the man\" stop you from putting on a show. That's refreshing.", "is_fresh": 1, "author": ["Eugene Novikov"]},
{"text": "There is obvious affection between Black and the kids, and their interplay is disarmingly sweet.", "is_fresh": 1, "author": ["Hazel-Dawn Dumpert"]},
{"text": "A pleasing mainstream comedy that uses new people and attitudes to entertain in old-fashioned ways.", "is_fresh": 1, "author": ["Kenneth Turan"]},
{"text": "A very funny for-kids-of-all-ages delight that should catapult Mr. Black straight to the top of the A-list of Hollywood funnymen.", "is_fresh": 1, "author": ["Stephen Holden"]},
{"text": "Linklater's keen handling elevates the material.", "is_fresh": 1, "author": ["Mike Clark"]},
{"text": "It's been ages since I've seen a movie as joyous, as sweet and as hilarious.", "is_fresh": 1, "author": ["Chris Hewitt (St. Paul)"]},
{"text": "At last, here is a movie that isn't afraid to care about something out loud.", "is_fresh": 1, "author": ["Bruce Newman"]},
{"text": "Achieves its ecstatic, giddy high because it is peopled by immensely likable, endearing characters, all led by the tireless Black, who could make even the staunchest country music fan believe that rock 'n' roll can, in fact, change the world.", "is_fresh": 1, "author": ["Rene Rodriguez"]},
{"text": "The movie that gives born-to-boogie Black the role he was born to play.", "is_fresh": 1, "author": ["Terry Lawson"]},
{"text": "This movie feels about as liberating as a whalebone corset.", "is_fresh": 0, "author": ["Lawrence Toppman"]},
{"text": "After nearly four dozen films and acclaim for his real-life band Tenacious D, one-man dynamo Jack Black finally hits the jack-pot with, of all things, a family-friendly comedy.", "is_fresh": 1, "author": ["Todd Gilchrist"]},
{"text": "Part of the blame should go to White's scattershot script, part to Linklater for not tightening things up, and the rest should be stuck on Black, who seems not to be ready for starring gigs.", "is_fresh": 0, "author": ["Phil Villarreal"]},
{"text": "School of Rock rocks!", "is_fresh": 1, "author": ["Steve Rhodes"]},
{"text": "If there was ever someone born to portray the true spirit of rock and roll, it is Jack Black. In this movie, that is what they needed, and that is just what he does.", "is_fresh": 1, "author": ["Nell Minow"]},
{"text": "An engagingly screwball comic vehicle in which the actor and Tenacious D frontman goes through an inventory of heavy-metal moves and makes a mockery of them at the same time.", "is_fresh": 1, "author": ["Steven Rea"]},
{"text": "'School of Rock' is the best kind of crowd-pleaser, a high-concept comedy that doesn't play to the lowest common denominator.", "is_fresh": 1, "author": ["James Sanford"]},
{"text": "It gives Jack Black a role perfectly attuned to his comedic and musical gifts.", "is_fresh": 1, "author": ["Colin Covert"]},
{"text": "Easily the funniest film of the year and one of those 'movies for all ages' (seriously).", "is_fresh": 1, "author": ["John Anderson"]},
{"text": "The cinematic equivalent of a near-perfect three-minute pop song.", "is_fresh": 1, "author": ["Mark Caro"]},
{"text": "With its knowing humor and Jack Black unbound, School of Rock cranks its fun up to 11.", "is_fresh": 1, "author": ["Jeffrey Westhoff"]},
{"text": "Jack Black has played the in-your-face slacker many times before, but with a script written specifically to showcase his particular genius, he completely aces this exam.", "is_fresh": 1, "author": ["Bill Pearis"]},
{"text": "The School of Rock may be the best 'inspirational teacher' movie ever made.", "is_fresh": 1, "author": ["Eleanor Ringel Cater"]},
{"text": "Jack Black winds up and throws us a rock and rolling good time in this classroom comedy caper.", "is_fresh": 1, "author": ["David Foucher"]},
{"text": "For those about to see School of Rock, we salute you.", "is_fresh": 1, "author": ["Rob Thomas"]},
{"text": "Black rocks with extreme prejudice and surprinsingly entertaining results.", "is_fresh": 1, "author": ["Spyder Darling"]},
{"text": "The overall results are not unpleasant and sometimes -- when it's truly Black and White and Linklater all over -- they're both funny and moving.", "is_fresh": 1, "author": ["Ken Hanke"]},
{"text": "A film about the passion of rock and teaching, School of Rock thrives off the talent of its youthful cast and Richard Linklater's storytelling. Rock and Roll Forever!", "is_fresh": 1, "author": ["Jimmy O"]},
{"text": "As good as Black is, the film suffers from not flushing out its minor characters...", "is_fresh": 1, "author": ["Tony Toscano"]},
{"text": "School of Rock is a triumph, riotously funny, moving and deftly mainstream without falling into clich\u00e9d pitfalls. It is a joyous film, one of the best of the year.", "is_fresh": 1, "author": ["Nick Rogers"]},
{"text": "Jack Black isn't an actor, he's a clown - and a one-schitck clown at that.", "is_fresh": 0, "author": ["Rob Blackwelder"]},
{"text": "With guys like Linklater and White at the helm, anonymity is a tremendous disappointment, and that disappointment is really something like a compliment.", "is_fresh": 0, "author": ["Walter Chaw"]},
{"text": "A string of cliches lashed together by a formulaic plot that features underwritten characters and sit-com style humor.", "is_fresh": 0, "author": ["James Berardinelli"]},
{"text": "One of the happiest surprises of the fall season--a full-throated, energetic comedy...smart yet also slightly demented.", "is_fresh": 1, "author": ["Frank Swietek"]},
{"text": "That sound you hear is me -- still applauding Jack Black's wildly hilarious tour de force in School of Rock.", "is_fresh": 1, "author": ["Betty Jo Tucker"]},
{"text": "Funnyman Jack Black was born for this role - crisp, improvisational and brilliantly zany.", "is_fresh": 1, "author": ["Jeanne Aufmuth"]},
{"text": "Jack is exactly like the guy in school that you always wanted to hang out with and no matter what kind of trouble he gets into - you are always willing to forgive him.", "is_fresh": 1, "author": ["Danny Minton"]},
{"text": "Jack Black is worth the price of admission alone... and then some.", "is_fresh": 1, "author": ["JoBlo"]},
{"text": "A collaboration between indie auteur director Richard Linklater and taboo-pushing screenwriter Mike White shouldn't feel so mainstream.", "is_fresh": 0, "author": ["Sean O'Connell"]},
{"text": "Instead of the freshness of About a Boy, it presents the tried-and-true of a watered down The Goonies.", "is_fresh": 0, "author": ["Alex Keen"]},
{"text": "A joyfully simple and exceedingly entertaining motion picture that is about as much unadulterated fun as you are likely to have at the movies all year.", "is_fresh": 1, "author": ["Dustin Putman"]},
{"text": "School of Rock tackles its familiar formula with a welcome mixture of reverence, intelligence, and clich\u00e9 moderation.", "is_fresh": 1, "author": ["Nick Schager"]},
{"text": "Black is still a happy geek in perpetual overdrive, only now he draws on his musical skill, and his hipster shamelessness, to deliver the acting equivalent of a perfect power chord crunched with a demon smile.", "is_fresh": 1, "author": ["Owen Gleiberman"]},
{"text": "Black is consistently hilarious -- and not just in his dreams of moshpit glory.", "is_fresh": 1, "author": ["J. Hoberman"]},
{"text": "Black plays Dewey as the bastard child of Jack Nicholson and Elvis", "is_fresh": 1, "author": ["Andrea Chase"]},
{"text": "Insanely entertaining.", "is_fresh": 1, "author": ["Jon Popick"]},
{"text": "School of Rock may be built an implausible premise but it is loads fun and is a showcase for Mr. Black. And, the music ain't bad either.", "is_fresh": 1, "author": ["Robin Clifford"]},
{"text": "The School of Rock is feel good, frivolous entertainment, an air-guitarist's fantasy, but it sure is fun", "is_fresh": 1, "author": ["Laura Clifford"]},
{"text": "A genial comedy.", "is_fresh": 1, "author": ["Dennis Harvey"]},
{"text": "A high-energy comedy that takes its hero seriously when he declares, 'I serve society by rocking!'", "is_fresh": 1, "author": ["Kirk Honeycutt"]},
{"text": "The School of Rock is Dead Poets Society if Robin Williams were replaced by a rock n' roll loving Sasquatch with a weakness for Guinness.", "is_fresh": 1, "author": ["Joshua Tyler"]},
{"text": "School of Rock is not only a hilarious fish-out-water comedy but it's going to establish Jack Black as the reigning Whoopi Goldberg of his day", "is_fresh": 1, "author": ["Mike Sage"]},
{"text": "It's one movie that definitely goes to eleven.", "is_fresh": 1, "author": ["KJ Doughton"]},
{"text": "Linklater and his actors understand passion. They understand enthusiasm.", "is_fresh": 1, "author": ["KJ Doughton"]},
{"text": "Joyfully subversive. I loved every minute of it.", "is_fresh": 1, "author": ["Victoria Alexander"]},
{"text": "", "is_fresh": 1, "author": []},
{"text": "", "is_fresh": 1, "author": []},
{"text": "", "is_fresh": 1, "author": []}
]