[
{"reviews_count": "182", "title": "Spirited Away", "avg_audience_rating": "4.2", "rotten_count": "5", "tomatometer": "97", "audience_score": "96", "avg_critic_rating": "8.6", "fresh_count": "177", "user_ratings_count": "335,563"},
{"text": "Spirited Away doesn't talk down to its young audience, or treat its viewers delicately.", "is_fresh": 1, "author": ["Austin Trunick"]},
{"text": "he box office champion in Japan, this film is a genuine work of art.", "is_fresh": 1, "author": ["Dorothy Woodend"]},
{"text": "[VIDEO ESSAY] Animation legend Hayao Miyazaki's divinely imaginative display of madcap surrealism is virtuosic in this episodic coming of age classic. ", "is_fresh": 1, "author": ["Cole Smithey"]},
{"text": "Part Alice in Wonderland and part Hansel and Gretel...", "is_fresh": 1, "author": ["Josh Larsen"]},
{"text": "Knock me down with a feather, it turns out to be terrific; maybe not a masterpiece, but certainly aglitter with invention, excitement and a mysterious kind of wit.", "is_fresh": 1, "author": ["Anthony Quinn"]},
{"text": "Vivid, amusing and genuinely awe-inspiring.", "is_fresh": 1, "author": ["Neil Norman"]},
{"text": "Writer-director Hayao Miyazaki, who previously made the impressive Princess Mononoke, has created a wonderfully bizarre world filled with a gallery of creepy, and some not so-creepy, characters.", "is_fresh": 1, "author": ["David Stratton"]},
{"text": "This one is an event, a huge accomplishment in the world of traditional animation and a powerful rebuttal to the notion that films for children must be simplistic and visually dull.", "is_fresh": 1, "author": ["Steven Horn"]},
{"text": "Chihiro's escapades don't always proceed one from the other, but let yourself go and you'll be swept away as well.", "is_fresh": 1, "author": ["Sam Adams"]},
{"text": "The impressive watercolour backgrounds and intense focus on the smallest details make Spirited Away more than a kid's flick. It will grab hold and impress, amaze and entertain before letting you go.", "is_fresh": 1, "author": ["Luisa Browett"]},
{"text": "Spirited Away is unquestionably the best animated feature since Brad Bird's The Iron Giant.", "is_fresh": 1, "author": ["Christopher Borrelli"]},
{"text": "What it does have is the same kind of free-floating, imaginative animation, taking wing for even wilder flights of fantasy.", "is_fresh": 1, "author": ["John Wooley"]},
{"text": "Artful but not arty, Spirited Away is a handcrafted cartoon, as personal as an Utamaro painting, yet its breadth and heart give it an appeal that should touch American viewers of all ages.", "is_fresh": 1, "author": ["Richard Corliss"]},
{"text": "Spirited Away is a masterwork, the latest and best in a long line from Japan's premieranimator.", "is_fresh": 1, "author": ["Mark Schilling"]},
{"text": "Watching the Japanese cartoon epic Spirited Away is like strolling into Alice's Wonderland and seeing every wonder sprout up around you as if for the first time.", "is_fresh": 1, "author": ["Michael Sragow"]},
{"text": "The result is nothing less than magical, a throwback to the very best of early Disney. If I can't remember the last time I was this enchanted by an animated film, it's because I was too young.", "is_fresh": 1, "author": ["Jack Mathews"]},
{"text": "To watch Spirited Away feels like a special gift. It is a film of such startling imagination, originality, intelligence, and emotion that I feel inexplicable joy when the opening title card fades in.", "is_fresh": 1, "author": ["Christopher Runyon"]},
{"text": "It's an amazing work, filled with a visual intelligence that's meticulously composed and obscenely clever.", "is_fresh": 1, "author": ["Michael Agger"]},
{"text": "Miyazaki's luminescent, gorgeously realized world is relatively safe for children, but it also acknowledges blood, pain, dread, and death in ways that other animated films wouldn't dare.", "is_fresh": 1, "author": ["Tasha Robinson"]},
{"text": "Spirited Away has much to say about many worthy things: the life of the spirit, materialist greed, the importance of words, the power of love.", "is_fresh": 1, "author": ["Joe Morgenstern"]},
{"text": "Anything but your regular 'toon, it's a (literally) fantastic experience.", "is_fresh": 1, "author": []},
{"text": "At times it's even vaguely reminiscent of The Wizard of Oz, only as if illustrated by Hieronymus Bosch. It's wonderful.", "is_fresh": 1, "author": ["Leah Rozen"]},
{"text": "Director Hayao Miyazaki's insistence on hand-drawn graphics gives the CGI visuals an ethereal charm that ensures the story is always a pleasure to behold, even during its rare moments of inaction.", "is_fresh": 1, "author": ["David Parkinson"]},
{"text": "...a gorgeously animated yet sporadically entertaining endeavor that isn't quite the instant classic one might've expected...", "is_fresh": 0, "author": ["David Nusair"]},
{"text": "Enchanting and impressively crafted.", "is_fresh": 1, "author": ["Ted Shen"]},
{"text": "Magnificent, spellbinding movie has a bit of edge.", "is_fresh": 1, "author": ["Liz Perle"]},
{"text": "Full of riches, thematic and visual, and the best way to understand them is simply to watch the film and take it all in.", "is_fresh": 1, "author": ["Tim Brayton"]},
{"text": "Spirited Away exalts the young girl Chihiro's uncanny experiences into an adventure that is as thrillingly ambiguous as it is vividly soundtracked and illustrated.", "is_fresh": 1, "author": ["Nick Davis"]},
{"text": "Miyazaki once again captures that wonder and the awe of sheer fantasy and utterly amazing beauty and innocence. ", "is_fresh": 1, "author": ["Felix Vasquez Jr."]},
{"text": "Filmgoers of all ages should not pass up the opportunity to experience such a work of staggering imagination.", "is_fresh": 1, "author": ["Michael Dequina"]},
{"text": "Magical is a word used casually about films like this, films about fantasy and childhood. Yet this one really does deserve it.", "is_fresh": 1, "author": ["Peter Bradshaw"]},
{"text": "This persistently fascinating if slightly over-long fairytale is propelled by the seemingly boundless imagination of writer-director Hayao Miyazaki.", "is_fresh": 1, "author": ["Joe Lozito"]},
{"text": "Spirited Away is wonderful.", "is_fresh": 1, "author": ["Daniel Etherington"]},
{"text": "A fractured, knotted story about adjusting to new surroundings and having courage in the face of peril.", "is_fresh": 1, "author": ["Mark Halverson"]},
{"text": "Think you're too hip for Japanese anime about a lost ten-year-old girl whose parents turn into snorting pigs? Get over it.", "is_fresh": 1, "author": ["Peter Travers"]},
{"text": "Miyazaki has created a complete, complex world with this film, and it's certainly a magical journey. Very, very good entertainment.", "is_fresh": 1, "author": ["Jason Gorber"]},
{"text": "Despite a dip midway through, this is a captivating fantasy that sets a new benchmark for animation.", "is_fresh": 1, "author": ["Patrick Peters"]},
{"text": "Initially seems like a Through the Looking-Glass fantasy, but rapidly picks up a resonance, weight and complexity that make it all but Shakespearean.", "is_fresh": 1, "author": ["Tony Rayns"]},
{"text": "I struggled to find the source of imperfection in this film", "is_fresh": 1, "author": ["Dragan Antulov"]},
{"text": "Far and away the best film I've seen this year.", "is_fresh": 1, "author": ["Jeffrey Overstreet"]},
{"text": "Not instructive, as Disney is, and not aloof, like anime. Spirited Away is fun without being a lesson, and it welcomes you in.", "is_fresh": 1, "author": ["Jake Euker"]},
{"text": "'Mostrando un profundo respeto por el mundo espiritual, Miyazaki logra una verdadera joya de la animaci\u00f3n que a veces raya en lo po\u00e9tico'", "is_fresh": 1, "author": ["Jorge Avila Andrade"]},
{"text": "It races along with the speed of a bullet train, visiting weird, enchanted places the likes of which have never been seen before.", "is_fresh": 1, "author": ["Anton Bitel"]},
{"text": "The wonders never stop.", "is_fresh": 1, "author": ["Jurgen Fauth"]},
{"text": "Miyazaki conf\u00eda en la inteligencia del p\u00fablico y en su capacidad de asombro, y ambas cosas las pone a prueba constantemente en este viaje extraordinario donde todo, cualquier cosa, puede pasar en cualquier momento.", "is_fresh": 1, "author": ["Enrique Buchichio"]},
{"text": "Even if CG cartoons come to dominate Japan as they do much of the world, there's a corner of the animation field that will be forever Miyazaki.", "is_fresh": 1, "author": ["Andrew Osmond"]},
{"text": "One of the most impressive animated features of this year, or any other.", "is_fresh": 1, "author": ["Jamie Russell"]},
{"text": "A genuinely magical experience that both adults and children will enjoy. See it -- you'll be glad you did.", "is_fresh": 1, "author": ["Matthew Turner"]},
{"text": "Spirited Away transcends masterpiece status. Composed of layer upon layer, it creates its own terminology.", "is_fresh": 1, "author": ["Gabe Leibowitz"]},
{"text": "Can at best be described as a surreal blend of Alice in Wonderland and The Wizard of Oz", "is_fresh": 1, "author": ["James O'Ehley"]},
{"text": "\u00c9 como se David Lynch tivesse dirigido sua pr\u00f3pria vers\u00e3o de Alice no Pa\u00eds das Maravilhas.", "is_fresh": 1, "author": ["Pablo Villa\u00e7a"]},
{"text": "To call this film inventive is to grossly understate its accomplishment.", "is_fresh": 1, "author": ["Bryant Frazer"]},
{"text": "What separates Miyazaki's animation from everyone else's is the way he imagines his worlds.", "is_fresh": 1, "author": ["Blake Davis"]},
{"text": "An explosion of original artwork, weird characters and thought-provoking action", "is_fresh": 1, "author": ["Mark Robison"]},
{"text": "I could hardly wait for the next plot twist or astonishing set piece, not to mention what visual magic Miyazaki still had up his sleeve (and he has plenty!).", "is_fresh": 1, "author": ["Rich Cline"]},
{"text": "Yes, Spirited Away is a triumph of imagination, but it's also a failure of storytelling.", "is_fresh": 0, "author": ["David Cornelius"]},
{"text": "...its visual style is remarkably beauteous and its creative touches abundantly imaginative.", "is_fresh": 1, "author": ["John J. Puccio"]},
{"text": "Much of what makes the film work lies in the combination of its small touches and emotionalism, making it something more than a film for people who like to get stoned and go watch freaky animation (though it almost certainly works on that level, too).", "is_fresh": 1, "author": ["Ken Hanke"]},
{"text": "I hate to gush in the first sentence of a review, but I absolutely love this film.", "is_fresh": 1, "author": ["Mark Dujsik"]},
{"text": "The most enchanting thing about Miyazaki's work is his desire to do just that -- enchant.", "is_fresh": 1, "author": ["Sandra Hall"]},
{"text": "Another classic movie from the master of Japanese animation.", "is_fresh": 1, "author": ["Robert Roten"]},
{"text": "One of the greatest animated films ever made.", "is_fresh": 1, "author": ["Wesley Lovell"]},
{"text": "like a combination of 'The Wizard of Oz' and 'Alice in Wonderland' retold by a clever storyteller who incorporates his own details, twists and bits of humor into the plot.", "is_fresh": 1, "author": ["James Sanford"]},
{"text": "It's a wonderful example of traditional Japanese anime, and a flat-out terrific film.", "is_fresh": 1, "author": ["Jean Lowerison"]},
{"text": "Repeatedly reminded me of the later Oz books, with Chihiro's Dorothyesque role in a surreal and perilous fantasy land.", "is_fresh": 1, "author": ["Karina Montgomery"]},
{"text": "As soft and strange as a dream.", "is_fresh": 1, "author": ["MaryAnn Johanson"]},
{"text": "It's the sort of film that gives rise to the awed question, 'How did he do that?'", "is_fresh": 1, "author": ["Arthur Lazere"]},
{"text": "Taking a page from \"Alice In Wonderland\" seems to have helped.", "is_fresh": 1, "author": ["Joshua Tyler"]},
{"text": "It's weird, wonderful, and not necessarily for kids.", "is_fresh": 1, "author": ["Linda Cook"]},
{"text": "A wierd and fulfilling fantasy, chalk full of inspired transporting imagery, crucial to the success of animated films but in short supply of late.", "is_fresh": 1, "author": ["Nathaniel Rogers"]},
{"text": "A rich and fantastic world awaits us in this extraordinary film from Hayao Miyazaki (and a crew of thousands), through which our little heroine has to progress and learn responsibility amidst great dangers and fearsome spirits.", "is_fresh": 1, "author": ["Urban Cinefile Critics"]},
{"text": "The imagery is rich, colorful and imaginative -- as you'd expect from Miyazaki.", "is_fresh": 1, "author": ["Jack Garner"]},
{"text": "Creative beyond all reason or expectation, this deserving winner of the Best Animated Feature Oscar is a phenomenal achievement.", "is_fresh": 1, "author": ["Matt Brunson"]},
{"text": "We are thrust into a kaleidoscopic wonderland for more than two hours, quite long for an animated film. There's enough adventure and jeopardy in this film to fill five films of this nature.", "is_fresh": 1, "author": ["Josh Gilchrist"]},
{"text": "It's a bloody shame that the anime film with the strongest theatrical push I can remember has to be this one.", "is_fresh": 1, "author": ["Widgett Walls"]},
{"text": "Miyazaki's nonstop images are so stunning, and his imagination so vivid, that the only possible complaint you could have about Spirited Away is that there is no rest period, no timeout.", "is_fresh": 1, "author": ["Eleanor Ringel Cater"]},
{"text": "Sorry, y'all -- I give up.", "is_fresh": 0, "author": ["Stephen Himes"]},
{"text": "La cinta animada m\u00e1s hermosa que he visto jam\u00e1s.", "is_fresh": 1, "author": ["Alex Ramirez"]},
{"text": "Prepare to be Spirited Away by this amazing animated film.", "is_fresh": 1, "author": ["Gerry Shamray"]},
{"text": "Filled with haunting imagery, subtly rendered characters and an emotional core absent from most anime, Spirited Away is a rich cinematic experience, a story that reads like direct translation of the director's dream...", "is_fresh": 1, "author": ["Philip Martin"]},
{"text": "Spirited Away conjures up a beautiful, diverse, richly envisioned tale that constantly delights... even when it verges on the limits of coherence.", "is_fresh": 1, "author": ["Rob Vaux"]},
{"text": "In scene after scene, Spirited Away unleashes so much wonder and visual imagination that you end up watching the movie in a state of rapturous, awestruck bliss.", "is_fresh": 1, "author": ["Rene Rodriguez"]},
{"text": "It's perplexing but always enthralling.", "is_fresh": 1, "author": ["Jeff Vice"]},
{"text": "The version you'll see has been well dubbed.", "is_fresh": 1, "author": ["Lawrence Toppman"]},
{"text": "A feast for lovers of animation.", "is_fresh": 1, "author": ["Margaret A. McGurk"]},
{"text": "Miyazaki ... conjures up worlds that are wondrously bizarre yet follow their own peculiar logic.", "is_fresh": 1, "author": ["Sean P. Means"]},
{"text": "It's easy to get lost amid the flow, as characters transform and magical powers emerge and disappear without warning.", "is_fresh": 1, "author": ["Phil Villarreal"]},
{"text": "As surreal as a dream and as detailed as a photograph, as visually dexterous as it is at times imaginatively overwhelming.", "is_fresh": 1, "author": ["Duane Dudek"]},
{"text": "This gorgeous epic is guaranteed to lift the spirits of the whole family.", "is_fresh": 1, "author": ["Peter Bernard"]},
{"text": "Spirited Away is a wonderous tale for grade schoolers that never condescends or spoon feeds its themes. Miyazaki's characters and situations are so engaging that he can condemn greed and environmental negligence without ever sermonizing.", "is_fresh": 1, "author": ["Dan Lybarger"]},
{"text": "Genius and nothing but -- that's what Miyazaki means.", "is_fresh": 1, "author": ["Marc Savlov"]},
{"text": "'Alice in Wonderland meets the East...taking full advantage of the complex powers of anime and its freedom to go wherever the mind can imagine.'", "is_fresh": 1, "author": ["Anita Schmaltz"]},
{"text": "Let's keep it simple: Miyazaki is a genius, and this film is a masterpiece; go see it.", "is_fresh": 1, "author": ["Shawn Levy"]},
{"text": "At the almost-two-hour mark, the film, which seems poised to keep going with yet another bravura sequence of magic, suddenly wraps everything up really fast.", "is_fresh": 1, "author": ["D.K. Holm"]},
{"text": "Visually imaginative, thematically instructive and thoroughly delightful, it takes us on a roller-coaster ride from innocence to experience without even a hint of that typical kiddie-flick sentimentality.", "is_fresh": 1, "author": ["Jay Boyar"]},
{"text": "That the story sometimes makes not a lick of sense is among its virtues, imparting as it does the exhilarating feeling that anything can happen.", "is_fresh": 1, "author": ["Steve Schneider"]},
{"text": "A breathtakingly magical animated fable that lifts your spirits and carries you away to a world far beyond your wildest imagination.", "is_fresh": 1, "author": ["David N. Butterworth"]},
{"text": "At its heart and most importantly, Spirited Away concerns a little girl learning to honour her friends and her family by valuing herself.", "is_fresh": 1, "author": ["Walter Chaw"]},
{"text": "A true work of art from one of our greatest living filmmakers.", "is_fresh": 1, "author": ["Mark Palermo"]},
{"text": "[Spirited Away is] the most deeply and mysteriously satisfying animated feature to come along in ages.", "is_fresh": 1, "author": ["Peter Rainer"]},
{"text": "The colors, textures, and settings are impressively beautiful, and the overall effect is mystical and magical, familiar and dreamlike.", "is_fresh": 1, "author": ["Marty Mapes"]},
{"text": "There is a force of visual rapture in Spirited Away.", "is_fresh": 1, "author": ["David Elliott"]},
{"text": "Packed with strange beings amid painterly settings, Spirited Away delivers one of the most colorful fantasy worlds since the similarly surreal Yellow Submarine.", "is_fresh": 1, "author": ["Bruce Westbrook"]},
{"text": "Children may not understand everything that happens -- I'm not sure even Miyazaki himself does -- but they will almost certainly be fascinated, and undoubtedly delighted.", "is_fresh": 1, "author": ["Terry Lawson"]},
{"text": "Miyazaki floods the screen with beautiful scenes and enough fascinating creatures to put Pokemon to shame.", "is_fresh": 1, "author": ["Robert Denerstein"]},
{"text": "One of [Miyazaki's] finest.", "is_fresh": 1, "author": ["Scott Thill"]},
{"text": "...brilliant in its imagery and astonishing in its creativity. Many films are billed as voyages into fantasy, but this one actually delivers.", "is_fresh": 1, "author": ["Bill Muller"]},
{"text": "'Alice's adventure through the looking glass and into zombie-land' is filled with strange and wonderful creatures.", "is_fresh": 0, "author": ["Cherryl Dawson and Leigh Ann Palone"]},
{"text": "That rare movie that has the emotional and psychological depth to match its stunning surface.", "is_fresh": 1, "author": ["Tom Maurstad"]},
{"text": "A film not to miss.", "is_fresh": 1, "author": ["Clint Morris"]},
{"text": "The closest American counterpart to Spirited Away is Alice in Wonderland, but no analogy will fully prepare you.", "is_fresh": 1, "author": ["Dan Fazio"]},
{"text": "An exquisitely formed, flawlessly executed masterwork...As sheerly imaginative and groundbreakingly wondrous as any animated motion picture you are sure to have seen.", "is_fresh": 1, "author": ["Dustin Putman"]},
{"text": "To say that Miyazaki's intelligent, painstaking, hand-crafted anime is magical, dazzling and brilliant is an understatement - it's incomparable, ingenious and inventive -just watch for a win at Osca-time!", "is_fresh": 1, "author": ["Susan Granger"]},
{"text": "This is one heck of a movie, and one can see why it made all that money in Japan.", "is_fresh": 1, "author": ["Eric Lurio"]},
{"text": "There's a sense of delicacy, and artfulness, in the tone and in the magic. The 10-year-olds who see this like to be scared, but they won't have nightmares days afterward.", "is_fresh": 1, "author": ["Michael Szymanski"]},
{"text": "An animated film that is among the most delightful, imaginative stories I've seen all year.", "is_fresh": 1, "author": ["Eric D. Snider"]},
{"text": "Spirited Away is a trip, in the literal, metaphorical and indeed lysergic senses of that word.", "is_fresh": 1, "author": ["Andrew O'Hehir"]},
{"text": "For all its slapstick and even the occasional gross-out gag, Spirited Away is an animated film whose major delights are also its subtlest.", "is_fresh": 1, "author": ["Marshall Fine"]},
{"text": "Although anime features aren't all the rage in a majority of American movie theaters, Spirited Away should be a legitimate excuse to change this pending sentiment.", "is_fresh": 1, "author": ["Frank Ochieng"]},
{"text": "Miyazaki has created such a vibrant, colorful world, it's almost impossible not to be swept away by the sheer beauty of his images.", "is_fresh": 1, "author": ["Ethan Alter"]},
{"text": "Steeped in lore and unabashedly surreal, the film is just charming enough for children and just bizarre enough for adults -- a perfect balance.", "is_fresh": 1, "author": ["Joe Baltake"]},
{"text": "Even when Spirited Away follows the easy route, with true love as the solvent to most problems, it's so jam-packed with spectacular images, sights, and sounds that it conjures up a million dreams you've had (lovely, awesome, and terrifying) and tra", "is_fresh": 1, "author": ["Jeremiah Kipp"]},
{"text": "Something akin to a Japanese Alice Through the Looking Glass, except that it seems to take itself far more seriously.", "is_fresh": 0, "author": ["Rob Blackwelder"]},
{"text": "This fantastically weird cartoon is definitely one of the most intriguing movies of the year.", "is_fresh": 1, "author": ["Paul Salfen"]},
{"text": "Miyazaki seems to have an inexhaustible supply of ideas to fill the screen and to fill screen time.", "is_fresh": 1, "author": ["Mark R. Leeper"]},
{"text": "Miyazaki is one of world cinema's most wondrously gifted artists and storytellers.", "is_fresh": 1, "author": ["David Hunter"]},
{"text": "Has few rivals as a work of visual imagination.", "is_fresh": 1, "author": ["Mike D'Angelo"]},
{"text": "The shape-shifting creatures might be a little too imaginative for traditional audiences to get their heads around.", "is_fresh": 1, "author": ["Stacie Hougland"]},
{"text": "Miyazaki has provided another triumph, and, in the midst of the quality fall-off of Disney's in-house animated projects, a reason for animation-lovers to rejoice.", "is_fresh": 1, "author": ["James Berardinelli"]},
{"text": "Watching Spirited Away is like watching an Eastern imagination explode.", "is_fresh": 1, "author": ["Jeffrey Chen"]},
{"text": "A smashing technical achievement coming out against greed, gluttony, and pre-adolescent whining.", "is_fresh": 1, "author": ["Harvey S. Karten"]},
{"text": "Miyazaki understands the magic Disney intended, and he elevates it to a higher realm of dreamy, worldly mysticism that is appealing to children of all ages and temperaments.", "is_fresh": 1, "author": ["Peg Aloi"]},
{"text": "It almost goes without saying that the animation is jaw dropping.", "is_fresh": 1, "author": ["Aaron Lazenby"]},
{"text": "A cultural wildcard experience: wacky, different, unusual, even nutty.", "is_fresh": 1, "author": ["Desson Thomson"]},
{"text": "Like old myths and wonder tales spun afresh.", "is_fresh": 1, "author": ["Jane Horwitz"]},
{"text": "Even though Disney released this film, Spirited Away points up just how by-the-numbers the studio's fare can be.", "is_fresh": 1, "author": ["Claudia Puig"]},
{"text": "Creating a rare story-world that follows a consistent logic yet allows for most anything to happen, Miyazaki again proves himself to be more genii than filmmaker.", "is_fresh": 1, "author": ["Frank Lovece"]},
{"text": "Spirited Away is every bit as captivating for its sheer graphic power as it is for its message of go-get-'em-girl power.", "is_fresh": 1, "author": ["Geoff Pevere"]},
{"text": "Has the mythic quality and the familiarity of great children's literature.", "is_fresh": 1, "author": ["Chris Hewitt (St. Paul)"]},
{"text": "Miyazaki, the master animator and director of the enchanting Kiki's Delivery Service and Princess Mononoke, leads us through the looking glass as never before in Spirited Away.", "is_fresh": 1, "author": ["Tom Keogh"]},
{"text": "An animation landmark as monumental as Disney's 1937 breakthrough Snow White and the Seven Dwarfs.", "is_fresh": 1, "author": ["Jeffrey M. Anderson"]},
{"text": "A lovely, evocative tour de force.", "is_fresh": 1, "author": ["C.W. Nevius"]},
{"text": "A two-hour feast of visual imagination, consistently rendered at the highest level of graphic art.", "is_fresh": 1, "author": ["Bob Strauss"]},
{"text": "Spirited Away is one of the most richly imaginative and visually spectacular films you will see this year.", "is_fresh": 1, "author": ["Derek Tse"]},
{"text": "This is one of the year's best films.", "is_fresh": 1, "author": ["Roger Ebert"]},
{"text": "Hayao Miyazaki may be one of Japan's leading animators, but in his new film, Miyazaki's Spirited Away, he also envelops you in a wondrous landscape of archetypal magic.", "is_fresh": 1, "author": ["Kevin Courrier"]},
{"text": "Spirited Away delivers chunks of Yellow Submarine and The Phantom Tollbooth -- a vividly timeless oddity suitable for many children and most stoners.", "is_fresh": 1, "author": ["Wesley Morris"]},
{"text": "Hayao Miyazaki's breathtakingly beautiful and poetic Spirited Away -- a Japanese cross between Alice in Wonderland and The Wizard of Oz -- is such a landmark in animation that labeling it a masterpiece almost seems inadequate.", "is_fresh": 1, "author": ["Lou Lumenick"]},
{"text": "Spirited Away is too intense for the youngest viewers, but teenagers will enjoy it -- an ill-smelling 'stink-god' character is almost worthy of a Kevin Smith gross-out movie -- and grown-ups should find it diverting, if not exactly deep.", "is_fresh": 1, "author": ["David Sterritt"]},
{"text": "This animated adventure from genre superstar Hayao Miyazaki has spirit to spare.", "is_fresh": 1, "author": []},
{"text": "Spirited Away has the quality of a dream: It takes you places so foreign and fantastic you have no option but to yield completely to it and be spirited along.", "is_fresh": 1, "author": ["Don Irvine"]},
{"text": "Has an unfortunate animistic sensibility, seeing gods and spirits in all things\u0085 The most striking thing about Spirited Away, however, is its arresting visuals.", "is_fresh": 1, "author": ["Steven D. Greydanus"]},
{"text": "I spent two hours staring at the screen in utter amazement.", "is_fresh": 1, "author": ["Eugene Novikov"]},
{"text": "The magic (and original running time) of ace Japanimator Hayao Miyazaki's Spirited Away survives intact in BV's re-voiced version.", "is_fresh": 1, "author": ["Derek Elley"]},
{"text": "The spark of special anime magic here is unmistakable and hard to resist.", "is_fresh": 1, "author": ["William Arnold"]},
{"text": "The film is not recommended for toddlers and easily frightened little tykes. But for everyone else, kid or grown-up, this thrilling foray into magical realms is a must.", "is_fresh": 1, "author": ["Steven Rea"]},
{"text": "A haunting and indelible fable that warms the chilly soul of Japanese anime and points the way for its American sponsor.", "is_fresh": 1, "author": ["Jan Stuart"]},
{"text": "A marriage between the power of Mononoke and the lively pop-pop-pop of his film My Friend Totoro.", "is_fresh": 1, "author": ["Elvis Mitchell"]},
{"text": "Writing about a film like Spirited Away isn't about regurgitating information out for those who know little about it, but more of an experience in reminiscing.", "is_fresh": 1, "author": ["Erik Childress"]},
{"text": "If you're dispirited by look-alike, sound-alike, think-alike movies, disturbed by an art form that seems not only to tolerate, but also to reward a paucity of imagination, you're not going to believe your luck.", "is_fresh": 1, "author": ["Kenneth Turan"]},
{"text": "This English-language version ... does full honor to Miyazaki's teeming and often unsettling landscape, and to the conflicted complexity of his characters.", "is_fresh": 1, "author": ["David Chute"]},
{"text": "A must-see for Japanamation fans, anyone familiar with Japanese folklore, or anyone sick of the boring stories that typically accompany American animation.", "is_fresh": 1, "author": ["Jon Popick"]},
{"text": "Every scene brings a new set of wonders to delight and sometimes stagger the mind", "is_fresh": 1, "author": ["Jeffrey Westhoff"]},
{"text": "This instant classic spins a web that will snare anyone with an imagination.", "is_fresh": 1, "author": ["Tor Thorsen"]},
{"text": "A work of beauty with a surprising capacity to be cute and cunning.", "is_fresh": 1, "author": ["Mary F. Pols"]},
{"text": "A movie full of bewitching images and timeless fun and beauty.", "is_fresh": 1, "author": ["Michael Wilmington"]},
{"text": "I might as well just come out and say it: Spirited Away is the best movie I've seen all year.", "is_fresh": 1, "author": ["Luke Y. Thompson"]},
{"text": "Nothing short of wonderful with its ten-year-old female protagonist and its steadfast refusal to set up a dualistic battle between good and evil.", "is_fresh": 1, "author": ["Frederic and Mary Ann Brussat"]},
{"text": "Not as visually awesome as 'Princess Mononoke,' but more appealing to youngsters. A wonderful combination of simplicity and spectacle.", "is_fresh": 1, "author": ["Betty Jo Tucker"]},
{"text": "It's a beautiful experience, nearly perfect with a fragile flowing fluid score.", "is_fresh": 1, "author": ["Ross Anthony"]},
{"text": "A triumph of psychological depth and artistic brilliance.", "is_fresh": 1, "author": ["Lisa Schwarzbaum"]},
{"text": "An epic film of very bizarre proportions... kinda like a Japanese acid trip, but without the drugs.", "is_fresh": 1, "author": ["JoBlo"]},
{"text": "Kudos to the most enchanting film of the year.", "is_fresh": 1, "author": ["Jeanne Aufmuth"]},
{"text": "When animators go to animator heaven, they will probably view drawings of the caliber of those in Sprited Away.", "is_fresh": 1, "author": ["Steve Rhodes"]},
{"text": "An amazing piece of work.", "is_fresh": 1, "author": ["Richard Roeper"]},
{"text": "It's easy to give this one credit for the mind-blowing creativity, but I can't recommend this to anyone who's not already a fan of Miyazaki or mind-expanding drugs...it's just not going to translate.", "is_fresh": 1, "author": ["John Venable"]},
{"text": "Combines some wonderfully imaginative visuals with a plot that, to put it charitably, will seem loony to most American viewers.", "is_fresh": 1, "author": ["Frank Swietek"]},
{"text": "Plot here takes a backseat to set pieces that flow into each other like a glorious stream of consciousness.", "is_fresh": 1, "author": ["Ed Gonzalez"]},
{"text": "Wow.", "is_fresh": 1, "author": ["Edward Havens"]},
{"text": "Even the worst Miyazaki picture is a remarkable achievement, and Spirited Away is one of his better films.", "is_fresh": 1, "author": ["Jeremy Heilman"]},
{"text": "", "is_fresh": 1, "author": ["Susan Stark"]},
{"text": "", "is_fresh": 1, "author": ["Daniel Kasman"]}
]