[
{"reviews_count": "91", "title": "Star Wars: The Empire Strikes Back", "avg_audience_rating": "4.1", "rotten_count": "5", "tomatometer": "95", "audience_score": "97", "avg_critic_rating": "8.9", "fresh_count": "86", "user_ratings_count": "1,053,245"},
{"text": "This is a respectable sequel to Star Wars but not as good.", "is_fresh": 1, "author": ["Bruce McCabe"]},
{"text": "Topping the most successful act in show business history is an impossibility, of course. But that's the challenge facing everyone who worked on \"The Empire Strikes Back.\" They have succeeded to an altogether remarkable extent. ", "is_fresh": 1, "author": ["George Anderson"]},
{"text": "The best 'Star Wars' film, an exciting and thrilling adventure, but also a sober and complex picture. [Full Review in Spanish]", "is_fresh": 1, "author": ["Sebastian Zavala Kahn"]},
{"text": "Has any movie sequel ever so thoroughly surpassed impossible expectations as The Empire Strikes Back?", "is_fresh": 1, "author": ["Tim Brayton"]},
{"text": "...an erratically-paced yet consistently entertaining installment in a not-quite-great sci-fi series.", "is_fresh": 1, "author": ["David Nusair"]},
{"text": "The Empire Strikes Back is no bland derivative. It has all the freshness and exuberance of an original. A marvellous space fantasy full of dazzling spectacle, exciting adventure, strange creatures and the mythic clash between good and evil.", "is_fresh": 1, "author": ["Geraldine Pascall"]},
{"text": "The Empire Strikes Back is the ultimate in fantasies, a visual wonder and a movie that should be recommended highly if only because it makes you feel good.", "is_fresh": 1, "author": ["Rena Andrews"]},
{"text": "Despite a couple of drawbacks, the Empire Strikes Back is an immense amount of fun -- big and splashy and breathtaking in its display of cinematic genius by a huge group of marvelously talented people.", "is_fresh": 1, "author": ["Joe Pollack"]},
{"text": "To answer the big question first: Yes, The Empire Strikes Back is just as enjoyable as Star Wars. In fact, this is one sequel that defies tradition by being better than the original on several counts -- most of them technical, but a few dramatic.", "is_fresh": 1, "author": ["Robert W. Butler"]},
{"text": "Another richly imaginative, engrossing and spectacular motion picture from the redoubtable George Lucas.", "is_fresh": 1, "author": ["Charles Champlin"]},
{"text": "The Empire may not top Star Wars, but it certainly makes one look forward to whatever new surprises George Lucas and his band of cinematic wizards can conjure up for us.", "is_fresh": 1, "author": ["Arthur Knight"]},
{"text": "It is technically even more proficient [than Star Wars], has virtually the same ingredients and bursts forth into a world that still seems ripe for its special blend of nostalgically simple story-telling and complicated technology.", "is_fresh": 1, "author": ["Derek Malcolm"]},
{"text": "It is hard to place one's affections anywhere in a world which is ruled by buttons and dials, computers and bleeps, and people whose conversation is... technical, inaudible or dull.", "is_fresh": 0, "author": ["Eric Shorter"]},
{"text": "The younger actors are now more confident.", "is_fresh": 1, "author": ["Michael Wilmington"]},
{"text": "A spectacular piece of work that carries the new \"Star Wars\" tradition forward.", "is_fresh": 1, "author": ["Ernest Leogrande"]},
{"text": "See it and prepare to be captivated by the most spellbinding sci-fi film of them all.", "is_fresh": 1, "author": ["Jeffrey Lyles"]},
{"text": "Director Irvin Kershner's imaginative supervision of George Lucas's brainchild gives this second part of the first Star Wars trilogy a truly epic dimension, adding a mature, philosophical aspect to the nonstop barrage of brilliant special effects.", "is_fresh": 1, "author": ["Alan Jones"]},
{"text": "It's darker than the original, and perhaps less well structured, but it combines gorgeous visuals and surprisingly deep human emotions.", "is_fresh": 1, "author": []},
{"text": "It's not up to the original.", "is_fresh": 0, "author": ["Ralph Novak"]},
{"text": "The best of the original series, but the most intense, too.", "is_fresh": 1, "author": ["Charles Cassady"]},
{"text": "Continues to set the standards for sequels to this day...", "is_fresh": 1, "author": ["Felix Vasquez Jr."]},
{"text": "O melhor de toda a s\u00e9rie, este epis\u00f3dio abra\u00e7a o potencial sombrio do universo concebido por Lucas e consegue equilibrar com efici\u00eancia os aspectos infantis da narrativa com os momentos de maior densidade.", "is_fresh": 1, "author": ["Pablo Villa\u00e7a"]},
{"text": "In many ways the new film is a better film than Star Wars, visually more exciting, more artful and meticulous in detail.", "is_fresh": 1, "author": ["Gerald Clarke"]},
{"text": "Despite ... an unresolved storyline that paves the way for its dismal sequel, Empire remains in many ways the best (indeed the last good) Star Wars film.", "is_fresh": 1, "author": ["Steve Biodrowski"]},
{"text": "A more mature instalment than its predecessor, loaded with spectacular special effects and efficiently written, this may well be the pinnacle of the saga.", "is_fresh": 1, "author": []},
{"text": "The Empire Strikes Back is a worthy sequel to Star Wars, equal in both technical mastery and characterization, suffering only from the familiarity with the effects generated in the original and imitated too much by others.", "is_fresh": 1, "author": ["James Harwood"]},
{"text": "Each section of the film has a stand-out sequence that inspires hyperbole like 'best ever.'", "is_fresh": 1, "author": ["Rob Gonsalves"]},
{"text": "Irvin Kershner directed the actors this time around, and without the benefit of Lucas's personal affection they seem stiffer, more clenched.", "is_fresh": 0, "author": ["Dave Kehr"]},
{"text": "The most imaginative and emotionally connectable \"Star Wars\" film and, with the exception of \"Revenge of the Sith,\" also the darkest.", "is_fresh": 1, "author": ["Phil Villarreal"]},
{"text": "The second act is very strong, cutting back and forth between Luke training with Yoda and Han, Leia, Chewie and C-3P0 fighting the Empire. And it's paced leisurely enough that you get to know the characters a little bit.", "is_fresh": 1, "author": ["Jeffrey M. Anderson"]},
{"text": "An extended ricochet from one incendiary set-piece battle to another which still finds time to attend to plot, pace and character.", "is_fresh": 1, "author": ["John O'Connell"]},
{"text": "The best of the films.", "is_fresh": 1, "author": ["Scott Nash"]},
{"text": "Sci-fi cinema at its best.", "is_fresh": 1, "author": ["Michael Dequina"]},
{"text": "Everything you loved about A New Hope and more.", "is_fresh": 1, "author": ["Jason Zingale"]},
{"text": "The backbone of the Star Wars saga\u0085 takes the story and themes of the first film into deeper waters.", "is_fresh": 1, "author": ["Steven D. Greydanus"]},
{"text": "...the deepest, darkest, most mature, and most thoughtful entry in the series.", "is_fresh": 1, "author": ["John J. Puccio"]},
{"text": "The Empire Strikes Back is a total delight.", "is_fresh": 1, "author": ["Frederic and Mary Ann Brussat"]},
{"text": "The best Star Wars movie, ever!", "is_fresh": 1, "author": ["Stefan Birgir Stefansson"]},
{"text": "The film spends more time on its characters and unlike the previous film they aren't as busy with all kinds of swashbuckling adventures.", "is_fresh": 1, "author": ["James O'Ehley"]},
{"text": "A darker, richer, and more elaborate film than the original.", "is_fresh": 1, "author": []},
{"text": "The most interesting of the series", "is_fresh": 1, "author": ["Jon Niccum"]},
{"text": "To see The Empire Strikes Back again on the big screen is a real treat and it brings to mind that clich\u00e9 they don't make 'em like this anymore.", "is_fresh": 1, "author": ["Robert Roten"]},
{"text": "Easily the best of the Star Wars saga, sad but thrilling.", "is_fresh": 1, "author": ["Dan Lybarger"]},
{"text": "It was incredible to see what is arguably the best of the Star Wars films, on the big screen again.", "is_fresh": 1, "author": ["Chris Gore"]},
{"text": "In Empire, creator George Lucas' childlike epic ventures into complex territory that gives the story a touch of psychological heft its siblings lack.", "is_fresh": 1, "author": ["Margaret A. McGurk"]},
{"text": "It's the best film of the series, and one of the greatest sci-fi flicks ever made.", "is_fresh": 1, "author": ["Kevin N. Laforest"]},
{"text": "El Episodio V es el m\u00e1s oscuro de la saga de Star Wars, pero tambi\u00e9n, el m\u00e1s seductor.", "is_fresh": 1, "author": ["Luis Martinez"]},
{"text": "The total effect is fast and attractive and occasionally amusing. Like a good hot dog, that's something of an achievement in a field where unpalatable junk is the rule.", "is_fresh": 1, "author": ["Judith Martin"]},
{"text": "By far the best part of the trilogy, Empire is a classic that completely transcends its genre, with a reputation that can only grow and grow.", "is_fresh": 1, "author": ["Tom Coates"]},
{"text": "A Star Wars that has not only lost much of its humor and charm but more important a good deal of its innocence, traveling in the process light years away from the shiny first magnitude of its original world.", "is_fresh": 0, "author": ["Joy Gould Boyum"]},
{"text": "may always be the middle child of the Star Wars Trilogy, but it will always remain the stronges", "is_fresh": 1, "author": ["James Kendrick"]},
{"text": "I found myself glancing at my watch almost as often as I did when I was sitting through a truly terrible movie called The Island.", "is_fresh": 0, "author": ["Vincent Canby"]},
{"text": "A superior motion picture!", "is_fresh": 1, "author": ["James Berardinelli"]},
{"text": "It is a visual extravaganza from beginning to end, one of the most visionary and inventive of all films.", "is_fresh": 1, "author": ["Roger Ebert"]},
{"text": "For many Star Wars fans, this second installment is the best of the George Lucas trilogy: a dark, ultimately melancholy, even philosophical episode that has no triumphant happy ending.", "is_fresh": 1, "author": ["John Hartl"]},
{"text": "Star Wars made my eyes pop out when I first saw it in 1977!", "is_fresh": 1, "author": ["Sean P. Means"]},
{"text": "It's impossible to imagine a person leaving the theatre feeling like he didn't get his money's worth.", "is_fresh": 1, "author": ["Jimmy Summers"]},
{"text": "A dramatic illustration of the continued technical brilliance and leadership of the Lucas production team.", "is_fresh": 1, "author": ["Gary Arnold"]},
{"text": "This 1980 sequel is a stronger film with cooler effects, more action, a better storyline and superior wisecracks.", "is_fresh": 1, "author": []},
{"text": "Bigger, better, faster, wiser and funnier than its predecessor!", "is_fresh": 1, "author": ["Louis B. Hobson"]},
{"text": "I think I can recite most of the dialogue from The Empire Strikes Back -- I mean, even R2's clicks and beeps. Isn't that sad?", "is_fresh": 1, "author": ["MaryAnn Johanson"]},
{"text": "It balances bloodshed with charm, spectacle with childlike glee. It's a near flawless movie of its kind.", "is_fresh": 1, "author": ["Gene Siskel"]},
{"text": "Nothing in the Star Wars canon betters this.", "is_fresh": 1, "author": ["Ian Nathan"]},
{"text": "The Empire Strikes Back is everything most Star Wars fans hoped it would be -- a colorful, exciting, witty and adventuresome continuation of the saga of Luke Skywalker.", "is_fresh": 1, "author": ["Jack Garner"]},
{"text": "The finest and most mature of the three.", "is_fresh": 1, "author": ["Urban Cinefile Critics"]},
{"text": "The script again is imaginative and full of laughs. Poor Chewy remains the brunt of the many of the jokes.", "is_fresh": 1, "author": ["Steve Rhodes"]},
{"text": "In the glory days of science fiction, critics wrote about the 'sense of wonder.' That's what The Empire Strikes Back creates in us", "is_fresh": 1, "author": ["Susan Stark"]},
{"text": "Genuinely powerful!", "is_fresh": 1, "author": ["Joe Baltake"]},
{"text": "Loaded with perfectly timed comic relief and full of rich characters!", "is_fresh": 1, "author": ["Chris Hicks"]},
{"text": "I've always found Empire to be the Hamlet of science fiction, basically because nothing good happens to the hero in the entire story.", "is_fresh": 1, "author": ["Christopher Null"]},
{"text": "The most classic in its style, design and narrative.", "is_fresh": 1, "author": ["Bruce Westbrook"]},
{"text": "The balance between action and mysticism in Empire provides fascinating energy.", "is_fresh": 1, "author": ["Peter Stack"]},
{"text": "The greatest episode of the Star Wars Trilogy!", "is_fresh": 1, "author": ["Bob Stephens"]},
{"text": "It is still one of the better sequels Hollywood has ever produced!", "is_fresh": 1, "author": ["Rob Blackwelder"]},
{"text": "Great follow-up to the original tale of a galaxy far, far away, this film has plenty of action, one-liners, special-effects, good vs evil rivalries and a pleasantly dark ending.", "is_fresh": 1, "author": ["JoBlo"]},
{"text": "Scattered and less focused, the second of the Star Wars trilogy to be re-released in the Special Edition format remains a deep pleasure to behold.", "is_fresh": 1, "author": ["Stephen Hunter"]},
{"text": "The Empire Strikes Back is a technological triumph, a cornucopia of intergalactic tchotchkes.", "is_fresh": 1, "author": ["David Ansen"]},
{"text": "Technical virtuosity and entertainment ingenuity.", "is_fresh": 1, "author": ["David Sterritt"]},
{"text": "Sophisticated!", "is_fresh": 1, "author": ["Jim Judy"]},
{"text": "One of the great space operas of all time!", "is_fresh": 1, "author": ["Roger Moore"]},
{"text": "Have you heard of this one? Sequel to Star Wars?", "is_fresh": 1, "author": ["Scott Weinberg"]},
{"text": "The Empire Strikes Back has always been the best written and best shot of the three Star Wars films, and with the enhancements, it looks like it will have a good chance at holding the title.", "is_fresh": 1, "author": ["Madeleine Williams"]},
{"text": "Here was a blockbuster which had the audacity to mess with the most successful film formula anyone had yet discovered, a feature film which ended the way feature films just weren't supposed to end: with a cliff-hanger worthy of the old radio serials.", "is_fresh": 1, "author": ["Scott Renshaw"]},
{"text": "The sequel that rose above the high standards set by its glorious predecessor.", "is_fresh": 1, "author": ["Dragan Antulov"]},
{"text": "The storytelling is the series' best, with a zingy balance of drama, humor, and Deep Thoughts.", "is_fresh": 1, "author": ["Lisa Schwarzbaum"]},
{"text": "", "is_fresh": 1, "author": ["Wesley Lovell"]},
{"text": "", "is_fresh": 1, "author": ["Blake French"]},
{"text": "", "is_fresh": 1, "author": ["Jeffrey Westhoff"]},
{"text": "", "is_fresh": 1, "author": ["Brandon Judell"]},
{"text": "", "is_fresh": 1, "author": ["Nell Minow"]},
{"text": "", "is_fresh": 1, "author": ["Mark Palermo"]}
]