[
{"reviews_count": "290", "title": "Star Wars: Revenge of The Sith", "avg_audience_rating": "3.1", "rotten_count": "60", "tomatometer": "79", "audience_score": "65", "avg_critic_rating": "7.3", "fresh_count": "230", "user_ratings_count": "33,681,856"},
{"text": "I really enjoyed watching Revenge of the Sith. It is a strong film with a strong story, great effects and much improved dialog.", "is_fresh": 1, "author": ["John Campea"]},
{"text": "Lucas controls himself, unlike in the previous prequels, and sticks to the most poignant issues, which makes the transition from Sith to A New Hope effortless.", "is_fresh": 1, "author": ["Kiko Martinez"]},
{"text": "Lucas is not a master of writing dialogue... but save for some exaggerated or somewhat absurd moments, \"Revenge of the Sith\" is a great \"Star Wars\" movie, a roller coaster of action and emotion. [Full review in Spanish]", "is_fresh": 1, "author": ["Sebastian Zavala Kahn"]},
{"text": "Some of it is is truly, unmissably great. Some of it is hilariously awful, and some of it is awful enough to not even crawl up to the level of hilarity", "is_fresh": 0, "author": ["Tim Brayton"]},
{"text": "The special effects, of course, are incomparably good and the digital photography achieves a dazzling clarity.", "is_fresh": 1, "author": ["Evan Williams"]},
{"text": "With a willingness to take the Star Wars saga to its necessary darkest direction, 'Sith' delivers an epic, masterful payoff to the prequels. ", "is_fresh": 1, "author": ["Jeffrey Lyles"]},
{"text": "The best of Lucas's recent SW trilogy.", "is_fresh": 1, "author": ["Megan Spencer"]},
{"text": "Critics and fans are already praising the movie, claiming it's better than Phantom Menace and Attack of the Clones. But that's not difficult, as both movies were bad, and the new one is just as bad in many ways.", "is_fresh": 0, "author": ["David Walker"]},
{"text": "Star Wars is awesome again.", "is_fresh": 1, "author": ["Christopher Borrelli"]},
{"text": "It soon becomes obvious that there is no avoiding the burden of predictability: there is nothing, essentially, in the film's story that we don't know already.", "is_fresh": 0, "author": ["Philippa Hawker"]},
{"text": "From the opening frames of Lucas' final Star Wars instalment, it's clear the shackles are off.", "is_fresh": 1, "author": ["Rich Phippen"]},
{"text": "Part III is much better than I and II. We should be grateful for that.", "is_fresh": 1, "author": ["Brian Miller"]},
{"text": "Lucas saved the best of his arguably needless prequels for last, finally justifying an entertainment empire and cementing a myth.", "is_fresh": 1, "author": ["Steve Persall"]},
{"text": "Devout fans will have to go. For the rest of us, the best rewards of this show were long ago, in a galaxy that now seems far, far away.", "is_fresh": 0, "author": ["David Elliott"]},
{"text": "Sith comes back with full force.", "is_fresh": 1, "author": ["Daniel Saney"]},
{"text": "It might not be quite the mind-blowing finale that die-hard fans were hoping for, but at least there is enough here to make the spine tingle.", "is_fresh": 1, "author": ["Sloan Freer"]},
{"text": "Despite our knowing where the story goes, Sith keeps your attention through its 140-plus minutes. And that says something about Lucas's skill and the power of the universe he created.", "is_fresh": 1, "author": ["Tim Regan-Porter"]},
{"text": "Say what you want about Lucas' one-take directing style, his over-reliance on blue screens or his cheesy tendency to reference himself, but his imagination is as fertile as ever.", "is_fresh": 1, "author": ["Craig Outhier"]},
{"text": "Special effects have greatly advanced since 1978, but technology needs imagination after it has made an initial impression. Imagination is not the strong suit of Revenge of the Sith.", "is_fresh": 0, "author": ["Philip French"]},
{"text": "The final, bridging movie between George Lucas's two epic Star Wars trilogies ends not with a bang but with plenty of artistic whimpering.", "is_fresh": 0, "author": ["Glenn Sumi"]},
{"text": "Revenge of the Sith is, so Lucas assures us, a 'tragedy'. It might have been wise to have stationed an announcer at every movie house to announce this fact over the PA system since it eluded the audience I saw it with last weekend.", "is_fresh": 0, "author": ["Mark Steyn"]},
{"text": "Revenge of the Sith is far from a great film but it easily trumps its two predecessors.", "is_fresh": 1, "author": ["Jeff Meyers"]},
{"text": "The pity is that Lucas and his team couldn't have just manufactured the toys and the \"Making Of\" coffee table books and given the films a miss.", "is_fresh": 0, "author": ["Nicholas Barber"]},
{"text": "Strong, unrelenting, moving and bracingly exciting, Revenge Of The Sith is a fitting end to a truly great series.", "is_fresh": 1, "author": ["Erin Free"]},
{"text": "For all the hype, I fear this is a film that only the most uncritical Star Wars fans will truly enjoy.", "is_fresh": 0, "author": ["Christopher Tookey"]},
{"text": "I must say that I did get quite emotional in this.", "is_fresh": 1, "author": ["Margaret Pomeranz"]},
{"text": "I think it is visually exciting. I think there are wonderful things in it but I just missed that innocence of the early films.", "is_fresh": 1, "author": ["David Stratton"]},
{"text": "[A] dramatically cogent and highly satisfying finale to the Star Wars saga.", "is_fresh": 1, "author": ["J. R. Jones"]},
{"text": "Thankfully, Star Wars: Episode III - Revenge Of The Sith has a good deal to offer besides its cachet as the farewell to a pop culture.", "is_fresh": 1, "author": ["John Hazelton"]},
{"text": "Episode III mainly is what it is -- the climax of a sometimes grand adventure that's more than the sum of its parts, yet much less than it might have been.", "is_fresh": 1, "author": ["Joe Morgenstern"]},
{"text": "The bar has been set so low in mainstream Hollywood movies that it's not even worth seriously analyzing this stuff", "is_fresh": 1, "author": ["Jay Antani"]},
{"text": "As the finale approached, I just didn't want to leave my seat, because that meant it's all over... supposedly.", "is_fresh": 1, "author": ["Felix Vasquez Jr."]},
{"text": "Lucas slips up on a few fronts en route, but doesn't disappoint when it counts.", "is_fresh": 1, "author": ["Urban Cinefile Critics"]},
{"text": "Of course, being best Star Wars film since Empire Strikes Back isn't saying much, when you consider what came between...", "is_fresh": 0, "author": ["Steve Biodrowski"]},
{"text": "A grave and vigorous popular entertainment, a picture that regains and sustains the filmic Force [Lucas] dreamed up a long time ago, in a movie industry that seems far, far away.", "is_fresh": 1, "author": ["Richard Corliss"]},
{"text": "This one had the most potential, and in that way it is the most disappointing.", "is_fresh": 0, "author": ["Joe Lozito"]},
{"text": "A fitting capstone on a collection of screen classics for the ages!", "is_fresh": 1, "author": ["Kam Williams"]},
{"text": "The only one of the trilogy that actually works as both a good Summer movie and a solid sci-fi movie in its own right.", "is_fresh": 1, "author": ["Garth Franklin"]},
{"text": "It's a profound movie, and a fine one. I've not even mentioned the visual aspect, which is miles above similar effects pictures, but we would expect that, not the excellence of filmmaking that contains it.", "is_fresh": 1, "author": ["Ron Yamauchi"]},
{"text": "full review in Greek", "is_fresh": 1, "author": ["Joseph Proimakis"]},
{"text": "The best-looking Star Wars episode of all, if not the most exciting, most imaginative or most affecting.", "is_fresh": 1, "author": ["Kim Newman"]},
{"text": "Rich in cityscapes and costumes.", "is_fresh": 1, "author": ["Michael E. Grost"]},
{"text": "Lucas is a brilliant technician but a poor philosopher, and his lurchingly thought-out rendering of futuristic politics prevents the entire series from achieving the greatness to which it aspires.", "is_fresh": 0, "author": ["Ken Tucker"]},
{"text": ".. even though Revenge is a better experience than Phantom Menace or Attack of the Clones, it doesn't add anything that satisfying or compelling to the big picture.", "is_fresh": 0, "author": ["Desson Thomson"]},
{"text": "The final third of this dark, brooding epic is utterly mesmerizing, building magnificently to a coda setting up all the events in the original trilogy with an as-to-now (at least in the prequels) unforeseen brilliance", "is_fresh": 1, "author": ["Sara Michelle Fetters"]},
{"text": "For me, Sith succeeds in providing a satisfying ending to the films while also closing a chapter of my own life.", "is_fresh": 1, "author": ["Chris Gore"]},
{"text": "It did what I thought was impossible after the previous two films: it made me a Star Wars fan again.", "is_fresh": 1, "author": ["Pete Vonder Haar"]},
{"text": "A great Star Wars film and, dare I say, a great film onto itself.", "is_fresh": 1, "author": ["Mark Dujsik"]},
{"text": "a visually delicious film filled with ostensibly crowd pleasing (read boring) lightsaber battles...", "is_fresh": 0, "author": ["Cole Smithey"]},
{"text": "McGregor, Portman, and Christensen have all been brilliant elsewhere but the bonds between their characters are all in the dialogue, never between the lines. (And the less said about the lines themselves, the better.)", "is_fresh": 0, "author": ["Keith Phipps"]},
{"text": "As blockbusters go, Revenge of the Sith has some good throwaway entertainment, but there have been better blockbusters with better throwaway entertainment.", "is_fresh": 1, "author": ["Harry Guerin"]},
{"text": "The best thing about Episode III? Jar Jar Binks is barely in it. ", "is_fresh": 0, "author": ["David N. Butterworth"]},
{"text": "Although the stiff theatrics are part of the design, they're no longer excusable.", "is_fresh": 0, "author": ["Joe Williams"]},
{"text": "What makes this movie work is watching Anakin Skywalker break our hearts, and ultimately serve as a textbook example of how the road to hell is paved with good intentions.", "is_fresh": 1, "author": ["David Medsker"]},
{"text": "In years to come George Lucas's farewell to his STAR WARS series may be considered his finest entry.", "is_fresh": 1, "author": ["Mark R. Leeper"]},
{"text": "Against all odds, the movie becomes more than the sum of its creaky parts, building enough emotional firepower to destroy an entire hard-bitten cynic such as myself.", "is_fresh": 1, "author": ["Frank Houston"]},
{"text": "This is the film we yearned for as we sat passively through the shoddy merchandise-oriented Phantom Menace and the dull romantic scenes of Attack of the Clones.", "is_fresh": 1, "author": ["Uri Lessing"]},
{"text": "For the 6th time in a row, George Lucas has done it again.", "is_fresh": 1, "author": ["John R. McEwen"]},
{"text": "Why are blinds wipes and Fisher-Price spaceship interiors employed in a 2005 film?", "is_fresh": 0, "author": ["Mike Sage"]},
{"text": "The film works fine as stand-alone entertainment, but does irreparable harm to the series as a whole.", "is_fresh": 1, "author": ["Jim Chastain"]},
{"text": "A worthy end.", "is_fresh": 1, "author": ["Kamal 'The Diva' Larsuel"]},
{"text": "Star Wars was a gamble in 1977. In 2005 Revenge of the Sith is the Empire.", "is_fresh": 0, "author": ["Jake Euker"]},
{"text": "Master Lucas Strikes Back!", "is_fresh": 1, "author": ["Bruce Bennett"]},
{"text": "Prepare to be blown away because George Lucas\u0092's latest space opera is an absolute belter, recalling the old magic of The Empire Strikes Back and banishing forever painful memories of the last two Star Wars prequels.", "is_fresh": 1, "author": ["David Edwards"]},
{"text": "George Lucas better not write a romance novel next because even Fabio couldn't save it. ", "is_fresh": 1, "author": ["Dan Marcucci and Nancy Serougi"]},
{"text": "Episode III hooks up to its sequel of 1977 as neatly as a space station landing dock.", "is_fresh": 1, "author": ["Jules Brenner"]},
{"text": "Veering from moments of breathtakingly visualized valor to outright stupidity, Sith is a vast improvement over the previous two outings, but still and all, it's no Star Wars.", "is_fresh": 1, "author": ["Marc Savlov"]},
{"text": "I am pleased to report that George Lucas has found his way back from the Dark Side.", "is_fresh": 1, "author": ["Michael W. Phillips, Jr."]},
{"text": "As popcorn entertainment, strapping in for Star Wars: Episode III is like hooking up with an old friend. Half the enjoyment is simply the idea of the reunion itself.", "is_fresh": 1, "author": ["Larry Ratliff"]},
{"text": "...it has become impossible to consider these movies apart from their dubious cultural and economic consequences.", "is_fresh": 0, "author": ["Philip Martin"]},
{"text": "As with the last two Star Wars movies, Revenge of the Sith is a visual spectacle, trotting out the best special effects Industrial Light and Magic has to offer.", "is_fresh": 1, "author": ["Forrest Hartman"]},
{"text": "...at once a work of closure and of sustenance.", "is_fresh": 1, "author": ["Josh Larsen"]},
{"text": "To Star Wars fans everywhere, a celebration of galactic proportions.", "is_fresh": 1, "author": ["Mark Sells"]},
{"text": "Very good story telling, despite lapses into droll dialogue that takes itself too seriously.", "is_fresh": 1, "author": ["Steve Crum"]},
{"text": "Not far into the first third of the movie, I didn't think I was going to make it all the way through the percussive nonstop action.", "is_fresh": 0, "author": ["Andrew Sarris"]},
{"text": "It's a stronger movie than the two previous installments but, as Yoda would say: an out-and-out triumph it is not.", "is_fresh": 1, "author": ["Garry Maddox"]},
{"text": "...the brilliant final showdown between Obi-Wan and Anakin for his soul is the moment that takes the Star Wars saga where it needs to go ...", "is_fresh": 1, "author": ["Lori Hoffman"]},
{"text": "So boxed in by having to tie everything into a neat parcel that it feels constrained and is woefully lacking in surprises and dramatic tension.", "is_fresh": 1, "author": ["Ken Hanke"]},
{"text": "Spectacular ... but it never really lifts you up into a new imaginative realm -- it never takes you away. It just keeps blazing at you. ", "is_fresh": 1, "author": ["Kurt Loder"]},
{"text": "By golly, he did it!", "is_fresh": 1, "author": ["Audrey Rock-Richardson"]},
{"text": "Overlooked amid the tired complaints of wooden acting and cornball dialogue is the most inspired filmmaking of Lucas's career.", "is_fresh": 1, "author": ["Mark Palermo"]},
{"text": "This film is very heavy on action and that is its saving grace.", "is_fresh": 1, "author": ["Robert Roten"]},
{"text": "(G)ood is seduced by evil and good must ulimately triumph is balance is to be restored and peace secured. Sound familiar? ", "is_fresh": 1, "author": ["Andrew Griffin"]},
{"text": "Final installment still far cry from 70s pics.", "is_fresh": 1, "author": ["Angela Baldassarre"]},
{"text": "In spite of the acting horrors who are Christensen and Portman, the \"Star Wars\" series manages to go out on a high note.", "is_fresh": 1, "author": ["Jackie K. Cooper"]},
{"text": "Watching it, you realize that Lucas has created his own coup. He has stolen this trilogy back from the brink of disappointment and ended it with an intergalactic bang.", "is_fresh": 1, "author": ["Christopher Smith"]},
{"text": "The final hour ... delivers like Domino's pizza.", "is_fresh": 1, "author": ["Sean O'Connell"]},
{"text": "A fitting conclusion to a landmark franchise.", "is_fresh": 1, "author": ["John P. McCarthy"]},
{"text": "What this film really accomplishes is it gives us insight into these characters that lessens their effectiveness in the later episodes.", "is_fresh": 0, "author": ["Widgett Walls"]},
{"text": "Nominally better than its immediate predecessors thanks to a pervasive atmosphere of catastrophic doom.", "is_fresh": 0, "author": ["Nick Schager"]},
{"text": "...an enticingly dark and absorbing spectacle that should satisfy the casual Star Wars fanatic who fancies an action-packed package full of emotional promise and prose.", "is_fresh": 1, "author": ["Frank Ochieng"]},
{"text": "As every fan is well aware, Natalie Portman is destined to reveal her twins, and not the twins we were all hoping to see, if you know what I mean.", "is_fresh": 1, "author": ["Mark Ramsey"]},
{"text": "...clearly the best of the prequel trio, and for me almost as good as Return of the Jedi. But this is largely because there are no Ewoks involved.", "is_fresh": 1, "author": ["John J. Puccio"]},
{"text": "Well done, George. Well done.", "is_fresh": 1, "author": ["Vic Holtreman"]},
{"text": "Easily the best of the prequels...", "is_fresh": 1, "author": ["David Nusair"]},
{"text": "All in all, this reviewer was satisfied with Star Wars III.", "is_fresh": 1, "author": ["Marie Asner"]},
{"text": "a unique film in the way its primary objective is to certify what we already know, and the pleasure it generates is not in the surprise of what happens, but in how it happens", "is_fresh": 1, "author": ["James Kendrick"]},
{"text": "Lucas has woven into the action and effects a relatively thoughtful story about a young man meant for greatness but corrupted by his own fear and confusion, a story more Shakespearean than Arthurian.", "is_fresh": 1, "author": ["Jonathan Rosenbaum"]},
{"text": "Hardly the masterpiece that anxious fanboys have rushed to call it, Sith recovers much of the joy and the gravity that many feared had gone the way of the Ewoks.", "is_fresh": 1, "author": ["Dan Fienberg"]},
{"text": "The good news is that Lucas promises this is the last Star Wars movie. Hallelujah.", "is_fresh": 0, "author": ["Jean Lowerison"]},
{"text": "We always knew it would end like this, but sheesh!", "is_fresh": 1, "author": ["Eric Lurio"]},
{"text": "One leaves the theater with a 30-year sense of closure and satisfaction", "is_fresh": 1, "author": ["Marty Mapes"]},
{"text": "Maybe Revenge of the Sith is the best film in the series because it's the last, and the adventure of a long time ago in a galaxy far, far away returns, inevitably, to the here and now.", "is_fresh": 1, "author": ["Peter Keough"]},
{"text": "This is downright brilliant filmmaking, an awesome spectacle that manages to balance thrills and emotion with a steady hand.", "is_fresh": 1, "author": ["David Cornelius"]},
{"text": "Enthralling and stunning. So it comes down to this: Darth Vader had a selfless good reason.", "is_fresh": 1, "author": ["Victoria Alexander"]},
{"text": "A Vingan\u00e7a dos Sith engrandece toda a saga concebida por George Lucas. Esta \u00e9, com o perd\u00e3o do trocadilho, sua verdadeira For\u00e7a.", "is_fresh": 1, "author": ["Pablo Villa\u00e7a"]},
{"text": "It's exciting, foreboding, grand and important, a part of our culture and identity no matter how loudly cineastes scream bloody murder.", "is_fresh": 1, "author": ["Eugene Novikov"]},
{"text": "The prequel trilogy finally becomes what we have all wanted it to be.", "is_fresh": 1, "author": ["Greg Maki"]},
{"text": "The action is pretty spectacular, especially the climactic light-saber duel and an all-too-brief sequence in which Yoda leads a Wookiee army into battle. Die-hard fans will be drooling all over that one.", "is_fresh": 1, "author": ["Jeff Vice"]},
{"text": "Oh, the relief to reach the conclusion of Star Wars Episode III, not because George Lucas has brought home the franchise safe and sound but because I know I will never have to sit through another minute of this turgid, subliterate spaceballs again.", "is_fresh": 0, "author": ["Anthony Quinn"]},
{"text": "If you've seen the others, you'll want to see this one. Let's face it -- there's no turning back.", "is_fresh": 1, "author": ["Robert Denerstein"]},
{"text": "Anakin switches teams and the force avoids becoming farce in Lucas' swan-song.", "is_fresh": 1, "author": ["Boo Allen"]},
{"text": "Growing up Star Wars is like growing up Catholic- no matter how bitter you might become, ya can't shake it. Last week I bought CHEEZ-ITs because R2-D2 was on the box.", "is_fresh": 1, "author": ["Sean Burns"]},
{"text": "Like the most heavily-effects-budgeted shoulder shrug in history.", "is_fresh": 0, "author": ["Tim Robey"]},
{"text": "No magic, little light, but an awful lot of heavy industry.", "is_fresh": 0, "author": ["Peter Bradshaw"]},
{"text": "Everything that has a beginning has a middle - and while this centerpiece to the Star Wars saga may indeed be middling, it still beats Return of the Jedi anyday.", "is_fresh": 1, "author": ["Anton Bitel"]},
{"text": "Redeems some of the luster lost from the previous two installments.", "is_fresh": 1, "author": ["Dennis Schwartz"]},
{"text": "A glorious, perversely satisfying conclusion to a labor of love ... and a grand entertainment in its own right.", "is_fresh": 1, "author": ["Jonathan R. Perry"]},
{"text": "There's some sadness knowing that the Star Wars pictures are done. However, I get intense pleasure knowing that the series concludes on the highest of high notes.", "is_fresh": 1, "author": ["Mike McGranaghan"]},
{"text": "If the final scenes -- and especially the very last shot -- stir nothing within you, chances are you didn't like Star Wars that much to begin with.", "is_fresh": 1, "author": ["Luke Y. Thompson"]},
{"text": "The Force will undoubtedly be with us -- and the movie world -- for good... ", "is_fresh": 1, "author": ["Michael Szymanski"]},
{"text": "There is nothing fun about Sith, except maybe the opening space battle, and it's not so much an adventure as an ordeal.", "is_fresh": 0, "author": ["Josh Bell"]},
{"text": "Revenge of the Sith is the darkest, most tragic film in the series. It is also the finest since The Empire Strikes Back.", "is_fresh": 1, "author": ["Bob Bloom"]},
{"text": "Way-neato Sith is, but its screenplay's logic I understand not.", "is_fresh": 1, "author": ["Gregory Weinkauf"]},
{"text": "\"Hey, you got politics all over my mythology!\" \"No, you got mythology all over my politics!\" Guess what? You can have both!", "is_fresh": 1, "author": ["Jimmy O"]},
{"text": "It turns out I'm still afraid of the Dark Side.", "is_fresh": 1, "author": ["Mark Collette"]},
{"text": "There's precious little of the wonder and charm of the original Stars Wars films in this big, loud, and mostly empty spectacle.", "is_fresh": 0, "author": ["Timothy Knight"]},
{"text": "When the aim is pure visual spectacle, the results are brilliantly exciting. When the aim is heart-touching drama, though, the movie falls apart.", "is_fresh": 1, "author": ["David Sterritt"]},
{"text": "It's revenge of the Star Wars fan.", "is_fresh": 1, "author": ["Scott Collura"]},
{"text": "Flat performances and even flatter dialogue give the final Star Wars prequel a hollow ring. ", "is_fresh": 0, "author": ["John Wirt"]},
{"text": "The lurid attraction of Revenge of the Sith stems from its utter predictability, from our knowledge that this is the payoff for which five earlier films over 28 years were but one elaborate Greek chorus.", "is_fresh": 1, "author": ["Scott Foundas"]},
{"text": "Be still our little saber-loving hearts! It's here...", "is_fresh": 1, "author": ["Emily Blunt"]},
{"text": "It's the only new prequel that doesn't feel like robots were behind the camera, and the most thrilling, enthralling and tragic episode since Empire. ", "is_fresh": 1, "author": ["Nick Rogers"]},
{"text": "If you can use Jedi mind tricks to gloss over the trite dialogue and stiff acting, Revenge of the Sith is going to give you the big payoff you've been waiting for.", "is_fresh": 1, "author": ["Kit Bowen"]},
{"text": "The Force will be with us always -- and, after seeing Revenge of the Sith, you'll once again remember why.", "is_fresh": 1, "author": ["Carol Cling"]},
{"text": "I got frustrated with the high cheesy factor (disappointed in the acting I was), but I never got bored.", "is_fresh": 1, "author": ["Cherryl Dawson and Leigh Ann Palone"]},
{"text": "Star Wars: Episode III - Revenge of the Sith is the movie we've been waiting for, the movie that should have been made all along.", "is_fresh": 1, "author": ["Jeffrey M. Anderson"]},
{"text": "For once, the words 'A long time ago in a galaxy far, far away' seem ironic, and it's hard to watch what follows without drawing comparisons to our own political landscape.", "is_fresh": 1, "author": ["John Beifuss"]},
{"text": "Limbs are lost, people die, destruction is widespread, and evil reigns... all this violence is courtesy a mere PG-13 rating (thanks, MPAA!)", "is_fresh": 1, "author": ["Kevin A. Ranson"]},
{"text": "Got Wood? Christensen's stiff acting almost sink this digital ship. The last hour is absolutely brilliant.", "is_fresh": 1, "author": ["Michelle Alexandria"]},
{"text": "This one is definitely the best of the three. Fear not, fans. Lucas came through in the clutch.", "is_fresh": 1, "author": ["Paul Salfen"]},
{"text": "It's meatier and more daring than [the first two prequels], and earns its place alongside the original Star Wars and The Empire Strikes Back.", "is_fresh": 1, "author": ["Sean P. Means"]},
{"text": "Lucas' attempted apolitical veneer only underlines the point: wars are political, even in movies.", "is_fresh": 0, "author": ["Cynthia Fuchs"]},
{"text": "Too bad George Lucas was trying to write a tragedy and not a farce.", "is_fresh": 0, "author": ["Jeffrey Bruner"]},
{"text": "While it does carry some of the flaws of the first two episodes, it thankfully lives up to its promise to be the darkest film in the series.", "is_fresh": 1, "author": ["Collin Souter"]},
{"text": "Lucas should be barred from touching a typewriter, but, based on his work here, I'd like to see him encouraged to shoot as many fight scenes as possible.", "is_fresh": 1, "author": ["Jeremy C. Fox"]},
{"text": "An ideal, convincing finale for this franchise.", "is_fresh": 1, "author": ["David Keyes"]},
{"text": "Lucas' vision has matured, along with his digital special-effects tools. Lucky for us that the Force was often with him on this one.", "is_fresh": 1, "author": ["Susan Tavernetti"]},
{"text": "You may walk away sad, or even depressed, but it's nothing that a Darth Vader Slurpee can't cheer up.", "is_fresh": 1, "author": ["Mike Ward"]},
{"text": "...falls down in the one area that it can't afford to - making us feel something at the moment Anakin goes to the Dark Side.", "is_fresh": 0, "author": ["Andy Klein"]},
{"text": "The circle is now complete.", "is_fresh": 1, "author": ["Bob Grimm"]},
{"text": "Almost exactly what it needs to be, a powerful middle film to end one trilogy and presage another.", "is_fresh": 1, "author": ["Eric D. Snider"]},
{"text": "A slam-bang summer blockbuster. Completes, deepens, and enriches the series beyond the pop-cultural phenomenon it has long-since made for itself.", "is_fresh": 1, "author": ["Dustin Putman"]},
{"text": "Acquits the recent stinkiness of the series pretty well. I know, high praise indeed. But consider this - I knew what was going to happen, and I still cared.", "is_fresh": 1, "author": ["Karina Montgomery"]},
{"text": "Should satisfy all the fans and breed new ones. The Force is strong in this one.", "is_fresh": 1, "author": ["Kevin N. Laforest"]},
{"text": "Beautifully choreographed, loud, furious and rib-shaking donnybrooks that are weaved of the long-gestating daydreams of fans.", "is_fresh": 1, "author": ["Phil Villarreal"]},
{"text": "Remarkably, Lucas solicits even worse performances than in pictures past; the Mace Windu-Palpatine confrontation ranks amongst the worst acted scenes I've ever seen.", "is_fresh": 0, "author": ["Todd Gilchrist"]},
{"text": "The only disappointment - Natalie Portman does not wear the Princess Leia gold bikini.", "is_fresh": 1, "author": ["Willie Waffle"]},
{"text": "Revenge of the Sith is so good, it almost redeems Episode I... Almost.", "is_fresh": 1, "author": ["Kevin Carr"]},
{"text": "Not only a perfect bridge to the original trilogy but will draw favorable comparisons to the fabled excellence of The Empire Strikes Back.", "is_fresh": 1, "author": ["Erik Childress"]},
{"text": "George Lucas is much more interested in the reflection of some planet's third moon on a window than in the other reasons people go to movies, like acting and script.", "is_fresh": 1, "author": ["Nell Minow"]},
{"text": "The film is pretty much wall-to-wall action, with little of the filibusters about trade unions that made Phantom Menace and Clones so irritating.", "is_fresh": 1, "author": ["Jon Niccum"]},
{"text": "Nostalgie et gravit\u00e9 aidant, La Revanche des Sith offre certainement quelques s\u00e9quences d'anthologie et m\u00eame certains moments d'\u00e9motion palpable.", "is_fresh": 1, "author": ["Nicolas Lacroix"]},
{"text": "Just when you thought it was safe to ridicule everything Star Wars, Lucas returns from his flirtation with the Dark Side by crafting a terrific caper to his monumental series.", "is_fresh": 1, "author": ["Lisa Kennedy"]},
{"text": "A dark, dramatic, action-packed climax to the trilogy of prequels that's almost good enough to make you forgive The Phantom Menace. Almost.", "is_fresh": 1, "author": ["Matthew Turner"]},
{"text": "Like the other two so-called 'prequels', this one still doesn't feel like a Star Wars movie . . .", "is_fresh": 0, "author": ["James O'Ehley"]},
{"text": "At its best, Revenge of the Sith reaches that plateau where pop is art.", "is_fresh": 1, "author": ["Michael Sragow"]},
{"text": "A film that never wields the dramatic impact its plot should demand, and never realises the emotional potential at its dark heart.", "is_fresh": 0, "author": ["Peter Watts"]},
{"text": "If only this had gotten out of the starting gate a little quicker, it would be an unqualified success.", "is_fresh": 1, "author": ["Matt Brunson"]},
{"text": "Episode III suffers from some of the same shortcomings... that its two recent predecessors did, only this time... far less...", "is_fresh": 1, "author": ["Eric Melin"]},
{"text": "While Lord Lucas has failed to solve the problems that he has demonstrated throughout the sextet, he also has commandingly summited the zenith of what he is good at.", "is_fresh": 1, "author": ["Annlee Ellingson"]},
{"text": "Revenge of the Sith might be tolerable if it weren't designed to be taken seriously.", "is_fresh": 0, "author": ["Stephanie Zacharek"]},
{"text": "Otherwise known as I Was a Teenage Darth Vader, Star Wars III is dull, puerile and underwritten, not that it will matter to its lemming-like legion of fans.", "is_fresh": 0, "author": ["Thomas Delapa"]},
{"text": "For fans it will be nirvana, and for everyone else a welcome relief.", "is_fresh": 1, "author": ["Geoff Pevere"]},
{"text": "'Triumphant' is the word I'd use for Sith, particularly for its superb light-saber battles, which rediscover the sheer joy and physicality missing in Star Wars since Han Solo's heyday.", "is_fresh": 1, "author": ["Chris Hewitt (St. Paul)"]},
{"text": "Revenge of the Sith is a brilliant consummation to a promise made a long time ago, far, far away, in a galaxy called 1977.", "is_fresh": 1, "author": ["Stephen Hunter"]},
{"text": "Revenge of the Sith, though, stands apart from its inert, tech-obsessed predecessors. It feels, at last, like the work of a man with a story to tell.", "is_fresh": 1, "author": ["Gary Thompson"]},
{"text": "Watching Revenge of the Sith, it's hard not to wonder if Lucas even knows how good a movie he almost made.", "is_fresh": 0, "author": ["Mick LaSalle"]},
{"text": "The darkest, most operatic, and technologically richest Star Wars movie to date, Sith is grim, stirring entertainment and a nearly complete vindication.", "is_fresh": 1, "author": ["Shawn Levy"]},
{"text": "The movie grabs us from its heart-pounding opening sequence and pulls us inexorably along its trajectory with the grip of the last gruesome act of a Greek tragedy.", "is_fresh": 1, "author": ["William Arnold"]},
{"text": "Compared to the dog-fight in Star Wars this is like playing Halo instead of Pac Man.", "is_fresh": 1, "author": ["Louis B. Hobson"]},
{"text": "George Lucas had lost his way for many years, gone to filmmaking's dark side. But now he's mustered up completely unexpected reserve for a last-minute redemption.", "is_fresh": 1, "author": ["Mark Rahner"]},
{"text": "Though flawed, Episode III never betrays the Star Wars legacy.", "is_fresh": 1, "author": ["Carla Meyer"]},
{"text": "Even if this movie is short of perfection, it makes Star Wars complete.", "is_fresh": 1, "author": ["Bruce Kirkland"]},
{"text": "Ultimately, Revenge of the Sith resonates with surprising emotional power and an undeniable sense of finality.", "is_fresh": 1, "author": ["Jack Garner"]},
{"text": "The finale feels less the inevitable conclusion of some great saga than the predictable mooing of a reliable cash cow.", "is_fresh": 0, "author": ["Duane Dudek"]},
{"text": "Revenge of the Sith overcomes its dime-store dialogue and less than convincing performances through the sheer force of its director's vision.", "is_fresh": 1, "author": ["Rene Rodriguez"]},
{"text": "It's better than Episode I and not quite as good as Episode II. What it isn't is a lot of fun.", "is_fresh": 0, "author": ["Roger Moore"]},
{"text": "More than a first-rate wrap-up job, it stands on its own as a dazzling piece of showmanship.", "is_fresh": 1, "author": ["Philip Wuntch"]},
{"text": "Revenge of the Sith completes the big picture and will undoubtedly find favor with a majority of fans. But it isn't a very good movie.", "is_fresh": 0, "author": ["Robert W. Butler"]},
{"text": "Revenge of the Sith is more of the same: wildly flamboyant effects serving weak characters, bad acting and obtuse plotting.", "is_fresh": 0, "author": ["Bruce Westbrook"]},
{"text": "Man: 'You're so beautiful.' Woman: 'It's only because I'm so in love.' Man: 'No, it's because I'm so in love with you.' Me: 'Man oh man.'", "is_fresh": 0, "author": ["Rick Groen"]},
{"text": "George Lucas makes it easy to experience Star Wars: Episode III -- Revenge of the Sith as a rush of deliverance -- even if the movie itself doesn't fully deliver.", "is_fresh": 1, "author": ["Owen Gleiberman"]},
{"text": "Restore your faith in the Force, this will.", "is_fresh": 1, "author": []},
{"text": "It's good. I mean really good.", "is_fresh": 1, "author": ["Ty Burr"]},
{"text": "Lucas ha cumplido la profec\u00eda: ha tra\u00eddo el equilibrio a la Fuerza.", "is_fresh": 1, "author": ["Alex Ramirez"]},
{"text": "Call it the saga's 'Darth nadir.' Lucas's greatest success in Sith is this: We can't help but sympathize with Anakin as he surrenders to the Dark Side.", "is_fresh": 1, "author": ["Jeffrey Overstreet"]},
{"text": "I'm still not totally convinced that this is the result of good filmmaking, so much as it simply makes viewers nostalgic for the original trilogy.", "is_fresh": 1, "author": ["Jon Popick"]},
{"text": "It's all about seeing the story lines of the sloppy prequels finally tie together with the original films. [F]ans will enjoy [watching] everything fall neatly into place. ", "is_fresh": 1, "author": ["Daniel M. Kimmel"]},
{"text": "It's all kind of like comfort food as Episode 3 finally brings you back 'to a galaxy far, far away' that we first met nearly three decades ago.", "is_fresh": 1, "author": ["Robin Clifford"]},
{"text": "...writer/director George Lucas has been promising a darker film and Hayden Christensen's critical vindication. He delivers on the first promise.", "is_fresh": 1, "author": ["Laura Clifford"]},
{"text": "A satisfying finale... a happy payoff for fans who found Phantom Menace and the first half of Attack of the Clones to be plodding exposition.", "is_fresh": 1, "author": ["James Sanford"]},
{"text": "Technically magnificent but dramatically inert, it's a lumberingly predictable finale to the space saga that peaked in 1980 and has been going downhill ever since.", "is_fresh": 0, "author": ["Frank Swietek"]},
{"text": "A great film in spite of itself.", "is_fresh": 1, "author": ["Steven Snyder"]},
{"text": "The good George Lucas usually wins out, even if the story focuses on the Dark Side of the Force.", "is_fresh": 1, "author": ["Dan Lybarger"]},
{"text": "Precisely what this passionate SW geek wanted: a bit less soapy dialogue, a lot more action, and a stunningly strong infusion of drama, emotion, and tragedy.", "is_fresh": 1, "author": ["Scott Weinberg"]},
{"text": "I cried for two reasons. First, because, after nearly 30 years, it's finished. Yes, the series will be out in 3-D. But this is the finale of what George Lucas began in 1977.", "is_fresh": 1, "author": ["Linda Cook"]},
{"text": "Lacking in dramatic punch, animated only by mind-numbing action sequences and endless light-saber fights.", "is_fresh": 0, "author": ["Frederic and Mary Ann Brussat"]},
{"text": "What a shock when George Lucas finds his footing and the saga once again takes hold.", "is_fresh": 1, "author": ["David Edelstein"]},
{"text": "It provides fun and closure, wrapping up the saga's many narrative strings in an entertaining finale.", "is_fresh": 1, "author": ["Jeff Strickler"]},
{"text": "Despite all of its impressive slam-bang, almost wall-to-wall action and awe-inspiring special effects, Episode III, though head and shoulders above the other prequels, is crippled by poor scripting and logic.", "is_fresh": 1, "author": ["John Paul Powell"]},
{"text": "Same logo. Same starry-night spacescape. Same music. Same crawl. Same everything. Only different. And so much better.", "is_fresh": 1, "author": ["Eleanor Ringel Cater"]},
{"text": "Revenge of the Sith is both unspeakably brilliant and kind of OK, depending on where you're coming from.", "is_fresh": 1, "author": ["Phoebe Flowers"]},
{"text": "An engaging sense of closure to a tale that has captivated more than one generation, and one that has made cinematic history", "is_fresh": 1, "author": ["Leslie Katz"]},
{"text": "[T]here is a haunting, disconcerting bittersweetness to the film that is impossible to shake. It's a particularly GenX response, I suspect...", "is_fresh": 1, "author": ["MaryAnn Johanson"]},
{"text": "We are all preprogrammed in one way or another to want Episode III -- Revenge of the Sith to climax in the way it does. All George had to do was not screw that up. He didn't.", "is_fresh": 1, "author": ["Bob Strauss"]},
{"text": "Heretical though it sounds, [Sith] may come closest of all the films to achieving the balance between gee-whiz sci-fi spectacle and mythic resonance to which Lucas aspired.", "is_fresh": 1, "author": ["Maitland McDonagh"]},
{"text": "For many, the Sith finale will redeem all three prequels. Others will wonder why Lucas wasted so many dollars, years and pixels on a story that could have been told in one film, or better yet, not at all.", "is_fresh": 0, "author": ["Lisa Rose"]},
{"text": "Lucas still can't write. His dialogue crashes and burns like an X-wing zapped out of the sky by a star destroyer.", "is_fresh": 0, "author": ["Steven Rea"]},
{"text": "Star Wars, for better or worse, was the genuine article. How then can there not be a relevance, and a resonance, in saying goodbye?", "is_fresh": 1, "author": ["Mary F. Pols"]},
{"text": "To say that Revenge of the Sith is a vast improvement is not extravagant praise -- but neither is it any kind of putdown.", "is_fresh": 1, "author": ["Terry Lawson"]},
{"text": "All those who wondered whether writer-director George Lucas was going to end his sci-fi career in a downward tailspin can rest easy.", "is_fresh": 1, "author": ["Tom Long"]},
{"text": "My favorite of the three most recent Star Wars movies, Revenge of the Sith mixes all of the best elements from its predecessors.", "is_fresh": 1, "author": ["JoBlo"]},
{"text": "Sith takes a while to sink in, but once you get used to its rhythm, it provides the most satisfying Star Wars adventure of the last 20 years.", "is_fresh": 1, "author": ["Brian Orndorf"]},
{"text": "While Sith is mostly enjoyable, the best part about it is that we are finally done with the journey.", "is_fresh": 1, "author": ["Danny Minton"]},
{"text": "Star Wars, people, is back.", "is_fresh": 1, "author": ["Christopher Null"]},
{"text": "Revenge of the Sith is the most energetic of the prequels, the only one at all worth watching. But that doesn't mean it is without the weaknesses that scuttled its pair of predecessors.", "is_fresh": 1, "author": ["Kenneth Turan"]},
{"text": "It's the darkest of the six-film opus, but it just may be the best of the lot.", "is_fresh": 1, "author": ["Claudia Puig"]},
{"text": "Though it starts slowly, it lumbers toward greatness in the last third and restores him briefly to the top of his class.", "is_fresh": 1, "author": ["Lawrence Toppman"]},
{"text": "It took 22 years, but the Jedi has finally returned.", "is_fresh": 1, "author": ["Bill Muller"]},
{"text": "Sure to please diehard fans and fringe folk alike.", "is_fresh": 1, "author": ["Jeanne Aufmuth"]},
{"text": "The Jedi faithful deserve far better than this.", "is_fresh": 0, "author": ["Sean McBride"]},
{"text": "As he brings his beginning to an end, George Lucas finally produces a second-generation Star Wars adventure worthy of the originals. ", "is_fresh": 1, "author": ["Jeffrey Westhoff"]},
{"text": "I think it's the best one since The Empire Strikes Back.", "is_fresh": 1, "author": ["Richard Roeper"]},
{"text": "Crippled as he is by the decisions of the first two films, Lucas manages to invest the final chapter of his space opera with the grand operatic spirit of the original trilogy.", "is_fresh": 1, "author": ["Steven D. Greydanus"]},
{"text": "...the dialogue is astonishingly feeble, the acting unforgivably wooden.", "is_fresh": 0, "author": ["Jami Bernard"]},
{"text": "The scariest, most exciting, most visually prodigious of the sextet, with action sequences that explode off the screen, characters who finally awaken your sentiments.", "is_fresh": 1, "author": ["Michael Wilmington"]},
{"text": "George Lucas has achieved what few artists do; he has created and populated a world of his own.", "is_fresh": 1, "author": ["Roger Ebert"]},
{"text": "... the visually stunning Sith is also the fastest-paced and most accessible.", "is_fresh": 1, "author": ["Lou Lumenick"]},
{"text": "All those Star Wars geeks, who've been waiting for weeks outside movie theaters with their Yoda sleeping bags and their homemade lightsabers, finally have a film that's worthy of their perseverance.", "is_fresh": 1, "author": ["Christy Lemire"]},
{"text": "Even with its pulpy excesses showing, Revenge of the Sith has a grandiose melancholy that will especially haunt those who have grown up revering the Skywalker chronicles. The rest of the audience may well be on its own.", "is_fresh": 1, "author": ["Gene Seymour"]},
{"text": "Lucas' pioneering work in computer-generated special effects has often gotten the better of him, but this time the action and the visual effects are splendid.", "is_fresh": 1, "author": ["Bruce Newman"]},
{"text": "So much here is guaranteed to cause either offense or pain.", "is_fresh": 0, "author": ["Anthony Lane"]},
{"text": "Star Wars: Episode III - Revenge of the Sith ... is without doubt the best of the three most recent films. That's not exactly high praise...", "is_fresh": 1, "author": ["James Verniere"]},
{"text": "This is by far the best film in the more recent trilogy, and also the best of the four episodes Mr. Lucas has directed. That's right: it's better than Star Wars.", "is_fresh": 1, "author": ["A.O. Scott"]},
{"text": "Revenge Of The Sith is brilliant. It's as if it took Lucas two goes to get comfortable in the director's chair and can now actually apply a bit of style to the proceedings.", "is_fresh": 1, "author": ["Adrian MacKinder"]},
{"text": "Anakin's defection from Jediism to Sithdom should provide the film's backbone, but neither the script nor Christensen delivers the needed nuance.", "is_fresh": 0, "author": ["Ed Halter"]},
{"text": "Oh my... it's neither spongeworthy nor Vader-riffic.", "is_fresh": 1, "author": ["John Venable"]},
{"text": "Once the cogs are set in motion for the creation of Vader, & the Clone Wars start getting bloody, Sith commences to cook in a way that no movie has since Empire.", "is_fresh": 1, "author": ["Glenn Kenny"]},
{"text": "Color me disappointed -- and I say this as a huge Star Wars fan. Its murky plotting and its long, video game battles left me cold and bored.", "is_fresh": 0, "author": ["Steve Rhodes"]},
{"text": "A flawed masterpiece.", "is_fresh": 1, "author": ["Ross Anthony"]},
{"text": "Let the projectionist raise the audio above a whisper, and your enjoyment of the free-flowing spectacle will be diluted by some of the worst acting and writing known to mainstream film -- and that's by George Lucas' meager standards.", "is_fresh": 0, "author": ["Steve Schneider"]},
{"text": "Drink the Kool-Aid. Wear blinders. Cover your ears. Because that's the only way you can totally enjoy Revenge of the Sith.", "is_fresh": 0, "author": ["Peter Travers"]},
{"text": "The more casual fan may be left feeling like Revenge of the Sith scores a technical knockout rather than the real thing.", "is_fresh": 1, "author": ["Brent Simon"]},
{"text": "As it morphs to connect with Episode IV, Lucas manages to add new resonance to the overall saga.", "is_fresh": 1, "author": ["Rich Cline"]},
{"text": "Revenge of the Sith is not the \"masterpiece\" some make it out to be. It is, simply, a far more worthy installment than we've recently been fed.", "is_fresh": 0, "author": ["Glen Oliver"]},
{"text": "Thank the movie gods this one is better than the two previous Star Wars films.", "is_fresh": 1, "author": ["Rebecca Murray"]},
{"text": "An exhilarating, inexorably dark, somewhat distressing rollercoaster ride of fun ... the film Star Wars fans have been waiting for.", "is_fresh": 1, "author": ["Clint Morris"]},
{"text": "May be the fourth best film in the series. It's still a tossup with Ewok Adventure, but I haven't seen that in a while so it may not hold up as well.", "is_fresh": 1, "author": ["Fred Topel"]},
{"text": "It may well be the best of all six Star Wars movies.", "is_fresh": 1, "author": ["Rob Blackwelder"]},
{"text": "At last ... Lucas brings forth the long-awaited, well-earned kick-*** conclusion to the latest Star Wars trilogy. Fans will cheer!", "is_fresh": 1, "author": ["David Foucher"]},
{"text": "Revenge of the Sith was the film that should have salvaged the prequels. It doesn't.", "is_fresh": 1, "author": ["Devin Faraci"]},
{"text": "So sound in its construction and...[its] space-operatic catharsis that even the nitpickiest fanboy will likely adopt a humbly mumbled 'All is forgiven' as a daily mantra.", "is_fresh": 1, "author": ["Peter Canavese"]},
{"text": "Lucas manages to turn the audience's familiarity to his advantage: like a jigsaw puzzle whose final form has always been known, the fun is in discovering how the last pieces fit.", "is_fresh": 1, "author": ["David Ansen"]},
{"text": "Perhaps the Dark Side is stronger after all; it certainly makes the conclusion of this journey a memorable one.", "is_fresh": 1, "author": ["Rob Vaux"]},
{"text": "Revenge Of The Sith strings a complex plot onto a framework of practically non-stop action.", "is_fresh": 1, "author": ["Paul Arendt"]},
{"text": "Mercifully, Revenge Of The Sith is (deep sigh) light-years ahead of the turgid Menace and the undercooked Clones.", "is_fresh": 1, "author": ["Colin Kennedy"]},
{"text": "with a sigh of relief we come to the end of a trilogy that fell criminally short of all that is could have, and by all rights, should have been", "is_fresh": 0, "author": ["Andrea Chase"]},
{"text": "Goodbye, Star Wars, and thanks for everything. It's been a wonderful ride.", "is_fresh": 1, "author": ["Jeffrey Chen"]},
{"text": "The transformation, when it comes, is sensational, and all the more agonising because it is never absolute", "is_fresh": 1, "author": ["Louisa McLennan"]},
{"text": "Will be remembered as one of the greatest movies ever made. 'Classic' isn't kind enough a word for this gem. The best film to be unleashed onto the public in 25 years!", "is_fresh": 1, "author": ["Alex Sandell"]},
{"text": "A rousing and tragic sendoff to a beloved franchise, and the best installment in the Star Wars series since 1980's The Empire Strikes Back.", "is_fresh": 1, "author": ["James Berardinelli"]},
{"text": "Lucas pays off the most elaborate setup in film history.", "is_fresh": 1, "author": ["Jurgen Fauth"]},
{"text": "This film finally creates a saga out of Star Wars, and that saga deserves its recognition as one of the finest ever to be delivered to cinema screens.", "is_fresh": 1, "author": ["Joe Utichi"]},
{"text": "Energetic and character-driven, the new film, which is both mythic and contempo in its politics, ends with a bang, obliterating the bad taste left by Episodes I & II.", "is_fresh": 1, "author": ["Emanuel Levy"]},
{"text": "A good film, but just not the classic it could have been.", "is_fresh": 1, "author": ["Edward Havens"]},
{"text": "If, as director Lucas has said, this is the final film in the saga, he has done himself justice by going out with a winner.", "is_fresh": 1, "author": ["Michael A. Smith"]},
{"text": "The magic died a long time ago, see, Episode III is just the death twitch.", "is_fresh": 0, "author": ["Walter Chaw"]},
{"text": "I imagine that Revenge of the Sith is very much the film Lucas's fans want to see, but are some of them ready for an anti-Bush diatribe?", "is_fresh": 0, "author": ["Ed Gonzalez"]},
{"text": "Even though Ian McDiarmid is a delicious bad guy, John Williams' music is what sets this apart from other mundane films that survive on special effects.", "is_fresh": 1, "author": ["Tony Medley"]},
{"text": "Enthralling and triumphant, Lucas saved the best for last, completing a significant cultural phenomenon that now encompasses six films.", "is_fresh": 1, "author": ["Susan Granger"]},
{"text": "Finally, Lucas recaptures some of the magic!", "is_fresh": 1, "author": ["Scott Nash"]},
{"text": "With strong performances by Ian McDiarmid, Ewan McGregor, and Yoda, it delivers much of the action and darkness that fans have been looking for. The final connection with the Classic Trilogy ultimately makes it a satisfying conclusion to the Saga.", "is_fresh": 1, "author": ["Scott Chitwood"]},
{"text": "The final episode of George Lucas' cinematic epic Star Wars ends the six-movie series on such a high note that one feels like yelling out, 'Rewind!'", "is_fresh": 1, "author": ["Kirk Honeycutt"]},
{"text": "Whatever one thought of the previous two installments, this dynamic picture irons out most of the problems, and emerges as the best in the overall series since The Empire Strikes Back.", "is_fresh": 1, "author": ["Todd McCarthy"]},
{"text": "An unexpectedly sweet pleasure... a dark and gripping slice of space opera, it successfully avoids the pitfalls of its predecessors.", "is_fresh": 1, "author": ["Gabriel Shanks"]},
{"text": "Star Wars fans have finally been rewarded for their patience. George has made another masterpiece.", "is_fresh": 1, "author": ["Joshua Tyler"]},
{"text": "We already know how this film turns out and no one at Lucasfilm has the wit to make the journey interesting.", "is_fresh": 0, "author": ["Matthew De Abaitua"]},
{"text": "", "is_fresh": 1, "author": ["Daniel Kasman"]},
{"text": "", "is_fresh": 1, "author": []}
]