[
{"reviews_count": "25", "title": "States Of Grace", "avg_audience_rating": "3.7", "rotten_count": "4", "tomatometer": "84", "audience_score": "83", "avg_critic_rating": "6.9", "fresh_count": "21", "user_ratings_count": "9,892"},
{"text": "Joanou is no Scorsese but he successfully builds a satisfying crime flick around Oldman's electrifying performance.", "is_fresh": 1, "author": ["Ross McIndoe"]},
{"text": "It's (mob) business as usual, elevated by some deft plotting and sharp dialogue from scripter Dennis McIntyre and forceful turns by all the principals, particularly Gary Oldman as a twitchy live wire who's fiercely loyal to friends and family.", "is_fresh": 1, "author": ["Matt Brunson"]},
{"text": "Every indulgence, including a two hour and 14 minute running time, is on display.", "is_fresh": 0, "author": ["Sheila Benson"]},
{"text": "A violent, tortuous melodrama that labors mightily to be an Irish Mean Streets or a latter-day Wild Bunch.", "is_fresh": 1, "author": []},
{"text": "Superior gangland drama with a nod to Scorsese ", "is_fresh": 1, "author": ["Don Groves"]},
{"text": "A handsomely produced, mostly riveting, but ultimately overlong and overindulgent gangster picture.", "is_fresh": 1, "author": ["Variety Staff"]},
{"text": "A hugely impressive piece of work for a young director previously known for his documentary U2 Rattle and Hum.", "is_fresh": 1, "author": ["Derek Adams"]},
{"text": "A gritty, intense and explosive Irish gangster drama that's second only to Scorsese's GoodFellas as the best film of 1990.", "is_fresh": 1, "author": ["Chuck O'Leary"]},
{"text": "Charts the territory of lawlessness, betrayal and violence.", "is_fresh": 1, "author": ["Frederic and Mary Ann Brussat"]},
{"text": "A powerful, gritty, life-of-crime thriller that showcases its charismatic cast to impressive effect.", "is_fresh": 1, "author": []},
{"text": "Mr. Oldman gives an electrifying performance that both establishes a tragic, terrifying character and explains why that character's world is such a perilous place.", "is_fresh": 1, "author": ["Janet Maslin"]},
{"text": "What's best about \"State of Grace\" is what's unique to it - the twisted vision of the Oldman character, who lives in a world of evil and betrayal and has somehow thought himself around to the notion that he is doing the right thing.", "is_fresh": 1, "author": ["Roger Ebert"]},
{"text": "Penn's affecting performance, a strong and silent struggle with his warring emotions, is hard pressed to offset Oldman's shrill shenanigans.", "is_fresh": 0, "author": ["Rita Kempley"]},
{"text": "Joanou shows signs of becoming a real director. But they're still only signs.", "is_fresh": 1, "author": ["Owen Gleiberman"]},
{"text": "", "is_fresh": 1, "author": ["Cole Smithey"]},
{"text": "", "is_fresh": 1, "author": ["Emanuel Levy"]},
{"text": "", "is_fresh": 1, "author": ["Linda Cook"]},
{"text": "", "is_fresh": 0, "author": ["Frank Swietek"]},
{"text": "", "is_fresh": 1, "author": ["Carol Cling"]},
{"text": "", "is_fresh": 0, "author": ["John Esther"]},
{"text": "", "is_fresh": 1, "author": ["Jules Brenner"]},
{"text": "", "is_fresh": 1, "author": ["Nicolas Lacroix"]},
{"text": "", "is_fresh": 1, "author": ["Brian J. Arthurs"]},
{"text": "", "is_fresh": 1, "author": ["Philip Martin"]},
{"text": "", "is_fresh": 1, "author": ["Scott Weinberg"]},
{"text": "Joanou is no Scorsese but he successfully builds a satisfying crime flick around Oldman's electrifying performance.", "is_fresh": 1, "author": ["Ross McIndoe"]},
{"text": "It's (mob) business as usual, elevated by some deft plotting and sharp dialogue from scripter Dennis McIntyre and forceful turns by all the principals, particularly Gary Oldman as a twitchy live wire who's fiercely loyal to friends and family.", "is_fresh": 1, "author": ["Matt Brunson"]},
{"text": "Every indulgence, including a two hour and 14 minute running time, is on display.", "is_fresh": 0, "author": ["Sheila Benson"]},
{"text": "A violent, tortuous melodrama that labors mightily to be an Irish Mean Streets or a latter-day Wild Bunch.", "is_fresh": 1, "author": []},
{"text": "Superior gangland drama with a nod to Scorsese ", "is_fresh": 1, "author": ["Don Groves"]},
{"text": "A handsomely produced, mostly riveting, but ultimately overlong and overindulgent gangster picture.", "is_fresh": 1, "author": ["Variety Staff"]},
{"text": "A hugely impressive piece of work for a young director previously known for his documentary U2 Rattle and Hum.", "is_fresh": 1, "author": ["Derek Adams"]},
{"text": "A gritty, intense and explosive Irish gangster drama that's second only to Scorsese's GoodFellas as the best film of 1990.", "is_fresh": 1, "author": ["Chuck O'Leary"]},
{"text": "Charts the territory of lawlessness, betrayal and violence.", "is_fresh": 1, "author": ["Frederic and Mary Ann Brussat"]},
{"text": "A powerful, gritty, life-of-crime thriller that showcases its charismatic cast to impressive effect.", "is_fresh": 1, "author": []},
{"text": "Mr. Oldman gives an electrifying performance that both establishes a tragic, terrifying character and explains why that character's world is such a perilous place.", "is_fresh": 1, "author": ["Janet Maslin"]},
{"text": "What's best about \"State of Grace\" is what's unique to it - the twisted vision of the Oldman character, who lives in a world of evil and betrayal and has somehow thought himself around to the notion that he is doing the right thing.", "is_fresh": 1, "author": ["Roger Ebert"]},
{"text": "Penn's affecting performance, a strong and silent struggle with his warring emotions, is hard pressed to offset Oldman's shrill shenanigans.", "is_fresh": 0, "author": ["Rita Kempley"]},
{"text": "Joanou shows signs of becoming a real director. But they're still only signs.", "is_fresh": 1, "author": ["Owen Gleiberman"]},
{"text": "", "is_fresh": 1, "author": ["Cole Smithey"]},
{"text": "", "is_fresh": 1, "author": ["Emanuel Levy"]},
{"text": "", "is_fresh": 1, "author": ["Linda Cook"]},
{"text": "", "is_fresh": 0, "author": ["Frank Swietek"]},
{"text": "", "is_fresh": 1, "author": ["Carol Cling"]},
{"text": "", "is_fresh": 0, "author": ["John Esther"]}
]