[
{"reviews_count": "291", "title": "The Nice Guys", "avg_audience_rating": "3.8", "rotten_count": "22", "tomatometer": "92", "audience_score": "79", "avg_critic_rating": "7.6", "fresh_count": "269", "user_ratings_count": "55,511"},
{"text": "With a pairing of the comedic charm from Ryan Gosling and the pure grit of Russell Crowe the Nice Guys are a match...", "is_fresh": 1, "author": ["Sharronda Williams"]},
{"text": "Strip away the jokes that are the backbone of this terrific movie and you would still be left with one of the most solid crime thrillers in recent memory.", "is_fresh": 1, "author": ["Alistair Ryder"]},
{"text": "Crowe has always been an underrated comedian and here he is to the manor born with a role that suits his gruff, but warm, persona perfectly, and Gosling nails his role too.", "is_fresh": 1, "author": ["PJ Nabarro"]},
{"text": "The Nice Guys is a hilarious breath of fresh air that gives us new perspectives on Russell Crowe and Ryan Gosling, but also a new star on the rise in Angourie Rice.", "is_fresh": 1, "author": ["Harris Dang"]},
{"text": "The Nice Guys is a yet another jewel on the crown of Shane Black's gleaming crown of a career, once again reaffirming himself as one of cinema's darlings.", "is_fresh": 1, "author": ["Jennifer Heaton"]},
{"text": "The Nice Guys is a fun action-thriller with winning performances from Gosling and Rice. I pray Shane Black continues churning out these hysterical stabs at noir pulp fiction.", "is_fresh": 1, "author": ["Aaron Peterson"]},
{"text": "There's no arguing with the pitch-perfect imagery of smog-swathed L.A. in the Seventies, nor with the shaggy-dog-seeming but actually well-structured storytelling. Also, The Nice Guys earns a lot of laughs, which is always, well, nice.", "is_fresh": 1, "author": ["Abbie Bernstein"]},
{"text": "Gosling has never been funnier. His timing is priceless. Great stuff from Crowe.", "is_fresh": 1, "author": ["Eli Glasner"]},
{"text": "A timeless caper that is well paced, greatly detailed, tightly written, and hysterically funny all the through.", "is_fresh": 1, "author": ["Rendy Jones"]},
{"text": "An archivist's dream: an action comedy about film preservation.", "is_fresh": 1, "author": ["Pat Padua"]},
{"text": "It's ultimately Gosling and Crowe's dynamic that is the strength of the film. \"The Nice Guys\" is aware of itself; it's silly and occasionally ridiculous, but in all the best ways possible. ", "is_fresh": 1, "author": ["Mae Abdulbaki"]},
{"text": "Even if you didn't grow up in the '70's, you'll love this retro cop comedy... The music, the clothes, the cars, the hair, the banter... [will] make you want to grab your hair pick and head to the disco.", "is_fresh": 1, "author": ["Lisa Johnson Mandell"]},
{"text": "While it has its laugh out loud moments, there just isn't enough content to make it worth paying the price of a theater ticket.", "is_fresh": 0, "author": ["Pamela Powell"]},
{"text": "Nice Guys is more than a worthwhile movie going experience. ", "is_fresh": 1, "author": ["Leah Sydney"]},
{"text": "Their failure is admirable in this one sense: they didn't let mastery of conventional cinematic form get in the way of shouty commentary about contemporary class relations.", "is_fresh": 1, "author": ["A.S. Hamrah"]},
{"text": "Such a perfectly enticing mystery detective story. Honestly, this movie has it all. ", "is_fresh": 1, "author": ["Steph Cozza"]},
{"text": "The Nice Guys is less about characterization, and more about letting two actors loose that have clearly found a groove for turning great material into gold", "is_fresh": 1, "author": ["Robert Kojder"]},
{"text": "Replete with nudity and violence, if eccentric crime dramas with a dash of dark comedy are up your street, The Nice Guys is your film.", "is_fresh": 1, "author": ["Renuka Vyavahare"]},
{"text": "It's a wholesome mix of movie genres. ", "is_fresh": 1, "author": ["Aakriti Anand"]},
{"text": "Crowe is better -- and funnier -- than he has been for a long while but Gosling struggles to bring his character (a hard-drinking single father) to life, while Black takes the easy comedy option rather too often. Still, I wouldn't mind a sequel.", "is_fresh": 1, "author": ["Matthew Bond"]},
{"text": "They're flawed but likeable characters, set in an outlandish, ridiculously entertaining story. You've got to see The Nice Guys.", "is_fresh": 1, "author": ["Sarah Marrs"]},
{"text": "Who would have thought that Russell Crowe and Ryan Gosling would have such great comic chemistry?", "is_fresh": 1, "author": ["Joanne Soh"]},
{"text": "What's memorable about The Nice Guys is the crew of not-so-nice kids: the 12- through 18-year-olds who seem remarkably unbothered when bumping heads with coke-addled pornographers.", "is_fresh": 1, "author": ["K. Austin Collins"]},
{"text": "The Nice Guys is a piece of contemporary cinema that encompasses everything I love about where we are. It's self-aware, it's clever and above all else, it accepts the faults of people and uses them to create a story about finding humanity.", "is_fresh": 1, "author": ["Julia Alexander"]},
{"text": "From its opening shot, The Nice Guys charms with an exuberant commitment to cutting, panning, and switching between perspectives, establishing the pertinent plot with no filler. ", "is_fresh": 1, "author": ["Peter Walsh"]},
{"text": "Gosling does a lot of physical comedy throughout the film, and he's a genius at it. The simple act of busting a glass window with his fist results in a comedy of errors that had me laughing for a solid two minutes", "is_fresh": 1, "author": ["Rain Jokinen"]},
{"text": "There's just as many laughs as there are gunshots and Gosling's slapstick physicality and Crowe's wry dialogue bring some much-needed light to the dark. ", "is_fresh": 1, "author": ["Alex Casey"]},
{"text": "Chances are if you liked Kiss Kiss Bang Bang and similar slacker-neo-noir capers like The Big Lebowski (1998) and 2014's Inherent Vice, you'll be happy with The Nice Guys. Best enjoyed with tongue firmly in cheek.", "is_fresh": 1, "author": ["Sarah Griffin"]},
{"text": "Take two heavyweight Hollywood stars, cast them in a shaggy-dog story set in Los Angeles circa 1977 and assign a writer-director with a proven flair for madcap action comedy. Voila! It's time to get acquainted with The Nice Guys.", "is_fresh": 1, "author": ["Rashid Irani"]},
{"text": "Amid countless remakes like Vacation and sequels like Neighbors 2, which doggedly push for crude atmospheres, this film creates a world that's pure and naturally absurd.", "is_fresh": 1, "author": ["Sam Watermeier"]},
{"text": "Ryan Gosling and Russell Crowe are a good match in The Nice Guys. But writer-director Shane Black's screenplay seldom strikes fire.", "is_fresh": 1, "author": ["Nigel Andrews"]},
{"text": "Major props must go to the film's production team for recreating the sounds & looks of the 1970s with such matter-of-fact precision...Some of the suburban street scenes look so authentic it's as though they were filmed with the aid of a time machine. ", "is_fresh": 1, "author": ["Jim Schembri"]},
{"text": "The thing that sets this movie apart is the magic that happens between Gosling, Crowe, and Rice.", "is_fresh": 1, "author": ["Rebecca Cusey"]},
{"text": "With a story of smart dips and dives in bell-bottoms over shag carpet and groovy lava lamps, The Nice Guys is sure to go down in history as sophisticated escapism.", "is_fresh": 1, "author": ["Mike Daringer"]},
{"text": "An almost perfect attempt to exactly split the difference between Lethal Weapon and The Big Lebowski, except it's not quite as good as either one.", "is_fresh": 1, "author": ["Tim Brayton"]},
{"text": "For a while there, something magical was brewing. In the end, it plays like a particularly raunchy and plot-heavy pilot episode to a '70s-era crime-solving buddy series.", "is_fresh": 1, "author": ["Piers Marchant"]},
{"text": "[Shane] Black likes his characters and loves the genre and that's enough to make the tribute / pastiche / affection parody work.", "is_fresh": 1, "author": ["Sean Axmaker"]},
{"text": "The plot is as convoluted as a Raymond Chandler novel, but Black and his cast deliver the action with such brio and panache that the film remains hugely entertaining even if, like Gosling's hapless hero, you've barely a clue what is going on.", "is_fresh": 1, "author": ["Jason Best"]},
{"text": "Outrageously funny from start to finish...The two leads play off each other perfectly.", "is_fresh": 1, "author": ["Michael A. Smith"]},
{"text": "With his third stint as director, Black has found his niche in evoking great performances, and framing engrossing and entertaining stories. The conclusion of The Nice Guys hints at a sequel. Please let it happen.", "is_fresh": 1, "author": ["Matthew Pejkovic"]},
{"text": "The Nice Guys is a glorious mess of a movie.", "is_fresh": 1, "author": ["Tony Macklin"]},
{"text": "A refreshing film due to its excessive violence and hilarious originality. [Full review in Spanish]", "is_fresh": 1, "author": ["Sebastian Zavala Kahn"]},
{"text": "Shane Black's The Nice Guys is a splendid tribute to mystery films of the 70s, featuring a good dose of black humor and surprisingly great chemistry between leads Russell Crowe and Ryan Gosling.", "is_fresh": 1, "author": ["Jeff Beck"]},
{"text": "The Nice Guys is a major blast, Crowe and Gosling having the time of their lives bringing all this madcap, blood-splattered lunacy to life.", "is_fresh": 1, "author": ["Sara Michelle Fetters"]},
{"text": "Too often, The Nice Guys feels like the Funniest Film of 1994. There are worse things.", "is_fresh": 1, "author": ["Tara Brady"]},
{"text": "The contrast between Gosling and Crowe's acting styles is the basis for the film's humor. [Full review in Portuguese.]", "is_fresh": 1, "author": ["Pablo Villa\u00e7a"]},
{"text": "Even though a disposable film, it is entertaining as pulp fiction.", "is_fresh": 1, "author": ["Dennis Schwartz"]},
{"text": "Shane Black's R-rated, 1970s action-comedy is a welcome throwback.", "is_fresh": 1, "author": ["Sonny Bunch"]},
{"text": "The Nice Guys is the first great comedy of the summer.", "is_fresh": 1, "author": ["Lesley Coffin"]},
{"text": "Fans of cinema will enjoy all the references while casual movie goers will enjoy the action scenes.. [Full review in Spanish]", "is_fresh": 1, "author": ["Ernesto Diezmartinez"]},
{"text": "Watching Crowe and Gosling-who are admittedly enjoying themselves in their respective roles-is fun, but the road wears thin along the journey... ", "is_fresh": 0, "author": ["Leonard Maltin"]},
{"text": "This sordid 1970's fast-talking detective noir is the perfect sandbox for filmmaker Shane Black.", "is_fresh": 1, "author": ["Blake Howard"]},
{"text": "A perfect mix of Boogie Nights and Inherent Vice, but without being as dense or as acid as the second one. [Full review in Spanish]", "is_fresh": 1, "author": ["Anaid Ram\u00edrez"]},
{"text": "The cast, the story and tone make this a film worthwhile. [Full review in Spanish]", "is_fresh": 1, "author": ["Oswaldo Betancourt Lozano"]},
{"text": "The film works perfectly due to the laughs, shootings, self awareness and excellent comedic timing, but also the influence of noir cinema and the work of Paul Thomas Anderson. [Full review in Spanish]", "is_fresh": 1, "author": ["Luis Fernando Galv\u00e1n"]},
{"text": "The chemistry between Ryan Gosling and Russell Crowe makes the movie. [Full review in Spanish]", "is_fresh": 1, "author": ["Jessica Oliva"]},
{"text": "Like one of those great comedies from the old days. [Full review in Spanish]", "is_fresh": 1, "author": ["Diego Batlle"]},
{"text": "A great comedy, very retro. [Full review in Spanish]", "is_fresh": 1, "author": ["Pablo A. Scholz"]},
{"text": "Shane Black's best film yet. [Full review in Spanish]", "is_fresh": 1, "author": ["Uriel Barco"]},
{"text": "Gosling and Crowe star in a film as fun as it is absurd. [Full review in Spanish]", "is_fresh": 1, "author": ["Erick Ortiz"]},
{"text": "Gosling and Crowe have such great chemistry that the whole film works because of it. [Full review in Spanish]", "is_fresh": 1, "author": ["Benjam\u00edn Harguindey"]},
{"text": "A buddy movie full of nostalgia and a great cast. [Full review in Spanish]", "is_fresh": 1, "author": ["Manu Y\u00e1\u00f1ez"]},
{"text": "One of the best films of 2016. [Full review in Spanish]", "is_fresh": 1, "author": ["Sergio Ben\u00edtez"]},
{"text": "[The Nice Guys is] propped up by the performances, humour, action, '70s detailing, a soundtrack with retro tracks (by Kool & The Gang and Earth, Wind & Fire, among others) and a cameo by the dishy Matt Bomer.", "is_fresh": 1, "author": ["Udita Jhunjhunwala"]},
{"text": "An exercise in cynicism and cool. [Full review in Spanish]", "is_fresh": 1, "author": ["Jordi Costa"]},
{"text": "Shane Black makes the most of the sparky and believable chemistry between Russell Crowe and Ryan Gosling with his old-school, buddy cop movie.", "is_fresh": 1, "author": ["Theresa Smith"]},
{"text": "A comedy that stands out due to its great dose of cynicism and satire of the Hollywood industry. [Full review in Spanish]", "is_fresh": 1, "author": ["Alberto S\u00e1ez Villarino"]},
{"text": "All about the chemistry between Gosling and Crowe, and the witty script, and the saucy tone, and the vintage textures, and the unexpected comic twists.", "is_fresh": 1, "author": ["John Serba"]},
{"text": "...a sporadically entertaining, exceedingly well-acted diversion.", "is_fresh": 1, "author": ["David Nusair"]},
{"text": "'The Nice Guys' is anarchic, irreverent, juvenile and sometimes downright uncomfortable, but it's also occasionally hilarious. ... A provocative film that pretends to be more stupid than it is.", "is_fresh": 1, "author": ["Richard James Havis"]},
{"text": "Crowe and Gosling have a wonderful, gruff chemistry here, which is key. If this is the beginning of a Lethal Weapon style franchise for the two actors, count me in.", "is_fresh": 1, "author": ["Max Weiss"]},
{"text": "Cartoon pulp.", "is_fresh": 1, "author": ["Ed Whitfield"]},
{"text": "An top notch action comedy that leaves you wanting more. [Full review in Spanish]", "is_fresh": 1, "author": ["Mikel Zorrilla"]},
{"text": "The director know that in order to make the movie work, he has to include the spectator on the joke. [Full review in Spanish]", "is_fresh": 1, "author": ["Luis Mart\u00ednez"]},
{"text": "Russell Crowe and Ryan Gosling represent polar opposites of movie masculinity. It's one of the reasons why their first film together, Shane Black's knowing comic thriller The Nice Guys, is such a pungent delight.", "is_fresh": 1, "author": ["Ryan Gilbey"]},
{"text": "'The Nice Guys' delivers action-packed, retro fun.", "is_fresh": 1, "author": ["Linda Cook"]},
{"text": "A witty but tough noir thriller that offers a greatest hits compilation of the writer-director's best work to date, as well as something a little bit new.", "is_fresh": 1, "author": ["Rob Carnevale"]},
{"text": "Not so much a mainstreamed 'Inherent Vice' as a civilian superhero movie for those who think they're too smart or 'adult' for costumed superhero movies.", "is_fresh": 1, "author": ["John Beifuss"]},
{"text": "Full of style and cinema to the top. [Full review in Spanish]", "is_fresh": 1, "author": ["Toni Vall"]},
{"text": "Unapologetic, wonderful, fun, sacastic and lucid. [Full review in Spanish]", "is_fresh": 1, "author": ["Marcos Gand\u00eda"]},
{"text": "\"The Nice Guys\" turns on the chemistry between Gosling's manic detective and Crowe's tough-but-humorous Healy.", "is_fresh": 1, "author": ["Robert Levin"]},
{"text": "There is an interesting enough mix of verbal comedy and slapstick to keep most amused some of the time and then, well, there's Ryan who works for so many of us on a different level.", "is_fresh": 1, "author": ["Aine O'Connor"]},
{"text": "A comedy of groovy errors", "is_fresh": 1, "author": ["Matt Patches"]},
{"text": "The Nice Guys is smart-dumb fun for grown-ups, a mainstream summer palate-cleanser amidst the glut of Spandex-clad superheroes.", "is_fresh": 1, "author": ["Alistair Harkness"]},
{"text": "It isn't always pretty but The Nice Guys is an unashamedly absurd, self-mocking, guilty pleasure of a film.", "is_fresh": 1, "author": ["Allan Hunter"]},
{"text": "These Nice Guys finish last.", "is_fresh": 0, "author": ["Henry Fitzherbert"]},
{"text": "More slapstick than gumshoe, The Nice Guys is at its best when riffing broadly on the chaotic chemistry between its chalk-and-cheese male stars.", "is_fresh": 1, "author": ["Mark Kermode"]},
{"text": "They may sound like an unorthodox pairing given that we're accustomed to seeing them in dramatic roles but the pairing of Crowe and Gosling works well. ", "is_fresh": 1, "author": ["Matthew Toomey"]},
{"text": "Mr Gosling is as new to comedy as Mr Crowe, but embraces it fearlessly in a role that requires little dignity and plenty of pratfalls.", "is_fresh": 1, "author": ["Paul Whitington"]},
{"text": "As buddy movies go, it has enough irreverence and originality never just to seem like a cynical rehash of a kind of film that has been made countless times before.", "is_fresh": 1, "author": ["Geoffrey Macnab"]},
{"text": "The movie enjoys all the politically incorrect pleasures of the Seventies with a knowing chuckle.", "is_fresh": 1, "author": ["Kate Muir"]},
{"text": "Two fun characters played by two great actors with fantastic chemistry together go in search of a movie, and - spoiler! - never quite find it.", "is_fresh": 0, "author": ["MaryAnn Johanson"]},
{"text": "The Nice Guys makes you want to catch hold of the first random stranger unfortunate enough to cross your path and demand that they drop everything and watch it.", "is_fresh": 1, "author": ["Rohan Naahar"]},
{"text": "I found it laboured, clumsy and for a film designed to provoke laughs, nastily and unacceptably violent.", "is_fresh": 0, "author": ["Brian Viner"]},
{"text": "Director Shane Black may have surprised with The Long Kiss Goodnight (1996), Kiss Kiss Bang Bang (2005) and the first two Lethal Weapon movies, but his latest is a shadow of past glories.", "is_fresh": 0, "author": ["David Edwards"]},
{"text": "Writer-director Shane Black returns to the comedy-noir vibe of his 2005 hit Kiss Kiss Bang Bang with this riotously funny thriller set in late-1970s Los Angeles.", "is_fresh": 1, "author": ["Rich Cline"]},
{"text": "An absolute joy of a film.", "is_fresh": 1, "author": ["Jamie East"]},
{"text": "It's all hugely enjoyable, packing punches and more laughs than most straightforward comedies, and a successful return to the neo-noir well after Kiss Kiss, Bang Bang.", "is_fresh": 1, "author": ["Rob Daniel"]},
{"text": "Its over-exuberance is entirely forgivable.", "is_fresh": 1, "author": ["Jasper Rees"]},
{"text": "A defiantly old-school action comedy that delivers big where it really counts.", "is_fresh": 1, "author": ["Adam Woodward"]},
{"text": "Riotously entertaining action-comedy that combines old-school detective thrills with laugh-out-loud humour and blackly comic violence.", "is_fresh": 1, "author": ["Matthew Turner"]},
{"text": "There are shades of The Big Lebowski in its narrative, which spins out to outlandish lengths only to culminate in a bit of throwaway irony.", "is_fresh": 1, "author": ["Margot Harrison"]},
{"text": "Funny and occasionally pleasingly absurd, there are no nice guys in The Nice Guys, just a couple of endearing losers who will have you in stitches.", "is_fresh": 1, "author": ["Marija Djurovic"]},
{"text": "While you'll probably laugh at the stars' buddy-movie shenanigans, you'll certainly hate yourself in the morning for it -- even if this director never does.", "is_fresh": 1, "author": ["David 'Mad Dog' Bradley"]},
{"text": "The Nice Guys is on another level altogether-wildly entertaining and frequently hilarious. (Splice Today) ", "is_fresh": 1, "author": ["Stephen Silver"]},
{"text": "A fun but admittedly violent comedy that features a truly great standout performance by Ryan Gosling.", "is_fresh": 1, "author": ["John Hanlon"]},
{"text": "When it comes to buddy/action comedies, director and screenwriter Shane Black knows what he's doing.", "is_fresh": 1, "author": ["Charles Ealy"]},
{"text": "After a while, when you've given up on laughing out loud, you start smiling for those old-fashioned reasons: you're enjoying the characters and the scrape they find themselves in.", "is_fresh": 1, "author": ["CJ Johnson"]},
{"text": "For a knockabout farce, The Nice Guys scores high on the charts.", "is_fresh": 1, "author": ["James Mottram"]},
{"text": "A crime tale that leaves the screwball comedy bruised and bloody with a retro reinvention of sorts.", "is_fresh": 1, "author": ["Cameron Williams"]},
{"text": "... a wonderfully loopy buddy comedy ... Black's thing remains shaggy-dog humor mixed with offhand bursts of violence. Crowe and Gosling channel the nitwit camaraderie of Abbott & Costello ", "is_fresh": 1, "author": ["Glenn Lovell"]},
{"text": "Fun, violence, crazyness, awesome production values and a cool main cast. [Full review in Spanish]", "is_fresh": 1, "author": ["Jos\u00e9 Arce"]},
{"text": "Shane Black's crisp dialogue, a gift he uniquely has, is a standout and does a solid job in the directing department and keeps the action moving, but it's a sense of Deja vu", "is_fresh": 1, "author": ["Whitney Scott Bain"]},
{"text": "The very notion of Healey and March's working relationship is absurd but writer-director Shane Black and co-writer Anthony Bagarozzi construct a script that makes no apologies for its absurd twists and indelicate situations. ", "is_fresh": 1, "author": ["David Blaustein"]},
{"text": "It's such fun watching the pair muddle their way through a labyrinth of bad vibes.", "is_fresh": 1, "author": ["Clem Bastow"]},
{"text": "Crowe and Gosling make a good bottom-feeding team (Gosling especially shows a surprising flair for physical comedy).", "is_fresh": 1, "author": ["Jim Lane"]},
{"text": "Their slapstick physicality (especially Gosling's) and wry dialogue is worth a laugh, but is that due to the script or because it's two serious stars being funny? I think it's more the latter.", "is_fresh": 1, "author": ["Stephen Romei"]},
{"text": "What may be surprising- -- or not -- is the camaraderie between Ryan Gosling and Russell Crowe. Their comedy is akin to Two Stooges.", "is_fresh": 1, "author": ["Marie Asner"]},
{"text": "Writer/director Shane Black is back with another Private Eye flick and this is a good one...overcoming a byzantine plot that never really does make any sense with a witty script, fine acting and directing, and terrific cinematography . ", "is_fresh": 1, "author": ["Tony Medley"]},
{"text": "They aren't cops, they're just scumbags of slightly different shades. But the odd-couple dynamic is straight out of the Lethal Weapon playbook and it still works a charm.", "is_fresh": 1, "author": ["Tim Martain"]},
{"text": "Gosling and Crowe are great in a movie that is only good. ", "is_fresh": 1, "author": ["Bob Grimm"]},
{"text": "Now, I'm not saying every gumshoe yarn needs physical comedy, but The Nice Guys makes joyous use of the stuff. ", "is_fresh": 1, "author": ["Alynda Wheat"]},
{"text": "A gritty, cynical, hilarious, and mostly satisfying bit of L.A. noir, Shane Black's The Nice Guys sees the bad boy writer-director make a slick return to his signature brand of buddy action comedy.", "is_fresh": 1, "author": ["Gary Dowell"]},
{"text": "Makes concessions to nothing and nobody - it is about as pure an expression of the writer/director's sensibilities as you could ask for.", "is_fresh": 1, "author": ["Dominic Corry"]},
{"text": "Quick on its wits and fast with its fists, this is Black firmly back doing what he does best. And nobody out there does it better.", "is_fresh": 1, "author": ["James White"]},
{"text": "Shane Black's passion can never quite be contained within the boundaries of good taste and I love that about him. ", "is_fresh": 1, "author": ["Vincent Mancini"]},
{"text": "The jokes are funny, but consequences still feel real, and that gives the story a level of depth hard to achieve in screwball comedies of this ilk.", "is_fresh": 1, "author": ["Molly Laich"]},
{"text": "A cool little neo-noir gem.", "is_fresh": 1, "author": ["Matt Neal"]},
{"text": "Rude, raunchy, violent and very funny action-comedy-mystery with two great leads and a surprisingly terrific newcomer. All in all, I'd call it good unwholesome fun.", "is_fresh": 1, "author": ["Ken Hanke"]},
{"text": "Meekly mustachioed Ryan Gosling and a Russell Crowe slowly morphing into John Goodman make consistently amusing anti-buddies.", "is_fresh": 1, "author": ["Ken Eisner"]},
{"text": "The best comedy of the year. [Full review in Spanish]", "is_fresh": 1, "author": ["Fico Cangiano"]},
{"text": "[Shane] Black's weakest effort in an age, a shoot-from-the-hip P.I. comedy that isn't half as interesting as \"Inherent Vice\" and barely as funny.", "is_fresh": 1, "author": ["J. Olson"]},
{"text": "Black has a potent weapon in Gosling, who's at his zaniest here, his moist eyes and drooping moustache evoking the 1990s Nicolas Cage.", "is_fresh": 1, "author": ["Jake Wilson"]},
{"text": "The Nice Guys is very much in the Kiss Kiss Bang Bang vein - part thriller, part spoof. And Crowe and Gosling turn out to be very funny, embellishing their performances with some noteworthy '70s fashion items.", "is_fresh": 1, "author": ["Sandra Hall"]},
{"text": "The Nice Guys is a madcap ride with some bumps along the way but there is beauty in the chaos.", "is_fresh": 1, "author": ["Wenlei Ma"]},
{"text": "While The Nice Guys is definitely a popcorn movie front-loaded with cracking comic interplay and surreal set-piece action sequences, the package as a whole packs a pulpy punch that cannot be denied.", "is_fresh": 1, "author": ["Leigh Paatsch"]},
{"text": "Most of the laughs are solid and the underlying tone of the film is pitched in such a way that it doesn't undermine our inherent investment in the mystery or the appeal of the characters", "is_fresh": 1, "author": ["James Kendrick"]},
{"text": "The Nice Guys is a blast...", "is_fresh": 1, "author": ["Travis Johnson"]},
{"text": "In a competition between Shane Black first directorial effort and his third, The Nice Guys finishes second.", "is_fresh": 1, "author": ["Rob Hunter"]},
{"text": "Sliding into theaters between 'Captain America: Civil War' and 'X-Men: Apocalypse', its busted-out protagonists are a long way from spandex-land. This works to its advantage; 'The Nice Guys' is a goof and a treat, but it's also a breath of fresh air.", "is_fresh": 1, "author": ["Jason Bailey"]},
{"text": "If you like your films to zig-zag for entertainment, this is an always engaging and edgy work, carrying Black's signature elements of conflicting textures which created the sardonic action buddy comedy franchise, Lethal Weapon", "is_fresh": 1, "author": ["Andrew L. Urban"]},
{"text": "The tone is offbeat, the juxtaposition of ideas occasionally inspires and goofy moments entertain; yet overall the film never quite satisfies or rises to the level to which it aspires", "is_fresh": 1, "author": ["Louise Keller"]},
{"text": "Black layers in devilish sight gag after sight gag with smooth pulpy nuance, while maintaining the requisite forward motion.", "is_fresh": 1, "author": ["Tom Meek"]},
{"text": "Shane Black's The Nice Guys isn't terrible -- it just ducks mediocrity -- but every advance it takes toward quality is made on the strengths of Russell Crowe and Ryan Gosling.", "is_fresh": 0, "author": ["Andy Crump"]},
{"text": "The Nice Guys is just pure wackiness all the way through - a straight-up crime mystery filled with hilarious antics and plenty of violence. A perfect addition to the summer movie roster.", "is_fresh": 1, "author": ["Kit Bowen"]},
{"text": "Gosling makes an excellent alcoholic fall guy, Crowe, although quite a tub nowadays, is as enthusiastic a thumper as ever.", "is_fresh": 1, "author": ["David Sexton"]},
{"text": "For those attuned to its amiably sleazy vibe and sudden alternations between violence and slapstick, it offers a guiltily pleasurable way to pass an evening.", "is_fresh": 1, "author": ["Christopher Orr"]},
{"text": "With its sloppy plot, fair to middling acting, and a cheesy look of the seventies \"The Nice Guys\" is not a nice movie.", "is_fresh": 0, "author": ["Jackie K. Cooper"]},
{"text": "Black strips the \"Lethal Weapon\" formula down to its undies and redresses it with moxie and snark.", "is_fresh": 1, "author": ["Al Alexander"]},
{"text": "The Crowe-Gosling team might stir unhappy memories of what-were-they-thinking? twofers like Pat Morita and Jay Leno (Collision Course), Ted Danson and Howie Mandel (A Fine Mess) or Jeff Bridges and Ryan Reynolds (R.I.P.D.), but they're a dynamic duo.", "is_fresh": 1, "author": ["Matt Brunson"]},
{"text": "Gosling has a knack for physical comedy and self-deprecation that gleefully subverts a decade-plus of rom-coms and Nicolas Winding Refn movies.", "is_fresh": 1, "author": ["Pete Vonder Haar"]},
{"text": "Shane Black's best work yet... a smart, funny, sexy action movie... You can tell Black would be happy making films like this for the rest of his life -- and we should be so luck.", "is_fresh": 1, "author": ["Mark Hughes"]},
{"text": "The Nice Guys has a riveting mystery wrapped around a balls-out explosive action comedy that undeniably results in one of the funniest and most entertaining films of the year. This is the first must-see film of the summer.", "is_fresh": 1, "author": ["Chris Sawin"]},
{"text": "An invigorating sense of style and attitude, combined with a witty script and charismatic performances, give a considerable boost to what could have been a pedestrian noir thriller.", "is_fresh": 1, "author": ["Todd Jorgenson"]},
{"text": "...at once very violent, very funny, and a true original.", "is_fresh": 1, "author": ["Daniel M. Kimmel"]},
{"text": "a nail-bitingly suspenseful, wickedly funny, and decidedly hard-boiled neo-Noir pitting nihilism against idealism during the candy-colored decadence of 1977 Los Angeles. ", "is_fresh": 1, "author": ["Andrea Chase"]},
{"text": "A wildly entertaining albeit convoluted dark comedy with witty, funny and crackling dialogue and palpable chemistry Crowe and Gosling.", "is_fresh": 1, "author": ["Avi Offer"]},
{"text": "Shane Black re-writes the buddy movie template and gives Crowe a second chance and a franchise. Lots of nasty, unrepentant violence and hookers. Pure enjoyment. ", "is_fresh": 1, "author": ["Victoria Alexander"]},
{"text": "The Nice Guys is like James Ellroy by way of Abbott & Costello. Frequently hilarious, often surprising, and consistently fun.", "is_fresh": 1, "author": ["Mike McGranaghan"]},
{"text": "... with a winning starring duo and an expertise in grimy, twisty crime stories, Black has made a film that uses its route structure to its advantage to deliver a taste of delicious pulp fiction.", "is_fresh": 1, "author": ["Michael Fairbanks"]},
{"text": "The Nice Guys is an entertainingly breezy buddy-detective romp that steadfast Shane Black fans ought to get additional mileage from.", "is_fresh": 1, "author": ["Sandy Schaefer"]},
{"text": "\"There are never really any new toys in Shane Black's sandbox but he always plays with them better than the other kids.\"", "is_fresh": 1, "author": ["Sean Burns"]},
{"text": "The Nice Guys has a nice feel: just slick enough to keep from falling apart, just brutal enough to keep from seeming inconsequential.", "is_fresh": 1, "author": ["David Edelstein"]},
{"text": "In the era of comic book superhero over-saturation, Hollywood can certainly stand the originality", "is_fresh": 1, "author": ["Frank Wilkins"]},
{"text": "The New Guys is fast, violent, and doesn't feel like it came out of the summer-movie food processor.", "is_fresh": 1, "author": ["Robert Horton"]},
{"text": "The Nice Guys is a strange combination of what Sean Black does best, but his neo-noir feels awkward mixed with buddy cop.", "is_fresh": 1, "author": ["Matthew Razak"]},
{"text": "A heckuva entertaining film.", "is_fresh": 1, "author": ["Gary Rotstein"]},
{"text": "[Shane Black] never lets the film breathe, and The Nice Guys gets smothered by its own smugness.", "is_fresh": 0, "author": ["Noah Gittell"]},
{"text": "Why see this film? Partly because of the leading men, but mainly because of a girl.", "is_fresh": 1, "author": ["Anthony Lane"]},
{"text": "Director and co-writer Shane Black (the grand \"Kiss Kiss Bang Bang\") offers up '70s-era laughs by the guffaw-full, including one great bit in which Gosling borrows heavily from the very late and ever-great Lou Costello. ", "is_fresh": 1, "author": ["John Urbancich"]},
{"text": "You need to see The Nice Guys for, hands down, the greatest comedic performance of the year. It belongs to Ryan Gosling.", "is_fresh": 1, "author": ["Christopher Campbell"]},
{"text": "Crowe and Gosling have mismatched-buddy chemistry to burn. Black riffs on LA Confidential, 48HRs and his own Lethal Weapon script. ", "is_fresh": 1, "author": ["James Verniere"]},
{"text": "You may not recognize Russell Crowe and Ryan Gosling in Nice Guys. Here's why that's a good thing.", "is_fresh": 1, "author": ["Christian Toto"]},
{"text": "Freewheeling buddy comedy has lots of mature content.", "is_fresh": 1, "author": ["S. Jhoanna Robledo"]},
{"text": "A nice summer treat.", "is_fresh": 1, "author": ["Kristian M. Lin"]},
{"text": "Despite its plot's mechanical issues, The Nice Guys has all the makings of must-see DVD and Blu-ray, when its long-winded story can be offset by the ability to rewind and rewatch some truly funny moments.", "is_fresh": 1, "author": ["Kirk Baird"]},
{"text": "A throwback to an earlier era, when big movies could still have strange little touches and lots of edge.", "is_fresh": 1, "author": ["Matt Singer"]},
{"text": "It has the byzantine plot of an L.A. noir, but races through it with the breathless energy of Black's other work.", "is_fresh": 1, "author": ["Scott Tobias"]},
{"text": "Few genres are more fun than a buddy movie done right. Crowe and Gosling have a blast with these characters and you get to share in the fun. ", "is_fresh": 1, "author": ["Gary Wolcott"]},
{"text": "I'd say they don't make them like this anymore, but they just did.", "is_fresh": 1, "author": ["Bill Newcott"]},
{"text": "The brilliantly conceived L.A. auto show climax is like a Rube Goldberg action piece.", "is_fresh": 1, "author": ["Laura Clifford"]},
{"text": "You won't see Captain America and Iron Man squaring off at an airport, but you do get Russell Crowe breaking Ryan Gosling's arm and then cheerfully downing a Yoo-hoo.", "is_fresh": 1, "author": ["Mara Reinstein"]},
{"text": "These are smart comedic performances, which more than compensates for the feeling that the pairing is ordinary.", "is_fresh": 1, "author": ["Mark Dujsik"]},
{"text": "The plot doesn't and doesn't have to make much sense, as the whole point is just to watch Gosling and Crowe tool around a long-lost L.A. in a convertible, trade quips and insults, and occasionally shoot people.", "is_fresh": 1, "author": ["Rob Thomas"]},
{"text": "The biggest problem with \"The Nice Guys\" is that it can't decide what it wants to be when it grows up --- a comedy or a violent thriller? ", "is_fresh": 0, "author": ["Jeanne Kaplan"]},
{"text": "Crowe and Gosling do exhibit an on-screen chemistry, but I would like to see them together in a better film.", "is_fresh": 0, "author": ["David Kaplan"]},
{"text": "Something of a hip, sexy, violent homage to the comedy stylings of Abbott and Costello, with the roles reversed.", "is_fresh": 1, "author": ["Jay Stone"]},
{"text": "Crowe and Gosling haven't been this engaging or energised on screen in years.", "is_fresh": 1, "author": ["Philip Concannon"]},
{"text": "The most fun consenting adults can legally have in a movie theater this summer.", "is_fresh": 1, "author": ["Jonathan W. Hickman"]},
{"text": "Might go down as the biggest missed opportunity of the summer.", "is_fresh": 0, "author": ["Willie Waffle"]},
{"text": "If you enjoyed the banter, stylings, and male bonding chemistry of a bygone era in the first \"Lethal Weapon\" flick, you'll probably have the same reaction to this. (Full Content Review for Parents - Sex, Nudity, Violence, Profanity etc. - Available)", "is_fresh": 1, "author": ["Jim Judy"]},
{"text": "It's not an especially successful film, but here's a handy tip: if you're not laughing within the first ten minutes, there's no reason to hang around for the remaining 100. ", "is_fresh": 0, "author": ["Brian Orndorf"]},
{"text": "Of all the year's movies that are not \"Deadpool,\" The Nice Guys might be the funniest. Well, it's one of them. ", "is_fresh": 1, "author": ["Kurt Loder"]},
{"text": "It's all delightfully fizzy, bloody fun - even if there's the teeniest, tiniest hint of sequel ambitions.", "is_fresh": 1, "author": ["Barry Hertz"]},
{"text": "\"The Nice Guys\" flies high on the chemistry between Gosling and Crowe, and Black gives them plenty to chew on. It's a gourmet summer treat. Nice, guys.", "is_fresh": 1, "author": ["Adam Graham"]},
{"text": "The film is at its best when Crowe and Gosling are on screen together. They create movie magic; their collective charisma explodes off the screen.", "is_fresh": 1, "author": ["Bob Bloom"]},
{"text": "The film works because it swerves and slips and slides around itself with a sort of thrilling abandon.", "is_fresh": 1, "author": ["Alicia Lutes"]},
{"text": "As an alternative for grown-ups looking to avoid the sequels and general noise of summer, The Nice Guys won't finish last. But it could have -- and should have -- been so much more.", "is_fresh": 1, "author": ["Christopher Lawrence"]},
{"text": "It's a testament to [Black's] confidence as a filmmaker that such odd touches fit seamlessly into this crazy, nimble detective yarn.", "is_fresh": 1, "author": ["Sean P. Means"]},
{"text": "The mix of wit, slapstick, and mayhem has some dead-on period detail and some shrewd commentary on contemporary issues. ", "is_fresh": 1, "author": ["Nell Minow"]},
{"text": "Shane Black is back doing the thing he does better than anyone else, writing and directing deliriously entertaining action comedies about mismatched partners battling an escalating threat.", "is_fresh": 1, "author": ["Norman Wilner"]},
{"text": "This movie starts at full speed and never stops. While there are flaws, watching these actors let loose amid a collage of explosions, gunfire, drugs and filth is just too fun to slight Black for some clich\u00e9s.", "is_fresh": 1, "author": ["AP Kryza"]},
{"text": "Shane Black's The Nice Guys brings us a 1970s that's halfway between Inherent Vice and the Beastie Boys' Sabotage video, shabby and scrappy and loose. ", "is_fresh": 1, "author": ["Jeffrey M. Anderson"]},
{"text": "The Nice Guys makes up for weak characters by consistently subverting the cliches of action movie filmmaking.", "is_fresh": 1, "author": ["Joshua Starnes"]},
{"text": "Some viewers may find the violence a bit much, although it does lean toward the cartoonish... Best of all, it's funny. It's fair to say that in this instance, Nice Guys do finish first.", "is_fresh": 1, "author": ["Chris Knight"]},
{"text": "It creates great on-screen chemistry between Gosling and Crowe - as brute adversaries who partner up as private eyes to solve a criminal conspiracy. And it blows your mind with its sense of absurdity - even while making the crime caper count. ", "is_fresh": 1, "author": ["Bruce Kirkland"]},
{"text": "Because this is set in Los Angeles in the 1970s, we're supposed to think back to Chinatown and The Long Goodbye and excuse the opaque plot, around which Black's eccentric gags float like seasoned croutons in bland soup. ", "is_fresh": 0, "author": ["J. R. Jones"]},
{"text": "The nefarious plot at the core of \"The Nice Guys\" doesn't hold up to the most casual scrutiny. Fortunately, about everything else does in this entertaining crime comedy, from the look to the tone to the throwaway details.", "is_fresh": 1, "author": ["Jon Niccum"]},
{"text": "For a movie predicated on slapstick forward momentum, we spend an awful lot of time driving backward.", "is_fresh": 0, "author": ["Ty Burr"]},
{"text": "Though the plot here may be a confusing, multi-threaded mess ... it's occasionally offset by the exuberance with which Black blends splatter and slapstick, and the leeway he grants his two very game leads.", "is_fresh": 1, "author": ["Justin Chang"]},
{"text": "It freshens the odd-couple formula with some nice period and father-daughter twists.", "is_fresh": 1, "author": ["Lou Lumenick"]},
{"text": "Plenty of general-interest slapstick, wordplay, and buffoonery, adding up to a loopy, well-assembled lark.", "is_fresh": 1, "author": ["Eric D. Snider"]},
{"text": "Everything has its own illogic in \"The Nice Guys,\" a consistently entertaining, frequently violent and generally slapdash action comedy directed by Shane Black.", "is_fresh": 1, "author": ["Joe Morgenstern"]},
{"text": "Gosling and Crowe do have chemistry, and an obvious sense of humor which gets them far. They'd have gotten farther, though, if the movie, while at times hilarious, didn't have such an uneven feel.", "is_fresh": 1, "author": ["Jocelyn Noveck"]},
{"text": "The concept is solid and Black's formula for this kind of film has worked before. Where The Good Guys goes astray is in Black's decision to downplay the '70s as fodder for his script and the casting of Gosling as the quirky private detective.", "is_fresh": 0, "author": ["Rick Bentley"]},
{"text": "Crowe and Gosling are having some career fun here. It's just contagious enough if you don't expect too much more than that.", "is_fresh": 1, "author": ["Jeff Simon"]},
{"text": "The best thing The Nice Guys has going for it are two laid-back, easygoing, deeply likable performances by its stars.", "is_fresh": 1, "author": ["Will Leitch"]},
{"text": "Although it hits all of the usual beats of a Shane Black feature, The Nice Guys does so with such remarkable efficiency, brimming with witty banter, solid action and even a little heart, that it feels totally fresh.", "is_fresh": 1, "author": ["Jason Zingale"]},
{"text": "Until going off the rails, The Nice Guys is a locomotive breath of retro air, an action comedy winking while wallowing in slapstick brutality. Punchlines that are actual punches, bones broken funny, that sort of thing.", "is_fresh": 1, "author": ["Steve Persall"]},
{"text": "While the characters are distinctive and charming, and the dialogue is often pretty funny, The Nice Guys is a large step down on the ambition scale from Kiss Kiss.", "is_fresh": 1, "author": ["Tasha Robinson"]},
{"text": "The sheer chaos of it all is exactly what makes \"The Nice Guys\" such a fun ride.", "is_fresh": 1, "author": ["Travis Hopson"]},
{"text": "Strong physical comedy, great timing, winning dialogue and off-the-charts chemistry all make The Nice Guys a hilarious ride.", "is_fresh": 1, "author": ["Lauren Chval"]},
{"text": "Perhaps unfocused and off-balance at times, but conveying a sense of buoyancy that's as cheerfully contagious as it is freewheeling.", "is_fresh": 1, "author": ["Ann Hornaday"]},
{"text": "From my point of view it's not a great or especially fine movie, but a good near-miss.", "is_fresh": 1, "author": ["Colin Covert"]},
{"text": "Does it include scenes that some may find painful to watch? You bet. Will you be entertained? Thoroughly.", "is_fresh": 1, "author": ["Calvin Wilson"]},
{"text": "A juicy, slam-bang action-comedy cocktail punched up, pimped out and powered down with rowdy, new-fangled film-noir fun.", "is_fresh": 1, "author": ["Neil Pond"]},
{"text": "Absolutely the most fun you'll have in a movie theater this summer. ", "is_fresh": 1, "author": ["Chris Bumbray"]},
{"text": "The Nice Guys borrows from noir traditions and pulp fiction, throwing a fresh coat of smart-alecky comedy over the whole thing.", "is_fresh": 1, "author": ["Steven Rea"]},
{"text": "There's no reason why it shouldn't be both great fun and warmly human, but alas, it just isn't either. ", "is_fresh": 0, "author": ["Matthew Lickona"]},
{"text": "The Nice Guys is more than a nice time at the movies. It's a total delight.", "is_fresh": 1, "author": ["Matt Goldberg"]},
{"text": "It all adds up to The Nice Guys being cool, man, very cool.", "is_fresh": 1, "author": ["Michael Smith"]},
{"text": "Crowe and Gosling save the day. They both look like hell for most of the film, with neither actor demonstrating a wisp of vanity as they throw themselves into this cheerfully nasty mess.", "is_fresh": 1, "author": ["Richard Roeper"]},
{"text": "Laughter trumps logic here, and the laughs flow freely.", "is_fresh": 1, "author": ["Lawrence Toppman"]},
{"text": "The porn, the drugs, the smog, the bad haircuts - you can play it for laughs or play it straight. With terrific performances from Ryan Gosling and Russell Crowe, Black does a little of both.", "is_fresh": 1, "author": ["Bill Goodykoontz"]},
{"text": "The film overflows with quips, irony, and physical gags while at the same time relating a noir-tinged story of seedy corruption set in the neon-saturated underbelly of the 1977 Los Angeles porn industry.", "is_fresh": 1, "author": ["James Berardinelli"]},
{"text": "A likably tetchy comedy squinting its way through the chest cough of Los Angeles smog circa 1977.", "is_fresh": 1, "author": ["Kimberley Jones"]},
{"text": "The Nice Guys may not be Chinatown, but it could be an updated Lethal Weapon.", "is_fresh": 1, "author": ["Dann Gire"]},
{"text": "Russell Crowe and Ryan Gosling make for a great comedy duo in this dark, cynical noir with an unexpectedly earnest center.", "is_fresh": 1, "author": ["Rebecca Pahle"]},
{"text": "Crowe and Gosling are fine, but they never form a genuine rapport. These actors are known for intensity and screen-hogging, not warmth or comedic timing, and here they seem to be moving in parallel but not fully in sync.", "is_fresh": 0, "author": ["Rafer Guzman"]},
{"text": "An affectionate parody of the sort of mismatched-buddy action comedies that proliferated in the seventies and eighties, better than most of them were. ", "is_fresh": 1, "author": ["Frank Swietek"]},
{"text": "No, it doesn't deliver anything new. But it does bring back something old and for 100 minutes or so, that's enough.", "is_fresh": 1, "author": ["Stephen Whitty"]},
{"text": "This run-down, wood-paneled world of AMC Pacers and The Pina Colada Song makes an appropriate setting for this lightweight yet diverting action comedy that, aside from being too long, has the sense not to take itself too seriously.", "is_fresh": 1, "author": ["Cary Darling"]},
{"text": "Even nostalgic nonsense requires more than attitude and energy, which is all that Mr. Black has to offer. And despite all its restless detective work, \"The Nice Guys\" is unable to track down a soul or a reason for being.", "is_fresh": 0, "author": ["A.O. Scott"]},
{"text": "The Nice Guys never lives up to the promise of its hilarious first 10 minutes, but Crowe and Gosling are good enough to leave you hoping for a sequel.", "is_fresh": 1, "author": ["Rene Rodriguez"]},
{"text": "The pair bounce so successfully off one another that this feels like a double act for the ages, in a film that actually deserves to spawn a sequel.", "is_fresh": 1, "author": ["Emma Simmonds"]},
{"text": "Is it fun? Parts, yes, and many will get exactly what they wanted from \"The Nice Guys\": violence, wisecracks, a couple of choice sight gags ... plus the usual angry-mismatched-buddy-cops-but-not-really-cops routine.", "is_fresh": 1, "author": ["Michael Phillips"]},
{"text": "\"The Nice Guys\" is basically \"Chinatown\" remade by Quentin Tarantino and starring foulmouthed, updated versions of Abbott and Costello, as played by two of the most recognizable male stars of our time. Make your purchasing decisions accordingly.", "is_fresh": 1, "author": ["Andrew O'Hehir"]},
{"text": "It's a bombardment of audacity and outrageous humor that never lets up.", "is_fresh": 1, "author": ["Mick LaSalle"]},
{"text": "The Nice Guys is another sub-mental movie for morons churned out by the kind of sophomoric Hollywood machine that trademarks the works of Judd Apatow & Co.", "is_fresh": 0, "author": ["Rex Reed"]},
{"text": "The Nice Guys is funny enough when it sticks to its heroes-whether pinned in a tight spot or bickering with each other-that its less-than-compelling intrigues and digressions come as an acceptable trade-off.", "is_fresh": 1, "author": ["Ignatiy Vishnevetsky"]},
{"text": "It nicely captures the seediness of L.A. in the '70s , but, despite a very encouraging first act, it loses steam and gets bogged down in its own narrative.", "is_fresh": 0, "author": ["Anders Wright"]},
{"text": "Consistently funny from beginning to end, even as the story eventually runs out of steam. ", "is_fresh": 1, "author": ["Josh Bell"]},
{"text": "This one's a cheerfully violent blast to the past that's as comfy as a broken in go-go boot.", "is_fresh": 1, "author": ["Joanna Langfield"]},
{"text": "Surprisingly, as a character piece observing two loners who just might be made for each other, The Nice Guys shines far brighter than expected.", "is_fresh": 1, "author": ["Chris Stuckmann"]},
{"text": "Gosling and Crowe give very charming, lighter-than-air performances.", "is_fresh": 1, "author": ["John Lui"]},
{"text": "Boisterous and bombastic without sacrificing the dark cynicism at its heart, The Nice Guys is a violent, propulsive, and knowingly trashy caper that puts a premium on hell-for-leather, hard-hitting entertainment value. ", "is_fresh": 1, "author": ["Isaac Feldberg"]},
{"text": "Russell Crowe and Ryan Gosling are clearly enjoying the hell out of each other in this crime caper set in 1977 Los Angeles. So how can you resist? ", "is_fresh": 1, "author": ["Peter Travers"]},
{"text": "Crowe and Gosling are a perfect mismatch. They skulk around Los Angeles like a bear and a weasel who just escaped from the circus. ", "is_fresh": 1, "author": ["Amy Nicholson"]},
{"text": "One of the purest expressions of Black's aesthetic, a bloody, hilarious, convoluted mystery that's as funny as it's dark. ", "is_fresh": 1, "author": ["Katie Walsh"]},
{"text": "Playing like a spiritual sibling to Kiss Kiss Bang Bang, The Nice Guys is laud-out-loud funny and edge-of-your-seat exciting.", "is_fresh": 1, "author": ["Kristy Puchko"]},
{"text": "The movie is a throwback in many ways but also proves a dynamic duo can still be just as effective in modern cinema as a superhero ensemble cast. For The Nice Guys, it takes two to make it outta sight.", "is_fresh": 1, "author": ["Brian Truitt"]},
{"text": "[Crowe and Gosling] become a surprisingly brilliant comedy duo, carrying \"The Nice Guys\" past a few flat jokes, needed edits and a cluttered finale.", "is_fresh": 1, "author": ["Brian Tallerico"]},
{"text": "An energetically acerbic, sneakily touching joyride through a bygone vision of Hollywood.", "is_fresh": 1, "author": ["Dustin Putman"]},
{"text": "Glorious mayhem reigns left, right and centre in one of the best - and certainly funniest - films of 2016 to date.", "is_fresh": 1, "author": ["Matthew Anderson"]},
{"text": "It's overlong by about 15 minutes and goes in too many directions at once. But thanks to a groovy period vibe and the A-list stars, you're along for the ride.", "is_fresh": 1, "author": ["Joe Dziemianowicz"]},
{"text": "Shane Black's The Nice Guys doesn't want for great exchanges, and even disposable conversations brim with acidic wit.", "is_fresh": 1, "author": ["Jake Cole"]},
{"text": "The duo's swearier Abbott and Costello routine is an endless riot, fueled mainly by Gosling's full-bodied nervy cowardice. His high-pitched girlish scream is ever so beautiful.", "is_fresh": 1, "author": ["Dan Schindel"]},
{"text": "The Nice Guys, ultimately, might be a little too nice, but Black and his cast really want you to have a ball.", "is_fresh": 1, "author": ["Alan Scherstuhl"]},
{"text": "Gosling does enough stumbling and bumbling and falling from balconies (twice!) to earn the term Keatonesque.", "is_fresh": 1, "author": ["Josh Larsen"]},
{"text": "Basically, it's Inherent Vice without the highbrow aspirations, or The Big Lebowski with two Dudes.", "is_fresh": 1, "author": ["Chris Nashawaty"]},
{"text": "In Gosling's pairing with the laconic Crowe, it finds a genuinely pleasurable pair of losers trying hard to eke out a win.", "is_fresh": 1, "author": ["Alison Willmore"]},
{"text": "Watching it you can picture its makers agonizing over the script's every inch: making sure each quip was jot-down-able, each plot turn surprising, each plant given a showstopping payoff.", "is_fresh": 1, "author": ["Matt Prigge"]},
{"text": "Funny, in that casually violent Shane Black way. But Russell Crowe, as \"Saturday Night Live\" proved, has no flair for comedy. At all. ", "is_fresh": 1, "author": ["Roger Moore"]},
{"text": "The Nice Guys spends two hours treating Crowe and Gosling like a pair of pi\u00f1atas, beating them mercilessly and unapologetically, and it's watching them crawl out from underneath and towards some form of redemption that makes the film a genuine smash.", "is_fresh": 1, "author": ["Michael Roffman"]},
{"text": "Shane Black's 'The Nice Guys' is exactly the movie you wanted it to be.", "is_fresh": 1, "author": ["Scott Mendelson"]},
{"text": "Crowe and Gosling nail it and make this one of the year's most air-punchingly enjoyable movies.", "is_fresh": 1, "author": ["Simon Thompson"]},
{"text": "The detective genre has persisted because it has everything you could want from a film - intrigue, action, suspense, romance, adventure and humanity - and Black's latest delivers all of that. ", "is_fresh": 1, "author": ["Eric Eisenberg"]},
{"text": "This feels like a movie I should already be referencing as an example of the type of movie that studios don't make anymore, but I can't because it's new.", "is_fresh": 1, "author": ["Mike Ryan"]},
{"text": "Subversively skewed, this fast-paced action/comedy is filled with unpredictable chaos and wickedly clever confusion.", "is_fresh": 1, "author": ["Susan Granger"]},
{"text": "maintains a breezy appeal despite its mishmash of tones. Black's vision of burnt-out SoCal crisis isn't about the issues themselves but the flawed people grappling with them.", "is_fresh": 1, "author": ["Glenn Heath Jr."]},
{"text": "There's little else quite like this fast-paced, deeply funny mystery - except Shane Black's other films", "is_fresh": 1, "author": ["Russ Fischer"]},
{"text": "Gosling and Crowe's breezy give-and-take goes a long way in elevating \"The Nice Guys\" above the moments where cynicism overwhelms the comedy.", "is_fresh": 1, "author": ["Alonso Duralde"]},
{"text": "The Nice Guys is the perfect, incredibly crafted yet laid-back procedural we've been starved for.", "is_fresh": 1, "author": ["Tomris Laffly"]},
{"text": "Shane Black, the buddy action auteur, is back in his wheelhouse-and he's delivered another inspired onscreen pairing in the blundering one-two punch of Gosling and Crowe.", "is_fresh": 1, "author": ["Jen Yamato"]},
{"text": "Based strictly on performance and a cinematic confidence that borders on arrogance, this is a highly entertaining film...", "is_fresh": 1, "author": ["David Crow"]},
{"text": "Ryan Gosling and Russell Crowe, paired up as a goofball detective and hit man, stumble and bicker their way through the funniest roles of their careers. ", "is_fresh": 1, "author": ["Eric Kohn"]},
{"text": "The BFG feels very much like Spielberg's Powell and Pressburger film - it's a picture that could have only been made now, but feels rooted in the past.", "is_fresh": 1, "author": ["Robbie Collin"]},
{"text": "An innocent pleasure.", "is_fresh": 1, "author": ["Peter Bradshaw"]},
{"text": "That the film mostly falls flat has far more to do with the largely unconvincing material rather than with the co-stars, who are more than game ...", "is_fresh": 0, "author": ["Todd McCarthy"]},
{"text": "While their one-liners could be a lot sharper, Crowe and Gosling more than get by on stumblebum amiability.", "is_fresh": 1, "author": ["Jonathan Romney"]},
{"text": "The sort of cheerfully hostile buddy bash that's been a staple since the '80s, only this one is singularly clever about its own triviality, and it offers the scruffy pleasure of seeing two great actors dial down their gravitas with style.", "is_fresh": 1, "author": ["Owen Gleiberman"]}
]