[
{"reviews_count": "145", "title": "The Act of Killing", "avg_audience_rating": "4.2", "rotten_count": "6", "tomatometer": "96", "audience_score": "85", "avg_critic_rating": "8.7", "fresh_count": "139", "user_ratings_count": "14,910"},
{"text": "It all makes sense when you submit yourself to Oppenheimer's bizarre, tragic, and eye-opening experiment.", "is_fresh": 1, "author": ["Thrillist Entertainment Staff"]},
{"text": "What makes the film so powerful, and so provocative, is that the people whose imaginations spawned these spectacular images killed hundreds of people. ", "is_fresh": 1, "author": ["Pat Padua"]},
{"text": "Philosophically rich, visually stunning, emotionally devastating.", "is_fresh": 1, "author": ["Eve Tushnet"]},
{"text": "Rarely has the full potential of cinema itself been brought home so forcefully.", "is_fresh": 1, "author": ["Steve Erickson"]},
{"text": "The result is something we've never seen before - a new type of film - call it psycho-documentary - that's not just about mass crimes but the state of mind that produced them.", "is_fresh": 1, "author": ["Lynden Barber"]},
{"text": "[An] innovative piece of filmmaking so breathtakingly daring and powerful, it replaces your oxygen with awe. ", "is_fresh": 1, "author": ["Larushka Ivan-Zadeh"]},
{"text": "The visual highs and emotional payoffs contained within the film are well worth slogging through its slow patches.", "is_fresh": 1, "author": ["Abby Olcese"]},
{"text": "Fascinated by the action on screen, we might almost overlook the skill with which The Act of Killing has been conceived, edited, and directed.", "is_fresh": 1, "author": ["Francine Prose"]},
{"text": "The Act of Killing is as much a movie about the movies as it is a movie about real-life horror.", "is_fresh": 1, "author": ["Sonny Bunch"]},
{"text": "It's graceful and eloquent, and it has as its subject a lierotten culture-not merely in the official cant, but in the hearts and minds of even the poorest people.", "is_fresh": 1, "author": ["Michael Atkinson"]},
{"text": "Through its audacious and confrontational conceit, Killing offers piercing insights into the minds of murderers.", "is_fresh": 1, "author": ["MaryAnn Johanson"]},
{"text": "Once you grasp just what is being enacted on the screen, The Act of Killing becomes something like a candy-colored moral migraine. An existential nausea is inevitable.", "is_fresh": 1, "author": ["J. Hoberman"]},
{"text": "A warped phantasmagoria of denial that is essential viewing, even though it's almost impossible to watch.", "is_fresh": 1, "author": ["Sean Burns"]},
{"text": "Maddening, sorrowful, brilliant, and unforgettable.", "is_fresh": 1, "author": ["Dan Schindel"]},
{"text": "The film of the year, if not the decade, if not documentary history.", "is_fresh": 1, "author": ["Rima Sabina Aouf"]},
{"text": "Most challengingly, though, there is something palpably cathartic about the ritual of the re-creations.", "is_fresh": 1, "author": ["Jonathan Kiefer"]},
{"text": "One of the most audacious documentaries ever made, this mind-boggling film forces us to examine our opinions about human history far beyond the events covered on-screen. ", "is_fresh": 1, "author": ["Rich Cline"]},
{"text": "Bizarre documentary featuring Hollywood-inspired, interpretive song and dance reenactments of ethnic cleansing in Indonesia. ", "is_fresh": 1, "author": ["Kam Williams"]},
{"text": "Offers too many repetitive sections in which Anwar and company seem to be waxing nostalgic rather than exploring the implications of what they did.", "is_fresh": 0, "author": ["Mike McGranaghan"]},
{"text": "Raw and wrenching but narrow retro-focus on the slaughter of millions of Indonesian leftists in collusion with the CIA. But much like Out Of The Furnace, locating truth evasively within the masses, rather than tracing US government and economic roots. ", "is_fresh": 1, "author": ["Prairie Miller"]},
{"text": "It's a long and uncomfortable journey, but The Act of Killing is also fascinating, using film as a hall of mirrors to reveal not just the faces, but the twisted souls, of murderers.", "is_fresh": 1, "author": ["Damon Wise"]},
{"text": "Oppenheimer demonstrates how easily the passive spectator can become an unlikely abettor, and the great cause of his film is to make his actors and audience recognize their moral culpability.", "is_fresh": 1, "author": ["Christopher Gray"]},
{"text": "[The film explores] what happens when you give those who have done something terrible (in this case, killing thousands) a forum through which to tell their story to see if a new perspective changes their attitude.", "is_fresh": 1, "author": ["Allison Loring"]},
{"text": "The shock of the final scene must be left unspoken; suffice to say its impact exceeds even the nightmarish queasiness which this brilliant and horrible film has striven to contain.", "is_fresh": 1, "author": ["Anthony Quinn"]},
{"text": "[There is] an emotional disconnect that seems downright dangerous in a film about genocide.", "is_fresh": 0, "author": ["Jennifer Merin"]},
{"text": "I hate to make statements like this, but here it comes: The Act of Killing may be the strangest documentary you see this year (this decade?).", "is_fresh": 1, "author": ["Clint O'Connor"]},
{"text": "The cameras bring out the worst in all concerned, who think nothing of singing and dancing about mass murder.", "is_fresh": 1, "author": ["Norman Wilner"]},
{"text": "This is living history as a surreal pageant.", "is_fresh": 1, "author": ["Peter Galvin"]},
{"text": "The emotionally manipulative use of some of the material raises all kinds of questions about veracity.", "is_fresh": 0, "author": ["Tony Rayns"]},
{"text": "One thing's for sure. You won't see another documentary like this one.", "is_fresh": 1, "author": ["Edward Johnson-Ott"]},
{"text": "Of all the uncomfortable experiences you might endure in the name of understanding the evils of history, this film is arguably the kind that is most necessary.", "is_fresh": 1, "author": ["Ruth Brown"]},
{"text": "The Act of Killing works brilliantly on many levels, capturing like no other documentary I have seen, like no other film I can imagine, the fevered insanity of those days.", "is_fresh": 1, "author": ["Evan Williams"]},
{"text": "The originality of The Act of Killing lies in Oppenheimer's decision to treat artifice as a roundabout path to truth.", "is_fresh": 1, "author": ["Jake Wilson"]},
{"text": "Bizarre, hypnotic, audacious.", "is_fresh": 1, "author": ["James Adams"]},
{"text": "The emotional places this troubling movie takes him to are rewardingly primal and potent, forcing both subject and viewer to wrestle with internal demons.", "is_fresh": 1, "author": ["Keith Uhlich"]},
{"text": "I certainly do not move that the film should be suppressed, only that one should know what it is. It is a bath in a smiling madness. ", "is_fresh": 1, "author": ["Stanley Kauffmann"]},
{"text": "A haunting true story confessional doc about the mass killings of a million people depicted as communists in the Indonesia of 1965 and 1966.", "is_fresh": 1, "author": ["Dennis Schwartz"]},
{"text": "This film is a prime example of how art can succeed where textbooks and historical works sometimes fail. It is also an example of how Hollywood films can inspire murderers to kill thousands of people with style.", "is_fresh": 1, "author": ["Robert Roten"]},
{"text": "the company films [the killers] re-enacting their murders in the style of American gangster films and lavish musicals, claiming to film them for a movie.", "is_fresh": 1, "author": ["Mark R. Leeper"]},
{"text": "Extraordinarily original, psychologically acute and profoundly disturbing...", "is_fresh": 1, "author": ["John Beifuss"]},
{"text": "A truly haunting documentary masterpiece.", "is_fresh": 1, "author": ["Jim Schembri"]},
{"text": "The film is far too long and repetitive, even though it's often gobsmacking in its frank portrayal of these truly nasty, ugly human beings who boast on television about their killings and are ready to keep on killing. Nay, keen to do so", "is_fresh": 1, "author": ["Andrew L. Urban"]},
{"text": "Probably the most horrifying and, at the same time, compelling movie you're likely to see this year. It's difficult to endure, yet impossible not to watch.", "is_fresh": 1, "author": ["Sean P. Means"]},
{"text": "Director Joshua Oppenheimer shines a light on one of the 20th century's most under-reported atrocities, but his film, years in the making, is so much more than a straightforward history lesson.", "is_fresh": 1, "author": ["Marc Mohan"]},
{"text": "On the one hand, Congo and his pals are pure, unadulterated evil. Yet they all worked in a system which still embraces them to this day, to an ends where everyone agrees the means were justified. ", "is_fresh": 1, "author": ["Bill Gibron"]},
{"text": "This is a horrifying, unflinching film with Congo serving as the darkest heart of a past that continues to go unpunished and seems ready to repeat itself at any moment.", "is_fresh": 1, "author": ["Mark Dujsik"]},
{"text": "Oppenheimer captures dozens of shocking, candid moments... My initial reaction was disbelief. ", "is_fresh": 1, "author": ["John Serba"]},
{"text": "By turning murder into performance, \"The Act of Killing\" dramatizes the perverted hearts of these men, the twisted mental leaps they needed to feel okay, and even proud, of what they've done.", "is_fresh": 1, "author": ["Rob Thomas"]},
{"text": "A powerful look at an Indonesian atrocity", "is_fresh": 1, "author": ["Robert Denerstein"]},
{"text": "..intentionally keeps comprehension at bay, and therein lies its moral forcefulness.", "is_fresh": 1, "author": ["Josh Larsen"]},
{"text": "This stunning \"documentary of the imagination\" shows Anwar and other thugs staging scenes of torture and murder for the camera. ", "is_fresh": 1, "author": ["Bill Stamets"]},
{"text": "An odd but riveting film that slowly peels back the veneer of one man's tough-guy image and illustrates the very real psychic toll of murder.", "is_fresh": 1, "author": ["Mike Scott"]},
{"text": "Absolutely shattering.", "is_fresh": 1, "author": ["Anders Wright"]},
{"text": "In The Act of Killing, director Joshua Oppenheimer pulls off the impossible: He confronts great, incomprehensible evil and puts a human face on it.", "is_fresh": 1, "author": ["Rene Rodriguez"]},
{"text": "The film absolutely doesn't glamorize this behavior, and it's staggering the matter-of-fact manner with which some of these killers and corruption advocates speak.", "is_fresh": 1, "author": ["Matt Pais"]},
{"text": "These bizarre images distract from the question at the center of the film: whether it was film-watching itself that carried the seed of all this cruelty. ", "is_fresh": 0, "author": ["Richard von Busack"]},
{"text": "This film is jaw-dropping. It's a must-see.", "is_fresh": 1, "author": ["Brian Tallerico"]},
{"text": "The Absurd-Banal-Hideous-O-Meter hits eleven and breaks.", "is_fresh": 1, "author": ["Kelly Vance"]},
{"text": "The best documentary to grace U.S. screens in years. It's horrifying, riveting, and even, at times, darkly funny.", "is_fresh": 1, "author": ["Stephen Silver"]},
{"text": "The Act of Killing allows the victors a forum to elaborate on their story, and, by their own hands, these aged conquerors unwittingly rewrite aspects of the history that has propped them up for so many decades.", "is_fresh": 1, "author": ["Marjorie Baumgarten"]},
{"text": "... a fascinating exploration into the ways that guilt can manifest itself ... a mind-boggling two hours.", "is_fresh": 1, "author": ["Eric Melin"]},
{"text": "\"The Act of Killing\" is difficult to watch because it toys with your emotions. These men repel you, yet simultaneously, draw you to them, as they nonchalantly and proudly brag about their work.", "is_fresh": 1, "author": ["Bob Bloom"]},
{"text": "A shocking exhibition of what Hannah Arendt called the banality of evil--or, in this case, the absurdity of evil.", "is_fresh": 1, "author": ["Frank Swietek"]},
{"text": "'The Act of Killing' is unsettling in drawing in the viewer, in almost humanizing its unrepentant vile inhuman men who in theory did not act for personal motives.", "is_fresh": 1, "author": ["Donald J. Levit"]},
{"text": "Joshua Oppenheimer's documentary interviews leaders of Indonesian death squads responsible for deaths of millions & has them re-enact the killings. The combination of drama therapy and accidental self-exposure - utterly bizarre, unexpected and valuable. ", "is_fresh": 1, "author": ["Mick LaSalle"]},
{"text": "[A] unique and unforgettable documentary.", "is_fresh": 1, "author": ["J. R. Jones"]},
{"text": "The Act of Killing will mesmerize, confound and haunt you. From the opening scenes you'll wonder if what you're watching is real. And by the end you'll wish that it had all been a horrible fever dream.", "is_fresh": 1, "author": ["Matthew Odam"]},
{"text": "The acts it describes are shocking, the world it shows is shocking and the filmmaking itself is shocking. This is not a film easily forgotten.", "is_fresh": 1, "author": ["Tom Long"]},
{"text": "There is no sense of remorse in these men for what they did to so many innocent people and that...is chilling.", "is_fresh": 1, "author": ["Robin Clifford"]},
{"text": "Watching these crazy loons make a movie about their crimes against humanity may not be the most pleasant way to spend an evening. But you can't deny that it's utterly fascinating.", "is_fresh": 1, "author": ["Al Alexander"]},
{"text": "Directors Joshua Oppenheimer and Christine Cynn have created something extraordinary in The Act of Killing, the much-talked-about documentary about torture and murder during the Indonesian dictatorship of the '60s and '70s.", "is_fresh": 1, "author": ["Cary Darling"]},
{"text": "A horrifying yet mesmerizing work, \"The Act of Killing\" instructively meanders at times as in a Werner Herzog film.", "is_fresh": 1, "author": ["Tom Keogh"]},
{"text": "This riveting documentary about political mass murder in Indonesia incorporates the killers' own movie fantasies about their massacres and deepens our understanding of the fascist brain.", "is_fresh": 1, "author": ["Michael Sragow"]},
{"text": "It is utterly chilling.", "is_fresh": 1, "author": ["Steven Rea"]},
{"text": "Better characters could hardly have been invented.", "is_fresh": 1, "author": ["Laura Bennett"]},
{"text": "What Oppenheimer is after is a parallel story, a glimpse into the minds of men who can recount mass killings and think \"Those were the days.\"", "is_fresh": 1, "author": ["Colin Covert"]},
{"text": "\"The Act of Killing\" works on so many levels -- psychodrama, horror movie, Orwellian nightmare, Poe story -- that sifting through your reactions could take days.", "is_fresh": 1, "author": ["Rafer Guzman"]},
{"text": "I can't be more direct. \"The Act of Killing\" is one of the most extraordinary films you'll ever encounter, not to mention one of the craziest filmmaking concepts anywhere, and that includes the whole Bollywood thing.", "is_fresh": 1, "author": ["Janice Page"]},
{"text": "It's a tough watch, but it's not like anything you've ever seen.", "is_fresh": 1, "author": ["Chris Hewitt (St. Paul)"]},
{"text": "It's a film that is absolutely hard to watch. It's also a film that absolutely should be seen.", "is_fresh": 1, "author": ["Bill Goodykoontz"]},
{"text": "Anwar Congo may be the scariest person you'll see on screen this year.", "is_fresh": 1, "author": ["Laura Clifford"]},
{"text": "Oppenheimer allows murderous thugs free rein to preen their atrocities, and then fobs it all off as some kind of exalted art thing. This is more than an aesthetic crime; it's a moral crime.", "is_fresh": 0, "author": ["Peter Rainer"]},
{"text": "If director Joshua Oppenheimer occasionally loses his way in his own narrative, where this picture demands attention is in its chilling portrait of indoctrination and evil.", "is_fresh": 1, "author": ["Dustin Putman"]},
{"text": "Whatever you call it, The Act of Killing is a must-see.", "is_fresh": 1, "author": ["Ann Hornaday"]},
{"text": "It's a mind-bending film, devastating and disorienting, that disturbs us in ways we're not used to being disturbed ...", "is_fresh": 1, "author": ["Kenneth Turan"]},
{"text": "[It] may be one of the most horrifying films you'll ever see, and one of the most edifying.", "is_fresh": 1, "author": ["Joe Morgenstern"]},
{"text": "It's a gut-wrenching and emotionally exhausting look at impunity that resonates far beyond its obscure central conflict.", "is_fresh": 1, "author": ["Todd Jorgenson"]},
{"text": "A cynically exploitative film made in the name of human rights, which it has about as much to do with as the Punked show on MTV.", "is_fresh": 0, "author": ["Louis Proyect"]},
{"text": "Presenting a terrifying view of a hidden holocaust and a moral apocalypse in which the most basic humanities have become twisted beyond recognition, The Act of Killing is a towering achievement in filmmaking, documentary or otherwise.", "is_fresh": 1, "author": ["Jessica Kiang"]},
{"text": "The magnitude of this achievement, this depiction of a diseased and corrupt society that is in so many ways similar to our own, cannot be understated.", "is_fresh": 1, "author": ["Robert Levin"]},
{"text": "I have watched hundreds of hours of war crimes, genocides and miscarriages of justice carried out by unremarkable men with dimly lit souls. \"The Act of Killing\" bids to outdo them all.", "is_fresh": 1, "author": ["Steven Boone"]},
{"text": "It will leave you breathless.", "is_fresh": 1, "author": ["Linda Barnard"]},
{"text": "It's a virtually unprecedented social document.", "is_fresh": 1, "author": ["Bob Mondello"]},
{"text": "The cumulative impact is devastating, and very far from a simple Western condemnation of another country's brutality.", "is_fresh": 1, "author": ["Farran Smith Nehme"]},
{"text": "Atrocity hides beneath a grandfather's gentle smile in \"The Act of Killing,\" Joshua Oppenheimer's remarkable, unnerving documentary portrait of barbarity and its lasting legacies. ", "is_fresh": 1, "author": ["Greg Evans"]},
{"text": "Among the most profound, formally complex, and emotionally overpowering documentaries I've ever seen.", "is_fresh": 1, "author": ["Dana Stevens"]},
{"text": "As filming continues, the quiet brilliance behind the assignment comes to light.", "is_fresh": 1, "author": ["Manori Ravindran"]},
{"text": "Ultimately, The Act Of Killing acknowledges that while Oppenheimer may have subtly tortured their conscience, these thugs are paying no real price.", "is_fresh": 1, "author": ["Noel Murray"]},
{"text": "Prepare to be shocked, disgusted, enraged and emotionally devastated. It's the most terrifying film in years.", "is_fresh": 1, "author": ["Avi Offer"]},
{"text": "This chilling documentary, executive produced by Werner Herzog and Errol Morris, has a twisted but illuminating point of entry.", "is_fresh": 1, "author": ["Joe Neumaier"]},
{"text": "This is not a movie that lets go of you easily.", "is_fresh": 1, "author": ["A.O. Scott"]},
{"text": "There are good reasons to see The Act of Killing, a new documentary directed by Joshua Oppenheimer, but pleasure is not among them.", "is_fresh": 1, "author": ["Anthony Lane"]},
{"text": "You've never seen anything like The Act of Killing.", "is_fresh": 1, "author": ["Jay Stone"]},
{"text": "By tackling one man's sense of right and wrong (or lack thereof), Oppenheimer is ultimately tackling human nature.", "is_fresh": 1, "author": ["Ignatiy Vishnevetsky"]},
{"text": "The film is so shocking and depressing that its subjects' utter disconnection from morality would almost be funny if it wasn't so frightening.", "is_fresh": 1, "author": ["Tim Grierson"]},
{"text": "Remarkably complex documentary about Indonesian genocide has the unrepentant, unpunished perpetrators make a movie about what they did in 1965.", "is_fresh": 1, "author": ["Sarah Sluis"]},
{"text": "However, by humanizing psychopathic behavior, \"The Act of Killing\" is unparalleled in its unsettling perspective on the delusions associated with dictatorial extremes.", "is_fresh": 1, "author": ["Eric Kohn"]},
{"text": "A supreme testament to the cinema's capacity for inquiry, confrontation, and remembrance. ", "is_fresh": 1, "author": ["Nick Schager"]},
{"text": "A surreal, chilling and unprecedented examination of atrocity and accountability, it's difficult to think of another documentary -- or piece of media -- that so thoroughly captures a mass murderer's conscience -- as well as charting its evolution.", "is_fresh": 1, "author": ["Anthony Kaufman"]},
{"text": "Crime but no punishment in remarkably revealing film about Indonesian death squads.", "is_fresh": 1, "author": ["Stephen Dalton"]},
{"text": "A blood-boiling look at a crime whose perpetrators remain national heroes in their native Indonesia.", "is_fresh": 1, "author": ["Peter Debruge"]},
{"text": "\"The Act of Killing\" is disquieting, uncomfortable ... and riveting.\" ", "is_fresh": 1, "author": ["James Rocchi"]},
{"text": "The most gut-wrenching 'making of' documentary of all time.", "is_fresh": 1, "author": ["Matt Patches"]},
{"text": "Bizarre to the point of trippiness, yet it's one of the most lucid portraits of evil I've ever seen.", "is_fresh": 1, "author": ["David Edelstein"]},
{"text": "At once the most micro and meta combination of cin\u00e9ma v\u00e9rit\u00e9, documentary, and docudrama filmmaking techniques ever assembled, Joshua Oppenheimer's \"The Act of Killing\" is an earth-shattering cinema experience.", "is_fresh": 1, "author": ["Cole Smithey"]},
{"text": "As insights into the darkest corners of human mentality go, this is a truly remarkable, real-life alternative to movies like Downfall (the last days of Hitler) and The Last King of Scotland (the Idi Amin story).", "is_fresh": 1, "author": ["Graham Young"]},
{"text": "Joshua Oppenheimer's The Act of Killing is, at the very least, unlike anything we've seen before. Gruelling, harrowing, and weirdly funny.", "is_fresh": 1, "author": ["Simon Miraudo"]},
{"text": "A film that would be a satire were it not so chillingly real.", "is_fresh": 1, "author": ["Ron Wilkinson"]},
{"text": "The Act of Killing and its backstory no doubt have more to reveal upon closer investigation, though what it's shown is already hard to forget.", "is_fresh": 1, "author": ["Nicolas Rapold"]},
{"text": "This is an unflinching, captivating documentary that does much more than simply record or readdress history - it uses cinema as both judge and jury for a one-time executioner.", "is_fresh": 1, "author": ["Michael Leader"]},
{"text": "Opppenheimer's high-risk strategy of avoiding historical analysis and giving the film over to bragging mass murderers pays huge dividends.", "is_fresh": 1, "author": ["Tom Dawson"]},
{"text": "Unspeakable horror and utterly mundane madness are thrown together in the existential equivalent of the Large Hadron Collider - fact and fiction meeting head on with quietly earth-shattering results.", "is_fresh": 1, "author": ["Mark Kermode"]},
{"text": "Unforgettable. A no-fooling work of genius. ", "is_fresh": 1, "author": ["Tara Brady"]},
{"text": "The director has hit upon a form that renders these atrocities... as unsparing X-rays of the murderers' vast delusions. ", "is_fresh": 1, "author": ["Ryan Gilbey"]},
{"text": "It's one of the most gruelling and disturbing films you will ever see but, if you want the truth, essential.", "is_fresh": 1, "author": ["David Sexton"]},
{"text": "This ideological push and pull at the film's core supplies it with a sense of high drama. How far can Oppenheimer indulge the whims of his subject to further calcify his demonic inner-nature? ", "is_fresh": 1, "author": ["David Jenkins"]},
{"text": "An astonishing documentary that's essential viewing for anyone wishing to understand the darker aspects of the human condition.", "is_fresh": 1, "author": ["Christopher Tookey"]},
{"text": "It is a gut-churning film: and a radical dive into history, grabbing the past in a way a conventional documentary would not.", "is_fresh": 1, "author": ["Peter Bradshaw"]},
{"text": "First, the film beggars belief. Then it sends belief running into the hills, screaming for help and understanding.", "is_fresh": 1, "author": ["Nigel Andrews"]},
{"text": "This movie is essential.", "is_fresh": 1, "author": ["Tim Robey"]},
{"text": "Joshua Oppenheimer's film leaves too many questions unanswered but it's a chilling demonstration of the banality of evil and an eye-opening portrait of a corrupt nation.", "is_fresh": 1, "author": ["Henry Fitzherbert"]},
{"text": "Hopefully there will be as much of a lasting effect on the killers as this picture has on the viewer, in a feature that isn't likely to escape you easily.", "is_fresh": 1, "author": ["Stefan Pape"]},
{"text": "A sizzling doc that focuses on the repulsive bragging of two unpunished mass murderers treated by their government as heroes.", "is_fresh": 1, "author": ["Harvey S. Karten"]},
{"text": "You may need a stiff drink and a lie down afterwards.", "is_fresh": 1, "author": ["Mark Stafford"]},
{"text": "This extraordinary work serves up a series of shocking and surreal sequences, and uses the artifice of filmmaking to expose horrendous truths.", "is_fresh": 1, "author": ["Philip Concannon"]},
{"text": "Evil has rarely seemed so banal.", "is_fresh": 1, "author": ["Tom Dawson"]},
{"text": "Documentary cinema has a new apex.", "is_fresh": 1, "author": ["Blake Howard"]},
{"text": "The importance of this doco cannot be overstated in exposing a corrupt regime, highlighting the dangers of propaganda and holding a warped mirror to the monsters that walk the Earth as free men", "is_fresh": 1, "author": ["Cameron Williams"]},
{"text": "The brutal honesty that fills The Act Of Killing is a true testament to Joshua Oppenheimer's crafty documentarian skills which emotionally break characters down without them even knowing.", "is_fresh": 1, "author": ["Matt Donato"]},
{"text": "A startling wake-up call to the pornography of violence and its major role in crimes against humanity.", "is_fresh": 1, "author": ["Frederic and Mary Ann Brussat"]},
{"text": "In Joshua Oppenheimer's extraordinary The Act of Killing, film becomes the medium for a bold historical reckoning--and in more ways than one.", "is_fresh": 1, "author": ["Andrew Schenker"]},
{"text": "The Act of Killing is about the horrific past that warped and still rules Indonesia's present, but it's also about the stories we all construct so we can live with ourselves. ", "is_fresh": 1, "author": ["Elise Nakhnikian"]},
{"text": "One of this decade's most important and most harrowing documentaries, The Act of Killing is a shattering take on the nature of evil.", "is_fresh": 1, "author": ["Jason Gorber"]},
{"text": "Almost every frame is astonishing.", "is_fresh": 1, "author": ["Catherine Shoard"]},
{"text": "A minor miracle", "is_fresh": 1, "author": ["Jordan Hoffman"]}
]