[
{"reviews_count": "103", "title": "The story of the weeping camel", "avg_audience_rating": "  4", "rotten_count": "6", "tomatometer": "94", "audience_score": "87", "avg_critic_rating": "7.6", "fresh_count": "97", "user_ratings_count": "5,743"},
{"text": "a charmer", "is_fresh": 1, "author": ["John A. Nesbit"]},
{"text": "Exudes a subtle spiritual power.", "is_fresh": 1, "author": ["Nick Schager"]},
{"text": "This quirky docudrama speaks a more universal language: Who does not feel for a child abandoned by his mother?", "is_fresh": 1, "author": ["Agnieszka Tennant"]},
{"text": "Un relato extraordinario, revelador de la naturaleza humana (y animal), a medio camino entre el registro documental y el realismo po\u00e9tico.", "is_fresh": 1, "author": ["Enrique Buchichio"]},
{"text": "Beautiful and compassionate tale of nomadic peoples that ranks with the best of Robert Flaherty's documentaries.", "is_fresh": 1, "author": ["Louis Proyect"]},
{"text": "Simple yet charming.", "is_fresh": 1, "author": ["Ken Hanke"]},
{"text": "Not a lot happens, but it's different and watchable (in a 'day in the life of a nomad... next on the Discovery Channel' sort of way).", "is_fresh": 0, "author": ["Cherryl Dawson and Leigh Ann Palone"]},
{"text": "As the film unspools at its slow, observational pace, the effect is almost therapeutic, like sinking into a warm bath.", "is_fresh": 1, "author": ["John Beifuss"]},
{"text": "As unique as the title animal: unrushed as a donkey, shaggy as a llama, sturdy as a horse \u0097 and, it turns out, with a sensitive soft spot for music. Who'd'a thunk?", "is_fresh": 1, "author": ["Steven D. Greydanus"]},
{"text": "From an animal lover's point of view.", "is_fresh": 1, "author": ["Staci Layne Wilson"]},
{"text": "Mystical documentary; one of the year's 10 best", "is_fresh": 1, "author": ["Fr. Chris Carpenter"]},
{"text": "It's an awe-inspiring vacation that sends us back to our homes with a better sense of the world's mysteries and magnificence.", "is_fresh": 1, "author": ["Jeffrey Overstreet"]},
{"text": "Maravilhosamente fotografado, este document\u00e1rio de formato at\u00edpico emociona gra\u00e7as \u00e0 vida simples de seus protagonistas e ao drama de um pequeno camelo branco. Surpreendente.", "is_fresh": 1, "author": ["Pablo Villa\u00e7a"]},
{"text": "a quiet, generally absorbing tale that immerses its viewers in a community of camel herders and goat farmers that still puts great stock in ancient legends and rituals.", "is_fresh": 1, "author": ["James Sanford"]},
{"text": "Like Flaherty's work, the film traverses a narrow line between dramatic staging and the observation of real life in a way that...reveals a unique cultural identity.", "is_fresh": 1, "author": ["Doug Cummings"]},
{"text": "To Read review visit www.EmanuelLevy.com", "is_fresh": 1, "author": ["Emanuel Levy"]},
{"text": "A beautiful little film that hovers somewhere between eye-popping documentary and warm-hearted fable.", "is_fresh": 1, "author": ["Donald Munro"]},
{"text": "It's hard to find anything negative to say about such a sweet picture without feeling like a horse's ***.", "is_fresh": 1, "author": ["Dennis Schwartz"]},
{"text": "The film's success rests largely on the shoulders of this engaging clan who, unlike most reality television stars, pays no attention to the cameras.", "is_fresh": 1, "author": ["Beth Jones"]},
{"text": "The film works reasonably well as a travelogue, an interesting glimpse into a culture few outsiders have seen.", "is_fresh": 1, "author": ["Robert Roten"]},
{"text": "...a little magical true-life fable, probably as strange to most of us as video games to Dude and Ugna.", "is_fresh": 1, "author": ["Philip Martin"]},
{"text": "Chances are, if you're susceptible to this movie's gentle charms, you'll weep when the camel does.", "is_fresh": 1, "author": ["Geoff Pevere"]},
{"text": "The truths shown here about the shared human experience are as big as the story being told is small.", "is_fresh": 1, "author": ["Bruce Kirkland"]},
{"text": "The characters are charming, the colours of the carpets in their yurts colourful and the emphasis on family inescapable.", "is_fresh": 1, "author": ["Liam Lacey"]},
{"text": "Like many animal-centric films try to be, this one is sweet and joyous and wonderful.", "is_fresh": 1, "author": ["Eric D. Snider"]},
{"text": "This first-ever film in the Mongolian language is a masterpiece, a simply told story of a two-humped Bactrian camel and its calf and the family in whose keeping they thrive.", "is_fresh": 1, "author": ["Maria Garcia"]},
{"text": "A simple and radiant piece of humanism.", "is_fresh": 1, "author": ["Peter Rainer"]},
{"text": "Its slow, delicate pacing is hypnotic.", "is_fresh": 1, "author": ["Robert W. Butler"]},
{"text": "You'll make friends with Ikchee and his extended clan from the off, wishing that you could spend just one night under the cover of their yurts.", "is_fresh": 1, "author": ["Harry Guerin"]},
{"text": "Fascinating and beautiful film.", "is_fresh": 1, "author": ["Michael Ferraro"]},
{"text": "One hump or two?", "is_fresh": 0, "author": ["Thomas Delapa"]},
{"text": "An excellent job of portraying the everyday life of the nomadic family. ... It's a cut above anything on Animal Planet, and definitely worth seeing on the big screen.", "is_fresh": 1, "author": ["Matt Kelemen"]},
{"text": "[The directors], without anthropomorphizing their critters, evoke primal mother-and-child emotions that will make anyone shed a tear or two.", "is_fresh": 1, "author": ["Sean P. Means"]},
{"text": "This look at a culture very different from ours is refreshing.", "is_fresh": 1, "author": ["Jeff Vice"]},
{"text": "Does for camels what \"Bambi\" did for deer.", "is_fresh": 1, "author": ["Rob Thomas"]},
{"text": "The touching finale might insure that the camel won't be the only one doing the weeping.", "is_fresh": 1, "author": ["Matt Brunson"]},
{"text": "An astonishing, mesmerizing film about a vanishing way of life", "is_fresh": 1, "author": ["Jeannette Catsoulis"]},
{"text": "An unusual film that is part ethnographic documentary and part narrative film.", "is_fresh": 1, "author": ["Marjorie Baumgarten"]},
{"text": "While it isn't always easy to get used to the slower natural rhythms this film celebrates, its cumulative effect is undeniable.", "is_fresh": 1, "author": ["Jay Boyar"]},
{"text": "A film of simple rigor and heartfelt emotion.", "is_fresh": 1, "author": ["Robert Denerstein"]},
{"text": "The most sincere and heartfelt camel movie in years, maybe ever.", "is_fresh": 1, "author": ["Steven Rosen"]},
{"text": "A peaceful, unforced film, and it inspires a feeling of relief and joy that's hard to describe.", "is_fresh": 1, "author": ["Lawrence Toppman"]},
{"text": "...while the film has an appropriately calm pace, befitting the lives it depicts, there is also an elementally powerful narrative drive...", "is_fresh": 1, "author": ["Josh Ralske"]},
{"text": "Watching Camel is like watching a movie about an endangered species, and I don't mean the camels.", "is_fresh": 1, "author": ["Chris Hewitt (St. Paul)"]},
{"text": "It's actually quite sweet and exotic and engrossing.", "is_fresh": 1, "author": ["Jack Garner"]},
{"text": "A beautiful and delicate reminder of the myriad ways in which life is lived on this huge planet of ours.", "is_fresh": 1, "author": ["Rene Rodriguez"]},
{"text": "Strange and beautiful tale.", "is_fresh": 1, "author": ["Duane Dudek"]},
{"text": "Quietly moving.", "is_fresh": 1, "author": ["John Monaghan"]},
{"text": "With its emphasis on harmony and its implied criticism of the decadence of consumerist society, this study of tradition is a rewarding experience.", "is_fresh": 1, "author": ["David Parkinson"]},
{"text": "... plays out like a naturalistic fable in an austere, timeless land in which ancient traditions co-exist with modern technology.", "is_fresh": 1, "author": ["Sean Axmaker"]},
{"text": "Who knew that nomads' yurts were so cozy and colorful, or that camels could be so soulful?", "is_fresh": 1, "author": ["Colin Covert"]},
{"text": "A cinematic oasis, both refreshing and thoroughly life-affirming.", "is_fresh": 1, "author": ["Stella Papamichael"]},
{"text": "A window on a changing world most of us will never see.", "is_fresh": 1, "author": ["Jane Sumner"]},
{"text": "The result of this magical intervention is both fascinating and, especially for lovers of music, profound, a strange and unexpected testimony to the extraordinary healing and settling powers of music.", "is_fresh": 1, "author": ["Deborah Hornblow"]},
{"text": "This movie is for everyone.", "is_fresh": 1, "author": ["Joe Baltake"]},
{"text": "Whether this is filmmaking or recording is always up for debate; that it's fascinating isn't.", "is_fresh": 1, "author": ["Tom Long"]},
{"text": "A modest pleasure - a quiet little oasis in the blockbuster desert.", "is_fresh": 1, "author": ["Scott Von Doviak"]},
{"text": "Byambasuren Davaa and Luigi Falorni have created a \"narrative documentary,\" much in the spirit of the groundbreaking works of Robert J. Flaherty (\"Nanook of the North\" 1922)", "is_fresh": 1, "author": ["Robin Clifford"]},
{"text": "Like \"Atanarjuat,\" gives an inside look at an exotic lifestyle...Davaa and Falorni's drama may be slower paced than Kunuk's murder story, but it is every bit as primal. ", "is_fresh": 1, "author": ["Laura Clifford"]},
{"text": "Like Himalaya, Weeping Camel essentially lets native people tell their own unforgettable story.", "is_fresh": 1, "author": ["Jonathan Curiel"]},
{"text": "Strangely moving film.", "is_fresh": 1, "author": ["Michael O'Sullivan"]},
{"text": "Transcends genre to become a deeply affecting allegory about the importance of patience and acceptance.", "is_fresh": 1, "author": ["Ann Hornaday"]},
{"text": "A joyous movie.", "is_fresh": 1, "author": ["Roger Ebert"]},
{"text": "Movies weren't made for cats and dogs -- they were made to show camels. Seriously, try sitting through a nanosecond of the new Garfield after these monumentally hairy guys have drifted into your life.", "is_fresh": 1, "author": ["Wesley Morris"]},
{"text": "Uneasily positioned between fictional drama and cultural documentary.", "is_fresh": 0, "author": ["Josh Larsen"]},
{"text": "An entrancing story of how the neglected reconnect with the mother culture.", "is_fresh": 1, "author": ["Carrie Rickey"]},
{"text": "I haven't been this moved by the ineffable wisdom conveyed in the eyes of beasts since Robert Bresson's transcendent Au Hasard Balthazar (1966).", "is_fresh": 1, "author": ["Andrew Sarris"]},
{"text": "Anyone who feels like they're drowning in their own polluted, godless, reality-TV-choked, errand-ridden consumerist life will find a momentary escape from modernity in The Story of the Weeping Camel.", "is_fresh": 1, "author": ["Ellen Fox"]},
{"text": "Speaks of perfect simplicity and small pleasures.", "is_fresh": 1, "author": ["Jeanne Aufmuth"]},
{"text": "A simple tale of animal estrangement and reconciliation that in its own quiet way manages to be soothing, hypnotic, even magical.", "is_fresh": 1, "author": ["Kenneth Turan"]},
{"text": "The Story of the Weeping Camel is rigged toward a sentimental conclusion and overpopulated with cutesy touches, but there are many remarkable sights along the way.", "is_fresh": 1, "author": ["Scott Foundas"]},
{"text": "Mixing documentary and staged footage, [the] movie is irresistibly beguiling, in large part because of the simplicity of its story. ", "is_fresh": 1, "author": ["Andy Klein"]},
{"text": "It's astonishing, really, just how resonant and universal the young camel's struggle for its mother's affection is, not to mention how easily viewers can ascribe human emotions to the camels' behavior.", "is_fresh": 1, "author": ["Peter Debruge"]},
{"text": "Just a little too slow moving for me.", "is_fresh": 0, "author": ["Richard Roeper"]},
{"text": "Part ethnographic study and part fable.", "is_fresh": 1, "author": ["Maitland McDonagh"]},
{"text": "It has the cute quotient, but it does more than spur cries of 'Awww.' The film is a healthy dose of cultural enrichment.", "is_fresh": 1, "author": ["Lisa Rose"]},
{"text": "An unusual, captivating and crowd-pleasing semi-documentary.", "is_fresh": 1, "author": ["Lou Lumenick"]},
{"text": "It's a beautiful blend of documentary footage, dramatic tension and traditional storytelling, highlighted with social commentary and plenty of camel folklore.", "is_fresh": 1, "author": []},
{"text": "[T]he truly hypnotic aspect of this austerely beautiful film is the exoticness of its landscape, both geographical and cultural.", "is_fresh": 1, "author": ["MaryAnn Johanson"]},
{"text": "There are few animals on this planet more photogenic than camels, with their big expressive eyes, comically lumbering gait and ungainly humps.", "is_fresh": 1, "author": ["Frank Scheck"]},
{"text": "Gentle and amusing.", "is_fresh": 1, "author": ["David Sterritt"]},
{"text": "It is a Zen movie experience par excellence.", "is_fresh": 1, "author": ["Jan Stuart"]},
{"text": "It's a sad, funny, sometimes brutal look at the way in which the animal world and human world occasionally intersect to their mutual benefit.", "is_fresh": 1, "author": ["Derek Elley"]},
{"text": "The vivid fictional specifics, and the simple loveliness of the artless performances by nonactor Mongolian nomads, attest to the filmmakers' abundant artistry.", "is_fresh": 1, "author": ["Lisa Schwarzbaum"]},
{"text": "A rhythmic ode to togetherness, non-cynical communication, and the power of mother's milk.", "is_fresh": 1, "author": ["Ed Gonzalez"]},
{"text": "a touching curiosity", "is_fresh": 1, "author": ["Norm Schrager"]},
{"text": "This wonderful Mongolian film is a total delight from start to finish; it speaks volumes about the ties that bind human beings and animals together.", "is_fresh": 1, "author": ["Frederic and Mary Ann Brussat"]},
{"text": "The title of this movie isn't a metaphor. The filmmakers have actually made a movie about a pale and needy newborn camel whose mother ignores it.", "is_fresh": 1, "author": ["Elvis Mitchell"]},
{"text": "Beyond its rare visions of remote vistas, Camel's great charm lies in its seeming simplicity.", "is_fresh": 1, "author": ["Leslie Camhi"]},
{"text": "A film of quiet depth and lyrical beauty.", "is_fresh": 1, "author": ["Sheri Linden"]},
{"text": "It's a tale of two coexisting species, camels and humans, and it's surprisingly fascinating, funny and emotional.", "is_fresh": 1, "author": ["Rich Cline"]},
{"text": "Could have made a really sweet short documentary, is, instead, a long, relatively uneventful film that tries viewers' patience.", "is_fresh": 0, "author": ["Steve Rhodes"]},
{"text": "A graceful plaintiveness that positively reverberates with authenticity.", "is_fresh": 1, "author": ["Gabriel Shanks"]},
{"text": "A fascinating docu-drama set in the Gobi Desert at a time when old folkways still hold sway over encroaching modernity.", "is_fresh": 1, "author": ["Shawn Levy"]},
{"text": "This is a delightful honestly fascinating piece of work. Beleive it or not, the camel deserves an Oscar. ", "is_fresh": 1, "author": ["Emily Blunt"]},
{"text": "Stately and slow, the human and animal protagonists win us over in this plainspoken, non-manipulative film.", "is_fresh": 1, "author": ["Donald J. Levit"]},
{"text": "Lovers of the Discovery Channel should find this adorable.", "is_fresh": 1, "author": ["Harvey S. Karten"]},
{"text": "Surprisingly moving stuff.", "is_fresh": 1, "author": ["Jon Popick"]},
{"text": "", "is_fresh": 1, "author": []},
{"text": "", "is_fresh": 1, "author": ["Anton Bitel"]},
{"text": "", "is_fresh": 0, "author": []},
{"text": "", "is_fresh": 1, "author": ["Steve Schneider"]},
{"text": "", "is_fresh": 1, "author": ["Jim Lane"]}
]