[
{"reviews_count": "228", "title": "The Lord Of The Rings: The Fellowship Of The Ring", "avg_audience_rating": "4.1", "rotten_count": "20", "tomatometer": "91", "audience_score": "95", "avg_critic_rating": "8.2", "fresh_count": "208", "user_ratings_count": "1,355,157"},
{"text": "The Fellowship of the Ring is an impressive piece of filmmaking. It is, indeed, intensely faithful to the text, although, unsurprisingly, a great deal of the story is omitted.", "is_fresh": 1, "author": ["Louis Menand"]},
{"text": "[Peter] Jackson's ability to maintain the universality of a story is praiseworthy. [Full Review in Spanish] ", "is_fresh": 1, "author": ["Covadonga G. Lahera"]},
{"text": "New Zealand genre film maverick Peter Jackson does the impossible: he makes a faithful, magical, thrilling, and-most importantly-compelling film version of J.R.R. Tolkein's great cult fantasy epic.", "is_fresh": 1, "author": ["Sean Axmaker"]},
{"text": "The Fellowship of the Ring is an unqualified triumph. More, please.", "is_fresh": 1, "author": ["Colin Covert"]},
{"text": "I have no serious criticisms. The film does full justice to Tolkien, who has often -- and erroneously -- been accused of escapism.", "is_fresh": 1, "author": ["Christopher Tookey"]},
{"text": "It's hard to imagine any but the most nit-picky and dogmatic being disappointed by this epic, lovingly crafted movie.", "is_fresh": 1, "author": ["Dennis King"]},
{"text": "Most ambitiously, this rousing adventure closes with an ending that's closer in spirit to an art-house film than a popcorn holiday romp.", "is_fresh": 1, "author": ["Xan Brooks"]},
{"text": "This isn't some happy, kid-friendly adventure -- it's the story of how an entire world is plunged into war.", "is_fresh": 1, "author": []},
{"text": "Only someone with a pathological aversion to fantasy could fail to be absorbed and transported by this stunning, sincere and frequently terrifying adaptation.", "is_fresh": 1, "author": ["Andrew Collins"]},
{"text": "An enthusiastic visionary set loose on one of the biggest playgrounds ever constructed, Jackson brings more personality to the series' first installment, The Fellowship Of The Ring, than typically seeps into a franchise of this magnitude.", "is_fresh": 1, "author": ["Scott Tobias"]},
{"text": "The Fellowship of the Ring is a movie masterpiece thrilling, passionate and wise.", "is_fresh": 1, "author": ["Michael Sragow"]},
{"text": "The New Zealander director Peter Jackson, who wrote the screenplay with Fran Walsh and Philippa Boyens, works with enough dramatic tension and pictorial grandeur to sustain us through long periods of complicated exposition and heavy bouts of swordplay.", "is_fresh": 1, "author": ["David Denby"]},
{"text": "All this plays like a giant game of Myst, with Ring's mythical characters never making the leap from virtual reality to real.", "is_fresh": 0, "author": ["Leah Rozen"]},
{"text": "If Fellowship hasn't rescued an otherwise dreadful year, it at least gives us something to look forward to -- same time, next year.", "is_fresh": 1, "author": ["Jack Mathews"]},
{"text": "Oodles of technical talent are no substitute for plain old inspiration. Jackson has been working on the Rings project for years, and somewhere along the way his reverence for Tolkien appears to have intimidated his imagination.", "is_fresh": 0, "author": ["David Sterritt"]},
{"text": "Masterfully paced, the movie builds slowly, introducing the mythology, habitats and lifestyles of Tolkien's creatures.", "is_fresh": 1, "author": ["David Germain"]},
{"text": "Against all odds in an era of machine-made spectaculars, Mr. Jackson and his collaborators have created a film epic that lives and breathes, that's swept by almost palpable weather (much of it stormy).", "is_fresh": 1, "author": ["Joe Morgenstern"]},
{"text": "An epic movie of a once-in-a-lifetime sort.", "is_fresh": 1, "author": ["Tim Brayton"]},
{"text": "It's to Jackson's credit that the saga leaves viewers panting for more.", "is_fresh": 1, "author": ["Matt Brunson"]},
{"text": "Director Peter Jackson has not only attempted the most ambitious film project in modern cinema history, he's pulled it off with a breathtaking mixture of nerve and verve, too.", "is_fresh": 1, "author": ["Graham Young"]},
{"text": "Visually striking, thematically poignant, and morally weighty, the first film of Lord of the Rings is superb.", "is_fresh": 1, "author": ["Emanuel Levy"]},
{"text": "Fabulous, but also violent and scary.", "is_fresh": 1, "author": ["Nell Minow"]},
{"text": "\"Fellowship\" bears well the burden of exposition and character introduction, and also features two of the series' best action setpieces -not just visual-effects reels, but trials by fire of the camaraderie among this ragamuffin band of brothers.", "is_fresh": 1, "author": ["Nick Rogers"]},
{"text": "...the project couldn't have made me happier. (Extended Edition)", "is_fresh": 1, "author": ["John J. Puccio"]},
{"text": "I loved it and I suggest you watch it, too.", "is_fresh": 1, "author": ["Felix Vasquez Jr."]},
{"text": "A stunning adventure story realized with genuine artistic flair.", "is_fresh": 1, "author": ["Matthew De Abaitua"]},
{"text": "It's full of scenic splendors with a fine sense of scale, but its narrative thrust seems relatively pro forma, and I was bored by the battle scenes.", "is_fresh": 0, "author": ["Jonathan Rosenbaum"]},
{"text": "The sets and special effects are near flawless.", "is_fresh": 1, "author": ["Philip French"]},
{"text": "What gave the film its greatest strength was its cast, in particular Elijah Wood.", "is_fresh": 1, "author": ["Jennie Kermode"]},
{"text": "Jackson ... conjures the most potent major-motion-picture magic in years.", "is_fresh": 1, "author": ["Rob Gonsalves"]},
{"text": "Thankfully, if the audience has the patience, the film is good enough to warrant watching again.", "is_fresh": 1, "author": ["Joe Lozito"]},
{"text": "Putting formula blockbusters to shame, Fellowship is impeccably cast and constructed with both care and passion.", "is_fresh": 1, "author": ["Colin Kennedy"]},
{"text": "In unveiling the Holy Grail for action-fantasy aficionados, director and co-writer Peter Jackson has begun a series to rival Star Wars in the pantheon.", "is_fresh": 1, "author": ["Tom Charity"]},
{"text": "It's finally here. The adaptation of the first installment from J.R.R. Tolkien's \"The Lord of the Rings\" series, and all I have to say is, \"Wow.\"", "is_fresh": 1, "author": ["Jason Zingale"]},
{"text": "The filmmakers have shown great respect for their source material. I was moved by Jackson's passionate, caring, and human portrayals of these characters and dramas.", "is_fresh": 1, "author": ["Jeffrey Overstreet"]},
{"text": "Director Peter Jackson's awesome three hour film, seeming like half the time, is the handsomest fantasy film ever made. (Published 12-22-01)", "is_fresh": 1, "author": ["Steve Crum"]},
{"text": "It is imaginative, fierce, even thrilling in spots. Nevertheless, as the curtain comes down, the credits should read Game Over, not The End.", "is_fresh": 0, "author": ["Thomas Delapa"]},
{"text": "Tolkien's world explodes onto the screen in vibrant, brooding, beautiful life.", "is_fresh": 1, "author": ["Michael W. Phillips, Jr."]},
{"text": "Everyone on screen is all exercised about Frodo's mission, but after three hours it's hard to see why anyone in the audience should be. ", "is_fresh": 0, "author": ["Daniel M. Kimmel"]},
{"text": "Only Jackson would have conceived of having a dwarf, in the middle of battle, declare 'NOBODY TOSSES A DWARF!' and only Jackson could have gotten away with it.", "is_fresh": 1, "author": ["Peter Sobczynski"]},
{"text": "Once you've got your breath back one thought will prove hard to escape: George Lucas might have a few sleepless nights between now and 2003.", "is_fresh": 1, "author": ["Harry Guerin"]},
{"text": "What could have been a monumental failure has become one of the greatest examples of how to bring a classic book to the screen.", "is_fresh": 1, "author": ["Charlie Brown"]},
{"text": "...a slightly better-than-average fantasy flick.", "is_fresh": 1, "author": ["David Nusair"]},
{"text": "The bulk of thanks should really go to Peter Jackson, who has obviously lavished much love on this project with respect for the source material.", "is_fresh": 1, "author": ["Brian Mckay"]},
{"text": "Nothing less than a masterpiece of art and integrity, capturing with vast magnitude the grandeur, majesty, and surreal whimsy of Tolkien's mythical Middle-Earth.", "is_fresh": 1, "author": ["John R. McEwen"]},
{"text": "That such a bold, inventive artist has embraced the challenge of telling Frodo's story is cause for celebration.", "is_fresh": 1, "author": ["Nick Davis"]},
{"text": "I realized that despite its flaws, the film had won me over.", "is_fresh": 1, "author": ["Peter Keough"]},
{"text": "To borrow an icon from another legend of English origin, this is the Holy Grail. The big one has finally been delivered to us, and it is a beautiful thing indeed.", "is_fresh": 1, "author": ["Tim Merrill"]},
{"text": "Probably the best comment I could give it is that after sitting through the first three hours, I would have happily sat through another five.", "is_fresh": 1, "author": ["Ron Wells"]},
{"text": "Impeccably cast, superbly acted, brilliantly directed and looking fabulous, it is safe to say that it has been worth the wait, with director Jackson (himself a fan) unquestionably the right man for the job.", "is_fresh": 1, "author": ["Matthew Turner"]},
{"text": "I hope the next two episodes are better.", "is_fresh": 0, "author": ["Jean Lowerison"]},
{"text": "Dark, windswept, thrilling, funny and emotional.", "is_fresh": 1, "author": ["Margaret A. McGurk"]},
{"text": "It will be remembered because its strengths tower over its faults. It will be remembered because it places story above all else. And it will be remembered because it's an epic in an era of the ordinary.", "is_fresh": 1, "author": ["Forrest Hartman"]},
{"text": "Such an engrossing picture that you completely lose track of the time and the 3 hour running length just flies by.", "is_fresh": 1, "author": ["Kevin N. Laforest"]},
{"text": "It reaches down your mouth and rips out your throat.", "is_fresh": 1, "author": ["Mark Palermo"]},
{"text": "It pulls the viewer into the heat of battle and makes him believe that the fate of the Earth rests on the small shoulders (and furry feet) of an ordinary person.", "is_fresh": 1, "author": ["Jon Niccum"]},
{"text": "There's a certain majesty to Fellowship of the Ring, but it's not the majesty of stylish photography or elegant production design. It's a majesty that can only be put on-screen by filmmakers who truly feel the material with which they are working.", "is_fresh": 1, "author": ["Glen Oliver"]},
{"text": "The impossible dream of Tolkien fans has come true, and the beauty, majesty, and genius of Tolkien's world is at last fully realized.", "is_fresh": 1, "author": ["Joshua Tyler"]},
{"text": "For all of its good choices, there's something deeply wanting about Jackson's vision", "is_fresh": 0, "author": ["Jason Clark"]},
{"text": "As a feat of sheer endurance and courage, The Fellowship of the Ring is astonishing. As an achievement in filmmaking it's triumphant.", "is_fresh": 1, "author": ["Urban Cinefile Critics"]},
{"text": "The franchise cometh.", "is_fresh": 1, "author": ["Betty Jo Tucker"]},
{"text": "...the latest unavoidable cultural wonderment", "is_fresh": 1, "author": ["Philip Martin"]},
{"text": "It's obvious that the editors were hard pressed to leave any of this splendid film on the cutting room floor. Lucky for us.", "is_fresh": 1, "author": ["Bruce Bennett"]},
{"text": "By the time its three hours were over, I found myself out of breath.", "is_fresh": 1, "author": ["Jeffrey Chen"]},
{"text": "A fantasy achievement where the action, the characters and the message are equally strong. Most importantly, it leaves us hungry for The Two Towers.", "is_fresh": 1, "author": ["Jeffrey Westhoff"]},
{"text": "The first part of the long-awaited trilogy is here, and Kiwi director Jackson somehow manages to exceed expectations with one of the most astonishing action epics in memory.", "is_fresh": 1, "author": ["Rich Cline"]},
{"text": "..I still came away empty, wanting more. I was expecting something that I could get lost in but instead found myself wading through some things that were less than satisfactory.", "is_fresh": 0, "author": ["Josh Gilchrist"]},
{"text": "Middle-earth is a real world from the first reel on, thanks to incredible special effects woven seamlessly with great storytelling.", "is_fresh": 1, "author": ["Gerry Shamray"]},
{"text": "Prueba fehaciente de que la creatividad y el empe\u00f1o de su director son m\u00e1s que sobrados.", "is_fresh": 1, "author": ["Jorge Avila Andrade"]},
{"text": "What a great story. What a great approach. What a great film.", "is_fresh": 1, "author": ["Jimmy O"]},
{"text": "This is fantasy at its richest and most vivid. The eyes are nearly overwhelmed by the bone-crushing beasts, fiery pits, the emerald-green forests and purple-blue skies that spin across the screen.", "is_fresh": 1, "author": ["James Sanford"]},
{"text": "Whether you're a fan or can't tell a Hobbit from Lorena Bobbitt, you're bound to enjoy this film's three hours of escapism.", "is_fresh": 1, "author": ["Phil Villarreal"]},
{"text": "A nerve-jangling, pictorially beautiful, mostly engrossing phantasmagoria of ghouls and warriors, oozing ambitions and towering dark castles, waylaid only by an occasional dip into the bog of exposition.", "is_fresh": 1, "author": ["Manohla Dargis"]},
{"text": "\u00c0s vezes, 5 estrelas n\u00e3o s\u00e3o o bastante.", "is_fresh": 1, "author": ["Pablo Villa\u00e7a"]},
{"text": "Sadly, once you've seen it, everything else will seem anti-climactic.", "is_fresh": 1, "author": ["Audrey Rock-Richardson"]},
{"text": "Jackson was undeniably the right choice for the material. He exceeds all reasonable expectations in crossing the book over. The epic literary journey becomes a cinematic event.", "is_fresh": 1, "author": ["Nathaniel Rogers"]},
{"text": "This is destined to be the best trilogy since the first three \"Star Wars\" wowed audiences of all ages a quarter of a century ago -- and I saw that movie 100 times that summer.", "is_fresh": 1, "author": ["Michael Szymanski"]},
{"text": "The only thing worse than a bad movie that thinks it is good is a three hour long bad movie that thinks it is good.", "is_fresh": 0, "author": ["Blake French"]},
{"text": "\u00a0\u0091Here are beauties that pierce like swords or burn like cold iron; here is a [film] that will break your heart.\u0092\u00a0", "is_fresh": 1, "author": ["Steven D. Greydanus"]},
{"text": "This film affirms my faith in the medium.", "is_fresh": 1, "author": ["Rob Vaux"]},
{"text": "Jackson's offbeat sensibility is relatively muted here, but it doesn't hurt the film much, nor does the film feel at all impersonal.", "is_fresh": 1, "author": ["Jeremy Heilman"]},
{"text": "Rings is a breathtaking piece of filmmaking.", "is_fresh": 1, "author": ["Kit Bowen"]},
{"text": "A film of incredible vision and surprising emotional involvement--a rich tapestry of old-fashioned storytelling and modern-day technical marvels. An instant classic.", "is_fresh": 1, "author": ["Mark Dujsik"]},
{"text": "You can almost hear a maniacal, frizzy-haired Peter Jackson screaming \"Behold!\" from behind the screen.", "is_fresh": 1, "author": ["Eugene Novikov"]},
{"text": "A marvel. Director Peter Jackson's exuberance is evident in nearly every frame.", "is_fresh": 1, "author": ["Bryant Frazer"]},
{"text": "Brilliant -- in every way.", "is_fresh": 1, "author": ["Emily Blunt"]},
{"text": "Tolkien completists won't find any of this overkill, but for those uninitiates among us, less is more is still a dictum worth heeding.", "is_fresh": 0, "author": ["Peter Rainer"]},
{"text": "a jaw-droppingly successful film adaptation...stunning on every level", "is_fresh": 1, "author": ["Carlo Cavagna"]},
{"text": "An extremely entertaining introduction to Tolkien's trilogy.", "is_fresh": 1, "author": ["David N. Butterworth"]},
{"text": "It's just a fantasy tale some would insist. Probably so, but I'm obviously not the only one that takes it too seriously.", "is_fresh": 1, "author": ["James O'Ehley"]},
{"text": "The best compliment I can pay the film is this: I'm looking forward to the next two installments.", "is_fresh": 1, "author": ["Mike McGranaghan"]},
{"text": "Get thee to a theater and see what everyone is talking about!", "is_fresh": 1, "author": ["David Forsmark"]},
{"text": "Anyone with an extra pocket calculator may as well hand it over right now. Call me a freak, call me a geek, but I really enjoyed this movie.", "is_fresh": 1, "author": ["Matt Easterbrook"]},
{"text": "It's a satisfying adaptation.", "is_fresh": 1, "author": ["Jason Anderson"]},
{"text": "There is no doubt that it's worth seeing, and yes, I'm looking forward to the sequels.", "is_fresh": 1, "author": ["Ian Waldron-Mantgani"]},
{"text": "I can't help it. I was just bored of the Rings.", "is_fresh": 0, "author": ["Scott A. Mantz"]},
{"text": "The worst aspect to Fellowship is the fact that we must wait another year before the next film. I may have to take up reading Tolkien!", "is_fresh": 1, "author": ["John A. Nesbit"]},
{"text": "I'm chimed to see it again and am hanging for the next one. Jackson's not only done it, he's created cinematic history too.", "is_fresh": 1, "author": ["Garth Franklin"]},
{"text": "Die hard fans have to wear double layers of diapers to survive their enthusiasm watching this. It speaks volumes about how Jackson has touched the heart of the book.", "is_fresh": 1, "author": ["Karina Montgomery"]},
{"text": "Jackson has ... adapted the complex world of J.R.R. Tolkien's imagination for the screen, maintaining fidelity to Tolkien while never losing sight of his own artistry", "is_fresh": 1, "author": ["James Kendrick"]},
{"text": "Forget Harry Potter: THIS is what the fantasy epic is all about!", "is_fresh": 1, "author": ["Andrew Manning"]},
{"text": "Though the pace slackens here and there, it is always gorgeous to look at and intelligently acted.", "is_fresh": 1, "author": ["Wendy Weinstein"]},
{"text": "When the awe on the characters' faces is mirrored on your own you know you're in the presence of a film that makes an objective assessment redundant.", "is_fresh": 1, "author": ["Andrew Howe"]},
{"text": "[I]t goes on forever.", "is_fresh": 0, "author": ["Richard Roeper"]},
{"text": "The greatest fantasy epic of all time.", "is_fresh": 1, "author": ["Wesley Lovell"]},
{"text": "This is a cult book from yesterday that makes a popular film for today...", "is_fresh": 1, "author": ["Dennis Schwartz"]},
{"text": "Remarkably, and perhaps because of a fusion of images that are generic, imaginative, and by-the-book, THE FELLOWSHIP OF THE RING really does look how the book 'should'", "is_fresh": 1, "author": ["Shane Burridge"]},
{"text": "We are left with Frodo paddling across a lake on his way to the second film. I don't know about you, but I can hardly wait.", "is_fresh": 1, "author": ["Gary Brown"]},
{"text": "For newcomers, the movie, with its well chosen cast, extraordinary settings and impressive battle choreography goes far in explaining the hold this work has had on legions of readers.", "is_fresh": 1, "author": ["Jules Brenner"]},
{"text": "Does manage to recreate in the viewer's mind those powerful, fantastical images of the magical land of Middle-earth.", "is_fresh": 1, "author": ["Yazmin Ghonaim"]},
{"text": "If you've managed to elude Tolkien's siren call over the years, this is your chance to catch up and fall for it once and for all.", "is_fresh": 1, "author": ["Marc Savlov"]},
{"text": "It could not have been more of a masterpiece if Tolkien had directed it himself.", "is_fresh": 1, "author": ["David Keyes"]},
{"text": "It's a collection of spectacular set pieces without any sense of momentum driving them into one another. The damn thing just goes on and on.", "is_fresh": 0, "author": ["Sean Burns"]},
{"text": "Becomes breathless in a way that even Tolkien couldn't manage; the second half feels like the kind of grand action picture we'd been missing all year.", "is_fresh": 1, "author": ["Shay Casey"]},
{"text": "The production design is a marvel, and the special effects are dazzling.", "is_fresh": 1, "author": ["Claudia Puig"]},
{"text": "The real deal, a movie epic that pops your eyes out, piles on thrills and fun, and yet stays intimately attuned to character.", "is_fresh": 1, "author": ["Peter Travers"]},
{"text": "If Crouching Tiger, Hidden Dragon was the Citizen Kane of martial arts films, The Lord of the Rings does the same thing for the fantasy quest genre.", "is_fresh": 1, "author": ["Robert W. Butler"]},
{"text": "McKellen plays Gandalf and, truth be told, his performance is worth more to the success of the film than all the effects, visual and aural, combined.", "is_fresh": 1, "author": ["Susan Stark"]},
{"text": "Maybe by his second year in Hogwarts, Harry Potter will learn the trick to making a movie this good but don't bet on it. It's one of the best films of the year.", "is_fresh": 1, "author": ["Joel Siegel"]},
{"text": "The special effects are stunning.", "is_fresh": 1, "author": []},
{"text": "You can get gloriously lost in this.", "is_fresh": 1, "author": ["Desson Thomson"]},
{"text": "The bar has been raised, and the world of film entertainment will hereinafter be better for it. ", "is_fresh": 1, "author": ["Jeanne Aufmuth"]},
{"text": "I'm positive that when all three have been released, we'll be looking at a complete, inspiring epic from Peter Jackson. But we're only a third of the way there.", "is_fresh": 1, "author": ["Erik Childress"]},
{"text": "It delivers a heavy load of adventure, spectacle, and beauty, three hours with too many delights to list, all for the price of a standard film ticket.", "is_fresh": 1, "author": ["Mark R. Leeper"]},
{"text": "This is a sweeping epic of a film, which also manages to remain rooted in the personal dramas of its central characters.", "is_fresh": 1, "author": ["Robert Roten"]},
{"text": "I left exhausted, happy, intoxicated.", "is_fresh": 1, "author": ["David Edelstein"]},
{"text": "The most entertaining fantasy/adventure movie since Excalibur.", "is_fresh": 1, "author": ["Gary Thompson"]},
{"text": "For sheer scale and ambition, Fellowship is one of those rare films that actually deserve to be called 'a triumph.'", "is_fresh": 1, "author": ["Gregory Weinkauf"]},
{"text": "It is remarkably well made . . . too bad it wasn't equally entertaining.", "is_fresh": 0, "author": ["Alex Sandell"]},
{"text": "An excellent film and a ripping yarn of a movie.", "is_fresh": 1, "author": ["Richard Corliss"]},
{"text": "Sr. Jackson: vaya valor! (vaya par...!), y vaya logro!... La espera ser larga pero usted la ha hecho vlida ...", "is_fresh": 1, "author": ["Alex Ramirez"]},
{"text": "A wholeheartedly innovative, heartfelt, entertaining feast for the eyes.", "is_fresh": 1, "author": ["Dustin Putman"]},
{"text": "Grand cinema, as director/ co-writer Peter Jackson has struck a skilful balance between story, characters, visual images and action.", "is_fresh": 1, "author": ["Brian Webster"]},
{"text": "In a word -- wonderful!", "is_fresh": 1, "author": ["Tony Toscano"]},
{"text": "If we're not careful, Peter Jackson's The Lord Of The Rings could give hype a good name.", "is_fresh": 1, "author": ["Peter Howell"]},
{"text": "This remarkable film appeals to the hero in us all.", "is_fresh": 1, "author": ["Donald Munro"]},
{"text": "Captures both the grandness and the intimacy of Tolkien's masterwork.", "is_fresh": 1, "author": ["Sean P. Means"]},
{"text": "An accomplished movie for everyone who ever longed to hit the road and who welcomes adventure.", "is_fresh": 1, "author": ["Jeffrey M. Anderson"]},
{"text": "Spectacular scenery, stupefying effects and epic scope ... a dream come true.", "is_fresh": 1, "author": ["Rita Kempley"]},
{"text": "As an allegory of war and world dominance, Ring is weighty stuff, and Jackson gives it appropriate resonance.", "is_fresh": 1, "author": ["Moira MacDonald"]},
{"text": "The movie year's most compelling thrill ride.", "is_fresh": 1, "author": ["William Arnold"]},
{"text": "Good, but not as great as many have proclaimed.", "is_fresh": 1, "author": ["Jim Judy"]},
{"text": "Here, at long last, is an epic adventure that's worthy of its source.", "is_fresh": 1, "author": ["Glenn Lovell"]},
{"text": "Watching it, one can't help but get the impression that everyone involved was steeped in Tolkien's work, loved the book, treasured it and took care not to break a cherished thing in it.", "is_fresh": 1, "author": ["Mick LaSalle"]},
{"text": "In the end, The Lord of the Rings: The Fellowship of the Ring succeeds as the event blockbuster that it was so clearly designed to be.", "is_fresh": 1, "author": ["Joe Baltake"]},
{"text": "Nearly a half century after The Lord of the Rings was published, film technology finally caught up to bring the magic to the screen.", "is_fresh": 1, "author": ["Jack Garner"]},
{"text": "A towering achievement.", "is_fresh": 1, "author": ["Tor Thorsen"]},
{"text": "Visually, then, LOTR -- the first of three annual cinematic installments devoted to the quest of the Ruling Ring -- is a feast.", "is_fresh": 1, "author": ["Steven Rea"]},
{"text": "It does have one major fault: It will just kill you when you emerge from the theater and realize that it will be a whole year until the next installment in Jackson's Tolkien trilogy appears.", "is_fresh": 1, "author": ["Shawn Levy"]},
{"text": "Certainly the most rousing and ambitious adventure film of many years and bodes well for the future of the Tolkien fan.", "is_fresh": 1, "author": ["John Anderson"]},
{"text": "Even if you're not a fantasy fan, The Fellowship of the Ring has everything you could want in almost any kind of film. It is joyous, mythic, elegiac and, most importantly, cinematic.", "is_fresh": 1, "author": ["Duane Dudek"]},
{"text": "Genuinely transporting.", "is_fresh": 1, "author": ["Rene Rodriguez"]},
{"text": "With this production, Jackson has used The Lord of the Rings to re-invent fantasy for the cinema in the same way that the novel provided the blueprint for the written word.", "is_fresh": 1, "author": ["James Berardinelli"]},
{"text": "An adventure sure to satisfy both the fans of J.R.R. Tolkien's classic and those neophytes who have never turned one of its pages.", "is_fresh": 1, "author": ["Kevin Williamson"]},
{"text": "Not since Lawrence of Arabia have we seen such an epic saga of adventure and heroism.", "is_fresh": 1, "author": ["Mike Ross"]},
{"text": "Using rollercoaster pacing, Jackson milks the three-hour running time for all it's worth, the peaks and valleys of the adventure giving the characters, particularly Frodo, time to develop while allowing the audience time to catch its breath.", "is_fresh": 1, "author": ["Drew McAnulty"]},
{"text": "A marvellous way to begin an adventure.", "is_fresh": 1, "author": ["Bruce Kirkland"]},
{"text": "An experience audiences are unlikely to forget.", "is_fresh": 1, "author": ["Paul Cantin"]},
{"text": "A fully-realized epic.", "is_fresh": 1, "author": ["Dave White"]},
{"text": "An audience looking for a Star Wars-like fix, albeit with wands and rings instead of light sabres, is sure to offer a healthy return.", "is_fresh": 1, "author": ["Liam Lacey"]},
{"text": "The lengthy story's nipped and tucked without missing any meat.", "is_fresh": 1, "author": []},
{"text": "This Lord reigns.", "is_fresh": 1, "author": ["Terry Lawson"]},
{"text": "Its ability to take audiences to a completely different land and time may remind them of how they felt when they saw Star Wars or The Wizard of Oz for the first time.", "is_fresh": 1, "author": ["Jeff Vice"]},
{"text": "Fellowship is exciting for two hours. How many other movies can you say that about?", "is_fresh": 1, "author": ["Steven Rosen"]},
{"text": "A movie that engages the heart and mind and actually makes you anticipate the next chapter.", "is_fresh": 1, "author": ["Glenn Whipp"]},
{"text": "Leaves us with an implicit promise that the next two movies will be more formally exciting and emotionally engaging.", "is_fresh": 1, "author": ["Bob Strauss"]},
{"text": "Featuring amazing performances on nearly all counts, deft action and stunning cinematography, Rings is the kind of adventure we don't see every year.", "is_fresh": 1, "author": ["Dan Fazio"]},
{"text": "A well-crafted and sometimes stirring adventure.", "is_fresh": 1, "author": ["Roger Ebert"]},
{"text": "At this point, I have no negative criticism to offer. I am speechless.", "is_fresh": 1, "author": ["Jim Chastain"]},
{"text": "Not since the original Star Wars trilogy has film dipped into myth and emerged with the kind of weight and heft seen in Peter Jackson's first installment of J.R.R. Tolkien's Lord of the Rings trilogy.", "is_fresh": 1, "author": ["Jay Carr"]},
{"text": "Maybe it's too early to criticize the trilogy when we're just getting started. However, if this signals the direction the series is going to go, I'm not sure if I care to find out what happens to Frodo, Sauron and those pesky golden rings.", "is_fresh": 0, "author": ["Brian Orndorf"]},
{"text": "The one thing that strikes me most about LOTR: FOTR, besides its seductively masterful and majestic elegance, is simply how utterly right it is.", "is_fresh": 1, "author": ["MaryAnn Johanson"]},
{"text": "No other movie this year has provided as many 'I can't believe what I'm seeing' moments.", "is_fresh": 1, "author": ["Scott Von Doviak"]},
{"text": "The copious action sequences are kinetic and thrilling while the exposition scenes and 'character moments' are wonderfully free of anything resembling 'camp'.", "is_fresh": 1, "author": ["Scott Weinberg"]},
{"text": "Nothing I have ever seen or read could have prepared me for what I have just seen.", "is_fresh": 1, "author": ["Widgett Walls"]},
{"text": "Jackson evokes an almost palpable sense of the will to power trapped within the ring.", "is_fresh": 1, "author": ["Maitland McDonagh"]},
{"text": "Battle-scene overkill aside, there's no denying the eye-popping majesty of Jackson's epic spectacle.", "is_fresh": 1, "author": ["Todd Anthony"]},
{"text": "The sights are ga-ga, but the storytelling gets fairly turgid.", "is_fresh": 0, "author": ["David Elliott"]},
{"text": "Storytelling in the grandest Homeric tradition.", "is_fresh": 1, "author": ["Roger Moore"]},
{"text": "Jackson gets more feeling into Fellowship than he did with his previous films.", "is_fresh": 1, "author": ["Elvis Mitchell"]},
{"text": "An utterly beguiling feast for eyes, pulses and minds.", "is_fresh": 1, "author": ["Lou Lumenick"]},
{"text": "Made with intelligence, imagination, passion and skill, propulsively paced and shot through with an aged-in-oak sense of wonder.", "is_fresh": 1, "author": ["Kenneth Turan"]},
{"text": "Jackson's film feels like an honest attempt to use the power of cinema to engage the imagination and senses in deep-ranging and seriously engaged myth.", "is_fresh": 1, "author": ["Eric Harrison"]},
{"text": "The result is not just a faithful transcription of a classic, but a wondrous reimagining of one.", "is_fresh": 1, "author": ["Chris Hewitt (St. Paul)"]},
{"text": "Jackson ... handles the proceedings with both a flair for operatic grandeur and a respect for intimacy.", "is_fresh": 1, "author": ["Philip Wuntch"]},
{"text": "Jackson's vision of Middle-earth is worthy of Tolkien, and there's probably no better compliment one could pay the film.", "is_fresh": 1, "author": ["Mary F. Pols"]},
{"text": "Not since Gone With The Wind more than 60 years ago has a movie held up as well to the original book.", "is_fresh": 1, "author": ["Paul Clinton (CNN.com)"]},
{"text": "An extraordinary work, grandly conceived, brilliantly executed and wildly entertaining.", "is_fresh": 1, "author": ["Michael Wilmington"]},
{"text": "Despite certain stumbles and fumbles, Jackson has captured something of the depth, breadth, and melancholy grandeur of Tolkien's vision.", "is_fresh": 1, "author": ["L.J. Strom"]},
{"text": "Whatever it is that makes great movies stand apart from great theater or great literature, this film has it.", "is_fresh": 1, "author": ["Eleanor Ringel Cater"]},
{"text": "Endless close-ups of Wood's icy eyes and repeated zooms on the golden ring fail to draw us in to what's supposed to be a riveting quest.", "is_fresh": 0, "author": ["Sean O'Connell"]},
{"text": "One movie to rule the box office.", "is_fresh": 1, "author": ["Kamal 'The Diva' Larsuel"]},
{"text": "Jackson's adaptation is certainly successful on its own terms.", "is_fresh": 1, "author": ["J. Hoberman"]},
{"text": "When it's not stopping your heart, it's breaking it, filling it or lightening it.", "is_fresh": 1, "author": ["Eric D. Snider"]},
{"text": "Only the most ardent purists will object to any deletions and compressions wrought in the page-to-screen transfer.", "is_fresh": 1, "author": ["Bob Bloom"]},
{"text": "It would be an insult to say the picture merely lives up to its hype; it crashes the meaning of hype, exposing it as the graven image it is.", "is_fresh": 1, "author": ["Stephanie Zacharek"]},
{"text": "A perfect blend of action and fantasy, of special effects and thoughtful storytelling, and, in a time when the two seem anything but mutually exclusive, blockbuster juggernaut and arthouse darling.", "is_fresh": 1, "author": ["Jon Popick"]},
{"text": "Not since Excalibur have I been this impressed by a sword and sorcery epic.", "is_fresh": 1, "author": ["Staci Layne Wilson"]},
{"text": "Back in the '60s, college geeks used to wear t-shirts proclaiming 'Gandalf Lives.' After watching Ian McKellen's marvelous performance, I'm inclined to agree.", "is_fresh": 1, "author": ["J. Robert Parks"]},
{"text": "It enchants and enthralls.", "is_fresh": 1, "author": ["Jim Lane"]},
{"text": "Triumphantly successful...long but never dull, filled with incident but surprisingly clear, and even at some points quite affecting.", "is_fresh": 1, "author": ["Frank Swietek"]},
{"text": "For once, here's a gigantic-budget movie that wears its outsized grandiosity well and lives up to its hype and ambition.", "is_fresh": 1, "author": ["Rob Blackwelder"]},
{"text": "The Fellowship of the Ring resembles from certain angles nothing so much as a 178-minute electric mandolin solo.", "is_fresh": 0, "author": ["Peter Bradshaw"]},
{"text": "Every frame of Fellowship bursts with finesse and imagination, demonstrating what miracles a moviemaker can accomplish with his head, hands and heart fully engaged.", "is_fresh": 1, "author": ["Steve Schneider"]},
{"text": "To wait that long [for the next installments] is to feel like a child whose father has closed a beloved book at bedtime and refuses to finish reading it for a whole year.", "is_fresh": 1, "author": ["Lawrence Toppman"]},
{"text": "An ambitious and generally enjoyable film, especially for those who might desire a little more narrative coherence and depth than Harry Potter and the Sorcerer's Stone has to offer.", "is_fresh": 1, "author": ["Todd R. Ramlow"]},
{"text": "A solid start to the three-part adventure.", "is_fresh": 1, "author": ["JoBlo"]},
{"text": "The good news is that Jackson follows the book pretty faithfully.", "is_fresh": 1, "author": ["Eric Lurio"]},
{"text": "definitely an epic undertaking, long with intermittent brazen fight scenes", "is_fresh": 0, "author": ["Ross Anthony"]},
{"text": "Jackson's flights of fantasy bow before Tokien and are quite unlike anything you are likely to ever see on film.", "is_fresh": 1, "author": ["Ed Gonzalez"]},
{"text": "Visually, Grant Major's production design and the CGI effects are amazing.", "is_fresh": 1, "author": ["Susan Granger"]},
{"text": "Stunning, but you see one battle and you've seen 'em all.", "is_fresh": 1, "author": ["Harvey S. Karten"]},
{"text": "Funny, scary and, totally involving, Peter Jackson's assured adaptation of JRR Tolkien's The Lord of The Rings turns the book's least screen-worthy volume into a gripping and powerful adventure movie.", "is_fresh": 1, "author": ["Nev Pierce"]},
{"text": "The trouble is, much the same sort of battle-scene repeats itself every 20 minutes or so; only the environments and the monsters inhabiting them are changed. Technically wonderful? Yes, but oh so monotonous!", "is_fresh": 0, "author": ["Alexander Walker"]},
{"text": "The Fellowship of the Rings delivers like FedEx and UPS only dream of.", "is_fresh": 1, "author": ["Nick Nunziata"]},
{"text": "One of the best films to be released in the past ten years.", "is_fresh": 1, "author": ["Jarrette Moats"]},
{"text": "Casual moviegoers should enjoy it and die-hard LOTR fans should be sufficiently pleased with the final result.", "is_fresh": 1, "author": ["Scott Chitwood"]},
{"text": "Boasts breathtaking images and, thanks to Mr. Tolkien, a story that's second to none.", "is_fresh": 1, "author": ["Mark Ramsey"]},
{"text": "My only complaint about installment number one of the trilogy is that I have to wait for so long for the rest.", "is_fresh": 1, "author": ["Robin Clifford"]},
{"text": "Jackson's films are sure to take the \"Star Wars\" mantle as beloved mythic epic for a new generation.", "is_fresh": 1, "author": ["Laura Clifford"]},
{"text": "For those of you who, like me, were disappointed by Harry Potter, New Line has the perfect answer: The Lord of the Rings.", "is_fresh": 1, "author": ["Steve Rhodes"]},
{"text": "There are moments in The Fellowship of the Ring that I have only seen in my most winsome and wildest fantasies.", "is_fresh": 1, "author": ["Walter Chaw"]},
{"text": "Thrilling -- a great picture, a triumphant picture, a joyfully conceived work of cinema.", "is_fresh": 1, "author": ["Lisa Schwarzbaum"]},
{"text": "There is little doubt that those who grab the Rings at the start will anxiously await Frodo's trip into ever more perilous territory a year hence.", "is_fresh": 1, "author": ["Todd McCarthy"]},
{"text": "You think Harry Potter had expectations?", "is_fresh": 1, "author": ["Christopher Null"]},
{"text": "So well-made and well-cast that one can have no reservations about the rest of Jackson's monumental creation.", "is_fresh": 1, "author": ["David Hunter"]},
{"text": "It has real passion, real emotion, real terror, and a tactile sense of evil.", "is_fresh": 1, "author": ["David Ansen"]},
{"text": "", "is_fresh": 1, "author": ["Greg Dean Schmitz"]}
]