[
{"reviews_count": "186", "title": "The Peanuts", "avg_audience_rating": "3.9", "rotten_count": "24", "tomatometer": "87", "audience_score": "76", "avg_critic_rating": "7.1", "fresh_count": "162", "user_ratings_count": "66,893"},
{"text": "The story is simplistic but executed perfectly, with enough heart and charm to make even the grumpiest of viewers crack a smile.", "is_fresh": 1, "author": ["Jennifer Heaton"]},
{"text": "You've made a great film, Charlie Brown.", "is_fresh": 1, "author": ["Johnny Gayzmonic"]},
{"text": "Sweet, charming, lovingly rendered, this is festive entertainment not to be sniffed at by dog or man.", "is_fresh": 1, "author": ["Alison Rowat"]},
{"text": "You're going to love Snoopy. I've always been a big fan, but they found the perfect way to make use of this character.", "is_fresh": 1, "author": ["Andre Meadows"]},
{"text": "Riding off nostalgia means adults will get more out of the film, but it's hard to see children not succumbing to the vibrant colors, lighthearted comedy, and earnest message about continuing to get back up no matter how many times you are knocked down", "is_fresh": 1, "author": ["Robert Kojder"]},
{"text": "This one will both charm the adults and keep the kids entertained.", "is_fresh": 1, "author": ["Reagan Gavin Rasquinha"]},
{"text": "There is a nostalgic appeal in seeing Charlie Brown on the big screen: just not a very strong one.", "is_fresh": 1, "author": ["Matthew Bond"]},
{"text": "... a charming introduction to young new fans.", "is_fresh": 1, "author": ["Sarah Marrs"]},
{"text": "The Peanuts Movie not only brings joy to those like me who grew up reading Schulz's comic strips, but it will also win new fans among the younger generation. ", "is_fresh": 1, "author": ["Joanne Soh"]},
{"text": "I just wish 3D wasn't the default setting for all big animated movie projects... Sure, they catch your eye, but sometimes you just want that crooked, pokey little two-dimensional tree that's shedding needles.", "is_fresh": 0, "author": ["Alison Gillmor"]},
{"text": "To paraphrase a speech made once upon a time in a pumpkin patch, there's no hypocrisy to be found in any of this, just sincerity, pretty much as far as the eye can see.", "is_fresh": 1, "author": ["Sara Michelle Fetters"]},
{"text": "The Peanuts Movie is delightful from beginning to end and doesn't rely on baddies, silly sidekicks or lame toilet gags to distract your munchkins.", "is_fresh": 1, "author": ["Laura Delaney"]},
{"text": "Rendering the Red Baron-fighting Snoopy and way too many supporting characters in 3-D, and placing them in near-photo-realistic backgrounds, drains much of the charm from \"The Peanuts Movie.\"", "is_fresh": 0, "author": ["Lou Lumenick"]},
{"text": "A very good example of how to do modernisation right.", "is_fresh": 1, "author": ["Tim Brayton"]},
{"text": "The pacing is off at times and the gentle flow can occasionally lead the mind to wander, but it's a delight to have Peanuts back on the big screen.", "is_fresh": 1, "author": ["Francesca Rudkin"]},
{"text": "The little red-haired girl explains, that in the trying, she recognized Charlie Brown did kind, compassionate, truthful, and tolerant things. This is pure gold for children.", "is_fresh": 1, "author": ["Mark Jackson"]},
{"text": "Sure, it's less contemplative and less melancholy than the old strips, but there's more than enough nostalgia here to keep Peanuts nuts happy as well as younger viewers.", "is_fresh": 1, "author": ["James Luxford"]},
{"text": "If unabashed sweetness is your weakness then you will be completely helpless.", "is_fresh": 1, "author": ["Georgia Morgan"]},
{"text": "Lucys football remains unkicked in a charming pic that gives you everything you expect in glossy new packaging.", "is_fresh": 1, "author": ["Neil Smith"]},
{"text": "The film struggles to stretch out the familiar Schulz cartoons into a substantial feature film.", "is_fresh": 0, "author": ["Allan Hunter"]},
{"text": "Schultz's flat artwork doesn't really suit 3D and the dual stories feel a bit thin stretched over 90 minutes. But the characters are still hard to resist.", "is_fresh": 1, "author": ["Andy Lea"]},
{"text": "A congenial piece that truly will warm the cockles of your heart this Christmas.", "is_fresh": 1, "author": ["Stefan Pape"]},
{"text": "This adaptation of Charles M Schulz's much-loved comic strip will similarly delight little ones, although it proves much too bland to entertain the over-10s.", "is_fresh": 0, "author": ["David Edwards"]},
{"text": "We're delighted to report that: you're a good movie, Charlie Brown.", "is_fresh": 1, "author": ["Tara Brady"]},
{"text": "If the story's a bit thin for a feature-length movie, there are some lovely moments along the way.", "is_fresh": 1, "author": ["Paul Whitington"]},
{"text": "As warm and inviting as a baby blue blanket, handily walking a line between old and new.", "is_fresh": 1, "author": ["J. Olson"]},
{"text": "Older fans of Charlie Brown and Snoopy need not worry: this is an extremely faithful rendition of the strip.", "is_fresh": 1, "author": ["Richard James Havis"]},
{"text": "...remains faithful to the spirit of the Peanuts world, choosing to surprise viewers not with twists or deviations, but with the clever rendering of familiar elements from the Peanuts gang repertoire...", "is_fresh": 1, "author": ["James Plath"]},
{"text": "Playing on notions of nostalgia, fans of Charles Schulz's sixty-five-year-old comic strip classic will have plenty to love about the big-screen outing for Charlie Brown & friends in the charming and quietly witty, The Peanuts Movie.", "is_fresh": 1, "author": ["Marija Djurovic"]},
{"text": "The movie knows where it lives: as a precious piece of nostalgia in the minds of grown-ups who cuddled up to Snoopy as kids.", "is_fresh": 1, "author": ["Katherine Monk"]},
{"text": "True to the essence of its characters, and animated in a more tridimensional way, Peanuts is funny and has a great message for every age group, and despite not having the most original plot, it will satisfy long-time fans. [Full Review in Spanish]", "is_fresh": 1, "author": ["Israel Acosta Aroche"]},
{"text": "A flawless, noble and tender family film. [Full Review in Spanish]", "is_fresh": 1, "author": ["Diana S\u00e1nchez Uranga"]},
{"text": "The Peanuts Movie manages to maintain the soul of the comic strip even as it upgrades the visuals.", "is_fresh": 1, "author": ["Brian Roan"]},
{"text": "It's a sincere film for children, squarely in the tradition of the sweet, simply drawn Peanuts cartoons from the 1960s.", "is_fresh": 1, "author": ["Edward Porter"]},
{"text": "If you are looking for an agreeable and entertaining school holidays film for younger children, this is it. Fans of the comic strip should get a kick out of it, too.", "is_fresh": 1, "author": ["Stephen Romei"]},
{"text": "A film that works better as an homage rather than recreate the greatness of the original cartoon. [Full review in Spanish]", "is_fresh": 1, "author": ["Fausto Ponce"]},
{"text": "A charming film, made especially for those who grew up in the comics. [Full review in Spanish]", "is_fresh": 1, "author": ["Edgardo Res\u00e9ndiz"]},
{"text": "Emotional and lots of fun, a great blast from the past and a new discovery for kids today. [Full review in Spanish]", "is_fresh": 1, "author": ["Eduardo Molina"]},
{"text": "What other films for children teach in an hour - about life, the universe and everything - Schulz could teach in a line, and this film reflects that. It's undeniably about decency, goodness, and love. And Snoopy.", "is_fresh": 1, "author": ["CJ Johnson"]},
{"text": "An uplifting kids film without any of the cinisism found in most movies nowadays. [Full review in Spanish]", "is_fresh": 1, "author": ["Horacio Bilbao"]},
{"text": "Anyone who possesses even a passing familiarity with Charlie Brown and the gang from Peanuts should find some appreciable measure of delight with this super-faithful feature film adaptation...a perfectly fine, perfectly safe big-screen translation. ", "is_fresh": 1, "author": ["Jim Schembri"]},
{"text": "Can be a bit frantic and antic; the ending's more schmaltzy than Schulzy. But the sad-sack, what's-the-point-of-it-all? adult humour sneaks in. Pretty much the least disappointing feature-film adaptation America's most famous comic-strip could get. ", "is_fresh": 1, "author": ["Brian Gibson"]},
{"text": "Snoopy, Charlie Brown and friends finally arrive on the big screen in a movie that sticks close to the gently comical tone of the comic strip that launched in 1950 and the vintage TV shows from the 1960s and 1970s.", "is_fresh": 1, "author": ["Rich Cline"]},
{"text": "Kids will be able to follow the simple storyline and will enjoy the misadventures of the good-natured, well-intentioned Charlie Brown. ", "is_fresh": 1, "author": ["Matthew Toomey"]},
{"text": "The Peanuts Movie is charming in parts and high in nostalgia value for generations that virtually befriended characters such as Snoopy, Linus (with his security blanket), Lucy and Pig Pen.", "is_fresh": 1, "author": ["Udita Jhunjhunwala"]},
{"text": "The Peanuts Movie is both modern and traditional, pleasing on all fronts, which must have been hard to achieve.", "is_fresh": 1, "author": ["Paul Byrnes"]},
{"text": "It's mercifully \"un-modernised\" and pretty faithful to Charles M. Schulz' original comic strip, but it's also rather flat and not especially funny. And there's too much padding; it could just as well have been a short rather than feature-length.", "is_fresh": 0, "author": ["Mark Demetrius"]},
{"text": "An ideal movie for this time of year, pleasing fans and also manages to present these beloved characters to a new audience. [Full Review in Spanish]", "is_fresh": 1, "author": ["Jonathan S\u00e1nchez"]},
{"text": "A film that attempts to show us the importance of being kind and noble embodied in Charlie Brown. [Full review in Spanish]", "is_fresh": 1, "author": ["Carolina Ruiz"]},
{"text": "An entertaining story with an agile script, easy to understand, full of innocence and lots of warmth, as well as comical situations that will surely make you laugh. [Full Review in Spanish]", "is_fresh": 1, "author": ["Anaid Ram\u00edrez"]},
{"text": "A love letter to adventure movies. An adventure like living, being a child, growing... The definitive film for this Christmas season. [Full Review in Spanish]", "is_fresh": 1, "author": ["Suso Aira"]},
{"text": "It leaves fans satisfied and welcomes a new generation of spectators. [Full Review in Spanish]", "is_fresh": 1, "author": ["Oswaldo Betancourt Lozano"]},
{"text": "A little great film that is respectfully scrupulous with the source material. [Full Review in Spanish]", "is_fresh": 1, "author": ["Mikel Zorrilla"]},
{"text": "It may not be for the youngest in the family, but it makes those of who stopped being a child long ago the feeling of being one again. [Full Review in Spanish]", "is_fresh": 1, "author": ["Sergio Ben\u00edtez"]},
{"text": "This CG animated update for Charles Schulz's enduring comic strip does a nice job of modernising the style of the old cartoons without losing their ramshackle spirit.", "is_fresh": 1, "author": ["Alistair Harkness"]},
{"text": "The voices are too gloopy, Linus has been given an unnecessary hair transplant and, worst of all, Snoopy's plot thread (technically a story-within-a-story) is dull and dodgy.", "is_fresh": 0, "author": ["Charlotte O'Sullivan"]},
{"text": "Wistful and wryly amusing, there's no Pixar-style attempt to ironically appeal to parents just a wistful wallow in a set of stories and characters that seem to hark from a less frenetic age.", "is_fresh": 1, "author": []},
{"text": "It's slight, but sweet.", "is_fresh": 1, "author": ["Ian Nathan"]},
{"text": "It's a relief that this is so faithful, and that so many sweet gags reference the original comic.", "is_fresh": 1, "author": ["David 'Mad Dog' Bradley"]},
{"text": "Crisp clean animation on a sea of colour form the foundation of this endearing family film that brings Charles M. Schulz's beloved comic strip characters to the big screen", "is_fresh": 1, "author": ["Louise Keller"]},
{"text": "It just sticks to the basics of what makes the Peanuts so lovable, while re-working the animation for a new generation.", "is_fresh": 1, "author": ["Felix Vasquez Jr."]},
{"text": "As simple and well-meaning as Charlie himself, it's an old-fashioned delight.", "is_fresh": 1, "author": ["Eddie Harrison"]},
{"text": "It is delightfully animated in the original hand-drawn style and brings a big smile to the face ...", "is_fresh": 1, "author": ["Henry Fitzherbert"]},
{"text": "The kids may need some persuading. But chances are they'll love this too ...", "is_fresh": 1, "author": ["David Aldridge"]},
{"text": "Overall, wry observation and pathos take precedence over crowd-pleasing slapstick, although some dreary pop songs prove a drag.", "is_fresh": 1, "author": ["Mark Kermode"]},
{"text": "Even in 3D it is lovingly faithful to the gentle, whimsical spirit of the original cartoons.", "is_fresh": 1, "author": ["Brian Viner"]},
{"text": "The self-effacing Charlie is the antithesis of the typical American movie hero. The film is charming and whimsical but makes some very trenchant points about the grimmer side of an all-American childhood.", "is_fresh": 1, "author": ["Geoffrey Macnab"]},
{"text": "Snoopy and Charlie Brown: The Peanuts Movie will serve young children well as a Christmas outing, but whether it serves the child that remains in all of us early Peanuts fans is another question.", "is_fresh": 1, "author": ["Kate Muir"]},
{"text": "A Christmas nostalgia trip for parents.", "is_fresh": 1, "author": ["Peter Bradshaw"]},
{"text": "For the most part, the film just seems to waft along, and though Charlie Brown's life is low-key by nature, the stories are mostly flimsily low-impact.", "is_fresh": 0, "author": ["Robbie Collin"]},
{"text": "Of all the potential Charlie Brown movies Hollywood might have made, this might be the Charlie Brown-iest. That's not necessarily a good thing.", "is_fresh": 0, "author": ["MaryAnn Johanson"]},
{"text": "Not messing too much with the formula or characters that made Peanuts famous, Blue Sky have played it very safe and pretty damn smart keeping most of the charm of Schulz's original work.", "is_fresh": 1, "author": ["Peter Turner"]},
{"text": "Good, but not without grief.", "is_fresh": 1, "author": ["Alex Leadbeater"]},
{"text": "What a delight this is.", "is_fresh": 1, "author": ["David Jenkins"]},
{"text": "Proves how timelessly entertaining Schulz's vision of childhood was.", "is_fresh": 1, "author": ["Liam Maguren"]},
{"text": "Five decades of memories are treated with the respect they deserve in the new film \"The Peanuts Movie.\"", "is_fresh": 1, "author": ["Michael A. Smith"]},
{"text": "The movie is composed of brief little episodes that seem to simulate comic strip panels but the style makes the film tiresome.", "is_fresh": 0, "author": ["Jules Brenner"]},
{"text": "A warmhearted, gentle and funny animated film", "is_fresh": 1, "author": ["Jeffrey M. Anderson"]},
{"text": "The end result is . . . true to the flavor of Schulz's original vision.", "is_fresh": 1, "author": ["Violet LeVoit"]},
{"text": "Like Satchmo, Hemingway and Elvis, Charles M. Schulz was an authentic American genius who transformed his medium of expression. This film plays it safe by scrubbing away some of Schulz's signature melancholy, but it's an honorable and entertaining effort.", "is_fresh": 1, "author": ["John Beifuss"]},
{"text": "Although little kids are sure to enjoy 'The Peanuts Movie,' this gentle story about friendship and what endears others to us is a must-see for baby boomers, too.", "is_fresh": 1, "author": ["Linda Cook"]},
{"text": "Though rife with references, the story is an original one, witty and clever, but also recognizing and respecting the seriousness of childhood's troubles, including the pitfalls of fountain pens...", "is_fresh": 1, "author": ["Andrea Chase"]},
{"text": "It won't feel like a redefinition of a world left behind by a previous generation. But then that was never the point of Peanuts. It was only ever meant to be sweet, maudlin, and halcyon. In that regard, The Peanuts Movie is remarkably on the nose.", "is_fresh": 1, "author": ["Witney Seibold"]},
{"text": "Amiable and satisfying, it's sweetly nostalgic family fare...", "is_fresh": 1, "author": ["Susan Granger"]},
{"text": "While not even the savory promise of seeing Donald Trump fed coif-first to a shark could entice me to see the Alvin odyssey The Road Chip, The Peanuts Movie turns out to be a pleasant surprise -- and a great relief.", "is_fresh": 1, "author": ["Matt Brunson"]},
{"text": "The movie is a near-total dud, endless at 93 minutes, useful only as an intro to the strip for the benefit of those who have been in a coma since 1950.", "is_fresh": 0, "author": ["Jim Lane"]},
{"text": "The Peanuts Movie is certain to satisfy longtime fans and perhaps make new ones, but who knows? Innocence is a tough sell these days. Happiness is the occasional movie that tries.", "is_fresh": 1, "author": ["Steve Persall"]},
{"text": "The Peanuts Movie manages to nail the strip's comic timing and play its core sentiment -- a childlike desire for acceptance -- to near perfection.", "is_fresh": 1, "author": ["David Frese"]},
{"text": "In the figurative sense, though, the characters' sharp edges have been filed down.", "is_fresh": 0, "author": ["J. R. Jones"]},
{"text": "The Peanuts Movie works, not just as a yarn about Charlie Brown and his bungling attempts to win the love of the nameless, redheaded new girl in his class, but as an example of 3D animation that defies its own boundaries.", "is_fresh": 1, "author": ["Andy Crump"]},
{"text": "Adults will absolutely find The Peanuts Movie delightful and charming, but the comedy and messages will still ring true for kids.", "is_fresh": 1, "author": ["Kyle Anderson"]},
{"text": "It isn't 100 percent true to the core theme of Charles Schulz's life work, but that doesn't make it a bad (movie), either.", "is_fresh": 1, "author": ["John Serba"]},
{"text": "The gently funny The Peanuts Movie works more as a charming homage to the famous scenes of the TV classics It's the Great Pumpkin, Charlie Brown and A Charlie Brown Christmas for adult viewers than as an iconic movie for a new generation.", "is_fresh": 1, "author": ["Janet Smith"]},
{"text": "It's almost as if the whole Peanuts universe has been encased in Carbonite, shipped to 2015, then unfrozen like Han Solo, ready for movie duty.", "is_fresh": 1, "author": ["Dann Gire"]},
{"text": "Packed with sweetness and laughs, The Peanuts Movie reminds us why the characters Schulz created 65 years ago are still so beloved, but is also so entertaining and innovative as to make us look forward to more big screen adventures.", "is_fresh": 1, "author": ["Diva Velez"]},
{"text": "Every once in a while the past comes back to haunt us fondly, and The Peanuts Movie is, perhaps, the most enchanting of those more recent mainstream anomalies.", "is_fresh": 1, "author": ["David Keyes"]},
{"text": "Plays sort of like a Peanuts Greatest Hits- but never less than delightful (Fox 29 Philly) ", "is_fresh": 1, "author": ["Stephen Silver"]},
{"text": "Nostalgia fodder at its most faithful and forgettable ... old-fashioned and wholesome but in a way that's old hat and wholly unimaginative.", "is_fresh": 0, "author": ["Christopher Campbell"]},
{"text": "The Peanuts Movie works BECAUSE it's simple. The movie felt like it wasn't trying to sell a toy or be cooler than it actually is.", "is_fresh": 1, "author": ["Jon Winkler"]},
{"text": "Somehow, this Peanuts feels familiar, even cozy. I can't make any great claims for it, but it feels like the return of an old friend.", "is_fresh": 1, "author": ["Bilge Ebiri"]},
{"text": "...a successful bridge between the old and the new, and one that, no matter its emotional slimness, ultimately never loses sight of the fretful angst with which all kids must, at some point, contend. ", "is_fresh": 1, "author": ["Nick Schager"]},
{"text": "The price is some excessive familiarity and a very slow development. In exchange, we get the gang exactly the way we remember them, and their message is still as surprisingly sweet as ever.", "is_fresh": 1, "author": ["Rob Vaux"]},
{"text": "It's a pleasant surprise that the first feature adaptation of Schulz's characters in 35 years sidesteps its pitfalls with an amusing charm.", "is_fresh": 1, "author": ["Todd Jorgenson"]},
{"text": "This really isn't a movie, it's a collection of The Peanuts greatest hits strung together into an 80 minute \"narrative.\" It was everything that I hoped it would be. However, it may be a little too sweet and innocent for today's jaded, modern, young'ns.", "is_fresh": 1, "author": ["Michelle Alexandria"]},
{"text": "This sweet homage to Schulz's body of work manages to capitalize on Charlie Brown's misfortunes, and give us an experience worth remembering ---- and seeing again.", "is_fresh": 1, "author": ["Jeanne Kaplan"]},
{"text": "Any male out there who has ever had to make that dreaded phone call for a first date will appreciate Charlie's reluctance when he goes to the Little Red-Haired Girl's front door to return her pencil. ", "is_fresh": 1, "author": ["David Kaplan"]},
{"text": "The Peanuts Movie succeeds at giving the Peanuts property a shiny fresh coat of paint, while keeping its heart and humanist spirit intact.", "is_fresh": 1, "author": ["Sandy Schaefer"]},
{"text": "Without suffering, Peanuts becomes little more than wholesome distraction for kiddies.", "is_fresh": 0, "author": ["Matthew Lickona"]},
{"text": "\"The Peanuts Movie\" introduces the Peanuts gang to a whole new generation by bringing them to life with all of their foibles and neuroses attached.", "is_fresh": 1, "author": ["Mathew DeKinder"]},
{"text": "A terrific big-screen version that should satisfy Peanuts fans and generate new ones.", "is_fresh": 1, "author": ["Nancy Churnin"]},
{"text": "This one errs firmly on the side of caution, and it's G-rated, irony-free setups make it the perfect introduction to a new generation of fans. It might even be the first film you take your li'l folks to see.", "is_fresh": 1, "author": ["Chris Knight"]},
{"text": "A really wonderful continuation of the original comic strip's great legacy that should earn it an entire new generation of fans, and is guaranteed to make you smile.", "is_fresh": 1, "author": ["Eric Eisenberg"]},
{"text": "Only a blockhead won't enjoy Charlie Brown and Co.'s return to the big screen.", "is_fresh": 1, "author": ["Kirk Baird"]},
{"text": "While The Peanuts Movie succeeds at being amusing and engaging for all ages, it's perhaps just as important that it also succeeds at being \"by Schulz.\"", "is_fresh": 1, "author": ["Scott Renshaw"]},
{"text": "Welcome back, Charlie Brown, even in 3D.", "is_fresh": 1, "author": ["James Verniere"]},
{"text": "Gentle family-friendly comedy has sweet messages.", "is_fresh": 1, "author": ["Betsy Bozdech"]},
{"text": "There's something sad about seeing a character as sweet and simple as good ol' Charlie Brown so totally ruined.", "is_fresh": 0, "author": ["John Semley"]},
{"text": "It's a mediocre movie, Charlie Brown.", "is_fresh": 0, "author": ["Stephen Whitty"]},
{"text": "Charles M. Schulz would have loved this one. It's a terrific tribute to him, his characters and his fans. The Tolstoy bit had me laughing out loud. Don't miss this one. ", "is_fresh": 1, "author": ["Gary Wolcott"]},
{"text": "As a long time fan, I would have appreciated perhaps another story than the recycled one offered here, but it is still nice to see all the old friends back.", "is_fresh": 1, "author": ["JimmyO"]},
{"text": "Schulz' spirit of suburban innocence and down-home sweetness continues with this most recent film adaptation of his comic.", "is_fresh": 1, "author": ["Mark Dujsik"]},
{"text": "Might not reach or match the creative heights of Pixar's best animated films, but it's undeniably charming and decidedly old-fashioned for fans of the strip, TV shows or both. (Full Content Review - listing objectionable content - for Parents available)", "is_fresh": 1, "author": ["Jim Judy"]},
{"text": "The Peanuts Movie has all of the elements a true fan would want - the original characters, a nod to past TV specials, even a jazzed-up \"wahwah\" - but like its stalwart hero, it falls just short of completing the task at hand. ", "is_fresh": 1, "author": ["Maricar Estrella"]},
{"text": "Cutesy and pleasant as it is, the film is perhaps too innocuous for audiences who have become more accustomed to the snarky wit and zippy animation style of films such as Kung Fu Panda 3.", "is_fresh": 1, "author": ["Yip Wai Yee"]},
{"text": "\"The Peanuts Movie\" takes the quaint humor of Charles Schulz' characters and blows it up to big screen proportions, and against the odds, it keeps Peanuts' genial sense of melancholy charm intact.", "is_fresh": 1, "author": ["Adam Graham"]},
{"text": "There are pleasant moments and welcome echoes of the past, but it does not justify its existence by adding anything of value to the canon already available.", "is_fresh": 1, "author": ["Nell Minow"]},
{"text": "In short, longtime fans should be happy with the result, and new fans will find an easy time getting on board.", "is_fresh": 1, "author": ["Josh Terry"]},
{"text": "It's a skillful, sweet-natured film with nice messages about believing in yourself and not giving up. But somehow, the magic got lost along the way.", "is_fresh": 0, "author": ["Moira MacDonald"]},
{"text": "To those with even a limited exposure to Peanuts over the years, this will feel like a homecoming. Is that a bad thing? No, but it's more of a trip down memory lane than something new.", "is_fresh": 1, "author": ["James Berardinelli"]},
{"text": "Essentialists may never be pleased with the updated CGI features or jokes about standardized testing, but the heart and hope of this Charlie Brown remains intact enough to try and kick that football.", "is_fresh": 1, "author": ["Monica Castillo"]},
{"text": "What surprised me was the way they took a quiet approach to finding something else to say about Charlie Brown.", "is_fresh": 1, "author": ["Drew McWeeny"]},
{"text": "The movie isn't some kind of disservice to the legacy of Charles Schulz, but it also feels unnecessary.", "is_fresh": 0, "author": ["Mark Olsen"]},
{"text": "With the frenetic style of so much of what passes as kids fare these days, the simplicity of seeing The Peanuts Movie and this wonderful bunch of characters again on the big screen is more than enough.", "is_fresh": 1, "author": ["Pete Hammond"]},
{"text": "Maybe the best thing about The Peanuts Movie, with detail so perfect that it brings tears to my eyes, is the way that Charlie Brown daydreams.", "is_fresh": 1, "author": ["Jen Chaney"]},
{"text": "Most of The Peanuts Movie is very funny indeed.", "is_fresh": 1, "author": ["Dan Kois"]},
{"text": "It's a bit startling, and undeniably refreshing, to see a children's movie that ... is driven by the small anxieties a real child might experience on a daily basis.", "is_fresh": 1, "author": ["Neil Genzlinger"]},
{"text": "The Schulz descendants who oversaw this new Peanuts avoid the obvious traps to ensure a charming, harmless trip down memory lane.", "is_fresh": 1, "author": ["Andrew Lapin"]},
{"text": "Even with his glossy new look, Charlie Brown remains the Charlie Browniest.", "is_fresh": 1, "author": ["Tom Russo"]},
{"text": "The Peanuts Movie manages to be a winning flashback while keeping its feet firmly in today. It's terrific. ", "is_fresh": 1, "author": ["Bill Gibron"]},
{"text": "The Peanuts Movie finds Charlie Brown still suffering from self-esteem issues, but that figures. He still goes to a five-cent psychiatrist.", "is_fresh": 1, "author": ["Gary Thompson"]},
{"text": "It's a big, wet dog kiss of an animated family film, hitting all the expected notes of the Charles Schultz comic strip and TV specials that generations have loved.", "is_fresh": 1, "author": ["Peter Howell"]},
{"text": "plays much like a greatest hits package, an approach that's just fine for introducing a new generation to Charlie Brown and his gang while giving those more familiar a nostalgia trip.", "is_fresh": 1, "author": ["Laura Clifford"]},
{"text": "\"The Peanuts Movie\" didn't need to be made, but if it gets a new audience to Schulz's best work, it's done its job.", "is_fresh": 1, "author": ["Bill Goodykoontz"]},
{"text": "\"The Peanuts Movie\" is not only aesthetically beautiful, at once modern, retro and pure, but it also rings resoundingly true.", "is_fresh": 1, "author": ["Dustin Putman"]},
{"text": "It is smart, fun and offers some strong messages without being preachy. That is the framework Schulz established when he introduced the comic strip. The best thing that can be said is you're in a very good film, Charlie Brown.", "is_fresh": 1, "author": ["Rick Bentley"]},
{"text": "I suspect kids may find these Peanuts kind of bland.", "is_fresh": 0, "author": ["Jim Slotek"]},
{"text": "Comes billed as being \"From the imagination of Charles Schulz,\" and, almost astonishingly, it pretty much is.", "is_fresh": 1, "author": ["Steven D. Greydanus"]},
{"text": "I m still a huge Peanuts fan. But this movie misses the talent and wisdom of Charles Schulz and the iconic music of Vince Guaraldi. This movie is an affirmation of Schulz's acumen in not allowing anyone else to write the strip after he stopped.", "is_fresh": 0, "author": ["Tony Medley"]},
{"text": "To my great relief and only the best kind of good grief, I'm pleased to report this is a meticulously faithful and clearly loving tribute to America's favorite blockhead.", "is_fresh": 1, "author": ["Richard Roeper"]},
{"text": "\"Peanuts\" is not a perfect film, but it remains almost completely true to its original values. It's a snowflake slowly falling to the melancholy notes of Vince Guaraldi.", "is_fresh": 1, "author": ["Peter Hartlaub"]},
{"text": "Brings Schulz's classic creation up-to-date in technical terms while remaining faithful to the spirit and tone of the beloved strip. ", "is_fresh": 1, "author": ["Frank Swietek"]},
{"text": "While it's respectful to the Schultz legacy and periodically winning, \"The Peanuts Movie\" feels a tad stale at times, burning through established highlights instead of creating fresh ones. ", "is_fresh": 1, "author": ["Brian Orndorf"]},
{"text": "If you're lucky enough to be a kid who hasn't been exposed to Peanuts, or lucky enough to be the parent of such a kid, you're in for a special treat.", "is_fresh": 1, "author": ["Kristian M. Lin"]},
{"text": "Very likable, often poignant, and, ultimately, protective of the delicate comic strip from which it was sourced.", "is_fresh": 1, "author": ["Richard von Busack"]},
{"text": "Any yardage gained by staying true to Charles M. Schulz's gentle, somewhat whitewashed vision of small-town childhood is offset by one too many head-bonking 3-D action sequences and a batch of truly dire pop tunes. (Good grief, Flo Rida.)", "is_fresh": 1, "author": ["Joshua Rothkopf"]},
{"text": "A welcome break from the noise of many kids flicks, Charlie Brown's trip to the big screen is set in a simpler time.", "is_fresh": 1, "author": ["Jody Mitori"]},
{"text": "The Peanuts Movie captures the charm and innocence of Charles M. Schulz's characters for a new generation. ", "is_fresh": 1, "author": ["Daniel Eagan"]},
{"text": "There's room for Charlie Brown in the imaginations of a new generation completely unfamiliar with his embarrassing dilemmas and resilient efforts to dust himself off, haters like Lucy be damned. Charlie Brown is the Dirt Off Your Shoulder OG.", "is_fresh": 1, "author": ["Radheyan Simonpillai"]},
{"text": "An entertaining combination of humor and tenderness, \"The Peanuts Movie\" isn't just an all-ages crowd-pleaser. It's the perfect first feature film for a preschooler.", "is_fresh": 1, "author": ["Sandie Angulo Chen"]},
{"text": "The Peanuts Movie is deeply rooted in the look and tone of Schulz's soulful comic strip.", "is_fresh": 1, "author": ["Isaac Guzm\u00e1n"]},
{"text": "This charming movie mostly captures the tone of Schulz's work and the voices of his characters.", "is_fresh": 1, "author": ["Jesse Hassenger"]},
{"text": "It's disappointing and actually kind of cynical in its unwillingness to try anything even vaguely innovative with these beloved characters.", "is_fresh": 0, "author": ["Christy Lemire"]},
{"text": "It's so faithful that it's a bit like watching the Peanuts greatest hits.", "is_fresh": 1, "author": ["Josh Bell"]},
{"text": "The Peanuts Movie is more tribute album than fresh material. It aims to honor Charles M. Schulz's legacy while doing little to sustain it.", "is_fresh": 0, "author": ["Zachary Shevich"]},
{"text": "Steve Martino's wonderful The Peanuts Movie is a loving tribute not only to the original comic strips and cartoons, but to the man who created the franchise, Charles \"Sparky\" Schulz.", "is_fresh": 1, "author": ["Sherilyn Connelly"]},
{"text": "It's a gentle, simple movie with Charlie Brown, Snoopy and the gang that the late Charles Schulz would be proud to call his own.", "is_fresh": 1, "author": ["Laura DeMarco"]},
{"text": "Happiness is a warm feature-length animated cartoon called The Peanuts Movie, a loving tribute to the beloved comic strip that graced the funny pages for half a century.", "is_fresh": 1, "author": ["Steve Davis"]},
{"text": "The animators seamlessly bring the newsprint line drawings to colorful and creative life. Yet the integrity and feel of the original comic strip is carefully maintained.", "is_fresh": 1, "author": ["Katie Walsh"]},
{"text": "The fact that Charlie Brown isn't on Snapchat is one of the reasons why I loved 'The Peanuts Movie.'", "is_fresh": 1, "author": ["Erik Davis"]},
{"text": "All the classic moments are there, crammed in as if we might not get another shot at this. It's all very sweet and charming, and we should be thankful this isn't a childhood-ruining disaster.", "is_fresh": 1, "author": ["Jordan Hoffman"]},
{"text": "Failure hovers over the film as much as it did in Schulz's comic strip, infusing even its most ebullient set pieces and designs with a sense of melancholy.", "is_fresh": 1, "author": ["Kenji Fujishima"]},
{"text": "The movie is both a testament to Charlie Brown's place in pop culture and also a showcase for a new generation bound to fall in love with its perennially insecure star.", "is_fresh": 1, "author": ["Brian Truitt"]},
{"text": "It's a shame to see Charlie Brown, one of our culture's most lovable nonconformists, swing for the big leagues and whiff.", "is_fresh": 0, "author": ["Joe McGovern"]},
{"text": "Adorable, faithful, and all sorts of innocent, The Peanuts Movie is a definitive family affair.", "is_fresh": 1, "author": ["Michael Roffman"]},
{"text": "It's definitely for kids, but only in the way the specials (and the strip) are for kids, which is to say it taps into something primal and even sad.", "is_fresh": 1, "author": ["Matt Prigge"]},
{"text": "Theirs is a world where kids can't wait to go outside and play on a snow day, and there aren't any parents policing the park for hurt feelings and peanut butter. And it's a lo-fi delight.", "is_fresh": 1, "author": ["Katherine Pushkar"]},
{"text": "Nostalgic, a \"Peanuts Greatest Hits,\" but still utterly charming. ", "is_fresh": 1, "author": ["Roger Moore"]},
{"text": "The gritty origin story of the Little Red Haired Girl. Finally, we get to explore how and why she came into Charlie Brown's life and the depths of his affection for her.", "is_fresh": 1, "author": ["Fred Topel"]},
{"text": "Relying on 50 years of character development, the Peanuts gang stays true to their original selves -- there's no new edge or post-modern snark in the mix.", "is_fresh": 1, "author": ["Sandy Cohen"]},
{"text": "The title card claims this Peanuts is \"by Schulz,\" but there are voices here besides his. What matters is that his is honored - and that this is as sincere a pumpkin patch as Hollywood can grow.", "is_fresh": 1, "author": ["Alan Scherstuhl"]},
{"text": "Appropriate for all ages, yet still acceptably funny for adults who have nominally grown out of admitting they ever liked Snoopy and the gang, this Peanuts is as big a winner as its protagonist Charlie Brown isn't.", "is_fresh": 1, "author": ["Luke Y. Thompson"]},
{"text": "I suspect that for young audiences, The Peanuts Movie will eventually be as much of a launching pad for the work of Charles M. Schulz as previous movie and TV iterations were for their parents. ", "is_fresh": 1, "author": ["Alonso Duralde"]},
{"text": "I am apparently allergic to 'Peanuts.'", "is_fresh": 0, "author": ["Scott Mendelson"]},
{"text": "This adaptation re-creates the TV specials' touching, wistful, gently funny tone. But in the process, \"The Peanuts Movie\" practically cuts-and-pastes much of their signature catch phrases, character quirks and indelible scenes for this new tale.", "is_fresh": 0, "author": ["Tim Grierson"]},
{"text": "A 'Peanuts' adaptation that his creator can be proud of.", "is_fresh": 1, "author": ["Peter Debruge"]},
{"text": "A delightful romp that captures the spirit of the adored 65-year-old comic strip.", "is_fresh": 1, "author": ["Michael Rechtshaffen"]}
]