[
{"reviews_count": "110", "title": "The Endless", "avg_audience_rating": "3.5", "rotten_count": "7", "tomatometer": "94", "audience_score": "67", "avg_critic_rating": "7.6", "fresh_count": "103", "user_ratings_count": "2,765"},
{"text": "The Endless is a supernatural-infused thriller with a tight story, masterful cinematography, & nubilous dialogue that'll have you questioning everything from start to finish.", "is_fresh": 1, "author": ["Douglas Davidson"]},
{"text": "The Endless is a film that requires extra effort put into understanding its themes and it rewards the viewer that puts in the time with an incredible and bone-chilling journey into the abyss.", "is_fresh": 1, "author": ["Michelle Kisner"]},
{"text": "It's a fantastic film which works on many levels. ", "is_fresh": 1, "author": ["Rob Aldam"]},
{"text": "It's what you might expect and also nothing like it.", "is_fresh": 1, "author": ["Patrick Bromley"]},
{"text": "Moorhead and Benson have made yet another fascinating entry to their filmography, one that champions big ideas over numbing spectacle.", "is_fresh": 1, "author": ["Matt Oakes"]},
{"text": "The ending of The Endless feels like a cheat. Wish I was drawn in the way everyone else seems to be, yet one can't help but want to know how this all comes together based on a great setup involving a cult.", "is_fresh": 0, "author": ["Jim Laczkowski"]},
{"text": "Another super-intriguing, shoegazing, almost-there slice of genre revision from the directors of Spring.", "is_fresh": 1, "author": ["Daniel Barnes"]},
{"text": "You don't watch The Endless and leave it feeling as if the directors triumphed over their limitations; rather, you wish they had a good budget to begin with, so that they could really do their vision justice.", "is_fresh": 0, "author": ["Tomas Trussow"]},
{"text": "The brothers have terrific chemistry from the moment their road trip begins.", "is_fresh": 1, "author": ["Eve Tushnet"]},
{"text": "The mystery is more intriguing than thrilling. That goes for the performances as well. ", "is_fresh": 1, "author": ["Roger Moore"]},
{"text": "Fans of intellectually striving \"little\" sci-fi movies could do a whole lot worse.", "is_fresh": 1, "author": ["Tim Brayton"]},
{"text": "The other thing the directing pair creates with uneasy authenticity is that spotty forgiving and unforgiving bond between siblings.", "is_fresh": 1, "author": ["Hope Madden"]},
{"text": "Benson and Moorhead's film is a beguiling, sometimes puzzlingly inexplicable, gonzo mixture of late-night genres: part road movie, part sci-fi and part Bill and Ted's excellent post-modern horror adventure.", "is_fresh": 1, "author": ["Alexa Dalby"]},
{"text": "The Endless is a brilliant film, that uses strong performances, a tight script, and even its own limitations to create an unsettling, yet enjoyable atmosphere.", "is_fresh": 1, "author": ["Terence Johnson"]},
{"text": "Despite an imaginative concept, the narrative feels surprisingly bland, even when the pieces begin to fall into place - and when there's no quick punchline to fall back on, the film suffers.", "is_fresh": 0, "author": ["Kambole Campbell"]},
{"text": "In short, The Endless is intelligent, immersive and incredible, one you'll want to watch over and over to uncover the hidden depths. Watch it as soon as you can.", "is_fresh": 1, "author": ["Kat Hughes"]},
{"text": "The film struggles to generate any urgency amidst a script hobbled by awkward hipster banter and passive aggressive outbursts. ", "is_fresh": 0, "author": ["Glenn Heath Jr."]},
{"text": "\"The Endless\" will have you drinking the Kool-Aid, and loving every last drop.", "is_fresh": 1, "author": ["Tom Santilli"]},
{"text": "It's a genre-bending jaunt that can truly shock and hypnotize if given the chance", "is_fresh": 1, "author": ["Kristy Strouse"]},
{"text": "Still, it's a movie with lots of bewitching ideas, including the use of bizarre, inescapable cycles of events as a way to say something about family relationships.", "is_fresh": 1, "author": ["Edward Porter"]},
{"text": "The cinematography is fluid. The performances are cool and precise. The film itself is worth forming a cult around.", "is_fresh": 1, "author": ["Donald Clarke"]},
{"text": "A mind-bending M\u00f6bius strip of a movie, this indie sci-fi makes up for what it lacks in budget with a wealth of playful ideas.", "is_fresh": 1, "author": ["Wendy Ide"]},
{"text": "It's slightly baffling at times, but always inventive and disquieting.", "is_fresh": 1, "author": ["Ed Potton"]},
{"text": "It's a story about what it means to be comforted, and ultimately confined by, the routines that make up your life.", "is_fresh": 1, "author": ["Ben Kuchera"]},
{"text": "The search for feeling is declined in the form pf purgatory in the most discreet ways. Hopefully the blockbuster gods don't snatch these directors. [Full Review in Spanish]", "is_fresh": 1, "author": ["Jordi Costa"]},
{"text": "The grounding force of this film is the brothers' relationship, which is contentious but loving, and wholly realistic.", "is_fresh": 1, "author": ["April Wolfe"]},
{"text": "Bewitching. ", "is_fresh": 1, "author": ["Nigel Andrews"]},
{"text": "There is a very good idea for a really intriguing, startling film here, that finally gets a little lost in its own freakily cosmic claustrophobia.", "is_fresh": 1, "author": ["Peter Bradshaw"]},
{"text": "This impressive low-budget indie weaves a genre-defying tapestry of weirdness, atmospherics and cultish horrors across a dusty US setting. ", "is_fresh": 1, "author": ["Philip De Semlyen"]},
{"text": "It's a thoughtful, intellectually ambitious film with a strong human element... the closer you let yourself get to it, the more you understand, the more the deep currents of fear beneath its surface will take possession of you, dragging you down.", "is_fresh": 1, "author": ["Jennie Kermode"]},
{"text": "This is another hugely impressive effort from two of the most exciting filmmakers working in the genre right now. Take a chance and take the trip, you won't regret it.", "is_fresh": 1, "author": ["Jonathan Hatfull"]},
{"text": "Benson and Moorhead navigate this tricky terrain skilfully both in front of as well as behind the camera, their performances low-key and naturalistic, allowing the leads to be comfortably mundane while the circumstances around them prove anything but.", "is_fresh": 1, "author": ["James Dyer"]},
{"text": "This symbolic sequel to [the directors'] previous film, Resolution... is even more exciting and mature than their previous work. [Full review in Spanish]", "is_fresh": 1, "author": ["Janire Zurbano"]},
{"text": "The Endless is a different beast: original, unhurried and, considering the resources, often staggering.", "is_fresh": 1, "author": ["Matt Glasby"]},
{"text": "If the performances are strong, with Benson and Moorhead's easy sibling dynamic running the gamut from affection to exasperation, the film's biggest strength is its growing sense of unease.", "is_fresh": 1, "author": ["Nikki Baughan"]},
{"text": "UFO death cult movie is yet another, mostly original, genre-film sleeper taking striking advantage of its locations. ", "is_fresh": 1, "author": ["James Verniere"]},
{"text": "What transpires is an intriguing mystery/sci-fi film that cleverly plays the ends against the middle. ", "is_fresh": 1, "author": ["Gary M. Kramer"]},
{"text": "This is Benson and Moorhead's most professionally-made movie to date, but they hold on to an amateurish enthusiasm that works largely for the best.", "is_fresh": 1, "author": ["Ty Burr"]},
{"text": "Plays out like a surreal Lynchian freakout.", "is_fresh": 1, "author": ["Rich Cline"]},
{"text": "The special effects are more of the psychological nature, with nothing evil shown clearly but its presence always pervading.", "is_fresh": 1, "author": ["Robin Clifford"]},
{"text": "...this filmmaking duo is a prime example of limited means sparking creativity", "is_fresh": 1, "author": ["Laura Clifford"]},
{"text": "The Endless is a kind of sci-fi, Lovecraftian puzzle box. The pleasure of watching it is probably like what people feel when they sign up for one of those escape room adventures. ", "is_fresh": 1, "author": ["Steve Murray"]},
{"text": "Shades of \"Primer\" are definitely present in \"The Endless,\" a modestly budgeted, time-loop science fiction thriller that effectively mixes science and fantasy.", "is_fresh": 1, "author": ["Jonathan W. Hickman"]},
{"text": "The interesting premise and the measured storytelling style help \"The Endless\" overcome the limitations of its modest budget, and even if the final outcome isn't hugely satisfying, the film should be a nice option for genre fans.", "is_fresh": 0, "author": ["Josh Terry"]},
{"text": "A risk that pays off.", "is_fresh": 1, "author": ["Norman Wilner"]},
{"text": "Even lovers of the opaque might desire a little more to grasp onto. But the mystery is a pungent one, and the images and ideas stay with you after the lights go up.", "is_fresh": 1, "author": ["Chris Vognar"]},
{"text": "It's an exercise in intimate unease that presents a potentially fantastical storyline but grounds it in reality and offers characters we actually like, no matter how flawed and frustrating they might be.", "is_fresh": 1, "author": ["David 'Mad Dog' Bradley"]},
{"text": "An example of craft and imagination blending together in perfect, spellbinding unison.", "is_fresh": 1, "author": ["Matthew Pejkovic"]},
{"text": "It's unheralded, but this film is a quiet, understated, gem. ", "is_fresh": 1, "author": ["Stephen Silver"]},
{"text": "The Endless is inventive and imaginative in a low-budget, DIY way - it has some of the do-a-lot-with-a-little spirit of those early Brit Marling independents.", "is_fresh": 1, "author": ["Gary Thompson"]},
{"text": "The Endless invites you to puzzle over it or just enjoy its strange surfaces without losing too much sleep. For a pair of directors with Lovecraftian sensibilities, that's pretty friendly.", "is_fresh": 1, "author": ["Joule Zelman"]},
{"text": "It might leave you scratching your head, but this offbeat science-fiction thriller has an ambitious vision that can't be dismissed.", "is_fresh": 1, "author": ["Todd Jorgenson"]},
{"text": "\"The Endless\" grows more mind-boggling as it goes on, but Benson and Moorhead keep the film grounded, making its twists and turns all the more compelling.", "is_fresh": 1, "author": ["Adam Graham"]},
{"text": "The Endless goes places both eerily unexpected and emotionally affecting, the all-encompassing monstrous beauty of this spellbinding sci-fi thriller impossible to understate.", "is_fresh": 1, "author": ["Sara Michelle Fetters"]},
{"text": "\"The Endless\" is more of a sci-fi thriller, but it is exquisitely tense at times as well as intellectually engaging. And, when you least expect it, it's funny and moving too.", "is_fresh": 1, "author": ["Rob Thomas"]},
{"text": "Tthey have a ball with the film's screwy internal logic and effective visual design, somehow landing on a breezy tone despite a seriously heavy nucleus of unthinkable dread.", "is_fresh": 1, "author": ["Adrian Mack"]},
{"text": "No fair telling you where all this is headed, but Benson and Moorhead create an eerie little movie that effectively plays with time and mortality -- and with our heads.", "is_fresh": 1, "author": ["Robert Denerstein"]},
{"text": "Part of the delicious joy of watching this film is by allowing it to unfold. Benson's script, that he also co-directs with his real-life sibling, is a slow drip of confounding developments.", "is_fresh": 1, "author": ["Norm Gidney"]},
{"text": "As the story becomes more unsettling, it's fun to watch how the filmmakers weave their characters into this mind-bending world.", "is_fresh": 1, "author": ["Elias Savada"]},
{"text": "The eventual reveal fits with the film's overall intelligence and interest in people and existence over spectacle and action. (Though there's some of that as well.) The Endless is a smart, sweetly creepy good time.", "is_fresh": 1, "author": ["Matthew Lickona"]},
{"text": "Benson and Moorhead have made The Endless intriguing in theory, but sloppy and disappointing in its mediocre execution.", "is_fresh": 0, "author": ["Ross Bonaime"]},
{"text": "Beneath the story's weird surface, there's also a perceptive study of the fraught relationship between the two brothers.", "is_fresh": 1, "author": ["Mark Dujsik"]},
{"text": "Unlike more mainstream shared-universe films, The Endless functions as a self-contained and very entertaining little puzzlebox on its own merits.", "is_fresh": 1, "author": ["Sherilyn Connelly"]},
{"text": "By the end, you'll wish the whole film had remained unknown.", "is_fresh": 0, "author": ["Noah Gittell"]},
{"text": "What The Endless lacks in spectacle (though it does have some FX) it more than makes up in character detail and narrative invention. ", "is_fresh": 1, "author": ["Dennis Harvey"]},
{"text": "\"The Endless\" gets into your head and keeps you alert for whatever abnormal turn comes next.", "is_fresh": 1, "author": ["David Lewis"]},
{"text": "Spooky, funny, touching and very, very well made.", "is_fresh": 1, "author": ["Michael O'Sullivan"]},
{"text": "The atmosphere of both the backwoods nature and eerie friendliness of the community are inviting; audiences want to stick around by this cult, and that is at once the highest compliment one can give the film and a terrifying feeling", "is_fresh": 1, "author": ["Robert Kojder"]},
{"text": "We're watching a straightforward sequel serving as a skeleton key to decipher its predecessor through re-contextualization while also providing a unique story removed from it.", "is_fresh": 1, "author": ["Jared Mobarak"]},
{"text": "The Endless isn't just terrific - it's poised to be that breakout genre hit that It Follows and The Babadook were in past years. ", "is_fresh": 1, "author": ["Jamie Righetti"]},
{"text": "Dotted throughout with clever clues and showcasing a remarkable narrative dexterity, The Endless makes it three home runs on the trot for Benson and Moorhead.", "is_fresh": 1, "author": ["Martyn Conterio"]},
{"text": "There's also a sly sense of humor that prevents The Endless from ever feeling obvious, conventional, dull, or, well, endless.", "is_fresh": 1, "author": ["Scott Weinberg"]},
{"text": "In The Endless, Moorhead and Benson show how sustained paranoia and foreboding can keep an audience hooked as effectively as special effects (though if the effects in the film are sparse, they're no less potent for it).", "is_fresh": 1, "author": ["Andy Crump"]},
{"text": "Every viewer is going to come to terms with the truths of this narrative in different ways and in this case, that will make for some very intriguing conversation and debate; a result I believe Justin and Aaron had been yearning for.", "is_fresh": 1, "author": ["Grant Jonsson"]},
{"text": "Great use of an eerie Southern California landscape and some fine, naturalistic acting emphasizes how the ordinary can sometimes seem threatening - and vice-versa.", "is_fresh": 1, "author": ["Noel Murray"]},
{"text": "The Endless feels like a thunderstorm. It brews slowly, softly, and then in the blink of an eye, has consumed you, booming with fury and jaw-dropping force. ", "is_fresh": 1, "author": ["Kristy Puchko"]},
{"text": "A movie that plays with our perceptions of time, space, and reality, and sketches the outlines of unimaginable terror while leaving the details to our imagination.", "is_fresh": 1, "author": ["Matt Zoller Seitz"]},
{"text": "But Benson & Moorehead manage to pull off compelling performances as the ex-cultists. They have a believable chemistry as brothers: affectionate yet tense, as liable to hug it out as slug it out. ", "is_fresh": 1, "author": ["Ashley Naftule"]},
{"text": "The less you know about the reveals going in will make The Endless more rewarding", "is_fresh": 1, "author": ["Blake Crane"]},
{"text": "This idea may at first seem both dumb and highly implausible, but viewers eager to poke holes in the scenario should give it time. \"The Endless\" rewards patience with mind-bending twists and turns.", "is_fresh": 1, "author": ["Glenn Kenny"]},
{"text": "What puts The Endless ahead of many indie genre films of its type is not only Moorhead's skill as a cinematographer, but also the judicious way in which he and Benson apply their presumably limited budget.", "is_fresh": 1, "author": ["Katie Rife"]},
{"text": "An excellent foray into Lovecraftian horror, mixing cosmic dread and some mordant humor in ways that manage to be consistently disorienting. ", "is_fresh": 1, "author": ["Budd Wilkins"]},
{"text": "Felker and Benson's fast-slow-fast pacing not only gives psychological weight to Benson's unabashedly pulpy scenario but also constantly keeps viewers on their toes.", "is_fresh": 1, "author": ["Simon Abrams"]},
{"text": "The result is a thoughtful investigation into how our past and our families shape who we are - with plenty of scares and mind-bending twists.", "is_fresh": 1, "author": ["Devan Coggan"]},
{"text": "Benson and Moorhead's film first shows the appeal of commune living so that it's all the more unnerving when the amiable fa\u00e7ade falls away. ", "is_fresh": 1, "author": ["Henry Stewart"]},
{"text": "An intriguing look at an almost mystical group living in a commune.", "is_fresh": 1, "author": ["Harvey S. Karten"]},
{"text": "After an intriguing and tense first half, the film becomes increasingly crazy, but Benson and Moorhead clearly have talent and we may well hear more from them in the future.", "is_fresh": 1, "author": ["David Stratton"]},
{"text": "While The Endless in some ways feels like a dead end, it still leaves you hopeful for whatever uncanny visions they can dream up next.", "is_fresh": 1, "author": ["Jake Wilson"]},
{"text": "Other movies will throw together the leads as brothers for convenience, for quick, manufactured pathos. Here, you don't for a second doubt the depth of Justin and Aaron's bond, fractured as it is.", "is_fresh": 1, "author": ["Natalie Zutter"]},
{"text": "The monsters here include the repetitive rigour of late-era capitalism and Lovecraftian beasts, and the mind-bending story is conveyed through the strained frame of family as the duo struggle with their bond.", "is_fresh": 1, "author": ["Craig Mathieson"]},
{"text": "... akin to a 'blockbuster of the mind'", "is_fresh": 1, "author": ["Jarrod Walker"]},
{"text": "Although parts of the film seem almost too clever by half, Moorehead and Benson do a marvelous job sustaining an atmosphere of eerie dread.", "is_fresh": 1, "author": ["Christopher Llewellyn Reed"]},
{"text": "...deeply unsettling, fantastically eerie...a phantasmagoria of surreal mystery.", "is_fresh": 1, "author": ["Jonathan Barkan"]},
{"text": "The Endless [is] a meta-commentary of the nature of storytelling and a self-examination of the creative mind, the film will likely have its audience questioning their perception of time as they look to sky for falling photographs.", "is_fresh": 1, "author": ["Shelagh Rowan-Legg"]},
{"text": "There's a neat premise at the heart of The Endless and its characters feel real enough to keep you engaged even as the plot gets more peculiar.", "is_fresh": 1, "author": ["Peter Turner"]},
{"text": "THE ENDLESS is the purest vision we could ever hope to see from two filmmakers who are as comfortable examining the mysteries of the universe as they are the intimacies of our own hearts.", "is_fresh": 1, "author": ["Meredith Borders"]},
{"text": "The looping twilight zone that [Benson and Moorhead] have created is both a familiar retread of previous work & a springboard for something genuinely, unnervingly original...", "is_fresh": 1, "author": ["Anton Bitel"]},
{"text": "The Endless is a rewarding, engaging cinematic genre experience, and much more than the sum of its parts.", "is_fresh": 1, "author": ["Alan Cerny"]},
{"text": "[Justin] Benson and [Aaron] Moorhead are in every frame of this film. Together they give the cosmos-mangling insanity a grounded truth and a light hilarity", "is_fresh": 1, "author": ["Richard Whittaker"]},
{"text": "[A] rich banquet of mind-bending weirdness.", "is_fresh": 1, "author": ["Stephen Dalton"]},
{"text": "Imaginative, enthralling, astute with its aesthetics and atmosphere, and insightful in contemplating both human and supernatural drama.", "is_fresh": 1, "author": ["Sarah Ward"]},
{"text": "What makes this a true indie gem is that there is heart at the center of the story, hoping to send a message to viewers that sometimes you need to leave your baggage behind you in order to be happy. ", "is_fresh": 1, "author": ["Brad Miska"]},
{"text": "A demanding, rewarding picture with moments of unusual terror and awe, offering a science fiction/horror scenario on a literally cosmic scale which boils down to a study of a complicated sibling relationship.", "is_fresh": 1, "author": ["Kim Newman"]},
{"text": "Once again, Moorhead and Benson have raised the bar in the realm of indie filmmaking with their collaborative efforts on The Endless.", "is_fresh": 1, "author": ["Heather Wixson"]},
{"text": "Hiccups aside, though, The Endless rapidly develops from a mysterious, elliptical story about cult survivors and strained relationships into a much larger and stranger movie, essentially the Aliens to Resolution's original Alien.", "is_fresh": 1, "author": ["Tasha Robinson"]},
{"text": "While not flashy enough to rival blockbuster science fiction offerings at the box office, \"The Endless\" ought to delight those who like having their imaginations tickled by projects such as \"Another Earth\" and \"The OA.\"", "is_fresh": 1, "author": ["Peter Debruge"]},
{"text": "Enjoy The Endless-Benson and Moorhead are on a roll.", "is_fresh": 1, "author": ["Scott Wold"]},
{"text": "The Endless beats the drum for magnetic, riveting indies built on asking questions with the utmost curiosity (and hard genre thrills to boot).", "is_fresh": 1, "author": ["Matt Donato"]},
{"text": "ventures to a place where genre's boundaries are at their most blurred & human dramas play out on eerie supernatural stages that amplify the everyday stakes involved in evolving from one's own behavioural patterns & confronting one's own mortality", "is_fresh": 1, "author": ["Anton Bitel"]},
{"text": "There's no mistaking this is a Moorhead and Benson movie. The meta themes they deal with, imbued with a very real human conflict, and subtle but surreal visual effects have become their trademark three movies into their partnership.", "is_fresh": 1, "author": ["Fred Topel"]}
]