[
{"reviews_count": "272", "title": "The cabin in the woods", "avg_audience_rating": "3.8", "rotten_count": "24", "tomatometer": "91", "audience_score": "74", "avg_critic_rating": "7.9", "fresh_count": "248", "user_ratings_count": "206,590"},
{"text": "A film that is both cerebral and visceral, both humorous and frightening, both by-the-numbers and completely unexpected and all of this at the same time.", "is_fresh": 1, "author": ["Johnny Gayzmonic"]},
{"text": "an ingeniously plotted and witty reflex on the horror genre itself, as well as its voyeuristic audience and its cathartic function.", "is_fresh": 1, "author": ["Anton Bitel"]},
{"text": "Its frustrations with the genre aren't misdirected, but Cabin is really a treatise on the horror movie of twenty-or-more years ago.", "is_fresh": 0, "author": ["Nick Pinkerton"]},
{"text": "The Cabin in the Woods is a love letter and warning to the genre: evolve or die. ", "is_fresh": 1, "author": ["Sean Fennessey"]},
{"text": "This is a horror picture that draws from every sub-genre. It's scary, funny, gory, monstrous, apocalyptic and mysterious.", "is_fresh": 1, "author": ["Sarah Gopaul"]},
{"text": "This is, I know, a self-aware film: its clich\u00e9s are parodies of horror clich\u00e9s generally, but to subvert a form, it should, first and foremost, work as an entertainment, and it most surely does not.", "is_fresh": 0, "author": ["Deborah Ross"]},
{"text": "When's the last time you saw a teen exploitation movie that trafficked in notions of free will and choice?", "is_fresh": 1, "author": ["Pat Padua"]},
{"text": "Whedon's humanism and his reverence for horror movies have made for a winning cocktail in television, and now, cinema.", "is_fresh": 1, "author": ["Adam Cook"]},
{"text": "Whatever you think it is, it's not that. It's better. ", "is_fresh": 1, "author": ["Sarah Marrs"]},
{"text": "Drew Goddard may have intended his film as a postmodern discourse on fear, free will, and corporate religion, but instead he serves up a ridiculously campy hodgepodge of horror classics and nihilistic violence.", "is_fresh": 0, "author": ["Brooke Corso"]},
{"text": "The Cabin in the Woods will get you thinking about what it means to watch a horror movie, but it's not just a mischievous exercise in post-modern cleverness, it's also a giddily funny, gulpingly scary, enormously entertaining thrill ride.", "is_fresh": 1, "author": ["Jason Best"]},
{"text": "Crazy, totally, and deliriously fun.", "is_fresh": 1, "author": ["Kong Rithdee"]},
{"text": "The target audience is clearly horror geeks with a clear knowledge of the genre and its cliches. But if you are one of those people, then you'll probably not enjoy a movie more this year.", "is_fresh": 1, "author": ["Oliver Lyttelton"]},
{"text": "Certainly one of my favourite films of the year so far and a must-see for anyone wanting to be genuinely shocked by the places a walk in a dark, dark wood can take you.", "is_fresh": 1, "author": ["Jon Lyus"]},
{"text": "Drew Goddard, with assistance from his cohort scenarist Joss Whedon, achieves an exemplary fusion of horror, humour and science-fiction while undermining genre conventions and audience expectations alike.", "is_fresh": 1, "author": ["Rashid Irani"]},
{"text": "[Whedon finds] an inventive way to subvert the genre with a re-twist of the dreaded knife of horror, and a very acute Big Brother eye.", "is_fresh": 1, "author": ["Oliver Pfeiffer"]},
{"text": "Ranks among one of the most wryly self-aware works of American pop culture entertainment in years.", "is_fresh": 1, "author": ["Eric Kohn"]},
{"text": "I think you'll find that your visit to the genre-bending The Cabin In The Woods will prove to be one of the most unabashedly enjoyable trips in years. I hope you enjoy the ride.", "is_fresh": 1, "author": ["Jason Gorber"]},
{"text": "The Cabin in the Woods will undoubtedly be one of the best horror-thrillers you'll see all year, as well as one of the best films. It will also standout as an all-time horror classic.", "is_fresh": 1, "author": ["Rob Carnevale"]},
{"text": "The Cabin in the Woods has nothing much in store when it comes to giving you the real jeebies. But then the movie has loads of the guessing games that could leave the same horror fan pretty satisfied.", "is_fresh": 1, "author": ["Allen O'Brien"]},
{"text": "This sassy, exhilarating monster mash will provide riotous entertainment for all but the faint-hearted.", "is_fresh": 1, "author": ["Emma Simmonds"]},
{"text": "Director Drew Goddard has made a clever film. He has shown us the elements of classic horror, told us what we miss in today's films and questioned the need for watching the genre.", "is_fresh": 1, "author": ["Devesh Sharma"]},
{"text": "This isn't just the funniest slasher movie I've ever seen. It's probably the slasher movie to end all others. There's no point in making another. Seriously, this film says everything there is to say about the genre.", "is_fresh": 1, "author": ["Kristian M. Lin"]},
{"text": "Like most of the Scream movies, The Cabin in the Woods provokes chills of dread even as it hilariously deconstructs the horror movie sub-genre by sub-genre.", "is_fresh": 1, "author": ["Randall King"]},
{"text": "Do yourself a favor and go see it. Then, when talking about it with friends who haven't seen it ... shhhhhh.", "is_fresh": 1, "author": ["Scott Renshaw"]},
{"text": "Clever enough to make you reconsider how you look at horror films. And a ton of fun, too.", "is_fresh": 1, "author": ["Scott Weinberg"]},
{"text": "The filmmakers are less interested in providing a slow buildup to their frights than in splattering the clich\u00e9s of the form in funny, spirited ways.", "is_fresh": 1, "author": ["Bruce Diones"]},
{"text": "If The Cabin in the Woods were a meal, it would consist of 90 minutes of studying a well-written menu, and then ordering the cream pie, which arrives in your face. Sweet, sweet release.", "is_fresh": 1, "author": ["Chris Knight"]},
{"text": "Horror films are supposed to be scary, but not very smart. The Cabin in the Woods is both. It's about as clever as you can imagine a film of this type being that is also this wicked and this brutal.", "is_fresh": 1, "author": ["Michael Smith"]},
{"text": "In order to subvert any popular form, entertainment first has to work on its own terms. Goddard and Whedon are too busy geeking out to bother with those requirements.", "is_fresh": 0, "author": ["David Rooney"]},
{"text": "It sounds like the oldest horror story in the book but from the first scene of The Cabin in the Woods it's clear that the director, Drew Goddard, and his co-writer, Joss Whedon, are bent on turning the formula upside down.", "is_fresh": 1, "author": ["Jake Wilson"]},
{"text": "Let's just say that if you trust in all things Joss Whedon (director of the recent Avengers triumph), the mere mention of his skilful and inventive co-scripting collaboration with talented Drew Goddard will be recommendation enough.", "is_fresh": 1, "author": ["Leigh Paatsch"]},
{"text": "An amazing, tidy little thriller that, like its Escher-like movie poster, gleefully turns the horror genre upside down.", "is_fresh": 1, "author": ["Dann Gire"]},
{"text": "On paper, The Cabin in the Woods is an exercise in knowing the drill, but Goddard executes it with serious brio and wit.", "is_fresh": 1, "author": ["Richard von Busack"]},
{"text": "The setup is intriguing but the balance feels off. Goddard and Whedon overplay the winking postmodernism.", "is_fresh": 0, "author": ["Christopher Kelly"]},
{"text": "The best thing to do in relation to The Cabin in the Woods is to avoid spoilers and go see it.", "is_fresh": 1, "author": ["Ian Bunting"]},
{"text": "A great one-off idea brilliantly executed.", "is_fresh": 1, "author": ["Steve Newall"]},
{"text": "Taking its cue from Michael Haneke's deeper, crueler Funny Games, The Cabin in the Woods explores why we-sicko viewers-take pleasure in the suffering of others. ", "is_fresh": 1, "author": ["Laura Kern"]},
{"text": "One hottie, one cutie, one stoner, one jock and one intellectual go to a remote cabin in the woods. If this sounds like a setup for a joke, well, it kind of is.", "is_fresh": 1, "author": ["John Serba"]},
{"text": "An original and audacious horror-comedy that oftentimes works better than it should.", "is_fresh": 1, "author": ["John Hanlon"]},
{"text": "This is a movie that knows it is capitalizing on the clich\u00e9s and stupidity of its genre, but refuses to bow to the same simple-minded standards to achieve something more", "is_fresh": 1, "author": ["David Keyes"]},
{"text": "The Cabin in the Woods is crammed with so many twists and turns that the mere thought of reviewing it and ruining the fun for others is scary in and of itself.", "is_fresh": 1, "author": ["Steve Newton"]},
{"text": "I don't know that this movie exceeded my expectations, but it certainly matched them.", "is_fresh": 1, "author": ["Scott Nash"]},
{"text": "The Cabin in the Woods manages to throw the horror and comedy genres into a blender, and the result is a delicious product that's ridiculously fun and warrants watching at least once.", "is_fresh": 1, "author": ["Gregg Katzman"]},
{"text": "The best movie of the year so far.", "is_fresh": 1, "author": ["Ali Gray"]},
{"text": "Would you like your head thoroughly messed with? Then check straight into The Cabin in the Woods.", "is_fresh": 1, "author": ["Anthony Quinn"]},
{"text": "The pleasure in The Cabin in the Woods comes from its audacious tuggings-away of the dramatic rug under your feet.", "is_fresh": 1, "author": ["Jonathan Romney"]},
{"text": "Taking a leaf out of Scream director Wes Craven's book, Joss Whedon both uses and skewers horror film clich\u00e9s for this enjoyable tongue-in-cheek slasher.", "is_fresh": 1, "author": ["Andy Lea"]},
{"text": "The Cabin in the Woods is a horror movie about horror movies. Except not really. It's a horror movie about what horror movies do for us, about why narratives of horror mean something to us.", "is_fresh": 1, "author": ["W. Scott Poole"]},
{"text": "A fiendishly clever genre Rubik's Cube that demonstrates, if nothing else, how much Fangoria fare benefits from the wicked wit of a real writer.", "is_fresh": 1, "author": ["A.A. Dowd"]},
{"text": "Like Scream before it, the film is a simultaneous dissection and celebration of all the tropes to which it pays homage, while also managing to be a superb example of the genre in its own right.", "is_fresh": 1, "author": ["Dan Kaufman"]},
{"text": "The Cabin in the Woods is a quick-witted, mind-bending fright fest. A truly rare and original horror film.", "is_fresh": 1, "author": ["Justin Craig"]},
{"text": "In a year that's looking to have a very strong lineup of horror and genre movies, it's very likely that The Cabin in the Woods will come out the king of the hill.", "is_fresh": 1, "author": ["Noah Lee"]},
{"text": "The result is a film that might be too smart for its own good, a piece of meta-fiction that's all meta. The Cabin in the Woods isn't trying to scare us as much as it's trying to enlighten us about being scared, then settles for amusing us about it.", "is_fresh": 1, "author": ["Jay Stone"]},
{"text": "Whedon's and Goddard's screenplay reads like both a love letter to horror movies and a good-natured treatise on what's wrong with them.", "is_fresh": 1, "author": ["Mark H. Harris"]},
{"text": "One of the best movies of 2012 so far, in any genre.", "is_fresh": 1, "author": ["Tom Charity"]},
{"text": "While this film is not for everyone -- those who like their slasher film cliches without irony shouldn't bother -- anyone who likes brains to go with their blood are bound to appreciate what Whedon and Goddard have conjured.", "is_fresh": 1, "author": ["Kirk Baird"]},
{"text": "Whedon refuses to keep the clich\u00e9s entirely intact. In keeping with the overall theme, nothing is entirely what it seems, and nobody is entirely who they seem.", "is_fresh": 1, "author": ["Joe Gross"]},
{"text": "By the time the ride is over, director Drew Goddard and co-writers Goddard and Joss Whedon will change course three or four times, nodding and winking but never losing momentum.", "is_fresh": 1, "author": ["Peter Hartlaub"]},
{"text": "The Cabin in the Woods is a fiendishly clever, constantly imaginative horror thriller that keeps springing new surprises on the audience right up until the end credits.", "is_fresh": 1, "author": ["Jack Rodgers"]},
{"text": "It's all great fun until the ending, which feels a little too safe, simple and silly to what had otherwise been an enjoyably twisted horror film.", "is_fresh": 1, "author": ["Jeffrey Lyles"]},
{"text": "One part horror film, and one part comedy with a hint of self reflection on a genre lacking challenging concepts.", "is_fresh": 1, "author": ["Felix Vasquez Jr."]},
{"text": "The Cabin in the Woods is both chilling and cackle-inspiring. Most significantly, it's consistently surprising, and that alone is cause for recommendation in the age of endless reboots and the non-stop barrage of demonic possession movies.", "is_fresh": 1, "author": ["Simon Miraudo"]},
{"text": "A surprisingly entertaining effort that works because it strikes a smart balance - embracing as well as rejecting viewer expectations and knowledge of the horror genre. ", "is_fresh": 1, "author": ["Ben Kendrick"]},
{"text": "Just take my word on it, this film rocks. If you are disillusioned with the state of modern horror (and you should be) this is just the shot in the arm the genre has needed.", "is_fresh": 1, "author": ["Adam Ross"]},
{"text": "The Cabin in the Woods is nothing short of brilliant.", "is_fresh": 1, "author": ["R.L. Shaffer"]},
{"text": "Cabin is perfectly enjoyable without ever quite feeling like there's anything at stake.", "is_fresh": 1, "author": ["Sean Burns"]},
{"text": "This is a must-buy Blu-Ray. The Cabin in the Woods is an excellent movie, it looks and sounds great, and there are plenty of informative bonus features. Highly recommended.", "is_fresh": 1, "author": ["Jonathan Lack"]},
{"text": "What I can definitely tell you, without giving away any of its secrets, is that Cabin In The Woods is going to be a pleasant surprise for just about everyone.", "is_fresh": 1, "author": ["Amy Curtis"]},
{"text": "Joss Whedon and Drew Goddard have gone all out to revitalize [the horror genre] with their brilliant take on an old tale.", "is_fresh": 1, "author": ["Jeff Beck"]},
{"text": "The most maniacal monster movie ever created.", "is_fresh": 1, "author": ["Erick Weber"]},
{"text": "An instant classic, endlessly clever and thrilling, and well worth the wait.", "is_fresh": 1, "author": ["William Bibbiani"]},
{"text": "Playing on the cliches of the genre, the film avoids being a straight-out spoof by building to a satisfying, over-the-top climax.", "is_fresh": 1, "author": ["Jim Schembri"]},
{"text": "The Cabin in the Woods does for horror what Annie Hall did for the romantic comedy.", "is_fresh": 1, "author": ["Blake Howard"]},
{"text": "The Cabin in the Woods is smart, savage fun written by fans for fans.", "is_fresh": 1, "author": ["Simon Foster"]},
{"text": "The movie is one wonderfully, maze-like con game.", "is_fresh": 1, "author": ["Stephen Rebello"]},
{"text": "A bloody open love letter to the horror genre that's funny, scary, and thought provoking. One of the best films of 2012.", "is_fresh": 1, "author": ["Cameron Williams"]},
{"text": "Witty, scary and wickedly entertaining, The Cabin in the Woods takes on and savages the biggest monster in the horror genre: caricature.", "is_fresh": 1, "author": ["Matthew Pejkovic"]},
{"text": "I personally wouldn't consider it a game-changer but The Cabin In The Woods kept me on my toes and has many interesting elements.", "is_fresh": 1, "author": ["Matthew Toomey"]},
{"text": "Unflinching as it is unconventional, this gory composite of multiple genres also might be the first thinking man's slasher film. ", "is_fresh": 1, "author": ["Bruce Bennett"]},
{"text": "A mind-blowing horror-show cocktail of gods, movie monsters and mythology.", "is_fresh": 1, "author": ["Neil Pond"]},
{"text": "What's not to like? Horror fans with a brain will dig the clever script. The gore is there along with a true sense of concern for the victims. If only all horror films could be like \"The Cabin in the Woods.\" ", "is_fresh": 1, "author": ["Paul Chambers"]},
{"text": "Some fans may not cotton to its over-the-top evisceration and reanimation of genre history, but I found it exhilarating, like one of those special-issue comic-book splash panels in which the artist tries to squeeze in as many superheroes as possible.", "is_fresh": 1, "author": ["John Beifuss"]},
{"text": "A smart, and occasionally daring, homage to horror movies that both satirizes the genre and brings new life to it.", "is_fresh": 1, "author": ["Sean P. Means"]},
{"text": "Whedon & Co. obviously have more fun with this genre than most people.", "is_fresh": 1, "author": ["Kelly Vance"]},
{"text": "This horror-reality movie is extremely well-crafted. It has some humor to go with all the mayhem and the story keeps you guessing for a while.", "is_fresh": 1, "author": ["Robert Roten"]},
{"text": "The Cabin in the Woods revisits the formula that lets viewers feel superior (in terms of knowledge) and also anxious (because of that knowledge).", "is_fresh": 0, "author": ["Cynthia Fuchs"]},
{"text": "It's hard to overlook the transition from smart to smart-assed and the dispensation of credibility for a weightlessly nihilistic punchline.", "is_fresh": 0, "author": ["Rob Humanick"]},
{"text": "... dumbass slasher-movie hokum ... ", "is_fresh": 0, "author": ["Jim Lane"]},
{"text": "I won't be so bold as to declare 'The Cabin in the Woods' the Best Horror Movie Ever Made, but it is sort of the ultimate expression of the genre. 'Genius' is a word I'm toying with.", "is_fresh": 1, "author": ["Greg Maki"]},
{"text": "Veteran writer Joss Whedon and first-time director Drew Goddard deconstruct the horror genre like never before.", "is_fresh": 1, "author": ["Jeffrey M. Anderson"]},
{"text": "Unless you're a Whedon buff, wait for DVD.", "is_fresh": 0, "author": ["Staci Layne Wilson"]},
{"text": "Goddard and Whedon clearly achieve exactly what they set out to do, even if it is just as clearly not in line with the mass audience's expectations.", "is_fresh": 1, "author": ["Michael Dequina"]},
{"text": "All the meticulous buildup leads to a hugely satisfying payoff. Despite all its ironic detachment, it has tons of laughs, some truly jaw-dropping moments, and a couple scenes of unexpected poignancy that make it more than a parody movie.", "is_fresh": 1, "author": ["Eric Melin"]},
{"text": "Not for the nervous, and possibly not for the novice horror aficionado, 'The Cabin in the Woods' is gory good fun that could easily be spoiled if I go into too much detail ... which I refuse to do. ", "is_fresh": 1, "author": ["Linda Cook"]},
{"text": "...enough unemployed characters from Whedon's failed series Dollhouse to staff every Abercrombie & Fitch in Beverly Hills.", "is_fresh": 0, "author": ["Mark Ramsey"]},
{"text": "Clever enough stuff until the computer generated monsters run amok. ", "is_fresh": 1, "author": ["Boo Allen"]},
{"text": "really just another instalment in the live-action Scooby-Doo franchise", "is_fresh": 0, "author": ["Walter Chaw"]},
{"text": "A fun puzzle movie. ", "is_fresh": 1, "author": ["Bob Grimm"]},
{"text": "An absolute delight; though I will not vouch for the delight apt to be received by those not well-versed in the genre it so playfully references and mocks.", "is_fresh": 1, "author": ["Tim Brayton"]},
{"text": "The Cabin in the Woods is the closest anyone's ever likely to get to a lighthearted stoner version of Michael Haneke's Funny Games.", "is_fresh": 1, "author": ["Margot Harrison"]},
{"text": "Quirky and fun but not as great as it thinks it is.", "is_fresh": 1, "author": ["Jackie K. Cooper"]},
{"text": "It subverts all the horror clich\u00e9s while forging them anew to create an experience at once smartly ironic and terrifyingly immediate.", "is_fresh": 1, "author": ["Edward Lawrenson"]},
{"text": "like a senior thesis about the modern horror genre masquerading as a movie", "is_fresh": 1, "author": ["James Kendrick"]},
{"text": "This may be the most creative American horror film in decades.", "is_fresh": 1, "author": ["Mark R. Leeper"]},
{"text": "Cabin in the Wood has a lot of fun with the conventions of straight-ahead schlock.", "is_fresh": 1, "author": ["Kim Newman"]},
{"text": "Keep your brain working while you watch this movie.", "is_fresh": 1, "author": ["Matt Singer"]},
{"text": "The first movie in a genre often known for its meathead simplicity, that's nearly undone by the scale of its ambition.", "is_fresh": 1, "author": ["Ed Whitfield"]},
{"text": "What follows is what could be described as a clever and wildly fun deconstruction and reassembly of the standard Hollywood horror flick.", "is_fresh": 1, "author": ["Beth Accomando"]},
{"text": "It's a horror movie about horror movies; it destroys horror movies, too.", "is_fresh": 1, "author": ["Rob Gonsalves"]},
{"text": "Toes the line between parody and deconstruction, but it transcends its subject matter rather than just subverting or co-opting it. ", "is_fresh": 1, "author": ["Eugene Novikov"]},
{"text": "Utterly novel and audacious, The Cabin in the Woods completely rewrites the scary movie as we know it. Intelligent, imaginative and too much fun, it redefines and sets a new standard for the horror movies that will come after it.", "is_fresh": 1, "author": ["Diva Velez"]},
{"text": "Meta musings leave this reviewer cold", "is_fresh": 0, "author": ["Robert Denerstein"]},
{"text": "A smart and fun horror film ", "is_fresh": 1, "author": ["Marty Mapes"]},
{"text": "Highly recommended for fright fans interested in a more cerebral brand of bloodletting. ", "is_fresh": 1, "author": ["Kam Williams"]},
{"text": "What do you do when a genre has completely played itself out? You reinvent it one last time and let all hell break loose.", "is_fresh": 1, "author": ["Kevin A. Ranson"]},
{"text": "Do you remember what it was like to have fun [with] horror movies? I do...and so does the film.", "is_fresh": 1, "author": ["Widgett Walls"]},
{"text": "It aims to play fast and loose with the splatter formula.", "is_fresh": 0, "author": ["Dennis Schwartz"]},
{"text": "A forceful, funny, frightening and ingenious horror flick.", "is_fresh": 1, "author": ["Philip French"]},
{"text": "In the end, is \"Cabin\" much more than Whedon and Goddard flexing muscles in mental masturbation? Not really. But watching them pull it off is worth a couple of tickets to their gun show. After all, as one character says, it is cooler with a Merman. ", "is_fresh": 1, "author": ["Nick Rogers"]},
{"text": "The tract Goddard and Whedon use allows characters to expand and explore more realistically, making the viewer care far what is going on and what is happening then they would have otherwise.", "is_fresh": 1, "author": ["Sara Michelle Fetters"]},
{"text": "Equal parts \"Hatchet\" and \"Hunger Games,\" \"The Cabin in the Woods\" is a successful mix of horror and science fiction.", "is_fresh": 1, "author": ["Jonathan W. Hickman"]},
{"text": "This movie borrows elements from several genres, throws the concoction into a blender and what comes out is a dish that is edible, but too soggy to enjoy. Too hipster and meta for its own good. ", "is_fresh": 0, "author": ["Michelle Alexandria"]},
{"text": "The Cabin in the Woods cooks up angles from every possible cliche horror film, pops them into the oven, peppers to taste and - presto - an original recipe.", "is_fresh": 1, "author": ["Gary Wolcott"]},
{"text": "To reveal anything more about this film would be criminal.", "is_fresh": 1, "author": ["Matt Brunson"]},
{"text": "This is a movie that's worth seeing... for the clever story, for the hype. And the less you say about it to your friends, the better... just convince them to go with you.", "is_fresh": 1, "author": ["Kevin Carr"]},
{"text": "The most daring, original, and innovative horror movie I've seen in more than a decade. ", "is_fresh": 1, "author": ["Mike McGranaghan"]},
{"text": "While I feel the movie cuts to the chase a little too soon, possibly due to budget constraints, it's one heck of an entertaining ride.", "is_fresh": 1, "author": ["Fr. Chris Carpenter"]},
{"text": "And you thought you were just headed for a weekend getaway.", "is_fresh": 1, "author": ["Lisa Kennedy"]},
{"text": "A horror movie embedded in a conspiracy flick embedded in another horror movie-the most inventive cabin-in-the-woods picture since The Evil Dead and the canniest genre deconstruction since Scream.", "is_fresh": 1, "author": ["Christopher Orr"]},
{"text": "This movie might look like a scream-fest from the outside, but what you get on the inside is a very clever and extremely funny pseudo-scarer.", "is_fresh": 1, "author": ["Danny Minton"]},
{"text": "Most horror movies adhere to genre conventions, subvert them or spoof them. Producer Joss Whedon and director Drew Goddard, who wrote the screenplay together, do all three at top speed.", "is_fresh": 1, "author": ["Lawrence Toppman"]},
{"text": "The climactic one-two punch of special-effects chaos and meta-movie chin stroking should have the fanboys trembling with delight.", "is_fresh": 1, "author": ["J. R. Jones"]},
{"text": "It doesn't always work and it's rarely scary, but damn if it isn't entertaining as hell ... But Goddard and Whedon are striving for something more than just spectacle for spectacle's sake, and that's where they stumble.", "is_fresh": 1, "author": ["Jeff Meyers"]},
{"text": "For the first two acts, it works better when it is going for laughs rather than scares, but by the time the climactic battle comes around all bets are off as the film turns into a Willy Wonka funhouse of homage and carnage that is most satisfying.", "is_fresh": 1, "author": ["Erik Childress"]},
{"text": "But it's not so much the \"why\" as it is the \"how,\" and I personally found the payoff quite satisfying.", "is_fresh": 1, "author": ["Pete Vonder Haar"]},
{"text": "Everybody likes to be in on an inside joke, but so many horror films have hopped onto the bandwagon of self-awareness that the joke itself may be getting tired. If anyone could reinvigorate the concept, it's Joss Whedon and Drew Goddard...", "is_fresh": 1, "author": ["Leonard Maltin"]},
{"text": "The film deserves credit for trying something original and having the courage to follow through on its vision.", "is_fresh": 1, "author": ["Todd Jorgenson"]},
{"text": "It's pretty clear from The Cabin in the Woods that co-writers Joss Whedon and Drew Goddard love horror movies almost as much as they are annoyed by them.", "is_fresh": 1, "author": ["Mathew DeKinder"]},
{"text": "Funny, smart and blood-soaked use of an old horror trope. Fans will spend much time freeze-framing the eventual video release to catch all the details.", "is_fresh": 1, "author": ["Rich Heldenfels"]},
{"text": "This long-awaited horror movie is smart and fun, packing unexpected surprises while cleverly recalibrating genre expectations.", "is_fresh": 1, "author": ["Robert Levin"]},
{"text": "\"The Cabin in the Woods\" gets at the story underneath the story, and the reason behind the clich\u00e9s.", "is_fresh": 1, "author": ["Stephen Whitty"]},
{"text": "A genre-bending concoction of horror, action and comedy -- a big ball of Evil Dead, Scream, Matrix, The Hunger Games, Scooby Doo, Zombieland, and a lot of season 4 of Buffy.", "is_fresh": 1, "author": ["Todd Hertz"]},
{"text": "This movie has its tongue so firmly in its cheek, it's poking through and making a really nasty hole.", "is_fresh": 0, "author": ["James Verniere"]},
{"text": "Analyzing Cabin in the Woods after the fact is in some ways more satisfying than actually watching the movie itself.", "is_fresh": 1, "author": ["Ethan Alter"]},
{"text": "The less you know, the more you'll enjoy it, and we're not going to spoil it for you. That's what the Internet's for.", "is_fresh": 1, "author": ["Matt Soergel"]},
{"text": "Dare I suggest that [this film] is better at exploring questions about our voyeuristic culture ... than The Hunger Games? Yes, I think so.", "is_fresh": 1, "author": ["Jeffrey Overstreet"]},
{"text": "It's funny and witty at times, and it has some decent jolts here and there. (Full Content Review for Parents also available)", "is_fresh": 1, "author": ["Jim Judy"]},
{"text": "The wonderfully inventive meta-story leads to a riotous conclusion that trashes the rules of the teen fright flick.", "is_fresh": 1, "author": ["Kurt Loder"]},
{"text": "It leaves you with a big, dumb grin and a real sense of surprise--not that these guys cooked up a picture this ingenious, but that they actually got away with making it.", "is_fresh": 1, "author": ["Jason Bailey"]},
{"text": "It's fun and gives this genre a new twist.", "is_fresh": 1, "author": ["Neil Rosen"]},
{"text": "Go.", "is_fresh": 1, "author": ["Dave White"]},
{"text": "This movie gives me faith that Hollywood is actually willing to do something outside the box in the name of entertainment.", "is_fresh": 1, "author": ["Grae Drake"]},
{"text": "The expected happens, but with a twist.", "is_fresh": 1, "author": ["Peter Keough"]},
{"text": "This Cabin may not be the Parthenon, but it's definitely a place to worship the gods of horror.", "is_fresh": 1, "author": ["Marjorie Baumgarten"]},
{"text": "The script is inspired, the direction is sprightly, and the third act does not falter. And everything you need to know is in the title. Well, almost everything.", "is_fresh": 1, "author": ["Norman Wilner"]},
{"text": "If it's true that you always kill the thing you love, then horror honchos Joss Whedon and Drew Goddard have taken an ax to slasher cinema in The Cabin in the Woods and chopped it up for kindling.", "is_fresh": 1, "author": ["Peter Travers"]},
{"text": "The Cabin in the Woods stays strictly within the preset motion picture mandates. If two years on the shelf results in something this fun and refreshing, then all movies should be left to age. This one has matured magnificently. ", "is_fresh": 1, "author": ["Bill Gibron"]},
{"text": "May be the strangest, yet, oddly compelling movie you will ever see in your life.", "is_fresh": 1, "author": ["Willie Waffle"]},
{"text": "The Cabin In The Woods has some big laughs and lashings of gore...", "is_fresh": 1, "author": []},
{"text": "Everything about \"The Cabin in the Woods\" is a delicious practical joke...", "is_fresh": 1, "author": ["Rafer Guzman"]},
{"text": "For all of its many intellectual pleasures, and smart commentary, Cabin in the Woods is a visceral roller coaster of a movie at heart. And like the best thrill rides, when it's over, you just want to get back on and go again.", "is_fresh": 1, "author": ["Ian Buckwalter"]},
{"text": "Cabin is a meta-horror-comedy mash-up that, at least for two-thirds of its running time, holds together smartly.", "is_fresh": 1, "author": ["Liam Lacey"]},
{"text": "The less you know about this movie going in, the more fun you're going to have.", "is_fresh": 1, "author": ["Liz Braun"]},
{"text": "Movies that mean to deconstruct movies seem to be made solely by and for cinema vampires, those ghost-faced geeks whose pallor is rarely challenged by exposure to the sun.", "is_fresh": 0, "author": ["Kyle Smith"]},
{"text": "A pulpy, deceivingly insightful send-up of horror movies that elicits just as many knowing chuckles as horrified gasps.", "is_fresh": 1, "author": ["Ann Hornaday"]},
{"text": "If you like nutty energy, wacky ideas, crisp dialogue and scary, bloody, gory, grotesque and twisted movies - man, are you going to have a blast this weekend.", "is_fresh": 1, "author": ["Tom Long"]},
{"text": "A twisty puzzle, as promised by the Rubic's Cube cabin on the film's poster, this blood feast has gore galore to satiate your thirst.", "is_fresh": 1, "author": ["Matt Stevens"]},
{"text": "It looks as if the film has an ambition to do for horror cinema what the Book of Revelations did for Christianity. ", "is_fresh": 1, "author": ["Donald Clarke"]},
{"text": "Whedon slays again with a triple onslaught of horror, humor & sci-fi. Forget about staying away from the cabin; rather, stay away from all the spoilers. Just go and see for yourself.", "is_fresh": 1, "author": ["Kimberly Gadette"]},
{"text": "A next-generation Scream, a self-referential horror film that tongue-in-cheekily deconstructs its own genre.", "is_fresh": 1, "author": ["Peter Canavese"]},
{"text": "The film manages not only to present the genre with knowing winks and give it a few necessary nudges but also treats it with undeniable respect.", "is_fresh": 1, "author": ["Mark Dujsik"]},
{"text": "The end result is an admittedly uneven piece of work that does seem as though it'd benefit from repeat viewings...", "is_fresh": 1, "author": ["David Nusair"]},
{"text": "A motion picture about the endurance of horror as a historical watermark, where it has been, and where it might be able to go from here, it's no less than an all-encompassing celebration of a too often spit-upon genre.", "is_fresh": 1, "author": ["Dustin Putman"]},
{"text": "A deliciously dark horror-thriller that brims with twists, turns and sneaky secrets and manages to spin the horror genre on its head to really deliver some smart chills.", "is_fresh": 1, "author": ["Mark Adams"]},
{"text": "I haven't enjoyed a film as much since The Artist, and this is easily the most fun I've ever had watching a slasher movie.", "is_fresh": 1, "author": ["Christopher Tookey"]},
{"text": "Whedon and Goddard (who penned horror film Cloverfield and here directs his first feature) have clearly had enough of the old clich\u00e9s. But out of their dissatisfaction they have created a cool, crazy movie. ", "is_fresh": 1, "author": ["Alex Zane"]},
{"text": "You needn't be a fanboy to enjoy the moment when the ride really takes off and the spectacle flowers. A scary imagination will do just fine.", "is_fresh": 1, "author": ["Chris Vognar"]},
{"text": "Quite a bit of it is great, and most of it works, and the stuff that clicks is outrageously entertaining and funny, sometimes with surprising depth.", "is_fresh": 1, "author": ["Andrew O'Hehir"]},
{"text": "Though there are plot holes in the elaborately concocted scenarios, The Cabin in the Woods gets points for the twists and turns that come along with its sly wickedness.", "is_fresh": 1, "author": ["Claudia Puig"]},
{"text": "The filmmakers have a real love for the horror genre and its tropes and archetypes, and while much of what goes on here will have special resonance for fellow buffs, you don't have to be a scholar of spooky movies to appreciate how the story's being told.", "is_fresh": 1, "author": ["Alonso Duralde"]},
{"text": "It has so much else going on with it that even those not already predisposed to the horror genre will find it a blast as well.", "is_fresh": 1, "author": ["Peter Sobczynski"]},
{"text": "As a take-off on genre convention it's amusing, even if as a horror movie it proves rather mild.", "is_fresh": 1, "author": ["Frank Swietek"]},
{"text": "You can expect twists, laughs and freshness.", "is_fresh": 1, "author": ["Shawn Levy"]},
{"text": "All the actors do a decent job with whatever is thrown at them -- usually sharp objects.", "is_fresh": 0, "author": ["Betsy Sharkey"]},
{"text": "Set to emerge as the year's best horror movie.", "is_fresh": 1, "author": ["Catherine Bray"]},
{"text": "Zest counts for a lot, and resonance carries the day.", "is_fresh": 1, "author": ["Joe Morgenstern"]},
{"text": "There is a scholarly, nerdy, completist sensibility at work here that is impressive until it becomes exhausting.", "is_fresh": 0, "author": ["A.O. Scott"]},
{"text": "It's a smart, nasty picture, reinvigorating stale screenwriting ingredients -- a delirious valentine to slasher archetypes and monster mayhem. ", "is_fresh": 1, "author": ["Brian Orndorf"]},
{"text": "To say that TheCabin in the Woods isn't your average horror movie is like observing that King Kong isn't your average ape.", "is_fresh": 1, "author": ["Peter Howell"]},
{"text": "Let's just say that if you like smartly twisted spins on worn-out horror cliches and if you have a strong stomach for flying body parts, put down the newspaper/laptop and go - we'll talk later.", "is_fresh": 1, "author": ["Ty Burr"]},
{"text": "...fun and meta-aware, but hardly original - it's like the Scooby Doo group entered an Evil Dead/Chainsaw mashup via The Truman Show, and \"Scream\" already ran with the concept. ", "is_fresh": 1, "author": ["Laura Clifford"]},
{"text": "You may think you've seen this before, but you haven't seen it quite like this.", "is_fresh": 1, "author": ["Ann Lewinson"]},
{"text": "The movie is smart, funny, unpredictable, deeply weird, and thoughtfully cast...", "is_fresh": 1, "author": ["Gary Thompson"]},
{"text": "Mind blown, hair on fire. Seeing \"The Cabin in the Woods\" set a new personal benchmark for fiendishly creative takes on genre entertainment.", "is_fresh": 1, "author": ["Colin Covert"]},
{"text": "I thoroughly enjoyed this movie's gory silliness, but I have the feeling it may be overpraised for infusing a modicum of wit into a genre that usually demonstrates so little.", "is_fresh": 1, "author": ["Dana Stevens"]},
{"text": "Not all of the twists work, but most are self-knowing enough to keep you guessing until its (literally) groundbreaking conclusion.", "is_fresh": 1, "author": ["Joe Neumaier"]},
{"text": "A remarkable and genuinely captivating original.", "is_fresh": 1, "author": ["Alan Jones"]},
{"text": "Whedon and Goddard bake their cake and eat it too.", "is_fresh": 1, "author": ["Michael Phillips"]},
{"text": "\"Cabin\" is so bent on switcherooing the heck out of us that it ends up resembling a TV soap such as \"Glee\"...", "is_fresh": 0, "author": ["Chris Hewitt (St. Paul)"]},
{"text": "The only comedy-horror that ever worked was An American Werewolf in London - and it worked because it was about character.", "is_fresh": 0, "author": ["Antonia Quirke"]},
{"text": "A horror movie that's clever and surprising? That's entertainment. Kudos to Drew Goddard and Joss Whedon.", "is_fresh": 1, "author": ["Clint O'Connor"]},
{"text": "It's outrageous but also great fun.", "is_fresh": 1, "author": ["Kevin C. Johnson"]},
{"text": "A supremely creative and original horror/comedy that goes in some genuinely shocking directions.", "is_fresh": 1, "author": ["Stephen Silver"]},
{"text": "The Cabin in the Woods is a shrewd, ingenious look at the programmatic elements of the genre, a satire that is also a lenient celebration, and it could wind up being a set text in any MA course in horror.", "is_fresh": 1, "author": ["Peter Bradshaw"]},
{"text": "Clever meta-horror, with plenty of hyuks to match the yuks.", "is_fresh": 1, "author": ["Anton Bitel"]},
{"text": "Wry nods to The Evil Dead, Ringu, Hellraiser and A Tale Of Two Sisters, among many others, will delight fanatics.", "is_fresh": 1, "author": ["Robbie Collin"]},
{"text": "One of those rare films that's just pulsing with energy on so many levels - as genre-loving comedy, as straight-up horror, and as something you've simply never seen before. The Cabin in the Woods is a great film.", "is_fresh": 1, "author": ["Brian Tallerico"]},
{"text": "You should expect the unexpected and that's what we get as a traditional horror movie set up gives way to some droll, increasingly bonkers post-modern nonsense...", "is_fresh": 1, "author": ["Henry Fitzherbert"]},
{"text": "This film plays with our expectations of what a horror movie is and tries to upend them, and for the most part succeeds.", "is_fresh": 1, "author": ["Moira MacDonald"]},
{"text": "Fans of Whedon are fond of repeating the mantra \"In Joss we trust\" - and with good reason.", "is_fresh": 1, "author": ["Connie Ogle"]},
{"text": "Close to geek paradise ... the movie may be funnier than it is scary, but for the right crowd, this collection of nightmares will feel like the best dream ever. ", "is_fresh": 1, "author": ["Matt Pais"]},
{"text": "The script for this horror romp is almost too inventive, cleverly combining clashing genres and playing hilariously with a range of cliches while thoroughly grossing out the audience.", "is_fresh": 1, "author": ["Rich Cline"]},
{"text": "The movie, heavily hyped by fanboys and long-delayed, isn't scary. By the third act, Whedon has written himself and his characters into a corner too silly to gracefully get out of without cheating.", "is_fresh": 1, "author": ["Roger Moore"]},
{"text": "Where Scream put a postmodern twist on slasher films, The Cabin In The Woods takes on the whole genre and twists even harder.", "is_fresh": 1, "author": ["Keith Phipps"]},
{"text": "This is not a perfect movie; it's so ragged, it's practically constructed of loose ends. But it's exciting because it ventures so far off the map.", "is_fresh": 1, "author": ["Roger Ebert"]},
{"text": "It's not until the last third that the movie shakes off the obligatory plot points and goes somewhere truly creative and interesting.", "is_fresh": 1, "author": ["Josh Bell"]},
{"text": "...a film of such frothy geekery that watching it is like having a comic-book store dropped on your head.", "is_fresh": 1, "author": ["Josh Larsen"]},
{"text": "Cabin goes beyond the parody of the Scream franchise into darker, richer territory.", "is_fresh": 1, "author": ["Mary F. Pols"]},
{"text": "A post-Scream scream, this genre puzzle rearranges the pieces to create quite the hoot.", "is_fresh": 1, "author": ["Joanna Langfield"]},
{"text": "If you think you know where this movie is going, then you have no idea what you're in for -- and that's the beauty of it.", "is_fresh": 1, "author": ["Scott A. Mantz"]},
{"text": "The movie invigorates the genre, which is a rare and welcome thing.", "is_fresh": 1, "author": ["James Berardinelli"]},
{"text": "Cabin is really, really fun. But here's my minor quibble: All the fun gets in the way of the scares.", "is_fresh": 1, "author": ["Geoff Berkshire"]},
{"text": "A much-needed smack upside the head to anyone expecting a typical slasher flick, and a must-see for anyone who's ever wanted to smack any horror character for ever suggesting that everyone should split up.", "is_fresh": 1, "author": ["William Goss"]},
{"text": "Even when all hell breaks loose, that hell is cushioned by air quotes, with the audience buckled up for benign, heady fun.", "is_fresh": 1, "author": ["Lisa Schwarzbaum"]},
{"text": "A very entertaining, very intelligent dissection of horror movie cliches.", "is_fresh": 1, "author": ["Tim Grierson"]},
{"text": "I've always wondered how people in horror flicks make such terminally stupid decisions... and where the old coot predicting doom gets his information. This movie answers, in a freaky-gory manner so far off-the-wall that it could be a coffee table.", "is_fresh": 1, "author": ["Steve Persall"]},
{"text": "\"The Cabin in the Woods\" is a fantastic poke in the eye of our horror-movie expectations.", "is_fresh": 1, "author": ["Bill Goodykoontz"]},
{"text": "Not so much scary as it is a fun and twisted carnival of modern horror.", "is_fresh": 1, "author": ["Mark Sells"]},
{"text": "a genre film that offers a considerable amount of horror and a lot of fun, especially as the leading characters seem to be variations on the old Scooby-Doo team.", "is_fresh": 1, "author": ["Graham Young"]},
{"text": "From the moment the title card hits the screen, you're guaranteed to be entertained as consistently as you are surprised.", "is_fresh": 1, "author": ["Matt Risley"]},
{"text": "Enjoyable, blackly comic horror with strong performances, a decent balance of gore and gags and a script that's both witty and inventive...", "is_fresh": 1, "author": ["Matthew Turner"]},
{"text": "Anyone who presumes to love horror movies needs to see The Cabin in the Woods.", "is_fresh": 1, "author": ["Rob Vaux"]},
{"text": "A terrifying horror film, a cackle-worthy satire and a thought-provoking dissection of the genre.", "is_fresh": 1, "author": ["Matt Patches"]},
{"text": "It works thrillingly for audiences, especially the pointy-headed kind who have been trained to predict the outcomes of every week's slasher.", "is_fresh": 1, "author": ["Joshua Rothkopf"]},
{"text": "An entire row of what they call \"fanboys\" at the screening I attended laughed all the way through the movie, although I failed to see anything remotely amusing.", "is_fresh": 0, "author": ["Rex Reed"]},
{"text": "It's ... remarkable to see a mainstream movie touch on so many fascinating, powerful ideas without losing sight of its prime directive: to scare the socks off its audience.", "is_fresh": 1, "author": ["Tom Huddleston"]},
{"text": "As Goddard and Whedon jump back and forth, the pieces snap into place; then just when you think you've got it all figured out, they throw something else at you.", "is_fresh": 1, "author": ["Christy Lemire"]},
{"text": "More than anything else, Cabin feels like the endgame of so-called fanboy culture in the way in which it is first and foremost about itself, interested only in a fundamental adherence to rules of its own devising and fenced off from the world at large.", "is_fresh": 0, "author": ["Mark Olsen"]},
{"text": "A dazzling blend of scary movie clich\u00e9s and self-referential callouts subverted by a mind-warping twist that the writers roll out slowly from the beginning rather than saving for a conventional 11th-hour gotcha! ", "is_fresh": 1, "author": ["Maitland McDonagh"]},
{"text": "What the movie finally is, then, is a diversion: a reasonably smart and exceptionally well-constructed one. And nothing more.", "is_fresh": 1, "author": ["Glenn Kenny"]},
{"text": "Amusing, ingenious and unexpected, revealing what may really be lurking in the darkness.", "is_fresh": 1, "author": ["Susan Granger"]},
{"text": "Goddard and Whedon strike the perfect balance between messing around with the used and abused and the undeniably original, making the film a good time you've never had before.", "is_fresh": 1, "author": ["Perri Nemiroff"]},
{"text": "Absolutely genius movie. Totally brilliant... I don't know how anyone can possibly make a horror movie again. Cabin renders all past and future examples of the genre superfluous...", "is_fresh": 1, "author": ["MaryAnn Johanson"]},
{"text": "Look for it to thrill you, scare you and tickle you - all at the very same time. It's a wild ride - hop aboard before someone spoils it for you.", "is_fresh": 1, "author": ["Marshall Fine"]},
{"text": "A fantastically-crafted debut by Goddard with so many moving parts, one would expect a far more experienced director would be necessary to pull it off.", "is_fresh": 1, "author": ["Edward Douglas"]},
{"text": "A super-entertaining, super-slick love/hate letter to horror with a final 20 minutes that's stunningly bonkers.", "is_fresh": 1, "author": ["Jamie Graham"]},
{"text": "Is it scary? Not especially. But there are enough gory surprises around every bend to keep you laughing/screaming/cringing.", "is_fresh": 1, "author": ["David Edelstein"]},
{"text": "It's fair to say this isn't just a horror, but one of those winking, meta-exercises in formula apparently written by a very sarcastic fanboy.", "is_fresh": 1, "author": []},
{"text": "For horror hounds who love a larf, and those of us who always wondered exactly what that dry-ice stuff that rises out of the forest-floor moss is.", "is_fresh": 1, "author": ["Dan Jolin"]},
{"text": "Spectacle for spectacle's sake, but infiltrated by intelligent commentary and an atmosphere of generosity and inclusion.", "is_fresh": 1, "author": ["Jaime N. Christley"]},
{"text": "[VIDEO] Before you waste your time and money on this cinematic mongrel, check out \"Mindhunters.\" It's not a perfect slasher picture either, but it's a damn sight better than \"The Cabin in the Woods.\"", "is_fresh": 0, "author": ["Cole Smithey"]},
{"text": "Clever and inventive, the film delivers to the hard core horror fans as well as to moveigoers seeking wild fun.", "is_fresh": 1, "author": ["Emanuel Levy"]},
{"text": "This is the most fun I have ever had watching a horror film.", "is_fresh": 1, "author": ["Jeff Bayer"]},
{"text": "An entertaining and wholly original genre hybrid film that has more than a few tricks up its sleeves.", "is_fresh": 1, "author": ["Jason Zingale"]},
{"text": "The Cabin in the Woods is continually smart, funny and surprising, reflecting horror films back at themselves in new and exciting ways.", "is_fresh": 1, "author": ["Eric Goldman"]},
{"text": "Cabin in the Woods is witty, scary and incredibly inventive. This is a must-see genre bending horror movie - miss it at your peril.", "is_fresh": 1, "author": ["Simon Reynolds"]},
{"text": "The Cabin In the Woods takes a stereotypical horror film set-up and does extraordinary things with it.", "is_fresh": 1, "author": ["Rob Hunter"]},
{"text": "the audience will have so much fun that they'll leave the theater on a high rather than recognize that everything they like about horror has either been destroyed, or Goddard and Whedon think that it should be.", "is_fresh": 1, "author": ["Todd Gilchrist"]},
{"text": "The idea is to set up a movie we've seen a hundred times before, and then to rearrange it into something new and deliriously satisfying.", "is_fresh": 1, "author": ["Eric D. Snider"]},
{"text": "Detention, which will come out this year.. goes to the next level on meta movies. But Cabin isn't trying to be meta; it's focused on genre. Those are different types of satire so I can appreciate Cabin taking genre further than ever.", "is_fresh": 1, "author": ["Fred Topel"]},
{"text": "You'll feel like horror is revitalized, like its importance is more obvious than ever. That might be Cabin's greatest achievement, reminding us why we love and need this genre. ", "is_fresh": 1, "author": ["Devin Faraci"]},
{"text": "Drew Goddard's giddily brilliant The Cabin in the Woods has a lot on its twisted mind. ", "is_fresh": 1, "author": ["David Ehrlich"]},
{"text": "Though it has the potential for real greatness it settles for ultimate audience satisfaction, which is pretty close to greatness anyway.", "is_fresh": 1, "author": ["Katey Rich"]},
{"text": "A massively entertaining, awesomely inventive twist on the traditional 'teenage kids go to a spooky house in the woods' genre that falters in the final reel, when things get too bizarrely excessive.", "is_fresh": 1, "author": ["Dave Golder"]},
{"text": "Horror cinema subversiveness need not preclude actual horror, a fact that's unfortunately lost on The Cabin in the Woods.", "is_fresh": 0, "author": ["Nick Schager"]},
{"text": "The finest horror comedy in years, The Cabin in the Woods is a potent, hilarious apology for decades of generic horror fare.", "is_fresh": 1, "author": ["Shaun Munro"]},
{"text": "Not since Scream has a horror movie subverted the expectations that accompany the genre to such wicked effect as The Cabin in the Woods.", "is_fresh": 1, "author": ["Peter Debruge"]},
{"text": "Intelligent, witty and cine-literate in a charmingly self-referential way, The Cabin in the Woods sets out to do something different and does it with bravado.", "is_fresh": 1, "author": ["Martin Roberts"]},
{"text": "Whedon and Goddard aren't just having a fun little go at tired horror movie conventions -- they're trying to nuke the entire genre.", "is_fresh": 1, "author": ["Jen Yamato"]},
{"text": "The strength of 'Cabin' comes in the playful nature of the screenplay. Goddard and Whedon play everything tongue and cheek in a completely meta atmosphere.", "is_fresh": 1, "author": ["Brad Miska"]},
{"text": "'Cabin In The Woods' is not just a great horror film, but also a thesis on why we need horror films and what role they serve in our diet. ", "is_fresh": 1, "author": ["Drew McWeeny"]}
]