[
{"reviews_count": "52", "title": "The Wild Bunch", "avg_audience_rating": "4.1", "rotten_count": "3", "tomatometer": "94", "audience_score": "91", "avg_critic_rating": "8.8", "fresh_count": "49", "user_ratings_count": "34,113"},
{"text": "Peckinpah plaits simple strands into an intricate pattern of contradictions and moral ambiguities.", "is_fresh": 1, "author": ["Penelope Houston"]},
{"text": "Underneath the movie, which is set on the eve of World War I, there's an elegiac plangency that stays with you long after the shocks have worn off...The Wild Bunch still won't go down easy.", "is_fresh": 0, "author": ["David Ansen"]},
{"text": "Extremely violent '60s Western with drinking and sex. ", "is_fresh": 0, "author": ["Barbara Shulgasser"]},
{"text": "It's a traumatic poem of violence, with imagery as ambivalent as Goya's.", "is_fresh": 1, "author": ["Pauline Kael"]},
{"text": "Even as a spectacular victim of its own success, the film retains a primitive, raw, vulgarly masculine power that leaves it powerful in all the right ways, and surprisingly un-dated.", "is_fresh": 1, "author": ["Tim Brayton"]},
{"text": "In Peckinpah's world, the law and the lawless are one and the same - destructive agents of chaos.", "is_fresh": 1, "author": ["Josh Larsen"]},
{"text": "It's the melancholy, the desolation. It's one of the saddest Westerns ever made.", "is_fresh": 1, "author": []},
{"text": "Arguably the strongest Hollywood movie of the 1960s -- a western that galvanizes the clich\u00e9s of its dying genre with a shocking jolt of delirious carnage. ", "is_fresh": 1, "author": ["J. Hoberman"]},
{"text": "In an era when body-count films mirror the mounting body count offscreen, The Wild Bunch dissects death rather than glorifying it.", "is_fresh": 1, "author": ["Carrie Rickey"]},
{"text": "The Wild Bunch is an American masterpiece, one of the greatest films ever produced in the Hollywood system.", "is_fresh": 1, "author": ["Michael Wilmington"]},
{"text": "It's one of the great, arrogant take-it-or-leave-it jobs in history, and by this point it is so beyond either defense or attack that I come neither to praise nor to bury it but merely to describe it.", "is_fresh": 1, "author": ["Stephen Hunter"]},
{"text": "It is certainly one of the best westerns ever made, and the best film of any kind to come out in 1969.", "is_fresh": 1, "author": ["Jay Boyar"]},
{"text": "It's a towering achievement that grows more riveting and resonant with the years.", "is_fresh": 1, "author": ["Peter Travers"]},
{"text": "The Wild Bunch is Peckinpah's most complex inquiry into the metamorphosis of man into myth. Not incidentally, it is also a raucous, violent, powerful feat of American film making. ", "is_fresh": 1, "author": []},
{"text": "One of the great artistic achievements of the 20th century. And a bloody awesome western to boot!", "is_fresh": 1, "author": []},
{"text": "[VIDEO ESSAY] Famous for its breathtaking bridge explosion sequence, \"The Wild Bunch\" is a western layered with social commentary about war, codes of honor among men, and humanity's childish nature that bends equally between violence and pleasure. ", "is_fresh": 1, "author": ["Cole Smithey"]},
{"text": "a work of art, and revives love for pure cinema", "is_fresh": 1, "author": ["John A. Nesbit"]},
{"text": "one of the absolute best movies in the short history of the medium", "is_fresh": 1, "author": ["Walter Chaw"]},
{"text": "... a spurting blast of pulp and poetry choreographed into a ballet of violence.", "is_fresh": 1, "author": ["Sean Axmaker"]},
{"text": "Sam Peckinpah's great, bloody Western shocked most people with its extreme violence upon its original release, but now it's firmly nestled in the American canon.", "is_fresh": 1, "author": ["Jeffrey M. Anderson"]},
{"text": "...a landmark Western and a good, thoughtful, rousing adventure besides.", "is_fresh": 1, "author": ["John J. Puccio"]},
{"text": "Film at 145 minutes is far over-length, and should be tightened extensively, particularly in first half.", "is_fresh": 0, "author": ["Whitney Willaims"]},
{"text": "The on-screen carnage established a new level in American movies, but few of the films that followed in its wake could duplicate Peckinpah's depth of feeling.", "is_fresh": 1, "author": ["Dave Kehr"]},
{"text": "Peckinpah's masterpiece, which is replete with poetic and violent imagery, demystifies the Old American West where no group (outlaws, railroaders, businessmen) is spared critical scrutiny. A highlight of the Western genre, it's one of 1969's best films.", "is_fresh": 1, "author": ["Emanuel Levy"]},
{"text": "In purely cinematic terms, the film is a savagely beautiful spectacle, Lucien Ballard's superb cinematography complementing Peckinpah's darkly elegiac vision.", "is_fresh": 1, "author": []},
{"text": "The sign of change in the old formula, the advancement of technology and time in a genre that brutally snuffed both.", "is_fresh": 1, "author": ["Chris Cabin"]},
{"text": "A glorious and brutal Western that's truly one of a kind.", "is_fresh": 1, "author": ["Rob Thomas"]},
{"text": "The Wild Bunch takes the basic elements of the Western movie myth, which once defined a simple, morally comprehensible world, and by bending them turns them into symbols of futility and aimless corruption.", "is_fresh": 1, "author": ["Vincent Canby"]},
{"text": "The film does not highlight genre traits, and replaces them with a violence unparalleled in the genre's other entries; it is Sam Peckinpah's trademark punch, and The Wild Bunch is his showcase.", "is_fresh": 1, "author": ["Rumsey Taylor"]},
{"text": "An incredible western. Opened the door to a whole new world of violence.", "is_fresh": 1, "author": ["Alex Sandell"]},
{"text": "Time may have diminished the film's shock value, but time hasn't faded The Wild Bunch's immense appeal.", "is_fresh": 1, "author": ["James Rocchi"]},
{"text": "Peckinpah tells intense tales of male bonding, where honor and loyalty are the codes to follow, even if it means a bloody end. When paired with the mythology of the Western, it adds up to a fascinating movie.", "is_fresh": 1, "author": ["Kevin N. Laforest"]},
{"text": "It's a thoroughly modern movie, and has barely aged a bit since its release, since it places itself in opposition to all things past.", "is_fresh": 1, "author": ["Jeremy Heilman"]},
{"text": "The Wild Bunch (1969) is director Sam Peckinpah's provocative, brilliant yet controversial Western, shocking for its graphic and elevated portrayal of violence", "is_fresh": 1, "author": ["Tim Dirks"]},
{"text": "A good western, and a good movie in general.", "is_fresh": 1, "author": ["Matt Easterbrook"]},
{"text": "Although all of Peckinpah's films are important in one way or another, The Wild Bunch clearly stands out among them as his master achievement.", "is_fresh": 1, "author": ["James Kendrick"]},
{"text": "This is Sam Peckinpah's masterpiece.", "is_fresh": 1, "author": ["Dennis Schwartz"]},
{"text": "Not only does The Wild Bunch illustrate Peckinpah's mastery of his medium, but it presents a story that is effective on nearly every level.", "is_fresh": 1, "author": ["James Berardinelli"]},
{"text": "Seeing this restored version is like understanding the film at last... It makes all the difference in the world.", "is_fresh": 1, "author": ["Roger Ebert"]},
{"text": "The director was one of the very few filmmakers who could create a world that, however nastier or more brutish than the one we live in, never felt smaller or less complex.", "is_fresh": 1, "author": ["Bruce Reid"]},
{"text": "There are some wonderfully exciting action scenes, although much of it comes off a little bittersweet, as if these are the final days of some sad, wild animal.", "is_fresh": 1, "author": ["Scott Weinberg"]},
{"text": "An extraordinarily well-made film about anachronistic outlaws in the early 20th century.", "is_fresh": 1, "author": []},
{"text": "A brilliant script, cinematography, editing, and performances complement the whole picture.", "is_fresh": 1, "author": ["Marjorie Baumgarten"]},
{"text": "An incredibly involving and exciting piece of filmmaking.", "is_fresh": 1, "author": ["Chris Hicks"]},
{"text": "A true cinematic touchstone, the film has influenced a generation of movie makers, from Scorsese to Tarantino to Hong Kong action king John Woo.", "is_fresh": 1, "author": ["Peter Stack"]},
{"text": "By restoring 10 minutes to the film, the complex story now fits together in a seamless way, filling in those gaps found in the previous theatrical release.", "is_fresh": 1, "author": ["George Powell"]},
{"text": "It is impossible to write a history of modern cinema without mentioning The Wild Bunch.", "is_fresh": 1, "author": ["Dragan Antulov"]},
{"text": "", "is_fresh": 1, "author": ["Daniel M. Kimmel"]},
{"text": "", "is_fresh": 1, "author": ["Andy Klein"]},
{"text": "", "is_fresh": 1, "author": ["Jon Niccum"]},
{"text": "", "is_fresh": 1, "author": ["Matt Brunson"]},
{"text": "", "is_fresh": 1, "author": ["Michael Szymanski"]}
]