[
{"reviews_count": "363", "title": "Thor: Ragnarok", "avg_audience_rating": "4.2", "rotten_count": "29", "tomatometer": "92", "audience_score": "87", "avg_critic_rating": "7.5", "fresh_count": "334", "user_ratings_count": "90,444"},
{"text": "The first two Thor films were mediocre, forgettable affairs, but the most talented director to be given the keys to this incessantly underwhelming franchise-within-a-franchise has managed to make the biggest disappointment of them all. ", "is_fresh": 0, "author": ["Alistair Ryder"]},
{"text": "Nothing short of a total crowd-pleaser with the requisite action sequences, Easter eggs and surprise appearances to keep hardcore Marvel fans excited for films yet to come.", "is_fresh": 1, "author": ["Matt Ward"]},
{"text": "Thor Ragnarok is entertaining and a lot of fun while watching. If it didn't have so many other superhero films to compete with, it would probably be much more memorable as a film.", "is_fresh": 1, "author": ["Ashley Menzel"]},
{"text": "Taiki Waititi inserted his skill set and unique perspective as a Maori, created a commercially viable and wildly consumable product, and made it all look easy.", "is_fresh": 1, "author": ["Ed Travis"]},
{"text": "Candy-colored Thor: Ragnarok is a retro, dimension-hopping hoot.", "is_fresh": 1, "author": ["Matt Oakes"]},
{"text": "While Thor: Ragnarok is a solid 130 minutes, it feels like half that, whirring and humming along like the practiced piece of franchise machinery that it is. ", "is_fresh": 1, "author": ["Zaki Hasan"]},
{"text": "A colourful, delightfully raucous cacophony of riotous belly laughs and epic set-pieces, cementing itself as one of most outrageous entries in the series so far. ", "is_fresh": 1, "author": ["Cameron Frew"]},
{"text": "It works as a great culmination of the character's story over his five appearances, but functions well enough as a standalone action sci-fi comedy in its own right.", "is_fresh": 1, "author": ["Jennifer Heaton"]},
{"text": "Instead, the theme and character arc becomes about what \"saving Asgard\" actually means and what Thor's role as that savior could conceivably entail.", "is_fresh": 1, "author": ["Bob Chipman"]},
{"text": "It's tough to hate Thor: Ragnarok, as the film is beautiful to look at and one of the funnier entries in the MCU. But it's more difficult to love it.", "is_fresh": 1, "author": ["Kyle Kizu"]},
{"text": "My only hope is that Thor: Ragnarok isn't Taika Waititi's only turn in the MCU; but if it is, he's made one of the most wildly entertaining installments in the sprawling franchise of superheroics.", "is_fresh": 1, "author": ["Sean Mulvihill"]},
{"text": "Which isn't to say the film isn't often genuinely funny, exciting, and entertaining. It just isn't the full-on upheaval and rebirth that a film called Ragnarok needs to be.", "is_fresh": 1, "author": ["Johnny Gayzmonic"]},
{"text": "This is easily the best of the three films, aided by a clever script that gives the title character a lighter side and the watchful eye of director Taika Waititi. ", "is_fresh": 1, "author": ["Micheal Compton"]},
{"text": "It's just the hit-after-hit of firecracker gags of sight and of speech undermine [Cate] Blanchett's efforts to make Hela sensual-yet-deadly, charismatic-yet-wily.", "is_fresh": 1, "author": ["Nguyen Le"]},
{"text": "Audiences [will] get caught up in the laughter and absurdity, enjoying the ride without realizing how little is happening. Three years ago, I probably would have too.", "is_fresh": 0, "author": ["Jared Mobarak"]},
{"text": "The film comes in ...as one of the strongest entries in the Marvel Cinematic Universe to date. If you are in anyway a fan of the Marvel movies ... get to Thor: Ragnarok. ", "is_fresh": 1, "author": ["Kimberly Pierce"]},
{"text": "Taika Waititi is rad, and this completely fun movie is evidence of that. The Hela stuff could be better, but Sakar is on-point & Jeff Goldblum is the Jeff Goldblummiest.", "is_fresh": 1, "author": ["Leona Laurie"]},
{"text": "Taika Waititi is the visionary director that Marvel needed to bring a new and better Thor to fans... This is a good thing because Thor has consistently been considered the weak link of the Avengers. Not so anymore.", "is_fresh": 1, "author": ["Joelle Monique"]},
{"text": "Thor: Ragnarok is a joyous continuation of that spirit, one that allows you to have fun while Thor's new squad cracks open alien heads and extended jokes.", "is_fresh": 1, "author": ["Akhil Arora"]},
{"text": "Waititi's genius is for finding comedy gold in the little interactions between people - the misunderstandings, the callbacks, the connections, the push and pull of disparate personalities.", "is_fresh": 1, "author": ["Molly Templeton"]},
{"text": "Ragnarok remains to keep it's level of entertainment as again Led Zeppelin is played over, highlighting each member of the Revenger team.", "is_fresh": 1, "author": ["Annie Banks"]},
{"text": "If you channel your goofy 8th-grade self, you will love this film.", "is_fresh": 1, "author": ["Marcianne Miller"]},
{"text": "This is easily one of the best Marvel movies... Things were clicking on all cylinders. ", "is_fresh": 1, "author": ["Tony Baker"]},
{"text": "Thor: Ragnarok is charming, funny, visually impressive and boasts one of the more memorable villains of the MCU to date.", "is_fresh": 1, "author": ["Mae Abdulbaki"]},
{"text": "While I can't say that Thor: Ragnarok revives the whole superhero genre, because Wonder Woman did that earlier this year, I can say that it's a welcome addition.", "is_fresh": 1, "author": ["Lisa Johnson Mandell"]},
{"text": "You can tell that everyone in the film had a lot of fun working together on the project. All of the actors just seem to be that much more charismatic on screen.", "is_fresh": 1, "author": ["Stephanie Cooke"]},
{"text": "A drastic departure from what's come before. Gone are the Shakespearean dramatics and Game of Thrones undertones, replaced instead with sleek synth riffs and the crackling energy of an '80s buddy adventure.", "is_fresh": 1, "author": ["Brett White"]},
{"text": "If your favorite part of Marvel comics was feeling that you were on a low-level acid trip, then you're going to adore this.", "is_fresh": 1, "author": ["Kayla Cobb"]},
{"text": "... a spectacular cast and a creative freedom that impresses... [Full review in Spanish]", "is_fresh": 1, "author": ["Laura Hiros"]},
{"text": "It's undeniable; having Taika Waititi involved in your project will make it better.", "is_fresh": 1, "author": ["Blake Howard"]},
{"text": "When I saw this film prefaced by a trailer for the far glossier-looking Black Panther, it slightly felt, once Thor: Ragnarok started, that we were being palmed off with an hors d'oeuvre for the next, bigger thing down the line.", "is_fresh": 0, "author": ["Jonathan Romney"]},
{"text": "Cate Blanchett turns out to be an extraordinary Hela. [Full review in Spanish]", "is_fresh": 1, "author": ["Ruben Peralta Rigaud"]},
{"text": "It's Hemsworth who is mostly responsible for the film's tongue-in-cheek hilarity and nails its best jokes with impeccably timed deadpan aplomb.", "is_fresh": 1, "author": ["Jason Best"]},
{"text": "Thor: Ragnarok is a truly rare beast, injecting a well-worn character with a new sense of life and purpose to the point that you are absolutely itching to see what's next for the Son of Odin.", "is_fresh": 1, "author": ["Andrew Pollard"]},
{"text": "This movie is so fricken fun. Thor: Ragnarock finally embraces and accepts the world that it's in. ", "is_fresh": 1, "author": ["Andre Meadows"]},
{"text": "[Taika] Waititi succeeds in making Thor both relatable and relevant, and gives us the freakiest - and one of the best - movies in Marvel's ongoing juggernaut.", "is_fresh": 1, "author": ["Pete Vonder Haar"]},
{"text": "The rest of this romp, however, is as light and frothy as superhero movies-or buddy comedies-come.", "is_fresh": 1, "author": ["Megan Basham"]},
{"text": "Right from the start, Thor: Ragnarok feels different than its predecessors (Thor and Thor: The Dark World), more comedic in tone and lighter in palette. ", "is_fresh": 1, "author": ["Christopher Llewellyn Reed"]},
{"text": "The movie is fun. It set out to be fun and it succeeds in being fun...if you get people to laugh at a movie, they'll probably forgive you for the tonal discrepancies. ", "is_fresh": 1, "author": ["Jeremy Jahns"]},
{"text": "Where does Thor: Ragnarok fit into the ever-growing ranking of the MCU? Somewhere in the middle. It's funny enough, colorful enough, and entertaining enough to strike a chord, but it's ultimately hollow. ", "is_fresh": 1, "author": ["Chris Evangelista"]},
{"text": "Thor: Ragnarok may be the third stand-alone Thor movie, but it revitalizes the franchise, as well as the superhero genre, in a way that the previous chapters have not. ", "is_fresh": 1, "author": ["Zoe Hewitt"]},
{"text": "Some Marvel fans balk at the level of humor brought into play in the Thor trilogy, but the comedic aspects bring a fresh energy to a genre that's been overwhelmed with seemingly dozens of epics", "is_fresh": 1, "author": ["Carl Kozlowski"]},
{"text": "A good attempt to turn the solemnity of the thunder god into parody and comedy. [Full Review in Spanish]", "is_fresh": 1, "author": ["Mario P. Sz\u00e9kely"]},
{"text": "A minor improvement over the previous installment...", "is_fresh": 0, "author": ["David Nusair"]},
{"text": "Impressively, Waititi manages to retain his unique brand of humour while fulfilling his obligations to the franchise with Thor: Ragnarok.", "is_fresh": 1, "author": ["Joseph Walsh"]},
{"text": "The movie stays fun even as the funny fades. At least it's there for 90 minutes or so, longer than usual for this often grim genre. Why so serious, indeed?", "is_fresh": 1, "author": ["Steve Persall"]},
{"text": "Pleasingly ostentatious.", "is_fresh": 1, "author": ["Gregory Weinkauf"]},
{"text": "[Thor] is visually stunning and hysterically funny.", "is_fresh": 1, "author": ["Drew Grant"]},
{"text": "Thor: Ragnarok is good. It's easily the best in the Thor trilogy - an impressive feat given that sequels often lack the spark and freshness of the original. ", "is_fresh": 1, "author": ["Matthew Toomey"]},
{"text": "This is the best Thor-centric film in the Marvel universe yet, and hopefully it's a sign of more to come.", "is_fresh": 1, "author": ["Rebecca Addison"]},
{"text": "Fans won't be disappointed in Thor: Ragnorak.", "is_fresh": 1, "author": ["Marie Asner"]},
{"text": "After a steady decline in quality for the Marvel Cinematic Universe, Thor: Ragnarok suggests the company might have found its niche in how it presents certain characters.", "is_fresh": 1, "author": ["Wesley Lovell"]},
{"text": "Similar to how Guardians of the Galaxy is James Gunn's baby, Taika Waititi should be given the keys to Asgard and wherever Thor's adventures take him", "is_fresh": 1, "author": ["Robert Kojder"]},
{"text": "A fun romp that takes us to distant worlds, inhabited by stone monsters, valkyries, gods, giants and Jeff Goldblum, who as everyone knows, is a god himself. - [Full Review in Spanish]", "is_fresh": 1, "author": ["Mario Alegre"]},
{"text": "Reality is something we readily put aside when watching a Marvel outing, but ...Thor: Ragnarok is little more than a grocery store genre cake: industrial formula and A-list talent enveloped in an unnatural green screen icing.", "is_fresh": 0, "author": ["Katherine Monk"]},
{"text": "Waititi nails the tone, visuals and action. The MCU's funniest film yet, and the best 'Thor' entry so far. [Full review in Spanish] ", "is_fresh": 1, "author": ["Fico Cangiano"]},
{"text": "A goofy movie that feels relatively fresh, and freshness is a valuable commodity in a franchise that's now nine years and 17 movies deep. ", "is_fresh": 1, "author": ["John Serba"]},
{"text": "Cate Blanchett is Marvel's new goddess and deserves her own franchise. This is the best of the Avengers and Hemsworth's charisma shines throughout, after all, he is the God of Thunder. ", "is_fresh": 1, "author": ["Victoria Alexander"]},
{"text": "Thor: Ragnarok aims for laughs and maximum action-movie enjoyment, and soundly delivers.", "is_fresh": 1, "author": ["Andr\u00e9 Hereford"]},
{"text": "Though it stutters in its action-heavy climax, Thor: Ragnarok is perhaps the funniest Marvel movie yet, and suggests that the studio is beginning to understand the value of letting its stars cut loose.", "is_fresh": 1, "author": ["Josh Spiegel"]},
{"text": "Beautifully filmed with serious kinetic energy by director Taika Waititi, with a crackling script, Thor: Ragnarok is a heap of fun. Cue \"Immigrant Song!\"", "is_fresh": 1, "author": ["Kristen Lopez"]},
{"text": "... fun and a good time... just ignore all the nameless characters dying horribly in the background and everything will be fine.", "is_fresh": 1, "author": ["Kevin A. Ranson"]},
{"text": "It's a knowing self-spoof that doesn't take itself too seriously. ", "is_fresh": 1, "author": ["Jim Lane"]},
{"text": "We thoroughly enjoy Cate Blanchett vamping it up as an evil villainess, glaring at us through smoky eye makeup and spitting out nasty dialogue. Like I said: Fun.", "is_fresh": 1, "author": ["Diane Pershing"]},
{"text": "Thor Ragnarok takes you on a visually psychedelic adventure that sadly goes absolutely nowhere.", "is_fresh": 0, "author": ["Alachia Queen "]},
{"text": "As undeniably enjoyable as it was, Thor: Ragnarok didn't feel like the latest installments of one of the MCU's central characters as much as it did a big budget spoof of a Marvel film.", "is_fresh": 0, "author": ["Suchin Mehrotra"]},
{"text": "With its 130 minute script that has no clue where it's going, mixed with a mash-fest of 1980's fantasy/sci-fi films we've already seen, it is an intumescent mega mess.", "is_fresh": 0, "author": ["Amyana Bartley"]},
{"text": "Thor: Ragnarock is a party and everyone is invited. [Full Review in Spanish] ", "is_fresh": 1, "author": ["Alejandro Alem\u00e1n"]},
{"text": "A peculiar tug of war between an indie comedian and a multinational conglomerate.", "is_fresh": 0, "author": ["J. Olson"]},
{"text": "Thor: Ragnarok proves that he who does not risk does not win. [Full review in Spanish]", "is_fresh": 1, "author": ["Daniel Krauze"]},
{"text": "Thor: Ragnarok is Marvel's most fun film and raises the bar as Thor teams up with Hulk to save Asgard.", "is_fresh": 1, "author": ["Danielle Solzman"]},
{"text": "An exciting adventure that is undoubtedly the best trilogy of the blond God of Thunder. [Full review in Spanish]", "is_fresh": 1, "author": ["Carlos D\u00edaz Reyes"]},
{"text": "Taika Waititi, director of last year's funniest movie, now turns a Marvel sequel into a funny film. Despite the massive amount of killing, fighting and destruction in the movie, Waititi's comic touches are very evident, and effective, in this film.", "is_fresh": 1, "author": ["Robert Roten"]},
{"text": "Thor: Ragnarok right from the outset establishes a comedic tone new to the Marvel Cinematic Universe and recasts hunky Chris Hemsworth as comic relief.", "is_fresh": 1, "author": ["Annlee Ellingson"]},
{"text": "Ragnarok is a colorful, campy sendup of the superhero genre, even as its storyline and thematic elements are decidedly morbid.", "is_fresh": 1, "author": ["Joel Mayward"]},
{"text": "It's the funny and games between the action-sequences that fizzes and pops in what often feels like a sly remix of Flash Gordon and Mad Max Beyond Thunderdome.", "is_fresh": 1, "author": ["Brian Gibson"]},
{"text": "Thor's had a good run, let's get Hela lit.", "is_fresh": 1, "author": ["Tara Thorne"]},
{"text": "\"Thor: Ragnarok\" reimagines Thor as a devilishly dim hero in love with the idea of his own power until a crisis forces him to confront the notion that he's not as strong as he always figured.", "is_fresh": 1, "author": ["tt stern-enzi"]},
{"text": "Waititi doesn't so much inject humor as he gives it his own droll spin, making Thor: Ragnarok one of the funniest of the Marvel movies without seeming to exert much effort in that regard ", "is_fresh": 1, "author": ["James Kendrick"]},
{"text": "Ragnarok uses quick wit to keep the comedy going, and it works really well, it's just one laugh-out-loud moment to the next, and the comedy never fails.", "is_fresh": 1, "author": ["Shauna Fox"]},
{"text": "Tessa's got the comedic timing to match Taika Waititi's Thor humor, and the physicality to lead the movie's pack of superheroes. She's not trying to outdo the boys; she's just trying to sip her drink and mind her own business. ", "is_fresh": 1, "author": ["Hunter Harris"]},
{"text": "Beyond the movie's financial successes, the film established Hemsworth as a charming, charismatic, funny leading man, capable of carrying out director Taika Waititi's zany vision and, for the first time, making Thor a relevant Avenger. ", "is_fresh": 1, "author": ["Andrew Gruttadaro"]},
{"text": "Audiences seem to be smart enough these days to know a good movie when they see it, and to avoid a bad flick despite Hollywood's best efforts to pull a fast one on them.", "is_fresh": 1, "author": ["Matthew Rozsa"]},
{"text": "Marvel continues to remind us that being an ethical, self-realized human is more important than being a superhuman.", "is_fresh": 1, "author": ["Margot Harrison"]},
{"text": "It's [its] kind of self-awareness and refusal to take itself too seriously (we're looking at you, DC) that helps Marvel's shtick and comic book movies in general maintain their forward momentum.", "is_fresh": 1, "author": ["Gary Dowell"]},
{"text": "The visually dazzling and refreshingly-witty offbeat installment to the seemingly unstoppable MCU franchise proves to be a third-time charm for the charismatic hammer-loving superhero.", "is_fresh": 1, "author": ["Marija Djurovic"]},
{"text": "An ode to embracing the glorious ridiculousness of caped crusaders... a hammer throwing, fist-smashing good time.", "is_fresh": 1, "author": ["Sarah Ward"]},
{"text": "Thor Ragnarok gets the comic book vibe bang on. Its cool, its funny and most importantly its the right amount of outrageous. Its one of Marvel's best.", "is_fresh": 1, "author": ["Rachit Gupta"]},
{"text": "Might leave you 'Thor' from laughter.", "is_fresh": 1, "author": ["Linda Cook"]},
{"text": "... not only is it the best comedy from Marvel thus far, but... the most visually attractive film of all those that have been made... [Full review in Spanish]", "is_fresh": 1, "author": ["Ernesto Diezmartinez"]},
{"text": "The film is never worse than lively and colorful, and until its deflating, routine finale, it never fails to be pleasant to watch.", "is_fresh": 1, "author": ["Tim Brayton"]},
{"text": "Fast-paced, irreverent and with a delicious 80s aesthetic, this might be Marvel's most entertaining movie yet.", "is_fresh": 1, "author": ["Tom Glasson"]},
{"text": "With or without a hammer, Thor's new story moves gracefully. [Full Review in Spanish]", "is_fresh": 1, "author": ["Adri\u00e1n Ruiz"]},
{"text": "Humor over Heroics Dooms Bloated \"Ragnarok.\"", "is_fresh": 0, "author": ["Charles Koplinski"]},
{"text": "Taika Waititi takes Thor in to such a bold and fun new arena, celebrating everything unique and fantastic about his world...", "is_fresh": 1, "author": ["Felix Vasquez Jr."]},
{"text": "This eye-popping spectacle is remarkably dazzling, uproarious and unadulterated fun that exceeds all expectations.", "is_fresh": 1, "author": ["Courtney Howard"]},
{"text": "Thor still has to get his father's benediction, but Ragnarok makes mass destruction and a superhero's responsibility equal to adventure thrills and eccentric diversions.", "is_fresh": 1, "author": ["Craig Mathieson"]},
{"text": "The tone and settings are reminiscent of such watchable '80s clunkers as \"Flash Gordon\" and \"Metalstorm: The Destruction of Jared-Syn,\" with a little bit of Disney's more recent \"Maleficent\" thrown in, too.", "is_fresh": 1, "author": ["John Urbancich"]},
{"text": "Perfectly acceptable as an action movie but inspired as a comedy--which is probably where the Thor franchise should have been aiming from the start.", "is_fresh": 1, "author": ["Christopher Orr"]},
{"text": "The best silly, superhero THOR movie yet - it's thunderful!", "is_fresh": 1, "author": ["Susan Granger"]},
{"text": "The stated goal in the schizophrenic \"Thor: Ragnarok\" is to liberate the Norse kingdom of Asgard. But what's really going on is the freeing of the Henny Youngman inside Chris Hemsworth. Take my hammer, Please! ", "is_fresh": 1, "author": ["Al Alexander"]},
{"text": "If nothing else, it's among the funniest Marvel films. (And there may indeed be nothing else.)", "is_fresh": 1, "author": ["Eric D. Snider"]},
{"text": "This is Asgard by way of The Comedy Store, an approach inspired not so much by previous Avengers-related entries but by Deadpool and Guardians of the Galaxy.", "is_fresh": 1, "author": ["Matt Brunson"]},
{"text": "I can't tell why I love THOR: RAGNAROK more: Is it because it heralds the long-awaited global domination of director Taika Waititi, or simply because it's such great fun and truly one of the top Marvel movie entries? Why not both?", "is_fresh": 1, "author": ["Diva Velez"]},
{"text": "For all its brazen gags, its hip soundtrack, and its cool if somewhat hetero-normative heroes , the House That Steve Rogers Built doesn't rush headlong into truly dangerous territory.", "is_fresh": 0, "author": ["Rubin Safaya"]},
{"text": "Jokes. So many jokes. Attitude. So much attitude. Snark? Bring on the Goldblum! Sexual ambiguity? Yes, oh my. Action scenes? ... Action scenes? Jokes! More jokes! ", "is_fresh": 1, "author": ["Ray Pride"]},
{"text": "The Thor franchise gets an exhilarating jolt of energy with Thor: Ragnarok, which is wacky, weird, and wonderful, a singular vision from director Taika Waititi.", "is_fresh": 1, "author": ["Roxana Hadadi"]},
{"text": "Part \"Flash Gordon,\" part \"Guardians of the Galaxy\" and part Duran Duran video, \"Thor: Ragnarok\" is basically a blast.", "is_fresh": 1, "author": ["Mathew DeKinder"]},
{"text": "The movie has a freewheeling quality that previous Thor entries lacked. Also, Jeff Goldblum gets to go 'full Goldblum.'", "is_fresh": 1, "author": ["Mike McGranaghan"]},
{"text": "Marvel is too smart to completely undermine the serious matters at stake for its stable of characters, but confident enough to play with them a bit. Thor Ragnarok has a personality all its own, and I suspect Marvel fans will love every minute.", "is_fresh": 1, "author": ["Leonard Maltin"]},
{"text": "After the disappointments of 2011's Thor and 2013's Thor: The Dark World, something clearly needed to be done. All Waititi did was deliver Marvel's OMG-iest movie yet.", "is_fresh": 1, "author": ["Christopher Lawrence"]},
{"text": "Sit back and enjoy the roller-coaster ride known as Thor: Ragnarok. Do yourself a favor and see it in a packed theater. If you can't do that, then head right to the couch and pop open your favorite beer and have fun.", "is_fresh": 1, "author": ["Alan Ng"]},
{"text": "This viewer ... was wowed in fits and starts, but mostly filled with a new, ungrudging respect for Hemsworth.", "is_fresh": 1, "author": ["Justin Chang"]},
{"text": "Thor is a rousing example of how to refresh a comic-book franchise.", "is_fresh": 1, "author": ["Rashid Irani"]},
{"text": "Thor comes as a genuine and welcome surprise.", "is_fresh": 1, "author": ["Peter Sobczynski"]},
{"text": "The only thing that the film managed to generate in me was laughs; unfortunately, this kind of movie needs much more than that. [Full review in Spanish]", "is_fresh": 0, "author": ["Sebastian Zavala Kahn"]},
{"text": "... a film that does not really go anywhere. [Full review in Spanish]", "is_fresh": 0, "author": ["Hugo Hern\u00e1ndez Valdivia"]},
{"text": "This is the first mega-budget Marvel picture to put its heroes on spaceships and hurl them into a wormhole called the Devil's Anus. Clearance, Clarence.", "is_fresh": 1, "author": ["Eric Melin"]},
{"text": "This leading-man humour is a large part of what makes Thor: Ragnarok just about the funniest superhero movie I have seen.", "is_fresh": 1, "author": ["Stephen Romei"]},
{"text": "While the promotional trailers may have given you an inkling of the film's true nature, Thor: Ragnarok is perhaps Marvel Studio's funniest -- and boldest -- feature to date.", "is_fresh": 1, "author": ["Kanin Srimaneekulroj"]},
{"text": "... in the hands of indie director Taika Waititi, who made his bones on the HBO comedy \"Flight of the Conchords,\" this is a Marvel movie as intent on busting our guts for two hours as it is on blowing stuff up.", "is_fresh": 1, "author": ["Michael Smith"]},
{"text": "Director Taika Waititi has a predilection for comedy that comes through in practically every scene.", "is_fresh": 1, "author": ["Tony Norman"]},
{"text": "Waititi seems to delight in exploring the interplay between Hemsworth's physical and comic presence. It yields a version of Thor that might annoy some comic book purists (but certainly didn't this one), but it's an undeniable asset for the franchise.", "is_fresh": 1, "author": ["Michael Burgin"]},
{"text": "Taika Waititi's highly self-aware Thor: Ragnarok is a fitting response to the pomposity and pretentiousness that mark most movies in the Marvel Cinematic Universe.", "is_fresh": 1, "author": ["Nandini Ramnath"]},
{"text": "Buoyed by a visionary director, strong usage of some of the Marvel universe's better characters, beautiful filmmaking, and a healthy amount of humor", "is_fresh": 1, "author": ["Stephen Silver"]},
{"text": "Director Taika Waititi's Marvel debut bursts at the seams with creative pleasure that communicates the same sense of fun that was clearly present on set.", "is_fresh": 1, "author": ["Abby Olcese"]},
{"text": "Director Taika Waititi has transformed Chris Hemsworth's buff, brooding superhero into a comedy god in this highly entertaining threequel.", "is_fresh": 1, "author": ["Nick Schager"]},
{"text": "Altogether, Thor: Ragnarok is one of the most unique films of Marvel's now extensive lineup. It may be an unexpected combination, but this blend of star, director and style is a big winner.", "is_fresh": 1, "author": ["Josh Terry"]},
{"text": "It's difficult to hate any movie that allows Blanchett to chew the movie's abundant and not always impressive scenery -- archly, of course.", "is_fresh": 1, "author": ["Robert Denerstein"]},
{"text": "More Fifth Element than Avengers, more John Carpenter than Jon Favreau, Thor: Ragnarok is an often riotously entertaining interplanetary romp.", "is_fresh": 1, "author": ["Christopher Schobert"]},
{"text": "Though \"Thor: Ragnarok\" may feel like a lightweight entertainment, it comes packed with the same ingredients that made Whedon's \"The Avengers\" so good.", "is_fresh": 1, "author": ["Jeffrey M. Anderson"]},
{"text": "Chris Hemsworth releases a comic daredevil spirit comparable to that other dashing Australian swashbuckler, Errol Flynn. ", "is_fresh": 1, "author": ["Michael Sragow"]},
{"text": "This film is mediocre as a comedy, as a drama it's worse. [Full Review in Spanish] ", "is_fresh": 0, "author": ["William Venegas"]},
{"text": "Come the end of Thor: Ragnarok, you'll be shocked by just how little you actually cared throughout what just transpired. ", "is_fresh": 0, "author": ["Gregory Wakeman"]},
{"text": "Enjoyable and entertaining from start to finish. (Full Content Review for Parents - Violence, Profanity, Sexual Content, etc. - also Available)", "is_fresh": 1, "author": ["Jim Judy"]},
{"text": "Still, great spectacle, and it is relentlessly . . . . what's the f-word I'm looking for?", "is_fresh": 1, "author": ["Bob Strauss"]},
{"text": "The world's gone bonkers and we can all use a two-hour break, and Thor: Ragnarok is the perfect distraction. ", "is_fresh": 1, "author": ["Rebecca Murray"]},
{"text": "Cate Blanchett's Hela is hella mean, hella snarky and hella striking with her hair slicked back into antlers. ", "is_fresh": 1, "author": ["Bob Mondello"]},
{"text": "The film attempts to break new ground within the rigid confines of its genre.", "is_fresh": 1, "author": ["Piers Marchant"]},
{"text": "Goes all in on self-referential wackiness and an unbridled energy stream of sarcasm to unleash an apocalypse of silly, exciting fun.", "is_fresh": 1, "author": ["Phil Villarreal"]},
{"text": "There's a plot, which is almost a shame, really, since the more the film gets to indulge in offbeat characters and tangential humor, the better.", "is_fresh": 1, "author": ["Rob Thomas"]},
{"text": "Just try to resist Thor: Ragnarok. We double dog dare you.", "is_fresh": 1, "author": ["Christian Toto"]},
{"text": "...about half of a pretty great movie. ", "is_fresh": 1, "author": ["Kurt Loder"]},
{"text": "There's something just a little bit off about the way the film handles its title character.", "is_fresh": 0, "author": ["Sonny Bunch"]},
{"text": "The idea of pairing the oft-dull Thor with a series of oddball companions is an inspired, if necessary, move - so much so that it's baffling it has taken Marvel this long to smarten up.", "is_fresh": 1, "author": ["Barry Hertz"]},
{"text": "\"Ragnarok\" is supposed to play for laughs, but it feels like the joke is on the audience.", "is_fresh": 0, "author": ["Adam Graham"]},
{"text": "Thor: Ragnarok is the best Thor yet but it is still a Thor Movie.", "is_fresh": 1, "author": ["Scott Menzel"]},
{"text": "The laughs take center stage, but that isn't to say that the action sequences aren't thrilling. Thor's battles are epic!", "is_fresh": 1, "author": ["Jonathan W. Hickman"]},
{"text": "It's fun, it's exciting, it's hilarious --- and then there's Chris Hemsworth.", "is_fresh": 1, "author": ["Jeanne Kaplan"]},
{"text": "We can always depend on Hemsworth's style of not taking himself too seriously, and it works well.", "is_fresh": 1, "author": ["David Kaplan"]},
{"text": "...the first Thor movie that can take its place in the first ranks of Marvel movies. ", "is_fresh": 1, "author": ["Daniel M. Kimmel"]},
{"text": "It's witty, it's weird and it goes against decades of bloated, overserious comics fare.", "is_fresh": 1, "author": ["Sara Stewart"]},
{"text": "Director Taika Waititi delivers a fast paced, quip filled movie that has a rainbow of cotton candy colors and riotous set design work that still left me feeling a bit let down. ", "is_fresh": 1, "author": ["Michelle Alexandria"]},
{"text": "... Thor: Ragnarok proves to be so creatively loopy, not to mention so consistently hysterical, I found it hopeless not to enjoy myself while sitting in the theatre watching things play themselves out to their conclusion.", "is_fresh": 1, "author": ["Sara Michelle Fetters"]},
{"text": "Equal parts absurd and surprisingly wonderful.", "is_fresh": 1, "author": ["Sarah Marrs"]},
{"text": "Thor: Ragnarok is the third movie in the Thor franchise, but it's the first in the series to give off the \"What, me worry?\" vibes that make the Guardians of the Galaxy movies worth the price of the admission.", "is_fresh": 1, "author": ["K. Austin Collins"]},
{"text": "Of course, you know how this ends, but the script, the cinematography, and the performances make this billionth Marvel entry seem fresh. ", "is_fresh": 1, "author": ["Tricia Olszewski"]},
{"text": "It is irreverent, even cheeky. It has a sense of humor about itself while never, ever making fun of comic books or their fans.", "is_fresh": 1, "author": ["Nell Minow"]},
{"text": "Thor: Ragnarok might rub some humorless Marvel purists the wrong way, but for the less obsessive among us, it's every bit as silly and mocking as it ought to be.", "is_fresh": 1, "author": ["Stephen Rebello"]},
{"text": "What it lacks in urgency - which is a lot, given that the story involves an extinction-level threat to Asgard and All Who Therein Dwell - it makes up for in alacrity.", "is_fresh": 1, "author": ["Chris Klimek"]},
{"text": "The only thing I enjoyed more than the comedy in Thor: Ragnarok was a climactic battle sequence synced perfectly to Led Zeppelin's \"Immigrant Song.\"", "is_fresh": 1, "author": ["Richard Roeper"]},
{"text": "Thor Ragnarok is, without a doubt, the best movie of the god of thunder within the MCU. [Full review in Spanish]", "is_fresh": 1, "author": ["Sergio L\u00f3pez Aguirre"]},
{"text": "... Somehow both irreverent and respectful, and a whole lot of fun.", "is_fresh": 1, "author": ["Greg Maki"]},
{"text": "Sure, it's overly long, but it also features eccentric timing, shaggy humour and some hilarious new characters", "is_fresh": 1, "author": ["Norman Wilner"]},
{"text": "[F]or all of its winking and joking, Thor: Ragnarok ultimately cannot escape the trap of established formula.", "is_fresh": 0, "author": ["Mark Dujsik"]},
{"text": "Director Taika Waititi's take on the God of Thunder plays a bit like the rock mockumentary This is Spinal Tap: it's front-loaded with jokes, built around a severe humbling, and full of silly bombast.", "is_fresh": 0, "author": ["Matthew Lickona"]},
{"text": "Fortunately, the charismatic Hemsworth is such good company, you're willing to play along and cruise past the roadblocks.", "is_fresh": 1, "author": ["Clint O'Connor"]},
{"text": "A comedy of outsized figures bashing at one another, punching their frenemies into the next county.", "is_fresh": 1, "author": ["Richard von Busack"]},
{"text": "Would that every superhero film had so light a touch. Not every job needs a hammer.", "is_fresh": 1, "author": ["Jonathan L. Fischer"]},
{"text": "Thor: Ragnarok is more fun than a barrel of winged monkeys, but man, do we have questions.", "is_fresh": 1, "author": ["Peter Howell"]},
{"text": "Some laughs, twists, surprises and good performances freshen up the familiar plot.", "is_fresh": 1, "author": ["Roger Tennis"]},
{"text": "Ragnarok is a glorified commercial for next year's Avengers: Infinity War.", "is_fresh": 0, "author": ["Bennett Campbell Ferguson"]},
{"text": "Thor: Ragnarok feels like a Taika Waititi movie, and a very good one - in part because however briefly, it takes the god of thunder off the perpetual-motion machine of success.", "is_fresh": 1, "author": ["Jesse Hassenger"]},
{"text": "... funnier than the usual Marvel product because it's directed by Taika Waititi (What We Do in the Shadows)... ", "is_fresh": 1, "author": ["Walter Chaw"]},
{"text": "This is a colorful mashup of Scandinavian myth, interplanetary sci-fi, Old Testament references, and crossover comic book characters.", "is_fresh": 1, "author": ["Andrea Gronvall"]},
{"text": "Increasingly, it's obvious that much of the Marvel universe works best when it goes big and silly: Thor: Ragnarok is about as big and silly as a Marvel movie is ever going to get.", "is_fresh": 1, "author": ["Anthony Morris"]},
{"text": "The intoxicatingly strange brew - the third \"Thor\" flick, and fifth Marvel film that the Norse god has appeared in - gets nicely stirred by quirky New Zealand auteur Taika Waititi... ", "is_fresh": 1, "author": ["Tom Meek"]},
{"text": "Most fun since Guardians of the Galaxy. Director Waititi brings the offbeat, weirdo charm of What We Do in the Shadows to Marvel.", "is_fresh": 1, "author": ["James Verniere"]},
{"text": "It was only two years ago in Avengers: Age of Ultron that we started to see what a gifted comic actor Hemsworth is, so it makes eminently good sense for this entire movie to be played as a comedy.", "is_fresh": 1, "author": ["Kristian M. Lin"]},
{"text": "The balance of humor and action has become so one-sided that Thor: Ragnarok could use a laugh track.", "is_fresh": 0, "author": ["Kirk Baird"]},
{"text": "The whole cast is great. When you have Idris Elba in a relatively minor role of the all-seeing protector Heimdall, you know your ensemble is stacked. ", "is_fresh": 1, "author": ["Max Weiss"]},
{"text": "By making Thor: Ragnarok as much a comedy as an action movie, Waititi brings some needed lightness to Marvel's storyline.", "is_fresh": 1, "author": ["Sean P. Means"]},
{"text": "The plot is chaotic and the pacing is bizarre (scenes are unusually short and fast). But it's undeniably a riot.", "is_fresh": 1, "author": ["Anna Leszkiewicz"]},
{"text": "[Has] a comic spin even in the action scenes... in a genre that often seems more intent on pummeling you into submission than giving you a good time, its light, breezy approach is a breath of fresh air.", "is_fresh": 1, "author": ["Frank Swietek"]},
{"text": "At a fundamental level, Marvel jams enough high-spirited entertainment into the movie to ensure that it's worthy of the price of admission.", "is_fresh": 1, "author": ["Brian Lowry"]},
{"text": "Waititi has managed to do something with Thor: Ragnarok managed to do something with the character no director has managed to do yet: make us look forward to seeing him again.", "is_fresh": 1, "author": ["Allyson Johnson"]},
{"text": "While Marvel movies have explored some heavier emotion, Ragnarok is the kind of roller-coaster ride I can get behind. Its exposition isn't too heavy, and it rarely goes more than a few minutes without delivering a thrill, a laugh or both.", "is_fresh": 1, "author": ["Brad Keefe"]},
{"text": "Despite all these big personalities stuffed into a two-hour film, Thor: Ragnarok is an airtight affair that skilfully plays to each actor's strength.", "is_fresh": 1, "author": ["Marwa Hamad"]},
{"text": "Visually, Thor: Ragnarok is by far the most Jack Kirby-inspired entry in the MCU films, and thank Odin for it.", "is_fresh": 1, "author": ["Joe Gross"]},
{"text": "Put your brain in neutral and enjoy!", "is_fresh": 1, "author": ["Chris Knight"]},
{"text": "Suffice it to say, Valkyrie is a certified badass.", "is_fresh": 1, "author": ["Soraya Nadia McDonald"]},
{"text": "The Marvel Fatigue factor continues, to be sure. But hiring Waititi, and letting the right actors lean into the comedy, constitutes not a marvel, but a qualified victory.", "is_fresh": 1, "author": ["Michael Phillips"]},
{"text": "\"Thor: Ragnarok\" gives the long-running franchise a fresh bloom of health, fertilizing the comic book roots of the Marvel film universe like a dose of satirical Miracle-Gro.", "is_fresh": 1, "author": ["Colin Covert"]},
{"text": "If your goal is to spend a few hours escaping from reality, \"Thor: Ragnarok\" is definitely for you.", "is_fresh": 1, "author": ["Calvin Wilson"]},
{"text": "If Ragnarok doesn't matter in a Thor movie, what could you possibly put onscreen ever again that would matter?", "is_fresh": 0, "author": ["Steven D. Greydanus"]},
{"text": "Thor has always been the most laughable of the Avengers, and Waititi's approach means we don't have to pretend to take seriously the insane mythology about outer-space Vikings ruling over nine galactic realms.", "is_fresh": 1, "author": ["Gary Thompson"]},
{"text": "'Thor: Ragnarok' is a wild ride, a boisterous amusement-park excursion that will divert you from beginning to end.", "is_fresh": 1, "author": ["Bob Bloom"]},
{"text": "If ever there was a Marvel film to fly the fun flag, this is the one. Had they gone for something darker, it would have been insufferable.", "is_fresh": 1, "author": ["David Medsker"]},
{"text": "Waititi reaches big, creating a cosmic odyssey that's rich with elaborate costuming, ornate sets, strange creatures, and direct danger, coming close to replicating the magic found in 1980's \"Flash Gordon.\"", "is_fresh": 1, "author": ["Brian Orndorf"]},
{"text": "An absolute blast.", "is_fresh": 1, "author": ["Kimberley Jones"]},
{"text": "As if trying to out-do Guardians of The Galaxy for wisecracks-per-minute, Thor: Ragnarok oxymoronically takes one of the most dire Norse concepts and turns it into a romp with a barrage of broad jokes and slapstick.", "is_fresh": 1, "author": ["Jim Slotek"]},
{"text": "Tessa Thompson's badassery has jumped to new heights as her Valkyrie seems to be Marvel's answer to DC's \"Wonder Woman,\" showing (ONCE AGAIN) that women should be given their own vehicle in the MCU.", "is_fresh": 1, "author": ["Clayton Davis"]},
{"text": "Not since Iron Man 3 has a Marvel movie (mercifully) felt less like a Marvel movie.", "is_fresh": 1, "author": ["Conor O'Donnell"]},
{"text": "Everything here is a goof.", "is_fresh": 1, "author": ["Robert Horton"]},
{"text": "The third film about Marvel's superhero based on the Norse god of thunder shakes things up drastically, taking the series in a more colorful, more fantastic and more comedic direction.", "is_fresh": 1, "author": ["Britton Peele"]},
{"text": "It may sound as if the movie is only for 13-year-old boys, or the Marvel faithful, but it isn't.", "is_fresh": 1, "author": ["Michael O'Sullivan"]},
{"text": "It has confidence in its characters and in its own invention, and so it avoids repetition and stays fresh.", "is_fresh": 1, "author": ["Mick LaSalle"]},
{"text": "It's a thrill a minute, which is a lot of thrills for a running time of 130 minutes.", "is_fresh": 1, "author": ["Maren Longbella"]},
{"text": "As a steady stream of random wit and bawdiness, it's a good time. But as a story ostensibly escalating toward the titular cataclysm - Norse mythology's take on doomsday - \"Ragnarok\" feels too episodic, a scattered trifle passed off as epic.", "is_fresh": 1, "author": ["Tom Russo"]},
{"text": "Thor has always been the most laughable of the Avengers, and Waititi's approach means we don't have to pretend to take seriously the insane mythology about outer space Vikings ruling over nine galactic realms.", "is_fresh": 1, "author": ["Gary Thompson"]},
{"text": "Waititi creates a fun, relaxed vibe among Thor and his allies, particularly the now more articulate Hulk and the sullen, perpetually drunk Valkyrie.", "is_fresh": 1, "author": ["Josh Bell"]},
{"text": "About as inventive and original as one of these things can probably get away with being, before it has to go back to being the same old s--t.", "is_fresh": 0, "author": ["Sean Burns"]},
{"text": "Everything from the font used in the titles, to the synth-infused rock opera score by Mark Mothersbaugh, to the gloriously retro set design and visuals clearly inspired by the art of Jack Kirby, there is no Marvel movie quite like it.", "is_fresh": 1, "author": ["Rohan Naahar"]},
{"text": "Superhero fans deserve better than this. Battles should have heart, danger, and consequences. The conflicts in Thor: Ragnarok are lacking in all three.", "is_fresh": 0, "author": ["James Berardinelli"]},
{"text": "Mr. Hemsworth looks happier and far more relaxed in \"Ragnarok\" than he did in the previous Thor vehicles, which is perhaps Mr. Waititi's truest achievement here.", "is_fresh": 1, "author": ["Manohla Dargis"]},
{"text": "I guess it's technically possible you'll see another movie this year that'll be this much fun, but I doubt it. And even if you do, it won't have Space Goldblum. ", "is_fresh": 1, "author": ["Erik Henriksen"]},
{"text": "The God of Thunder removes the giant hammer from his backside and drops his stodgy pretentions in favor of having a good time.", "is_fresh": 1, "author": ["J.R. Kinnard"]},
{"text": "Note to Hollywood: From now on, maybe all of our superhero franchises should be outsourced to New Zealand.", "is_fresh": 1, "author": ["Cary Darling"]},
{"text": "Thompson's character is as endearing as Idris Elba's is forceful. Even when Heimdall isn't on screen, his presence is very much felt as a shepherd of both the plot points and the people inhabiting Asgard. ", "is_fresh": 1, "author": ["Austin Williams"]},
{"text": "A refreshing interlude that combines creativity with an understanding of why we loved these characters in the first place.", "is_fresh": 1, "author": ["Gavia Baker-Whitelaw"]},
{"text": "... seeing \"Thor: Ragnarok\" is like riding the world's fastest and tallest roller coaster that keeps looping through a funhouse.", "is_fresh": 1, "author": ["Rick Bentley"]},
{"text": "... he director has delivered possibly the most entertaining instalment in the Marvel Cinematic Universe yet.", "is_fresh": 1, "author": ["Chris Newbould"]},
{"text": "I left Ragnarok completely happy. But I also wanted more from Hela and especially from Valkyrie.", "is_fresh": 1, "author": ["Esther Zuckerman"]},
{"text": "Taika Waititi's film is a blast even if it prizes humor above pacing and the previous movies.", "is_fresh": 1, "author": ["Matt Goldberg"]},
{"text": "The film's ability to make fun of itself is just one of the many things that make it a joy to watch.", "is_fresh": 1, "author": ["Ariel Scotti"]},
{"text": "Good news everyone! That Hulk dick joke we ordered has arrived!", "is_fresh": 1, "author": ["Rob Vaux"]},
{"text": "The film really lets Chris Hemsworth flex his comedy chops...along with his bulging muscles.", "is_fresh": 1, "author": ["Lauren Le Vine"]},
{"text": "The choice of New Zealand director Taika Waititi has created a lot of excitement for the latest installment, and while it is fun, one cannot help but feel that Marvel television writers..don't bring enough wit to the proceedings.", "is_fresh": 1, "author": ["Laura Clifford"]},
{"text": "A rollicking comedy...Waititi revs up this vehicle for a wild ride...", "is_fresh": 1, "author": ["Peter Canavese"]},
{"text": "The resulting superhero jaunt might not be the best movie ever produced by Marvel Studios, but it's unquestionably the most fun.", "is_fresh": 1, "author": ["Patrick Cooley"]},
{"text": "Mark Mothersbaugh (Devo) does a great job with the musical score, which includes a near-perfect placement of Led Zeppelin's 'The Immigrant Song.'", "is_fresh": 1, "author": ["Michael Sangiacomo"]},
{"text": "It may have a ways to go before it can stand on equal footing with the best Marvel films, but this was definitely a step in the right direction.", "is_fresh": 1, "author": ["Jeff Beck"]},
{"text": "Less hammer, more humor. Ragnarok gives Thor's comic-book core a fresh, zippy new spin. ", "is_fresh": 1, "author": ["Neil Pond"]},
{"text": "Thor: Ragnarok is the flamboyantly roller-disco entry in an already uncomplicatedly cartoonish side franchise.", "is_fresh": 1, "author": ["Eric Henderson"]},
{"text": "Marvel does not disappoint its fans. [Full Review in Spanish]", "is_fresh": 1, "author": ["Diego Batlle"]},
{"text": "Enormously entertaining. Witty, funny, delightfully campy, and irreverent. A great time at the movies.", "is_fresh": 1, "author": ["Avi Offer"]},
{"text": "None of us doubted that Cate Blanchett would make a kickass comic-book-movie villain, did we?", "is_fresh": 1, "author": ["Moira MacDonald"]},
{"text": "One imagines Marvel turning the keys over to director Taika Waititi and saying, \"There's a couple hundred million on the kitchen counter, have fun.\"", "is_fresh": 1, "author": ["Chris Barsanti"]},
{"text": "A funny space adventure that's weird, wild, and wonderful.", "is_fresh": 1, "author": ["Scott Chitwood"]},
{"text": "The third [movie] has hit the nail on the head. [Full Review in Spanish] ", "is_fresh": 1, "author": ["Javier Oca\u00f1a"]},
{"text": "Just when you thought the MCU was out of surprises, director Taika Waititi and company deliver one of the best superhero movies of the decade.", "is_fresh": 1, "author": ["Matthew Monagle"]},
{"text": "[Taika Waikiki] is able to exploit the camp or simply tacky tone that has presided over the saga of this most absurd superhero posse. [Full review in Spanish] ", "is_fresh": 1, "author": ["Luis Mart\u00ednez"]},
{"text": "From Thor and Hulk sitting on a bed talking about their feelings, to Goldblum being his most Goldblum, \"Ragnarok\" is an enjoyable break from the more \"serious\" issues explored in the MCU.", "is_fresh": 1, "author": ["Jason Guerrasio"]},
{"text": "Dumb fun. But the first \"Thor\" movie to look like they threw serious money at it. ", "is_fresh": 1, "author": ["Roger Moore"]},
{"text": "May be the first Marvel movie to qualify as slaphappy.", "is_fresh": 1, "author": ["Josh Larsen"]},
{"text": "This departure from reality and the embrace of the artistic expression make the debut of Valkyrie all the sweeter.", "is_fresh": 1, "author": ["Joelle Smith"]},
{"text": "\"Thor: Ragnarok\" is a blast, pure and simple.", "is_fresh": 1, "author": ["Bill Goodykoontz"]},
{"text": "In short, Taika Waititi graduates with honors in his leap to blockbusters... [Full review in Spanish]", "is_fresh": 1, "author": ["Jos\u00e9 Mart\u00edn"]},
{"text": "This movie is just so much fun, it's a hilarious superhero romp and nigh impossible to watch without a grin on your face.", "is_fresh": 1, "author": ["Daniel Rutledge"]},
{"text": "A close-but-no-cigar film, but so enjoyable for the most part, and so modest in its aims, that its disappointments aren't devastating.", "is_fresh": 1, "author": ["Matt Zoller Seitz"]},
{"text": "It's crazy, colorful, and without a doubt, the funniest and most fun Marvel movie. [Full review in Spanish]", "is_fresh": 1, "author": ["Emmanuel B\u00e1ez"]},
{"text": "Thor: Ragnarok may be a better comedy than epic action adventure, but it certainly makes us fall even more in love with the \"Cosmic Marvel\" universe.", "is_fresh": 1, "author": ["Matt Donato"]},
{"text": "It's one of the most refreshing and satisfying Marvel movies in some time, precisely because its willing to do many things that Marvel hasn't done before.", "is_fresh": 1, "author": ["Kevin Jagernauth"]},
{"text": "It makes an ageless space god with the nobility of King Arthur and the bodacious abs of a supermodel look like an underdog. Fallibility, not lightning, is his secret weapon.", "is_fresh": 1, "author": ["A.A. Dowd"]},
{"text": "Even for a Marvel film, Thor: Ragnarok is a weightless lark, almost to a fault. Waititi has so much fun playing with his toys that, at times, he forgets to offer the proceedings enough import. These are marginal concerns, at the end of the day.", "is_fresh": 1, "author": ["Clint Worthington"]},
{"text": "You may find yourself longing for the days when superheroes played it straight.", "is_fresh": 0, "author": ["Tom Shone"]},
{"text": "The film finds absurd comedy by juxtaposing the extraordinary with deliciously prosaic details.", "is_fresh": 1, "author": ["Wendy Ide"]},
{"text": "A little light to be anything other than pleasingly disposable.", "is_fresh": 1, "author": ["Ed Whitfield"]},
{"text": "In its own weird little way, Thor: Ragnarok manages to poke fun at the constant churn of myth and entertainment of which the movie itself is a part. It's a candy-colored cage of delights, but it is a cage nevertheless - and it doesn't hide that fact.", "is_fresh": 1, "author": ["Bilge Ebiri"]},
{"text": "The most riotously enjoyable Marvel movie yet.", "is_fresh": 1, "author": ["Rich Cline"]},
{"text": "That Ragnarok can even be in the conversation for best Marvel Cinematic Universe movie is a major victory for Marvel Studios.", "is_fresh": 1, "author": ["Jeffrey Lyles"]},
{"text": "Breezy, jokey, crammed with clever sci-fi ideas; the funniest MCU flick yet. Director Taika Waititi brings a new geeky verve we didn't realize the series needed.", "is_fresh": 1, "author": ["MaryAnn Johanson"]},
{"text": "These Marvel sagas are insurmountably better than the relentlessly po-faced, self-important, chaotic and cruel DC movies.", "is_fresh": 1, "author": ["David 'Mad Dog' Bradley"]},
{"text": "Thor: Ragnarok is another home run for Marvel.", "is_fresh": 1, "author": ["Jamal-Dean Grootboom"]},
{"text": "Minor quibbles aside, Thor: Ragnarok is an absolute joy.", "is_fresh": 1, "author": ["Hari Raj"]},
{"text": "You'll watch, be lightly amused for two hours, and go back to forgetting that Thor exists.", "is_fresh": 0, "author": ["Roe McDermott"]},
{"text": "Even more than the Guardians films, this has the crowded, colourful, double-page-spread look of classic Marvel, with much eye-pleasing detail. ", "is_fresh": 1, "author": ["Kim Newman"]},
{"text": "Will probably rank highly in the Marvel canon for fans, while even those somewhat worn down by the many entries will find a lot of things to like about it. A great \"soft\" reboot for the character.", "is_fresh": 1, "author": ["Chris Bumbray"]},
{"text": "Its preference for wit over CGI exhibitionism and portentous cod mythologising makes this among the best of Marvel's 17 films, and by an Asgardian country mile the funniest.", "is_fresh": 1, "author": ["Matthew Norman "]},
{"text": "It's very silly, huge fun, and actually, in its vibrant use of colour, truer to its comic- book roots than most superhero movies.", "is_fresh": 1, "author": ["Brian Viner"]},
{"text": "Ragnarok is unpretentious high-spirited entertainment that feels like a breath of fresh air.", "is_fresh": 1, "author": ["Allan Hunter"]},
{"text": "Like the antic entertainer at a children's party, director Taiki Waititi keeps us distracted with sudden noises, bright objects and silly jokes. It's not a bad plan.", "is_fresh": 1, "author": ["Stephen Whitty"]},
{"text": "Full of one-liners, bon mots and pratfalls, \"Thor: Ragnarok\" is as close as the Marvel Cinematic Universe has gotten to a full-on screwball comedy.", "is_fresh": 1, "author": ["Dustin Putman"]},
{"text": "Waititi has not found the answers in making Thor a more exciting character, but he has found ways to go around this flaw and make his film a, sometimes, inspiring affair.", "is_fresh": 1, "author": ["Jordan Ruimy"]},
{"text": "Clearly, third time is a charm for Thor as Ragnaro is the best film on the Asgardian till date, and another entry from Marvel you simply cannot miss!", "is_fresh": 1, "author": ["Neil Soans"]},
{"text": "It's no surprise the director of Boy and Hunt for the Wilderpeople could bring out a softer side to the Marvel material.", "is_fresh": 1, "author": ["Jason Di Rosso"]},
{"text": "This is a perfectly balanced film, with great pacing, an engaging plot and impeccable delivery from actors and director alike. The best fun you'll have all week.", "is_fresh": 1, "author": ["Jamie East"]},
{"text": "The question is: How's Marvel going to top the Waititi effect?", "is_fresh": 1, "author": ["Siena Yates"]},
{"text": "As much fun as it is, Ragnarok, by treating everything as an opportunity for a goof, forfeits any chance of taking root in your imagination. Nothing matters here.", "is_fresh": 0, "author": ["Kyle Smith"]},
{"text": "Turns down the Shakespearean pretensions, cranks up the humor and delivers what is essentially an action-comedy with swords and capes.", "is_fresh": 1, "author": ["Rafer Guzman"]},
{"text": "The film is directed with profligate pizzazz by iconoclastic New Zealander Taika Waititi who seems to hold two fingers up to the entire Marvel Cinematic Universe, even as he caresses it with delicate affection. ", "is_fresh": 1, "author": ["Kevin Maher"]},
{"text": "... the movie is fun enough, and Waititi shows enough moxie and goofy wit throughout... ", "is_fresh": 1, "author": ["Richard Lawson"]},
{"text": "Shot through with self-deprecating wit, slapstick (and knockabout) humour and all kinds of eccentric characters and elements, Thor: Ragnarok feels fresh, exciting and hugely entertaining.", "is_fresh": 1, "author": ["Rob Carnevale"]},
{"text": "... a superhero movie that's not afraid to be silly.", "is_fresh": 1, "author": ["Alistair Harkness"]},
{"text": "... no fanatic will ask for a ticket refund from admissions. [Full review in Spanish] ", "is_fresh": 1, "author": ["Gaspar Zimerman"]},
{"text": "It's the first Thor movie that will make you want to see more Thor movies, because it's the first Thor movie with an idea of what makes its titular hero worth rooting for.", "is_fresh": 1, "author": ["Alex Abad-Santos"]},
{"text": "Thor: Ragnarok is packed tight with zooming space vehicles and noisy thunder battles, but the movie's extravagant excess is more narcotizing than energizing. Even poor Thor seems lost in all of it, and he's supposed to be its star.", "is_fresh": 0, "author": ["Stephanie Zacharek"]},
{"text": "Granted, there are probably more monsters and CGI battles and explosions than the movie needs. But director Waititi and star Hemsworth keep this Thor party hopping like it's 1999 and Ragnarok will never come. Good times.", "is_fresh": 1, "author": ["Peter Travers"]},
{"text": "You could almost argue Thor: Ragnarok is too funny. ", "is_fresh": 1, "author": ["Matt Neal"]},
{"text": "Director Taika Waititi and his improbably buffed star Chris Hemsworth have deployed lashings of humour to grease the cogs of yet another wind-up franchise vehicle. And, to their credit, they've done a swell job.", "is_fresh": 1, "author": ["Jim Schembri"]},
{"text": "Somewhere near the end of this made-for-the-fans installment, Cate Blanchett states, \"To be honest, I was expecting better\". I hear you, sister.", "is_fresh": 1, "author": ["Joanna Langfield"]},
{"text": "Start grouchy and you may hate it. Stick a smile on your face and it will stay there.", "is_fresh": 1, "author": ["Nigel Andrews"]},
{"text": "It's good to see Ruffalo liberated from the more masochistic portrait in Avengers: The Age of Ultron, and with a fresh partner in Tessa Thompson.", "is_fresh": 1, "author": ["David Edelstein"]},
{"text": "God of Thunder fights his villainous sister to defend Asgard in a splashy, joke-filled Marvel outing.", "is_fresh": 1, "author": ["Daniel Eagan"]},
{"text": "It adds up to a dense, extraordinarily funny and more-or-less non-stop great time.", "is_fresh": 1, "author": ["Graeme Tuckett"]},
{"text": "The film is at its best in the brutish bromance between Thor and the Hulk as they compete for the Valkyrie's affections and the title of the strongest Avenger.", "is_fresh": 1, "author": ["Vicky Roach"]},
{"text": "Taken on its own patchwork terms, Thor: Ragnarok is mostly diverting entertainment, though no match for what [Taika] Waititi can achieve on his own with a fraction of the budget.", "is_fresh": 1, "author": ["Jake Wilson"]},
{"text": "Taking a character who has become embedded in the popular psyche and doing something slightly twisted with them is a good way of ensuring continuity while thumbing one's nose at the familiarity of contempt.", "is_fresh": 1, "author": ["Alex Doenau"]},
{"text": "Taika Waititi brings to the Thor table is an ability to match laughs with some genuine heart. The film is different, it is weird, there is a lot going on, but there is also a galactic portion of fun. This could be Marvel's first cult classic.", "is_fresh": 1, "author": ["Jonathan Roberts"]},
{"text": "Taika Waititi's Thor: Ragnarok is a breath of fresh air in the MCU, but still feels very much like a Marvel movie - for better or worse.", "is_fresh": 1, "author": ["Molly Freeman"]},
{"text": "[Taika] Waititi knows exactly what his is doing, when the most grizzled, hard-drinking male figure here is female (Tessa Thompson, giving it her full Han Solo treatment).", "is_fresh": 1, "author": ["John Lui"]},
{"text": "The God of Thunder throws more punchlines than punches in Marvel's latest.", "is_fresh": 1, "author": ["Julian Roman"]},
{"text": "Guardians of the Galaxy may have done it first, but Thor: Ragnarok does it best.", "is_fresh": 1, "author": ["Simon Miraudo"]},
{"text": "Thor 1.0 grumbled as he saved the world; new Thor 2.0 makes small talk with a skeleton to pass the time. The latter works better. ", "is_fresh": 1, "author": ["Mara Reinstein"]},
{"text": "Full of action, laughs, and spirited fun, Thor: Ragnarok is a fine Marvel movie. But lacking a heaving heart, it's a disappointing Waititi offering.", "is_fresh": 1, "author": ["Kristy Puchko"]},
{"text": "Waititi embraces the outlandish possibilities of the Marvel universe through the costumes, torture devices and fiery demons that threaten to demolish civilisation.", "is_fresh": 1, "author": ["Katherine McLaughlin"]},
{"text": "Ragnarok entertains without stunning. [Full Review in Spanish]", "is_fresh": 1, "author": ["Benjam\u00edn Harguindey"]},
{"text": "Tessa Thompson as Valkyrie is stealing every scene she is in.", "is_fresh": 1, "author": ["Marykate Jasper"]},
{"text": "It's funny, spectacular and wonderfully faithful to its comic-book origins.", "is_fresh": 1, "author": ["Matthew Bond"]},
{"text": "I can say nothing kinder about Thor: Ragnarok than that it is not \"one for the fans\". It's for anybody at home to the throb of a sub-woofer and the scent of the herb.", "is_fresh": 1, "author": ["Donald Clarke"]},
{"text": "Thor: Ragnarok is the best installment of the series. [Full review in Spanish]", "is_fresh": 1, "author": ["Yago Garc\u00eda"]},
{"text": "Thor: Ragnarok is good-natured, warm and funny and it really feels like Waititi's movie.", "is_fresh": 1, "author": ["Rosie Fletcher"]},
{"text": "It's hammer time again and Thor Ragnarok rocks with laughter put the emphasis on the \"comic\" in comic book moviemaking. The cast is up to the challenge.", "is_fresh": 1, "author": ["Pete Hammond"]},
{"text": "I'm normally the first to moan about the awful ubiquity of the superhero genre, but when they get these things right, one has to admit they can be fun.", "is_fresh": 1, "author": ["Paul Whitington"]},
{"text": "If you're already a fan of Waititi, Ragnarok will be like a warm bath of his particular brand of humour, but if - for some reason - you like your comic book movie homogenous, it might not be for you. But maybe try broadening your horizons, yeah?", "is_fresh": 1, "author": ["Simon Gallagher"]},
{"text": "Funniest Thor movie has tons of style, plenty of violence. ", "is_fresh": 1, "author": ["Michael Ordo\u00f1a"]},
{"text": "If the Thor films have been a bit 'meh' thus far, by allowing Waititi room to do his genuinely eccentric thing, the 17th film in the Marvel Cinematic Universe might just be its best.", "is_fresh": 1, "author": ["Emma Simmonds"]},
{"text": "Thor: Ragnarok is an exhilarating, fresh take on the superhero movie, a smashingly good two hours of fun you won't want to take back.", "is_fresh": 1, "author": ["Wenlei Ma"]},
{"text": "With its heart powered by Led Zeppelin's Immigrant Song, this is superhero rock 'n' roll with lashings of Waititi-led comedy.", "is_fresh": 1, "author": ["James Mottram"]},
{"text": "...almost certainly the best time you'll have at the movies this year.", "is_fresh": 1, "author": ["Travis Johnson"]},
{"text": "Thor: Ragnarok is an awesomely entertaining premier league win for Thor that fizzes with inventive energy. Nine years and 17 movies into the MCU, that's got to be worth some serious flagons of ale.", "is_fresh": 1, "author": ["Michael Coldwell"]},
{"text": "Ragnarok seems more self-aware than even Guardians of the Galaxy.", "is_fresh": 1, "author": ["Fred Topel"]},
{"text": "A step forward for 'Thor' but not for the larger universe of which it's part. [Full review in Spanish]", "is_fresh": 1, "author": ["Mikel Zorrilla"]},
{"text": "Thor and his friends turn the film into a pool party where everything is pure entertainment. [Full review in Spanish]", "is_fresh": 1, "author": ["Alejandro G. Calvo"]},
{"text": "With the movie going full-bore with both the comedy and the weirder aspects of the Marvel Universe, this is the most tonally coherent and entertaining Thor movie to date.", "is_fresh": 1, "author": ["Don Kaye"]},
{"text": "\"Thor: Ragnarok\" is the most fun of the Thor movies by a long shot, but it is still very much a Thor movie for better or worse.", "is_fresh": 1, "author": ["Lindsey Bahr"]},
{"text": "As awesome as Thor is, as devious as Loki is, as badass as Hulk is, Ragnarok is at its best when Valkyrie is on the screen.", "is_fresh": 1, "author": ["Germain Lussier"]},
{"text": "In a world of portentous blockbusters getting ever darker, it's a joy to see one throwing on the disco lights.", "is_fresh": 1, "author": ["Philip De Semlyen"]},
{"text": "One thing about Taika Waititi is evident: he is 100% worthy, and the power of Thor is his.", "is_fresh": 1, "author": ["Drew McWeeny"]},
{"text": "It is definitely no classic, but an appreciably looser, livelier approach will reinvigorate those beginning to tire of the standard Marvel formula.", "is_fresh": 1, "author": ["Leigh Paatsch"]},
{"text": "[O]ne of the boldest and most sensuous of the MCU releases... outrageously entertaining, sure to please all ages & turn Thor into a far more popular character with mainstream audiences...", "is_fresh": 1, "author": ["Mark Hughes"]},
{"text": "Brighter and brasher than its predecessors, Ragnarok has that age-reversing allure that gives the same kind of high as when you first had your paws on the pages of comics way back when.", "is_fresh": 1, "author": ["Harry Guerin"]},
{"text": "A whimsical distraction of a movie, and it's worth recommending on that level, but it clearly had the potential to be so much more.", "is_fresh": 1, "author": ["William Bibbiani"]},
{"text": "Thor: Ragnarok plunges headfirst into unbridled comedy and Waititi gives his actors ample room to showcase their natural comedic talents, especially Hemsworth and Blanchett.", "is_fresh": 1, "author": ["Kelli Weston"]},
{"text": "Thor: Ragnarok is the wittiest and most straightforwardly enjoyable of Marvel's blockbusters.", "is_fresh": 1, "author": ["Nicholas Barber"]},
{"text": "Thor: Ragnarok is a lot of fun, but its heart belongs to Planet Hulk and not the realm whose existence is at stake.", "is_fresh": 1, "author": ["Jim Vejvoda"]},
{"text": "It just might - might! - be the greatest Marvel movie.", "is_fresh": 1, "author": ["David Jenkins"]},
{"text": "Both the banter and the fighting, it should be noted, are excellent, so whether you go to superhero movies for the glossy escapism or the pulse-pounding action, you'll get your large soda's worth.", "is_fresh": 1, "author": ["Alonso Duralde"]},
{"text": "Taika Waititi offers Marvel majesty via Monty Python.", "is_fresh": 1, "author": ["Dave Schilling"]},
{"text": "This film is a glorious carnival of nonsense.", "is_fresh": 1, "author": ["Alex Godfrey"]},
{"text": "Thor: Ragnarok is fun in its own kinetic, comic book fashion but it doesn't have any dramatic urgency whatsoever.", "is_fresh": 1, "author": ["Geoffrey Macnab"]},
{"text": "Even tonal issues can't upend the magic this movie taps into putting Thor and Hulk together as new best buddies, whether they're throwing down in an arena or having a bromantic heart-to-heart.", "is_fresh": 1, "author": ["Brian Truitt"]},
{"text": "It basically throws up its hands at its own ridiculousness and plays it all for laughs - and it gets them.", "is_fresh": 1, "author": ["Steve Rose"]},
{"text": "This is top to bottom Hemsworth's movie, and in his fifth time playing Thor, is at his very peak, and that's quite the heroic feat.", "is_fresh": 1, "author": ["Kyle Anderson"]},
{"text": "It deviates from everything it's structured the franchise to be, but it's also a perfect example of taking big risks for even bigger wins.", "is_fresh": 1, "author": ["Brock Wilbur"]},
{"text": "A film that's simply a joy to watch, with a personality that's wholly its own.", "is_fresh": 1, "author": ["Bryan Bishop"]},
{"text": "You never have to wait more than five minutes for a joke or well-placed wisecrack. Anytime there's a danger of someone giving a cliched, worthy speech about power and responsibility there's a one liner delivered like a slap to the back of the head.", "is_fresh": 1, "author": ["Kevin Harley"]},
{"text": "The best of the Thor features and impressively one of the better MCU offerings.", "is_fresh": 1, "author": ["Eric Eisenberg"]},
{"text": "Ragnarok rocks.", "is_fresh": 1, "author": ["Jeremy Aspinall"]},
{"text": "It's funny, charming, dazzling, gorgeously designed, and full of actors you already like.", "is_fresh": 1, "author": ["Robbie Collin"]},
{"text": "Daft as a badger sandwich and twice as funny, this is vintage Waititi, and the boldest, most outrageously fun film Marvel has yet produced.", "is_fresh": 1, "author": ["James Dyer"]},
{"text": "Easily the funniest Marvel film to date, a huge achievement this far down the line and something that will have audiences crying tears of laughter.", "is_fresh": 1, "author": ["George Simpson"]},
{"text": "Ragnarok is basically a Joke Delivery System - and on that score, it works. The movie is fun.", "is_fresh": 1, "author": ["Chris Nashawaty"]},
{"text": "As it arrives poised for a megalithic box-office haul, it might be helpful to keep in mind the advice offered by one character: \"You cannot stop Ragnarok. Why fight it?\"", "is_fresh": 1, "author": ["Sheri Linden"]},
{"text": "While it's not saying much, \"Thor: Ragnarok\" is easily the best of the three Thor movies - or maybe I just think so because its screenwriters and I finally seem to agree on one thing: The Thor movies are preposterous.", "is_fresh": 0, "author": ["Peter Debruge"]},
{"text": "Closer to the feel of the Guardians of the Galaxy movies, presenting itself as a colourful space adventure with shades of Flash Gordon.", "is_fresh": 1, "author": ["Matthew Turner"]},
{"text": "Ragnarok isn't one of the more meaningful Marvel movies -- it's just an old-fashioned superhero smackdown. And sometimes that's exactly what you want in a comic book.", "is_fresh": 1, "author": ["Luke Y. Thompson"]},
{"text": "A crazy, colorful, ambitious, hilarious ride through the cosmos.", "is_fresh": 1, "author": ["Mike Ryan"]},
{"text": "Strong visuals, gonzo action and a high comedy compensate for generic plotting, a padded midsection and a lack of drama.", "is_fresh": 1, "author": ["Scott Mendelson"]},
{"text": "Leans in to the notion that Thor laughs in the face of danger by creating a movie that invites the audience to laugh right along with him.", "is_fresh": 1, "author": ["Matt Singer"]},
{"text": "Let loose on the Marvel universe, Waititi manages not only to keep the faithful happy, but also bring his own brand of silliness to the proceedings without ever falling into predictable territory.", "is_fresh": 1, "author": ["Linda Marric"]},
{"text": "Thor has finally found his place in the MC Universe, and it's in comedy. ", "is_fresh": 1, "author": ["Matt Looker"]},
{"text": "A grinningly goofy comic-book movie that reverberates with boyish delight.", "is_fresh": 1, "author": ["Tim Grierson"]}
]