[
{"reviews_count": "183", "title": "Titanic", "avg_audience_rating": "3.3", "rotten_count": "21", "tomatometer": "89", "audience_score": "69", "avg_critic_rating": "  8", "fresh_count": "162", "user_ratings_count": "35,797,212"},
{"text": "Titanic has deservedly cemented its place as one of the greatest movies of all time, as it manages to capture the wretchedness of historical tragedy while also skilfully enrapturing us with the dedication shown by one person to another...", "is_fresh": 1, "author": ["Hannah Ryan"]},
{"text": "The dialogue may be unspeakable, but the film remains unsinkable.", "is_fresh": 1, "author": ["Matthew Sweet"]},
{"text": "Cameron's aim was to set the most intimate love story possible against one of the century's biggest tragedies, and he very nearly pulls it off. DiCaprio has a captivating presence in a role that might have been written for a young Clark Gable.", "is_fresh": 1, "author": ["Jack Mathews"]},
{"text": "What I can tell you, risking puns, is that it swept me off my feet almost from the get-go, a grand epic romance-disaster that reminded me, in the middle of my overstuffed-with-movies life, of what we mean when we talk about the power of cinema.", "is_fresh": 1, "author": ["Alissa Wilkinson"]},
{"text": "Sure, 'Titanic' may be corny, clumsy, and obvious-but the sincerity of its emotions and the power of its spectacle endure.", "is_fresh": 1, "author": ["Jason Bailey"]},
{"text": "Cameron has devised a tender love story between Kate Winslet and Leonardo DiCaprio that serves as the main focus of Titanic's storyline, and it works beautifully.", "is_fresh": 1, "author": ["Paul Tatara"]},
{"text": "If computer-generated special effects have overpowered human-generated drama, Cameron seizes that dangerously cold technology and recasts it as dream and delirium, profoundly human in its sources and longings.", "is_fresh": 1, "author": ["Dave Kehr"]},
{"text": "The execution is state-of-the-art and breathtaking. Titanic offers the full compass of courage and cowardice, and it stands as an achievement that truly is a night to remember at the movies.", "is_fresh": 1, "author": ["Desmond Ryan"]},
{"text": "Titanic provides an absorbing blend of historical fact and old-fashioned Hollywood tearjerking.", "is_fresh": 1, "author": ["Maria Schneider"]},
{"text": "Titanic is indeed a ship of dreams. Climb aboard and bon voyage.", "is_fresh": 1, "author": ["Jay Boyar"]},
{"text": "DiCaprio and Winslet both deliver star-making performances.", "is_fresh": 1, "author": ["Leah Rozen"]},
{"text": "Take one of history's most compelling tragedies, tell it through the lives of two engaging young lovers and show it with some of the best-ever special effects and you have a dazzling, exciting movie that is also poignant and personal.", "is_fresh": 1, "author": ["Joe Holleman"]},
{"text": "It's a technically magnificent and emotionally wrenching experience.", "is_fresh": 1, "author": ["Serena Donadoni"]},
{"text": "Titanic is an awesome achievement, a traditional Hollywood epic that dazzles your eyes, breaks your heart and shivers your soul.", "is_fresh": 1, "author": ["Rod Dreher"]},
{"text": "DiCaprio manages a good mix of youthful bravado and nervous uncertainty... And Winslet shines as a willful rich girl who discovers her sensual side with this earthy urchin.", "is_fresh": 1, "author": ["Chris Knight"]},
{"text": "With his beatific, sweet, open face, DiCaprio gives us a rooting interest in hoping that someone important to us survives the wreck.", "is_fresh": 1, "author": ["Gene Siskel"]},
{"text": "Titanic 3D lacks creative synergy that could have been explored had the film been shot with 3D in mind but its easily the best example of post-conversion to date.", "is_fresh": 1, "author": ["Ben Kendrick"]},
{"text": "A staggering film, layered with melodramatic romance, tragedy, intensity and breathtaking production design.", "is_fresh": 1, "author": ["R.L. Shaffer"]},
{"text": "Jack and Rose actually cause the Titanic to hit the iceberg. Watch closely. ", "is_fresh": 1, "author": ["Jim Schembri"]},
{"text": "Director James Cameron takes one of his most beloved historical incidents and transforms it in to a McDonald's product...", "is_fresh": 0, "author": ["Felix Vasquez Jr."]},
{"text": "While I admit the film does not impress me as much as it does most other people, there is no questioning its passion and excitement.", "is_fresh": 1, "author": ["John J. Puccio"]},
{"text": "When the bolts start to pop and the water bursts the bulkheads and the ship's orchestra plays waltzes, writer-director Cameron achieves his vision grandly.", "is_fresh": 1, "author": ["Kelly Vance"]},
{"text": "The most breezy 194 minutes ever to grace the multiplex.", "is_fresh": 1, "author": ["Charlie Lyne"]},
{"text": "The clunky dialogue, historical inaccuracy and overdose of Billy Zane in the opening stanza of the film is all but forgotten in one of the most emotionally affective, thrilling closing stanzas ever committed to celluloid. ", "is_fresh": 1, "author": ["Blake Howard"]},
{"text": "'Titanic' is an epic that's see-worthy indeed. Directed/written/produced by James Cameron, its $200 million budget shows in its glorious effects, dazzling camera work and lavish sets, now, with the addition of Cameron's carefully crafted 3-D.", "is_fresh": 1, "author": ["Linda Cook"]},
{"text": "Yes, it is time to return to the chilly North Atlantic to appreciate again James Cameron's glorious epic, for its scope, underappreciated script and perfect casting. ", "is_fresh": 1, "author": ["Bruce Bennett"]},
{"text": "Two spitting scenes in 3D and Jack Dawson loses his virginity. A second look indicates a cruel streak in the modern epic. ", "is_fresh": 1, "author": ["Victoria Alexander"]},
{"text": "Spoiler alert! The ship still sinks.", "is_fresh": 1, "author": ["Brett Michel"]},
{"text": "It is, simply, a great film, a throwback to classic filmmaking, and more than that, an experience with unusual resonance to the world of today.", "is_fresh": 1, "author": ["Burl Burlingame"]},
{"text": "The kind of mass death spectacle Michael Bay is frequently accused (and often guilty) of partaking in is much better encapsulated in Titanic's final third.", "is_fresh": 1, "author": ["Rob Humanick"]},
{"text": "If you can get past the occasional Cameron clunker (Who can forget, \"I'm the king of the world!\") and Zane's almost amusingly over-the-top turn as Cal, Titanic still manages to make the tragedy seem more vivid than a statistic in a history book.", "is_fresh": 1, "author": ["Dan Lybarger"]},
{"text": "Forget that we know how it all ends; it's the drama of dealing with eventuality that tells the real story here.", "is_fresh": 1, "author": ["Kevin A. Ranson"]},
{"text": "15 years ago, I didn't let Titanic into my heart, now I get it. Movie is fantastic, but utterly fails as a 3D reissue.", "is_fresh": 0, "author": ["Michelle Alexandria"]},
{"text": "While Titanic can't touch Cameron's true classics, The Terminator and Aliens, it's nevertheless better than Avatar, a surface treat that can't match the emotional pull of this alternately tragic, alternately triumphant tale of two star-crossed lovers.", "is_fresh": 1, "author": ["Matt Brunson"]},
{"text": "Simply one of 20th century cinema's greatest, old-fashioned love stories, full of still impressive effects (pre 3D) and decent, if theatrical acting ... ", "is_fresh": 1, "author": ["Lisa Giles-Keddie"]},
{"text": "Titanic evidences the secret of his longtime success, a talent more impressive even than Cameron's technical prowess: his ability to find stories that tap into greater truths and deeper feelings.", "is_fresh": 1, "author": ["Todd Gilchrist"]},
{"text": "Forget women and children, what about truth and realism first?", "is_fresh": 0, "author": ["Ed Whitfield"]},
{"text": "We know the story ends badly but Cameron still sweeps us up in the romance between Kate Winslet's rebellious posh girl and DiCaprio's steerage kid.", "is_fresh": 1, "author": ["Cath Clarke"]},
{"text": "Titanic still works brilliantly; it's a grand-scale studio epic with the heart of a romance and the pulse of an action movie. It's the only American film that rivals Gone With The Wind for both swoonery and production value.", "is_fresh": 1, "author": ["Norman Wilner"]},
{"text": "Titanic is a movie that has to be seen on the big screen and will enchant a new generation of fans. A must-see 3D experience.", "is_fresh": 1, "author": ["Alex Zane"]},
{"text": "It has itself become, like the shipwreck, a cultural monument, only accreting value, not losing significance, as time goes by.", "is_fresh": 1, "author": ["David Sexton"]},
{"text": "Cameron hasn't plugged any of the plot holes and some dialogue is still cheesy but now, just as in 1998, we forgive him a multitude of sins.", "is_fresh": 1, "author": []},
{"text": "Cameron's three-hour disaster epic is a triumph of popular art -- of folk art, really.", "is_fresh": 1, "author": ["Dana Stevens"]},
{"text": "\"Titanic\" still amazes as the kind of massive, build-and-destroy production that few filmmakers have the ambition or budget to make.", "is_fresh": 1, "author": ["Rafer Guzman"]},
{"text": "[Cameron] stages the sinking with a flawless sense of detail, pacing, import and dread.", "is_fresh": 1, "author": ["Ann Hornaday"]},
{"text": "For all of its flaws, this movie works in the way that classic Hollywood movies do. It delivers.", "is_fresh": 1, "author": ["Alonso Duralde"]},
{"text": "Its emotional impact lies in the fact it makes even the most blas\u00e9 of us feel what it must have been like to be on the sinking ship. And the film's underlying themes still have potency.", "is_fresh": 1, "author": ["Christopher Tookey"]},
{"text": "Only the snobbish or the obtuse could deny its ambition, verve and entertainment firepower.", "is_fresh": 1, "author": ["Peter Bradshaw"]},
{"text": "This version has deepened and enriched a film that was already rich in emotions and remarkable for its depth of detail.", "is_fresh": 1, "author": ["Joe Morgenstern"]},
{"text": "How is Titanic in 3D? The answer is pretty damn dazzling.", "is_fresh": 1, "author": ["Peter Travers"]},
{"text": "Those who've only seen it on video don't think the film is that big a deal. Trust me, it is. Even with the dragged out love story, Cameron's film is still mind-blowing.", "is_fresh": 1, "author": ["Gary Wolcott"]},
{"text": "Titanic went from a certain failure to a feature everyone had to see. If you were in a training bra during its initial theatrical release, you probably saw it a few more times than everyone else. ", "is_fresh": 1, "author": ["Brian Orndorf"]},
{"text": "If you fancy indulging in pure, unadulterated silliness and spending a night in the '90s, this is a good bet. Otherwise...", "is_fresh": 0, "author": ["Basia Cummings"]},
{"text": "Reissued to tie in with the 100th anniversary of the Titanic's ill-fated maiden voyage, it's astonishing how timeless the film looks. And as a true classic, it doesn't lose our attention for a moment.", "is_fresh": 1, "author": ["Rich Cline"]},
{"text": "Titanic is a sumptuous assault on the emotions, with a final hour that fully captures the horror and the freezing, paralysing fear of the moment.", "is_fresh": 1, "author": ["Adrian Turner"]},
{"text": "Cameron is a genius at instilling narrative dread and designing a hokum-drenched fairy tale of a certain size.", "is_fresh": 1, "author": ["Michael Phillips"]},
{"text": "Like the film or don't like the film, there are very few filmmakers working now or ever who could have done what Cameron did here, no matter what resources they had.", "is_fresh": 1, "author": ["Drew McWeeny"]},
{"text": "Near, far, wherever you are sitting in the theater, the newly revamped Titanic now has stuff coming out at you.", "is_fresh": 1, "author": ["L. Thompson"]},
{"text": "If any film should be redone in 3-D, it's \"Titanic.\" And if any filmmaker should be the one doing the redoing, it's James Cameron.", "is_fresh": 1, "author": ["Christy Lemire"]},
{"text": "A timeless epic that gets me every time (yes, I needed my own life raft at the screening), the power of the storytelling and the performances by Kate Winslet and Leonardo DiCaprio grip throughout.", "is_fresh": 1, "author": ["Henry Fitzherbert"]},
{"text": "It's so easy to see how this film that's still so enjoyable from start to end has become so iconic.", "is_fresh": 1, "author": ["Josh Forward"]},
{"text": "Revisiting Titanic on the big screen, this time in impressive 3D, is a welcome reminder of solid blockbuster movie magic.", "is_fresh": 1, "author": ["Michael Simms"]},
{"text": "The central love story involving steerage passenger Leonardo DiCaprio and rich girl Kate Winslet has lost none of its luster - metaphorically speaking.", "is_fresh": 1, "author": ["Gary Thompson"]},
{"text": "With a 3D conversion from the medium's pioneer-in-chief, Titanic is a big-screen romance that's every bit as epic as you remember.", "is_fresh": 1, "author": ["Philip De Semlyen"]},
{"text": "It's for old-fashioned romantics who want to see a classic love story on the grandest scale.", "is_fresh": 1, "author": ["Graham Young"]},
{"text": "It's certainly a jaw-dropping big screen experience, even though the outcome is never in doubt. Just make sure you bolt for the door once Celine Dion's caterwauling kicks in.", "is_fresh": 1, "author": ["Simon Reynolds"]},
{"text": "A thoroughly gripping, emotionally powerful, genuinely thrilling and, yes, achingly romantic drama with jaw-dropping special effects and star-making performances from DiCaprio and Winslet.", "is_fresh": 1, "author": ["Matthew Turner"]},
{"text": "\"Titanic 3D\" works because it's still \"Titanic,\" a satisfying merger of newfangled effects and oldfangled melodrama. Judging by the wave of sniffles at the sneak preview screening I saw Tuesday night, it's a formula that endures 15 years later. ", "is_fresh": 1, "author": ["Rob Thomas"]},
{"text": "The re-release is keenly timed with the 100th anniversary of the actual sinking of the RMS Titanic, yet another factor to validate the 3D film's existence.", "is_fresh": 1, "author": ["R. Kurt Osenlund"]},
{"text": "Sure, it's corny, but there's something endearing about the tale of young love and its earnest lack of irony.", "is_fresh": 1, "author": ["Claudia Puig"]},
{"text": "Leo and Kate give good doomed romance but it's the human horror of the collision, botched evacuation and final sinking that devastates most.", "is_fresh": 1, "author": ["Emma Dibdin"]},
{"text": "Cameron's detractors grouse about his use of scale and spectacle to invest archetypal, even clich\u00e9d stories with an extra, unearned emotional significance. They're absolutely right, with one crucial caveat: there's absolutely nothing unearned about it.", "is_fresh": 1, "author": ["Robbie Collin"]},
{"text": "Like Kathy Bates' \"unsinkable\" Molly Brown, \"Titanic\" is unabashedly American: It's big, brash and sometimes gauche, yet also unapologetically earnest, amazing to look at and devoted to its own cause. And it knows how to win us over.", "is_fresh": 1, "author": ["Joe Neumaier"]},
{"text": "Overall, for a blockbuster movie about one great big thing hitting another great big thing, the new film shows distinctly upper-deck restraint.", "is_fresh": 1, "author": ["Liam Lacey"]},
{"text": "The letdown factor has been most keenly felt in conversions from 2D, but Titanic 3D shows how the ambition can be realized if the will and skill are there. We can only hope that other filmmakers follow Cameron's example.", "is_fresh": 1, "author": ["Peter Howell"]},
{"text": "But the power of Titanic didn't come from originality; it came from punching clich\u00e9s across with a seldom-seen directness and sincerity that seemed pure of heart, \"old-fashioned,\" or plain corny, depending on your perspective.", "is_fresh": 1, "author": ["Nick Pinkerton"]},
{"text": "James Cameron's spectacular new 3-D version of \"Titanic'' is everything I'd hoped for, and more.", "is_fresh": 1, "author": ["Lou Lumenick"]},
{"text": "I found the length tedious, some of the dialogue eye-rolling and some of the digital effects lacking (the digital ship's digital wake seemed puny) when \"Titanic\" first came out. But those quibbles fade with time. ", "is_fresh": 1, "author": ["Roger Moore"]},
{"text": "Here is a rare opportunity to return to something you once loved, and discover it still holds up, no apologies necessary. ", "is_fresh": 1, "author": ["Rene Rodriguez"]},
{"text": "Still a spectacular cinematic experience that, if nothing else, will remind moviegoers why they fell in love with it in the first place.", "is_fresh": 1, "author": ["Scott A. Mantz"]},
{"text": "A modern-day take on the classic Hollywood romance, delivered with the kind of panache long thought lost to the sands of time, that proves essentially timeless.", "is_fresh": 1, "author": ["Ed Gibbs"]},
{"text": "Turns out hubris and greed float, like sorrow. ", "is_fresh": 1, "author": ["Paul Byrnes"]},
{"text": "The unprecedented special effects...never overpower the fictional love story and historical human tragedy which are presented. It's not only awe-inspiring, it's surprisingly moving. ", "is_fresh": 1, "author": ["Laura Clifford"]},
{"text": "As dreadful as another post conversion of a blockbuster may sound, this is as good as it gets", "is_fresh": 1, "author": ["JimmyO"]},
{"text": "Great movie, but not appropriate for all kids.", "is_fresh": 1, "author": ["Sandie Angulo Chen"]},
{"text": "Exactly what it says on the label: a deliciously overwrought melodramatic love story, capped off with one of the greatest special effects achievements of the 1990s.", "is_fresh": 1, "author": ["Tim Brayton"]},
{"text": "Feeling dispassionate about Titanic is a bit like being stranded alone on the North Atlantic.", "is_fresh": 1, "author": ["Josh Larsen"]},
{"text": "Extravagant, exhilarating, devastating, poetic, romantic and totally unforgettable, Titanic is an extraordinary achievement in film making, where technology astounds, yet the human story shines even brighter", "is_fresh": 1, "author": ["Louise Keller"]},
{"text": "You will walk out of Titanic not talking about budget or running time, but of its enormous emotive power, big as the engines of the ship itself, determined as its giant propellers to gouge into your heart, and as lasting as the love story that propels it.", "is_fresh": 1, "author": ["Andrew L. Urban"]},
{"text": "Now it can be told: The Titanic went down because of two distracting smoochers on the poop deck.", "is_fresh": 0, "author": ["David Edelstein"]},
{"text": "In the end, Cameron's monumental epic still prises open the tear ducts.", "is_fresh": 1, "author": []},
{"text": "A spectacular demonstration of what modern technology can contribute to dramatic storytelling.", "is_fresh": 1, "author": ["Todd McCarthy"]},
{"text": "Titanic is a good, often stunning movie caught in a three-and-a-half hour drift.", "is_fresh": 0, "author": ["Desson Thomson"]},
{"text": "This is Cameron at his best.", "is_fresh": 1, "author": ["Stephen Hunter"]},
{"text": "Titanic is big, bold, touchingly uncynical filmmaking.", "is_fresh": 1, "author": ["David Ansen"]},
{"text": "Cameron skillfully applies sophisticated special effects to classic American storytelling, resulting in a winning combination of a tale that's modern and old-fashioned, delivering the goods expected of the disaster genre.", "is_fresh": 1, "author": ["Emanuel Levy"]},
{"text": "There is nothing to dislike about this film.", "is_fresh": 1, "author": ["Gary Brown"]},
{"text": "Titanic runs well enough in the backstretch of intrigue and contrivance to cross the finish line well ahead of all but a few of the screen's superspectacles in this century.", "is_fresh": 1, "author": ["Andrew Sarris"]},
{"text": "Perhaps the most melancholy thing about Titanic is its celebration of romantic ideals to the exclusion of such self-denying virtues as honor, duty, and heroism.", "is_fresh": 0, "author": ["Steven D. Greydanus"]},
{"text": "Cost: well over $200m. Disregarding the ethics of such expenditure on a film, this unprecedented extravagance has not resulted in sophisticated or even very satisfying storytelling.", "is_fresh": 0, "author": ["Geoff Andrew"]},
{"text": "A brilliantly designed, but emotionally shallow romance set during the infamous sinking of the luxury liner in 1912.", "is_fresh": 1, "author": ["Jeffrey M. Anderson"]},
{"text": "A grand and classy production.", "is_fresh": 1, "author": ["Douglas Pratt"]},
{"text": "It's something of an ingenuous revision of the standard disaster movie.", "is_fresh": 1, "author": ["Eric Henderson"]},
{"text": "An enormous technical achievement with a wonderfully big heart.", "is_fresh": 1, "author": ["Robin Clifford"]},
{"text": "The spectacle of the ship will enchant you, and the tragedy of the victims will haunt you for many days after you've seen it.", "is_fresh": 1, "author": ["Jeffrey Overstreet"]},
{"text": "Abyss-mal.", "is_fresh": 0, "author": ["Martin Scribbs"]},
{"text": "Rose and Jack are burdened with simplistic characterisation and atrocious dialogue.", "is_fresh": 0, "author": ["Dragan Antulov"]},
{"text": "The plot before the collision is almost dispensable, but from that moment on, it is absolutely riveting.", "is_fresh": 1, "author": ["John R. McEwen"]},
{"text": "Yes, Jack Dawson and Rose DeWitt Bukater are flimsyish characters, but DiCaprio and Winslet still have the formidable challenge as actors to gauge the levels of their performances against the galvanizing visual and technotronic aspects of the film.", "is_fresh": 1, "author": ["Nick Davis"]},
{"text": "The film is the best of the year.", "is_fresh": 1, "author": ["Chris Gore"]},
{"text": "An old-fashioned epic, a brawny drama built on tragedy, adventure, romance, charismatic stars and jaw-dropping, high-tech special effects.", "is_fresh": 1, "author": ["Margaret A. McGurk"]},
{"text": "It lasts 3 hours, and I wasn't bored for a second.", "is_fresh": 1, "author": ["Kevin N. Laforest"]},
{"text": "Quando eu sa\u00ed do cinema n\u00e3o era apenas um espectador fascinado. Era um sobrevivente do Titanic.", "is_fresh": 1, "author": ["Pablo Villa\u00e7a"]},
{"text": "Titanic is awesome even when it's awful -- you can't take your eyes off the extraordinary thing.", "is_fresh": 1, "author": ["Rick Groen"]},
{"text": "The film's long final phase is a harrowing series of sublime images of death and those about to die.", "is_fresh": 1, "author": ["Peter Keough"]},
{"text": "The finale is a special effects dazzler but those scenes pale in comparison to the dramatic and creative ways Cameron exalts the salvific power of love.", "is_fresh": 1, "author": ["Frederic and Mary Ann Brussat"]},
{"text": "If when you see this film, you believe it's credible, God bless you and your unfortunate offspring with their damaged gene pool.", "is_fresh": 0, "author": ["Brandon Judell"]},
{"text": "Despite its failings it's hard not to become swept up in the sheer grandeur of Titanic.", "is_fresh": 1, "author": ["Almar Haflidason"]},
{"text": "The incredible finale more than makes up for its other crimes.", "is_fresh": 1, "author": ["Andrew Howe"]},
{"text": "In his brilliant, monumental film Titanic, one of the most popular and beloved Hollywood movies of the past 50 years, James Cameron revisited that night in all its horror and glory.", "is_fresh": 1, "author": ["James Kendrick"]},
{"text": "What really brings on the tears is Cameron's insistence that writing this kind of movie is within his abilities.", "is_fresh": 0, "author": ["Kenneth Turan"]},
{"text": "This is a fine example of Hollywood filmmaking. This is a studio film in the best sense of the word.", "is_fresh": 1, "author": ["Robert Roten"]},
{"text": "Cameron succeeds magically in linking his film's young lovers, played enchantingly by Leonardo DiCaprio and Kate Winslet.", "is_fresh": 1, "author": ["Janet Maslin"]},
{"text": "May be the year's most effective and consistently entertaining love story.", "is_fresh": 1, "author": ["Scott Renshaw"]},
{"text": "You don't just watch Titanic, you experience it.", "is_fresh": 1, "author": ["James Berardinelli"]},
{"text": "All things considered, Titanic is old-fashioned epic filmmaking that carries a wallop.", "is_fresh": 1, "author": ["Jonathan Rosenbaum"]},
{"text": "Bursting through gaps in the hull, rushing down corridors, licking at rooms, triumphing over great ballrooms and tiny closets, down stairways and into elevators, the sea, in the hands of Cameron and his technical associates, becomes hungry, vindictive.", "is_fresh": 1, "author": ["Stanley Kauffmann"]},
{"text": "Glub glub glub.", "is_fresh": 0, "author": ["Stephanie Zacharek"]},
{"text": "I found myself convinced by both the story and the saga.", "is_fresh": 1, "author": ["Roger Ebert"]},
{"text": "The disaster is definitely worth the wait.", "is_fresh": 1, "author": ["Peter Brunette"]},
{"text": "No other film has made the horror of the ship's sinking so palpable, and none other has dared to dramatize the night of the living dead that followed after it sank beneath the North Atlantic.", "is_fresh": 1, "author": ["John Hartl"]},
{"text": "Like it or hate it, Titanic lives and breathes as a piece of pure cinema.", "is_fresh": 1, "author": ["Robert Horton"]},
{"text": "The would-be emotional centerpiece of his three-hours-plus adventure flick is the most juvenile romantic tale of 1997.", "is_fresh": 0, "author": ["Tom Keogh"]},
{"text": "Like a David Lean film, it is an intimate epic with a moving and resonant love story at its core.", "is_fresh": 1, "author": ["Joseph McBride"]},
{"text": "Who'd have thought that the most expensive film ever made could also be good cinema?", "is_fresh": 1, "author": []},
{"text": "A lush and terrifying spectacle of romantic doom.", "is_fresh": 1, "author": ["Owen Gleiberman"]},
{"text": "The movie raises important questions about choices faced by the characters.", "is_fresh": 1, "author": ["Nell Minow"]},
{"text": "James Cameron has made a miracle movie that delivers big-time.", "is_fresh": 1, "author": ["Bruce Kirkland"]},
{"text": "Watching the film again, it suddenly struck me with the force of a pop-culture hurricane: Titanic is all about Rose. It is Rose's personal journey. This hardly ever happens in films...", "is_fresh": 1, "author": ["MaryAnn Johanson"]},
{"text": "The genius of Titanic does not lie in the story itself. It lies in how the story is told.", "is_fresh": 1, "author": ["Carlo Cavagna"]},
{"text": "Titanic is a great, soft-hearted traditional epic.", "is_fresh": 1, "author": ["Dan Jardine"]},
{"text": "Titanic is a film that sweeps us away into a world of spectacle, beauty and excitement.", "is_fresh": 1, "author": ["Michael Wilmington"]},
{"text": "This disaster-action-adventure-romance flick combines epic aspiration with cartoonish simplicity, with no qualms about going for the popular jugular, jerking tears and cheers with equal obviousness.", "is_fresh": 0, "author": ["Cynthia Fuchs"]},
{"text": "An unconscionable disaster...", "is_fresh": 0, "author": ["Dennis Schwartz"]},
{"text": "James Cameron has gone and delivered a spectacular, moving, utterly engrossing three-and-a-bit hour epic.", "is_fresh": 1, "author": ["Adam Smith"]},
{"text": "You've never seen a film of more stunning visual splendor.", "is_fresh": 1, "author": ["Jack Garner"]},
{"text": "Titanic is one of his best, and raises the bar yet again.", "is_fresh": 1, "author": ["Madeleine Williams"]},
{"text": "An overwhelming cinematic experience which stuns, moves and entertains.", "is_fresh": 1, "author": ["Urban Cinefile Critics"]},
{"text": "The melodramatic love story is the perfect foreground for the sinking of the largest passenger ship in history.", "is_fresh": 1, "author": ["Marty Mapes"]},
{"text": "Titanic is not a perfect film, but it is a great film nonetheless.", "is_fresh": 1, "author": ["Mike McGranaghan"]},
{"text": "Titanic is big-budget spectacle and director Cameron brings it off with high-tech bravura, placing us aboard the ship in real time.", "is_fresh": 1, "author": ["Jay Carr"]},
{"text": "As spectacle, Titanic sets a new standard; as romantic drama, it's substandard.", "is_fresh": 0, "author": ["Susan Stark"]},
{"text": "It's still by far and away a grand, gorgeous, breathtaking spectacle.", "is_fresh": 1, "author": ["Marc Savlov"]},
{"text": "Titanic is a terrific balance of realism and romanticism.", "is_fresh": 1, "author": ["Joe Baltake"]},
{"text": "This absorbing, moving cinematic spectacle not only floats, it soars.", "is_fresh": 1, "author": ["Michael Dequina"]},
{"text": "It is filmmaking at its best.", "is_fresh": 1, "author": ["Steve Rhodes"]},
{"text": "Cameron has crafted an epic that triumphs.", "is_fresh": 1, "author": ["Edward Johnson-Ott"]},
{"text": "It is perhaps the best example in 1997 of a film which is pure, simple melodrama.", "is_fresh": 1, "author": ["Harvey S. Karten"]},
{"text": "A wonderful masterpiece of a film.", "is_fresh": 1, "author": ["Ted Prigge"]},
{"text": "Forgive me if I gush too much, for I have just come back from seeing one of the five best films ever made.", "is_fresh": 1, "author": ["Matt Easterbrook"]},
{"text": "Kudos to stars Leonardo DiCaprio and Kate Winslet, who make an appealing onscreen couple.", "is_fresh": 1, "author": ["Jeff Vice"]},
{"text": "Credit Cameron for locating that latitude-longitude spot where haunting loss intersects with sheer cinematic braggadocio. His movie may not be perfect, but visually and viscerally, it pretty well is.", "is_fresh": 1, "author": ["Mike Clark"]},
{"text": "Whatever it's pigeon-holed as, you're going to love the movie.", "is_fresh": 1, "author": ["Christopher Null"]},
{"text": "There's a lot to like here.", "is_fresh": 1, "author": ["Peter Rainer"]},
{"text": "It's clear that Titanic will be a technophile's delight.", "is_fresh": 1, "author": ["Bryant Frazer"]},
{"text": "But what's most impressive about Titanic is the evidence it shows of new maturity in Cameron's filmmaking priorities.", "is_fresh": 1, "author": ["David Sterritt"]},
{"text": "Titanic will give you your money's worth.", "is_fresh": 1, "author": ["Jeff Millar"]},
{"text": "Titanic is a remarkable achievement.", "is_fresh": 1, "author": ["Ed Kelleher"]},
{"text": "The last hour of Titanic is huge and staggering, but there's no horror in it.", "is_fresh": 0, "author": ["Mick LaSalle"]},
{"text": "Titanic is awash in truncated subplots.", "is_fresh": 0, "author": ["Barbara Shulgasser"]},
{"text": "Titanic is one of those flawless, spellbinding epics that we all know and love.", "is_fresh": 1, "author": ["David Keyes"]},
{"text": "It is opulent, daring, detailed, vastly over-priced and incomparable.", "is_fresh": 1, "author": ["Rob Blackwelder"]},
{"text": "The regretful verdict here: dead in the water.", "is_fresh": 0, "author": ["Richard Corliss"]},
{"text": "The best film of its genre ever made.", "is_fresh": 1, "author": ["Ian Waldron-Mantgani"]},
{"text": "The drama is cliched, if competently effective, but Cameron's dissolves from the Titanic's rusted hulk to her brand spanking new decks are breathtaking, even poetic.", "is_fresh": 1, "author": ["Maitland McDonagh"]},
{"text": "To take the space to try to convey to you all of the things that Cameron did right with this film would basically wipe out my alloted server storage.", "is_fresh": 1, "author": ["Widgett Walls"]},
{"text": "This is a big film with a lot to like as well as a lot to not.", "is_fresh": 1, "author": ["Mark R. Leeper"]},
{"text": "The movie's human elements are entirely stale, however appealingly packaged.", "is_fresh": 0, "author": ["Kristian M. Lin"]},
{"text": "Time skips by quickly, and there are more than a few decent supporting performances to enjoy.", "is_fresh": 1, "author": ["David N. Butterworth"]},
{"text": "What Cameron does is essentially give us a history lesson in an empowering, emphatic, entertaining way. This extraordinary flick feels like a big event with a litany of emblematic scope and impressive visual vitality.", "is_fresh": 1, "author": ["Frank Ochieng"]},
{"text": "This man makes the bluest looking movies around", "is_fresh": 1, "author": ["Shane Burridge"]},
{"text": "The events of that cold April night and their detailed reconstruction are so dramatic and so well represented here, that you really do feel as if you are there with Jack and Rose.", "is_fresh": 1, "author": ["Scott Nash"]},
{"text": "", "is_fresh": 1, "author": ["Jeanne Aufmuth"]}
]