[
{"reviews_count": "63", "title": "Who Framed Roger Rabbit", "avg_audience_rating": "3.5", "rotten_count": "2", "tomatometer": "97", "audience_score": "84", "avg_critic_rating": "8.4", "fresh_count": "61", "user_ratings_count": "442,405"},
{"text": "Technology has advanced significantly since 1988, but Roger Rabbit doesn't just hold up, it wows. ", "is_fresh": 1, "author": ["Christy Lemire"]},
{"text": "Directed by 'Robert Zemeckis, Who Framed Roger Rabbit is a murder mystery turned on its (very long rabbit) ears, and a spirited tribute to the magic of animation and laughter.", "is_fresh": 1, "author": ["Cathy Burke"]},
{"text": "It's clever, but manic. Watching Who Framed Roger Rabbit is like spending a weekend locked in a room with the looniest Looney Tunes characters.", "is_fresh": 1, "author": ["James Plath"]},
{"text": "It took many, many years before I fully processed just how impressive a technical feat Who Framed Roger Rabbit actually is.", "is_fresh": 1, "author": ["Jesse Hassenger"]},
{"text": "For audiences who grew up with cartoons as a natural part of their moviegoing, the shock may not be the mix of live and animated folk--it may come from the truly revolutionary sight of great icons of rival studios cheerfully rubbing shoulders.", "is_fresh": 1, "author": ["Sheila Benson"]},
{"text": "An ingenious blend of hand-drawn animation and live action, spliced with humour that's by turns madcap, surreal and violent, Roger Rabbit demonstrates that it's possible to push the technical boundaries while still cooking up decent characters and plots.", "is_fresh": 1, "author": ["James White"]},
{"text": "This whizz-bang breakthrough in mixing live action with cartoon characters won a special achievement Oscar for animator Richard Williams.", "is_fresh": 1, "author": ["Tom Hutchinson"]},
{"text": "Motion pictures may never be the same again, now that the fascinating and utterly miraculous Who Framed Roger Rabbit has come to the screen.", "is_fresh": 1, "author": ["Roger Hurlburt"]},
{"text": "Imagine watching cartoon characters and relating to them as if they were flesh-and-blood instead of paint-and-ink. This is the slap-happy effect of Who Framed Roger Rabbit, and - please - a 24-carrot salute to director Robert Zemeckis.", "is_fresh": 1, "author": ["Carrie Rickey"]},
{"text": "The feats performed by director Robert Zemeckis and director of animation Richard Williams are pretty amazing.", "is_fresh": 1, "author": ["Ben Yagoda"]},
{"text": "Your eyeballs have no choice but to go boinnnnng.", "is_fresh": 1, "author": ["Peter Travers"]},
{"text": "If the pleasures of Who Framed Roger Rabbit are mostly incidental, they are certainly more than considerable.", "is_fresh": 1, "author": ["Jay Boyar"]},
{"text": "For sheer movie excitement, this is the easy winner so far this season.", "is_fresh": 1, "author": ["David Sterritt"]},
{"text": "This is a movie that demands to be seen twice. The first time, one is likely to be dazzled to the point of exhaustion; the second time, one can appreciate the artistry and good humor more easily.", "is_fresh": 1, "author": ["Gene Siskel"]},
{"text": "More than a technological wonder, Who Framed Roger Rabbit? is brilliantly funny, bracingly smart and surprisingly moving.", "is_fresh": 1, "author": ["Dave Kehr"]},
{"text": "The best film directed by Zemeckis; the best of the many great high-concept '80s popcorn-comedies; the best American film of 1988.", "is_fresh": 1, "author": ["Tim Brayton"]},
{"text": "Deceptively adult movie is fun, but not for kids.", "is_fresh": 1, "author": ["Ed Grant"]},
{"text": "The combination detective noir story, slightly adult humour, crazy toon characters from both Warner & Disney's vaults (a one-off which is unlikely to ever repeat) and overall technical wizardy yielded a film which set a precedent.", "is_fresh": 1, "author": ["Garth Franklin"]},
{"text": "Groundbreaking and thrilling", "is_fresh": 1, "author": ["Dan Jardine"]},
{"text": "The opening cartoon upstages the movie that emerges from it.", "is_fresh": 0, "author": ["Richard Corliss"]},
{"text": "Great fun to watch -- and not just for kids.", "is_fresh": 1, "author": []},
{"text": "It has become deservedly recognized as a cinema classic.", "is_fresh": 1, "author": ["Dennis Schwartz"]},
{"text": "A Hollywood entertainment that lived up to its hype.", "is_fresh": 1, "author": ["Jonathan Rosenbaum"]},
{"text": "While flawlessly delivered, it's overkill -- so loud and excessive, it makes our head swim.", "is_fresh": 1, "author": []},
{"text": "The real stars are the animators, under British animation director Richard Williams, who pull off a technically amazing feat of having humans and Toons seem to be interacting with one another.", "is_fresh": 1, "author": ["Variety Staff"]},
{"text": "Yet with all that, Zemeckis' $70 million technical tour de force doesn't get pulled down in the undertow of its own cleverness.", "is_fresh": 1, "author": ["Mark Bourne"]},
{"text": "Supremely entertaining -- especially for adults.", "is_fresh": 1, "author": ["Geoff Andrew"]},
{"text": "Not as good as the book, but nonetheless superb.", "is_fresh": 1, "author": ["Staci Layne Wilson"]},
{"text": "It's still a superb film, a rare big budget blockbuster that concentrates on a clever story, crisp performances, and brilliant jokes while using its groundbreaking special effects only as window dressing rather than as the main event.", "is_fresh": 1, "author": ["Jeffrey M. Anderson"]},
{"text": "Hoskins est\u00e1 fabuloso, e deveria ter sido indicado ao Oscar. O roteiro decepciona ao n\u00e3o explorar totalmente o potencial do projeto e ao criar uma trama policial pouco interessante. No geral, por\u00e9m, tem chances de virar cl\u00e1ssico.", "is_fresh": 1, "author": ["Pablo Villa\u00e7a"]},
{"text": "Roger looks terrific after 15 years.", "is_fresh": 1, "author": ["Glenn Abel"]},
{"text": "Although this isn't the first time that cartoon characters have shared the screen with live actors, it's the first time they've done it on their own terms.", "is_fresh": 1, "author": ["Janet Maslin"]},
{"text": "The first blend of animation and live-action that seemed so natural we felt the characters were real. There's many a lad still harbouring a crush on Jessica Rabbit.", "is_fresh": 1, "author": ["Ian Freer"]},
{"text": "A spectacular blend of live-action and animation.", "is_fresh": 1, "author": ["Matt Brunson"]},
{"text": "Miraculously, the film isn't overshadowed by its technical achievement.", "is_fresh": 1, "author": ["Bill Chambers"]},
{"text": "The film provides both slap-stick humor for kids and clever satire and social commentary for adults.", "is_fresh": 1, "author": ["Sal Cinquemani"]},
{"text": "Excellent sight gags, clever dialogue, and improbable waistline.", "is_fresh": 1, "author": ["Christopher Null"]},
{"text": "...an exuberant, funny, inventive, and wholly entertaining piece of whimsy.", "is_fresh": 1, "author": ["John J. Puccio"]},
{"text": "Among its other assets, it's an oddly fitting swan song for the great Mel Blanc.", "is_fresh": 1, "author": ["Rob Vaux"]},
{"text": "A glorious mix of diverse styles, techniques and worlds molded into a cohesive and unique whole.", "is_fresh": 1, "author": ["James Rocchi"]},
{"text": "A wondrous, mind-boggling and impossibly clever movie that may, given a decade or two for hindsight, emerge as the most remarkable film of this high concept era.", "is_fresh": 1, "author": []},
{"text": "Visually stunning and creatively superior, Zemeckis's work is frequently staggering and always entertaining.", "is_fresh": 1, "author": ["Ben Falk"]},
{"text": "Sheer, enchanted entertainment from the first frame to the last -- a joyous, giddy, goofy celebration of the kind of fun you can have with a movie camera.", "is_fresh": 1, "author": ["Roger Ebert"]},
{"text": "Not only a technical tour de force, it crackles with entertainment.", "is_fresh": 1, "author": ["Desson Thomson"]},
{"text": "A mix of live action and animation, the $45 million movie is as cunning as Wile E. Coyote and chipper as a flock of cartoon bluebirds.", "is_fresh": 1, "author": ["Rita Kempley"]},
{"text": "Wonderfully clever film.", "is_fresh": 1, "author": ["MaryAnn Johanson"]},
{"text": "Who Framed Roger Rabbit (1988) is a technically-marvelous film blending animated, ink-and-paint cartoon characters and flesh-and-blood live actors..", "is_fresh": 1, "author": ["Tim Dirks"]},
{"text": "A great film for lots of reasons.", "is_fresh": 1, "author": ["Mark R. Leeper"]},
{"text": "Apart from the interesting premise and the novelty of seeing so many famous cartoon characters together on the screen, I was overall disappointed and it completely failed to live up to my memory.", "is_fresh": 0, "author": ["Scott Nash"]},
{"text": "", "is_fresh": 1, "author": ["Nell Minow"]},
{"text": "", "is_fresh": 1, "author": ["Andy Klein"]},
{"text": "", "is_fresh": 1, "author": ["Rich Cline"]},
{"text": "", "is_fresh": 1, "author": ["Spence D."]},
{"text": "", "is_fresh": 1, "author": ["Greg Maki"]},
{"text": "", "is_fresh": 1, "author": ["Kamal 'The Diva' Larsuel"]},
{"text": "", "is_fresh": 1, "author": ["Carol Cling"]},
{"text": "", "is_fresh": 1, "author": ["Walter Chaw"]},
{"text": "", "is_fresh": 1, "author": ["Jon Niccum"]},
{"text": "", "is_fresh": 1, "author": ["Philip Martin"]},
{"text": "", "is_fresh": 1, "author": ["Mark Palermo"]},
{"text": "", "is_fresh": 1, "author": ["Mike McGranaghan"]},
{"text": "", "is_fresh": 1, "author": ["Jeffrey Westhoff"]},
{"text": "", "is_fresh": 1, "author": ["Bob Grimm"]}
]