[
{"reviews_count": "47", "title": "24 Frames", "avg_audience_rating": "3.1", "rotten_count": "3", "tomatometer": "94", "audience_score": "40", "avg_critic_rating": "7.9", "fresh_count": "44", "user_ratings_count": "102"},
{"text": "I felt like I was watching Kiarostami's failed experiments rather than his successes.", "is_fresh": 0, "author": ["Daniel Barnes"]},
{"text": "The repetitiveness of concentrating on watching [the frames]...is like quiet meditation on the power of the image. The cumulative effect is a mesmerising insight into Kiarostami's creative process. ", "is_fresh": 1, "author": ["Alexa Dalby"]},
{"text": "Like all experimental films, 24 frames requires a willingness of the spectator to accept the proposal, of active participation... I personally let myself be carried away by the visual beauty, hypnotic but also thoughtful. [Full Review in Spanish]", "is_fresh": 1, "author": ["Josefina Sartora"]},
{"text": "The posthumous film of Abbas Kiarostami is closer to video art than to conventional cinema. [Full review in Spanish]", "is_fresh": 1, "author": ["Gaspar Zimerman"]},
{"text": "Photography, film and painting are conjugated in 24 frames to give rise to a visual spectacle where images do not need words. [Full Review in Spanish]", "is_fresh": 1, "author": ["Juan Pablo Russo"]},
{"text": "I can't imagine a more invigorating, counter-intuitively perfect final gesture for this of all directors to leave us with.", "is_fresh": 1, "author": ["Tim Brayton"]},
{"text": "Consider it a last playful gift from a master director, who always trusted his audience enough to let them fill in the blanks. Blinking is discouraged.", "is_fresh": 1, "author": ["Andrew Wright"]},
{"text": "Watching Kiarostami's film, your mind wanders, widening the frame to fit your imagination. As such, the art piece can be seen as a lesson in how to view art.", "is_fresh": 1, "author": ["Sierra Bilton"]},
{"text": "\"24 Frames\" is slow cinema at its slowest, and as meaningful as you want to make it. Above all, it breathes with the sensibility of an artist who saw beauty in people and places where most of us never thought to look.", "is_fresh": 1, "author": ["Ty Burr"]},
{"text": "Mostly, nothing goes on in each little film, except a lot actually happens.", "is_fresh": 1, "author": ["Robin Clifford"]},
{"text": "Continuing themes of snow and tides populated with birds (including two combative crows who make multiple appearances), horses, cows, wolves and deer give us a perception of the author's soul, the types of images which moved him.", "is_fresh": 1, "author": ["Laura Clifford"]},
{"text": "Absolutely mesmerizing...feels more genuine than most documentaries, especially for its acknowledgment of the omnipresence of birdlife. ", "is_fresh": 1, "author": ["Christopher Campbell"]},
{"text": "I saw great beauty and sadness, trying to imagine the director's final thoughts of his time on this planet, and as a result I think it's a great film, and a last masterpiece.", "is_fresh": 1, "author": ["Jeffrey M. Anderson"]},
{"text": "With 24 Frames, Kiarostami is both having a laugh and considering the nature of cinema, and that's something we can all indulge in.", "is_fresh": 1, "author": ["Sherilyn Connelly"]},
{"text": "This mixing of the real and the unreal is summed up in that final image: a photograph of a film, or rather a film of a photograph of a film, suspended between stillness and motion, between watching and dreaming.", "is_fresh": 1, "author": ["Imogen Sara Smith"]},
{"text": "24 Frames is a classically Kiarostami work, indicative of his life's curiosities and trademark inquiries, but far short of a culminating utterance.", "is_fresh": 1, "author": ["Marjorie Baumgarten"]},
{"text": "Given the sense of emotional repression hovering around the edges of Kiarostami's work, the 24th frame achieves something moving and new in his work. It's the moment in \"24 Frames\" where the entire film's meaning comes together.", "is_fresh": 1, "author": ["Steve Erickson"]},
{"text": "The chief pleasure of 24 Frames is how it attunes you to appreciate any movement, whether it's snow falling, waves crashing, or birds pecking the earth.", "is_fresh": 1, "author": ["Ben Sachs"]},
{"text": "There's an overwhelming consistency of imagery, process, and mood in 24 Frames, which makes the film feel very much like the considered work of a single artist", "is_fresh": 1, "author": ["Stuart Klawans"]},
{"text": "24 Frames is in many ways rooted in the principles of the Lumi\u00e8res' project, it is also fundamentally removed from the material basis in empirical reality of their work, using the medium to transform the world it into something wildly artificial.", "is_fresh": 1, "author": ["James Slaymaker"]},
{"text": "Kiarostami's elemental evanescence is a precise but also aleatory stroll through the field of his vision, and all twenty-four of these fragments. The final shot is a glorious, frame-filled eternity.", "is_fresh": 1, "author": ["Ray Pride"]},
{"text": "24 Frames immediately communicates the power of the theater experience, in the way that so many of Kiarostami's movies can. ", "is_fresh": 1, "author": ["David Sims"]},
{"text": "In the seconds and minutes around the taking of a photograph, Kiarostami reminds us, the world changes, but mostly in increments.", "is_fresh": 1, "author": ["Scott Tobias"]},
{"text": "\"24 Frames\" can't help but be affecting because it is Kiarostami's final movie. But it's intellectually uninvolving, and its technical limitations prove frustrating.", "is_fresh": 1, "author": ["Manohla Dargis"]},
{"text": "How fitting that this lovely final film is one that could be enjoyed by fourth-graders as easily as the most knowledgeable of Kiarostami's admirers.", "is_fresh": 1, "author": ["Godfrey Cheshire"]},
{"text": "We know that, once we arrive at \"Frame 24,\" an end will come: the cessation of a movie, the close of a career. How do you sum up a life? Especially when it's your own.", "is_fresh": 1, "author": ["Keith Uhlich"]},
{"text": "Abbas Kiarostami's final project is a pensive, moody experiment-a challenge to one's patience but an elegiac \"last word\" (and picture) from a unique and significant filmmaker.", "is_fresh": 1, "author": ["Eric Monder"]},
{"text": "Movement and progress are the organizing principles throughout Abbas Kiarostami's final, posthumously released film, 24 Frames.", "is_fresh": 1, "author": ["Carson Lund"]},
{"text": "Kiarostami remained a tireless innovator right up to the end, and it's fitting that he leaves us with a work so singular as to be almost unclassifiable.", "is_fresh": 1, "author": ["Mike D'Angelo"]},
{"text": "24 Frames won't create any new Kiarostamians, but it will be a salve for those of us who wanted to sit beside him one more time, following his gaze.", "is_fresh": 1, "author": ["Michael Atkinson"]},
{"text": "Above all, the movie offers the mournful thrill of new methods that Kiarostami didn't live to develop further.", "is_fresh": 1, "author": ["Richard Brody"]},
{"text": "24 Frames is a highly meditative work, and at some points maddeningly slow. The audio is beautiful, but in all but a few scenes the soundscapes are nonverbal. There are no words, no characters.", "is_fresh": 1, "author": ["Josephine Livingstone"]},
{"text": "Kiarostami's frames, filled with computer-generated life and false time, manufacture an unnerving dialectic between the dead and the living-between stasis and energy-and the common reading will inevitably associate these themes to his imminent death.", "is_fresh": 1, "author": ["Blake Williams"]},
{"text": "A final work worthy of its creator, it proves Kiarostami, after a brillant carreer of 46 years, was still curious about the Art he dominated so well. [Full review in Portuguese]", "is_fresh": 1, "author": ["Pablo Villa\u00e7a"]},
{"text": "Packed with small mysteries and strange ambiguities, these minimalist miniatures bear a closer relationship to Kiarostami's photos and haiku-like poems than to most of his features.", "is_fresh": 1, "author": ["Geoff Andrew"]},
{"text": "In an age where people are so preoccupied with the size of the screen on which we watch things, it's fitting that Kiarostami's final work reminds us that no screen is too small, and that no screen is ever big enough.", "is_fresh": 1, "author": ["David Ehrlich"]},
{"text": "A truly poignant farewell from a master.", "is_fresh": 1, "author": ["Steve Pond"]},
{"text": "It is occasionally a little repetitive, but this is a mellow, mediative swansong, and Kiarostami's ongoing public dialogue with cinema will be sorely missed.", "is_fresh": 1, "author": ["David Jenkins"]},
{"text": "The rest compose not so much a film as a state of mind, a vibration, an x-ray of one's own time. [Full review in Spanish]", "is_fresh": 1, "author": ["Luis Mart\u00ednez"]},
{"text": "A careful piece of experimentation that, because of its exclusiveness and artistic exaltation, seems more aimed at an art gallery than a movie theater. [Full review in Spanish]", "is_fresh": 1, "author": ["Alberto S\u00e1ez Villarino"]},
{"text": "The film fails to escape the reiteration and 24 Frames is quickly exhausting, drowned in its own proposal. [Full review in Spanish]", "is_fresh": 0, "author": ["Juanma Ruiz"]},
{"text": "If it weren't because the only possible masterpiece is the unknown masterpiece, 24 Frames would be a masterpiece. [Full review in Spanish]", "is_fresh": 1, "author": ["\u00c0ngel Quintana"]},
{"text": "The result is certainly repetitive and perhaps uneven among some of the 24 pieces, but no less fascinating. [Full review in Spanish]", "is_fresh": 1, "author": ["Carlos F. Heredero"]},
{"text": "Takes up residence in your mental jukebox in a way that's so haunting, for a while it crowds out all the other beauty you've heard.", "is_fresh": 1, "author": ["Owen Gleiberman"]},
{"text": "24 Frames, tragically, is not the swan song he deserves.", "is_fresh": 0, "author": ["Giovanni Marchini Camia"]},
{"text": "Kiarostami has gone but the work lives on. His unconscious, I think, has infected us all.", "is_fresh": 1, "author": ["Xan Brooks"]},
{"text": "The ravishing \"natural\" beauty of the scenes has been masterfully contrived by the camera lens, aperture and framing.", "is_fresh": 1, "author": ["Deborah Young"]}
]