[
{"reviews_count": "128", "title": "A Cock & Bull Story", "avg_audience_rating": "3.3", "rotten_count": "13", "tomatometer": "90", "audience_score": "66", "avg_critic_rating": "7.6", "fresh_count": "115", "user_ratings_count": "22,826"},
{"text": "... it's a great deal of sheer fun, showcasing Coogan as one of the best comic actors working today.", "is_fresh": 1, "author": ["Steve Erickson"]},
{"text": "Coogan may be game and there are plenty of nods to assorted sexploits, but this riffing on his caddish public image was done a lot more amusingly and a lot less smugly in a 10-minute skit in Jim Jarmusch's Coffee and Cigarettes.", "is_fresh": 0, "author": ["Catherine Shoard"]},
{"text": "Films where you suddenly hear yourself laughing, where you leave the theatre a little weakened by the violence of your own hilarity, are extremely rare.", "is_fresh": 1, "author": ["Dorothy Woodend"]},
{"text": "Stands alongside -- if not above -- Adaptation as one of the best films about the process. ", "is_fresh": 1, "author": ["Luke Goodsell"]},
{"text": "A typically rambling, freewheeling effort from Michael Winterbottom...", "is_fresh": 0, "author": ["David Nusair"]},
{"text": "Director Michael Winterbottom may not have proved that you can film this unfilmable book, but he definitely proved he can film a funny movie about trying to film it.", "is_fresh": 1, "author": ["Scott Nash"]},
{"text": "Coogan and Brydon make a beautiful squabbling couple", "is_fresh": 1, "author": ["Fernando F. Croce"]},
{"text": "Equal parts literature and lunacy.", "is_fresh": 1, "author": ["Brandon Fibbs"]},
{"text": "For those who can appreciate the movie's ironic, self-referential nature, this is a thoroughly engaging, near-brilliant comedy.", "is_fresh": 1, "author": ["Felix Gonzalez Jr."]},
{"text": "If you go into this movie expecting a traditional narrative tale, you may get discouraged. You have to throw away your expectations and sit back and wait to see what happens ... if anything.", "is_fresh": 1, "author": ["Jette Kernion"]},
{"text": "If you ever enjoyed an English comedy show on the telly and you're ready for a laugh, you're going to love this. Don't worry if you haven't the faintest idea what it's about. No one else does either.", "is_fresh": 1, "author": ["Peter Calder"]},
{"text": "A successful mix of literary adaptation, meta-fictional discourse and inside-showbiz comedy. Both funny and clever.", "is_fresh": 1, "author": ["Kim Newman"]},
{"text": "[O]ne of the cleverest deconstructions and modernizations of a work of classic literature cinema has ever achieved...", "is_fresh": 1, "author": ["MaryAnn Johanson"]},
{"text": "...Preposterously funny, perpetually inventive, implausibly successful...", "is_fresh": 1, "author": ["Stuart Klawans"]},
{"text": "Adventurous, ambitious and downright quirky, this will appeal to those who revel in more than a little bite in their humour.", "is_fresh": 1, "author": ["Urban Cinefile Critics"]},
{"text": "un film dont on se d\u00e9lecte autant pour la redoutable intelligence de son r\u00e9cit et le c\u00f4t\u00e9 f\u00eal\u00e9 de sa structure narrative que pour son humour aussi mordant que d\u00e9sopilant", "is_fresh": 1, "author": ["Jean-Fran\u00e7ois Vandeuren"]},
{"text": "The film is complex and droll--always amusing and often hilarious.", "is_fresh": 1, "author": ["Jim Lane"]},
{"text": "Tristram Shandy: A Cock & Bull Story is a hall of mirrors that doesn't tease the brain (it's easier to watch than to read about) so much as goose it into submission.", "is_fresh": 1, "author": ["David Edelstein"]},
{"text": "...we see around and behind and underneath the stage, so to speak -- peering into the intertwined lives of the people who are caught up in the maelstrom of an untenable subject for film adaptation.", "is_fresh": 1, "author": ["Rubin Safaya"]},
{"text": "A film about a film based on a novel about writing a novel", "is_fresh": 1, "author": ["Marty Mapes"]},
{"text": "What Winterbottom has done beautifully is distill Sterne's comic experimentation with the rules and shape of the written narrative and translate it into a lark on filmmaking form and technique.", "is_fresh": 1, "author": ["Mark Pfeiffer"]},
{"text": "By all accounts, Sterne's novel is nutty and ribald and utterly defiant of conventional storytelling techniques ... hence this adaptation's wonderfully meta take.", "is_fresh": 1, "author": ["Kimberley Jones"]},
{"text": "Solidifies what Project Greenlight taught us; the process that goes into making a movie often ends up being far more entertaining than the finished project.", "is_fresh": 1, "author": ["Sean O'Connell"]},
{"text": "Amusing and often outright hilarious.", "is_fresh": 1, "author": ["Robert W. Butler"]},
{"text": "Rest assured, you don't have to know a thing about the Shandy novel -- let alone having read it -- to have a lot of fun with this Cock and Bull Story.", "is_fresh": 1, "author": ["Jack Garner"]},
{"text": "Despite its source in Sterne, Winterbottom's whimsy bulls it way past modernism and right into postmodern thievery, especially in its slavish quoting of Fellini's 8 1/2.", "is_fresh": 0, "author": ["Thomas Delapa"]},
{"text": "The film's playful, subversive and selectively self-referential sensibility is equal parts blarney and bluster, and has the endearing quality of a tall tale told tongue in cheek.", "is_fresh": 1, "author": ["Duane Dudek"]},
{"text": "Yet here it is, the first -- dare we use the term that's all but been stripped of meaning by journalistic hacks -- masterpiece of 2006.", "is_fresh": 1, "author": ["Luke Y. Thompson"]},
{"text": "Never picked up any steam to run with its **** and bull story.", "is_fresh": 0, "author": ["Dennis Schwartz"]},
{"text": "[Michael Winterbottom's] goofy, messy version of Tristram Shandy puts the Fellini back in 'Fellini-esque.'", "is_fresh": 1, "author": ["Roger Moore"]},
{"text": "A wildly imaginative foray into spirited comic anarchy.", "is_fresh": 1, "author": ["Connie Ogle"]},
{"text": "A Cock and Bull Story is a grand giggle of a film, well worth your time and money and a game well played for the audience.", "is_fresh": 1, "author": ["Tom Long"]},
{"text": "A hilariously clever picture about the making of a movie that no one will have the slightest interest in. For an experiment about an experiment, it's entirely too much fun.", "is_fresh": 1, "author": ["Terry Lawson"]},
{"text": "This British import is a good-natured comedy featuring several laugh-out-loud sequences.", "is_fresh": 1, "author": ["Jeff Vice"]},
{"text": "Coogan is adept at playing himself as a total jerk ... and his performance here is scathingly funny.", "is_fresh": 1, "author": ["Sean P. Means"]},
{"text": "(Tongue-in) cheeky and rambling, much like the voluminous tome that inspired it.", "is_fresh": 1, "author": ["David N. Butterworth"]},
{"text": "The playful British Tristram Shandy: A Cock & Bull Story is a comedy for anyone fascinated by the movies.", "is_fresh": 1, "author": ["Chris Hewitt (St. Paul)"]},
{"text": "It's official: Michael Winterbottom makes the best cinematic whatchamacallits around.", "is_fresh": 1, "author": ["Steve Schneider"]},
{"text": "A film that will be enormously appealing to fans of British costume dramas, fans of movies about the making of movies and devotees of the likes of Peter Greenaway and Charlie Kaufman.", "is_fresh": 1, "author": ["Peter Sobczynski"]},
{"text": "Probably the best-known but-I-digress novel in English literature, The Life and Opinions of Tristram Shandy, Gentleman, has inspired Tristram Shandy: A Cock and Bull Story, surely the best but-I-digress movie this side of Adaptation.", "is_fresh": 1, "author": ["Eleanor Ringel Cater"]},
{"text": "Tristram Shandy: A Cock and Bull Story brims with humor, from a Monty Python-type take on British colonialism to a winking send-up of the film's star, Steve Coogan.", "is_fresh": 1, "author": ["Bill Muller"]},
{"text": "A highly amusing combination period film and mockumentary.", "is_fresh": 1, "author": ["Ruthe Stein"]},
{"text": "Tristram Shandy: A Cock and Bull Story is an eccentric hoot of a film, a delight for lovers of nattering British comedy. Or the business of moviemaking. Or just deadpan, postmodern silliness.", "is_fresh": 1, "author": ["Jerome Weeks"]},
{"text": "Droll literary humor, genital violence played for laughs, references to German New Wave cinema and Al Pacino impersonations are among the elements that make this one of the year's most beguiling and entertaining surprises.", "is_fresh": 1, "author": ["John Beifuss"]},
{"text": "This stuff is strictly Ben Stiller material, but genuine sparks fly when Coogan and Brydon spar together onscreen.", "is_fresh": 1, "author": ["Jeffrey M. Anderson"]},
{"text": "\"Tristram Shandy\" is quite limited to an acquired audience that has the patience and perhaps literary knowledge to appreciate the outcome.", "is_fresh": 0, "author": ["Angela Baldassarre"]},
{"text": "Even if you don't get all the inside jokes, and the jokes that go inside the inside jokes, I still think you'll find this film to be very, very funny.", "is_fresh": 1, "author": ["Richard Roeper"]},
{"text": "Blimey, mate, I love British humor as much as the next bloke, but I must admit, I did not find this film the least bit funny.", "is_fresh": 0, "author": ["Jeanne Kaplan"]},
{"text": "Any similarity to that quirky, hilarious, raunchy and imaginative Albert Finney vehicle from 1963 ('Tom Jones') is purely in the mind of the filmmakers.", "is_fresh": 0, "author": ["David Kaplan"]},
{"text": "A self-referential, keenly absurd comedy with several layers of humor.", "is_fresh": 1, "author": ["Eric D. Snider"]},
{"text": "Bawdy behind-the-scenes comedy that neatly straddles antiquated fantasy and contemporary reality.", "is_fresh": 1, "author": ["Jeanne Aufmuth"]},
{"text": "For all its post-postmodern use of intersecting narratives, Tristram Shandy: A **** and Bull Story works and, in certain spots, works brilliantly.", "is_fresh": 1, "author": ["Mark Dujsik"]},
{"text": "This material is the most remote from the letter of Sterne's novel, but in its spirit of verbal play, digression and free-wheeling wit, it pays affectionate tribute to his bawdy jokester spirit.", "is_fresh": 1, "author": ["Liam Lacey"]},
{"text": "Sometimes it's the most unfilmable novels that make the best movies.", "is_fresh": 1, "author": ["Moira MacDonald"]},
{"text": "A sly, delirious homage to the writers, producers, techies and thespians who assemble with the common mission of telling a tale, and then, many months and meltdowns later, move on to the next project -- and paycheck.", "is_fresh": 1, "author": ["Steven Rea"]},
{"text": "Tristram Shandy: A Cock and Bull Story is the most complex movie about adaptations since, well, Adaptation.", "is_fresh": 1, "author": ["Gary Thompson"]},
{"text": "For all the convolutions of the form of the film, it's actually a gentle comedy with laughs for both the brain and the funny bone.", "is_fresh": 1, "author": ["Shawn Levy"]},
{"text": "Winterbottom has given plugged-in moviegoers a visceral, mind-bending meta experience, and some good laughs.", "is_fresh": 1, "author": ["Jim Slotek"]},
{"text": "The giddy self-satisfaction of Tristram Shandy grows tiresome.", "is_fresh": 0, "author": ["Matt Pais"]},
{"text": "It feels made up on the spot, in the mockumentary style Winterbottom and Coogan deployed in their Manchester music-scene goof, 24 Hour Party People. But that film wasn't half as much fun as this one.", "is_fresh": 1, "author": ["Michael Phillips"]},
{"text": "Beneath the fun lurks a dry and weary sigh at life's refusal to match the tidiness of art.", "is_fresh": 1, "author": ["Ty Burr"]},
{"text": "If only literary theory could always be this fun.", "is_fresh": 1, "author": ["Josh Larsen"]},
{"text": "More movie-biz spoof than postmodern adaptation of the novel, but Winterbottom's film miraculously succeeds in doing both goals a degree of justice.", "is_fresh": 1, "author": ["Peter Canavese"]},
{"text": "Like The French Lieutenant's Woman, it's as much commentary as adaptation, but with a more playful approach and an understated, typically British sense of humor.", "is_fresh": 1, "author": ["Sean Axmaker"]},
{"text": "It's pretty funny. You don't actually watch it so much as indulge it and admire its cleverness.", "is_fresh": 1, "author": ["Stephen Hunter"]},
{"text": "It wonderfully evokes the life on a movie set, which for a few weeks or months creates its own closed society.", "is_fresh": 1, "author": ["Roger Ebert"]},
{"text": "What a treat! ... By the end, you have so grown to love the characters that you're quite sorry to have to bid them adieu.", "is_fresh": 1, "author": ["Steve Rhodes"]},
{"text": "A bold and imaginative piece of filmmaking that also happens to be delightfully droll...a grand, goofy entertainment in the true Sterne mold.", "is_fresh": 1, "author": ["Frank Swietek"]},
{"text": "...I don't think there will be a funnier, smarter and wiser comedy released this year.", "is_fresh": 1, "author": ["Ethan Alter"]},
{"text": "Even if you never get up to speed on half of what this movie tosses about, the half you do get should keep you laughing all the way to the library.", "is_fresh": 1, "author": ["Bob Strauss"]},
{"text": "\"Tristram Shandy: A **** and Bull Story\" is an amusing toss off that is full of tongue-in-cheek British humor for the film buffs.", "is_fresh": 1, "author": ["Robin Clifford"]},
{"text": "...[very funny, and] on occasion, mysteriously, genuinely moving.", "is_fresh": 1, "author": ["Andy Klein"]},
{"text": "A film as inspired as its source.", "is_fresh": 1, "author": []},
{"text": "For a movie about movies, it's surprisingly humanistic, cheerful and true to life.", "is_fresh": 1, "author": ["Carina Chocano"]},
{"text": "Underneath the movie's tricky hall-of-mirrors surface lies a warm, delicate and, yes, distinctly Shandy-esque portrait of the struggle of creation.", "is_fresh": 1, "author": ["Scott Foundas"]},
{"text": "You would think [the] book would be unfilmable, and you'd be right. But that didn't stop [director] Michael Winterbottom from taking it on.", "is_fresh": 0, "author": ["Kurt Loder"]},
{"text": "One trouble with the current vogue for meta-cinema is that its practioners, such as Winterbottom and Charlie Kaufman, underestimate the extraordinary difficulty of telling a good story straight.", "is_fresh": 0, "author": ["David Denby"]},
{"text": "Order, movement, sense: all become arbitrary, means by which the teller conveys and creates meaning.", "is_fresh": 1, "author": ["Cynthia Fuchs"]},
{"text": "This try to film what's been called an unfilmable book reminds me of the old ditty: They all said it couldn't be done; They all said he couldn't do it; So he tackled the job that couldn't be done; And, by George, he couldn't do it. ", "is_fresh": 0, "author": ["Tony Medley"]},
{"text": "Trying to enumerate everything that's good about this movie could prove as labyrinthine a task as Tristram's storytelling itself.", "is_fresh": 1, "author": ["Dana Stevens"]},
{"text": "Blithe, brisk, and bouncy", "is_fresh": 1, "author": ["Arthur Lazere"]},
{"text": "Given the strength of the talent and material here, it's still a workable compromise for fans -- and a confusion Tristram himself would understand.", "is_fresh": 1, "author": ["Stephen Whitty"]},
{"text": "It is a sign of the film's success that extraneous moments are essential to a film that is, essentially, nuts.", "is_fresh": 1, "author": ["Jack Mathews"]},
{"text": "With a subject seemingly so amenable to heartless derision, the film is remarkable for its warmth and generosity and conviviality.", "is_fresh": 1, "author": ["Andrew Sarris"]},
{"text": "As someone who can always be counted on to play a dark, squirmingly funny strain of arrogance and self-delusion, Steve Coogan is like a British Larry David.", "is_fresh": 1, "author": ["Brett Buckalew"]},
{"text": "The movie's delights unfold like an intricate, exotic puzzle: Winterbottom has built a detailed, miniature universe inside a sugar egg.", "is_fresh": 1, "author": ["Stephanie Zacharek"]},
{"text": "Hugely entertaining.", "is_fresh": 1, "author": ["Ken Fox"]},
{"text": "The whole thing is very fun and gives one a delicious sense of eavesdropping.", "is_fresh": 1, "author": ["Franny French"]},
{"text": "A proudly esoteric piece of comedy jazz.", "is_fresh": 1, "author": ["Kyle Smith"]},
{"text": "It's a riot.", "is_fresh": 1, "author": ["Jurgen Fauth"]},
{"text": "Turns into a lampoon of the filmmaking process, which has its share of highly funny moments but otherwise feels like territory well-tread.", "is_fresh": 1, "author": ["Jeffrey Chen"]},
{"text": "Tristram Shandy is going to be a cult classic.", "is_fresh": 1, "author": ["Devin Faraci"]},
{"text": "Not a movie version of the book but rather a movie about a movie about the book.", "is_fresh": 1, "author": ["A.O. Scott"]},
{"text": "While one doesn't necessarily have to have read the novel, it helps to have an idea of its concept. But I cannot imagine getting into this film with no foreknowledge of both the novel and Steve Coogan.", "is_fresh": 1, "author": ["Laura Clifford"]},
{"text": "The tone is lighthearted and the performances are effective but, in the end, the feature is so inconsequential as to leave no lasting impression.", "is_fresh": 0, "author": ["James Berardinelli"]},
{"text": "Somehow, despite the odds, it all makes a rich, heady and satisfying stew, capable of making you responsive and alive to all the precious minutiae of your own life.", "is_fresh": 1, "author": ["Gene Seymour"]},
{"text": "It's all a bit precious and preening, but Coogan is marvelous, almost as good as he was in Winterbottom's 24 Hour Party People.", "is_fresh": 1, "author": ["Peter Rainer"]},
{"text": "Ingenious and genuinely funny...breaks down the fourth wall, and then proceeds to knock down the other thre", "is_fresh": 1, "author": ["Edward Douglas"]},
{"text": "It sounds confusing, but it's really inventive and bizarre and marvelously entertaining.", "is_fresh": 1, "author": ["Peter Travers"]},
{"text": "... the first great, mind-tickling treat of the new movie year.", "is_fresh": 1, "author": ["Lisa Schwarzbaum"]},
{"text": "Made literal, many of Sterne's japes cease to be funny, but the viewer is carried along by the backstage plot.", "is_fresh": 1, "author": ["J. Hoberman"]},
{"text": "... one of the funniest British movies in years.", "is_fresh": 1, "author": ["Adrian Hennigan"]},
{"text": "Michael Winterbottom may just be one of the greatest directors working today and, to boot, he's one of the few pure talents that remain unsullied by external pressures.", "is_fresh": 1, "author": ["Joe Utichi"]},
{"text": "Cheeky and flippant.", "is_fresh": 1, "author": ["Peter Bradshaw"]},
{"text": "Give this anarchic British comedy a shot and you'll be laughing from start to finish.", "is_fresh": 1, "author": ["David Edwards"]},
{"text": "Instead of hoping to fool us that we're watching life itself, they constantly remind us that telling a story is a fragile, silly, impossible process, and an essential delight.", "is_fresh": 1, "author": ["Ben Walters"]},
{"text": "A thin slice of a not-very-interesting nothing... The book they said was unfilmable turns out to be a film that is unwatchable.", "is_fresh": 0, "author": ["Carlo Cavagna"]},
{"text": "Michael Winterbottom's prankish literary adaptation Tristram Shandy: A **** And Bull Story has about a dozen layers of in-joke, and up to the eighth or ninth layer, they mostly work.", "is_fresh": 1, "author": ["Noel Murray"]},
{"text": "A sharp, playful feature.", "is_fresh": 1, "author": ["Sheri Linden"]},
{"text": "Not so much a mindf*** as a mindlovemaking.", "is_fresh": 1, "author": ["Walter Chaw"]},
{"text": "A vehicle that somehow manages to provide period and modern amusement with some wit and tribulation. But it also looks like a make-work project for available British thesps.", "is_fresh": 1, "author": ["Jules Brenner"]},
{"text": "The cast (composed almost entirely of familiar TV faces) are simply terrific and are clearly having a huge amount of fun, although Coogan deserves special praise for sending up his own image so fearlessly.", "is_fresh": 1, "author": ["Matthew Turner"]},
{"text": "Tristram Shandy is that best of all worlds: a continual surprise from one scene to the next.", "is_fresh": 1, "author": ["Lewis Beale"]},
{"text": "Winterbottom's conceit may not quite pay off but his risk-taking is exhilarating.", "is_fresh": 1, "author": ["Shlomo Schwartzberg"]},
{"text": "A delirious orgy of self-reflexive ridiculousness.", "is_fresh": 1, "author": ["Nick Schager"]},
{"text": "Diabolically clever and nothing short of hilarious... Think Being John Malkovich meets Adaptation as a period piece, and you're nearly there.", "is_fresh": 1, "author": ["Aaron Hillis"]},
{"text": "It's a wonderful extension of Sterne's spirited, frolicsome technique.", "is_fresh": 1, "author": ["Jim Emerson"]},
{"text": "The conceit of this Tristram Shandy is that it knows it's a movie, much as Sterne's book knew it was a novel.", "is_fresh": 1, "author": ["Keith Uhlich"]},
{"text": "A rollicking comedy about a famous novel, movie-making, and the wild chaos of life that frustrates the sober-minded while generating gales of laughter in playful individuals", "is_fresh": 1, "author": ["Frederic and Mary Ann Brussat"]},
{"text": "layered absurdist humor abounds within its wonderfully loose format", "is_fresh": 1, "author": ["Chris Barsanti"]},
{"text": "A completely mad film within a film, setting narrative aside for a free-wheeling examination of identity", "is_fresh": 1, "author": ["Rich Cline"]},
{"text": "It is completely nonsensical, not to mention frequently hilarious.", "is_fresh": 1, "author": ["Peter Howell"]},
{"text": "While its anarchic spirit is closest to helmer's 24 Hour Party People, pic's film-within-a-film structure makes it yet another genre ticked off for the protean Englishman.", "is_fresh": 1, "author": ["Leslie Felperin"]},
{"text": "Really funny stuff, especially if you're into British humor, or appreciate lots of inside jokes about the filmmaking process.", "is_fresh": 1, "author": ["Jon Popick"]},
{"text": "", "is_fresh": 1, "author": ["Nell Minow"]},
{"text": "", "is_fresh": 1, "author": []},
{"text": "", "is_fresh": 1, "author": ["Daniel Kasman"]},
{"text": "", "is_fresh": 1, "author": ["Dave White"]}
]