[
{"reviews_count": "61", "title": "A Few Good Men", "avg_audience_rating": "3.6", "rotten_count": "11", "tomatometer": "82", "audience_score": "89", "avg_critic_rating": "  7", "fresh_count": "50", "user_ratings_count": "325,092"},
{"text": "As speechy and preachy a courtroom drama as you'll ever find, detailing the secret manoeuvring that shadows a naval court-martial.", "is_fresh": 1, "author": ["Leigh Paatsch"]},
{"text": "There are more than a few excellent men in the cast, and a fine woman, too. But Rob Reiner's A Few Good Men roars with excitement only when Jack Nicholson seizes the drama between his sneering, snarling teeth.", "is_fresh": 1, "author": ["Malcolm Johnson"]},
{"text": "Designed to get the audience rooting for this upper-class underdog, the movie accomplishes its task with military efficiency. But since the deck is stacked and the cards well worn, it hardly seems a victory to cherish.", "is_fresh": 1, "author": ["David Ansen"]},
{"text": "...a solid legal thriller that benefits substantially from a raft of better-than-average elements. ", "is_fresh": 1, "author": ["David Nusair"]},
{"text": "By pitting Cruise against Nicholson in the film`s final courtroom confrontation, Sorkin and Reiner are pitting two notions of masculinity and two notions of stardom against each other.", "is_fresh": 1, "author": ["Dave Kehr"]},
{"text": "A brisk and familiar courtroom drama of the old school, as pleasant to watch as it is predictable, Men more than anything else is a tribute to pure star power.", "is_fresh": 1, "author": ["Kenneth Turan"]},
{"text": "The whole film, with its steady, important-picture pacing, its foursquare visual style, and its pseudo-profundity, is a piece of glorified banality.", "is_fresh": 0, "author": ["Michael Sragow"]},
{"text": "The literally in-your-face camera work can easily expose an actor's weaknesses, but, with the lens framed on Nicholson's bulldog visage, he lets loose with volcanic fury. His demagoguery and gung-ho self-righteousness are something to behold.", "is_fresh": 1, "author": ["Steven Rea"]},
{"text": "The driving force of the story is watching Cruise`s character develop some backbone and staying power.", "is_fresh": 1, "author": ["Gene Siskel"]},
{"text": "As you may have suspected, Jack Nicholson steals the show. His Col. Nathan Jessep isn't in a lot of scenes, but when he's there, you can't take your eyes off him.", "is_fresh": 1, "author": ["Jay Boyar"]},
{"text": "It's a very watchable picture, with plenty of drama and some good laughs. But you can't forget for a moment that Reiner is taking your emotions on a carefully guided tour.", "is_fresh": 0, "author": ["David Sterritt"]},
{"text": "The film's entire cast and crew prove up to the task, and there's something both comfortably old-fashioned and blazingly contemporary about Aaron Sorkin's screenplay.", "is_fresh": 1, "author": ["Jeff Shannon"]},
{"text": "The ultimate rebel Jack Nicholson has a ball playing the ultimate establishment figure in this star-laden, rather old-fashioned courtroom drama.", "is_fresh": 1, "author": ["John Ferguson"]},
{"text": "As a courtroom drama, it manages to overcome its shortcomings -- some fairly ridiculous dialogue, implausible situations and predictable plot points -- with the pure screen power of its stars.", "is_fresh": 1, "author": ["Dan Webster"]},
{"text": "Though a courtroom drama on the surface, the movie is really about the changing face of power in the military, and in all walks of life.", "is_fresh": 1, "author": ["Gary Thompson"]},
{"text": "I'm usually a sucker for courtroom dramas, but Rob Reiner's highly mechanical 1992 feature... kept putting me to sleep.", "is_fresh": 0, "author": ["Jonathan Rosenbaum"]},
{"text": "More than competent are Moore, spared from what would have been a phony romantic involvement with Cruise, Kevin Bacon as a prosecutor and Kiefer Sutherland as a by-the-book Marine.", "is_fresh": 1, "author": ["Candice Russell"]},
{"text": "A somber, studiedly intense drama that is absorbing despite its total predictability.", "is_fresh": 1, "author": []},
{"text": "The best feature of Rob Reiner's court martial drama isn't Jack Nicholson's \"You can't handle the truth\" speech. It's seeing a classy cast and a slick script hammer home a smart liberal message.", "is_fresh": 1, "author": []},
{"text": "Directed by Rob Reiner, from Aaron Sorkin's adaptation of his hit Broadway play, A Few Good Men is a thrillingly effective crowd pleaser.", "is_fresh": 1, "author": ["Owen Gleiberman"]},
{"text": "An extraordinarily well-made movie, which wastes no words or images in telling a conventional but compelling story.", "is_fresh": 1, "author": ["Richard Schickel"]},
{"text": "The final scene, when Kaffee locks horns with Jessep, more than makes up for the predictability of what's come before.", "is_fresh": 1, "author": []},
{"text": "Although Nicholson has little more than an extended cameo, he seizes the final courtroom scene and makes it a tour de force of cinema.", "is_fresh": 1, "author": []},
{"text": "The same histrionic fireworks that gripped theater audiences will prove even more compelling to filmgoers due to the star power and dramatic screw-tightening.", "is_fresh": 1, "author": ["Todd McCarthy"]},
{"text": "Julgando-se mais importante e inteligente do que \u00e9 na verdade, o filme conta com um roteiro ing\u00eanuo em seu idealismo juvenil e traz Cruise em uma performance implaus\u00edvel e repleta de maneirismos de estrela.", "is_fresh": 0, "author": ["Pablo Villa\u00e7a"]},
{"text": "Highly entertaining courtroom drama that's well-directed by Reiner but narratively flawed. Thematically, the story is fraudulent--much ado about nothing--but enjoybale to watch.", "is_fresh": 1, "author": ["Emanuel Levy"]},
{"text": "The intellectual cut-and-thrust of the courtroom is largely absent here, and the denouement seems slick, arbitrary, and derived from the Captain Queeg catalogue.", "is_fresh": 0, "author": []},
{"text": "So well written and so well acted that you almost don't notice what a shoddy and clumsy piece of filmmaking it is.", "is_fresh": 1, "author": ["Dan Fienberg"]},
{"text": "Entertaining but contrived.", "is_fresh": 1, "author": ["Rich Cline"]},
{"text": "A blueprint for Hollywood product done right: intelligent, entertaining, and stuffed to the gills with movie star charisma.", "is_fresh": 1, "author": ["Rob Vaux"]},
{"text": "Click to read review", "is_fresh": 1, "author": ["Michael Dequina"]},
{"text": "The great courtroom drama. Fast-paced compelling mystery with moral undertones.", "is_fresh": 1, "author": ["Fred Topel"]},
{"text": "The screenplay is a good one, directed with care and acted, for the most part, with terrific conviction.", "is_fresh": 1, "author": ["Vincent Canby"]},
{"text": "Film of the highest order...and that's the truth", "is_fresh": 1, "author": ["Clint Morris"]},
{"text": "It probably will win some Oscars, but if this is the best film of the year, it is a pretty poor year for films.", "is_fresh": 1, "author": ["Robert Roten"]},
{"text": "Only Jack Nicholson rises to the film's overblown sensibility.", "is_fresh": 0, "author": ["Jeffrey M. Anderson"]},
{"text": "An underrated near-classic. No one who has seen this movie will forget it.", "is_fresh": 1, "author": ["Phil Villarreal"]},
{"text": "Like a roast that's baked too long, the acting in this film is 'over done.'", "is_fresh": 1, "author": ["Luanne Brown"]},
{"text": "Ignited by a clash of values, courtroom fireworks and a dazzling display of topnotch acting.", "is_fresh": 1, "author": ["Frederic and Mary Ann Brussat"]},
{"text": "As a play of ideas, it has the profundity of a high-school debate, with a wan, climactic sermon about the need to stand up for the little guy.", "is_fresh": 0, "author": ["Stephen Farber"]},
{"text": "That the performances are uniformly outstanding is a tribute to Rob Reiner (Misery), who directs with masterly assurance, fusing suspense and character to create a movie that literally vibrates with energy.", "is_fresh": 1, "author": ["Peter Travers"]},
{"text": "A Few Good Men is one of those movies that tells you what it's going to do, does it, and then tells you what it did.", "is_fresh": 0, "author": ["Roger Ebert"]},
{"text": "That rarest of things: a top-level Hollywood court-room drama with the smarts to match its slick style.", "is_fresh": 1, "author": ["Emma Cochrane"]},
{"text": "Men is full of loaded, manly moments, great clashes of will and excellent buzz cuts.", "is_fresh": 1, "author": ["Desson Thomson"]},
{"text": "It's a grand undertaking that wrangles with the heavy questions that cropped up at Nuremberg and My Lai, questions that deserve and get lots of imposing shots of monuments and not a little swashbuckling from the big stars.", "is_fresh": 1, "author": ["Rita Kempley"]},
{"text": "The film, as it progresses, begins to seem like Reiner's own military exercise -- all professional polish, no soul.", "is_fresh": 0, "author": ["Rob Gonsalves"]},
{"text": "...a gem of a courtroom drama.", "is_fresh": 1, "author": ["Marjorie Baumgarten"]},
{"text": "This is stirring, highly entertaining stuff, with superb performances all the way around and witty dialogue to keep it all moving.", "is_fresh": 1, "author": ["Chris Hicks"]},
{"text": "A Few Good Men is an entertaining courtroom drama with some good dialogue. The script raises issues and then unfortunately handles them in a very superficial manner.", "is_fresh": 1, "author": ["Mark R. Leeper"]},
{"text": "", "is_fresh": 1, "author": ["Cole Smithey"]},
{"text": "", "is_fresh": 1, "author": ["Jeffrey Westhoff"]},
{"text": "", "is_fresh": 1, "author": ["Thomas Delapa"]},
{"text": "", "is_fresh": 1, "author": ["Sarah Chauncey"]},
{"text": "", "is_fresh": 1, "author": ["Staci Layne Wilson"]},
{"text": "", "is_fresh": 1, "author": ["James O'Ehley"]},
{"text": "", "is_fresh": 1, "author": ["Daniel M. Kimmel"]},
{"text": "", "is_fresh": 1, "author": ["Michelle Alexandria"]},
{"text": "", "is_fresh": 1, "author": ["Ryan Cracknell"]},
{"text": "", "is_fresh": 0, "author": ["Darrin Keene"]},
{"text": "", "is_fresh": 1, "author": ["Rob Blackwelder"]},
{"text": "", "is_fresh": 0, "author": ["Philip Martin"]}
]