[
{"reviews_count": "166", "title": "Almost Famous", "avg_audience_rating": "3.7", "rotten_count": "19", "tomatometer": "89", "audience_score": "92", "avg_critic_rating": "7.9", "fresh_count": "147", "user_ratings_count": "324,707"},
{"text": "In Almost Famous, writer-director Crowe is still contending with the dueling voices in his head, and he still can't bring himself to take the harsh road. His movie gives off the warm glow of mercy.", "is_fresh": 1, "author": ["David Ansen"]},
{"text": "Cameron Crowe's thinly fictionalized autobiography is deftly poised between rosy affection, thoughtful remembrance, and giddy adolescent awe. As perhaps it should be.", "is_fresh": 1, "author": ["Sean Axmaker"]},
{"text": "For every scene that's a sturdy piece of observed wisdom about coming of age... there's another that's pure cheese.", "is_fresh": 1, "author": ["Tim Brayton"]},
{"text": "The film itself -- a quasi-autobiography of writer-director Cameron Crowe -- is still good, but not as good as it seemed 14 years ago. ", "is_fresh": 1, "author": ["Ken Hanke"]},
{"text": "will satisfy many music fans for its honest portrayal of the rock-band life", "is_fresh": 1, "author": ["John A. Nesbit"]},
{"text": "...funny, joyous, touching, and moving...a very personal film and a most-universal one combined.", "is_fresh": 1, "author": ["John J. Puccio"]},
{"text": "Great, but lots of sex, drugs, and rock 'n' roll.", "is_fresh": 1, "author": ["M. Faust"]},
{"text": "Director Cameron Crowe won the Original Screenplay Oscar for his warmly nostalgic, often sharply observed memoir of his early days as a music journalist", "is_fresh": 1, "author": ["Emanuel Levy"]},
{"text": "Whether disappointed or elated, Cameron Crowe's observations are trenchant. Instinct is the greatest asset as idols let you down. That first gulp of passion in a profession can quench you for years. Quite often, bassists and drummers have little to say.", "is_fresh": 1, "author": ["Nick Rogers"]},
{"text": "It's a world of brotherhood, groupies, the bright spotlight of fame, and the bitterness of business, packaged into a gushing, intuitive valentine from Crowe to his former magical life.", "is_fresh": 1, "author": ["Brian Orndorf"]},
{"text": "Cameron Crowe has a knack for making contagious movies that pull audiences into a whirlpool of situations that make you feel impossibly cool because his characters aren't near as cool as their surroundings imply.", "is_fresh": 1, "author": ["Cole Smithey"]},
{"text": "A great love letter to classic rock...", "is_fresh": 1, "author": ["Felix Vasquez Jr."]},
{"text": "The movie's so clever and endearing, you can forget the almost.", "is_fresh": 1, "author": ["Richard Corliss"]},
{"text": "Easily the best film on Crowe's already impressive roster.", "is_fresh": 1, "author": ["Mark Halverson"]},
{"text": "The film's charm owes far more to its creator's brilliant writing than to his anonymous direction.", "is_fresh": 1, "author": []},
{"text": "Crowe softens just about everything, as if he didn't want to hurt the feelings of anyone he knew back then.", "is_fresh": 0, "author": ["Rob Gonsalves"]},
{"text": "Most of the film is a testament to Mr. Crowe's impressive grasp of the music industry, its relationships, and its particular definition of cool and uncool.", "is_fresh": 1, "author": ["Joe Lozito"]},
{"text": "None of the non-musical components on the screen matched the excitement of the music.", "is_fresh": 0, "author": ["Andrew Sarris"]},
{"text": "It's a sweet-minded, picaresque story, woolly with some of its dramatic details, but stacked with attractions...", "is_fresh": 1, "author": ["Geoff Andrew"]},
{"text": "Almost perfect on numerous levels.", "is_fresh": 1, "author": ["Anthony Miele"]},
{"text": "Profoundly affecting.", "is_fresh": 1, "author": ["Susannah Breslin"]},
{"text": "An endearing, inspiring film that truly has something to offer for everyone.", "is_fresh": 1, "author": ["Bill Clark"]},
{"text": "The acting is unforgettable.", "is_fresh": 1, "author": ["Steven Snyder"]},
{"text": "It's a well-modulated, immensely likable picture that's finally too polite for both its subject matter and its critical theme.", "is_fresh": 0, "author": ["Stuart Klawans"]},
{"text": "There's a magic around everyone and everything here that reminds us of how the world looked when we were still children, still in awe of the world.", "is_fresh": 1, "author": ["Jeffrey Overstreet"]},
{"text": "A blissfully sweet coming-of-age movie in which everyone, young and less young, comes of age.", "is_fresh": 1, "author": ["Peter Rainer"]},
{"text": "Cameron Crowe got it right with his autobiographical story about a teen-age writer for Rolling Stone magazine.", "is_fresh": 1, "author": ["Judith Egerton"]},
{"text": "Resgata de forma sens\u00edvel e divertida as lembran\u00e7as de adolesc\u00eancia do cineasta e roteirista Cameron Crowe - sempre embalado por uma deliciosa trilha sonora.", "is_fresh": 1, "author": ["Pablo Villa\u00e7a"]},
{"text": "Suffers from a strange fakeness.", "is_fresh": 0, "author": ["Jeffrey M. Anderson"]},
{"text": "It left me in a great mood. I wanted to hug someone.", "is_fresh": 1, "author": ["Eugene Novikov"]},
{"text": "A pleasant, meandering trip through the 1970s rock scene.", "is_fresh": 1, "author": ["Susan Tavernetti"]},
{"text": "Crowe doesn't paint an idealistic picture of rock in the early '70s, he paints a real one.", "is_fresh": 1, "author": ["John R. McEwen"]},
{"text": "For anyone who ever looked at a record sleeve and dreamed, it's a one-way ticket to Shangri-La.", "is_fresh": 1, "author": ["Harry Guerin"]},
{"text": "An obsessively authentic love letter to the early '70s world of fading swagger rock... a tragicomic snapshot of trying to hold onto hope, faith, possibility and youthful idealism even as ugly adult realizations blunt the power of those adolescent cornerst", "is_fresh": 1, "author": ["Brent Simon"]},
{"text": "Almost a movie, full of great ideas for characters and situations, but not yet able to make them as persuasive or affecting as it thinks they are.", "is_fresh": 0, "author": ["Nick Davis"]},
{"text": "Destined to be one of the year's best movies.", "is_fresh": 1, "author": ["Matthew Turner"]},
{"text": "Everything about the movie...testifies to its maker's passion to get it right.", "is_fresh": 1, "author": ["Margaret A. McGurk"]},
{"text": "The film shimmers with the irresistible pleasures that define Hollywood at its best -- it's polished like glass, funny, knowing and bright, and filled with characters whose lives are invariably sexier and more purposeful than our own.", "is_fresh": 1, "author": ["Manohla Dargis"]},
{"text": "Almost Famous juggles so many themes that it's a credit to Crowe's vision as a writer that the movie keeps from bursting at its thematic seams.", "is_fresh": 1, "author": ["Jon Niccum"]},
{"text": "Insightful, often hilarious, beautifully crafted, touching and wonderfully acted...", "is_fresh": 1, "author": ["Kevin N. Laforest"]},
{"text": "Restores poignancy, originality and innocence to the coming of age film, a genre that had lost them all around the time the CD replaced the LP.", "is_fresh": 1, "author": ["Jeffrey Westhoff"]},
{"text": "In another compelling performance, Billy Crudup projects the charisma of a rock star -- combining egotism with flashes of humanity.", "is_fresh": 1, "author": ["Betty Jo Tucker"]},
{"text": "An honest and touching look at many big themes such as family, friendship and fandom.", "is_fresh": 1, "author": ["Ryan Cracknell"]},
{"text": "magnificently captures what it was like to be young, naive and anxious for answers during a turbulent time in American society.", "is_fresh": 1, "author": ["James Sanford"]},
{"text": "I can count the number of movies on my left hand that made me feel the way this film did throughout its entire 120 minutes.", "is_fresh": 1, "author": ["Collin Souter"]},
{"text": "This is the celluloid version of a glossy magazine feature -- easily perused, modestly entertaining, the kind of piece designed to please the publisher by not taxing (or offending) the reader.", "is_fresh": 0, "author": ["Rick Groen"]},
{"text": "The best film of the year.", "is_fresh": 1, "author": ["Michael W. Phillips, Jr."]},
{"text": "Charged with nostalgic poignancy and sweet character portrayals", "is_fresh": 1, "author": ["Ian Waldron-Mantgani"]},
{"text": "The period is intricately recreated without a single cliche, while the performances are all honest and open.", "is_fresh": 1, "author": ["Rich Cline"]},
{"text": "Cameron Crowe has made a heartfelt piece of work that stands among his best: a love song to anyone who ever wanted to be cool...and never quite found their way.", "is_fresh": 1, "author": ["Rob Vaux"]},
{"text": "Almost nothing! One of the year's best.", "is_fresh": 1, "author": ["Scott Weinberg"]},
{"text": "If you haven't seen it and you have the slightest interest in writing, 1970's rock music, or touching fame, go see it.", "is_fresh": 1, "author": ["Karina Montgomery"]},
{"text": "One of the best films of the year, highly recommended and worth multiple viewings.", "is_fresh": 1, "author": ["Widgett Walls"]},
{"text": "A winner because Crowe dares to wear his heart on his sleeve. For this movie at least, he's with the band.", "is_fresh": 1, "author": ["Peter Travers"]},
{"text": "A nostalgia factory of popular music that is less a movie than it is a vehicle for baby boomer reminiscence.", "is_fresh": 0, "author": ["Ed Gonzalez"]},
{"text": "The movie doesn't quite deliver on its promise, but it's a likable piece of low-keyed entertainment.", "is_fresh": 1, "author": ["Stephen Farber"]},
{"text": "Even though the same points are made more than once, they are never less than entertaining, while Crowe resists the lazy route of plastering the soundtrack with 70s rock hits.", "is_fresh": 1, "author": ["Michael Thomson"]},
{"text": "These characters have none of the passion and incipient mania that made Jerry Maguire -- or John Cusack's Lloyd Dobler in Crowe's debut Say Anything -- so engaging.", "is_fresh": 0, "author": ["John Wrathall"]},
{"text": "Check out Hoffman's upstaging turn as the prophetic rock philosopher thoroughly disgusted by the music's fatal wrong turn from poetry into profit..", "is_fresh": 1, "author": ["Prairie Miller"]},
{"text": "El amor y el dolor que acompa\u00f1a a sus personajes hace de la cinta una de las mejores del a\u00f1o y una experiencia verdaderamente inolvidable", "is_fresh": 1, "author": ["Jorge Avila Andrade"]},
{"text": "More than anything else, Almost Famous is about people who are constantly trying to fill the need to belong.", "is_fresh": 1, "author": ["James Kendrick"]},
{"text": "It's the mainstream film of 2000 that feels most glad to be alive.", "is_fresh": 1, "author": ["Shay Casey"]},
{"text": "[Crowe] catches every detail perfectly.", "is_fresh": 1, "author": ["David Hepworth"]},
{"text": "It will definitely make my top 10 list for this year.", "is_fresh": 1, "author": ["Robert Roten"]},
{"text": "Veterans of the 1960s and '70s will find that Almost Famous captures both the raging excesses of that era and the keen-eyed alertness that allowed some savvy youngsters to survive and even profit from the scene.", "is_fresh": 1, "author": ["David Sterritt"]},
{"text": "As a director [Crowe] has an extraordinary gift for drawing out rounded, complex performances even in supporting roles and for indicating the fine emotional shadings in the relationships among his characters.", "is_fresh": 1, "author": ["A.O. Scott"]},
{"text": "It offers the kind of top-notch entertainment that has been sadly lacking in multiplexes this year.", "is_fresh": 1, "author": ["James Berardinelli"]},
{"text": "The moral education that follows is fairly predictable ... but Crowe follows its contours with a sharp eye for detail and genuine sympathy for the pathos of some of the delusions involved.", "is_fresh": 1, "author": ["Jonathan Rosenbaum"]},
{"text": "Penny Lane [is] played by Hudson with an intuitive lucidity that recalls the best work of her mother, Goldie Hawn.", "is_fresh": 1, "author": ["Stephanie Zacharek"]},
{"text": "Oh, what a lovely film. I was almost hugging myself while I watched it.", "is_fresh": 1, "author": ["Roger Ebert"]},
{"text": "A triumph of personal filmmaking ... because it exhibits the care and specificity of an artist working through his own mind, not through a committee's idea of what a movie should be.", "is_fresh": 1, "author": ["Robert Horton"]},
{"text": "In a wondrous, often beautiful way, that kind of [complete] honesty is the point of Crowe's new film.", "is_fresh": 1, "author": ["Tom Keogh"]},
{"text": "Obviously crafted with a great deal of love, from the hand-written opening credits to the last musical note.", "is_fresh": 1, "author": ["Eric D. Snider"]},
{"text": "What he (and we) ultimately learn is that love ... and even friendship often arrive when least expected.", "is_fresh": 1, "author": []},
{"text": "The performances ... have a beautiful, unforced naturalism, and the movie is laced with memorable moments.", "is_fresh": 1, "author": ["Owen Gleiberman"]},
{"text": "Cameron Crowe has found a niche in making teen films that are much better than the usual teen films.", "is_fresh": 1, "author": ["Dennis Schwartz"]},
{"text": "Anyone who ever had a heart, anyone who ever had a heart broken, will have their heart melted by Almost Famous.", "is_fresh": 1, "author": ["Glenn Kenny"]},
{"text": "The moments are too pat, the jokes too predictable, and the whole thing lacks the sprawl of life, the verisimilitude that would sell the story.", "is_fresh": 0, "author": ["Ben Varkentine"]},
{"text": "After all is said and done Crowe's fictionalized recollection of his early days retains enough warmth, humor and insight to rate a qualified recommendation.", "is_fresh": 1, "author": ["Frank Swietek"]},
{"text": "To say that Crowe tells his sometimes silly and sordid tale of '70s rock debauchery with a non-cynical, hardly sensational posture is to explain why the rock road picture works so well.", "is_fresh": 1, "author": ["Bob Thompson"]},
{"text": "So complete and perfect and full of life that it swept me up into its world and held me there, and I never wanted it to let me go.", "is_fresh": 1, "author": ["MaryAnn Johanson"]},
{"text": "An engaging and well-made character ensemble about finding one's place in the world.", "is_fresh": 1, "author": ["Jim Judy"]},
{"text": "The film comes from the heart and is touched with a tender form of mercy.", "is_fresh": 1, "author": ["Jack Garner"]},
{"text": "Almost Famous is a good film, but it was almost too long.", "is_fresh": 1, "author": ["Kamal 'The Diva' Larsuel"]},
{"text": "The unknown Fugit is perfectly cast as the ingenuous teen, and Crudup's rock swagger is mesmerizing.", "is_fresh": 1, "author": ["Jon Popick"]},
{"text": "The next best thing to a backstage pass.", "is_fresh": 1, "author": ["KJ Doughton"]},
{"text": "Constructs its plot with effective time constraints which create suspense and establish the film's sense of humor.", "is_fresh": 1, "author": ["Yazmin Ghonaim"]},
{"text": "The message is as stillwater clear as it is irresistibly romantic. By virtue of its transcendent graces, music pulls us above the din of our own pettiness.", "is_fresh": 1, "author": ["Geoff Pevere"]},
{"text": "It's easy to connect with a story like Crowe's because it is a story rooted in the human comedy, in truth.", "is_fresh": 1, "author": ["Susan Stark"]},
{"text": "One of the year's most enjoyable movies. It isn't particularly deep, but it resonates with the truths of an era.", "is_fresh": 1, "author": ["Robert W. Butler"]},
{"text": "Crowe has created a genuine love song for all those who've ever felt their lives to have been saved by rock & roll.", "is_fresh": 1, "author": ["Marjorie Baumgarten"]},
{"text": "A good but not great little movie that for some reason has commanded the eager attention of the media and is destined to be overestimated.", "is_fresh": 1, "author": ["Joe Baltake"]},
{"text": "An almost perfect film.", "is_fresh": 1, "author": ["Emily Blunt"]},
{"text": "It rocks hard and sweetly, making that past live and sing for us. I loved this movie madly, and so will many of you.", "is_fresh": 1, "author": ["Michael Wilmington"]},
{"text": "A delightful film that is touching, funny and eminently enjoyable.", "is_fresh": 1, "author": ["Paul Clinton (CNN.com)"]},
{"text": "It's done so well ... that it's hard to know whom to really single out for praise here.", "is_fresh": 1, "author": ["Jeff Vice"]},
{"text": "[Crowe] has crafted a film that is mutually entertaining to outsiders of the industry and insiders, nostalgic without being patronizing, humorous, slick looking, and well acted.", "is_fresh": 1, "author": ["James Brundage"]},
{"text": "[Crowe] has crafted a cast of fresh characters in a realm where cliches often fester, and he is blessed with actors who fulfill their promise.", "is_fresh": 1, "author": ["Ed Scharf"]},
{"text": "An irresistible, dizzying nostalgia trip to a raunchily good-natured moment in pop culture.", "is_fresh": 1, "author": ["Kevin Lally"]},
{"text": "A sweet but curiously unfulfilling story.", "is_fresh": 0, "author": ["Edward Guthmann"]},
{"text": "[Crowe] makes irony seem ridiculous, which itself is beautifully ironic for someone trying to keep rock alive.", "is_fresh": 1, "author": ["Wesley Morris"]},
{"text": "..so well made, so enticing and so intelligent, that there comes a moment at the end when you want to break the silence with thunderous applause.", "is_fresh": 1, "author": ["David Keyes"]},
{"text": "The ... probably most important factor behind Almost Famous' genius is the wealth of magical movie moments with which Cameron dots his labor of love.", "is_fresh": 1, "author": ["Robert Payne"]},
{"text": "It will definitely bring back a flood of memories to anyone who actually lived through those times, and certainly connect to anyone else who has ever been a major fan of any rock band or ever wanted to be a musician (rock star) themselves.", "is_fresh": 1, "author": ["JoBlo"]},
{"text": "Such a dazzlingly entertaining mess that it's tempting to ignore the confusion that eventually overwhelms it.", "is_fresh": 1, "author": ["Gary Mairs"]},
{"text": "The music is great, the concert footage is energetic and John Toll's cinematography is luscious. A completely entertaining film.", "is_fresh": 1, "author": ["Steve Rhodes"]},
{"text": "A well acted ensemble piece without a single lackluster note.", "is_fresh": 1, "author": ["Laura Clifford"]},
{"text": "There is an honesty and reality to the film that make it a worthwhile flick to catch.", "is_fresh": 1, "author": ["Robin Clifford"]},
{"text": "A beautifully photographed, gloriously scored, effectively realized project that could win the affections of both the popcorn set and fans of the loosely-structured panoramas of a Robert Altman.", "is_fresh": 1, "author": ["Harvey S. Karten"]},
{"text": "Subplot, and its major players, have charm in spades.", "is_fresh": 1, "author": ["Bill Chambers"]},
{"text": "Almost one of my top ten titles for the year, this imperfect diamond still has much to enjoy.", "is_fresh": 1, "author": ["Ross Anthony"]},
{"text": "God has truly blessed Cameron Crowe. I know this because Crowe is one of the few people in the world who can nostalgically look back on their teenage years and not see personal misery and suffering.", "is_fresh": 0, "author": ["Victoria Alexander"]},
{"text": "He ... shows us what lies beneath the coolness -- the raw, vibrant longing and the aching legacy of things long past.", "is_fresh": 1, "author": ["Eleanor Ringel Cater"]},
{"text": "The film is fundamentally warmhearted.", "is_fresh": 1, "author": ["Dave Kehr"]},
{"text": "Almost Famous is that rarity -- a movie that's great fun to watch and even more fun in retrospect.", "is_fresh": 1, "author": ["Philip Wuntch"]},
{"text": "See it and it'll stay with you as your own memories do: funny, poignant, bittersweet and irreplaceable.", "is_fresh": 1, "author": ["Kenneth Turan"]},
{"text": "Story threads weave tightly together without effort or artifice, and line after line of dialogue is naturalistic, clever, or perfectly timed.", "is_fresh": 1, "author": ["Cody Clark"]},
{"text": "You don't just watch Almost Famous, you listen to it. You groove on it.", "is_fresh": 1, "author": ["Robert Wilonsky"]},
{"text": "Sharply observed, bittersweet and suffused with the kind of detail that only someone who lived through the era could summon up, Crowe's script is funny, heartfelt and very cool.", "is_fresh": 1, "author": ["Stephen Miller"]},
{"text": "Panoramic yet cozy, enthusiastically glib, Almost Famous suggests a universe of interlocking sitcoms.", "is_fresh": 0, "author": ["J. Hoberman"]},
{"text": "The film reels with the nostalgia, exuberance, and bravado of an era long-gone, while also feeling nothing less than immediate and universal.", "is_fresh": 1, "author": ["J. Rentilly"]},
{"text": "Casting is perfect all down the line.", "is_fresh": 1, "author": ["Andy Klein"]},
{"text": "Through Crowe's William, we ride along in the middle of a movie world more amazingly multi-layered than what we've seen on film in a long, long time.", "is_fresh": 1, "author": ["Susannah Breslin"]},
{"text": "Writing and direction are dead on, bringing back the world of rock in the early '70s with a sense of glee.", "is_fresh": 1, "author": ["Eric Lurio"]},
{"text": "An utter delight from the first frame to fade-out, it's a love letter to the 1970s.", "is_fresh": 1, "author": ["Lou Lumenick"]},
{"text": "Hollywood filmmaking at its best, brimming over with feeling, texture, spirit, and several kinds of keenness that transmute experience into big pop myth.", "is_fresh": 1, "author": ["Jay Carr"]},
{"text": "It's big-hearted, bittersweet, and they all shine on.", "is_fresh": 1, "author": ["Dave White"]},
{"text": "The entire movie is as consequential as the Raspberries' greatest hits.", "is_fresh": 0, "author": ["John Anderson"]},
{"text": "Wonderfully harkens back to Hollywood's golden age of sophisticated comedy, and in particular to the masterpieces of Crowe's filmmaking idol, Billy Wilder.", "is_fresh": 1, "author": ["William Arnold"]},
{"text": "Cameron Crowe has truly outdone himself with this honest little film that brilliantly captures the trials and tribulations of growing up.", "is_fresh": 1, "author": ["Jim Chastain"]},
{"text": "If rock music ever sent a shiver down your back, this is the film for you.", "is_fresh": 1, "author": ["Edward Johnson-Ott"]},
{"text": "Will have the ring of truth to anyone who was there. Anyone else should enjoy the ride.", "is_fresh": 1, "author": ["Duane Dudek"]},
{"text": "Its groupie body lacks gonzo bones.", "is_fresh": 0, "author": ["David Elliott"]},
{"text": "What a shame things should fall short, given how many enjoyable moments can be found.", "is_fresh": 1, "author": ["Desson Thomson"]},
{"text": "It's heartfelt, funny, sensitive and wise, and Crowe's obvious love for the music runs so deep that the film ends up rattling around in your soul, like a thumping bass on the other side of a thin apartment wall.", "is_fresh": 1, "author": ["Donald Munro"]},
{"text": "The best pop-culture picture since last year's High Fidelity and one of the best rock & roll movies ever.", "is_fresh": 1, "author": ["Philip Booth"]},
{"text": "A rich, marvelous movie -- the kind that enchants on so many different levels, it leaves you feeling giddy.", "is_fresh": 1, "author": ["Rene Rodriguez"]},
{"text": "A very good movie, filled with splendid performances, many funny moments, strong writing and tender, evocative touches.", "is_fresh": 1, "author": ["Mary F. Pols"]},
{"text": "Crowe is so good on mood and milieu that when Elton John's bubblegum ballad 'Tiny Dancer' swells on the soundtrack, in this context it sounds like a hymn.", "is_fresh": 1, "author": ["Carrie Rickey"]},
{"text": "What really makes Almost Famous almost great is McDormand's brilliance as the mother only some of us get: a woman who prepares her child for an extraordinary life.", "is_fresh": 1, "author": ["Chris Hewitt (St. Paul)"]},
{"text": "[Crowe] seems to be remembering experiences that he doesn't have a hold on, and emotions that he's never completely sorted out for himself.", "is_fresh": 0, "author": ["Christopher Kelly"]},
{"text": "What moments it has! With his pitch-perfect ear for the music swirling through every scene, Crowe seems to hear the words in his characters' hearts.", "is_fresh": 1, "author": ["Bruce Newman"]},
{"text": "Almost Famous isn't half bad, but I have to say that after 120 minutes of it, I was more than ready to flee, lest the cast break into another group version of 'Tiny Dancer.'", "is_fresh": 0, "author": ["Gary Thompson"]},
{"text": "It's a lot like being invited to a friend's house to watch home movies, but he keeps the real stuff locked up and shows old programs he taped from television instead.", "is_fresh": 0, "author": ["Eric Harrison"]},
{"text": "Hudson emits the intuitive wisdom of the sexually charged rock and roll lifestyle with a fierce and poetic air of self-destruction.", "is_fresh": 1, "author": ["Jay Stone"]},
{"text": "When Crowe is concentrating on the glitter and decadence of the rock milieu, with its wild assortment of characters, the film is a funny and poignant tale about the grinding insanity of life on the road.", "is_fresh": 1, "author": ["Kevin Courrier"]},
{"text": "Beautiful, though flawed, love letter to early 70's rock and roll highlighted by Crowe's clever quip-driven dialogue.", "is_fresh": 1, "author": ["Dan Jardine"]},
{"text": "A vividly realized labor of love and an absolute pleasure to watch.", "is_fresh": 1, "author": ["Rob Blackwelder"]},
{"text": "An endearing coming-of-age drama that conveys the important role rock music plays for youth, helping them through one of the most confusing stages of life.", "is_fresh": 1, "author": ["Frederic and Mary Ann Brussat"]},
{"text": "one of the best movies of the year", "is_fresh": 1, "author": ["Blake French"]},
{"text": "To crib a line from Crowe's last film, Almost Famous had me at hello.", "is_fresh": 1, "author": ["Scott Renshaw"]},
{"text": "May be almost great, but that's more than enough.", "is_fresh": 1, "author": ["Michael Dequina"]},
{"text": "Everything you'd expect from a Cameron Crowe movie, and more.", "is_fresh": 1, "author": ["David N. Butterworth"]},
{"text": "Perfectly cast from top to bottom, with many fine performances shining through.", "is_fresh": 1, "author": ["Dustin Putman"]},
{"text": "I haven't had such a good time at the movies in ages.", "is_fresh": 1, "author": ["Susan Granger"]},
{"text": "", "is_fresh": 0, "author": ["Jules Brenner"]},
{"text": "", "is_fresh": 1, "author": ["Bryant Frazer"]},
{"text": "", "is_fresh": 1, "author": []},
{"text": "", "is_fresh": 1, "author": []},
{"text": "", "is_fresh": 1, "author": ["Jeremiah Kipp"]},
{"text": "", "is_fresh": 1, "author": ["Garth Franklin"]},
{"text": "", "is_fresh": 1, "author": ["Madeleine Williams"]},
{"text": "", "is_fresh": 1, "author": ["Matt Easterbrook"]},
{"text": "", "is_fresh": 0, "author": ["James Verniere"]},
{"text": "", "is_fresh": 1, "author": ["Robert Denerstein"]},
{"text": "", "is_fresh": 1, "author": ["Mac Verstandig"]}
]