[
{"reviews_count": "107", "title": "Beerfest", "avg_audience_rating": "3.3", "rotten_count": "64", "tomatometer": "40", "audience_score": "75", "avg_critic_rating": "  5", "fresh_count": "43", "user_ratings_count": "198,829"},
{"text": "The bloated running time (110 minutes!) certainly doesn't do the film any favors...", "is_fresh": 0, "author": ["David Nusair"]},
{"text": "The Broken Lizard crew amuse each other with enough banal antics (can anything else account for this film running nearly two hours?) that the sober viewer suffers enormous gaps of boredom between good jokes.", "is_fresh": 0, "author": ["Mark Palermo"]},
{"text": "Five pounds of (funny) stuff in a 12-pound bag.", "is_fresh": 1, "author": ["Scott Weinberg"]},
{"text": "...aggressively, rampantly, jaw-droppingly dull.", "is_fresh": 0, "author": ["John J. Puccio"]},
{"text": "Broad strokes comedy in which fat characters are hot dog eating champions and Germans are a beer-chugging cross between Captain von Trapp, Hitler and Heidi", "is_fresh": 1, "author": ["Urban Cinefile Critics"]},
{"text": "It's not for everyone, but this delivers pretty much everything you could be expecting from a film called Beerfest.", "is_fresh": 1, "author": ["Matthew Turner"]},
{"text": "Beerfest is a film that appears to have been conceived on the back of a beermat and its trashy direction, nonexistent plot and dismal comic mugging would seem to suggest that preparations progressed no further.", "is_fresh": 0, "author": ["David Jenkins"]},
{"text": "Fans of Broken Lizard's previous work will enjoy this beer-fuddled effort; for anyone else it has its moments, but is best watched through beer-goggles.", "is_fresh": 1, "author": ["James Swanwick"]},
{"text": "Like a bad batch of homebrew - all the ingredients are there for a fun comedy, but it's just a bit off.", "is_fresh": 0, "author": ["Cherryl Dawson and Leigh Ann Palone"]},
{"text": "Possibly the most irresponsible movie ever made and also one of the worst.", "is_fresh": 0, "author": ["Boo Allen"]},
{"text": "This tepid celebration of binge drinking goes flat fast.", "is_fresh": 0, "author": ["Susan Granger"]},
{"text": "While we'd probably be exaggerating to claim that Beerfest is the least funny film ever made, it's undoubtedly top ten material.", "is_fresh": 0, "author": ["Paul Arendt"]},
{"text": "If belching and beer games make you laugh, Beerfest should be on your A-list. But don't see it sobe", "is_fresh": 0, "author": ["Michael Szymanski"]},
{"text": "\"Beerfest\" doesn't offer much more than a keg of cheap laughs %u2014 but that's something worth drinking to.", "is_fresh": 1, "author": ["Angela Baldassarre"]},
{"text": "When the movie ended, I needed a drink, but not for the reasons that the movie intended.", "is_fresh": 0, "author": ["Toddy Burton"]},
{"text": "\"Beerfest\" has its moments. But essentially it's all foam and no body. ", "is_fresh": 0, "author": ["Linda Cook"]},
{"text": "Beerfest is what it is, silliness that entertains at its own lowbrow level.", "is_fresh": 1, "author": ["John Wirt"]},
{"text": "Drunkenness, binge drinking and German-hating have never seemed so appealing.", "is_fresh": 1, "author": ["Eric D. Snider"]},
{"text": "There's an old slogan for a popular beer company: \"Tastes great, less filling.\" Beerfest would certainly have tasted better had it been less filling by about 30 minutes.", "is_fresh": 0, "author": ["Mike McGranaghan"]},
{"text": "It draws some occasional big laughs, has a few serious misfires, but sustains a tone of sloppy jocularity throughout.", "is_fresh": 0, "author": ["Rob Thomas"]},
{"text": "While no one sober will consider this a comedy classic, there are some gems buried in the muck. ", "is_fresh": 0, "author": ["Daniel M. Kimmel"]},
{"text": "Its most egregious trait is the inability to conjure up laughs over the course of two hours.", "is_fresh": 0, "author": ["John Thomason"]},
{"text": "Just too much of a not-all-that-good thing -- kind of like drinking a case of Pabst Blue Ribbon. ", "is_fresh": 0, "author": ["Ken Hanke"]},
{"text": "In the end, the group's low-key charm is what makes this strange brew of frat-house comedy, sports movie and triumph-of-the-underdog tale go down smoothly.", "is_fresh": 1, "author": ["Ethan Alter"]},
{"text": "Even in a wacky, stupid comedy like this you have to have some thread of a plot.", "is_fresh": 0, "author": ["Richard Roeper"]},
{"text": "Friends don't let friends drive a great comedy premise into the ground by making it too long, humorless and flat. The drinking stories you tell your friends are funnier.", "is_fresh": 0, "author": ["Nick Rogers"]},
{"text": "The funniest movie of the summer.", "is_fresh": 1, "author": ["Scott Nash"]},
{"text": "Bound to spark laughs, but the film as a whole is annoyingly underdeveloped.", "is_fresh": 0, "author": ["Rich Cline"]},
{"text": "peeing jokes peaked with Leslie Nielsen's marathon whiz in The Naked Gun", "is_fresh": 0, "author": ["Pete Croatto"]},
{"text": "The tone of Beerfest is like South Park if they did an episode only about the adults in South Park... Even real German actors put on ridiculous accents.", "is_fresh": 1, "author": ["Fred Topel"]},
{"text": "I felt oddly respected: Neck-deep in barley and boobs, marinated in urine, Beerfest panders shamelessly to the 15-year-old in this 30-year-old... without assuming he is a 15-year-old.", "is_fresh": 1, "author": ["Scott Brown"]},
{"text": "My best suggestion for people who insist on going to see this immense waste of time? Go drunk.", "is_fresh": 0, "author": ["Bill Zwecker"]},
{"text": "Ok, so maybe you don't absolutely have to have a Y chromosome and be 14 years old (or have the mind of a 14-year-old) to appreciate the freshmanic humor that is Beerfest. But, oh, does it help.", "is_fresh": 0, "author": ["Joanne Kaufman"]},
{"text": "Beerfest plays like a party that's gone on too long, when the buzz has worn off and the hangover starts to set in.", "is_fresh": 0, "author": ["Scott Bowles"]},
{"text": "The Broken Lizard comedy troupe's fourth feature is funnier than you might imagine.", "is_fresh": 1, "author": ["Ken Fox"]},
{"text": "A movie that feels as if it was conceived, executed, edited and ultimately released by people in an advanced state of gassy inebriation.", "is_fresh": 0, "author": ["Geoff Pevere"]},
{"text": "Beerfest is an excuse to get happily dumb and decadent, which would be great if the movie was actually funny.", "is_fresh": 0, "author": ["Tom Keogh"]},
{"text": "Fans of Broken Lizard will appreciate the obnoxiousness, but all the audacity is less \"transgressive\" of social norms than conventional.", "is_fresh": 0, "author": ["Cynthia Fuchs"]},
{"text": "If you like to drink Pabst Blue Ribbon beer, you'll probably like this movie. If you're a cognac person, the scene where the great-grandmother performs a sex act on a sausage may not be refined enough for your tastes.", "is_fresh": 0, "author": ["Peter Hartlaub"]},
{"text": "Because it's basically sketch comedy, it suffers from that unevenness that comes from trying to string a bunch of sketches together to form a cohesive whole. It is also ribald, outrageous, shameless, and oddly warmhearted.", "is_fresh": 1, "author": ["Pam Grady"]},
{"text": "It's fun-dumb and definitely not everyone's cup of tea -- I don't want to oversell it -- but Broken Lizard keeps it interesting by refusing to color inside the lines, creating their own silly little universe.", "is_fresh": 1, "author": ["Mike Russell"]},
{"text": "It's amusing on occasion, but also garbled, repetitious and potentially offensive.", "is_fresh": 0, "author": ["Lisa Rose"]},
{"text": "This movie will be as essential to the DKE house as a Sharpie for writing jokes on a passed-out brother; it's pure guy humor.", "is_fresh": 1, "author": ["Kyle Smith"]},
{"text": "Among the cast, Chandrasekhar is easily the funniest of the Lizards, though in fairness, each has his moments. The movie does, too; just expect them to shrink exponentially depending on your level of sobriety.", "is_fresh": 0, "author": ["Elizabeth Weitzman"]},
{"text": "Still, while Beerfest is chaotic and lame, the truth is, it never pretends to be anything else.", "is_fresh": 0, "author": ["Duane Dudek"]},
{"text": "Thanks to Broken Lizard, beer drinkers finally have a movie to call their own%u2026 and it kicks ***.", "is_fresh": 1, "author": ["Chris Carle"]},
{"text": "Beerfest features more beer consumed on screen than any movie since Strange Brew, while simultaneously offering less in the way of redeeming social value than Freddy Got Fingered.", "is_fresh": 0, "author": ["Peter Debruge"]},
{"text": "Good for a few giggles, some of that stuff. But you'll probably have more laughs over a couple cold ones at the neighborhood bar than you will at Beerfest.", "is_fresh": 0, "author": ["Bob Strauss"]},
{"text": "Ultimately, the film's target demographic is the same people that engage in these drinking games and incessantly quote Old School. To them, it is a classic on a par with The Wedding Crashers. All others should opt out for a cold one.", "is_fresh": 0, "author": ["Steve Kobak"]},
{"text": "Broken Lizard fans might enjoy this idiocy, but there isn't enough here to attract any new audiences for the troupe's silly antics.", "is_fresh": 0, "author": ["Bruce Kirkland"]},
{"text": "Watching endless scenes of sport drinking gets tiresome and by the time the film reaches the final competition, you might feel too bloated to laugh.", "is_fresh": 0, "author": ["Jennie Punter"]},
{"text": "Scene by scene it's funny enough, but it goes exactly where you expect it to go, which makes the last third a lot less funny than the first two-thirds.", "is_fresh": 0, "author": ["Tom Long"]},
{"text": "The script, cowritten by all the members, is too sloshy and bleary-eyed to throw any darts that hit anything but the wall.", "is_fresh": 0, "author": ["Terry Lawson"]},
{"text": "Beerfest is a one-joke movie (\"Hey what if the Olympics had cool competitions like beer pong?\") and the level to which it sustains that one joke is almost admirable.", "is_fresh": 0, "author": ["Dan Fienberg"]},
{"text": "Beerfest is dumb as a box of rocks. It's a brawny, badly-shot mess that goes on a little too long. .... And I loved it -- or, rather, I laughed during it and was consistently amused by audacity and stupidity going hand in hand.", "is_fresh": 1, "author": ["James Rocchi"]},
{"text": "Unapologetically crude and politically incorrect, this is certainly not for everyone. But those with an appreciation for such things will be delighted.", "is_fresh": 1, "author": ["Jeff Vice"]},
{"text": "Beerfest won't kill you, but unless you're in a certain brew-guzzling youth demographic, you might find yourself wondering why you're not laughing at this helping of bad-news beers.", "is_fresh": 0, "author": ["Robert Denerstein"]},
{"text": "Beerfest may have good lineage, but that doesn't always make for a good movie. In any case, there it is -- all bloated and glassy-eyed and ready for a swig.", "is_fresh": 0, "author": ["Tim Cogshell"]},
{"text": "Making a comedy that celebrates binge drinking and cretinous behavior isn't a crime against nature. Making one that's as brutally unfunny as Beerfest is.", "is_fresh": 0, "author": ["Ty Burr"]},
{"text": "You'll laugh your Heineken off! Check your brain at the door for this hilarious and unapologetically raunchy yukfest.", "is_fresh": 1, "author": ["Pete Hammond"]},
{"text": "In telling the story of a secret Fight Club-style drinking competition that literally takes place beneath Munich's famous Oktoberfest, it hopes to become the ultimate frat-boy beer-drinking cult movie. I don't think it gets there.", "is_fresh": 0, "author": ["Andrew O'Hehir"]},
{"text": "I cannot explain why [someone] manually ejaculating a frog [is] funny. ... If you cannot accept that such a scene might be funny, \"Beerfest\" is not your movie.", "is_fresh": 1, "author": ["Sean P. Means"]},
{"text": "[Beerfest] gets off to a shaky start and sputters to a conclusion at least half an hour later than it should, but it's got a creamy middle.", "is_fresh": 1, "author": ["Scott Tobias"]},
{"text": "It's one of those films that looks like it was more fun to make than it is to watch. I wanted it to be great, but it's only good.", "is_fresh": 1, "author": ["John Venable"]},
{"text": "...you're going to enjoy it a lot more if you spent a healthy chunk of your late teens/early 20s playing Bullsh*t and doing keg stands", "is_fresh": 1, "author": ["Pete Vonder Haar"]},
{"text": "best viewed when extremely intoxicated.", "is_fresh": 0, "author": ["Eric Lurio"]},
{"text": "Best viewed while sloshed, Beerfest is idiotic, tasteless and irrepressibly good-natured in other words, a frat-house classic.", "is_fresh": 1, "author": ["Jeannette Catsoulis"]},
{"text": "Real-life beer is needed to fully appreciate the experience, so if you aren't lucky enough to be near a theater that sells alcohol, waiting for the DVD -- and a kegger -- is the only way to go.", "is_fresh": 0, "author": ["Luke Y. Thompson"]},
{"text": "Beerfest is tedious and, at 112 minutes, too long to sustain a sophomoric, one-joke comedy even for the presumed target audience of older male teens and the college-age crowd.", "is_fresh": 0, "author": ["Kirk Honeycutt"]},
{"text": "imagine Fight Club. Now add beer.", "is_fresh": 1, "author": ["Kevin Carr"]},
{"text": "Beerfest wants to run aimlessly amok in its chaotic craziness but this whole sordid affair is so sloppily conceived that it couldn't even walk a crooked line.", "is_fresh": 0, "author": ["Frank Ochieng"]},
{"text": "These guys look like a bunch of accountants making movies on their smoke break, and Beerfest isn't made to please anybody but their fraternity brothers still chained to their Peter Pan Syndrome.", "is_fresh": 0, "author": ["Brian Orndorf"]},
{"text": "I can't remember a year when there have been as many horrible movies. \"Beerfest\" is the poster child for them...makes \"Talladega Nights\" look like Hamlet.", "is_fresh": 0, "author": ["Tony Medley"]},
{"text": "A hard 'R' comedy outfitted with plenty of female nudity and no unnecessary romantic subplots, Beer Fest has all the commitment of a night of drunken college debauchery and none of the \"double secret probation\" ramifications.", "is_fresh": 1, "author": ["Mike Ward"]},
{"text": "Any filmgoer off the street could head into this one dry and still find something hard to laugh at.", "is_fresh": 1, "author": ["Erik Childress"]},
{"text": "... guys in lederhosen and Tyrolean hats with mincing mock-German accents, American can-do spirit in the face of overwhelming beer consumption, and gratuitous sight gags.", "is_fresh": 1, "author": ["Sean Axmaker"]},
{"text": "funny when it goes for outrageous and farcical, but tedious when it displays the originality of a Kevin Federline rap.", "is_fresh": 0, "author": ["Willie Waffle"]},
{"text": "The boys of Broken Lizard have no shame. That's what their fans like about them.", "is_fresh": 0, "author": ["Nell Minow"]},
{"text": "Juvenile, scattershot, eager-to-please, and laugh-out-loud funny.", "is_fresh": 1, "author": ["Dustin Putman"]},
{"text": "Accept Beer Fest for the ludicrous frat-boy fantasyland it strives to portray and there's a chance you might laugh at most of it. There's a better chance that you'll hate yourself for it the next morning.", "is_fresh": 1, "author": ["Gene Seymour"]},
{"text": "The Broken Lizard comedy troupe returns to the big screen with a film that is, impossibly, even more sophomoric than their seminal Super Troopers.", "is_fresh": 0, "author": ["Matt Bradley"]},
{"text": "Silly, very un-PC, often laugh-out-loud funny and refreshingly short on bathroom humor, Beerfest is Strange Brew's endearingly ungainly cousin. ", "is_fresh": 1, "author": ["Laura Clifford"]},
{"text": "Knows it's a dumb movie and plugs ahead cheerily and without pretention...but the jokes quickly run thin.", "is_fresh": 0, "author": ["Peter Canavese"]},
{"text": "Beerfest serves up a keg's worth of fun.", "is_fresh": 1, "author": ["Annemarie Moody"]},
{"text": "Beerfest is one sloppy comedy, but the lads of the comedy troupe Broken Lizard don't know when to say when in their pursuit of the idiotic laugh.", "is_fresh": 0, "author": ["Michael Phillips"]},
{"text": "There's roughly a pint of quality comedy rattling around in this keg-sized movie.", "is_fresh": 0, "author": ["Brian Lowry"]},
{"text": "An hour and 50 minutes! Were they trying for the War and Peace of chugger flicks?", "is_fresh": 0, "author": ["Stephen Hunter"]},
{"text": "Beerfest has a good time making fun of two genres: Mighty Ducks/team-of-plucky-misfits movies and Magnificent Seven/assemble-a-crack-team-of-experts movies.", "is_fresh": 1, "author": ["Chris Hewitt (St. Paul)"]},
{"text": "Beerfest might not be your cup of tea -- or mug of pilsener -- but fans of the group's earlier movies (Super Troopers and Club Dread) know what to expect: cleverly construed bad taste.", "is_fresh": 1, "author": ["Jeff Strickler"]},
{"text": "At 111 minutes, the movie is too slackly paced to build up enough momentum; like the characters they play, these guys don't know when to call it a night.", "is_fresh": 0, "author": ["J. R. Jones"]},
{"text": "If you're not amused by German accents or burping, this probably isn't your movie.", "is_fresh": 0, "author": ["Matt Pais"]},
{"text": "The middle of the movie is plenty long and aimless enough for the troupe to cobble together a handful of quality gags.", "is_fresh": 1, "author": ["Charlie Flowers"]},
{"text": "Like just about every other American screen comedy of the moment, it's far too long in the tooth, with a scattershot final half-hour that seems the work of an editor battling a bad hangover.", "is_fresh": 0, "author": ["Scott Foundas"]},
{"text": "You'd have to be drunk to appreciate Beerfest. Really drunk. So sloshed that you don't know which way is up or down. So wasted that the dull and overlong seems witty and sharp.", "is_fresh": 0, "author": ["Phil Villarreal"]},
{"text": "Would easily qualify as the most aggressively stupid movie of the year had it not been trumped by a movie about NASCAR.", "is_fresh": 1, "author": ["Brian Juergens"]},
{"text": "... there is a lot of dead air, most of which is filled with bare breasts and loud burps.", "is_fresh": 0, "author": ["Josh Larsen"]},
{"text": "Nothing to celebrate...a loud, boozy bust.", "is_fresh": 0, "author": ["Frank Swietek"]},
{"text": "Beerfest unfolds like a decent college kegger, the best moments coming late in the carousal, as more suds are quaffed, inhibitions loosen up and everything starts seeming funnier.", "is_fresh": 1, "author": ["David Germain"]},
{"text": "You'll find yourself shaking your head, then laughing your @$$ off at the next bad joke.", "is_fresh": 1, "author": ["Edward Douglas"]},
{"text": "Both filthier and funnier than Broken Lizard's prior efforts, Beerfest is still decidedly hit-or-miss.", "is_fresh": 1, "author": ["Nick Schager"]},
{"text": "This ode to the mass consumption of tasty brews is out of bubbles. Drink up before you see it, you'll need the buzz.", "is_fresh": 0, "author": ["Joshua Tyler"]},
{"text": "", "is_fresh": 1, "author": ["Brian Gibson"]},
{"text": "", "is_fresh": 0, "author": ["Jim Lane"]},
{"text": "", "is_fresh": 1, "author": ["Jennie Kermode"]},
{"text": "", "is_fresh": 1, "author": ["JoBlo"]},
{"text": "", "is_fresh": 1, "author": []},
{"text": "", "is_fresh": 0, "author": []}
]