[
{"reviews_count": "433", "title": "Black Panther", "avg_audience_rating": "4.1", "rotten_count": "14", "tomatometer": "97", "audience_score": "79", "avg_critic_rating": "8.2", "fresh_count": "419", "user_ratings_count": "83,449"},
{"text": "Black Panther was an entertaining and enlightening film to watch. This film delivers on all levels from the amazing costumes and set pieces all the way down...", "is_fresh": 1, "author": ["Sharronda Williams"]},
{"text": "Ryan Coogler infused this epic superhero story with a distinctly black identity that is fiercely proud and unafraid to confront the failings of American culture when it comes to the treatment of African-Americans.", "is_fresh": 1, "author": ["Kt Schaefer"]},
{"text": "Black Panther is a quintessential superhero film, and an above-average one at that, but it isn't a cinematic revelation.", "is_fresh": 1, "author": ["Matt Ward"]},
{"text": "With the prowess and stealth of a jungle cat, BLACK PANTHER pounces into the Marvel canon with exhilarating, action-packed, edge of your seat excitement and entertainment! ", "is_fresh": 1, "author": ["Debbie Lynn Elias"]},
{"text": "A historic landmark of representation and inclusion on the big screen.", "is_fresh": 1, "author": ["Matt Oakes"]},
{"text": "Within its limited remit, Black Panther is comfortably one of the best superhero films of recent years (not a difficult mantle), and further establishes Coogler's credentials.", "is_fresh": 1, "author": ["PJ Nabarro"]},
{"text": "Early into the new year and Marvel have produced another truly exemplary outing - a refreshing change of style that'll have audiences begging for more", "is_fresh": 1, "author": ["Cameron Frew"]},
{"text": "It goes above and beyond the expected MCU template...and sends a message of empowerment and progressivism that is desperately needed in today's culture.", "is_fresh": 1, "author": ["Jennifer Heaton"]},
{"text": "[T]his is without a doubt one of the best Marvel Studios releases, and low-key feels like the beginning of something different for the company. ", "is_fresh": 1, "author": ["Khal Davenport"]},
{"text": "Black Panther is all at once another formulaic superhero movie and a revolutionary achievement for modern blockbusters, introducing weighty elements such as racism, the African diaspora, and colonialism into the well worn superhero template.", "is_fresh": 1, "author": ["VyceVictus"]},
{"text": "A genuine masterpiece of popcorn filmmaking that raises the bar really high for 2018 blockbusters and a near-perfect version of... well, itself.", "is_fresh": 1, "author": ["Bob Chipman"]},
{"text": "Part political thriller, part palace intrigue, and part superhero epic, Ryan Coogler has made an early-year blockbuster that's both visually stunning and profoundly personal.", "is_fresh": 1, "author": ["Zaki Hasan"]},
{"text": "It's not just a leap forward for representation of people of color or women in the superhero genre; it could be a leap forward for the genre as a whole.", "is_fresh": 1, "author": ["Johnny Gayzmonic"]},
{"text": "It's a really good piece of pop entertainment. It may not be a revolutionary piece of filmmaking, but it's a revolutionary moment in representation on the screen and if you can't acknowledge that I don't know what to say to you.", "is_fresh": 1, "author": ["Sean Mulvihill"]},
{"text": "The world-building of Wakanda is wondrous.", "is_fresh": 1, "author": ["Joel Mayward"]},
{"text": "A film which may just be Marvel's boldest and most distinctive offering yet.", "is_fresh": 1, "author": ["Doug Jamieson"]},
{"text": "Black Panther is a solid, if far from perfect, superhero film, a Marvel flick with a muscular political backbone and a clear sense of its own identity.", "is_fresh": 1, "author": ["Clint Worthington"]},
{"text": "This is a fully realized, stand-alone story with rich characters and a wonderful new world to explore.", "is_fresh": 1, "author": ["Micheal Compton"]},
{"text": "As a rare leading man who isn't defined by toxic masculinity, T'Challa is surrounded by strong women whose feminine power fortifies, rather than antagonizes, his own masculinity.", "is_fresh": 1, "author": ["Li Lai"]},
{"text": "There are a lot of corporate interests that need be served here and yet Coogler has made a blockbuster that feels deeply personal and pertinent to the times we live in.", "is_fresh": 1, "author": ["Aaron Leggo"]},
{"text": "It's so nice to see a Marvel film scripted and shot with some semblance of care, keeping some of the spectacle without sacrificing all of the substance.", "is_fresh": 1, "author": ["Tomas Trussow"]},
{"text": "Black Panther demonstrates the result of letting the oft-overlooked give the formula a whirl - marvelous, pun heck-to-the-yes intended. Statement-making, even.", "is_fresh": 1, "author": ["Nguyen Le"]},
{"text": "Coogler is a director that may make better films than this one, but it will be hard to ever envision a world where he creates something so meaningful to so many people.", "is_fresh": 1, "author": ["Alan French"]},
{"text": "A big win for representation on screen & behind the scenes, my only criticism is that I like the women better than the lead. Fingers crossed for girl power in the sequel. ", "is_fresh": 1, "author": ["Leona Laurie"]},
{"text": "This thrilling Marvel outing packs an intense punch, with style and personality to spare and a real stamp of cultural impact.", "is_fresh": 1, "author": ["Ross Miller"]},
{"text": "This movie came and did the damn thing... Everybody killed it.", "is_fresh": 1, "author": ["Funmi Sunmonu"]},
{"text": "Seeing so many wonderful, powerful, amazing characters that are well written and the fact that they were able to do a movie that was Black for Marvel and that it was good exceeded my expectations.", "is_fresh": 1, "author": ["Danielle Radford"]},
{"text": "With Black Panther, [Coogler] took really, really strong material here and elevated it once again.", "is_fresh": 1, "author": ["Roth Cornet"]},
{"text": "Black Panther is more espionage thriller with political coup than fantasy action adventure. [It's] first and foremost about humanity.", "is_fresh": 1, "author": ["Jared Mobarak"]},
{"text": "You could feel like everybody felt like they were making something that they were really proud of.", "is_fresh": 1, "author": ["Mark Kermode"]},
{"text": "Not a minute of the film is wasted. Coogler manages to pack each with enough backstory, breathless action, emotional heft and political weight to fill three films.", "is_fresh": 1, "author": ["Hope Madden"]},
{"text": "Coogler knows fully too well the reach of something like Black Panther, and he uses the Marvel canvas to paint a bigger - but more importantly, a powerful - picture.", "is_fresh": 1, "author": ["Akhil Arora"]},
{"text": "Black Panther is a study in how to use comic-based material to do something that is both very entertaining and very heady. ", "is_fresh": 1, "author": ["Abbie Bernstein"]},
{"text": "It's the most formidable Marvel film to date; a cinematic artifact that feels like it shouldn't belong to the corporate superhero apparatus. But it's really exciting to know that it does.", "is_fresh": 1, "author": ["Adam Epstein"]},
{"text": "Black Panther is performed with all the same tenor as a Shakespearean tragedy, issues of familial obligation, fate, and impossible rifts creating the dramatic vortex underneath a greenscreen veneer which creates moments of fleckless beauty.", "is_fresh": 1, "author": [" Nicholas Bell"]},
{"text": "But Black Panther was a moment, not just for Marvel fans and Disney stans, but it was the rare instance of a film purporting itself to be a cultural movement, and succeeding.", "is_fresh": 1, "author": ["Robert Daniels"]},
{"text": "Coogler's got a great visual eye, and teaming up with Rachel Morrison again yields some lovely camera work, but his true gift is drawing performances from actors and world building.", "is_fresh": 1, "author": ["Terence Johnson"]},
{"text": "Longtime fans, newcomers and moviegoers alike will find this film emotional, mesmerizing and refreshing yet familiar. It'll quickly become the new movie you'll want to watch again and again.", "is_fresh": 1, "author": ["Kiera Allen"]},
{"text": "Black Panther has everything you would want from a great blockbuster, but because it is thoughtful and even challenging in its subtexts, it adds more to its value as a groundbreaking film in its genre.", "is_fresh": 1, "author": ["Alci Rengifo"]},
{"text": "This isn't just a Marvel movie, but a historic mark in Black cinema.", "is_fresh": 1, "author": ["Rendy Jones"]},
{"text": "Coogler's script ... populates the film with some of the most fun and interesting characters in the Marvel series to date.", "is_fresh": 1, "author": ["Kimberly Pierce"]},
{"text": "Black Panther is a cinematic triumph. It dominates and overcomes racial and social barriers while executing a superhero film.", "is_fresh": 1, "author": ["Annie Banks"]},
{"text": "\"Black Panther\" absolutely meets muster. Royally so. It's one of the very best of the genre.", "is_fresh": 1, "author": ["Khari J. Sampson"]},
{"text": "With a stacked cast, breathtaking production design and sensitive, heartfelt storytelling, Black Panther is a refreshing and exciting movie that promises to take the superhero genre to new heights.", "is_fresh": 1, "author": ["Stephanie Watts"]},
{"text": "A vastly entertaining superhero movie with a new hero who is easy to root for.", "is_fresh": 1, "author": ["Deirdre Crimmins"]},
{"text": "Coogler's film is a visual masterpiece and also very impactful. Boasted by a phenomenal cast, it's easily the best Marvel film to date.", "is_fresh": 1, "author": ["Mae Abdulbaki"]},
{"text": "What really blew me away was the women. Physically, mentally, spiritually, socially-it's the females in this film who truly conquer, while the men spend a lot of time grappling with each other in the mud.", "is_fresh": 1, "author": ["Lisa Johnson Mandell"]},
{"text": "Black Panther is on such a superb level of visual excellence, you may find yourself salivating.", "is_fresh": 1, "author": ["Jazz Tangcay"]},
{"text": "The movie lives up to its hype. It excels as a superhero action film while pressing the boundaries of what the superhero genre can say about politics, diversity, and the power of fantasy to shape moral imagination.", "is_fresh": 1, "author": ["Kathryn Reklis"]},
{"text": "Under Ryan Coogler's sturdy direction, the nuances and details of the Black Panther storyline are impeccable. Structure firmly in place, there isn't a stereotype on the screen. It's a game changer.", "is_fresh": 1, "author": ["Lapacazo Sandoval"]},
{"text": "Marvel's Black Panther film means so much to so many people. The film is a lightning rod of representation, in a time where black people feel so belittled and not paid attention to.", "is_fresh": 1, "author": ["Mikey Mason"]},
{"text": "Coogler does the character of Black Panther justice, and in doing so has applied a defibrillator to the heart of the Marvel Movie Universe.", "is_fresh": 1, "author": ["Tom Santilli"]},
{"text": "The present-day need for new myths is laid bare in Black Panther.", "is_fresh": 1, "author": ["A.S. Hamrah"]},
{"text": "Black Panther distinguishes itself from other Marvel movies by granting its characters deep-seated motivations that extend past borders and generations.", "is_fresh": 1, "author": ["Clover Hope"]},
{"text": "Even without the franchise best production design, costumes, cinematography, and effects, \"Black Panther\" has a compelling story at its heart that makes both heroes and villains relatable.", "is_fresh": 1, "author": ["Wesley Lovell"]},
{"text": "It is a beautifully shot family melodrama with a uniformly excellent cast imbuing every scene and interaction with affection, fear, or anger so deep, you feel it as if you were watching your own family suffer.", "is_fresh": 1, "author": ["Tom Fitzgerald and Lorenzo Marquez"]},
{"text": "A story of diversity, family and compassion, Black Panther roars onto the screen at a million miles an hour.", "is_fresh": 1, "author": ["Michael A. Smith"]},
{"text": "Black Panther is a beautiful, meticulously created, gorgeously shot, incredibly detailed, terrifically acted, brilliantly directed movie.", "is_fresh": 1, "author": ["TK Burton"]},
{"text": "Boseman more or less gives the movie to Jordan and to the many beautiful, brilliant women surrounding him.", "is_fresh": 1, "author": ["Rob Gonsalves"]},
{"text": "Without the technological accomplishments in film that predate Black Panther, its captivating beauty, breathtaking views, and edge-of-your-seat moments would not be possible.", "is_fresh": 1, "author": ["Anna Deavere Smith"]},
{"text": "There is a lot that is fairly generic in the film, especially in the action sequences, but you can always sense Coogler's investment in the characters and what they stand for. ", "is_fresh": 1, "author": ["James Kendrick"]},
{"text": "Even if it's overrun by too-elaborate designs and animation, the plot, characters and ideas are strong enough to overcome the digital onslaught.", "is_fresh": 1, "author": ["Rich Cline"]},
{"text": "It's truly elevating to watch \"Black Panther\" reveal itself as Marvel's most ambitious movie to date.", "is_fresh": 1, "author": ["John Serba"]},
{"text": "Ryan Coogler's first misfire...", "is_fresh": 0, "author": ["David Nusair"]},
{"text": "Black Panther hits many high notes as a superhero movie, but it also contains a hopeful message about the tribe of humanity.", "is_fresh": 1, "author": ["Loren King"]},
{"text": "[PODCAST] \"Black Panther\" is forgettable as it is toxic. To pretend otherwise is pure folly. ", "is_fresh": 0, "author": ["Cole Smithey"]},
{"text": "Black Panther is on another level altogether. ", "is_fresh": 1, "author": ["Jason Di Rosso"]},
{"text": "An entertaining, engaging and impassioned movie that is both proud of and confident in its differences, and is also committed to shining the spotlight on the people that blockbuster cinema so often ignores.", "is_fresh": 1, "author": ["Sarah Ward"]},
{"text": "Delivers on its promise as a superhero movie of action, thought and influence.", "is_fresh": 1, "author": ["Matthew Pejkovic"]},
{"text": "At once a landmark for the representation of black bodies on the big screen at a premium price point and a terrifically crafted entertainment in its own right, director Ryan Coogler ably delivers on the enormous expectations laid before him.", "is_fresh": 1, "author": ["Shaun Munro"]},
{"text": "Even soulless, Easter-egg hating film snobs like me can find a lot to admire in Black Panther.", "is_fresh": 1, "author": ["Molly Laich"]},
{"text": "Run, don't walk, to the theater to see Black Panther. This is not hyperbole. It's just that good. Heck, saying it's just \"good\" is underselling it.", "is_fresh": 1, "author": ["Monique Jones"]},
{"text": "It's difficult to measure the importance of a film like this - and it's a relief that, besides being so relevant, this is such a great movie. [Full review in Portuguese.]", "is_fresh": 1, "author": ["Pablo Villa\u00e7a"]},
{"text": "Black Panther is groundbreaking in a multitude of ways.", "is_fresh": 1, "author": ["Alexis Nedd"]},
{"text": "That novel strain of black empowerment, and a powerhouse supporting cast ... are enough to compensate for all the usual cliches and paint-by-number action scenes.", "is_fresh": 1, "author": ["Jim Lane"]},
{"text": "Laced with political messages, Black Panther is a film to be admired for its rich, compelling story.", "is_fresh": 1, "author": ["Matthew Toomey"]},
{"text": "Who would have thought that taking a risk would actually work.", "is_fresh": 1, "author": ["Amelia Navascues"]},
{"text": "Coogler's screenplay (co-written by Joe Robert Cole) gets T'Challa and Erik's conflict exactly right.", "is_fresh": 1, "author": ["J. Olson"]},
{"text": "... fantastic use of colors, costumes, sounds and music.. [Full review in Spanish]", "is_fresh": 1, "author": ["Ruben Peralta Rigaud"]},
{"text": "Black Panther gives off a contemporary crackle while staying true to its roots, both African and Marvel.", "is_fresh": 1, "author": ["Michael Sragow"]},
{"text": "... Black Panther is a superhero film with a nuanced, intelligent discourse and, as it is revealed at the end, proactive. [Full review in Spanish]", "is_fresh": 1, "author": ["Daniel Krauze"]},
{"text": "Black Panther is a joy of of a film, a pleasure to watch, get lost in, and revisit, with a diverse and lovable cast of characters, sumptuous visuals, and an engrossing story.", "is_fresh": 1, "author": ["Robert Evers"]},
{"text": "The fact that Chadwick Boseman, Michael B. Jordan, Lupita Nyong'o, Danai Gurira, Forest Whitaker and Martin Freeman are all deeply committed to their roles only makes Black Panther more effective for audiences of all colors, and an important statement.", "is_fresh": 1, "author": ["Diane Pershing"]},
{"text": "'Black Panther' is a Marvel-ous masterpiece.", "is_fresh": 1, "author": ["Linda Cook"]},
{"text": "In short, Black Panther emerges as a great cinematic triumph. [Full review in Spanish]", "is_fresh": 1, "author": ["Jos\u00e9 Mart\u00edn"]},
{"text": "Black Panther is good, but it's not the greatest film of the MCU. [Full Review in Spanish] ", "is_fresh": 1, "author": ["Rafael Rosales Santos"]},
{"text": "One of the best comic adaptations we have ever seen. [Full Review in Spanish] ", "is_fresh": 1, "author": ["Carlos D\u00edaz Reyes"]},
{"text": "Comes as close as a film possibly can to sloughing off all of the problems that persistently cling to this franchise.", "is_fresh": 1, "author": ["Tim Brayton"]},
{"text": "Emotional, occasionally funny, and narratively unpredictable. (...) I doubt any other blockbuster will manage to surpass 'Black Panther' this year. [Full review in Spanish]", "is_fresh": 1, "author": ["Sebastian Zavala Kahn"]},
{"text": "The majority of moviegoers want to see films led by strong, intelligent characters that are more diverse than just heterosexual white men, especially when they are as thoughtfully and beautifully made as this one.", "is_fresh": 1, "author": ["Lee Jutton"]},
{"text": "Some of those punches Killmonger throws have a definite Adonis Creed look to them. ", "is_fresh": 1, "author": ["Bob Grimm"]},
{"text": "This expansiveness is what is most thrilling about Black Panther: the film gives all of its black characters the space to be several things at once. To be both king and failure. Villain and revolutionary. Genius and warrior.", "is_fresh": 1, "author": ["Hanif Abdurraqib"]},
{"text": "A superhero movie that raises key questions about the responsibilities of a nation to the rest of the world.", "is_fresh": 1, "author": ["Frederic and Mary Ann Brussat"]},
{"text": "Move over Star Wars. A new force is with us.", "is_fresh": 1, "author": ["Tony Macklin"]},
{"text": "It goes beyond the usual popcorn superhero film by being more complex, yet still keeps the winning genre formula.", "is_fresh": 1, "author": ["Dennis Schwartz"]},
{"text": "Black Panther is the superhero film we need now, one that mixes entertainment with social awareness. It serves up a powerful but flawed hero, a villain we sympathize with and strong female characters. ", "is_fresh": 1, "author": ["Beth Accomando"]},
{"text": "What [Ryan] Coogler and his cast have achieved with this film is so rewarding and distinctive. [Full Review in Spanish]", "is_fresh": 1, "author": ["Juanma Fern\u00e1ndez Par\u00eds"]},
{"text": "This version of Black Panther weaves a seemingly disparate set of strands together rather seamlessly, presenting more than enough comic book acrobatics and mayhem to satisfy the core fan base while also speaking a necessary degree of truth to power.", "is_fresh": 1, "author": ["tt stern-enzi"]},
{"text": "Black Panther is not only an achievement in superhero films, but also the entire medium of filmmaking itself. ", "is_fresh": 1, "author": ["Jake Pesaruk"]},
{"text": "Black Panther is not just smart and politically aware for a superhero film -- it's smart and politically aware, full stop.", "is_fresh": 1, "author": ["Helen Lewis"]},
{"text": "The feelings of loss and envy running through the film...add a level of emotional complexity to Black Panther beyond anything you might reasonably have expected. ", "is_fresh": 1, "author": ["Stuart Klawans"]},
{"text": "Rather than reflecting or distorting a world, this technology builds a world and then lets it fall away. I cannot think of a better metaphor than black sand for a diaspora, a word that comes from a \"scattering\" yet has come to signify unity and solidarity", "is_fresh": 1, "author": ["Namwali Serpell"]},
{"text": "Killmonger is such a compelling antagonist because audiences are left to wonder whether to see him as a criminal or the inevitable outcome of society's past sins.", "is_fresh": 1, "author": ["Esau McCaulley"]},
{"text": "Black Panther gives you everything that you want from a Marvel movie, but it goes just that little bit further to sink its claws in and reward its unsuspecting audience.", "is_fresh": 1, "author": ["Alex Doenau"]},
{"text": "There's a visual richness that expands Marvel's movie universe much the way Doctor Strange and the Guardians movies did, in this case with a beautiful blend of Afro-futurism and African mythical elements.", "is_fresh": 1, "author": ["Gary Dowell"]},
{"text": "... it's clear that Coogler has the confidence of a filmmaker twice his age, and the skills to pull it off.", "is_fresh": 1, "author": ["Tara Thorne"]},
{"text": "I have to admit that it is rare to feel any kind of genuine emotion in a superhero film, but Black Panther achieves that very thing.", "is_fresh": 1, "author": ["Dorothy Woodend"]},
{"text": "Normally I'm inclined to not see comic-book movies in the first place, but this is one I'd like to see a second time.", "is_fresh": 1, "author": ["Al Hoff"]},
{"text": "Black Panther isn't just a great movie for the first half of the year; Black Panther is the best movie Marvel's ever made!", "is_fresh": 1, "author": ["Kristen Lopez"]},
{"text": "Black Panther is a larger-than-fiction experience that challenges audiences to see the difference between diversity as a numbers game and the splendor of a piece of art that was created for everyone by everyone.", "is_fresh": 1, "author": ["Lauren Terry"]},
{"text": "Simply 'Marvel'-ous!", "is_fresh": 1, "author": ["Kam Williams"]},
{"text": "Moral complexity is not new to superhero movies, but this may be the first one in which the hero unabashedly changes his worldview and tactics after learning a few hard truths from the villain.", "is_fresh": 1, "author": ["Margot Harrison"]},
{"text": "This is a big budget film directed by a black man, with a black superhero and a largely black cast. This kind of black power is something so rare in movies that it seemed like I was watching a foreign film, made in Wakanda, rather than Hollywood.", "is_fresh": 1, "author": ["Robert Roten"]},
{"text": "Black Panther is the best Marvel movie to date. [Full Review in Spanish]", "is_fresh": 1, "author": ["William Venegas"]},
{"text": "It's very long, but, unlike some of the Marvel movies, it's neither bloated nor convoluted. Instead, it's proud ... Thankfully there aren't a lot of references to other Marvel properties. Iron Man doesn't zip in and save the day. Can you imagine?", "is_fresh": 1, "author": ["CJ Johnson"]},
{"text": "It is paradoxical that both Letitia Wright and Lupita Nyong'o and, above all, the villain embodied by Michael B. Jordan, look more and are better than Black Panther himself. [Full Review in Spanish] ", "is_fresh": 1, "author": ["Luis Mart\u00ednez"]},
{"text": "Black Panther is one of the best superhero films ever made and it makes clear to us that what's next for Avengers: Infinity War will be a full-scale phenomenon. [Full review in Spanish]", "is_fresh": 1, "author": ["Jonathan S\u00e1nchez"]},
{"text": "Black Panther was certainly an intriguing idea, but with its fundamental defects, it just isn't able to achieve the heights it desperately tries to reach.", "is_fresh": 0, "author": ["Jeff Beck"]},
{"text": "Black Panther raises the bar for the next set of superhero movies. [Full Review in Spanish] ", "is_fresh": 1, "author": ["Alejandro Turdo"]},
{"text": "At all times Coogler understands that the most important thing is not simply to tell a story but everything that the story entails, all the characters, and the whole world that surrounds it... [Full review in Spanish]", "is_fresh": 1, "author": ["Emmanuel B\u00e1ez"]},
{"text": "... speaks to all in favor of helping countries in need, opening borders and breaking down walls. [Full review in Spanish]", "is_fresh": 1, "author": ["Erick Ortiz"]},
{"text": "Everything is pieced together so nicely, for a Marvel movie, in a way that I never would have expected. To be this many movies into Marvel, and you're still giving me a movie that surprised me? That's pretty good. ", "is_fresh": 1, "author": ["Andre Meadows"]},
{"text": "Black Panther is a good movie. A really good movie, to be specific, in about three or four different ways. ", "is_fresh": 1, "author": ["Brian Grubb"]},
{"text": "\"Black Panther\" is a cultural landmark, a big-budget Hollywood blockbuster that embraces and celebrates an Afro-centric worldview without shying away from the tensions surrounding race, class and gender in the world today.", "is_fresh": 1, "author": ["Mathew DeKinder"]},
{"text": "Centers its narrative not on superheroes, but on family, the sins of our fathers, and the flawed heroes they can be.", "is_fresh": 1, "author": ["Felix Vasquez Jr."]},
{"text": "We've waited for Black Panther for a long time, and it delivers on Every. Single. Level. ", "is_fresh": 1, "author": ["Sarah Marrs"]},
{"text": "Black Panther feels like the right movie we need... right now. ", "is_fresh": 1, "author": ["Kevin A. Ranson"]},
{"text": "I'm sure there's a petition circulating to have Rob Schneider or Scott Baio replace Chadwick Boseman as T'Challa in the sequel, but that's fortunately not the way the world works. This exciting and pensive drama is a welcome addition to the Marvel canon.", "is_fresh": 1, "author": ["Matt Brunson"]},
{"text": "The problem is that this laudable political discourse ends up drowning a film that has its best moments not around the noble T'Challa, but around the great villain of the film - and the only true star of the whole movie- Michael B. Jordan... ", "is_fresh": 0, "author": ["Ernesto Diezmartinez"]},
{"text": "As with very few in the genre, this is a game-changer.", "is_fresh": 1, "author": ["Daniel M. Kimmel"]},
{"text": "We're now 10 years and 18 movies into Marvel's expanding \"cinematic universe\" and it's beginning to show its age. Now the Black Panther is taking his claws to the old formula.", "is_fresh": 1, "author": ["Andy Lea"]},
{"text": "When it comes to creative visuals, engaging action and likable characters, \"Black Panther\" stands confidently next to the best fare offered up by the Marvel Cinematic Universe.", "is_fresh": 1, "author": ["Matthew Rozsa"]},
{"text": "Jordan *hurts* in this movie. He aches in a way our bullet-proof, melancholy Prince could never begin to understand, lashing out at the very fantasy this comic book movie represents. This wonderfully messy film is actually angry at itself.", "is_fresh": 1, "author": ["Sean Burns"]},
{"text": "Coogler has brought off something impressive here: he's made one of the few halfway watchable Marvel movies and returned the comic strip to the streets where it belongs.", "is_fresh": 1, "author": ["Tom Shone"]},
{"text": "balances the mystical and profane elements of the story, giving them equal weight in a challenging story in which the definitions of wisdom and of compassion become the real struggle. ", "is_fresh": 1, "author": ["Andrea Chase"]},
{"text": "Didn't wow me quite as much as some of the other Marvel superhero movies, but that is because this movie that puts story and solid character development ahead of spectacle.", "is_fresh": 1, "author": ["Tim Martain"]},
{"text": "\"Black Panther\" doesn't live up to the hype.", "is_fresh": 0, "author": ["Jordan Ruimy"]},
{"text": "I confess to superhero fatigue but this diversity fest is refreshing -- it takes on race and gender, it's quite serious, both in terms of politics and lack of humour, but it is well made by director Ryan Coogler, [and] has lots of action and heart.", "is_fresh": 1, "author": ["Aine O'Connor"]},
{"text": "Coogler [...]has created an epic story of loyalty and destiny that somehow also feels intimate.", "is_fresh": 1, "author": ["Pete Vonder Haar"]},
{"text": "BLACK PANTHER is an incredible and important moment that will mean very much to very many, and is, at its core, simply a great time at the movies, with the potential to be even more in well-deserved sequels.", "is_fresh": 1, "author": ["Diva Velez"]},
{"text": "Nothing that I say will may a bit of difference to the MCU fans and, especially, those of the Panther. But, as an outsider and non-fan of the Universe, I kind of enjoyed it.", "is_fresh": 1, "author": ["Robin Clifford"]},
{"text": "Whether or not this is the best film Marvel Studios has made to date-and it is clearly in the discussion-it is by far the most thought-provoking. ", "is_fresh": 1, "author": ["Christopher Orr"]},
{"text": "The emphasis on identity politics and the social critique of White America, gives Coogler a little space to fashion something distinctive - a different flavour of Marvel movie if you will, with a great new taste, even if the ingredients are well known. ", "is_fresh": 1, "author": ["Ed Whitfield"]},
{"text": "It's big, bold and brazenly political, in a way that will make viewers think instead of simply shrug their shoulders and wait for the next action-packed set piece.", "is_fresh": 1, "author": ["John Urbancich"]},
{"text": "Black Panther is the percussion blast we all need right now, so tip your hat to Ryan Coogler, the director and co-writer of a modern classic that addresses the deep fault lines in American society without compromising action movie fundamentals.", "is_fresh": 1, "author": ["Katherine Monk"]},
{"text": "Black Panther isn't a film about battling a giant robot or chasing magic stones. Instead, it explores issues of power and privilege, taking us inside a country torn apart by questions about whether to share its riches. ", "is_fresh": 1, "author": ["Eli Glasner"]},
{"text": "Black Panther definitely doesn't do anything outside of the Disney Marvel comfort zone but it's as solid a film as a super hero origin story can be.", "is_fresh": 1, "author": ["Alachia Queen "]},
{"text": "Chadwick Boseman is the star of the movie but he is fighting a losing battle against scene stealers such as Michael B Jordan, Letitia Wright and Sterling K. Brown.", "is_fresh": 1, "author": ["Jackie K. Cooper"]},
{"text": "As a superhero film Black Panther is fine entertainment that dutifully hits all the beats it is supposed to. Beyond that, anyone willing to decode the film as some sort of sophisticated allegory about black rights might find themselves tied up in knots.", "is_fresh": 1, "author": ["Jim Schembri"]},
{"text": "... director Ryan Coogler (Creed) enlivens what could have been a tired rehashing of familiar tropes with a bracing blast of fresh elements.", "is_fresh": 1, "author": ["Craig Takeuchi"]},
{"text": "...there's a constant, nagging deference to action sequences. But what Coogler does right, in spite of everything working against him, is almost breath-taking in context.", "is_fresh": 1, "author": ["Rubin Safaya"]},
{"text": "A masterful, entertaining and brilliantly smart Marvel instalment, Black Panther is the superhero film we need right now. We may not deserve it.", "is_fresh": 1, "author": ["Roe McDermott"]},
{"text": "Marvel's world-building energy is actually focused in exciting and provocative ways, reflecting African culture and experience in the film's amazing production design.", "is_fresh": 1, "author": ["Randall King"]},
{"text": "The special effects, sets, costumes, music and production design are bombastic and overpowering at times. Yet, it's also one of the more well-rounded superhero origin films - with a beginning, middle and open end that efficiently sets itself up.", "is_fresh": 1, "author": ["Udita Jhunjhunwala"]},
{"text": "Director/co-writer Ryan Coogler has delivered a picture that earns its spot as one of Marvel's best yet.", "is_fresh": 1, "author": ["Mike McGranaghan"]},
{"text": "The identity politics provide a fresh spin to the genre's increasingly tedious narrative formula.", "is_fresh": 1, "author": ["J. R. Jones"]},
{"text": "If it isn't indisputably the best of Marvel's 18 offerings, it is certainly a contender.", "is_fresh": 1, "author": ["Matthew Norman "]},
{"text": "One of the most immensely gratifying experiences in comic-book cinema.", "is_fresh": 1, "author": ["Annlee Ellingson"]},
{"text": "The world is a constantly evolving place, as the films seem to acknowledge, and to not address that cold reality is to treat the films as mere comic-book fodder than what they have come to be: the narrative epoch of our time.", "is_fresh": 1, "author": ["Piers Marchant"]},
{"text": "This is one of the best stories Marvel has told so far.", "is_fresh": 1, "author": ["Jazmine Joyner"]},
{"text": "Black Panther would not have been as strong a movie if it didn't contemplate those heavier concepts, but the film also never misses a beat to be absolutely joyous and reverent about Wakanda's magnificence.", "is_fresh": 1, "author": ["Charles Pulliam-Moore"]},
{"text": "Black Panther is going to be a cornerstone of blockbuster cinema, giving a criminally undervalued community the chance to not just be on-screen but to thrive on-screen. ", "is_fresh": 1, "author": ["Michael Fairbanks"]},
{"text": "Ryan Coogler's Black Panther is one huuuge gem, and comes closer to achieving truth and realness in its story than any Marvel film has before. ", "is_fresh": 1, "author": ["Jenni Moore"]},
{"text": "Jordan has swagger to spare, with those rolling shoulders, but there's a breath of charm, too, all the more seductive in the overblown atmosphere of Marvel. He's twice as pantherish as the Panther.", "is_fresh": 1, "author": ["Anthony Lane"]},
{"text": "Black Panther is more than good enough and not only does it live up to those sky-high expectations, it pretty much exceeds them. The rare areas in which it stumbles are things that can be easily adjusted before the arrival of the inevitable sequel.", "is_fresh": 1, "author": ["Peter Sobczynski"]},
{"text": "Coogler is trying for a lot of things in Black Panther, probably too many, but there is also a winning modesty to his ambition.", "is_fresh": 1, "author": ["Peter Rainer"]},
{"text": "I loved spending a couple of hours in the Black Panther's magical, transformative world. Mark me down as someone who wants Wakanda to stay isolated.", "is_fresh": 1, "author": ["Max Weiss"]},
{"text": "Black Panther turns racial politics into what Malcolm X called \"politricks\" . . . The media's enthusiasm for this bland action flick is maddening. The problem isn't one particular movie, but the celebration of the illusion of \"progress.\"", "is_fresh": 0, "author": ["Armond White"]},
{"text": "What's the problem? Well, there's way too much expository dialogue and there are too many turgid flashbacks...the hand-to-hand fighting and battle sequences are now so formulaic and predictable in Marvel films that the adrenaline just doesn't kick in.", "is_fresh": 0, "author": ["Saskia Baron"]},
{"text": "Black Panther definitely warrants multiple viewings - one just for the visual roller-coaster ride, and sets itself apart from the rest of the MCU with a formidable blend of good story and magnificent design.", "is_fresh": 1, "author": ["Brooke Corso"]},
{"text": "As a formal showcase for the Black Panther, Coogler's film should keep diehard Marvel fans happy.", "is_fresh": 1, "author": ["Josh Terry"]},
{"text": "[Ryan] Coogler is one of the most exciting young filmmakers we've seen in a long time, and as long as he continues to tell his truth, he's going to go on to have a magnificent career.", "is_fresh": 1, "author": ["Bernard Boo"]},
{"text": "In short, it's a game go, with some nicely layered-in barbs about the state of race relations, and there's a mound of Oscar gold to be found among the impressive (mostly African-American) cast.", "is_fresh": 1, "author": ["Tom Meek"]},
{"text": "Black Panther is, culturally and commercially, the right film at the right time. The significance of bringing a black superhero to the screen at this moment cannot be overstated. Any reservations I have will, and possibly should, fall by the wayside", "is_fresh": 1, "author": ["Leonard Maltin"]},
{"text": "Black Panther isn't just another superhero movie.", "is_fresh": 1, "author": ["Neil Miller"]},
{"text": "... the film manages to transcend beyond a story of superheroes. [Full review in Spanish]", "is_fresh": 1, "author": ["Sergio L\u00f3pez Aguirre"]},
{"text": "The film could not have come at a better time. And it does something incredibly important: it allows black artists the opportunity to be front and centre in the telling of stories about black people.", "is_fresh": 1, "author": ["Masego Panyane"]},
{"text": "Black Panther goes leaps and bounds above what was expected. The reason is not only because it is the best Marvel solo movie. It is deeper than that. ", "is_fresh": 1, "author": ["Jamal-Dean Grootboom"]},
{"text": "While perhaps a tad more serious than its predecessors when it comes to messaging, Black Panther is one of the most enjoyable films in the Marvel franchise.", "is_fresh": 1, "author": ["Kanin Srimaneekulroj"]},
{"text": "... Black Panther is one remarkably rousing comic book adventure.", "is_fresh": 1, "author": ["Richard von Busack"]},
{"text": "\"Black Panther\" delivers on most every level.", "is_fresh": 1, "author": ["Eder Campuzano"]},
{"text": "Director Ryan Coogler's addition to the Marvel stable is a gorgeously realized experience.", "is_fresh": 1, "author": ["Abby Olcese"]},
{"text": "Expect to leave the theatre more exhausted than entertained.", "is_fresh": 0, "author": ["Rashid Irani"]},
{"text": "[H]ype, cultural importance, and expectation aside, Black Panther is an excellent comic book movie. Perhaps one of the best I've ever seen.", "is_fresh": 1, "author": ["Rain Jokinen"]},
{"text": "The real stars of Black Panther are its women, both before and behind the camera.", "is_fresh": 1, "author": ["Kelli Weston"]},
{"text": "Black Power indeed...presents some great role models for an underserved audience while promoting an anti-nationalistic message and that's no small thing.", "is_fresh": 1, "author": ["Laura Clifford"]},
{"text": "More impressive, with a couple of minor exceptions, the storyline navigates expectations that it would carry themes of racial politics into the Marvel Cinematic Universe with grace and goodwill.", "is_fresh": 1, "author": ["Megan Basham"]},
{"text": "Ultimately, it's more interesting to think about than it is to watch.", "is_fresh": 1, "author": ["Matthew Lickona"]},
{"text": "This movie is not going to let you forget your time in Wakanda.", "is_fresh": 1, "author": ["Vesper Arnett"]},
{"text": "Masterful Marvel film has depth, diversity -- and violence. ", "is_fresh": 1, "author": ["Sandie Angulo Chen"]},
{"text": "Much as he did with Creed, Coogler has once again transcended the form and made a whole other kind of great movie.", "is_fresh": 1, "author": ["Stephen Silver"]},
{"text": "With a talented, majority black cast, a director with a distinctive voice and several technical triumphs, including some incredible costume design ... Black Panther is a superhero highpoint for the history books.", "is_fresh": 1, "author": ["Kiko Martinez"]},
{"text": "\"Panther\" successfully claws its way on screen.", "is_fresh": 1, "author": ["Charles Koplinski"]},
{"text": "Black Panther is a revelation, the first film from the Marvel Cinematic Universe that truly feels like an of-the-moment masterwork that also happens to be a comic book movie.", "is_fresh": 1, "author": ["Roxana Hadadi"]},
{"text": "The MCU goes woke in grand style with the dazzling Black Panther.", "is_fresh": 1, "author": ["Christian Toto"]},
{"text": "Has more in common with the second-tier Marvel tales on Netflix.", "is_fresh": 0, "author": ["Phil Villarreal"]},
{"text": "A ripping action flick on which a great deal of care has been expended. ", "is_fresh": 1, "author": ["Kurt Loder"]},
{"text": "Coogler breathes life into it with a visual and emotional flair that feels like actual substance rather than pomp and circumstance. ", "is_fresh": 1, "author": ["Conor O'Donnell"]},
{"text": "Black Panther is a solid MCU movie, entertaining if somewhat disposable. If you like the rest of these movies ... you'll probably like this one too.", "is_fresh": 1, "author": ["Sonny Bunch"]},
{"text": "Black Panther boasts a sense of grandeur as it tells a sprawling Shakespearean tale that traverses the political, racial, ideological, familial and fantastical.", "is_fresh": 1, "author": ["Matt Neal"]},
{"text": "I had hoped for so much more than what was delivered. The loyal fan base will no doubt think otherwise.", "is_fresh": 1, "author": ["Steve Crum"]},
{"text": "They will write about this movie and make videos about it, it will be discussed among friends of all ages, all races, all shapes and sizes; it will be taught in school, debated among intellectuals, it will be seen as the moment everything changed.", "is_fresh": 1, "author": ["Rohan Naahar"]},
{"text": "... there's so much more to Black Panther than a shrewd movie studio finally recognizing the value of an untapped market.", "is_fresh": 1, "author": ["Eric Melin"]},
{"text": "Wildly enjoyable ...", "is_fresh": 1, "author": ["Brian Viner"]},
{"text": "Most of the time Black Panther delivers a masterful new take on the superhero origin story, fresh in its perspective and energetic in its plotting. I highly recommend.", "is_fresh": 1, "author": ["Christopher Llewellyn Reed"]},
{"text": "Black Panther's important and timely, but more than that it's a hugely entertaining film. ", "is_fresh": 1, "author": ["Rebecca Murray"]},
{"text": "A powerful, new Marvel superhero arrives in an exciting, exhilarating, socially relevant, Afro-futurist origin story..", "is_fresh": 1, "author": ["Susan Granger"]},
{"text": "Black Panther's failures, like its triumphs, are more Shakespearean than superheroic.", "is_fresh": 1, "author": ["Lili Loofbourow"]},
{"text": "In the end, Black Panther is basically a really satisfying thrill ride.", "is_fresh": 1, "author": ["Tim Appelo"]},
{"text": "It's uniquely satisfying popcorn entertainment, a triumphant trifecta of subject matter, talent and timing.", "is_fresh": 1, "author": ["John Wenzel"]},
{"text": "...a solid and entertaining film that arrives at the right place at the right time. [Full Review in Spanish] ", "is_fresh": 1, "author": ["Diego Batlle"]},
{"text": "Not since Christopher Nolan's The Dark Knight Rises has a superhero film so openly expressed politics - not so much ideology but a cultural mood - and taken so many chances.", "is_fresh": 1, "author": ["Kirk Baird"]},
{"text": "Full of nobility and purpose without sacrificing fun and charm.... A slam-bang action adventure that also fills a need.", "is_fresh": 1, "author": ["Eric D. Snider"]},
{"text": "It's impossible to picture anyone other than Boseman in the lead role - but by god - Michel B. Jordan certainly gives him a run for his money.", "is_fresh": 1, "author": ["Jamie East"]},
{"text": "It's an excellent, proud movie, and it has a lot to be proud of.", "is_fresh": 1, "author": ["Jeffrey M. Anderson"]},
{"text": "While Black Panther is undeniably exciting overall, its opening sequences are more convoluted than most MCU films. But from there, there's a lot of compelling, exciting, crowd-pleasing action.", "is_fresh": 1, "author": ["Carl Kozlowski"]},
{"text": "Black Panther is an important movie that doesn't feel like being forced to eat kale, thanks to car chases, shootouts and subtle bursts of humor.", "is_fresh": 1, "author": ["Christopher Lawrence"]},
{"text": "I don't know -nor care- if this is Marvel's best, but it certainly is the most thoughtful and conscientious look that the studio has given to true life injustices. [Full Review in Spanish]", "is_fresh": 1, "author": ["Mario Alegre"]},
{"text": "Inhabits a nuanced moral universe with compelling villains and uses the fantastic to grapple with real ideas. I can't believe this is a Marvel movie.", "is_fresh": 1, "author": ["Vincent Mancini"]},
{"text": "This is one helping of popular culture in which effects don't dominate every scene and characters have room to breathe. That's good news for Marvel and even better news for those in the audience.", "is_fresh": 1, "author": ["Robert Denerstein"]},
{"text": "A big and bold change of focus in the Marvel Cinematic Universe, \"Black Panther\" pushes past many of the clich\u00e9d plot devices, archetypes and formulas of standard comic book blockbusters.", "is_fresh": 1, "author": ["Colin Covert"]},
{"text": "Black Panther gives the eponymous hero a whole epic to himself and the complicated story of his long-hidden homeland with some pseudo-Shakespearean power struggles.", "is_fresh": 1, "author": ["David 'Mad Dog' Bradley"]},
{"text": "Hail Wakanda. Powerful symbolism and visuals, fabulous supporting cast, score produced by Kendrick Lamar. Film is also technical embarrassment of riches.", "is_fresh": 1, "author": ["James Verniere"]},
{"text": "As a writer/director, Coogler has firmly established that his strength is in creating and developing intimate relationships that capture the viewer's attention.", "is_fresh": 1, "author": ["Dwight Brown"]},
{"text": "Lupita Nyong'o and Danai Gurira, who play Nakia and Okoye respectively, are particularly fierce, especially in their numerous fight scenes, a rarity for women in a superhero movie outside of Wonder Woman.", "is_fresh": 1, "author": ["Nick Bhasin"]},
{"text": "Coogler has played with the age of dilemma of winning freedom through armed struggle versus gaining it through peaceful means. But Black Panther is no Gandhi, he's a superhero with enhanced abilities and a combat suit that James Bond would kill for.", "is_fresh": 1, "author": ["Devesh Sharma"]},
{"text": "The continent that gave birth to humanity won't look the same on the big screen ever again thanks to the introduction of Wakanda, the fictional home of the most technologically advanced people on the planet.", "is_fresh": 1, "author": ["Tony Norman"]},
{"text": "Coogler and his talented cast and team tell a story that dazzles, one that dares its audience to dream of a world unrestrained by our own stifling reality, without ignoring how the pain of the real world informs those joyful dreams.", "is_fresh": 1, "author": ["Alex Abad-Santos"]},
{"text": "This film is a giant middle finger to all things authoritarian.", "is_fresh": 1, "author": ["David Medsker"]},
{"text": "Black Panther could have been just another Marvel romp-a fun but ultimately disposable entry in the studio's catalogue. But Ryan Coogler and company had the power, and perhaps the responsibility, to do much more. And they did.", "is_fresh": 1, "author": ["Jamelle Bouie"]},
{"text": "Classic comic-book stuff made fresh by drawing on underexplored mythologies and cultures, yet still deeply resonant and deeply universal. An exhilarating pulp-fiction dream that ups the ante on the Marvel Cinematic Universe.", "is_fresh": 1, "author": ["MaryAnn Johanson"]},
{"text": "The wildly enjoyable 'Black Panther' claws its way to the top of the Marvel Universe.", "is_fresh": 1, "author": ["Roger Tennis"]},
{"text": "You can feel the sameness of Black Panther ... Watching the film, though, is to see something completely different in the realm of these stories.", "is_fresh": 1, "author": ["Mark Dujsik"]},
{"text": "The film per se is correct, but it is not the masterpiece of action cinema that will mark paragons, nor set the bar higher... [Full review in Spanish]", "is_fresh": 1, "author": ["Pablo A. Scholz"]},
{"text": "...the free-est film in the MCU. [Full Review in Spanish]", "is_fresh": 1, "author": ["Xavi S\u00e1nchez Pons"]},
{"text": "Black Panther is a superhero film that manages to achieve moments of cinematic clarity that all great films do. It is worth your time and it will spark your imagination.", "is_fresh": 1, "author": ["Julian Chambliss"]},
{"text": "But the most revolutionary thing about Black Panther is its city. The capital of Wakanda has skyscrapers, a monorail, sidewalks of grass, green buildings, farmers markets, and no cars.", "is_fresh": 1, "author": ["Charles Mudede"]},
{"text": "One of the year's best films, and one that transcends the superhero genre to emerge as an epic of operatic proportions.", "is_fresh": 1, "author": ["Odie Henderson"]},
{"text": "Believe the hype: \"Black Panther\" transcends its comic-book origins, achieving a mythic grandeur that's nothing short of exhilarating.", "is_fresh": 1, "author": ["Calvin Wilson"]},
{"text": "It is a landmark moment in blockbuster cinema that couldn't be more timely or more confident in its ability to be so.", "is_fresh": 1, "author": ["Rob Carnevale"]},
{"text": "[The] script adheres to the usual genre formula of tomfoolery, in-jokes, mythology and outright poppycock, but their knack for teasing emotional resonance out of standard scenarios gives them the edge over predecessors and competitors alike.", "is_fresh": 1, "author": ["Ryan Gilbey"]},
{"text": "Destined to be celebrated, and for good reason; this may not be the first film featuring a black superhero, but it is groundbreaking all the same for being the first of this scale.", "is_fresh": 1, "author": ["Dustin Putman"]},
{"text": "It's more than just an overdue step of onscreen representation. It's also a rollicking good blockbuster, even if it doesn't quite reinvent the wheel.", "is_fresh": 1, "author": ["Brad Keefe"]},
{"text": "\"Black Panther\" is so worth the hype.", "is_fresh": 1, "author": ["Maren Longbella"]},
{"text": "A beautiful, hallucinatory sequence, as Killmonger reaches peak villain and assumes his powers, is the most dramatically fraught and heart-wrenching moment in any Marvel movie. ", "is_fresh": 1, "author": ["Radheyan Simonpillai"]},
{"text": "A fresh new Marvel superhero movie unlike any other.", "is_fresh": 1, "author": ["Larushka Ivan-Zadeh"]},
{"text": "Black Panther is a pretty entertaining film and an important one, even though it stops short of being a great one.", "is_fresh": 1, "author": ["Boon Chan"]},
{"text": "[Chadwick] Boseman carries that moral and emotional weight to reaffirm him as one of Marvel's finest casting choices", "is_fresh": 1, "author": ["Richard Whittaker"]},
{"text": "Like T'Challa's step toward becoming a world leader, Black Panther shows the next generation of comic book films how it's done. ", "is_fresh": 1, "author": ["Alan Zilberman"]},
{"text": "The richness of the visual palette here is dazzling.", "is_fresh": 1, "author": ["Karen D'Souza"]},
{"text": "Will play well across the board and thankfully features more depth than your typical superhero movie fare. (Full Content Review for Parents - Violence, Profanity, etc. - also Available)", "is_fresh": 1, "author": ["Jim Judy"]},
{"text": "This is serious superhero business. That gravity is the movie's strength and weakness.", "is_fresh": 1, "author": ["Robert Horton"]},
{"text": "Yes, this \"Black Panther\" is red-hot. Wakanda forever!", "is_fresh": 1, "author": ["Dana Barbuto"]},
{"text": "Forget a lethal presidential Twitter account, King T'Challa has drank some kind of tea made from a Heart-Shaped Herb enabling him to take on an army. \"Black Panther\" pulls the right emotional levers focusing on the theme of the forgotten and the lost.", "is_fresh": 1, "author": ["Jonathan W. Hickman"]},
{"text": "Black Panther is a feast for the eyes, the ears, the heart and the mind, a film that has action, heart, substance, and soul.", "is_fresh": 1, "author": ["Shelagh Rowan-Legg"]},
{"text": "In the red, white and blue hue-niverse of superhero colors, black is the new beautiful. ", "is_fresh": 1, "author": ["Neil Pond"]},
{"text": "An insipid, soulless, and overproduced bore.", "is_fresh": 0, "author": ["Avi Offer"]},
{"text": "Like the best blockbusters it's flawed but ridiculously entertaining anyway, and like too few of them it's also so incredibly important.", "is_fresh": 1, "author": ["Rob Hunter"]},
{"text": "Michael B. Jordan gives a hell of a performance. Maybe people will stop blaming him for FF and give him his due. Killmonger is one of the best characters Marvel has ever created. Stop using the Race card to promote this film.", "is_fresh": 1, "author": ["Michelle Alexandria"]},
{"text": "That's the sound of the game being changed and everyone is going to have to follow the King. This should signal a major change to the superhero film landscape for years.", "is_fresh": 1, "author": ["Jeffrey Lyles"]},
{"text": "A wonderful sense of culture and costumed authority, creating a vibrant solo showcase for the world of Wakanda and all the political turbulence and fierceness it contains.", "is_fresh": 1, "author": ["Brian Orndorf"]},
{"text": "The good definitely outweighs the problematic here, making for a superhero movie that's definitely one of the better examples of the genre though hardly as groundbreaking as some would claim. ", "is_fresh": 1, "author": ["Frank Swietek"]},
{"text": "Black Panther is a great MCU superhero adventure that smoothly blends rich narrative substance with sheer popcorn entertainment.", "is_fresh": 1, "author": ["Sandy Schaefer"]},
{"text": "This is an origin story, globe-trotting spy thriller and fantasy, all in one. The movie manages to be part of, but something completely different than, the Marvel superhero movies that came before.", "is_fresh": 1, "author": ["Dawn Burkes"]},
{"text": "Black Panther is, without a doubt, the coolest superhero movie to come prowling out of Marvel Studios.", "is_fresh": 1, "author": ["Andr\u00e9 Hereford"]},
{"text": "All hail Ryan Coogler, the Black Panther, the Dora Milaje, and everyone who helped to bring this next-level, majestic, and wildly entertaining superhero movie to life.", "is_fresh": 1, "author": ["Nell Minow"]},
{"text": "What's honestly amazing about this film is that I'm not thinking about the action, the cool epic moments...I'm thinking about the things that shape these characters into who they become...I have to commend Black Panther, but it's not a film without flaws.", "is_fresh": 1, "author": ["Chris Stuckmann"]},
{"text": "Black Panther was fantastic. It has the fun superhero stuff, but that's not really what it's about...they bring you in on a fascinating, colorful, vibrant civilization.", "is_fresh": 1, "author": ["Jeremy Jahns"]},
{"text": "With a bloated 2 hour, 15 minute running time, Coogler ran out of ideas.", "is_fresh": 0, "author": ["Victoria Alexander"]},
{"text": "... while Nyong'o and Wright get the most playfully lively opportunities to charm, it is the fiercely dedicated passion Gurira brings to her portrayal of the warrior Okoye that impressed me the most.", "is_fresh": 1, "author": ["Sara Michelle Fetters"]},
{"text": "If Wakanda, invisible to the naked eye yet brimming with futuristic technology that could better the entire planet, is a beautifully depicted metaphor for representation, then Killmonger is a manifestation of African-American pain past and present", "is_fresh": 1, "author": ["Robert Kojder"]},
{"text": "Black Panther proves how representation can rejuvenate even the oldest superhero origin arcs, allowing Marvel a victory that still feels every bit a Ryan Coogler film.", "is_fresh": 1, "author": ["Matt Donato"]},
{"text": "There's talent in every corner of the film, and it elevates Black Panther beyond so many of its superhero contemporaries even as it exhibits some formulaic tendencies.", "is_fresh": 1, "author": ["Dominick Suzanne-Mayer "]},
{"text": "A vibrant film that beautifully blends superhero action with a poignant, Shakespearean-in-scope story. ", "is_fresh": 1, "author": ["Blake Crane"]},
{"text": "All of these conflicts are eventually resolved in the conventional framework of a Marvel action movie... More unconventional are Coogler's ideas.", "is_fresh": 1, "author": ["Gary Thompson"]},
{"text": "It is a terrifically entertaining film, alive from the start, following its Marvel mission (for good and bad) while rising above it.", "is_fresh": 1, "author": ["Bill Goodykoontz"]},
{"text": "This is 2018's first great motion picture - a title that will surely be remembered when \"end of the year\" bests are discussed.", "is_fresh": 1, "author": ["James Berardinelli"]},
{"text": "Iron Man tries too hard and Captain America is far too earnest to be cool but Black Panther, both Chadwick Boseman's portrayal of the character and the film that surrounds him, is just effortlessly cool.", "is_fresh": 1, "author": ["Iain McNally"]},
{"text": "In Black Panther, Coogler and company have made a superhero picture that's twice as good, twice as smart, twice as fun to look at as any before it. May they get twice the credit and twice the box office.", "is_fresh": 1, "author": ["Joe Gross"]},
{"text": "That's some complex stuff for a superhero movie, and Coogler and co-screenwriter Joe Robert Cole give it the emotional weight it deserves. ", "is_fresh": 1, "author": ["Sean P. Means"]},
{"text": "The results are astonishing.", "is_fresh": 1, "author": ["Kristian M. Lin"]},
{"text": "Between Black Panther's Black Lives Matter subtext and its use of female characters as more than window dressing both in front of and behind the camera ... it seems as though Hollywood has, for one shining moment, caught up with the real world.", "is_fresh": 1, "author": ["Chris Knight"]},
{"text": "Smart, accessible, and thoroughly fun, Black Panther is a new high for Marvel Studios. ", "is_fresh": 1, "author": ["Gavia Baker-Whitelaw"]},
{"text": "Black Panther is one of the best superhero movies of the century.", "is_fresh": 1, "author": ["Richard Roeper"]},
{"text": "\"Black Panther\" is the superhero movie - no, movie, no qualifier necessary - that we need, right here, right now.", "is_fresh": 1, "author": ["Greg Maki"]},
{"text": "[Ryan] Coogler's overall ambition in crafting a sociologically complex story and presenting it as standard comic book movie fare succeeds: There is nothing common about Black Panther.", "is_fresh": 1, "author": ["George Thomas"]},
{"text": "[Chadwick] Boseman is perfect as the Panther, just the right mixture of royal privilege and humility, in a story that allows for a sense of wonder rarely found in \"comic book movies.\"", "is_fresh": 1, "author": ["Michael Sangiacomo"]},
{"text": "To the infinite credit of Coogler and his team, Black Panther fights constantly and bitterly against the familiar constraints of Disney's superhero industrial complex.", "is_fresh": 1, "author": ["Barry Hertz"]},
{"text": "It's very, very good -- in its best scenes, exhilarating.", "is_fresh": 1, "author": ["Ty Burr"]},
{"text": "The bad guy is so brilliantly realized by Coogler's frequent collaborator Michael B. Jordan as Erik \"Killmonger\" Stevens, a former Navy SEAL gone bad. ", "is_fresh": 1, "author": ["Kyle Smith"]},
{"text": "It is modern, sharp and cool, honoring the past as well as the present, and pushing the boundaries of the genre past what audiences are used to from superhero movies.", "is_fresh": 1, "author": ["Adam Graham"]},
{"text": "...a cinematically holistic work of diversity, in which cultural identity has been carefully woven into every element of the movie.", "is_fresh": 1, "author": ["Josh Larsen"]},
{"text": "Letitia Wright steals the thunder as T'Challa's younger sister and Wakanda's tech and weapons genius. I would love to see her and Tony Stark in the same room, just to watch them out-geeking each other.", "is_fresh": 1, "author": ["Joanne Soh"]},
{"text": "It's possible to love Black Panther but be conflicted, but still love it, but still be conflicted, all the while sharing in the unmitigated joy of its existence. ", "is_fresh": 1, "author": ["K. Austin Collins"]},
{"text": "Black is beautiful.", "is_fresh": 1, "author": ["Rob Vaux"]},
{"text": "Black Panther, a gleaming example of Afrofuturism, provides a unique perspective on a well-worn genre.", "is_fresh": 1, "author": ["Gemma Creagh"]},
{"text": "These are no small ideas. This cogent screenplay serves up the obligatory superhero trappings -- but it addresses real-world issues of global propriety and responsibility with an underlying sense of gravity.", "is_fresh": 1, "author": ["Dann Gire"]},
{"text": "Black Panther might be the first MCU film that could claim to most clearly be an expression of a particular director's voice.", "is_fresh": 1, "author": ["Dom Sinacola"]},
{"text": "Boilerplate Marvel, with a sleek, colorful look, cheeky humor, and familiar action beats...But Coogler brings enough to the table for a fresh vision, broadly appealing as well as inspirational in its representation for black audiences and women.", "is_fresh": 1, "author": ["Peter Canavese"]},
{"text": "One of the best films from Marvel, thanks to it's richness in culture and mythology, and one of the best villains to date. Michael B. Jordan is fantastic. [Full review in Spanish]", "is_fresh": 1, "author": ["Fico Cangiano"]},
{"text": "Not since Ant-Man has a Marvel film actually been about the hero in the title, but Black Panther is and it makes it all the better.", "is_fresh": 1, "author": ["Matthew Razak"]},
{"text": "Black Panther proves that you can make a movie that is significant to the black audience, and just a damn good superhero movie that everyone can enjoy.", "is_fresh": 1, "author": ["Travis Hopson"]},
{"text": "It may be named Black Panther, but the film is very much an ensemble piece with enough action and social commentary to carve out a place as one of Marvel's better standalone offerings.", "is_fresh": 1, "author": ["Sinead Brennan"]},
{"text": "...Black Panther is one of the best Marvel films ever.", "is_fresh": 1, "author": ["Danielle Solzman"]},
{"text": "A Shakespearean flavoured tragedy to its backstory, with palace intrigue and hidden secrets. Where Serkis's maniacally-laughing Klaue is a bad guy who wears thin, Killmonger is one of the few movie villains I've ever felt sorry for.", "is_fresh": 1, "author": ["Jim Slotek"]},
{"text": "May Marvel learn its lesson from \"Black Panther\": When a movie like this ends up feeling both personal and vital, you've done something right.", "is_fresh": 1, "author": ["Michael Phillips"]},
{"text": "Chadwick Boseman commands every moment of this film, radiating probity and purpose, and it's only later on that you realize that, with another actor, this wouldn't have been a sure thing.", "is_fresh": 1, "author": ["Mick LaSalle"]},
{"text": "It's taken a decade and 18 films, but the Marvel Cinematic Universe has finally produced a superhero movie that feels like it was ripped from the pages of a comic book.", "is_fresh": 1, "author": ["Ignatiy Vishnevetsky"]},
{"text": "Coogler is a young filmmaker - this is just his third feature, following \"Fruitvale Station\" and \"Creed\" (two fine and very different films) - but he marshals this world with confidence and flair.", "is_fresh": 1, "author": ["Moira MacDonald"]},
{"text": "Like all the best comics movies, this one's got a villain (Michael B. Jordan) so compelling he nearly steals the show from the hero (Chadwick Boseman).", "is_fresh": 1, "author": ["Sara Stewart"]},
{"text": "Noble and worthwhile, but slow and frankly generic, save for the terrific African touches. ", "is_fresh": 1, "author": ["Roger Moore"]},
{"text": "Marvel Studios has yet again managed to blend together familiar elements into something that feels new with Black Panther.", "is_fresh": 1, "author": ["Scott Chitwood"]},
{"text": "Marvel's Black Panther is a complete triumph and is simply one of the best Marvel Cinematic Universe entries yet.", "is_fresh": 1, "author": ["Alan Cerny"]},
{"text": "Whilst a Marvel story through and through, fitting perfectly into the MCU post-Captain America: Civil War, Black Panther stands alone as a masterpiece of filmmaking.", "is_fresh": 1, "author": ["Zoe Margolis"]},
{"text": "There's a whole lot going on in this latest Marvel chapter. And boy, are we all the better for it.", "is_fresh": 1, "author": ["Joanna Langfield"]},
{"text": "Coogler delivers action with frenetic grace, keeping the violence more intimate than usual for a superhero movie. Less soulless metropolis crumbling and more face-to-face combat (although the armored rhinos aren't bad).", "is_fresh": 1, "author": ["Steve Persall"]},
{"text": "The true knockout stars are Lupita Nyong'o as Wakandan spy Nakia and Danai Gurira as Dora Milaje general Okoye.", "is_fresh": 1, "author": ["Liam Maguren"]},
{"text": "After this first trip to Wakanda, some will never want to visit that country again. Others, who already know their wonders, will want to visit it again ...but only in vignettes. [Full review in Spanish]", "is_fresh": 1, "author": ["Yago Garc\u00eda"]},
{"text": "Coogler builds a thrilling, exciting world, and threads throughout it a story filled with pathos and real-world gravitas.", "is_fresh": 1, "author": ["Katie Walsh"]},
{"text": "Black Panther comes to life with a real brio and glee...", "is_fresh": 1, "author": ["Graeme Tuckett"]},
{"text": "It was gripping, it was invigorating, the action was so cool! ", "is_fresh": 1, "author": ["Steph Cozza"]},
{"text": "... a film that fulfills the most rote demands of superhero spectacle, yet does so with style and subtexts that feel bracingly, joyfully groundbreaking.", "is_fresh": 1, "author": ["Ann Hornaday"]},
{"text": "Even if you are not a fan of superhero movies you may find the issues explored thought provoking. It is also action packed, well acted, dazzlingly shot by English cinematographer Rachel Morrison and... full of humour and self-aware wisecracks.", "is_fresh": 1, "author": ["Stephen Romei"]},
{"text": "This is a movie whose political theory matches its stunning special effects.", "is_fresh": 1, "author": ["Jonathan W. Gray"]},
{"text": "A witty, action-packed epic, this adventure delivers a vibrant twist to the comic book movie formula while remaining true to the Marvel Universe it belongs to.", "is_fresh": 1, "author": ["Jo Berry"]},
{"text": "Black Panther sees female characters finally given space to shine in a Marvel movie, and shining brightest of all is Letitia Wright.", "is_fresh": 1, "author": ["Joseph Walsh"]},
{"text": "Coogler puts all the will-they-won't-they 'black Bond' speculation to rest by effectively getting there first, from the fascination with gadgetry to the thrilling set-pieces.", "is_fresh": 1, "author": ["Matthew Turner"]},
{"text": "Ryan Coogler has eschewed the familiar Marvel glut of smug in-jokes and mind-numbing CGI explosions to create a visually dazzling work of art. ", "is_fresh": 1, "author": ["Mara Reinstein"]},
{"text": "It's the kind of art that's aggressively theatrical, but not even for a moment does it feel performative.", "is_fresh": 1, "author": ["Shyama Krishna Kumar"]},
{"text": "This cool cat more than earns his stripes.", "is_fresh": 1, "author": ["Chris Hunneysett"]},
{"text": "Brilliantly cast and impeccably directed - the most exciting MCU entry in years.", "is_fresh": 1, "author": ["Chris Bumbray"]},
{"text": "For all their global dominance, everybody wants these superhero movies to be better: funnier, smarter, more inclusive, more super. A huge step in the right direction, Black Panther is that dream come true.", "is_fresh": 1, "author": ["Joshua Rothkopf"]},
{"text": "[Director Ryan Coogler has] raised the bar even higher here. Visually, Black Panther is unlike any movie I've ever seen.", "is_fresh": 1, "author": ["Alex Bhattacharji"]},
{"text": "The movie has a beating heart, and a big one; it's not just sincere, but that rarest of birds in the jungle of mainstream entertainment, a heartfelt epic.", "is_fresh": 1, "author": ["Joe Morgenstern"]},
{"text": "What you don't expect from Marvel is a thoughtful story steeped in political parallels and the historical baggage of racial discrimination and suffering. That's what makes Black Panther unique among a teeming movie universe of extraordinary beings.", "is_fresh": 1, "author": ["Wenlei Ma"]},
{"text": "Black Panther is a story we haven't seen told before in popular cinema - a story about black people completely untouched by colonialism, who exist entirely outside the global systems of institutionalized racism.", "is_fresh": 1, "author": ["Glen Weldon"]},
{"text": "As the MCU lumbers to something of a climax in Avengers: Infinity War and looks beyond, the solid and satisfying Black Panther is a good standard-bearer for the next era... It's earnest, regal and ready to take over the MCU mantle.", "is_fresh": 1, "author": ["Simon Miraudo"]},
{"text": "Black Panther is worthy, no question, but it's also a little dull.", "is_fresh": 1, "author": ["Paul Whitington"]},
{"text": "The plotting is predictable and the action sequences for the most part unengaging. Black Panther is a major disappointment.", "is_fresh": 0, "author": ["Vicky Roach"]},
{"text": "There is a lot going on in here, but again, a confident Coogler takes a frighteningly tall tale and somehow manages to make a clean, thrilling and largely inventive sci-fi adventure out of it.", "is_fresh": 1, "author": ["Chris Wasser"]},
{"text": "This is one superhero film that definitely punches above the normal crash-bang-wallop weight. The Marvel Cinematic Universe just got a whole lot more interesting.", "is_fresh": 1, "author": ["Matthew Bond"]},
{"text": "Visually, \"Black Panther\" is often spectacular...It's warriors with spears and force-field shields. It's aircraft that soar and swoop like birds over the Serengeti. It's \"Blade Runner\" in Dar es Salaam instead of L.A. ", "is_fresh": 1, "author": ["Cary Darling"]},
{"text": "Even if it had nothing else going for it, Black Panther would still be the best-looking Marvel movie yet.", "is_fresh": 1, "author": ["Wendy Ide"]},
{"text": "Until the formulaic final quarter, the film is fast, enjoyable and has several funny moments. The main actors are engaging, and its fun being introduced to new faces too.", "is_fresh": 1, "author": ["Damien Straker"]},
{"text": "Black Panther is to the ongoing Marvel project as Coogler's Creed was to the Rocky movies - a film simultaneously beholden to its franchise and alive to every possibility within it, creating a new world within the existing master narrative.", "is_fresh": 1, "author": ["Norman Wilner"]},
{"text": "Coogler and his team have conjured a universe and fleshed out its players, one existing (honestly, thriving) in the even bigger cinematic universe that is Marvel.", "is_fresh": 1, "author": ["Kristen Yoonsoo Kim"]},
{"text": "The film constantly manages to subvert expectations, while remaining firmly within the action-packed superhero genre.", "is_fresh": 1, "author": ["Anne Cohen"]},
{"text": "Exactly the kind of risk Marvel should be taking with every film they make.", "is_fresh": 1, "author": ["Hannah Woodhead"]},
{"text": "Soundtracked by an authentic score, the movie has an electric rhythmicality; every scene bounces as if dancing to the beat of its own drum.", "is_fresh": 1, "author": ["Ali Gray"]},
{"text": "Makes the Marvel Cinematic Universe a bigger, more interesting, more engaging place, one where for the first time women and people of color aren't limited to token or supporting roles.", "is_fresh": 1, "author": ["Steven D. Greydanus"]},
{"text": "Dialogue heavy with a confused sense of place, this mega-budget Marvel marvel might be a misfire for anyone beyond the fan-base...", "is_fresh": 0, "author": ["Louise Keller"]},
{"text": "Unlike a Tony Stark who can entertain with his dry wit or Captain America who dazzles with his passion for patriotism, Boseman must play both T'Challa as a man of great reserve. He's a warrior, but one who rules the screen with a quiet calm.", "is_fresh": 1, "author": ["Rick Bentley"]},
{"text": "Looking, sounding and feeling the way it does-wearing its anti-corporate, anti-fascist, anti-racist heart on its sleeve-it's a movie that, for sure, knows what's up. ", "is_fresh": 1, "author": ["Stephen Rebello"]},
{"text": "But what no trailer could prepare us for is director Ryan Coogler's skills at perfectly weaving socio-political lessons on love, culture community, isolation, personal responsibility and identity in between some pretty dope fight scenes. ", "is_fresh": 1, "author": ["Tobi Akingbade"]},
{"text": "An ineffably adventurous, vibrant and compelling production. It's a blockbuster that is saying something, and believe me Marvel, we're listening.", "is_fresh": 1, "author": ["Stefan Pape"]},
{"text": "Michel B. Jordan plays Erik Killmonger with such moving, occasionally gut-wrenching commitment that it nearly mitigates the goofiness of his moniker and the superficiality of the film in toto. ", "is_fresh": 1, "author": ["Keith Uhlich"]},
{"text": "With gorgeous visuals from Wakanda to South Korea and back, vivid and bold Afrocentric costumes, and the support of some pretty bad-ass women, Black Panther is progressive, exciting, enveloping, and exactly what we all need in our lives right now.", "is_fresh": 1, "author": ["Yolanda Machado"]},
{"text": "The first studio produced, major motion picture to feature a Black superhero Black Panther is a very good movie, exceptional beyond its big-budget entertainment values...", "is_fresh": 1, "author": ["Tim Cogshell"]},
{"text": "Black Panther spirals into a stodgy tale of internecine feuding, in which T'Challa is required to come to terms with the sins of past generations. What he doesn't get to do much of is jump around beating-up bad guys. That's a shame. ", "is_fresh": 0, "author": ["Ed Power"]},
{"text": "Crashingly enjoyable, frequently exciting and even, when it wants, borderline witty.", "is_fresh": 1, "author": ["Nigel Andrews"]},
{"text": "It feels rich, expansive, and is clearly teeming with umpteen further stories, while it is also distinctive, authentic, and has a vitality that you can't help but become invested in.", "is_fresh": 1, "author": ["Gregory Wakeman"]},
{"text": "... it's a very rich buffet - geopolitical thriller, futuristic fantasy, coming-of-age story, African adventure with mystical overtones... it offers a wide variety of tastes and sensations but they never really come together to form a satisfying whole.", "is_fresh": 1, "author": ["Sandra Hall"]},
{"text": "Ryan Coogler's spectacular first foray into the Marvel universe is an absolute game-changer.", "is_fresh": 1, "author": ["Ira Madison III"]},
{"text": "Rarely has a superhero origin story been as satisfying as Black Panther, which in many ways doesn't feel like a typical Marvel movie - and more power to that.", "is_fresh": 1, "author": ["Peter Howell"]},
{"text": "Black Panther doesn't just hit its marks. It leaves marks. Landmarks. So get in the queue now, people.", "is_fresh": 1, "author": ["Leigh Paatsch"]},
{"text": "Despite familiar action-scene wobbliness, it's easily the most engaging Marvel film in a long while. Because-finally!-it has something new to say. More like this please, Marvel. Oh, and, of course: Wakanda forever.", "is_fresh": 1, "author": ["Richard Lawson"]},
{"text": "Coogler was clearly given the freedom to explore his chosen themes and step outside the MCU mould.", "is_fresh": 1, "author": ["Hugh Armitage"]},
{"text": "\"Black Panther\" matters.", "is_fresh": 1, "author": ["Stephen Whitty"]},
{"text": "Black Panther succeeds at being emotionally resonant in a way a lot of Marvel movies-a lot of blockbusters, period-don't. ", "is_fresh": 1, "author": ["Rebecca Pahle"]},
{"text": "The action sequences meet, but do not exceed, the industry standard. ", "is_fresh": 1, "author": ["Donald Clarke"]},
{"text": "Hi-tech gadgets, jungle combat, vehicle chases, ready-made quips, casino hookups - there's something very James Bond-esque about Black Panther.", "is_fresh": 1, "author": ["James Mottram"]},
{"text": "\"Black Panther\" doesn't disappoint. It is splendidly endowed with awesome wizardry.", "is_fresh": 1, "author": ["Jeanne Kaplan"]},
{"text": "The set designs are extraordinary, and the movie features a surprise ending --- especially for those who left the theatre prematurely --- with a timely message about international togetherness. ", "is_fresh": 1, "author": ["David Kaplan"]},
{"text": "Proves a Marvel film can aspire to be something more; it has political bite, emotional depth, ethical dilemmas, and regal jostling, but it still manages to maintain a bombastic comic book aesthetic that's spectacular.", "is_fresh": 1, "author": ["Cameron Williams"]},
{"text": "Black Panther is a comic masterpiece that transcends the genre. Michael B. Jordan is fantastic as Eric Killmonger, the best villain yet from Marvel Studios.", "is_fresh": 1, "author": ["Julian Roman"]},
{"text": "The most visually arresting and memorable Marvel film to date.", "is_fresh": 1, "author": ["Jordan Hoffman"]},
{"text": "Black Panther is absolutely majestic.", "is_fresh": 1, "author": ["Kristy Puchko"]},
{"text": "Above all, this is a superbly acted movie, stolen without remorse by Letitia Wright's work as Shuri, T'Challa's whip-smart sister, who outfits him with all of his vibranium-enhanced tech.", "is_fresh": 1, "author": ["Dave Schilling"]},
{"text": "The women of Black Panther do so much throughout the film, all while being funny, sensuous, smart and strong.", "is_fresh": 1, "author": ["Princess Weekes"]},
{"text": "...perhaps the most complete on screen encapsulation of the wild flights of imagination comics are capable of, grounded in astute, modern political sensibilities...", "is_fresh": 1, "author": ["Travis Johnson"]},
{"text": "Black Panther is set largely in Wakanda, with a detour to South Korea. Still, there's no shaking the feeling that this is what America looks like when it's allowed to be its truest, freest self. That's a superhero challenge if ever there was one.", "is_fresh": 1, "author": ["Stephanie Zacharek"]},
{"text": "While ultimately an action-adventure, Black Panther also serves as an intelligent if broad debate between revolutionary rhetoric and the responsibilities of leadership.", "is_fresh": 1, "author": ["Frank Lovece"]},
{"text": "[A] tour de force, one of the smartest, most original action-packed blockbusters of the decade... bold and visually stunning filmmaking...", "is_fresh": 1, "author": ["Mark Hughes"]},
{"text": "I hope people notice how much drama Coogler got out of Black Panther the way they notice Thor: Ragnarok is so funny.", "is_fresh": 1, "author": ["Fred Topel"]},
{"text": "It is black excellence exemplified that will leave audiences yearning to inhabit Wakanda forever. ", "is_fresh": 1, "author": ["Tonja Renee Stidhum"]},
{"text": "Black Panther is a hit! It's emotional, powerful and action packed to satisfy comic book fans as well as newcomers who probably haven't seen a Marvel film, but want to experience seeing Black excellence on the big screen.", "is_fresh": 1, "author": ["Wilson Morales"]},
{"text": "This is a superhero movie for the ages, and especially for this age.", "is_fresh": 1, "author": ["Pete Hammond"]},
{"text": "Inspiring and empowering in equal measure, Black Panther is a richer & deeper experience than most comic book fare.", "is_fresh": 1, "author": ["Neil Soans"]},
{"text": "He is just getting better and better and knows how to develop characters in this emotional way that you're invested...this guy is a rising star. As great as every single actor is in this movie, Ryan Coogler, once again, is the star of this film. ", "is_fresh": 1, "author": ["Kristian Harloff"]},
{"text": "Part spy thriller, part all-out battle and part social commentary, \"Black Panther\" is consistently propelled by tonal and thematic flourishes that break with the conventions that have defined the Marvel Cinematic Universe.", "is_fresh": 1, "author": ["Tim Grierson"]},
{"text": "The incredibly stellar cast is led by a majestic Chadwick Boseman, reprising the role of T'Challa and finding him at a cross-roads in his life. ", "is_fresh": 1, "author": ["Katherine McLaughlin"]},
{"text": "Yet it's The Walking Dead's Gurira who steals the show as the ferocious Okoye, gloriously swinging her spear in a billowing red gown.", "is_fresh": 1, "author": ["Emma Simmonds"]},
{"text": "Black Panther is every bit as good as you were hoping. Actually -- it's better. A terrific screenplay from Ryan Coogler and Joe Robert Cole elevates this thing way beyond the usual boundaries of the Marvel Universe.", "is_fresh": 1, "author": ["Liz Braun"]},
{"text": "Once \"Black Panther\" gets out of its crouching position and goes on a sprint, it's an engaging ride that rarely lets up. ", "is_fresh": 1, "author": ["Rodrigo Perez"]},
{"text": "It's easy to lament how long it took to bring Black Panther to the big screen. But at least the wait was worth it.", "is_fresh": 1, "author": ["Jake Coyle"]},
{"text": "You believe in T'Challa, you believe in Wakanda, and you believe - maybe for the first time - that the MCU actually matters.", "is_fresh": 1, "author": ["David Ehrlich"]},
{"text": "Like \"Wonder Woman\" last year, \"Black Panther\" is a project that fans have been waiting decades to see. And just like \"Wonder Woman,\" it was worth the wait.", "is_fresh": 1, "author": ["Jason Guerrasio"]},
{"text": "Production design, costumes, and of course, visual effects are all on point, and newly minted Oscar-nominee Rachel Morrison shoots every frame to embrace the sumptuous detail.", "is_fresh": 1, "author": ["Haleigh Foutch"]},
{"text": "While watching Black Panther, you know you're watching a cosmic shift in comic book storytelling. We've never seen anything so vibrant and so different from the monotony of superhero films.", "is_fresh": 1, "author": ["Ashley Menzel"]},
{"text": "I left the theater wanting to see this movie at least 10 more times. ", "is_fresh": 1, "author": ["Jamie Broadnax"]},
{"text": "Black Panther pounces toward the head of the class in a way that should make the King, and his key subjects, a cornerstone of an already-formidable roster.", "is_fresh": 1, "author": ["Brian Lowry"]},
{"text": "The initial Twitter responses hailing it as a \"masterpiece\" go way overboard... [but Coogler] assembled one of the finest acting lineups ever recruited for a Marvel movie--or any genre outing, for that matter.", "is_fresh": 1, "author": ["Don Kaye"]},
{"text": "Black Panther perfects what the Marvel Cinematic Universe has always done so well: build a world so richly rendered, it's almost a letdown to reach the end of the film and realize it's time to return to our own reality.", "is_fresh": 1, "author": ["Angie Han"]},
{"text": "Black Panther isn't just levelling out representation in Hollywood, it's inspiring the next generation of real-life heroes, and that's what makes this film truly magnificent.", "is_fresh": 1, "author": ["Olive Pometsey"]},
{"text": "Black Panther has surpassed Iron Man as the best film of the MCU.", "is_fresh": 1, "author": ["Scott Menzel"]},
{"text": "You can see [Michael B.] Jordan offhandedly weighing the line in his mind like a rock he's about to lob: it's one of many nicely judged moments of performance here from a wildly appealing ensemble cast without a weak link.", "is_fresh": 1, "author": ["Robbie Collin"]},
{"text": "Not only does it live up to the expected levels of epic exhilaration, it surpasses them, digging its claws into real-world social and political profundity. ", "is_fresh": 1, "author": ["Courtney Howard"]},
{"text": "Black Panther asks how we retain our moral compass in the face of people who invite us to give in to our baser instincts.", "is_fresh": 1, "author": ["Todd VanDerWerff"]},
{"text": "When \"Black Panther\" works, it's thrillingly alive.", "is_fresh": 1, "author": ["Alonso Duralde"]},
{"text": "The director Ryan Coogler and a charismatic cast... turn racial clich\u00e9s on their head and drag in some heavy Shakespearean conflict to create a vivid yarn that's entirely new, frequently startling and, at every step along the way, all Marvel.", "is_fresh": 1, "author": ["Kevin Maher"]},
{"text": "We didn't know we'd been yearning for it until it arrived, but now that it's here it's unmistakable that the wait for a film like \"Black Panther\" has been way longer than it should have been.", "is_fresh": 1, "author": ["Kenneth Turan"]},
{"text": "The Black Panther is not only one of the most entertaining recent superhero films but has an intelligence and a political dimension that such inchoate offerings as Suicide Squad and Justice League completely lacked.", "is_fresh": 1, "author": ["Geoffrey Macnab"]},
{"text": "Coogler has proven he can play in the big boys' house.", "is_fresh": 1, "author": ["David Edelstein"]},
{"text": "Most big studio fantasies take you out for a joy ride only to hit the same exhausted story and franchise-expanding beats. Not this one.", "is_fresh": 1, "author": ["Manohla Dargis"]},
{"text": "Ryan Coogler's Black Panther is one of the Marvel Cinematic Universe's most powerful, moving, and thematically resonant films to date. It's also one of its most uneven, when all is said and done. ", "is_fresh": 1, "author": ["Conner Schwerdtfeger"]},
{"text": "While the themes are deep, Black Panther is at the same time a visual joy to behold, with confident quirkiness, insane action sequences and special effects, and the glorious reveal of Wakanda,", "is_fresh": 1, "author": ["Brian Truitt"]},
{"text": "Coogler has taken every genre in which black characters are traditionally sidelined, and then, with considerable flair and boldness, he's combined those genres and put black characters right at their heart. ", "is_fresh": 1, "author": ["Nicholas Barber"]},
{"text": "The intriguing thing about Black Panther is that it doesn't look like a superhero film - more a wide-eyed fantasy romance: exciting, subversive and funny.", "is_fresh": 1, "author": ["Peter Bradshaw"]},
{"text": "Black Panther feels like the beginning of something new.", "is_fresh": 1, "author": ["Mike Ryan"]},
{"text": "Played by Letitia Wright, Shuri is a revelation. Wright steals every scene with her bright smile and perfect comedic timing. ", "is_fresh": 1, "author": ["Joelle Monique"]},
{"text": "Black Panther celebrates its hero's heritage while delivering one of Marvel's most all-around appealing standalone installments to date.", "is_fresh": 1, "author": ["Peter Debruge"]},
{"text": "As a nerd and as a black man, I've been waiting for this movie for my entire life, whether I knew it or not. The fact that Black Panther gets so much right, but one crucial thing wrong, is both thrilling and maddening.", "is_fresh": 1, "author": ["Marc Bernardin"]},
{"text": "Thank God for the women beside [Boseman], including his regal mother Ramonda (Angela Bassett), brainiac baby sister Shuri (Letitia Wright), and fearless warrior-protector Okoye (Danai Gurira). They're indomitable, and so gorgeously, vividly drawn. ", "is_fresh": 1, "author": ["Leah Greenblatt"]},
{"text": "\"Black Panther\" features all the right ingredients to become one of the most successful superhero films of all time.", "is_fresh": 1, "author": ["Justin Craig"]},
{"text": "With uncanny timing, Marvel takes its superheroes into a domain they've never inhabited before and is all the better for it in Black Panther.", "is_fresh": 1, "author": ["Todd McCarthy"]},
{"text": "Say this about Black Panther, which raises movie escapism very near the level of art: You've never seen anything like it in your life.", "is_fresh": 1, "author": ["Peter Travers"]},
{"text": "Even if it wasn't for the joy of seeing so many black faces on screen, it would be a must-see for its gripping plot, superb images, thrilling action and excellent actors. [Full review in French]", "is_fresh": 1, "author": ["Kevin N. Laforest"]},
{"text": "A giddily enjoyable, convention-bucking 134-minute epic that somehow manages to simultaneously be a comic-book blockbuster, a pulsating espionage thriller and an Afro-futurist family saga.", "is_fresh": 1, "author": ["Jimi Famurewa"]},
{"text": "It's gripping, funny, and full of spectacle, but it also feels like a turning point, one where the studio has finally recognized that its movies can be about more than just selling the next installment.", "is_fresh": 1, "author": ["Bryan Bishop"]},
{"text": "Not everything about Black Panther works across the board but a huge amount of it does - and does so wonderfully.", "is_fresh": 1, "author": ["Jim Vejvoda"]},
{"text": "Ryan Coogler's superhero adventure is a crowd-pleasing spectacle and an introspective examination of the moral duty of those who avoided the scars of oppression. ", "is_fresh": 1, "author": ["Scott Mendelson"]},
{"text": "While many Marvel films feel like small pieces of a larger story, Black Panther is an entire cinematic universe unto itself.", "is_fresh": 1, "author": ["Matt Singer"]},
{"text": "Innovative, intelligent and empowering. When I was younger, all we had was Billy Dee Williams in Star Wars. Black and brown children need a movie like Black Panther to boost their imagination and help them to dream the impossible.", "is_fresh": 1, "author": ["Clay Cane"]}
]