[
{"reviews_count": "137", "title": "Blue Ruin", "avg_audience_rating": "3.8", "rotten_count": "5", "tomatometer": "96", "audience_score": "79", "avg_critic_rating": "  8", "fresh_count": "132", "user_ratings_count": "19,445"},
{"text": "Blue Ruin marks Jeremy Saulnier out as an exciting filmmaker to watch - it's just a shame that the film can't fully shake off the weight of its influences.", "is_fresh": 1, "author": ["Alistair Ryder"]},
{"text": "A well-paced, well written, and surprisingly poignant film.", "is_fresh": 1, "author": ["Deirdre Crimmins"]},
{"text": "It's a dark film, with a sicko sense of humor, that's not for all tastes. But the talented director knows how to keep things tense, taut and exciting.", "is_fresh": 1, "author": ["Dennis Schwartz"]},
{"text": "Jeremy Saulnier's \"Blue Ruin\" is a small, quiet film brimming with smart directorial decisions.", "is_fresh": 1, "author": ["David N. Butterworth"]},
{"text": "Even though at some points it hints at dark humor in a Coen brothers kinda way, this movie is far from making you laugh. [Full review in Spanish]", "is_fresh": 1, "author": ["Ernesto Diezmartinez"]},
{"text": "Every shot in this film is carefully selected to bring the most out of this thrilling story. [Full review in Spanish] ", "is_fresh": 1, "author": ["Luis Fernando Galv\u00e1n"]},
{"text": "An umpredictable journey that manages to build up tension and interest the whole time. [Full review in Spanish]", "is_fresh": 1, "author": ["Carlos Arias"]},
{"text": "Brilliant stroke to have a nebbish carrying out a one-man vendetta against a gang of bad guys rather than a Charles Bronson retread.", "is_fresh": 1, "author": ["Louis Proyect"]},
{"text": "A lean piece of thriller filmmaking with a potent human core.", "is_fresh": 1, "author": ["Tim Brayton"]},
{"text": "Exponentially inspirational; Blue Ruin is a film that feels like intimate atomic fallout out from an event that radiates through the lives of two families. Filmmaker Jeremy Saulnier is irrevocably one to watch. ", "is_fresh": 1, "author": ["Blake Howard"]},
{"text": "The world doesn't need another empty genre exercise. But as Blue Ruin reminds us, it can always use more filmmakers of Saulnier's resourcefulness, sensitivity and quiet assurance.", "is_fresh": 1, "author": ["Ann Hornaday"]},
{"text": "With the same brand of realist irony the Coens used to cool down Blood Simple, writer-director Jeremy Saulnier slows the genre's heartbeat to gripping effect.", "is_fresh": 1, "author": ["Keith Staskiewicz"]},
{"text": "It gets uglier. And as it does, the lessons become more apparent to you, if not to Dwight.", "is_fresh": 1, "author": ["Cynthia Fuchs"]},
{"text": "Blue Ruin belies its modest means to deliver gripping tension and an unlikely character study.", "is_fresh": 1, "author": ["Leigh Singer"]},
{"text": "As the corpses pile up, Blue Ruin plays like an ever-expanding Mexican Standoff, death met with death in a sprawling network of violence that implicates a whole gun-crazy nation.", "is_fresh": 1, "author": ["John Semley"]},
{"text": "Visually arresting, impressively taut and enjoyably idiosyncratic, Saulnier - who did his own cinematography -- marks himself out as a director with a strong voice that we will, with luck, be hearing a lot more of in future.", "is_fresh": 1, "author": ["Amber Wilkinson"]},
{"text": "Understated, atmospheric and compelling, Blue Ruin has an art house indie aesthetic reminiscent of the Coen brothers' debut Blood Simple, and that's high praise, indeed.", "is_fresh": 1, "author": ["Jeremy Aspinall"]},
{"text": "Blue Ruin is as tiny a movie as they come, but it packs a stinging punch.", "is_fresh": 1, "author": ["Alynda Wheat"]},
{"text": "It is a simple story, sparsely but stirringly told, and Saulnier uses it to make a statement about the terrifying ease with which Americans can arm themselves to the teeth.", "is_fresh": 1, "author": ["Brian Viner"]},
{"text": "Watching doe-eyed Dwight leave his car keys at a murder scene, bungle a kidnapping and miss shooting his target from 2ft away is a tense and unpredictable experience.", "is_fresh": 1, "author": ["Andy Lea"]},
{"text": "Blue Ruin starts promisingly with a hairy hobo living in a blue, rusty, bullet-holed Pontiac on a Delaware beach.", "is_fresh": 1, "author": ["Kate Muir"]},
{"text": "Blue Ruin is a brutal stripped back thriller that suggests more great things to come from Jeremy Saulnier.", "is_fresh": 1, "author": ["John Noonan"]},
{"text": "The leading man of Jeremy Saulnier's mesmerizing Blue Ruin is not the kind of actor who usually gets to anchor a motion picture, let alone a violent revenge picture, and that's part of what makes the movie work.", "is_fresh": 1, "author": ["Sherilyn Connelly"]},
{"text": "We understand that Dwight's mission of revenge is juvenile and indefensible, but Blair manages to make us root for him nonetheless.", "is_fresh": 1, "author": ["Martin Roberts"]},
{"text": "The everyday suburbs and wilderness of Virginia come to life as places of rustic beauty and grim reality.", "is_fresh": 1, "author": ["Stephen Danay"]},
{"text": "A prismatically efficient thriller.", "is_fresh": 1, "author": ["Rob Humanick"]},
{"text": "A hauntingly memorable, even thoughtful shoot-'em-up. [Blu-ray]", "is_fresh": 1, "author": ["Peter Canavese"]},
{"text": "It's a smart, bloody thriller that keeps springing weird new directions on you.", "is_fresh": 1, "author": ["Will Leitch"]},
{"text": "[A]n atmospheric, elegant piece, a more delicate, intriguingly nervous piece of pulp noir.", "is_fresh": 1, "author": ["Jonathan Romney"]},
{"text": "... a quietly powerful low-budget revenge thriller that gradually reveals secrets about its characters to ratchet up the tension.", "is_fresh": 1, "author": ["Todd Jorgenson"]},
{"text": "A crafty little thriller that will have you on the edge of your seat--in all the ways that are good and familiar. ", "is_fresh": 1, "author": ["Richard Knight"]},
{"text": "...a genre film, but it's not an empty-headed one. It's accessible in the same way Jim Thompson's crime novels are ...", "is_fresh": 1, "author": ["Philip Martin"]},
{"text": "Blue Ruin redefines the revenge picture. It continually creates moments of hold-your-breath suspense. ", "is_fresh": 1, "author": ["Mike McGranaghan"]},
{"text": "Saulnier is also a cinematographer, and he's in complete control of the film's conflation of human-scale horror and tragicomedy.", "is_fresh": 1, "author": ["Wesley Morris"]},
{"text": "Blair, an unheralded actor, carries the whole picture. He's in practically every scene, and his performance is fascinating because in his eyes you can see the character struggling desperately with himself.", "is_fresh": 1, "author": ["Soren Andersen"]},
{"text": "Blue Ruin is violent but it impressively avoids the glorification of bloodshed; instead, [director Jeremy] Saulnier deftly shows just how terrifying, unnerving, sad and awful it is to take a life.", "is_fresh": 1, "author": ["Chase Whale"]},
{"text": "Saulnier works intelligent and engrossing variations on the revenge thriller.", "is_fresh": 1, "author": ["Trevor Johnston"]},
{"text": "Saulnier makes impressive use of silence and slow camera movements, allowing the suspense to simmer until violence seems practically inevitable.", "is_fresh": 1, "author": ["Ben Sachs"]},
{"text": "A tight, taut, suspenseful little thriller...offering an effective series of tension-building sequences punctuated by outbursts of violent action.", "is_fresh": 1, "author": ["Frank Swietek"]},
{"text": "Though coloured by indie sensibilities, Blue Ruin offers the momentum of hard-edged pulp and the viscera of full-on exploitation cinema.", "is_fresh": 1, "author": ["Donald Clarke"]},
{"text": "...a rueful repudiation of the adage that revenge is sweet.", "is_fresh": 1, "author": ["Josh Larsen"]},
{"text": "Upends genre expectations by placing an unskilled, often hapless and physically undistinguished Everyman in the violent 'revenge' role that a Hollywood movie typically would assign to an invulnerable tough guy played by the likes of Liam Neeson...", "is_fresh": 1, "author": ["John Beifuss"]},
{"text": "Saulnier spills a lot of blood, but he's an extraordinarily responsible and appealing craftsman.", "is_fresh": 1, "author": ["David Denby"]},
{"text": "A stripped-down tale of revenge with bloodied hands and a blackened heart, this viscerally intelligent thriller takes a new stab at an old genre with refreshingly distressing results.", "is_fresh": 1, "author": ["Mark Kermode"]},
{"text": "Subtle and heartbreaking, this revenge drama will be hard to forget.", "is_fresh": 1, "author": ["John Hanlon"]},
{"text": "A sublime noir that deserves to be seen, such is its power and brutality. ", "is_fresh": 1, "author": ["Ed Whitfield"]},
{"text": "Revenge thriller Blue Ruin has at its centre that stock cinematic type, the grieving loner on a mission of retribution, yet Jeremy Saulnier's low-budget film is a world away from the wish-fulfilment fantasy of the Death Wish movies and their ilk.", "is_fresh": 1, "author": ["Jason Best"]},
{"text": "Does a great job of masking how little it has to say about the bloodshed it deals in.", "is_fresh": 0, "author": ["Michael Nordine"]},
{"text": "You couldn't ask for a more unlikely avenger than the ill-equipped sort-of hero of Blue Ruin, and that's precisely why it's far, far more suspenseful than the typical violent revenge thriller.", "is_fresh": 1, "author": ["Bruce Ingram"]},
{"text": "A very bloody film noir, directed with tremendous ingenuity by Jeremy Saulnier, Blue Ruin benefits from its pared-down style and macabre humour.", "is_fresh": 1, "author": ["Geoffrey Macnab"]},
{"text": "Strong suspense levels help maintain good momentum and Blair anchors proceedings admirably. The conclusion is a tad contrived, but there are enough twists and turns along the way to ensure that genre fans will be suitably thrilled.", "is_fresh": 1, "author": ["Padraic McKiernan"]},
{"text": "Darkly comic and frequently gripping, revenger's tragedy Blue Ruin proves Jeremy Saulnier is a director to watch.", "is_fresh": 1, "author": ["Catherine Bray"]},
{"text": "Blue Ruin is an extremely polished revenge thriller, but it's been buffed so much that it begins to dull in the areas that should be more striking.", "is_fresh": 1, "author": ["Chris Sawin"]},
{"text": "This crowd-funded sleeper recalls such genre masters as the Coen brothers and Sam Peckinpah. See this.", "is_fresh": 1, "author": ["James Verniere"]},
{"text": "A thriller that feels natural and improvisational, even when you know it's so tightly plotted it will make you drive your fingernails into the armrests.", "is_fresh": 1, "author": ["Sean P. Means"]},
{"text": "Blue Ruin is a taut, tight, incredibly tense but also laugh-out-loud funny revenge thriller the likes of which only come out once in a blue moon.", "is_fresh": 1, "author": ["Evrim Ersoy"]},
{"text": "A riveting revenge thriller written and directed by Jeremy Saulnier and built around a singular performance by Macon Blair.", "is_fresh": 1, "author": ["Tom Long"]},
{"text": "To call Blue Ruin a revenge thriller is to sell this barbed-wire-sharp and altogether surprising American indie short.", "is_fresh": 1, "author": ["Steven Rea"]},
{"text": "There's something extraordinarily ordinary about Saulnier's approach that cuts right through the thin skin of vengeance.", "is_fresh": 1, "author": ["Mark Dujsik"]},
{"text": "A riveting Southern gothic revenge thriller - a suspenseful reinvigoration of the genre - that seems to be over in the first 20 minutes, and then finds horrific new places to take you.", "is_fresh": 1, "author": ["MaryAnn Johanson"]},
{"text": "As an exercise in cinematic style, \"Blue Ruin\" is well worth seeing.", "is_fresh": 1, "author": ["Peter Keough"]},
{"text": "Essentially a lurid revenge story but filtered through an arthouse sensibility, peppered with stillness and deglamourised violence.", "is_fresh": 1, "author": ["Leslie Felperin"]},
{"text": "Blue Ruin is a low-budget yet highly accomplished revenge thriller although whether you have the stomach for it is another matter.", "is_fresh": 1, "author": ["Deborah Ross"]},
{"text": "Much of the pleasure of Blue Ruin is letting its urgency coil around your heart, daring it to move.", "is_fresh": 1, "author": ["Matt Pais"]},
{"text": "\"Blue Ruin\" is a movie about revenge, but it reaches far past the bottom-shelf titillations of fantasy to tell a richer, character-driven story with a protagonist who's less avenging angel than ghost.", "is_fresh": 1, "author": ["Barbara VanDenburgh"]},
{"text": "Fans of the darker side of the Coen Brothers (\"Blood Simple,\" \"No Country for Old Men\") and Quentin Tarantino should take note.", "is_fresh": 1, "author": ["Brad Keefe"]},
{"text": "The filmmaker works with economy and has a knack for creating a sense of foreboding, which is good because the plot is simply a working out of the old saw that violence begets violence.", "is_fresh": 1, "author": ["Walter V. Addiego"]},
{"text": "This hard-boiled, unironic revenge thriller is held together by a mesmerising lead performance from Macon Blair.", "is_fresh": 1, "author": ["Sophie Monks Kaufman"]},
{"text": "The killings multiply. But so do the moments of kooky cinematic grace.", "is_fresh": 1, "author": ["Nigel Andrews"]},
{"text": "This is a filmmaking career you want to get in on the ground floor of.", "is_fresh": 1, "author": ["Rob Thomas"]},
{"text": "It's special work, intelligent and measured, reviving the possibilities of the subgenre. Saulnier establishes himself as a major talent with Blue Ruin. ", "is_fresh": 1, "author": ["Brian Orndorf"]},
{"text": "Deftly shot and dynamic to the end.", "is_fresh": 1, "author": ["Tim Robey"]},
{"text": "Saulnier's script avoids exposition...the filmmaker reveals each bit of truth only as necessary, turning an otherwise straightforward plot into an increasingly dense mystery. ", "is_fresh": 1, "author": ["Jamie S. Rich"]},
{"text": "plays into our primal urge for justice and isn't afraid to show us the spiraling consequences, physical and emotional, that come with acting on those impulses", "is_fresh": 1, "author": ["Blake Crane"]},
{"text": "The righting will be bloody, and he will be good at only some of it. Saulnier's work is behaviorally nuanced, vitally designed, framed and cut, blue-to-bruise blue-to-beyond-bruise and even at its leanest moments, rocking with brooding unease. ", "is_fresh": 1, "author": ["Ray Pride"]},
{"text": "Saulnier and his best friend/star Blair have created an intriguing, inept antihero but the old crime that haunts him and the family behind it are so crudely drawn that the film turns into a genre exercise.", "is_fresh": 1, "author": ["Laura Clifford"]},
{"text": "It's a taut, unflinching first act ... But as the bodies pile up and the plot circles in on itself, that beautifully constructed web of suspense begins to unravel.", "is_fresh": 1, "author": ["Tom Huddleston"]},
{"text": "Tightly focused and uncluttered suspense drama about a man on a tragic mission.... Jeremy Saulnier delivers a simple but gripping piece of somber entertainment. ", "is_fresh": 1, "author": ["Eric D. Snider"]},
{"text": "One of the most masterful thrillers of the year. ", "is_fresh": 1, "author": ["Felix Vasquez Jr."]},
{"text": "A twitchily well-acted thriller, as well as a suspenseful and sometimes very funny examination of revenge.", "is_fresh": 1, "author": ["Siobhan Synnot"]},
{"text": "A cunning, suspenseful thriller that bears comparison to the Coen brothers' Blood Simple, Blue Ruin is an impossible-to-ignore calling card from writer/director Jeremy Saulnier. Hollywood awaits.", "is_fresh": 1, "author": ["Jamie Graham"]},
{"text": "A lean, tough, thoughtful thriller with depth, Blue Ruin establishes Jeremy Saulnier as a promising indie auteur and Macon Blair as an unusual leading man.", "is_fresh": 1, "author": ["Kim Newman"]},
{"text": "It's a brilliant, slow-burning American revenge thriller that hardly puts a foot wrong, a work of startling violence and profound conscience that announces the arrival of an exciting young director.", "is_fresh": 1, "author": ["Andrew O'Hehir"]},
{"text": "Dark and freaky, this brutal, low-key revenge thriller throws a bunch of relatively simple people into a moral quagmire, and drags us in as well.", "is_fresh": 1, "author": ["Rich Cline"]},
{"text": "It's uneven and underdeveloped, but Blue Ruin succeeds as a lean and unflinchingly brutal take on a familiar genre.", "is_fresh": 1, "author": ["Emma Dibdin"]},
{"text": "It's a dark trip that only grows darker with each stomach-turning twist, but Saulnier brings an elegant touch to the frame that makes the whole movie feel different from your average violence-laden revenge film.", "is_fresh": 1, "author": ["Katherine Monk"]},
{"text": "Suspenseful and intense in parts, darkly comic in others, there's a brilliant tone to this memorable piece, as Saulnier manages to find the perfect middle ground between humour and morbidity.", "is_fresh": 1, "author": ["Stefan Pape"]},
{"text": "Blair is excellent in the lead, but the filmmaking is the true star here.", "is_fresh": 1, "author": ["Adam Nayman"]},
{"text": "Director Jeremy Saulnier has worked largely as a cinematographer, and \"Blue Ruin\" is marked by careful compositions and lighting.", "is_fresh": 1, "author": ["Stephen Whitty"]},
{"text": "Saulnier makes some interesting choices that reveal he has more on his mind than just indulging in mindless mayhem with spurts of dark comedy.", "is_fresh": 1, "author": ["Susan Wloszczyna"]},
{"text": "A lean, unsparing carousel of vigilante-style comeuppances, \"Blue Ruin\" brings newfound immediacy and quaking apprehension to a plot that, on paper, sounds as if it has been seen many times before.", "is_fresh": 1, "author": ["Dustin Putman"]},
{"text": "A movie made with terrific filmmaking and storytelling technique, [that] solidifies Jeremy Saulnier as a director to keep an eye on. ", "is_fresh": 1, "author": ["Eric Eisenberg"]},
{"text": "Blue Ruin's fierce narrative momentum derives from the inexorable logic of eye-for-an-eye reciprocity.", "is_fresh": 1, "author": ["Dana Stevens"]},
{"text": "\"Blue Ruin\" is an uneven film, and there are slip-ups along the way, but the tension that settles in slowly like a low-grade fever keeps you with it.", "is_fresh": 1, "author": ["Betsy Sharkey"]},
{"text": "Mocking vigilante violence while slapping it on in gorgeous splatters, \"Blue Ruin\" is little more than an archipelago of attacks and retaliations that pay off only in blood spilled and vendetta advanced.", "is_fresh": 0, "author": ["Jeannette Catsoulis"]},
{"text": "A gory instant-classic cult film about a maladroit revenge killer.", "is_fresh": 1, "author": ["Michael Sragow"]},
{"text": "Blue Ruin is the rare film that is nearly consistently tense, the suspense only temporarily subsiding about an hour into the story. It's a welcome respite.", "is_fresh": 1, "author": ["Claudia Puig"]},
{"text": "Blue Ruin succeeds on the strength of Saulnier's skill at slowly escalating the tension, even with a would-be action protagonist who is almost comically inept.", "is_fresh": 1, "author": ["Ian Buckwalter"]},
{"text": "An effective regional crime drama in the key of Jeff Nichols, but lacking his emotional and thematic complexity.", "is_fresh": 1, "author": ["Ethan Alter"]},
{"text": "Not much is said, but much is communicated in a blood-soaked film that acts as its own accuser.", "is_fresh": 1, "author": ["Peter Howell"]},
{"text": "Blue Ruin stands out because of the way it frames this revenge mission as a preordained conclusion, an unstoppable journey toward a brutal end.", "is_fresh": 1, "author": ["Robert Levin"]},
{"text": "Though the film more than fulfills its genre requirements as a tense, diamond-sharp 90-minute thriller, Saulnier never lets the action get cartoonish or detach itself from the flawed characters perpetuating it. ", "is_fresh": 1, "author": ["Scott Tobias"]},
{"text": "It has more of a kinship with 'Shotgun Stories,' Jeff Nichols' film on a bloody family feud that brings Hatfield and McCoys-esque tussling into the supposedly tamed present day.", "is_fresh": 1, "author": ["Matt Prigge"]},
{"text": "[With] Blue Ruin, [director Jeremy Saulnier] muffles the humor with darkness and grounds the violence in a stumbling revenge fantasy enacted by a lost and fractured soul.", "is_fresh": 1, "author": ["Matthew Odam"]},
{"text": "Blue Ruin is a confident venture that smartly doles out its story in pieces, leaving the audience to happily follow its trail of breadcrumbs.", "is_fresh": 1, "author": ["Marjorie Baumgarten"]},
{"text": "A real trip.", "is_fresh": 1, "author": ["Joe Neumaier"]},
{"text": "As an action film - which, in small bursts, it is - Blue Ruin is disquieting and raw, like Commando turned inside out. ", "is_fresh": 1, "author": ["Amy Nicholson"]},
{"text": "Blue Ruin is as visually striking as one might expect a film helmed by a talented cinematographer to be. But Saulnier has more than a great eye; he's got the soul of a natural filmmaker ...", "is_fresh": 1, "author": ["A.A. Dowd"]},
{"text": "Sparse of dialogue, terrifically ominous and full of low-key, high-quality performances, \"Blue Ruin\" is a vigilante tale even haters like me can get behind.", "is_fresh": 1, "author": ["Sara Stewart"]},
{"text": "With its strong and singular sense of itself adding realness -- and real art -- to what could have been another revenge thriller, Blue Ruin stands apart.", "is_fresh": 1, "author": ["James Rocchi"]},
{"text": "Blue Ruin takes a simple premise and keeps the universal truth while ditching the universal cliches.", "is_fresh": 1, "author": ["Fred Topel"]},
{"text": "Blue Ruin may occasionally be midnight-movie lurid, but not at the expense of deeper questions about vengeance's diminishing returns.", "is_fresh": 1, "author": ["Tim Grierson"]},
{"text": "Blue Ruin is more artful and evocative than any recent revenge picture, but it's still drivel.", "is_fresh": 0, "author": ["David Edelstein"]},
{"text": "The absolute antithesis of the standard cheer-on-the-wronged revenge thriller, Blue Ruin is a stripped-down take that unfolds much the way it might in real life.", "is_fresh": 1, "author": ["Laura Kern"]},
{"text": "Blue Ruin is a simple story well told; it marks promising work from both Saulnier and Blair, and delivers on its promises of a tightly-wound descent into hell.", "is_fresh": 1, "author": ["Eddie Harrison"]},
{"text": "Blue Ruin is a raw portrayal of revenge that refuses to glorify violence, as Macon Blair teams with Jeremy Saulnier for another punchy indie success.", "is_fresh": 1, "author": ["Matt Donato"]},
{"text": "Not just a solid Southern Gothic revenge story, but as vivid a depiction of homelessness as you'd ever want to see. ", "is_fresh": 1, "author": ["Roger Moore"]},
{"text": "By reducing its principals to stock figures in an extended chess game, it ends up providing steady, neatly staged thrills, but little else of substance.", "is_fresh": 0, "author": ["Jesse Cataldo"]},
{"text": "The principal character's conversations are so flabby that you cannot be blamed for wanting to avoid him.", "is_fresh": 0, "author": ["Harvey S. Karten"]},
{"text": "A ripping-good revenge flick with a radically simple premise ...", "is_fresh": 1, "author": ["Colin Covert"]},
{"text": "Blue Ruin is a revenge film filled with enough unpredictability to keep your attention and violence that serves the story rather than being gratuitous - though it does, at times, make for difficult viewing.", "is_fresh": 1, "author": ["Yasmin Ali"]},
{"text": "My favorite revenge film since Chan-Wook Park wrapped up his vengeance trilogy.", "is_fresh": 1, "author": ["Dan Schindel"]},
{"text": "Blue Ruin is an awesome and bloody thriller that also takes a good, hard look at the toll revenge can have on individuals as well as those around them.", "is_fresh": 1, "author": ["Don R. Lewis"]},
{"text": "A truly original revenge thriller.", "is_fresh": 1, "author": ["Chris Bumbray"]},
{"text": "Blue Ruin is distinguished by the way it allies solid storytelling to fine craftsmanship.", "is_fresh": 1, "author": ["Allan Hunter"]},
{"text": "Odd revenge genre low-budgeter keeps the tradition of revenge killing all too alive.", "is_fresh": 1, "author": ["Todd McCarthy"]},
{"text": "A lean and suspenseful genre piece that follows a bloody trail of vengeance to its cruel, absurd and logical conclusion.", "is_fresh": 1, "author": ["Justin Chang"]},
{"text": "The true power of Blue Ruin is its ability to find tension in the little things, not showy acts of violence.", "is_fresh": 1, "author": ["Travis Hopson"]},
{"text": "Excellently-acted, beautifully shot and deliberately-paced to nail-biting perfection, Blue Ruin takes a deserved place in the pantheon of no-holds-barred revenge thrillers.", "is_fresh": 1, "author": ["Staci Layne Wilson"]},
{"text": "The best Coen Bros. noir since they were making them.", "is_fresh": 1, "author": ["Walter Chaw"]},
{"text": "A quiet, confident, and surprisingly excellent revenge thriller.", "is_fresh": 1, "author": ["Scott Weinberg"]},
{"text": "Blue Ruin is tragedy on an intimate scale, but don't let its tiny budget fool you. It looks far more costly, which is fitting as its emotional toll is higher than the norm too.", "is_fresh": 1, "author": ["Rob Hunter"]},
{"text": "...an impressively spare thriller...", "is_fresh": 1, "author": ["David Nusair"]},
{"text": "It may be the finest cinematic plea for pacifism since Munich, or it may just be a great thrill ride.", "is_fresh": 1, "author": ["Jordan Hoffman"]},
{"text": "A feral and staggeringly well-conceived revenge saga.", "is_fresh": 1, "author": ["David Ehrlich"]},
{"text": "A taut, atmospheric and darkly comic revenge thriller.", "is_fresh": 1, "author": ["Jon Frosch"]},
{"text": "The violence is unfailingly nasty, the humor suitably dark, and the human center holds due to Dwight's endearingly short-sighted, continually fallible, yet understandably just mission against those who squandered his own happiness decades before.", "is_fresh": 1, "author": ["William Goss"]}
]