[
{"reviews_count": "69", "title": "Boyz n the Hood", "avg_audience_rating": "3.7", "rotten_count": "3", "tomatometer": "96", "audience_score": "93", "avg_critic_rating": "8.4", "fresh_count": "66", "user_ratings_count": "143,975"},
{"text": "The story is laid out with the simplicity of a naive morality tale but is not in the least boring.", "is_fresh": 1, "author": ["Harriet Waugh"]},
{"text": "All of these supporting characters proved indispensable to the film's lasting power.", "is_fresh": 1, "author": ["Shane Slater"]},
{"text": "The dialogue is hilarious, loaded, questioning.", "is_fresh": 1, "author": ["Tara Brady"]},
{"text": "It seems as box-fresh as a pair of white high-tops and as powerful and funny today as it was in 1991.", "is_fresh": 1, "author": ["Kate Muir"]},
{"text": "Boyz N the Hood is a passionate drama shot with fluency and style, a study of what amounts to life during wartime, with people grimly used to gunfire and helicopters thudding overhead.", "is_fresh": 1, "author": ["Peter Bradshaw"]},
{"text": "It feels like it should be cheesy and manipulative, but the utter sincerity lifts it immeasurable.", "is_fresh": 1, "author": ["David Jenkins"]},
{"text": "Singleton was only 23 when he made this urgent state-of-the-nation drama. But his skill with the camera, handling of actors, and raw dialogue suggests a seasoned pro.", "is_fresh": 1, "author": ["Neil Smith"]},
{"text": "Powerful, old-school look at life surrounded by violence. ", "is_fresh": 1, "author": ["Andrea Beach"]},
{"text": "Though it eviscerates the white establishment from the opening reel, much of the film exhibits a deeply conservative worldview, even for 1991. ", "is_fresh": 1, "author": ["Steven Wright"]},
{"text": "It's always risky to proclaim a new force in film based upon just one film, but Boyz N the Hood is good enough to suggest that John Singleton is going to be a major player for a long time.", "is_fresh": 1, "author": ["Gene Siskel"]},
{"text": "Like a jazz ensemble, Singleton and his actors slowly involve us in an almost sensual melange of moods, images and situations that take us inside the ghetto in a way mainstream films almost never do.", "is_fresh": 1, "author": ["Kenneth Turan"]},
{"text": "While it's often as pedantic and square as an Army training film, this movie about black teens trying to grow up in a gang-plagued South Central Los Angeles area generates strong emotions.", "is_fresh": 1, "author": ["Ralph Novak"]},
{"text": "This is a film that people should see.", "is_fresh": 1, "author": ["Dennis King"]},
{"text": "What's fresh about Boyz N The Hood is the contemporary L.A. setting, presented with care and energy by young writer/director Singleton.", "is_fresh": 1, "author": ["Gary Thompson"]},
{"text": "John Singleton, a stunningly gifted newcomer, directed this complex and nuanced look at an urgently important subject.", "is_fresh": 1, "author": ["David Sterritt"]},
{"text": "It's a terrific movie.", "is_fresh": 1, "author": ["Stephen Hunter"]},
{"text": "Emotionally, this film will leave you grim-faced and shaken. It hits hard where so many films aim and miss -- at the heart.", "is_fresh": 1, "author": ["Bill von Maurer"]},
{"text": "Alongside Quentin Tarantino's Reservoir Dogs, this was the most astonishing and hard-hitting directorial debut of the 1990s.", "is_fresh": 1, "author": ["David Parkinson"]},
{"text": "Singleton sometimes displays his youthful inexperience in melodramatic emphasis and rhetorical flourishes, but he has created a deeply troubling film about responsibility.", "is_fresh": 1, "author": ["Desmond Ryan"]},
{"text": "This is an impressive debut for Singleton.", "is_fresh": 1, "author": ["Scott Nash"]},
{"text": "An incredibly moving, character-rich drama about life in South Central L.A.", "is_fresh": 1, "author": ["R.L. Shaffer"]},
{"text": "A coming-of-age story without fluidity, hopping from scene to scene often indiscriminately. Singleton has stamina but lacks connective tissue, messing up development and motivation, unable to juggle the three distinct perspectives.", "is_fresh": 0, "author": ["Brian Orndorf"]},
{"text": "An assured effort that hits home in relating to parental responsibility as a means of encouraging good citizenship.", "is_fresh": 1, "author": ["Dennis Schwartz"]},
{"text": "[VIDEO ESSAY] \"Boyz N the Hood\" is more than a time-capsule of American existence. It is a boldly defiant, and desperate, call for peace in the midst of anarchy. ", "is_fresh": 1, "author": ["Cole Smithey"]},
{"text": "Even in its warmest moments, there is a fearful chill in this hood's air. And on the hearts of its boyz.", "is_fresh": 1, "author": ["Richard Schickel"]},
{"text": "The violence in Boyz N the Hood is neither gratuitous nor melodramatic; its aftermath is shattering. Singleton's powerhouse movie has the impact of a stun gun.", "is_fresh": 1, "author": ["David Ansen"]},
{"text": "One of America's most important films.", "is_fresh": 1, "author": []},
{"text": "A film any seasoned director would be proud of, but as a debut is nothing short of amazing.", "is_fresh": 1, "author": ["Lloyd Bradley"]},
{"text": "An absorbing, smartly made dramatic encyclopedia of problems and ethics in the black community, 1991.", "is_fresh": 1, "author": ["Variety Staff"]},
{"text": "Boyz n the Hood is a booming, heart slam of a film. ", "is_fresh": 1, "author": ["Duane Byrge"]},
{"text": "Shows some genuine talent in handling character and action, and equal amounts of confusion and attitude when it comes to matters of gender and ghetto politics.", "is_fresh": 1, "author": ["Jonathan Rosenbaum"]},
{"text": "Singleton strips his art of almost all ambiguity in the service of thematic and emotional and political transparency.... A tragic purgation of pity, anger, and fear.", "is_fresh": 1, "author": ["Nick Davis"]},
{"text": "What makes the film so affecting is the no-nonsense direction and Singleton's sure, specific sense of the rewards and hardships of community; in this, he is lent excellent support from a fine cast.", "is_fresh": 1, "author": ["Geoff Andrew"]},
{"text": "Singleton turns a typical coming-of-age yarn into the angry expression of the plight of young black males in the ghetto. This accomplished debut still represents the helmer's best work.", "is_fresh": 1, "author": ["Emanuel Levy"]},
{"text": "There's a good reason this flick made such a big splash and inspired so many copycats.", "is_fresh": 1, "author": ["Scott Weinberg"]},
{"text": "Singleton had his fingers on the pulse of South Central at a time when it desperately needed help. It's too bad we didn't listen to him soon enough.", "is_fresh": 1, "author": ["Matt McKillop"]},
{"text": "I's a sadly optimistic and touching classic that confidently conveys a coherent solemn mood of a modern American wasteland.", "is_fresh": 1, "author": ["Brad Laidman"]},
{"text": "John Singleton's ground breaking film that launched many careers.", "is_fresh": 1, "author": ["Steve Crum"]},
{"text": "One of the best films ever made - unforgettable stuff", "is_fresh": 1, "author": ["Clint Morris"]},
{"text": "Speaks to our hearts with its messages about responsibility, manhood, friendship, hope, self-esteem, and prosocial behavior", "is_fresh": 1, "author": ["Frederic and Mary Ann Brussat"]},
{"text": "Powerful and affecting largely because John Singleton has created characters of a distinctive world with whom we can identify.", "is_fresh": 1, "author": ["Dan Jardine"]},
{"text": "The Singleton of Boyz is a youth-incited political firebrand, and the film has lost none of its power to affect us with the sight of a neighbourhood ravaged by national inattention and corrupted by male pride", "is_fresh": 1, "author": ["Bill Chambers"]},
{"text": "Along with providing a fascinating story about sympathetic characters, Boyz N the Hood offers commentary about the troubles many inner-city youth and adults face to this day.", "is_fresh": 1, "author": ["Forrest Hartman"]},
{"text": "Evocative urban drama, far better than most of its imitators", "is_fresh": 1, "author": ["James Sanford"]},
{"text": "[A] powerful, unpretentious dramatization of life in a modern L.A. ghetto.", "is_fresh": 1, "author": []},
{"text": "In this setting, the actors could easily disappear into speeches or stereotypes, but they don't; the film's strength is that it sustains an intimate and realistic tone.", "is_fresh": 1, "author": ["Janet Maslin"]},
{"text": "Singleton was a contender. I hope he makes it back to the top.", "is_fresh": 1, "author": ["Alex Sandell"]},
{"text": "The strong story line and the anti-drug, anti-violent messages in the film all lack the subtlety we see in the film's visual images. If Singleton can polish up his films he should be able to become a major force in Hollywood.", "is_fresh": 0, "author": ["Robert Roten"]},
{"text": "Boyz In The Hood is remarkable -- a film full of political discussion and thought that also manages to involve us in the real, human lives of its characters.", "is_fresh": 1, "author": ["James Rocchi"]},
{"text": "Boys N the Hood wants to be The Learning Tree and Super Fly at once, an ambition that doesn`t seem quite honest.", "is_fresh": 0, "author": ["Dave Kehr"]},
{"text": "An uncommonly accomplished and mature filmmaking debut, one that has and will continue to stand the test of time.", "is_fresh": 1, "author": ["Michael Dequina"]},
{"text": "Boyz N the Hood has maturity and emotional depth: There are no cheap shots, nothing is thrown in for effect, realism is placed ahead of easy dramatic payoffs, and the audience grows deeply involved.", "is_fresh": 1, "author": ["Roger Ebert"]},
{"text": "Singleton adroitly lets the emotions wash over the didacticism, his feet placed squarely on direct experience and timeliness.", "is_fresh": 1, "author": ["Desson Thomson"]},
{"text": "Boyz N the Hood is a rude, insistent rap, an unflinching, often funny, always compassionate look at coming of age in South Central Los Angeles.", "is_fresh": 1, "author": ["Rita Kempley"]},
{"text": "All of the major players turn in powerhouse performances, and Fishburne nails his best role yet as Furious, a caring, intelligent father determined to see his son gain safe passage into maturity, and an exit from the 'Hood.", "is_fresh": 1, "author": ["Marc Savlov"]},
{"text": "Though Boyz N the Hood does falter here and there, overall it is very affecting, with many powerful moments and understated performances.", "is_fresh": 1, "author": ["Chris Hicks"]},
{"text": "", "is_fresh": 1, "author": ["Michael Szymanski"]},
{"text": "", "is_fresh": 1, "author": ["Joshua Tanzer"]},
{"text": "", "is_fresh": 1, "author": ["Daniel M. Kimmel"]},
{"text": "", "is_fresh": 1, "author": ["Randy Shulman"]},
{"text": "", "is_fresh": 1, "author": ["Spence D."]},
{"text": "", "is_fresh": 1, "author": ["Ryan Cracknell"]},
{"text": "", "is_fresh": 1, "author": ["Walter Chaw"]},
{"text": "", "is_fresh": 1, "author": ["Kevin N. Laforest"]},
{"text": "", "is_fresh": 1, "author": ["Christopher Smith"]},
{"text": "", "is_fresh": 1, "author": ["Philip Martin"]},
{"text": "", "is_fresh": 1, "author": ["Dan Marcucci and Nancy Serougi"]},
{"text": "", "is_fresh": 1, "author": ["Mike McGranaghan"]},
{"text": "", "is_fresh": 1, "author": ["Rob Vaux"]}
]