[
{"reviews_count": "149", "title": "Conan The Barbarian", "avg_audience_rating": "2.7", "rotten_count": "112", "tomatometer": "25", "audience_score": "30", "avg_critic_rating": "4.1", "fresh_count": "37", "user_ratings_count": "49,029"},
{"text": "[A] frenetic rush of energy embodied by the performance of Momoa, whose samurai training and choreographed planning of fight scenes has gone a long way to making his Conan a success.", "is_fresh": 1, "author": ["Russell Cook"]},
{"text": "Or How I Learned To Stop Worrying and Love Jason Mamoa. Who is this 'Arnold' person you keep talking about?", "is_fresh": 1, "author": ["Johnny Gayzmonic"]},
{"text": "The creative team had a unified vision, the talent on screen was strong, and the creator's vision was honored. If only audiences had responded in kind.", "is_fresh": 1, "author": ["Ed Travis"]},
{"text": "It is right that a new Conan film must look for its own identity, but one immediately notices that in the absence of Milius's saga-paced direction... and Schwarzenegger's special-effect physique, very little has been introduced to replace them. ", "is_fresh": 0, "author": ["Nick Pinkerton"]},
{"text": "Here's the thing about this version of Conan. Even if you're regretfully sober when you venture into the theater, it is imminently forgettable.", "is_fresh": 0, "author": ["Annalee Newitz"]},
{"text": "It's mostly just fights and fights and humdrum CGI and us in the audience wondering which of these big climaxes will be the last.", "is_fresh": 0, "author": ["Jos\u00e9 Teodoro"]},
{"text": "Momoa doesn't have Arnold's 7-time-Mr.-Olympia-winning muscles, but they're still impressive. Plus he can sort of act. Arnold could sort of act too, but Jason can sort of act better.", "is_fresh": 0, "author": ["Mark Jackson"]},
{"text": "If I made it sound entertaining, I didn't mean to. It's not \"so bad it's good,\" it's just really, really bad.", "is_fresh": 0, "author": ["Molly Laich"]},
{"text": "In some ways, I even liked it better than the original because it didn't take itself so deathly seriously.", "is_fresh": 1, "author": ["Kevin Carr"]},
{"text": "Conan the Barbarian is shocking not merely for its blood and guts violence but for how surprisingly gripping and compelling it is, even muddy in 3D.", "is_fresh": 1, "author": ["Sean Kernan"]},
{"text": "Missing the myth, the sorcery and the humor of the original big screen \"Conan.\"", "is_fresh": 0, "author": ["Roger Moore"]},
{"text": "Conan the Barbarian is a hollow beat 'em up with shallow characters and, worst of all, below average action.", "is_fresh": 0, "author": ["Ben Kendrick"]},
{"text": "But Nispel and his trio of screenwriters do nothing with their simplistic premise, crowding the screen with too much digital imagery and making every villainous character look like they just stepped out of some macabre Saturday morning cartoon.", "is_fresh": 0, "author": ["Sara Michelle Fetters"]},
{"text": "The film lacks any magic, and indeed any of the spirit that grabbed a cult audience for the original: the direction lacks any kind of showmanship, and the script is a dilluted version of what it undoubtedly could have been.", "is_fresh": 0, "author": ["Simon Gallagher"]},
{"text": "There is fun to be had here-not as much as there could be, but it kept me entertained, faults and all.", "is_fresh": 1, "author": ["Greg Maki"]},
{"text": "It would be barbaric to say this is the worst movie of the year. That certainly isn't the case. 'Conan the Barbarian' is, however, a second-rate remake, no more and no less. It's a far cry from the 1980s Arnold Schwarzenegger film. ", "is_fresh": 0, "author": ["Linda Cook"]},
{"text": "Conan the Barbarian isn't offensively bad, just mediocre and forgettable in nearly every way imaginable.", "is_fresh": 0, "author": ["R.L. Shaffer"]},
{"text": "We kinda missed the orgies . . .", "is_fresh": 0, "author": ["James O'Ehley"]},
{"text": "Directed by Marcus Nispel, this movie (which would be more aptly named Gron-an the Barbarian) is terrible, terrible, terrible. ", "is_fresh": 0, "author": ["Jeffrey M. Anderson"]},
{"text": "As a fantasy movie it hits all the right notes, dripping with guts, gore and familiar tropes; it's certainly not a film you have to concentrate on following. If that's your thing, you'll love it.", "is_fresh": 1, "author": ["Jayne Nelson"]},
{"text": "The film demonizes the witchy Marique (Rose McGowan), so she even worries her evil scum dad. ", "is_fresh": 0, "author": ["Cynthia Fuchs"]},
{"text": "Absolutely spastic in the way it pretends to tell a story, the work of someone who doesn't understand choreography, coherent storytelling and basic structural editing.", "is_fresh": 0, "author": ["Burl Burlingame"]},
{"text": "A movie that includes a cast listing for 'Topless Wenches' at least ought to have a kitschy sense of humor, but not this noisy, cheerless actioner.", "is_fresh": 0, "author": ["John Beifuss"]},
{"text": "The film is dumb, hackneyed and, well, just plain bad - much like the 1982 original - but because it knows and makes fun of that, it plays for a smart and entertaining ride.", "is_fresh": 1, "author": ["David Roark"]},
{"text": "Momoa and Nichols strike few sparks ... ", "is_fresh": 0, "author": ["Jim Lane"]},
{"text": "A glum affair.", "is_fresh": 0, "author": ["Philip French"]},
{"text": "Conan delivers good bloody fun.", "is_fresh": 1, "author": ["Charles Koplinski"]},
{"text": "Comes across as though it has a vendetta against its own target audience.... watching the film is, albeit in a small way, kind of like being punished for enjoying barbarian films.", "is_fresh": 0, "author": ["Tim Brayton"]},
{"text": "A humorless endurance test from the director who previously desecrated horror staples both good (The Texas Chain Saw Massacre) and bad (Friday the 13th) with so-what? remakes, this Conan fails in practically every respect.", "is_fresh": 0, "author": ["Matt Brunson"]},
{"text": "Marcus Nispel takes on John Milius' epic testosterone orgy and provides gallons upon gallons of CGI gore and Frank Frazetta-esque backgrounds but precious little of the humanity (yes, I said humanity) of the 1982 Schwarzenegger original.", "is_fresh": 0, "author": ["Marc Savlov"]},
{"text": "While not lacking for lamentations from women or anybody else, primarily concentrates on the \"crush your enemies\" part. The movie fails because it can't make that gore interesting", "is_fresh": 0, "author": ["Stephen Silver"]},
{"text": "A mix of limb-lopping mayhem and mystical mumbo-jumbo.", "is_fresh": 0, "author": ["Jason Best"]},
{"text": "Disappointing.", "is_fresh": 0, "author": ["Alex Zane"]},
{"text": "I had to advise projection it was showing the film in the wrong ratio. Not that I missed much.", "is_fresh": 0, "author": ["Graham Young"]},
{"text": "There's little satisfaction for the audience in this uninspired sword-and-sorcery adventure...", "is_fresh": 0, "author": ["Henry Fitzherbert"]},
{"text": "It's like an expensive B-movie that makes a lot of noise but signifies absolutely nothing.", "is_fresh": 0, "author": ["Derek Malcolm"]},
{"text": "A missed chance. There's a good foundation to build on, but the immediate film is let down by a lacklustre story and god-awful script.", "is_fresh": 0, "author": ["James Wright"]},
{"text": "Fourteen-year-old boys will wriggle with glee as Conan cuts down his opponents with his Cimmerian steel blade and manhandles bare-breasted women by the gaggle.", "is_fresh": 0, "author": ["Jonathan W. Hickman"]},
{"text": "This is the first film about medieval barbarians that appears actually to have been made by them.", "is_fresh": 0, "author": ["Christopher Tookey"]},
{"text": "A respectable (if unnecessary) reboot that's brutal, well acted and not overly serious.", "is_fresh": 1, "author": ["Ed Gibbs"]},
{"text": "Born on a battlefield! Blood blood blood! Bone crunching! Burn burn burn! In 3D!", "is_fresh": 0, "author": ["MaryAnn Johanson"]},
{"text": "The fault lies mainly with Marcus Nispel, German music-video director turned specialist in useless genre remakes, and not a man to whom any sane producer would entrust 3D.", "is_fresh": 0, "author": ["Tim Robey"]},
{"text": "A perfectly enjoyable - if bloody - sword'n'sandals set-to.", "is_fresh": 1, "author": ["Tim Evans"]},
{"text": "Low-quality entertainment with only surface polish.", "is_fresh": 0, "author": ["Karen Krizanovich"]},
{"text": "Gory but pedestrian reboot.", "is_fresh": 0, "author": ["Chris Bumbray"]},
{"text": "Watchable sword and sorcery saga, enlivened by superb special effects sequences and some solid performances, though it's also a good twenty minutes too long and hampered by both a lack of humour and some dodgy dialogue.", "is_fresh": 1, "author": ["Matthew Turner"]},
{"text": "Here is a tale in which battle sequence spawns battle sequence and where the dialogue is rendered all-but unintelligible under the din of clashing steel and the screams of the mutilated.", "is_fresh": 0, "author": ["Xan Brooks"]},
{"text": "Not to be a pessimist here, but if your military is so understaffed that women who are nine months pregnant are considered fit for active duty, I don't think you're going to win the war.", "is_fresh": 0, "author": ["Eric D. Snider"]},
{"text": "There's no emotional investment in the characters and its endless bludgeoning and slicing of flesh is something that may test the patience of even hardcore gore hounds.", "is_fresh": 0, "author": ["Simon Reynolds"]},
{"text": "Rent the original instead.", "is_fresh": 0, "author": ["Tom Huddleston"]},
{"text": "When your lead actor can't outact Ahnuld you know your movie is in trouble.", "is_fresh": 0, "author": ["Jackie K. Cooper"]},
{"text": "An insane start, including Morgan Freeman as our narrator, gives way to boredom and standard repetitive action.", "is_fresh": 0, "author": ["Jeff Bayer"]},
{"text": "It's pretty much like getting a straight shot of testosterone, whether you want it or not. In fact, just standing near one of the posters for Marcus Nispel's Conan the Barbarian will put hair on your chest regardless of age or gender.", "is_fresh": 0, "author": ["Joshua Starnes"]},
{"text": "Like an opened bottle of red wine that's been left out for a few days this is not a movie you can enjoy. ", "is_fresh": 0, "author": ["Cole Smithey"]},
{"text": "Silly, savage action-adventure, filled with visceral blood-and-guts carnage.", "is_fresh": 0, "author": ["Susan Granger"]},
{"text": "for all the yelling, the screaming, and the clanging of weapons, the whole is as muted as the colors in the art director's palette, making this a grim excursion on many levels", "is_fresh": 0, "author": ["Andrea Chase"]},
{"text": "Alternate titles may include Conan and the Argonauts, The Seventh Voyage of Conan, or Conan the Scorpion King.", "is_fresh": 0, "author": ["Kevin A. Ranson"]},
{"text": "If you're gonna make an unnecessary remake like Conan the Barbarian at least keep it breezy, an approach director Marcus Nispel wisely heeds here.", "is_fresh": 0, "author": ["Christian Toto"]},
{"text": "Not only does this this tacky bit of nonsense fail to live up to the original \"Conan the Barbarian,\" it barely lives up to the artistic heights of \"Kull the Conqueror.\"", "is_fresh": 0, "author": ["Peter Sobczynski"]},
{"text": "If I just said the words 'Hawk the Slayer' and you just got a little thrill, then you're totally down with this movie.", "is_fresh": 0, "author": ["Widgett Walls"]},
{"text": "At first gripping, the blurry action scenes grow repetitious, and though the sets capture the famous look of the Frank Frazetta book covers, the film lacks the warrior's heart.", "is_fresh": 0, "author": ["Peter Keough"]},
{"text": "Look, I enjoy Arnold's big 1982 coming out party as much as anyone, but let's not fool ourselves into thinking the original Conan was a classic of Western cinema.", "is_fresh": 1, "author": ["Pete Vonder Haar"]},
{"text": "Exceptionally dumb and loud for a summer movie, Conan the Barbarian is a muddled mess of a film bogged down by poor acting, cheesy dialogue and an incoherent plot.", "is_fresh": 0, "author": ["Jason Zingale"]},
{"text": "Progressing from nowhere to nothing and leaving only a greasy taste in the mouth as a reward.", "is_fresh": 0, "author": ["Rob Vaux"]},
{"text": "Upfront. The new Conan the Barbarian, Jason Momoa is a better actor than Arnold Schwarzenegger. It's a relative statement. He's still terrible.", "is_fresh": 1, "author": ["Gary Wolcott"]},
{"text": "The best I can say about \"Conan the Barbarian\" is that it's not as bad as I was expecting. ", "is_fresh": 0, "author": ["Beth Accomando"]},
{"text": "If you can't survive on muscles, carnage and brutality alone, and need even the slightest bit of heart, look elsewhere as 'Conan' is as brash and coarse as its hero.", "is_fresh": 0, "author": ["Perri Nemiroff"]},
{"text": "Shot in 3D, This 'Conan' falls prey to today's standards of cheap thrills and clich\u00e9s that makes one wish that they stayed home and watched the Arnold version again.", "is_fresh": 0, "author": ["Wilson Morales"]},
{"text": "It may be ridiculous as all get-out, but the fact that the exaggeration is so irony free is charming in its own way.", "is_fresh": 1, "author": ["Luke Y. Thompson"]},
{"text": "Simply put, this is a disappointment, whether you're looking for grandeur, trash or something in between.", "is_fresh": 0, "author": ["Jason Di Rosso"]},
{"text": "The very fact no attempt is made to hide the over-acted performances and under-developed storyline will sit perfectly fine with fans of this kind of junk.", "is_fresh": 1, "author": ["Leigh Paatsch"]},
{"text": "You have to give credit to Conan The Barbarian 3D for truth in advertising: Conan really is barbaric, and you get to see all that head-smashing and blood-letting in revolting 3D detail.", "is_fresh": 0, "author": ["Liz Braun"]},
{"text": "The movie reminds me of a question such movies have never answered: Why do people hanging on for dear life over a bottomless pit only hang on with one hand? Maybe we'll find out in the sequel. ", "is_fresh": 0, "author": ["Steve Persall"]},
{"text": "You don't go to a movie like this expecting to hear Shakespearean dialogue, but the action, under Marcus Nispel's direction, is consistently vigorous and exciting. So are the visual effects, from an epic battle with sand creatures to a...", "is_fresh": 1, "author": ["Leonard Maltin"]},
{"text": "If all you are looking for is a solid action movie to end the Summer of 2011 on, Conan the Barbarian will serve your needs nicely. Insanely, but nicely. ", "is_fresh": 1, "author": ["Bill Gibron"]},
{"text": "The whole affair buries the needle on the stupid-meter, with a droning score and the most ear-shattering sound effects in recent memory, plus pointless 3-D and a visual style about as subtle as the side of one of those old air-brushed conversion vans.", "is_fresh": 0, "author": ["Corey Hall"]},
{"text": "The 2011 version of Conan the Barbarian looks cheap and feels rushed. The few good elements are dwarfed by a generic, nonsensical plot and shoddy storytelling.", "is_fresh": 0, "author": ["James Berardinelli"]},
{"text": "A misfire in every way, this franchise reboot is a noisy, incomprehensible mess of a film that almost makes worse use of the character than it does of the 3D technology.", "is_fresh": 0, "author": ["Joe Lozito"]},
{"text": "Shoddy acting, no real plot, and silly dialogue? You betcha!", "is_fresh": 0, "author": ["Laremy Legel"]},
{"text": "Momoa can do little with the character and thus we don't care what happens to him and our interest shifts to trying to guess what wild outfit McGowan will wear next. (Content Review for Parents also available)", "is_fresh": 0, "author": ["Jim Judy"]},
{"text": "Does it satisfy, this tale? In its own modest way, it does.", "is_fresh": 1, "author": ["Stephen Whitty"]},
{"text": "Usually when a movie includes so many interesting parts, it amounts to a pretty good time. However, the result here never gels.", "is_fresh": 0, "author": ["Grae Drake"]},
{"text": "It ain't a pretty sight -- in fact, it's downright barbaric.", "is_fresh": 0, "author": ["Rick Groen"]},
{"text": "It's just another ham-handed adventure flick in eye-deadening, wallet-draining 3-D.", "is_fresh": 0, "author": ["Joe Neumaier"]},
{"text": "Momoa ... speaks in one of those trying-too-hard baritones heard in young jocks whose greatest fear is being called gay.", "is_fresh": 0, "author": ["John DeFore"]},
{"text": "The very definition of the dumb summer flick, designed to squeeze a few last bucks out of the kids before school starts up again.", "is_fresh": 0, "author": ["Linda Barnard"]},
{"text": "You can't underestimate the vitality of a movie where manly men give orders such as, \"We will cast our rivals into oceans of blood.\"", "is_fresh": 1, "author": ["Kyle Smith"]},
{"text": "This is the movie for people who like blood, violence and topless women.", "is_fresh": 0, "author": ["Willie Waffle"]},
{"text": "Moves like a shot, tosses a lot of hardcore lunacy at the screen, and shows a decent amount of respect for basic matinee action-fests.", "is_fresh": 1, "author": ["Scott Weinberg"]},
{"text": "It makes mistakes, but there's a lot to like, even admire about director Marcus Nispel's remake.", "is_fresh": 1, "author": ["Joshua Tyler"]},
{"text": "It's not a legit pulp movie. It's not a legit genre movie. It's not even a guilty pleasure.", "is_fresh": 0, "author": ["Nick Nunziata"]},
{"text": "It wallows in misanthropy because that's all it knows.", "is_fresh": 0, "author": ["Mark Dujsik"]},
{"text": "So calamitously unprofessional it's as if half-minded vagrants found a dinged-up camera next to a few hundred bucks on the street, pulled together a cast of needy, out-of-work actors, and went to town.", "is_fresh": 0, "author": ["Dustin Putman"]},
{"text": "Conan the Barbarian lives by a pretty simple ethos: He lives, he loves, he slays. What he doesn't do, alas, is act.", "is_fresh": 0, "author": ["Scott Bowles"]},
{"text": "You'd think a film so heavy on sorcery and swordfights couldn't go wrong, but Conan The Barbarian manages the twin feats of being both derivative and deathly dull.", "is_fresh": 0, "author": ["David Edwards"]},
{"text": "Take a bad movie in two dimensions, film it in three, and what do you get? Three entire dimensions of lousy.", "is_fresh": 0, "author": ["Mick LaSalle"]},
{"text": "There are swords and sorcery, pirates and monsters, taxed bodices and taxing mythology. In other words, there's the bare minimum necessary to summon this dismal movie into existence.", "is_fresh": 0, "author": ["Scott Tobias"]},
{"text": "Dull and uninvolving, Conan the Barbarian occasionally verges on escaping its rut, but never makes good on the promise. It's busy without having energy, a loud, lackluster mess.", "is_fresh": 0, "author": ["Gary Dowell"]},
{"text": "Base. And stupid. And boring.", "is_fresh": 0, "author": ["Walter Chaw"]},
{"text": "It's kind of a wicked blast to watch, especially if you're in the mood for some righteous revenge.", "is_fresh": 1, "author": ["Betsy Sharkey"]},
{"text": "shoddy and grimly unimaginative ", "is_fresh": 0, "author": ["Chris Barsanti"]},
{"text": "Mr. Momoa has some awfully big biceps to fill. He rises to that task with a pumped physique made for ogling.", "is_fresh": 1, "author": ["Manohla Dargis"]},
{"text": "This Conan, lost in a haze of murky beige 3-D, is barely a presence in his own movie.", "is_fresh": 0, "author": ["Stephanie Zacharek"]},
{"text": "Even the Schwarzenegger version had a crackpot long-range vision. This Conan is just a barbarian for hire.", "is_fresh": 0, "author": ["Ty Burr"]},
{"text": "'Conan the Borebarian'...directed by the guy responsible for 'Pathfinder' and proves as silly and visually overblown as that movie.", "is_fresh": 0, "author": ["Frank Swietek"]},
{"text": "...all kinds of bad, and yet it's still enjoyable. Momoa's fun to watch, Nichols does a great damsel in distress and if Khalar himself isn't all that formidable, Rose McGowan vamps and camps as the hissable villainess. Guilty pleasure, thy name is Conan.", "is_fresh": 1, "author": ["Laura Clifford"]},
{"text": "Thanks to its punishing, empty intensity, the only impression this new movie is likely to leave you with is a headache.", "is_fresh": 0, "author": ["Josh Bell"]},
{"text": "'Conan' More Brawn Than Brains", "is_fresh": 0, "author": ["James Verniere"]},
{"text": "Jason Momoa improves upon the dubious acting skills of Arnold Schwarzenegger (the original Conan) in this otherwise undistinguished remake.", "is_fresh": 0, "author": ["Maitland McDonagh"]},
{"text": "It does what it sets out to do: provide plenty of action and imagination, while allowing the hero the chance to kill all the bad guys. There's nothing deep here. ", "is_fresh": 1, "author": ["Daniel M. Kimmel"]},
{"text": "Momoa, also a model, proves that he's more of a poser than an actor: he's a cocked eyebrow, a squinty tic, and an assortment of bulges in search of a performance.", "is_fresh": 0, "author": ["Peter Canavese"]},
{"text": "A gaudily ornamented medieval banquet table groaning with junk food and open entrails.", "is_fresh": 0, "author": ["Richard Corliss"]},
{"text": "This Conan barely qualifies as a character, smirking and hacking his way through life, never evolving into someone who can change or whom you want to follow.", "is_fresh": 0, "author": ["Tom Keogh"]},
{"text": "Pity the fool who tries to reprise the role that made Arnold Schwarzegger an icon.", "is_fresh": 0, "author": ["Rene Rodriguez"]},
{"text": "At its best the movie suggests a funhouse at a state-of-the-art county fair; at its worst it's a fairly dumb celebration of brute violence.", "is_fresh": 0, "author": ["Ben Sachs"]},
{"text": "Treats story and character as so many enemies to be vanquished.", "is_fresh": 0, "author": ["Thomas Leupp"]},
{"text": "If there's any pleasure to be had watching a movie like this, it's almost certainly of the guilty variety.", "is_fresh": 1, "author": ["Anders Wotzke"]},
{"text": "I've certainly seen worse movies this summer, though I hope that if director Nispel returns to the land of Hyboria he'll learn that sword fights don't respond well to his chaotic brand of staging, made worse by the editing.", "is_fresh": 0, "author": ["Michael Phillips"]},
{"text": "2011's attempt is suitably monosyllabic and winningly grotesque, yet it just doesn't possess the stamina to carry out its quest without resorting to shallow Hollywood tricks to dazzle the crowds.", "is_fresh": 0, "author": ["Brian Orndorf"]},
{"text": "The problem is that Conan just doesn't have much punch in the way of originality. Also, it seems to wear its mythical and magical trappings uneasily, deploying them fitfully and with little in the way of established rules.", "is_fresh": 0, "author": ["Brent Simon"]},
{"text": "With a complete lack of self-awareness, this po-faced remake looks more like a trash-TV series (a la Spartacus or Camelot) than a proper movie.", "is_fresh": 0, "author": ["Rich Cline"]},
{"text": "Here's a movie that's simultaneously lavishly violent and numbing, visually ornate and undistinguished, epic and shallow, relentlessly noisy and tone-deaf, workmanlike and unfilling.", "is_fresh": 0, "author": ["Lisa Schwarzbaum"]},
{"text": "[Momoa] barks and growls his dialogue with the unpracticed enthusiasm of a first-time Ren Fair performer.", "is_fresh": 0, "author": ["Keith Phipps"]},
{"text": "A brutal, crude, witless high-tech CGI contrivance, in which no artificial technique has been overlooked, including 3-D.", "is_fresh": 0, "author": ["Roger Ebert"]},
{"text": "Muscles! Swords! Grunting!", "is_fresh": 0, "author": ["Matt Pais"]},
{"text": "...a Conan for the torture porn age.", "is_fresh": 0, "author": ["Josh Larsen"]},
{"text": "Momoa is the right man for the job, but hopefully he'll have a better script and some memorable lines if there's a sequel.", "is_fresh": 1, "author": ["Jim Vejvoda"]},
{"text": "I can't think of a better reintroduction for the iconic character to new audiences than director Nispel's Conan the Barbarian.", "is_fresh": 1, "author": ["Heather Wixson"]},
{"text": "This cinematic protein shake does precisely what it sets out to do: it's violent, it's dumb, it's fun, and it is content. ", "is_fresh": 1, "author": ["Clem Bastow"]},
{"text": "Conan the Barbarian seems to have little interest in '30s pulp stories, and only a little more in cheesy '80s epics. ", "is_fresh": 0, "author": ["Jaime N. Christley"]},
{"text": "Though the adventure gushes with blood (there's an amateur C-section on the battlefield), it's also packed with thrills and sexy romance.", "is_fresh": 1, "author": ["Thelma Adams"]},
{"text": "There's just not a lot to like here, with the exception of what may be one of the all-time best bad movie lines, one Conan utters to Tamara as a kind of personal credo: \"I live. I love. I slay. I am content.\" That makes one of us.", "is_fresh": 0, "author": ["Bill Goodykoontz"]},
{"text": "Both truer to the vision of its character's creator, Robert E. Howard, and more satisfyingly pulpy than the 1982 movie incarnation.", "is_fresh": 1, "author": ["Mark Holcomb"]},
{"text": "The brutality is enervating, unrelieved by the slightest notion of humour. The fantasy castles are painted in with computers, and the battles are shot in widescreen close-up, the worst possible combination.", "is_fresh": 0, "author": ["Paul Byrnes"]},
{"text": "Without any thought given to characterization, plot or coherent staging, Conan is, with few exceptions, a complete disappointment. ", "is_fresh": 0, "author": ["Todd Gilchrist"]},
{"text": "The only time the 3D was decent was during the opening montage of the evil MacGuffin they're after. Aren't you proud you spent that money on about 15 minutes of footage?", "is_fresh": 0, "author": ["Monica Castillo"]},
{"text": "With all earnestness, Nispel embraces the property's classic roots, placing this new Conan squarely within the tradition of sword-and-sorcery pics.", "is_fresh": 1, "author": ["Peter Debruge"]},
{"text": "Non-stop blood-and-guts action aimed at game boys and emotionally stunted lovers of adolescent fantasy.", "is_fresh": 0, "author": ["Kirk Honeycutt"]},
{"text": "It didn't seem possible for there to be even less characterization than there was in the original \"Conan,\" but voila.", "is_fresh": 0, "author": ["Christy Lemire"]},
{"text": "A movie that is frenzied but unexciting, packed with action but lacking in distinctive moments..the camera is perpetually half a beat behind whatever it is you want to see. ", "is_fresh": 0, "author": ["Marshall Fine"]},
{"text": "\"Conan The Barbarian\" is the film equivalent of having someone punch you in the face for two straight hours while someone screams in your ear.", "is_fresh": 0, "author": ["Drew McWeeny"]},
{"text": "A dull and desultory affair that'll leave you feeling as cheated as Arnold Schwarzenegger's missus.", "is_fresh": 0, "author": ["Neil Smith"]},
{"text": "Violent, primitive, gut-level cinema aiming to please young male viewers", "is_fresh": 0, "author": ["Emanuel Levy"]},
{"text": "The iconic brute Conan the Barbarian is given a reboot, and while performances and set design impress, current filmmaking trends and Marcus Nispel's off putting direction ruin the final product.", "is_fresh": 0, "author": ["Matthew Pejkovic"]},
{"text": "You won't find the geopolitical quandaries or the ever-shifting power relationships of Game of Thrones here, but you will be treated to a non-stop barrage of brutal, ferocious battle scenes.", "is_fresh": 1, "author": ["Simon Miraudo"]},
{"text": "Nispel certainly succeeds in making a gutsy, ballsy, bloody action-adventure flick worthy of its central character's towering, archetypal mythos.", "is_fresh": 1, "author": ["Erin Free"]},
{"text": "The central story strand is fairly clear, but there is much that is lost in the kafuffle of noisy battles and ferociously edited fights", "is_fresh": 0, "author": ["Andrew L. Urban"]},
{"text": "It's an extravagant spectacle with a suitably dark production design, a non-too subtle score and an action-packed narrative filled with expensive stunts, visual effects and exotic settings", "is_fresh": 1, "author": ["Louise Keller"]},
{"text": "", "is_fresh": 1, "author": ["Rob Hunter"]}
]