[
{"reviews_count": "110", "title": "Control Room", "avg_audience_rating": "3.9", "rotten_count": "4", "tomatometer": "96", "audience_score": "87", "avg_critic_rating": "7.8", "fresh_count": "106", "user_ratings_count": "6,457"},
{"text": "Fascinating documentary for mature older teens+.", "is_fresh": 1, "author": ["Nell Minow"]},
{"text": "\"Control Room\" acknowledges wartime journalism sits between objectivity and propaganda, indifference and passion. Neutrality doesn't exist; to avoid gore is a stance. In a way, it's TV's true reality - the impossibility of objective footage of horror.", "is_fresh": 1, "author": ["Nick Rogers"]},
{"text": "Is simply up to what all journalists should be about in the face of a corporatized, monolithic media - ruffling feathers. This advisory couldn't have come sooner.", "is_fresh": 1, "author": ["Prairie Miller"]},
{"text": "Explores the difficulties that journalists face in a war situation better than most films do.", "is_fresh": 1, "author": ["Robert Roten"]},
{"text": "Em um ano que gerou \u00f3timos filmes como F9/11, Bush's Brain, The Hunting of the President e Outfoxed, este ainda se destaca como o mais eloq\u00fcente.", "is_fresh": 1, "author": ["Pablo Villa\u00e7a"]},
{"text": "[E]xplodes the myth of objectivity... [but] leaves you with the very hopeful feeling that there's a wide middle ground that has room for all perspectives.", "is_fresh": 1, "author": ["MaryAnn Johanson"]},
{"text": "Movies don't reveal the truth, but good ones like this can provide an intimate and nuanced glimpse at some alternative reality. ", "is_fresh": 1, "author": ["Philip Martin"]},
{"text": "Yes, the filmmakers ultimately lean left, but it's the U.S. military's PR guy, Josh Rushing, who stands out as the strongest and most likable personality.", "is_fresh": 1, "author": ["Luke Y. Thompson"]},
{"text": "Iraqis don't question the military power of the U.S., but rightly have plenty of evidence to question its wisdom ", "is_fresh": 1, "author": ["John A. Nesbit"]},
{"text": "It might at least make you stop and think the next time you hear something on the news that's presented as gospel. ", "is_fresh": 1, "author": ["Ken Hanke"]},
{"text": "In the words of an Al Jazeera producer: 'Rumsfeld calls this ''incitement.'' I call it true journalism.'", "is_fresh": 1, "author": ["John Beifuss"]},
{"text": "Noujaim has done better than most of us at being in the right places at the right times to catch the imperial machinery in its most vulnerable, damning moments.", "is_fresh": 1, "author": ["Nick Davis"]},
{"text": "Bush and Rumsfeld have called Al-Jazeera \"the mouthpiece of Osama Bin-Laden.\" You might find truth to that statement next to Saddam Hussein's weapons of mass destruction.", "is_fresh": 1, "author": ["Michael Drakulich"]},
{"text": "The optimistic viewer will see in all this blunt and messy contrariness the emergence of the first free press in the Arab world.", "is_fresh": 1, "author": ["Roger Moore"]},
{"text": "Shines most brightly when it's exploring unexpected ambiguities.", "is_fresh": 1, "author": ["Steve Schneider"]},
{"text": "\"Control Room\" is more than just a compelling film. It's a public service. ", "is_fresh": 1, "author": ["Rob Thomas"]},
{"text": "Lieutenant Josh Rushing emerges as a voice of reason, a moral arbiter between al-Jazeera and Fox News.", "is_fresh": 1, "author": ["Stephen Himes"]},
{"text": "Noujaim's viewers will learn little new about the inner workings of Al Jazeera, its philosophy, or its influence on its 40 million viewers.", "is_fresh": 0, "author": ["Rex Roberts"]},
{"text": "Takes us behind the scenes at the much-maligned -- but much-watched -- Al-Jazeera before and during the war, and the result is fascinating and revelatory.", "is_fresh": 1, "author": ["Eric D. Snider"]},
{"text": "A thoughtful look at the network the Pentagon describes as \"the mouthpiece of Osama bin Laden.\"", "is_fresh": 1, "author": ["Jeffrey Bruner"]},
{"text": "Important not so much in that it is a great documentary, but it raises some of the implications of our own biased media coverage.", "is_fresh": 1, "author": ["Ryan Cracknell"]},
{"text": "Given that most Americans know the network only by reputation, or via Donald Rumsfeld's public denunciations of it, a little more objective information would not have gone amiss.", "is_fresh": 0, "author": ["Anthony Lane"]},
{"text": "With the western and Arab worlds increasingly at one another's throats, the sliver of hope for finding common ground this film provides is nothing short of a revelation.", "is_fresh": 1, "author": ["Rick Kisonak"]},
{"text": "Control Room demonstrates little filmmaking skill ... all video stock and mostly harsh fluorescent lighting. What is being portrayed is more important than how.", "is_fresh": 1, "author": ["Matt Kelemen"]},
{"text": "'The press, not war, is the necessary evil in Control Room and information is now more powerful than missiles.'", "is_fresh": 1, "author": ["Derek Smith"]},
{"text": "Noujaim's documentary is clearly sympathetic to the journalists of Al-Jazeera, who all seem to be professional, intelligent and reasonable, but it is not blindly biased.", "is_fresh": 1, "author": ["Geoff Pevere"]},
{"text": "Modest in scope and not as well structured as it could have been, Control Room may not seem all that compelling 10 years down the road. But right now, at this very moment, it is essential, imperative viewing.", "is_fresh": 1, "author": ["Rene Rodriguez"]},
{"text": "In this documentary, you get the feeling that people are actually listening to each other. It's refreshing in these times of Michael Moore.", "is_fresh": 1, "author": ["Bill Pierce"]},
{"text": "More illuminating than not, and shines its brightest light on a truth that war and warmongers so ferociously ignore: Look hard into the other's camp and what you'll likely see is yourself.", "is_fresh": 1, "author": ["Rick Groen"]},
{"text": "It gives audiences in the Western world a glimpse into newsgathering efforts that are rarely if ever seen here.", "is_fresh": 1, "author": ["Jeff Vice"]},
{"text": "What makes The Control Room important is that it gives us a glimpse of a viewpoint we might not otherwise see.", "is_fresh": 1, "author": ["Daniel M. Kimmel"]},
{"text": "An absorbing behind-the-scenes documentary about Al Jazeera shows.", "is_fresh": 1, "author": ["Lawrence A. Johnson"]},
{"text": "A perceptive picture of the way in which modern warfare has turned the information battle into its permanent second front.", "is_fresh": 1, "author": ["Jamie Russell"]},
{"text": "A documentary as subtle, insightful and evenhanded as Fahrenheit 9/11 is obvious and one-sided.", "is_fresh": 1, "author": ["Robert W. Butler"]},
{"text": "Insightful and gripping.", "is_fresh": 1, "author": ["Michael W. Phillips, Jr."]},
{"text": "The value of the film is limited in only pointing out that the network is not really as monstrous as portrayed in the American media.", "is_fresh": 1, "author": ["Dennis Schwartz"]},
{"text": "Enlightening documentary looks at the Arabic satellite television network Al-Jazeera.", "is_fresh": 1, "author": ["Marc Mohan"]},
{"text": "Takes an unusually balanced look at the consistently unbalanced coverage of the war in Iraq.", "is_fresh": 1, "author": ["Lawrence Toppman"]},
{"text": "Truth is, one country's propaganda is another country's truth.", "is_fresh": 1, "author": ["Lori Hoffman"]},
{"text": "An eye-opening documentary.", "is_fresh": 1, "author": ["Matt Brunson"]},
{"text": "hits you in the head like a right hook", "is_fresh": 1, "author": ["Pete Croatto"]},
{"text": "An invaluable record of the media's role in a war that some analysts have likened to the 'quagmire' of Vietnam.", "is_fresh": 1, "author": ["Timothy Knight"]},
{"text": "Noujaim's eye-opening documentary consistently asks the tough questions, while giving its subjects (and, implicitly, the audience) a remarkable forum for discussion.", "is_fresh": 1, "author": ["John Hartl"]},
{"text": "Essential viewing for anyone who cares about the nature of propaganda.", "is_fresh": 1, "author": []},
{"text": "Americans watch CNN. The Arab world watches Al-Jazeera. This movie watches both and helps us understand how no attempt or pretense of objectivity can ever escape bias. ", "is_fresh": 1, "author": ["Nell Minow"]},
{"text": "Puts a tormented human face on the demon that has been such a thorn in the side of the Bush administration.", "is_fresh": 1, "author": ["William Arnold"]},
{"text": "The struggle to report news, or even to decide what constitutes news, pervades the American war against Iraq.", "is_fresh": 1, "author": ["Cynthia Fuchs"]},
{"text": "We don't have Barry Maguire and angry Bob Dylan, but we do have this--let's hope it's enough.", "is_fresh": 1, "author": ["Walter Chaw"]},
{"text": "A fascinating document and demands to be seen and discussed by every adult American.", "is_fresh": 1, "author": ["Jean Lowerison"]},
{"text": "Unlike most American media outlets, al-Jazeera happens to be one news service that the Pentagon hasn't been able to \"manage.\"", "is_fresh": 1, "author": ["Thomas Delapa"]},
{"text": "If you're interested in keeping an open mind on the still developing Iraqi saga, Control Room is a first-rate way to encounter more than one point of view.", "is_fresh": 1, "author": ["Jack Garner"]},
{"text": "We all have our rigidities, and Control Room may wake you up a bit.", "is_fresh": 1, "author": ["David Elliott"]},
{"text": "Enlightening, if structurally relaxed documentary.", "is_fresh": 1, "author": ["Desson Thomson"]},
{"text": "This engrossing portrait of competing notions of truth is at once a thrilling real-time chronicle of the birth of a free press and a sophisticated philosophical treatise on the nature of objective reality.", "is_fresh": 1, "author": ["Ann Hornaday"]},
{"text": "This fascinating look at the inner workings of the Al Jazeera Arab news network can't help but cause viewers to question everything we're fed by the media beast.", "is_fresh": 1, "author": ["Bob Strauss"]},
{"text": "It does a good job of showing just how much media manipulation is taken for granted by those who have the job of massaging the facts and the ones who simply lie back and enjoy it.", "is_fresh": 1, "author": ["Terry Lawson"]},
{"text": "The value in Control Room is simply that it shows what America never got to see while also serving as a reminder that nobody serves up the real truth, everybody just serves up their truth.", "is_fresh": 1, "author": ["Tom Long"]},
{"text": "Shows the value of being in the right place at the right time and how doing so can untangle sympathetic and unflattering contradictions to reveal a truth.", "is_fresh": 1, "author": ["Duane Dudek"]},
{"text": "A glimpse of a world where everything is reversed, where our most cherished preconceptions are called into question and reality proves to be a more complex business than we imagined.", "is_fresh": 1, "author": ["Kenneth Turan"]},
{"text": "As a portrait of the media's own Iraq war, this is a memorable, if not fully satisfying, film.", "is_fresh": 1, "author": ["Brendan Bernhard"]},
{"text": "Biased and boring.", "is_fresh": 0, "author": ["Steve Rhodes"]},
{"text": "... a raw, unblinking examination of how the first draft of history is revised by those who filter it.", "is_fresh": 1, "author": ["Richard Roeper"]},
{"text": "Control Room should be required viewing for anyone within reach of a TV signal.", "is_fresh": 1, "author": ["Marjorie Baumgarten"]},
{"text": "For those who are interested in wartime truth, this film reminds us that the casualty has been somewhat reduced.", "is_fresh": 1, "author": ["Stanley Kauffmann"]},
{"text": "Without being didactic, the documentary raises important issues about bias and objectivity.", "is_fresh": 1, "author": ["Jonathan Curiel"]},
{"text": "Offers us a fierce yet often surprisingly friendly debate about the clashing ways in which the U.S. invasion and takeover of Iraq have been portrayed by American and Arab journalists, placing matters in context.", "is_fresh": 1, "author": ["Joe Baltake"]},
{"text": "A must-see movie.", "is_fresh": 1, "author": ["Lisa Kennedy"]},
{"text": "While it provides some insight into the Arab perspective on the war, Control Room is a mere peek inside a window that would benefit from being thrown wide open.", "is_fresh": 1, "author": ["Mary F. Pols"]},
{"text": "It's a worthwhile exercise in bridging the East-West culture gap.", "is_fresh": 1, "author": ["James Verniere"]},
{"text": "If there are indeed two sides to every story, Control Room offers an unparalleled opportunity to observe the other side and then make up our own minds.", "is_fresh": 1, "author": ["Robert Denerstein"]},
{"text": "It puts us in the shoes of men and women for whom the war is not something distant and intangible but a bloodbath in their own back yard, which makes them the very definition of embedded journalists.", "is_fresh": 1, "author": ["Robert Wilonsky"]},
{"text": "An enlightening documentary about how the U.S. networks and the Arab satellite news channel Al Jazeera covered the early days of the war in Iraq.", "is_fresh": 1, "author": ["Roger Ebert"]},
{"text": "This modest yet necessary documentary digs into the tussle between bias and balance in modern journalism and sends you out debating where one side's reporting becomes the other side's distortion.", "is_fresh": 1, "author": ["Ty Burr"]},
{"text": "It's hard to come out of this film without wanting to ask questions - you may never watch the news the same way again.", "is_fresh": 1, "author": ["Cherryl Dawson and Leigh Ann Palone"]},
{"text": "Riveting documentary about Al-Jazeera has a simple, sturdy structure, a critical eye and a plain-spoken style.", "is_fresh": 1, "author": ["James Rocchi"]},
{"text": "It's an intriguing, entertaining glimpse at the inner workings of the most-watched television channel in the world.", "is_fresh": 1, "author": ["Jane Sumner"]},
{"text": "An overdue antidote to the carefully managed news that came out of the U.S. Central Command during the war.", "is_fresh": 1, "author": ["Bruce Newman"]},
{"text": "Whatever your beliefs about the war in Iraq, there's something here to make you question them.", "is_fresh": 1, "author": ["Chris Hewitt (St. Paul)"]},
{"text": "An eye-opening, important film that examines the war in Iraq from both Arab and Western perspectives.", "is_fresh": 1, "author": ["Steven Rea"]},
{"text": "What Noujaim does show is the side rarely seen over here, and she does so in a way that's brisk, informative and even entertaining in its own wrenching way.", "is_fresh": 1, "author": ["Mark Caro"]},
{"text": "Jehane Noujaim utilizes an easy observational style to get her point across.", "is_fresh": 1, "author": ["Jeanne Aufmuth"]},
{"text": "The Revolution Will Be Televised", "is_fresh": 1, "author": ["Rob Nelson"]},
{"text": "Judicious and revealing...despite some unfortunate omissions...Tune it in, and it may tell you something you didn't know--and entertain you as well.", "is_fresh": 1, "author": ["Frank Swietek"]},
{"text": "Compelling cinema verite documentary chronicling the working methods of the Al Jazeera news agency during the prelude and beginnings of the Iraq War.", "is_fresh": 1, "author": ["Frank Scheck"]},
{"text": "Like the best documentaries, Control Room spurs questions rather than promoting an agenda.", "is_fresh": 1, "author": ["Lisa Rose"]},
{"text": "[The filmmaker got] home with a bunch of marginal scenes and only the sketchiest chance of editing them into a story.", "is_fresh": 0, "author": ["Joshua Tanzer"]},
{"text": "Of films that should be required viewing as the conflict in Iraq continues to drag on and be reported, this is surely among them.", "is_fresh": 1, "author": ["Ken Fox"]},
{"text": "The most profound work to date on how our government has manipulated news coverage in Iraq.", "is_fresh": 1, "author": ["John Anderson"]},
{"text": "The zippily edited doc is relentlessly entertaining, with plenty of drama and even a few moments of dark humor.", "is_fresh": 1, "author": ["Megan Lehmann"]},
{"text": "Noujaim ably reveals the splits between truth and perception, raw anger and calculated hypocrisy.", "is_fresh": 1, "author": ["Elizabeth Weitzman"]},
{"text": "A timely and provocative critique of the notion of journalistic objectivity.", "is_fresh": 1, "author": ["Sheri Linden"]},
{"text": "Nobody interested in world affairs can afford to miss it.", "is_fresh": 1, "author": ["David Sterritt"]},
{"text": "Noujaim's anxiety-provoking documentary about how the light of truth shifts when filtered through a screen of nationalism, Arab or American.", "is_fresh": 1, "author": ["Lisa Schwarzbaum"]},
{"text": "The film's focused portrayal of Al-Jazeera clashes with its more haphazard grouping of American media outlets.", "is_fresh": 1, "author": ["Keith Uhlich"]},
{"text": "This absorbing, significant, and shamelessly entertaining movie not only goes through the looking glass but, no less significantly, turns the mirror back on us.", "is_fresh": 1, "author": ["J. Hoberman"]},
{"text": "At once a clear-eyed document of the war, an inquiry into the way events become filtered into news, and a complex, surprising portrait of the personalities behind the scenes.", "is_fresh": 1, "author": ["Jurgen Fauth"]},
{"text": "Reveals the humanity of the opponents on both sides...and government's attempt to deny that humanity at all costs.", "is_fresh": 1, "author": ["Gabriel Shanks"]},
{"text": "The most stunning fact elicited by this film is that Al-Jazeera is hated as much by some Arab rulers as by conservative Americans.", "is_fresh": 1, "author": ["Harvey S. Karten"]},
{"text": "The mood of Jehane Noujaim's bristling documentary about Al Jazeera, the satellite news network, is both frenetic and grim.", "is_fresh": 1, "author": ["A.O. Scott"]},
{"text": "Shows how propaganda works on both sides and how the truth is often somewhere in between. ", "is_fresh": 1, "author": ["George Wu"]},
{"text": "A riveting documentary by Jehane Noujaim that gives a insightful and diverse behind-the-scenes look at the Al Jazeera news operation during Operation Iraqi Freedom.", "is_fresh": 1, "author": ["Frederic and Mary Ann Brussat"]},
{"text": "Is Al Jazeera perfect? Certainly not, but when you watch how they put together their news, you realize that the best journalism during the war wasn't coming from the US.", "is_fresh": 1, "author": ["Oz"]},
{"text": "", "is_fresh": 1, "author": ["Jim Lane"]},
{"text": "", "is_fresh": 1, "author": []},
{"text": "", "is_fresh": 1, "author": []},
{"text": "", "is_fresh": 1, "author": []},
{"text": "", "is_fresh": 1, "author": ["Tony Medley"]},
{"text": "", "is_fresh": 1, "author": ["Daniel Kasman"]},
{"text": "", "is_fresh": 1, "author": []},
{"text": "", "is_fresh": 1, "author": ["Susan Granger"]}
]