[
{"reviews_count": "345", "title": "Deadpool 2", "avg_audience_rating": "4.1", "rotten_count": "59", "tomatometer": "83", "audience_score": "85", "avg_critic_rating": "  7", "fresh_count": "286", "user_ratings_count": "29,206"},
{"text": "As the body count rises the Fourth Wall is reduced to mere rubble, which means in future all movies will simply be our favourite stars talking directly to us through the screen, or maybe next to us on our sofas. Funny, clever and good-hearted.", "is_fresh": 1, "author": ["Sarah Cartland"]},
{"text": "Deadpool 2 manages to recapture and improve on all the fun, action, and ridiculousness that made the first film so charming.", "is_fresh": 1, "author": ["Kent Garrison"]},
{"text": "Deadpool 2 is essentially a live action Looney Toons cartoon masquerading as a superhero film. It's not trying to be high art, it's just trying to make you laugh.", "is_fresh": 1, "author": ["Michelle Kisner"]},
{"text": "Everything feels bloated and rehashed; the villains are under-written, poorly acted and inconsequential to the story as a whole. It's the same movie all over again.", "is_fresh": 0, "author": ["Matt Ward"]},
{"text": "Deadpool 2 doubles down on the delightful insanity of its predecessor and confirms my long held belief that adding Josh Brolin to anything immediately makes it better. ", "is_fresh": 1, "author": ["Brian Gill"]},
{"text": "Just like with the first film, Deadpool 2 works in the ways that it needs to work.", "is_fresh": 1, "author": ["Patrick Bromley"]},
{"text": "Deadpool 2 is holistically a better movie than the first; it's often funnier, filthier, and is generally more inspired. ", "is_fresh": 1, "author": ["Matt Oakes"]},
{"text": "This is Deadpool at maximum capacity; filthy, hilarious, blood-soaked mayhem with more than a few tricks up its sleeve. Don't miss that mid-credits stinger. ", "is_fresh": 1, "author": ["Cameron Frew"]},
{"text": "It's a movie that delivers everything it promises, but doesn't offer that same sense of surprise that only the first film could ever pull off. ", "is_fresh": 1, "author": ["Jennifer Heaton"]},
{"text": "This is at least the kind of thing the \"real\" X-Men movies should probably be doing instead of trying to be The Avengers.", "is_fresh": 1, "author": ["Bob Chipman"]},
{"text": "This is one of the clearest examples of \"Give the audience what they want\" sequels I can think of. It has just as much violence, just as much profanity, and just as many whiplash-inducing one-liners.", "is_fresh": 1, "author": ["Zaki Hasan"]},
{"text": "Once the film gets going, it's almost impossible to resist its anarchic energy, which is matched only by its underlying, shockingly sincere emotional core.", "is_fresh": 1, "author": ["Johnny Gayzmonic"]},
{"text": "The highlight of the entire film may be its final end-credits scene that must have been especially satisfying for Reynolds to make. ", "is_fresh": 1, "author": ["Kirsten Acuna"]},
{"text": "Deadpool 2 isn't going to win over new fans for the Merc with a Mouth.", "is_fresh": 1, "author": ["Sean Mulvihill"]},
{"text": "Overall, Deadpool 2 is a decent improvement over the first, a more assured and calculated film that takes what worked about his debut effort and slices off the fat.", "is_fresh": 1, "author": ["Clint Worthington"]},
{"text": "Sure we've seen most of this before, but for now, it's still fun to see it again.", "is_fresh": 1, "author": ["Micheal Compton"]},
{"text": "It may not be the godsend the original was, but the sequel holds up -- just well enough to virtually guarantee a third chapter.", "is_fresh": 1, "author": ["Sean Collier"]},
{"text": "The world needs to laugh right now, and Reynolds is here with some much-needed and timely levity. Thank god for Deadpool.", "is_fresh": 1, "author": ["Doug Jamieson"]},
{"text": "If you loved the first one, you'll almost undoubtedly fall head over heels for this one as well.", "is_fresh": 1, "author": ["Joey Magidson"]},
{"text": "Despite still not knowing the family all that well, there's still a desire to see what else Deadpool's House for Dysfunctional Mutants has in its halls. ", "is_fresh": 1, "author": ["Nguyen Le"]},
{"text": "I didn't love Deadpool as most did, I thought it had some pacing issues and while Deadpool 2 may not be as sharp as it wants, at least it corrects some of those mistakes and in return is the better film of the two. ", "is_fresh": 1, "author": ["Nate Adams"]},
{"text": "The laughs start immediately with the insanely brilliant intro/opening credits sequence and never stop until the equally insane mid-credits stingers.", "is_fresh": 1, "author": ["Kyle Wilson"]},
{"text": "A good sequel answers the question \"What next?\" This bad sequel just says, \"Let's do the same schtick, and literally crank it up to 11 in case anyone misses what we're about.\"", "is_fresh": 0, "author": ["Leona Laurie"]},
{"text": "Josh Brolin brings real gravitas to this free for all. But when it's said and done, way too violent for this delicate flower. ", "is_fresh": 1, "author": ["Anne Brodie"]},
{"text": "He attempts something that is kryptonite to this kind of character: sincerity...the movie is very good, but not as good as the first one.", "is_fresh": 0, "author": ["Eli Glasner"]},
{"text": "[Deadpool 2] is just as funny as the first one and I love that this franchise has embraced its role as the smart aleck in the front row.", "is_fresh": 1, "author": ["Dan Murrell"]},
{"text": "This is a rare comedy sequel that not only is able to meet expectations of the original, but also expand on the world that was created and the characters that were created and give them surprisingly a little more depth.", "is_fresh": 1, "author": ["Roth Cornet"]},
{"text": "If you like your cinema understated and refined, then this is not for you. But for the rest of us, there's enough to enjoy here.", "is_fresh": 1, "author": ["Anupama Chopra"]},
{"text": "I don't think the second film is terrible, I did find it quite dull. ", "is_fresh": 0, "author": ["Mark Kermode"]},
{"text": "Bursts of laughter pepper the film's landscape like mines. It's fun. Hollow, but fun.", "is_fresh": 1, "author": ["Hope Madden"]},
{"text": "If your idea of fun is clever wisecracks and inventive bloodshed, DEADPOOL 2 provides these in abundance.", "is_fresh": 1, "author": ["Abbie Bernstein"]},
{"text": "Probably the best end sequence of any comic book movie of all-time...the entertainment value of Deadpool 2 is off the charts.", "is_fresh": 1, "author": ["John Campea"]},
{"text": "There are a few things all that meta-referencing can't solve - a bland CG fight or narrative shortcut is still that, even if Deadpool points to it - but when it's such fun for the most part (minus a rough second act), it's hard not to be swept away.", "is_fresh": 1, "author": ["Akhil Arora"]},
{"text": "You know when you first see a meme that's fresh, still funny? Now, think about when you see that same meme after 4 months worth of riffing....that's Deadpool 2. ", "is_fresh": 0, "author": ["Robert Daniels"]},
{"text": "This is a wickedly fun time with some vivacious acting.", "is_fresh": 1, "author": ["Alci Rengifo"]},
{"text": "The writers take no prisoners for they destroy everyone involved in pop culture in the most innovative ways other than just name dropping.", "is_fresh": 1, "author": ["Rendy Jones"]},
{"text": "...no grand satire here, just self-awareness - and enough surprises, solid jokes and well-crafted action sequences to be entertaining.", "is_fresh": 1, "author": ["Adam Kempenaar"]},
{"text": "Atomic Blonde director David Leitch is no stranger to high intensity action, and here he is able to marry his sense of stylish combat with a keen understanding of franchise's wit.", "is_fresh": 1, "author": ["Sarah Gopaul"]},
{"text": "[Deadpool 2] is a fairly big-budget, superhero tent-pole with the unforgiving weight of expectations... on its shoulders.", "is_fresh": 1, "author": ["Kimberly Pierce"]},
{"text": "'Deadpool 2' is the rare but welcome sequel that not only lives up to expectations, but does so by not completely rehashing the first film.", "is_fresh": 1, "author": ["Deirdre Crimmins"]},
{"text": "Despite all its hip mayhem, directed both at anonymous thugs and at well-thumbed pulp tropes, Deadpool 2 is also good-hearted. It doesn't strike me as nihilistic or even cynical.", "is_fresh": 1, "author": ["Rob Gonsalves"]},
{"text": "Deadpool may not be the hero we want, but he is the hero we need.", "is_fresh": 1, "author": ["Tom Santilli"]},
{"text": "[Deadpool 2] certainly lived up to the hype of the first movie and is a great addition to the Deadpool/X-Force family.", "is_fresh": 1, "author": ["Britany Murphy"]},
{"text": "Deadpool 2 is terribly constructed. Why things happen doesn't really make much sense. The plot is an illogical mess of action scenes and joke setups.", "is_fresh": 0, "author": ["Joshua Rivera"]},
{"text": "Only able to stand being hectored for so long, I left the theater...", "is_fresh": 0, "author": ["A.S. Hamrah"]},
{"text": "You can only be first once and Reynolds' solution is more of everything. Deadpool 2 is everything you'd expect from a sequel. It's longer, has a bigger budget, bigger action scenes, more violence, more rudeness, more cameos - and dare I say - more heart.", "is_fresh": 1, "author": ["Eric Melin"]},
{"text": "The film is, without a doubt, is funny, cynical, hysterical and sometimes in bad taste, but the character Deadpool has a picaresque flavor that is unmatched. [Full review in Spanish] ", "is_fresh": 1, "author": ["Fausto Ponce"]},
{"text": "It becomes, as promised early on, a (dysfunctional) family movie about pushing yourself and others out of emotional ruts, and not making friendship conditional.", "is_fresh": 1, "author": ["Luke Y. Thompson"]},
{"text": "pretty much exactly what you are probably expecting it to be, which makes it, in and of itself, a wholly satisfying dive into the amusingly ribald and bloody world of Marvel's most anti-Marvel character", "is_fresh": 1, "author": ["James Kendrick"]},
{"text": "Reynolds and Brolin have undeniable chemistry together, with their burgeoning bromance being one of the best parts of the film.", "is_fresh": 1, "author": ["Pete Vonder Haar"]},
{"text": "Zazie Beetz as Domino is absolutely wonderful.", "is_fresh": 1, "author": ["Christopher Campbell"]},
{"text": "If you're a fan of the snarky, one-liner, potty-mouthed, red latex bodysuit, invincible guy - then you'll likely be entertained - it's outrageous adult raunchy fun.", "is_fresh": 1, "author": ["Sarah Knight Adamson"]},
{"text": "No doubt, Marvel fanboys will continue wondering how snugly Deadpool fits into the whole Marvel Comic Universe. It's an issue that keeps some people up at nights. For everyone else, chalk this up as an OK timer killer", "is_fresh": 1, "author": ["Jim Schembri"]},
{"text": "Builds on what came before to give us an undoubtedly more unwieldly but also more enjoyably bombastic, bigger scale experience.", "is_fresh": 1, "author": ["Ross Miller"]},
{"text": "The biggest surprise in \"Deadpool 2\" might just be how it enters the ranks of the very same thing it supposedly mocks: Politically correct cinema.", "is_fresh": 0, "author": ["Jordan Ruimy"]},
{"text": "When Deadpool 2 is boasting about great it is and claiming it's different, it's a slog. ", "is_fresh": 0, "author": ["Sarah Ward"]},
{"text": "A modest improvement over the original.", "is_fresh": 1, "author": ["Wesley Lovell"]},
{"text": "The pop culture references are too much at times, but not enough to sully all the effort that plainly went into making a harder, better, faster, stronger \"Deadpool\" movie.", "is_fresh": 1, "author": ["J. Olson"]},
{"text": "You can't make fun of superhero action films and, at the same time, be a good example of one...[but] the exception in the case of superhero action films is the \"Deadpool\" series.", "is_fresh": 1, "author": ["Dan Webster"]},
{"text": "For a brief period, Deadpool seemed like the most subversive player on the cinematic superhero circuit, deflating the genre's pretensions with a barrage of self-referential humor and fourth wall-breaking asides.", "is_fresh": 1, "author": ["James Hadfield"]},
{"text": "Fortunately, this new delivery is more of the same, but in a good way... [Full review in Spanish]", "is_fresh": 1, "author": ["Jos\u00e9 Mart\u00edn"]},
{"text": "This Deadpool sequel avoids the worst of the problems seen in many sequels, and manages to recapture the comedy, if not the charm, of the original 2016 surprise hit film.", "is_fresh": 1, "author": ["Robert Roten"]},
{"text": "Successfully builds upon the formula of the first movie to make for a highly entertaining slab of bloodletting violence and gut-busting laughs.", "is_fresh": 1, "author": ["Matthew Pejkovic"]},
{"text": "It's a little too cute for it's own good at times but still a lot of fun.", "is_fresh": 1, "author": ["Bob Grimm"]},
{"text": "The popular Marvel antihero is back with more action, more laughs, more meta commentary and surprisingly, more progressive ideas than in a any other superhero movie. [Full review in Spanish]", "is_fresh": 1, "author": ["Orlando Maldonado"]},
{"text": "It's an enjoyable exercise for those with knowledge of... the last fifteen years of Superman, Batman, Iron Man, Thor and the whole troupe. [Full review in Spanish]", "is_fresh": 1, "author": ["N\u00e9stor Burtone"]},
{"text": "It's not a difficult movie to watch, between the pace of the action and the pace of the jokes, but whether or not it's \"fun\" is entirely in the eye of the beholder.", "is_fresh": 1, "author": ["Sarah Marrs"]},
{"text": "The funniest, raunchiest, most entertaining of all comic book heroes returns in a pretty good sequel that delivers all the laughs you could want and a pitch perfect Ryan Reynolds.", "is_fresh": 1, "author": ["Pete Hammond"]},
{"text": "This film is so much better than Avengers: Infinity War that it's ridiculous.", "is_fresh": 1, "author": ["Stephen Silver"]},
{"text": "Because the sequel to the Merc with the Mouth is once again a great comedy, and that is the only thing that should matter to us. [Full review in Spanish]", "is_fresh": 1, "author": ["Alberto Corona"]},
{"text": "I loved this movie, I think it's funnier and more intelligent than its predecessor, but I know it's not for everyone.", "is_fresh": 1, "author": ["Stephen Romei"]},
{"text": "When a joke is good, I guess it works if it's told several times. [Full review in Spanish]", "is_fresh": 1, "author": ["Carlos D\u00edaz Reyes"]},
{"text": "Represents a significant improvement over the original while still not being particularly good.", "is_fresh": 0, "author": ["Sean Burns"]},
{"text": "The filmmakers couldn't care less what offends people and assume that no one is too delicate to appreciate the trademarked Deadpool balance of hyper-violence and the gleefully profane.", "is_fresh": 1, "author": ["Jared Rasic"]},
{"text": "Most of the jokes in Deadpool 2 fly at you like a gatling gun, firing off random references that you've probably never heard of.", "is_fresh": 0, "author": ["Chris Penwell"]},
{"text": "Reynolds's underlying sweetness takes the edge off the comic's homicidal self-pity, though the endless shtick has a miss-to-hit ratio of about three to one.", "is_fresh": 0, "author": ["Kim Newman"]},
{"text": "Deadpool 2 is an R-rated, potty-mouthed splatterfest and a funny one.", "is_fresh": 1, "author": ["Bob Mondello"]},
{"text": "Deadpool is more than happy with being the class clown of the superhero movie landscape, and Reynolds is here to please. ", "is_fresh": 1, "author": ["Mario Alegre"]},
{"text": "The reality, though, is that nothing the least bit subversive is happening here.", "is_fresh": 0, "author": ["Rick Kisonak"]},
{"text": "Ryan Reynolds has notably gotten more comfortable in the role, giving layers to the comedic character.", "is_fresh": 1, "author": ["Jamal-Dean Grootboom"]},
{"text": "Although, there is some funny stuff here, after a while the constant patter, quips, and heaving sludge of profanity become exhausting.", "is_fresh": 0, "author": ["Dorothy Woodend"]},
{"text": "[Deadpool 2] seems more relaxed and comfortable in the way it both skewers the superhero formula and then completely succumbs to it. Then has no trouble pointing out what a sellout it is.", "is_fresh": 1, "author": ["Beth Accomando"]},
{"text": "Deadpool 2 is just like Deadpool 1; it's Ryan Reynolds being sassy in red spandex, f***ing s*** up for two hours. It's entertaining and funny as hell, but ultimately unsurprising. ", "is_fresh": 1, "author": ["Amelia Navascues"]},
{"text": "Hilarious movie however the jokes overpower every other aspect of the movie so much so that you wonder if Deadpool is getting his own Netflix comedy special.", "is_fresh": 1, "author": ["Alachia Queen "]},
{"text": "Everything new and fresh in the first is old and trite in the sequel.", "is_fresh": 0, "author": ["Jackie K. Cooper"]},
{"text": "[Deadpool 2] has just the right balance of coarseness and political incorrectness. ", "is_fresh": 1, "author": ["E. Angel"]},
{"text": "'Deadpool 2' might not feel as fresh or as new as its predecessor, but it manages to avoid the majority of mistakes sequels tend to make. [Full review in Spanish]", "is_fresh": 1, "author": ["Sebastian Zavala Kahn"]},
{"text": "[Deadpool 2] picked the wrong path and needed more work. [Full Review in Spanish]", "is_fresh": 0, "author": ["Erick Estrada"]},
{"text": "The cranked-up continuation of its 2016 original, the second coming of Deadpool is every bit as over-the-top and overblown as one would expect - and then some.", "is_fresh": 1, "author": ["AJ Caulfield"]},
{"text": "Deadpool 2 is a wildly entertaining film that without a doubt audiences should not miss even if they aren't fans of the superhero genre. [Full Review in Spanish]", "is_fresh": 1, "author": ["Israel Acosta Aroche"]},
{"text": "11 minutes longer than Deadpool, and much less focused in its narrative momentum, but it somehow feels breezier and bouncier.", "is_fresh": 1, "author": ["Tim Brayton"]},
{"text": "The writing's funnier this time and Reynold's exhaustingly energetic performance holds the show together, while leaving little room for anyone else to shine.", "is_fresh": 1, "author": ["Paul Whitington"]},
{"text": "Don't be fooled by this civilised plot outline. Deadpool 2 is mostly a litany of violence, off-colour gags and enough fourth-wall breaks to make you wonder if it's possible for a comedy film to be too self-aware.", "is_fresh": 1, "author": ["Hilary A White"]},
{"text": "I got confused and then bored by a story that ties this franchise ever closer to the X-Men.", "is_fresh": 0, "author": ["Matthew Bond"]},
{"text": "The movie is most enjoyable when it's just being goofy, but Part 3 will need to up the ante.", "is_fresh": 1, "author": ["Eric D. Snider"]},
{"text": "Here, quoting George Michael and copping a feel of other superheroes' buttocks, Reynolds seems freer in a red leather unitard than he ever did batting his eyelashes at Sandra Bullock in The Proposal. He's found himself behind a mask.", "is_fresh": 1, "author": ["Tom Shone"]},
{"text": "Much as the film pokes fun at Reynolds' failed attempts at bringing a comic book character to life in the past, the sense is provided here that the Deadpool franchise has really become his major career achievement. ", "is_fresh": 1, "author": ["David Fontana"]},
{"text": "The overall tone of sad mopey Deadpool makes the movie a bummer. Of all the Marvel characters, Deadpool is not the guy who can pull off gravitas. He should be the guy making fun of Peter Parker and Tony Stark for being so emo. ", "is_fresh": 0, "author": ["Fred Topel"]},
{"text": "In any case, the characters are better designed and better developed in this second adventure... So it also improves the meta-humor of Deadpool 2. [Full review in Spanish]", "is_fresh": 1, "author": ["William Venegas"]},
{"text": "Deadpool 2 finds new ways to tell old jokes, and for that, it's (mostly) a success.", "is_fresh": 1, "author": ["Chris Evangelista"]},
{"text": "[Director] David Leitch's action lifts Deadpool to the top. [Full review in Spanish]", "is_fresh": 1, "author": ["Janire Zurbano"]},
{"text": "This satire mocks the superhero genre I loathe, but it is just a video game gone wild, full of irresponsible violence without consequence. Just because it mocks codswallop does not mean that it is not codswallop itself.", "is_fresh": 0, "author": ["Tony Medley"]},
{"text": "It's [Ryan Reynold's] enthusiasm and willingness to send up his own previous rom-com friendly image that really sells the anarchic comedy.", "is_fresh": 1, "author": ["James Croot"]},
{"text": "... the sequel is fun, wrong in the right ways, and completely over-the-top... accomplishes everything it sets out to do while inexplicably being less the sum of its parts.", "is_fresh": 1, "author": ["Kevin A. Ranson"]},
{"text": "Two years after Ryan Reynolds revived the idea that a mainstream genre film could be violent and mirthful...here's an old fashioned sequel that piles on more and delivers less.", "is_fresh": 1, "author": ["Ed Whitfield"]},
{"text": "Full of mayhem, vulgarity and hilarity ... like the first one.", "is_fresh": 1, "author": ["Linda Cook"]},
{"text": "If I'm sounding a little evasive here, it's because the film company has asked reviewers not to give away too much of the film. Just sit back and enjoy the ride. Like its predecessor, \"Deadpool 2\" is one of the best comic book films ever.", "is_fresh": 1, "author": ["Michael A. Smith"]},
{"text": "While Deadpool generated interest as a worthy origin tale, Deadpool 2 struggles when it comes to an engaging story.", "is_fresh": 0, "author": ["Matthew Toomey"]},
{"text": "Deadpool 2 doesn't reward a deep analysis because it's not a complicated film. It's just wilfully stupid, but it is some finely crafted stupidity.", "is_fresh": 1, "author": ["Tim Martain"]},
{"text": "More disciplined than its sire, DEADPOOL 2 doesn't let up on its outrageous laughs, including clever in-jokes, meta references and over-the top action excitement; while introducing new heroes and giving the returning guard a bit more depth. ", "is_fresh": 1, "author": ["Diva Velez"]},
{"text": "Deadpool 2 goes bigger than the first, but the shockingly touching family theme pulls all of the new characters and big set pieces together well. Another wild, hilarious ride for the character with just enough honesty and heart.", "is_fresh": 1, "author": ["Perri Nemiroff"]},
{"text": "Deadpool - in all his jabbering glory - is the salve we need to heal the emotional damage caused by \"Avengers: Infinity Wars.\"", "is_fresh": 1, "author": ["Dana Barbuto"]},
{"text": "There's very little to enjoy here.", "is_fresh": 0, "author": ["Simran Hans"]},
{"text": "Fast lines, shameless asides, no holds barred. Best outtakes in movie history & the last is the funniest of all. Lots of other actors but it is Reynolds who owns the movie. ", "is_fresh": 1, "author": ["Gary Wolcott"]},
{"text": "Another carefree, gleefully ridiculous, and comically violent romp through superhero comics and pop culture.", "is_fresh": 1, "author": ["Rob Hunter"]},
{"text": "The best part of Deadpool 2 is what occurs during the closing credits. The worst part of Deadpool 2 is what occurs before the opening credits. As for that vast middle ground between the opening and closing credits? It's mostly a kick.", "is_fresh": 1, "author": ["Matt Brunson"]},
{"text": "Nearly everything about the original Deadpool was fresh and funny, from the opening credits to the parody of Marvel movie finales. Deadpool 2 suffers the fate of so many sequels: we've seen its best ideas before.", "is_fresh": 0, "author": ["Leonard Maltin"]},
{"text": "You can feel the filmmakers pulling their punches when they should be lunging for the jugular: more interested in protecting the franchise than letting the character do what we paid good money to watch him do.", "is_fresh": 0, "author": ["Rob Vaux"]},
{"text": "It's a great sequel that extends the world of Deadpool while also embracing what made the original so stellar.", "is_fresh": 1, "author": ["Felix Vasquez Jr."]},
{"text": "Overcomes its flubs by simply bulldozing through them with hyperactive pacing.", "is_fresh": 1, "author": ["Craig Takeuchi"]},
{"text": "[Deadpool 2] proves not only to be funny, but also possesses a certain flair in its action sequences. [Full Review in Spanish]", "is_fresh": 1, "author": ["Javier Oca\u00f1a"]},
{"text": "Depending on your appetite for this stuff, the constant self-reference and breaking of the fourth wall is either a shameful cheat or a release from the sameness of the superhero template.", "is_fresh": 1, "author": ["Donald Clarke"]},
{"text": "Deadpool flipped the bird at superhero flicks with an irreverent, profane and hilarious meta sendup of the genre, and Deadpool 2 is more of the same.", "is_fresh": 0, "author": ["Annlee Ellingson"]},
{"text": "As is often the case in the business of follow-ups, the new effort pales in comparison to the funny, smart, sassy and, it says here, less outrageously violent original. . . It's as over the top as it gets.", "is_fresh": 0, "author": ["John Urbancich"]},
{"text": "Where the original was... fresher than a boatload of day scallops, the part deux follow-up feels more like daily gruel. ", "is_fresh": 0, "author": ["Tom Meek"]},
{"text": "Irreverent and subversive, this amusing sequel generates plenty of big laughs, even if the freshness of the characters and the concept has dwindled from its predecessor. ", "is_fresh": 1, "author": ["Todd Jorgenson"]},
{"text": "Deadpool 2 is a better superhero sequel than Superman IV: The Quest for Peace, Ghost Rider: Spirit of Vengeance, and Batman & Robin. It's also better than the original Deadpool.", "is_fresh": 1, "author": ["Mike McGranaghan"]},
{"text": "...Just about every single scene includes an aside, a wink, a direct address to the vested audience. It's like going to a party where everyone is taking selfies. It starts to feel like narcissism. It's also a significant distraction.", "is_fresh": 1, "author": ["Katherine Monk"]},
{"text": "Director David Leitch, replacing the original's Tim Miller, ups the action quotient while the script delivers a stronger story and even some occasional poignancy.", "is_fresh": 1, "author": ["Christopher Lawrence"]},
{"text": "Deadpool movies ought to chomp down on its targets with fangs, not gums...we wish Deadpool 2 were as irreverent, revolutionary and backbiting as it deserves to be. Now that would have been subversive.", "is_fresh": 0, "author": ["Stephen Rebello"]},
{"text": "The one true value of Deadpool is his eagerness-and Reynolds's chatty, hyena-like motormouth is a perfect vessel-to say it all...the truth is that a lot of this winky, nudgy movie is fun if you can see beyond its evident end times subtext.", "is_fresh": 1, "author": ["Sean Fennessey"]},
{"text": "This is a film that is meant to be a change of pace from your run-of-the-mill superhero movie - kind of an R-rated \"Guardians of the Galaxy.\"", "is_fresh": 1, "author": ["Josh Terry"]},
{"text": "Deadpool 2's meta-heavy brilliance-and really, the best part of the film-comes when you stick around for the post-credits scenes.The movie's stingers are better than anything the Marvel Cinematic Universe has put out in the last 10 years.", "is_fresh": 1, "author": ["Miles Surrey"]},
{"text": "It's not nearly as good as the first Deadpool, but it's definitely worth seeing and 100-percent a good movie...a refreshing sequel that will keep this franchise around a long time.", "is_fresh": 1, "author": ["Steph Cozza"]},
{"text": "His jibber-jabber gets tiresome after a while, however, and irreverent, subversive and shocking humour is funny only upto a point. After which, the grand action scenes aside, it feels like a pattern: Offend. Kill. Make an inside Marvel joke. Repeat.", "is_fresh": 0, "author": ["Udita Jhunjhunwala"]},
{"text": "Deadpool 2 entertains, but it doesn't compare to its predecessor. [Full Review in Spanish] ", "is_fresh": 1, "author": ["Lucero Calder\u00f3n"]},
{"text": "If you enjoyed the first film and wanted to see more of the same, you're going to have a grand time here. (Full Content Review for Parents - Violence, Profanity, Nudity, etc. - also Available)", "is_fresh": 1, "author": ["Jim Judy"]},
{"text": "For all the impulsive flamboyance of Deadpool's patter, the liberating power of personal virtue, and the disinhibiting promise of second chances, \"Deadpool 2\" feels narrowly impersonal and oppressively unfree.", "is_fresh": 0, "author": ["Richard Brody"]},
{"text": "It's one of the funniest movies you'll see this year, visually spectacular and consistently entertaining.", "is_fresh": 1, "author": ["Michael Smith"]},
{"text": "The Deadpool writers, and that team includes Reynolds, get to have their cake and eat it, too, with a movie they can dismiss and cherish all at the same time.", "is_fresh": 1, "author": ["Michael Heaton"]},
{"text": "Deadpool 2 is certainly funny, but never as much as it thinks it is (apart from maybe during its truly excellent closing credits sequence).", "is_fresh": 1, "author": ["Jamie Dunn"]},
{"text": "Really, just take the plot from Terminator 2? More of the R-rated same, so amusing, but not as novel.", "is_fresh": 1, "author": ["James Verniere"]},
{"text": "When Deadpool 2 works - and it works far more often than not - it's a riot. It's profane and insane and unpredictable. ", "is_fresh": 1, "author": ["TK Burton"]},
{"text": "Just as Robert Downey, Jr. has become the definitive Iron Man, Ryan Reynolds is Deadpool. It's the role he was born to play and whenever he's on screen, the movie's inner classic shines forth.", "is_fresh": 1, "author": ["Matthew Rozsa"]},
{"text": "All in all, I prefer a Marvel movie that doesn't take itself seriously, but the nonstop unseriousness of Deadpool 2 can wear you down, too.", "is_fresh": 1, "author": ["Peter Rainer"]},
{"text": "Nonstop violence, profanity, adult humor in super sequel. ", "is_fresh": 1, "author": ["Sandie Angulo Chen"]},
{"text": "Instead of seeking to top the over-the-top antics of the first film, [both director and star are] content to simply groove with what they've already established and just have fun. The result is less exhausting and more entertaining.", "is_fresh": 1, "author": ["Matthew Lickona"]},
{"text": "As Deadpool himself might say, it's a superhero film that exists to be bad for all the right reasons. So why not just go with the flow?", "is_fresh": 1, "author": ["Rob Carnevale"]},
{"text": "Perhaps Deadpool 2 works because the title character saves most of his fury for the fourth wall.", "is_fresh": 1, "author": ["Dan Lybarger"]},
{"text": "Deadpool 2 could easily have been a letdown. The fact that it's not is a happy surprise.", "is_fresh": 1, "author": ["Kurt Loder"]},
{"text": "But what does all of this really mean? Not a whole lot. It's a very fun watch, if this is what you're into. ", "is_fresh": 1, "author": ["Vesper Arnett"]},
{"text": "A superhero spectacular... [Full Review in Spanish] ", "is_fresh": 1, "author": ["Francisco Marinero"]},
{"text": "This is the death of the comic-book movie. Or it should be. The savage, inhumane nihilism here says, Yup, comics haters are right: this is dangerous nonsense with no morality or redeeming qualities.", "is_fresh": 0, "author": ["MaryAnn Johanson"]},
{"text": "He's back and still nasty. Does not disappoint, even better than the first.", "is_fresh": 1, "author": ["Victoria Alexander"]},
{"text": "Deadpool 2 is at its best when it cheerfully doesn't give a sh-t. The more it cared, the less I did.", "is_fresh": 1, "author": ["Will Leitch"]},
{"text": "Deadpool 2 scorches those X-Men, Reynolds himself and, of course, the GOP", "is_fresh": 1, "author": ["Christian Toto"]},
{"text": "With his athleticism and unerring timing, Reynolds was obviously born to don Deadpool's apparently smelly catsuit.", "is_fresh": 1, "author": ["Dan Lybarger"]},
{"text": "The comedy is as dark as the blood in Deadpool 2, showcasing a truly inspired character's blend of invincibility and self-deprecation, flinging off one-liners faster than a machine gun spits bullets. ", "is_fresh": 1, "author": ["Elias Savada"]},
{"text": "An entertainingly nihilistic night out.", "is_fresh": 1, "author": ["Sonny Bunch"]},
{"text": "Deadpool 2 ... comes equipped with enough laugh-out-loud gags, wince-inducing kills and surprising cameos to delight diehard fans and casual viewers alike.", "is_fresh": 1, "author": ["James Marsh"]},
{"text": "Ryan Reynolds still looks like a hard boiled Voldemort, and he's still running that mouth like there's no Deadpool 3, but Deadpool 2 is a bigger, filthier and better movie than the original.", "is_fresh": 1, "author": ["Rohan Naahar"]},
{"text": "Deadpool 2 embraces its enhanced output of blood, guns, and violence with open arms...before they're blown off.", "is_fresh": 1, "author": ["Kristen Lopez"]},
{"text": "Easily in a different class to pretty much everything else out there in its genre.", "is_fresh": 1, "author": ["Jamie East"]},
{"text": "Though in many respects Deadpool 2 is funnier, filthier and certainly better directed in the action stakes than its predecessor...it's also a film that gleefully sacrifices sacred cows while remaining reluctant to touch any labelled \"cash.\"", "is_fresh": 1, "author": ["Alistair Harkness"]},
{"text": "Deadpool 2 is even more ribald and subversive than the first film, and pulsates with sardonic, self-aware wit from the opening shot.", "is_fresh": 1, "author": ["Brian Viner"]},
{"text": "It is relentless, occasionally exhausting but frequently hilarious.", "is_fresh": 1, "author": ["Andy Lea"]},
{"text": "A little of Deadpool's incessant winkiness goes a long way, and by the time the movie was over, all I felt was sore.", "is_fresh": 0, "author": ["Sam Adams"]},
{"text": "The film's greatest asset is Reynolds, who in Deadpool finally found the role of his dreams.", "is_fresh": 1, "author": ["Calvin Wilson"]},
{"text": "In the face of this pretence of cool cynicism, the film's eventual nod to sentiment and pathos doesn't seem maudlin or ridiculous. Credit should go to Reynolds, who brings to bear the sincerity and vulnerability he's expressed before in his rom-com roles.", "is_fresh": 1, "author": ["Jason Di Rosso"]},
{"text": "It's clearly a stab at recreating grittier, more emotionally fraught origin story moments that Deadpool 1 certainly didn't shy away from, but this time it feels like the movie is trying to punch way, way above its weight class.", "is_fresh": 0, "author": ["Meg Downey"]},
{"text": "It's hard to follow up on a brilliant film but Ryan Reynolds has done it again, taking risks which a studio might hesitate to take and going beyond the premise of the film in the process.", "is_fresh": 1, "author": ["Devesh Sharma"]},
{"text": "Deadpool 2 is an entirely predictable affair that, at 120 minutes, spoils itself.", "is_fresh": 0, "author": ["Chris Hanna"]},
{"text": "It's worth the watch for the laughs alone - especially if you, too, aren't a superhero fan.", "is_fresh": 1, "author": ["Alex McCann"]},
{"text": "It's overstuffed, and essentially empty.", "is_fresh": 0, "author": ["Joe Morgenstern"]},
{"text": "There's little that's genuinely daring or subversive in Deadpool 2...", "is_fresh": 0, "author": ["Mark Dujsik"]},
{"text": "More profanity, more Troma-esque ultra-violence, more snarky adolescent meta-commentary. In short: more Deadpool.", "is_fresh": 1, "author": ["Christopher Machell"]},
{"text": "Deadpool 2 does not stop being fun for a second and surprises at various points. [Full Review in Spanish]", "is_fresh": 1, "author": ["Juanma Fern\u00e1ndez Par\u00eds"]},
{"text": "It's not a bad movie, but it tries so hard to emulate its predecessor that you feel the screen sweating.", "is_fresh": 1, "author": ["Bob Bloom"]},
{"text": "Deadpool 2 is bold, audacious, outrageous, and wickedly funny. ", "is_fresh": 1, "author": ["Rebecca Murray"]},
{"text": "Happily, Reynolds, who has a co-writing credit, has found a fine balance between the snappy, vulgar, perfectly-timed one-liners and the source of pain that causes the humor, Deadpool's defense mechanism.", "is_fresh": 1, "author": ["Jeffrey M. Anderson"]},
{"text": "Some great, great meta-humor...the movie itself is very good as well.", "is_fresh": 1, "author": ["Andre Meadows"]},
{"text": "It felt more like an action film with a lot of comedy in it. I liked what they did and I thought it was a worthy sequel.", "is_fresh": 1, "author": ["Kristian Harloff"]},
{"text": "I had such a ball watching this movie.", "is_fresh": 1, "author": ["Mark Ellis"]},
{"text": "They're all great; it's the movie around them that comes up short.", "is_fresh": 0, "author": ["Norman Wilner"]},
{"text": "Indeed: if the sequels' eternal challenge is how to live up to the original without repeating itself, let's say that Deadpool 2 is a worthy second part, but it does not have the advantage of [surprise]. [Full review in Spanish]", "is_fresh": 1, "author": ["Gaspar Zimerman"]},
{"text": "Deliriously over-the-top from start to finish, the follow-up may not be as novel as its predecessor, but there's no denying that Deadpool 2 is hugely entertaining.", "is_fresh": 1, "author": ["Rashid Irani"]},
{"text": "The plot is as dispensable as the limbs of the titular character, so I do not intend to delve much into it, except to say that this sequel is exactly what comics movies need right now... [Full review in Spanish]", "is_fresh": 1, "author": ["Emmanuel B\u00e1ez"]},
{"text": "Why is Deadpool 2 so bloody winning? Chalk it up to Reynolds's/Deadpool's adherence to his own waggish sensibility.", "is_fresh": 1, "author": ["Michael Sragow"]},
{"text": "The irreverent R-rated humor that made 2016's 'Deadpool' such a refreshing spin on the genre returns in this juiced-up deadpan sequel.", "is_fresh": 1, "author": ["Roger Tennis"]},
{"text": "True to form, the film calls out its own lazy writing, which is probably the laziest writing of all.", "is_fresh": 0, "author": ["Daniel Barnes"]},
{"text": "Deadpool returns in a sequel that manages to up the in-joking, violence, cameos and meta plot points, which will please fans but royally annoy anyone looking for a more straight-forward story.", "is_fresh": 1, "author": ["David 'Mad Dog' Bradley"]},
{"text": "Deadpool 2 is awesome and you should go to see it. Especially if, like me, you're suffering from a bad case of superhero fatigue. It could be good for what ails ya.", "is_fresh": 1, "author": ["Karl Puschmann"]},
{"text": "[Julian] Dennison as the volatile Russell is the heart of the picture, providing an emotional anchor in a production that might otherwise be too snarky for its own good.", "is_fresh": 1, "author": ["John Lui"]},
{"text": "If you love films that keep you guessing, laughing and surprised on the edge of your seat, this is a must-see.", "is_fresh": 1, "author": ["Colin Covert"]},
{"text": "It's so extreme, it's hilarious.", "is_fresh": 1, "author": ["Brad Keefe"]},
{"text": "It's not often a sequel surpasses its predecessor, but Deadpool 2 improves on the original in pretty much every way; packing in funnier jokes, better characters, and even some genuinely touching moments.", "is_fresh": 1, "author": ["Sarah McIntyre"]},
{"text": "The lesson learned before applies here: never underestimate Reynolds and his determination to pull off the impossible.", "is_fresh": 1, "author": ["Brian Orndorf"]},
{"text": "It all boils down to one important fact: Reynolds gets these comics.", "is_fresh": 1, "author": ["Richard Whittaker"]},
{"text": "For good of ill, \"Deadpool 2\" delivers more of the same.", "is_fresh": 0, "author": ["Charles Koplinski"]},
{"text": "How many times can one go back to the well? DEADPOOL was great fun because it was new, and well --- exciting. DEADPOOL 2 --- not as much. ", "is_fresh": 1, "author": ["Jeanne Kaplan"]},
{"text": "I'm not convinced that a third entry is necessary, or what the filmmakers can come up with to support yet another encore.", "is_fresh": 1, "author": ["David Kaplan"]},
{"text": "As explosively funny as the movie is at times, the self-referencing comes dangerously close to ruining the moment.", "is_fresh": 1, "author": ["David Medsker"]},
{"text": "The star does his schtick and invites us in for a giggle but there's no weight to the character or to Reynolds's playing of him. He's like Robert Downey Jr. without the soul.", "is_fresh": 0, "author": ["Ty Burr"]},
{"text": "It mostly just puts a loud, explosion-filled gloss on the same few jokes.", "is_fresh": 0, "author": ["Josh Bell"]},
{"text": "A wild, non-stop avalanche of snarky humor and grossly comic violence...overall it's an improvement on its predecessor, even if it remains a patently obvious effort to adhere to the template of the superhero genre while pretending to subvert it.", "is_fresh": 1, "author": ["Frank Swietek"]},
{"text": "Deadpool 2 feels about as fresh as an old jelly doughnut covered with fire ants. Sure, you could eat it if you were starving, but it would never occur to you to recommend ingesting a mouthful of stinging ants and crusty pastry.", "is_fresh": 0, "author": ["Tony Norman"]},
{"text": "It's offensive as hell. Gory. Ridiculously campy. But it never fails at being laugh out loud hilarious, self-deprecating to the extreme, and often unexpectedly charming and poignant, if in a completely disgusting way.", "is_fresh": 1, "author": ["Leilani Polk"]},
{"text": "Deadpool 2 is everything that it is supposed to rail against: a generic comic book movie that is only a step above the lesser entries in the Marvel/Fox continuum.", "is_fresh": 0, "author": ["Alex Doenau"]},
{"text": "I'm totally fine with Deadpool 2... [but] part of me can't help but wish that, after this adventure becomes a global hit, he finally decides to shut up.", "is_fresh": 1, "author": ["Sara Michelle Fetters"]},
{"text": "What Deadpool 2 manages to pull off best is that it easily juggles all its characters, the old and the new, and gets them to play off Deadpool's wild and zany personality, making for a constantly engaging dynamic.", "is_fresh": 1, "author": ["Shyama Krishna Kumar"]},
{"text": "It's funnier, more dramatic and emotional, has a better story, and has a killer supporting cast who all work tirelessly to make Deadpool 2 feel as fresh and surprising as the original.", "is_fresh": 1, "author": ["Mark Hughes"]},
{"text": "The majority of Deadpool 2 is a production that hits you in the gut with the action and repeatedly slams your funny bone with the often juvenile humor. That's because the team doesn't hold back a single gunshot or rimshot.", "is_fresh": 1, "author": ["Rick Bentley"]},
{"text": "It's in such ways that Deadpool 2 retains enough good will to get by.", "is_fresh": 1, "author": ["Kristian M. Lin"]},
{"text": "Gratuitously and graphically violent... crass and juvenile, and above all belly-achingly funny. ", "is_fresh": 1, "author": ["Chris Newbould"]},
{"text": "It's good enough, with only a whiff of seen-it-before around the edges.", "is_fresh": 1, "author": ["Graeme Tuckett"]},
{"text": "Deadpool 2 barely pauses for breath, which is admirable given the additional cast members. It's a bigger, brasher, swearier older brother to the first film.", "is_fresh": 1, "author": ["Garry McConnachie"]},
{"text": "Boasting of some great unsuspecting cameos, the story humanises Deadpool, without letting go of what makes him different - deviant ways, indulgence in gory violence, sarcasm and narcissism.", "is_fresh": 1, "author": ["Renuka Vyavahare"]},
{"text": "A movie that often blends action and comedy with visual wit and efficiency, offering an unexpected new angle to a sequel that returns with the expected load of R-rated snark and in-jokes for movie buffs.", "is_fresh": 1, "author": ["Gary Thompson"]},
{"text": "I hated the first Deadpool for its quippy smugness and ultra-violence. This one is still smug, quippy, violent. But some helpful mastermind has introduced wit.", "is_fresh": 1, "author": ["Nigel Andrews"]},
{"text": "The film is not as overfilling as the first Deadpool, and from a nerd standpoint it has a little more respect for the chrome giant Colossus than its predecessor.", "is_fresh": 1, "author": ["Richard von Busack"]},
{"text": "Despite lacking the freshness of 2016 feature, the sequel is funny, energetic, and determined not to take itself seriously (even when serious things happen).", "is_fresh": 1, "author": ["James Berardinelli"]},
{"text": "Wherever you fall, it's safe to say viewers can at least agree that it's unapologetically crude and that Ryan Reynolds once again proves he is the perfect choice to play the titular anti-hero.", "is_fresh": 0, "author": ["Kiko Martinez"]},
{"text": "One of the new century's best comic-book movies...", "is_fresh": 1, "author": ["David Nusair"]},
{"text": "Yes, it more of the same - hardcore action sequences (in slo-mo, of course) set to cheesy-brie ballads, Deadpool demolishing the fourth wall, and plenty of dick jokes - but it's still fun. ", "is_fresh": 1, "author": ["Staci Layne Wilson"]},
{"text": "A superhero version of Airplane! in the frequency of its gags (some of them groaners). With the winky fourth-wall-breaking of a Bob Hope movie, only with explosions and severed limbs. To be clear, this is what I like about it. ", "is_fresh": 1, "author": ["Jim Slotek"]},
{"text": "Ultimately, it lives or dies by how tiresome you find its hero, who is, as Cable puts it, 'a jabbering butt plug'. ", "is_fresh": 1, "author": ["Larushka Ivan-Zadeh"]},
{"text": "With plenty of genuine laughs, balls-out action sequences, and a whole lot of emotion and heart, this is the sequel that you'd hoped for.", "is_fresh": 1, "author": ["Andrew Pollard"]},
{"text": "At one point, Deadpool compares the domestic grosses of the first Deadpool movie with The Passion of the Christ, which is surely what our culture's over-analysis of movie box office deserves.", "is_fresh": 1, "author": ["Robert Horton"]},
{"text": "Deadpool 2 is funny. Maybe not quite as funny as the first film, but the barrage of jokes - some obscured because the audience was still laughing at the last one - should stand up to multiple viewings.", "is_fresh": 1, "author": ["Cameron Meier"]},
{"text": "A fine sequel, with the ribald ridiculousness that is to be expected with this series. Reynolds is having the time of his life, but the newcomers steal the show. ", "is_fresh": 1, "author": ["Scott Davis"]},
{"text": "Die-hard fans of Deadpool's fourth wall-breaking, superhero-subverting, ultraviolent antics will find much to enjoy in Deadpool 2. Everyone else: Deadpool is basically your Poochie.", "is_fresh": 1, "author": ["Simon Miraudo"]},
{"text": "The story is more cohesive than the first and somewhere amid all the mocking and the 37th pastiche might just be an original voice. Or, at least an original voice 2.0.", "is_fresh": 1, "author": ["Wenlei Ma"]},
{"text": "It can't match its predecessor for originality, but the Merc With The Mouth once again brings the mirth.", "is_fresh": 1, "author": ["Matt Neal"]},
{"text": "Deadpool 2's scathing critique of the 2008 credit default swap crisis is a timely reminder for the need for rigorous global financial regulation.", "is_fresh": 1, "author": ["Tom Glasson"]},
{"text": "\"Deadpool 2\" is annoying and bad.", "is_fresh": 0, "author": ["Katie Walsh"]},
{"text": "It's often very funny, but periodically Deadpool 2 has to drop the ironic facade and shoot for real emotion, and here it stumbles. ", "is_fresh": 1, "author": ["Tony Stamp"]},
{"text": "The quips and pop culture references come at you \"Airplane!\"-style, meta times meta, breaking the fourth wall and probably the fifth, sixth, and seventh as well.", "is_fresh": 1, "author": ["Nell Minow"]},
{"text": "...a joyous, violent, profane and occasionally quite sweet cinema experience worthy of the original.", "is_fresh": 1, "author": ["Anthony O'Connor"]},
{"text": "[Brolin's] beefed-up baddie and Dennison steal the thunder from Reynolds, and that's great as Reynolds' wise-cracking shtick can get annoying after a while.", "is_fresh": 1, "author": ["Joanne Soh"]},
{"text": "This sequel is snarky but never smug, playfully riffing on superhero cliches without falling back on them.", "is_fresh": 1, "author": ["Rich Cline"]},
{"text": "It's a very fun time. I have a feeling it will improve upon multiple viewings, but it's not quite as great as the first film to me.", "is_fresh": 1, "author": ["Chris Stuckmann"]},
{"text": "Deadpool 2 arrives as a worthy sequel with a great amount of gags. [Full Review in Spanish]", "is_fresh": 1, "author": ["Erick Ortiz"]},
{"text": "True to form, Deadpool 2 doesn't skimp on one-liners and visual gags, many of them referencing signature moments in other movies... In a way, Deadpool 2 doesn't try to speak to the audience; it is the audience.", "is_fresh": 1, "author": ["Robert Denerstein"]},
{"text": "If you enjoyed the guilty pleasures of Deadpool, it's an immutable law of Physics that you will love Deadpool 2.", "is_fresh": 1, "author": ["J.R. Kinnard"]},
{"text": "Upping the emotional ante, Deadpool 2 proves richer and deeper than the very good original. Plus: new-and-improved curse words and 20 percent more mayhem!", "is_fresh": 1, "author": ["Frank Lovece"]},
{"text": "Deadpool 2 was never going to surpass the original, but it is the second coming of something immensely fun and unlike anything else in the oversaturated superhero market. In particular are two huge set-pieces that are going to leave audiences in stitches", "is_fresh": 1, "author": ["Robert Kojder"]},
{"text": "Deadpool 2 is a worthy sequel for sure. Everything salacious from the first film is pretty much injected with steroids here.", "is_fresh": 1, "author": ["Julian Roman"]},
{"text": "Deadpool 2 still has enough of its own qualities to work as an individual movie, that is, it does not matter if it is a sequel. [Full review in Spanish]", "is_fresh": 1, "author": ["Ruben Peralta Rigaud"]},
{"text": "Some of the film's elements may be inconsistent, but the demented humor is always dead on.", "is_fresh": 1, "author": ["Dwight Brown"]},
{"text": "[Ryan Reynolds] gives a great performance in a film that's so much fun, and so swaggeringly confident, that you can't help but overlook its flaws.", "is_fresh": 1, "author": ["Abigail Chandler"]},
{"text": "When it comes to the new faces in Deadpool 2, Zazie Beetz steals the show as Domino, and is an incredible addition to the mix.", "is_fresh": 1, "author": ["Heather Wixson"]},
{"text": "A deliriously violent concoction. Better than the first. ", "is_fresh": 1, "author": ["Chris Bumbray"]},
{"text": "Even at a generous running time of 120 minutes, Deadpool 2 still packs a stack of fresh, fast and furious material into the mix, which all but guarantees hard line fans will up for a repeat viewing sooner than later.", "is_fresh": 1, "author": ["Leigh Paatsch"]},
{"text": "Unfortunately, two movies in, the Deadpool franchise has not only already run out of jokes-it's become everything it was supposed to hate.", "is_fresh": 0, "author": ["K. Austin Collins"]},
{"text": "It's a long movie and when its star isn't on screen and cracking wise, the boundary-pushing shocks and endless self-references wear thin.", "is_fresh": 0, "author": ["Philip De Semlyen"]},
{"text": "A least as funny as the original Deadpool, and better in virtually every other respect: better plot, better villains, a few unexpected narrative swerves, and, yes, at least one genuinely moving sequence.", "is_fresh": 1, "author": ["Christopher Orr"]},
{"text": "The sequel is not a letdown. It may not be as refreshingly clever as the first Deadpool, but it certainly delivers in laughs and lunacy.", "is_fresh": 1, "author": ["Clint O'Connor"]},
{"text": "The result feels a bit like a lavishly produced, superhero- and supervillain-stocked standup comedy special, with fight scenes, chases and explosions spliced into footage of the hero telling you about the wild couple of weeks he just had.", "is_fresh": 1, "author": ["Matt Zoller Seitz"]},
{"text": "It is a fairly brilliant sendup of comic-book action movies, as well as also being an excellent example of one.", "is_fresh": 1, "author": ["Michael O'Sullivan"]},
{"text": "It's smarmy and snarky - with outrageous post-credit scenes which will delight whether you're a fan of superhero sagas or sick of them.", "is_fresh": 1, "author": ["Susan Granger"]},
{"text": "In the narrow prism of superhero tentpoles, Deadpool 2 refreshingly shouts, with four-letter words aplenty, that there is more to cinema than one-size-fits-all blockbuster boilerplate.", "is_fresh": 1, "author": ["David Crow"]},
{"text": "Deadpool 2 is a tighter, smarter, better version of its predecessor.", "is_fresh": 1, "author": ["Germain Lussier"]},
{"text": "Deadpool 2 utilizes the character's popularity as a MacGuffin for more rapid-fire jokes, but errs too far on the side of that clownishness to stick the landing once director David Leitch pivots to a payoff that's (slightly) more serious.", "is_fresh": 1, "author": ["Todd Gilchrist"]},
{"text": "Maybe not as [good as the first] since the element of shock and awe can't be put back into its bottle, but anyone who enjoyed [his origin tale] should have as much fun.", "is_fresh": 1, "author": ["Jared Mobarak"]},
{"text": "After the heaviness of Avengers: Infinity War, Deadpool 2 arrives just in time to pants the comic book movie genre with more hilarity and craziness than before.", "is_fresh": 1, "author": ["Jeffrey Lyles"]},
{"text": "Deadpool 2 offers a glorious sugar high, but that inevitably means it comes crashing back to Earth.", "is_fresh": 1, "author": ["Matt Goldberg"]},
{"text": "Pure entertainment with storytelling that achieves a level of fun few superhero movies are able to achieve without pandering to the fans.", "is_fresh": 1, "author": ["Edward Douglas"]},
{"text": "'One of the guys who killed the dog in John Wick' has delivered a genuinely moving family film, albeit an R-rated one with pedophile jokes, and one of the rare instances where a sequel surpasses the original.", "is_fresh": 1, "author": ["Laura Clifford"]},
{"text": "\"Deadpool 2\" is as entertainingly distasteful (perhaps even more) than the first movie.", "is_fresh": 1, "author": ["Jason Guerrasio"]},
{"text": "\"Deadpool 2\" is funnier and more action-packed than its predecessor. Filled with unconventional kills, four-letter words, sexual references, and even more idiosyncratic kills that leave a high, but comedic, bodycount, fans will be thrilled.", "is_fresh": 1, "author": ["Jonathan W. Hickman"]},
{"text": "While he's migrated from the dead of winter to prime summer blockbuster season, Deadpool hasn't gone soft with success.", "is_fresh": 1, "author": ["Greg Maki"]},
{"text": "It's relentless, often exhausting and frequently hilarious.", "is_fresh": 1, "author": ["Andy Lea"]},
{"text": "Wants so badly to be something more interesting than it really is.", "is_fresh": 0, "author": ["Hannah Woodhead"]},
{"text": "As with the original, Deadpool 2 thrives on tone over narrative.", "is_fresh": 1, "author": ["Kevin Harley"]},
{"text": "The temptation might have been to go brasher yet, rather boldly, Deadpool 2 goes deeper and expands its core cast appealingly, making for a sequel that's not only funnier but more ambitious and satisfying.", "is_fresh": 1, "author": ["Emma Simmonds"]},
{"text": "Rather than face its own moral incoherence, Deadpool 2 blinks.", "is_fresh": 0, "author": ["Alan Scherstuhl"]},
{"text": "Seriously subversive, seriously funny, seriously profane, occasionally even serious, Deadpool 2 is the best kind of cinematic entertainment. Seriously.", "is_fresh": 1, "author": ["Bruce DeMara"]},
{"text": "It's Family Guy: The Movie.", "is_fresh": 0, "author": ["Glen Weldon"]},
{"text": "Bigger, funnier and filthier than the first film, Deadpool 2 doesn't disappoint, delivering a potent cocktail of action and humour.", "is_fresh": 1, "author": ["Matthew Turner"]},
{"text": "High-energy raucous fun, Deadpool 2 is a hoot: a rollicking, no holds barred explosion of irreverence and action, wired with violence, language and attitude. ", "is_fresh": 1, "author": ["Louise Keller"]},
{"text": "For the snotty little brother of 20th Century Fox's crown jewel franchise that it aims to be, Deadpool 2 is clever enough in its giddily obnoxious way.", "is_fresh": 1, "author": ["Dominick Suzanne-Mayer "]},
{"text": "Bigger, badder, funnier, and more meta than ever,Deadpool 2is the overstuffed chimichanga of awesomeness we were hoping it would be.", "is_fresh": 1, "author": ["Travis Hopson"]},
{"text": "Bless its profane, bloody, fourth wall-breaking heart.", "is_fresh": 1, "author": ["Mark Keizer"]},
{"text": "Doesn't build on the first film, choosing instead to replay the greatest hits. If you're a fan of those hits, then you'll enjoy this encore, but anyone who wasn't amused by the first go-round isn't going to hop on board for this do-over.", "is_fresh": 1, "author": ["Alonso Duralde"]},
{"text": "Better than the first one. Funnier and more bananas, with better action and a better plot. Ryan Reynolds crushes it once again. [Full review in Spanish] ", "is_fresh": 1, "author": ["Fico Cangiano"]},
{"text": "The film's impulse to profess a knowing, snarky superiority can become painfully awkward.", "is_fresh": 0, "author": ["Jen Yamato"]},
{"text": "The Deadpool movies occasionally push the bounds of taste, but they don't take real comedic risks. Viewed as more of an action-comedy, then, Deadpool 2 works passably well. [Full review in Spanish]", "is_fresh": 1, "author": ["Rafer Guzman"]},
{"text": "Deadpool 2 is far more ambitious than the first film, elevating the action, humor and overall scope for an even more fun experience in the sequel.", "is_fresh": 1, "author": ["Molly Freeman"]},
{"text": "Despite a tendency toward elephantitis in story and scope, not to mention blatant franchise pandering, Deadpool 2 still plays like the runt of the comic-book litter. We mean that as a compliment.", "is_fresh": 1, "author": ["Peter Travers"]},
{"text": "Deadpool 2 has as much heart as the original, and the humour is more consistent. And while we wondered whether Wade Wilson's brand of comedy had had its day, the series has moved with the times and feels as relevant and contemporary as it could be.", "is_fresh": 1, "author": ["Hugh Armitage"]},
{"text": "In two years, Deadpool has gone from the scrappy class clown to the annoying wiseass in the back of the room spewing crude insults to amuse himself.", "is_fresh": 0, "author": ["Mara Reinstein"]},
{"text": "As Deadpool 2 unfolds, we come to see that beneath the wisecracks, it is very sincerely about the importance of family in everyone's lives.", "is_fresh": 1, "author": ["Matt Singer"]},
{"text": "Caustic and unexpected.", "is_fresh": 1, "author": ["Mick LaSalle"]},
{"text": "If you enjoyed the first one, there's every chance you'll like this one as well. Similarly, if you hated the first one, you probably won't find much to love about the follow-up either.", "is_fresh": 1, "author": ["Angie Han"]},
{"text": "Deadpool 2 ups the ante by delivering a bigger and ballsier sequel.", "is_fresh": 1, "author": ["Scott Menzel"]},
{"text": "A movie that feels scribbled in pencil crayon, drenched in Jolt cola and coated with the dust of a thousand discarded bags of Flamin' Hot Cheetos... As it is, Deadpool 2 is a film that is merely aggressively aggressive.", "is_fresh": 0, "author": ["Barry Hertz"]},
{"text": "Snappy, self-aware, fourth-wall-breaking lines like that flow fast and rarely miss their targets in the ensuing adventure.", "is_fresh": 1, "author": ["Steve Rose"]},
{"text": "In the age of constantly escalating superhero stakes, Deadpool stays fresh by aiming small. ", "is_fresh": 1, "author": ["Vincent Mancini"]},
{"text": "While Deadpool 2 delivers the gags and the gun-shot geeky Marvel insider references, the plot could have done with some more finesse.", "is_fresh": 0, "author": ["Fionnuala Halligan"]},
{"text": "Every cultural moment needs a smart-ass, and sometimes, you take what you can get.", "is_fresh": 1, "author": ["Ignatiy Vishnevetsky"]},
{"text": "Surprisingly we didn't hear any cracks about sequels that suck, perhaps because Reynolds, Leitch, and the rest know that this one doesn't.", "is_fresh": 1, "author": ["Don Kaye"]},
{"text": "This ultra-violent sequel to one of the most successful R-rated movies of all time is often hilarious, but the skeleton holding it together can't really hold up its end of the bargain. For most people, though, that will be OK.", "is_fresh": 1, "author": ["Britton Peele"]},
{"text": "Deadpool 2 makes a point of not taking itself too seriously, which can be harder than it looks. And if that works somewhat fitfully, the sequel delivers consistently enough to keep this colorful mercenary laughing all the way to the bank.", "is_fresh": 1, "author": ["Brian Lowry"]},
{"text": "That said, as someone who remains fond of its predecessor, the Merc with a Mouth's eagerly anticipated sequel... is a superior sort of tongue-in-cheek men-in-tights work.", "is_fresh": 1, "author": ["Nick Schager"]},
{"text": "Deadpool is no longer the underdog making good, but the focal point of a very prolific franchise. And he kinda can't be that.", "is_fresh": 1, "author": ["Kyle Anderson"]},
{"text": "If the filmmakers were as self-reflexive as they pretend to be, they'd find a way to show that Deadpool's insides are becoming as charred as his face.", "is_fresh": 0, "author": ["David Edelstein"]},
{"text": "Where it surprises - and why it works so well - is how it balances an actually touching undercurrent alongside superhero subversiveness.", "is_fresh": 1, "author": ["Brian Truitt"]},
{"text": "From start to finish - and especially through the now-mandatory post-credit scenes - Reynolds delivers every punch, kick and hard-edged witticism with conviction and relish.", "is_fresh": 1, "author": ["Sean P. Means"]},
{"text": "Much like its predecessor, Deadpool 2 is less a movie than a smirky, feature-length meme generator.", "is_fresh": 0, "author": ["Josh Spiegel"]},
{"text": "Saucy, overstuffed and very entertaining.", "is_fresh": 1, "author": ["Mark Kennedy"]},
{"text": "Deadpool 2 is about as funny and action-packed and entertaining as Deadpool was, which is good news for fans, and bad news for entitled fanboys who demand every sequel be some kind of cinematic revelation...", "is_fresh": 1, "author": ["Bernard Boo"]},
{"text": "Deadpool proved that audiences were hungry for a superhero as self-aware as they are; Deadpool 2 proves that character can actually ground an ensemble.", "is_fresh": 1, "author": ["Bryan Bishop"]},
{"text": "Filthy, ferocious and funny to a near-indecent degree, Deadpool 2 bests its predecessor by doubling down on the gleefully self-aware source comics' idea that anything worth doing is worth overdoing: excess and escalation are, essentially, in its DNA.", "is_fresh": 1, "author": ["Kevin Harley"]},
{"text": "Dizzy fun for a while, like eating Twinkies on a Gravitron. Eventually, though, it just wears you out.", "is_fresh": 1, "author": ["Leah Greenblatt"]},
{"text": "Although it runs short on plot, Deadpool 2 delivers a sequel that's crasser, gorier, and funnier than its predecessor.", "is_fresh": 1, "author": ["Daniel Krupa"]},
{"text": "With its uncompromising commitment to gross-out injuries, nerdy pop culture in-jokes and inappropriate touching, Deadpool 2 was clearly made to cater to existing fans with every innuendo-filled moment...", "is_fresh": 1, "author": ["Helen O'Hara"]},
{"text": "The eagerness of Deadpool to call out its own shortcomings earns this trash-talking franchise a lot of goodwill.", "is_fresh": 1, "author": ["Sara Stewart"]},
{"text": "Deadpool 2 isn't a complete bust, but it's missing a chunk of what made me look back so fondly on Deadpool.", "is_fresh": 1, "author": ["Susana Polo"]},
{"text": "Unfortunately the new sequel... doesn't have enough of too much; less charitable viewers might even argue that it has too much of not enough.", "is_fresh": 0, "author": ["J. R. Jones"]},
{"text": "Deadpool 2 isn't as immortalized as Deadpool 1, but I still enjoyed myself.", "is_fresh": 1, "author": ["Jeremy Jahns"]},
{"text": "Wisecracking and fourth wall-breaking as ever.", "is_fresh": 1, "author": ["Kate Erbland"]},
{"text": "We'd say it's the rare sequel that surpasses the original - but as Deadpool would put it: \"That's just lazy writing.\"", "is_fresh": 1, "author": ["John Nugent"]},
{"text": "Led by Ryan Reynolds as the Merc with a Mouth, Deadpool 2 is a wildly entertaining ride that ups the stakes after 2016's hit predecessor.", "is_fresh": 1, "author": ["Danielle Solzman"]},
{"text": "Deadpool 2 is, above all else, a lot of fun. Sometimes it maybe doesn't take itself seriously enough. But in a genre that takes itself so deadly seriously, this is like a breath of fresh air.", "is_fresh": 1, "author": ["Bill Goodykoontz"]},
{"text": "A delirious exhibition for the bawdy, acerbic humor of Ryan Reynolds.", "is_fresh": 1, "author": ["Alex Abad-Santos"]},
{"text": "Comes blazing out of the shoot, but dips in its second hour, like a stretched-out piece of taffy. Still, there is a lot left to like here, and Reynolds and company crank out better, more outrageous laughs than most pure comedies.", "is_fresh": 1, "author": ["Adam Graham"]},
{"text": "What drives this franchise is the same force that drives so much culture and politics right now: the self-pity of a white man with a relentless need to be the center of attention.", "is_fresh": 0, "author": ["A.O. Scott"]},
{"text": "Reynolds, one of three credited writers, took more creative control with this sequel. That may sound like trouble, but the innate self-effacement built into the actor's breezy motormouth skill set apparently kept his better instincts at the fore.", "is_fresh": 1, "author": ["Michael Phillips"]},
{"text": "With Reynolds' charismatic irreverence at its core, the pic moves from bloody mayhem to lewd comedy and back fluidly, occasionally even making room to go warm and mushy.", "is_fresh": 1, "author": ["John DeFore"]},
{"text": "A fine, funny and filthy comic book superhero sequel that makes sure to be a coherent and entertaining movie first and a giant self-referential in-joke second. ", "is_fresh": 1, "author": ["Scott Mendelson"]},
{"text": "The sequel recaptures more than enough of the first film's impish spirit to provide a big, raucous, bloody good time.", "is_fresh": 1, "author": ["Michael Gingold"]},
{"text": "Deadpool 2 is kind of like that zany guy you met at a party once. Yeah, he was fun that first time out. But when you meet him again, he's just more of the same and that's ... boring.", "is_fresh": 0, "author": ["Mark Daniell"]},
{"text": "With higher highs and lower lows than Deadpool, the sequel has a lot of the problems all sequels do.", "is_fresh": 1, "author": ["Joshua Starnes"]},
{"text": "Deadpool 2 is an overstuffed cinematic burrito of raunchy insults, dismembering violence and a \"no f#*ks given\" attitude that's ready to burst at any second, but somehow holds together bite after enjoyable bite.", "is_fresh": 1, "author": ["Matt Donato"]},
{"text": "Deadpool 2 is wicked, dark fun from start to finish, with some twisted and very funny special effects, cool production elements, terrific ensemble work -- and for dessert, perhaps the best end-credits \"cookie\" scene ever.", "is_fresh": 1, "author": ["Richard Roeper"]},
{"text": "In almost every respect, this sequel is an improvement on its 2016 predecessor: Sharper, grosser, more narratively coherent and funnier overall, with a few welcome new additions.", "is_fresh": 1, "author": ["Andrew Barker"]},
{"text": "Le ratio de gags hilarants semble beaucoup plus \u00e9lev\u00e9 dans ce second volet. [Full review in French]", "is_fresh": 1, "author": ["Kevin N. Laforest"]},
{"text": "Deadpool 2 is an outrageous, surprising, hysterical, emotional, vulgar, creative and uproarious summer blockbuster that fans of this genre -- and of comedy, in general -- will devour.", "is_fresh": 1, "author": ["Sean O'Connell"]},
{"text": "A filthier, funnier sequel that doesn't try so hard to be irreverent. ", "is_fresh": 1, "author": ["Rodrigo Perez"]},
{"text": "Still the only comic book superhero movie smart and witty enough to mock comic book superhero movies. ", "is_fresh": 1, "author": ["Roger Moore"]},
{"text": "Deadpool 2 muddies the distinction between parodying comic-book-movie conventions and perfunctorily adhering to them. ", "is_fresh": 0, "author": ["Jake Cole"]},
{"text": "The perfect Avengers antidote.", "is_fresh": 1, "author": ["Stephen Whitty"]},
{"text": "The original \"Deadpool\" caught lightning in a bottle. The sequel sparks only intermittently.", "is_fresh": 1, "author": ["Soren Andersen"]},
{"text": "He's back and he's as hilarious, homicidal and outrageous as ever, although maybe a little mushier.", "is_fresh": 1, "author": ["Ed Potton"]},
{"text": "You may come for the action, I'm in for the decidedly punchy jokes and, now don't freak out, the surprisingly pungent emotion. Yup. This superhero spoof is laugh out loud funny, blows a whole lot of stuff up and is full of heart. Go figure.", "is_fresh": 1, "author": ["Joanna Langfield"]}
]