[
{"reviews_count": "222", "title": "Desde Mans Chest", "avg_audience_rating": "3.9", "rotten_count": "103", "tomatometer": "54", "audience_score": "72", "avg_critic_rating": "  6", "fresh_count": "119", "user_ratings_count": "1,847,471"},
{"text": "The result is an overproduced movie that tries so strenuously hard to be \"fun\" that it's a chore to sit through. For all its razzle-dazzle production values, the story itself feels cluttered, hard to follow and hard to care about", "is_fresh": 0, "author": ["David Ansen"]},
{"text": "Pirates of the Caribbean: Dead Man's Chest is the best summer movie of the summer. And, of course, you know it's rated \"Aargh!\"", "is_fresh": 1, "author": ["Joel Siegel"]},
{"text": "An action-packed but too-long flick for kids 12+.", "is_fresh": 1, "author": ["Jane Boursaw"]},
{"text": "The kind of sensory bombardment that replicates less a Disney theme-park ride than an extended stay at a Guant\u00e1namo base cell", "is_fresh": 0, "author": ["Fernando F. Croce"]},
{"text": "Feels like two movies: one good, one pretty pointless, neither of which is worth the hype.", "is_fresh": 0, "author": ["Felix Vasquez Jr."]},
{"text": "Overblown to the point of monotony, the second installment in the \"Pirates of the Caribbean\" franchise is a prime example of too much money and not enough story.", "is_fresh": 0, "author": ["Cole Smithey"]},
{"text": "It's a pretty joyless ride, even with all the CGI wizardry a quarter of a billion bucks can buy.", "is_fresh": 0, "author": ["Jim Lane"]},
{"text": "[This sequel] takes what worked the first time and redoes it only bigger and louder - in the process losing all the charm that made the first film so much fun.", "is_fresh": 0, "author": ["Steve Biodrowski"]},
{"text": "a good sequel", "is_fresh": 1, "author": ["Stefan Birgir Stefansson"]},
{"text": "A patchy and overlong sequel but still full of humour and top-notch action.", "is_fresh": 1, "author": ["Ian Winterton"]},
{"text": "This movie is the very definition of water torture.", "is_fresh": 0, "author": ["Brandon Fibbs"]},
{"text": "As you'd expect from a sequel, everything that made the original interesting is amplified to within an inch of its life.", "is_fresh": 0, "author": ["Joe Lozito"]},
{"text": "I had a ball watching the film as it careened from set piece to set piece, whether it be a chase scene, a sword fight or a battle on the seas.", "is_fresh": 1, "author": ["Ted Murphy"]},
{"text": "Surpasses its predecessor in making entertainment out of nonsense.", "is_fresh": 1, "author": ["Mark Dujsik"]},
{"text": "Dead Man's Chest is simply something we've been missing most of this entire summer - a film that's truly alive.", "is_fresh": 1, "author": ["Brian Tallerico"]},
{"text": "No doubt will end up one of the most popular and successful sequels in cinema history, but like the small act that grows too big too soon, the initial enchantment has faded.", "is_fresh": 1, "author": ["Rex Roberts"]},
{"text": "Just because you can do something does not mean you have to. Long and noisy is not enough.", "is_fresh": 0, "author": ["John J. Puccio"]},
{"text": "Two and a half hours of cinematic slog.", "is_fresh": 0, "author": ["Stuart Klawans"]},
{"text": "Yes. Johnny Depp is again hilarious as Capt. Jack Sparrow. Yes. Keira Knightley is fetching in period duds. And, yes, Orlando Bloom is in fine swashbuckling form.", "is_fresh": 1, "author": ["Forrest Hartman"]},
{"text": "An empty vessel... bloated beyond all recognition, and [evidencing] absolutely no flow or consistency -- there's nary a human heartbeat here in its two-and-a-half-hour-plus running time.", "is_fresh": 0, "author": ["Brent Simon"]},
{"text": "In spite of its small shortcomings, Pirates of the Caribbean: Dead Man's Chest deserves praise for being an old-fashioned popcorn movie that knows how to entertain.", "is_fresh": 1, "author": ["Russ Breimeier"]},
{"text": "Dead Man on arrival.", "is_fresh": 0, "author": ["Kamal 'The Diva' Larsuel"]},
{"text": "It's a bloated, unstructured, overly long conquest of style over substance. Yet it can't be faulted for its effort to give its fans a booty of eye-candy, dashing action sequences, and enough tongue-in-cheek humor to make even cynics smile.", "is_fresh": 1, "author": ["Bruce Bennett"]},
{"text": "Fantas\u00eda desbordante que saciar\u00e1 los apetitos visuales m\u00e1s exigentes.", "is_fresh": 1, "author": ["Luis Martinez"]},
{"text": "I'd give a much stronger recommendation for going back and watching \"Curse of the Black Pearl\" again. ", "is_fresh": 0, "author": ["Audrey Rock-Richardson"]},
{"text": "Ahoy, no ending off the port bow.", "is_fresh": 1, "author": ["Michael Clawson"]},
{"text": "A complete let down after an amazing predecessor.", "is_fresh": 0, "author": ["Wesley Lovell"]},
{"text": "Still a lot of fun, has lots of action and adds some depth to the overall story, but it's also bloated and ends far too suddenly.", "is_fresh": 1, "author": ["Ryan Cracknell"]},
{"text": "A rollicking ride that keeps the audience coming back for more.", "is_fresh": 1, "author": ["Michael Dequina"]},
{"text": "Just think of Dead Man's Chest as a double feature without a break in the middle and hope that your theater seat is plenty comfortable.", "is_fresh": 1, "author": ["James Kendrick"]},
{"text": "It's all a bit much, yes, a bit exhausting, that's true, but then why on Earth would anyone expect otherwise?", "is_fresh": 1, "author": ["Marc Savlov"]},
{"text": "Es el mejor ejemplo de lo que debe ser el cine de verano: Divertido, espectacular y entra\u00f1able al mismo tiempo. Junto con Superman Regresa, es de esos trabajos que nos recuerdan que el cine es, y debe seguir siendo, una f\u00e1brica de sue\u00f1os.", "is_fresh": 1, "author": ["Jorge Avila Andrade"]},
{"text": "Bereft of both joy and humor, it's dark and dank with unappealing cinematography and sets.", "is_fresh": 0, "author": ["Steve Rhodes"]},
{"text": "It's every bit as terrific as the inaugural film, occasionally surpassing it with mind-boggling, spectacularly choreographed action set pieces.", "is_fresh": 1, "author": ["Randy Shulman"]},
{"text": "Apesar de claramente motivada por interesses financeiros, esta continua\u00e7\u00e3o \u00e9 uma aventura deliciosamente divertida que faz jus ao original.", "is_fresh": 1, "author": ["Pablo Villa\u00e7a"]},
{"text": "Yo Ho Hum", "is_fresh": 0, "author": ["Thomas Peyser"]},
{"text": "Pirates 2 is everything we prayed to God it wouldn't be: dull, humorless, long, languid, effects-driven, boorish, and yawn-inducing. Other than that it's excellent!", "is_fresh": 0, "author": ["David N. Butterworth"]},
{"text": "It seems like half a movie that is twice as long as a normal movie.", "is_fresh": 1, "author": ["Robert Roten"]},
{"text": "Verbinski's pacing of action appears to use every available take of cannons firing and pirates being thrown around deck, until any attempted tension is nullified by boredom.", "is_fresh": 0, "author": ["Mark Palermo"]},
{"text": "This is strictly popcorn fare, only this time around the popcorn has grown a little stale.", "is_fresh": 0, "author": ["Scott Nash"]},
{"text": "Much more than the last film, this one returns to the franchise origins as an amusement park ride. This time this film is darker--both literally and figuratively.", "is_fresh": 1, "author": ["Mark R. Leeper"]},
{"text": "The new plot has all the appeal of a seaweed sandwich, being dark, salty, and indigestible.", "is_fresh": 0, "author": ["Anthony Lane"]},
{"text": "Usually, when it comes to movies, I prefer a less-is-more approach. But sometimes more really is more.", "is_fresh": 1, "author": ["Greg Maki"]},
{"text": "Bottles of rum are everywhere, but the ho-ho-hos are in short supply in Gore Verbinski's second voyage.", "is_fresh": 0, "author": ["Susan Tavernetti"]},
{"text": "Lumpen direction, lousy writing and pouting performances aside, the worst thing about Dead Man's Chest is its interminable length.", "is_fresh": 0, "author": ["Mark Kermode"]},
{"text": "The repetitive quests are cut short only by the cliffhanger non-ending...", "is_fresh": 0, "author": ["John Beifuss"]},
{"text": "...the pace is better, the action is not flooding the screen every two seconds, and characters seem more like evolved concepts rather than background distractions.", "is_fresh": 1, "author": ["David Keyes"]},
{"text": "It doesn't have the freshness of the original ... but it's certainly better than it had any right to be.", "is_fresh": 1, "author": ["Gina Carbone"]},
{"text": "Perhaps downing a bottle of rum while watching the movie would improve its story line.", "is_fresh": 0, "author": ["Lori Hoffman"]},
{"text": "'Pirates' is a rollicking good time ---", "is_fresh": 1, "author": ["Jeanne Kaplan"]},
{"text": "Depp is again the focal point of the film, filling every scene with wry humor and his accomplished sense of comic timing.", "is_fresh": 1, "author": ["David Kaplan"]},
{"text": "... Made me want to walk the plank, if only to escape Depp's soggy schtick and the sloppy storyline pirated from pirate lore.", "is_fresh": 0, "author": ["Thomas Delapa"]},
{"text": "There is more of everything in the new Pirates of the Caribbean movie: more spectacle; more exotic locales; more convoluted story contrivances.", "is_fresh": 1, "author": ["Bill Gibron"]},
{"text": "It may not be surprising, but it's something as good or better, because it's right and it's what we want.", "is_fresh": 1, "author": ["Ken Hanke"]},
{"text": "Almost the exact same review as the first: A lot of fun, but could use some trimming.", "is_fresh": 1, "author": ["Collin Souter"]},
{"text": "Johnny Depp's Jack Sparrow proves that an actor's awesome talent can make incredible special effects and funny action sequences pale in comparison.", "is_fresh": 1, "author": ["Betty Jo Tucker"]},
{"text": "In the first film, Depp had fun chewing on the scenery. In this one, the scenery swallows him up and eats him raw.", "is_fresh": 0, "author": ["Uri Lessing"]},
{"text": "This time around, Captain Jack won't get you high tonight or take you to your special island.", "is_fresh": 0, "author": ["Jonathan R. Perry"]},
{"text": "Easily the best studio confection of the year... kicking ***, taking names, and reminding us all of the joy that going to a big summer movie is supposed to inspire in us.", "is_fresh": 1, "author": ["David Poland"]},
{"text": "Perhaps realizing that a 14-minute theme-park ride can provide only so much story fodder, returning director Gore Verbinski merely ramps everything to a higher level, right down to Depp's signature saunter.", "is_fresh": 0, "author": ["Larry Ratliff"]},
{"text": "a bladder-buster, but it's exciting enough that most audiences won't mind the over-stuffed running time.", "is_fresh": 1, "author": ["Sean McBride"]},
{"text": "What \"Dead Man's Chest\" lacks in originality compared to its predecessor is compensated for by sheer, masterfully executed excess.", "is_fresh": 1, "author": ["Jules Brenner"]},
{"text": "'Arrr,' asked Davy Jones, 'Why would ye want to be searchin' fer a dead man's chest when Keira Knightly's be close at hand?'", "is_fresh": 1, "author": ["Mark Ramsey"]},
{"text": "Sitting through this for 151 minutes gave me a glimpse of what eternity might be like in hell.", "is_fresh": 0, "author": ["Tony Medley"]},
{"text": "It ought to sink from the weight of the cargo, but it's buoyed by another high-wire performance from Depp.", "is_fresh": 1, "author": ["Joe Williams"]},
{"text": "Jack's fondness for wrist bangles and hair doodads makes him infinitely more interesting than the action franchise in which he's packaged. ", "is_fresh": 0, "author": ["Cynthia Fuchs"]},
{"text": "The best that can be said for this trilogy middler is that its waterlogged bad guys are an altogether better bunch of special effects than their ghostly predecessors. ", "is_fresh": 0, "author": ["Laura Clifford"]},
{"text": "This film is a true joy.", "is_fresh": 1, "author": ["Eric Lurio"]},
{"text": "It sets out to do one thing: entertain. And entertain it does, quite well, actually, when it's not bogged down by an over-complex story with some serious pacing issues.", "is_fresh": 1, "author": ["Jason Zingale"]},
{"text": "Depp is disappointing and reminiscent of the Roadrunner, dashing around until somebody actually or figuratively bops him on the head. Perhaps he's looking for a script.", "is_fresh": 0, "author": ["Jean Lowerison"]},
{"text": "I'll admit that the film is intermittently amusing, but it also reeks of the dreaded \"bigger, louder, more\" syndrome that has undone many a sequel.", "is_fresh": 0, "author": ["Mike McGranaghan"]},
{"text": "Two hours into this 150-minute behemoth, the worst fears of most moviegoers are confirmed. It's essentially a teaser for the next Pirates flick.", "is_fresh": 0, "author": ["Mike Ward"]},
{"text": "This second film is pretty much all thrills, special effects and nonstop action -- but with virtually no cohesive or compelling story line.", "is_fresh": 0, "author": ["Bill Zwecker"]},
{"text": "I think I could have had more fun at Disneyland waiting on long lines with noisy uncontrollable tykes running all around me.", "is_fresh": 0, "author": ["Dennis Schwartz"]},
{"text": "Pirates of the Caribbean: Dead Man's Chest is a pirate movie worthy of its, uhhh, salt. Ahoy, mateys! Arrr.", "is_fresh": 1, "author": ["James Verniere"]},
{"text": "It's mostly a moody thing, awash with dark and gruesome hues, possessed of a lost and aching spirit. Yay that!", "is_fresh": 1, "author": ["Gregory Weinkauf"]},
{"text": "Spending time with this motley crew is probably the best reason there is to set sail for a multiplex all summer.", "is_fresh": 1, "author": ["Pete Hammond"]},
{"text": "takes all that was so charming about the first Pirates...and amps it up to the wattage of a Looney Tunes cartoon", "is_fresh": 0, "author": ["Jay Antani"]},
{"text": "[Depp's] a character audiences will follow anywhere -- even if it means plowing through the occasionally rough seas Dead Man's Chest navigates. ", "is_fresh": 1, "author": ["Carol Cling"]},
{"text": "You can't beat on Dead Man's Chest on value-for-money terms, but it's like an all-you-can-eat buffet -- everything's tasty, the surfeit is sickening.", "is_fresh": 1, "author": ["Maitland McDonagh"]},
{"text": "'Complications arose, ensued, were overcome,' Jack says at one point. Not entirely, but Dead Man's Chest is worth weighing anchor for, regardless.", "is_fresh": 1, "author": ["Peter Howell"]},
{"text": "In every other way -- as adventure yarn or as satire on that form or merely as an enjoyable entertainment featuring a wonderfully sly and subtle actor -- it is not merely a loser. It is a disaster.", "is_fresh": 0, "author": ["Richard Schickel"]},
{"text": "Engaging and then wearisome, Dead Man's Chest piles on the action scenes while displaying a striking lack of imagination.", "is_fresh": 0, "author": ["Carla Meyer"]},
{"text": "Shiver me timbers, director Gore Verbinski once again displays a remarkable talent for generating fresh and amusing adventures that are far better than we should expect when a movie gets its inspiration from an amusement park ride.", "is_fresh": 1, "author": ["Jack Garner"]},
{"text": "Depp is clearly having so much fun, it would be churlish not to join him.", "is_fresh": 1, "author": ["Pam Grady"]},
{"text": "As the pirates say... AAAARRRRGGGHH!", "is_fresh": 0, "author": ["Gary Thompson"]},
{"text": "Climb aboard and have fun, by all means. But don't be surprised if you feel a little marooned when it's over.", "is_fresh": 1, "author": ["Shawn Levy"]},
{"text": "Call me old-fashioned, but any movie that lasts two and one half hours should have an ending.", "is_fresh": 0, "author": ["Duane Dudek"]},
{"text": "Despite its glossy look and masterful special effects, Pirates of the Caribbean: Dead Man's Chest is a bad movie. Fans deserve better.", "is_fresh": 0, "author": ["Robert W. Butler"]},
{"text": "Sailors' delight. But also take warning, the cliffhanger storyline could prompt you to walk the plank, if you're not patient enough to wait until 2007.", "is_fresh": 1, "author": ["Bruce Kirkland"]},
{"text": "Director Gore Verbinski manages to pull all these story elements together and smoothly shifts gears as the story blends dark fantasy, goofy humor and melodrama (including a love triangle of sorts).", "is_fresh": 1, "author": ["Jeff Vice"]},
{"text": "For the most part, Dead Man's Chest stands on its own and even makes a few halfhearted attempts to say something.", "is_fresh": 1, "author": ["Robert Denerstein"]},
{"text": "The second Pirates of the Caribbean movie is a sweet umbrella drink leaving no hangover, two hours and 20 minutes of escapism that once again makes the movies safe for guilt-free fun.", "is_fresh": 1, "author": ["Michael Booth"]},
{"text": "Like the first film, Dead Man's Chest is very much a showpiece for Johnny Depp.", "is_fresh": 1, "author": ["Kevin Carr"]},
{"text": "Dead Man's Chest suffers from the sequel curse.", "is_fresh": 0, "author": ["John Wirt"]},
{"text": "If I have to watch one more pirate shriek in horror at a giant yet imaginary tentacle waving in his face, I'll drive a fork into my wooden leg.", "is_fresh": 0, "author": ["Donald Munro"]},
{"text": "More fun than the cantina scene from Star Wars, Davy Jones and his barnacle-encrusted crew alone make this a must see!", "is_fresh": 1, "author": ["John Venable"]},
{"text": "I'll reserve judgment on the entire series until the release of At World's End next year, but for now, Dead Man's Chest is a step backwards.", "is_fresh": 0, "author": ["Pete Vonder Haar"]},
{"text": "At more than two-and-a-half hours, this second installment veers toward overkill", "is_fresh": 0, "author": ["Jon Niccum"]},
{"text": "The filmmakers have done a wonderful thing here. They've expanded the story in vastly entertaining ways, conjuring up sights we've never seen onscreen before, and they've clearly had a lot of fun doing so.", "is_fresh": 1, "author": ["Kurt Loder"]},
{"text": "The movie is non-stop fun even though it's got an unfinished feel to it (so stay tuned for part 3).", "is_fresh": 1, "author": ["Cherryl Dawson and Leigh Ann Palone"]},
{"text": "Boasts the summer's best effect so far", "is_fresh": 1, "author": ["Sean O'Connell"]},
{"text": "An overstuffed and immensely tedious comedy that sinks early in its voyage.", "is_fresh": 0, "author": ["Frederic and Mary Ann Brussat"]},
{"text": "It's as if seven Vice Presidents of Production sat in a boardroom for three days straight, without food or water, and finally their collective genius, poring over reams of test screening data, resoundingly declared with one voice, \"WE NEED MORE RUM JOKES", "is_fresh": 0, "author": ["Rubin Safaya"]},
{"text": "...suffers from a sort of middle child syndrome.", "is_fresh": 0, "author": ["Eric Melin"]},
{"text": "Takes the slapstick swashbuckling to a completely new level, evoking the ingenuity of a Buster Keaton or Jackie Chan set piece, crossed with the Rube Goldberg logic of a Chuck Jones cartoon.", "is_fresh": 1, "author": ["Steven D. Greydanus"]},
{"text": "You might well need a bottle of rum to get through that two-and-a-half hour running time.", "is_fresh": 0, "author": ["David Edwards"]},
{"text": "A blockbuster worth watching for the flair with which the cast plunge into the action.", "is_fresh": 1, "author": ["Sandra Hall"]},
{"text": "Shorter title, more supernatural and swashbuckling fun.", "is_fresh": 1, "author": ["Kevin A. Ranson"]},
{"text": "This is one of those films that you absolutely must experience in the theater, as it is just that much fun.", "is_fresh": 1, "author": ["Neil Miller"]},
{"text": "They really stepped up their game for this one.", "is_fresh": 1, "author": ["Dave White"]},
{"text": "More of the same, and more of it...at a bladder-challenging 145 minutes, it's packed to the gills, but never feels rushed or lazy. Lazy? No way. These people are working HARD.", "is_fresh": 1, "author": ["Karina Montgomery"]},
{"text": "It gives the audience what it wants, but this time the attitude feels deflated, and the end product lacks a good sense of rum-drunk playfulness.", "is_fresh": 0, "author": ["Brian Orndorf"]},
{"text": "We get far too little of Depp and far too much of the sober, stagnant Orlando Bloom.", "is_fresh": 0, "author": ["Jeffrey M. Anderson"]},
{"text": "It feels like they are making it up as they go along. ", "is_fresh": 0, "author": ["Danny Minton"]},
{"text": "As brisk, busy and inconsequential as you would expect from a film based on a Disneyland ride...", "is_fresh": 1, "author": ["Sean Axmaker"]},
{"text": "What's most surprising about this sequel ... is how much more serious it feels.", "is_fresh": 1, "author": ["Jeffrey Chen"]},
{"text": "...an unpleasant, distinctly overlong piece of dreck that's certainly a strong contender for worst movie of the year.", "is_fresh": 0, "author": ["David Nusair"]},
{"text": "a riotous, action packed last half hour ... with plot twists that will shock you and change the Pirates world forever! ", "is_fresh": 1, "author": ["Willie Waffle"]},
{"text": "The cliffhanger ending provides some hope that the imminent third film will restore some of what is missing from this one.", "is_fresh": 1, "author": ["Eugene Novikov"]},
{"text": "The pace is grueling...as the many sword fighting sequences clang on and on. Even battling gigantic tentacles becomes a yawner after the 45th pirate is squeezed.", "is_fresh": 0, "author": ["Steve Crum"]},
{"text": "Calling a summer movie 'action-packed' is supposed to be a compliment, but there's nothing so tedious as nonstop excitement.", "is_fresh": 0, "author": ["Stephanie Zacharek"]},
{"text": "The filmmakers stuck that mushy stuff on the back burner in favor of more cool things to keep your inner eight-year-old jumping up and down in your seat. Yo ho ho!", "is_fresh": 1, "author": []},
{"text": "It's often unclear what's going on, beyond a zillion dollars of splashy effects washing over the screen.", "is_fresh": 0, "author": ["Bruce Westbrook"]},
{"text": "All of it evidently based on another notion, that great length equals great importance.", "is_fresh": 0, "author": ["Joe Morgenstern"]},
{"text": "Yo ho-hum.", "is_fresh": 0, "author": ["Walter Chaw"]},
{"text": "fathoms in front of its predecessor", "is_fresh": 1, "author": ["Joel Meares"]},
{"text": "A flawless entertainment offering, one as breathtaking as its predecessor... The Pirates franchise is about as much fun as you can possibly have at the movies.", "is_fresh": 1, "author": ["David Cornelius"]},
{"text": "Yes, it's too long, but it is still steadfast popcorn summer entertainment.", "is_fresh": 1, "author": ["Bill Clark"]},
{"text": "That's how these movies make me feel: a little dazzled and amused, but not in any kind of special or memorable way.", "is_fresh": 0, "author": ["Eric D. Snider"]},
{"text": "Pirates of the Caribbean: Dead Man's Chest is the worst kind of sequel -- the kind that exists only to give you more-more-more of what you liked the first time around, without ever justifying its own existence.", "is_fresh": 0, "author": ["Rene Rodriguez"]},
{"text": "Although there are memorable bits and pieces, the new Pirates of the Caribbean is a movie with no particular interest in coherence, economy or feeling.", "is_fresh": 0, "author": ["A.O. Scott"]},
{"text": "It's a franchise movie -- a product -- that is pretending to be a lot hipper than it is.", "is_fresh": 0, "author": ["Peter Rainer"]},
{"text": "By the time it's all over, POTC2 has delivered more toe-tappin' eye-candy than the last three summer movies combined. (So get Kraken!)", "is_fresh": 1, "author": ["Scott Weinberg"]},
{"text": "A perfect popcorn pleasure, one of the most sensationally entertaining movies of the year.", "is_fresh": 1, "author": ["Nell Minow"]},
{"text": "As if to mock the film's all-trappings, no-sense agenda, Depp's Sparrow gets off the film's sole sign of verbal wit: 'Look! An undead monkey!'", "is_fresh": 0, "author": ["Peter Canavese"]},
{"text": "A bustling sequel that outperforms its predecessor as a special-effects extravaganza but one that can't match the feeling of discovery that came with the original.", "is_fresh": 0, "author": ["Bill Muller"]},
{"text": "The sequel, rather than attempting to contravene expectations, actually trades on them.", "is_fresh": 0, "author": ["Wade Major"]},
{"text": "Mr. Verbinski is an extremely skilled traffic director.", "is_fresh": 1, "author": ["Philip Wuntch"]},
{"text": "Probably nothing can stop Pirates of the Caribbean: Dead Man's Chest from hitting big. There is also nothing to stop most viewers from feeling fleeced and fatigued.", "is_fresh": 0, "author": ["David Elliott"]},
{"text": "Without a beating heart at its center, this Chest feels empty indeed.", "is_fresh": 0, "author": ["Dana Stevens"]},
{"text": "\"Dead Man's Chest,\" is a swashbuckling good time, though it's somewhat bloated and overlong. Considering the endearing cast, and the exceptional effects, however, these shortcomings are easily forgiven in favour of some truly exciting viewing.", "is_fresh": 1, "author": ["Angela Baldassarre"]},
{"text": "[T]he charming cast carries us through the first awkward act until, suddenly, at around the 45-minute mark, everything suddenly snaps into focus, and by God, it becomes The Empire Strikes Back.", "is_fresh": 1, "author": ["MaryAnn Johanson"]},
{"text": "Dead Man's Chest is best summed up by the scene where Sparrow and Will battle each other atop a runaway water wheel. Like the characters, this movie is just running in circles.", "is_fresh": 0, "author": ["Ethan Alter"]},
{"text": "Too long, and too wrapped up in its various plot contrivances to notice it's veering off course. But Jack just about pulls the wheel back, aided by Verbinski's flair for cartoonish comedy action.", "is_fresh": 1, "author": ["Dan Jolin"]},
{"text": "It gives fans what they want - then more of what they want, and more, and more, until gluttony becomes force-feeding.", "is_fresh": 1, "author": ["Lawrence Toppman"]},
{"text": "A century after Charlie Chaplin triumphed as The Little Tramp, Johnny Depp galavants across the same general territory with his own variation, The Little Scamp.", "is_fresh": 1, "author": ["Richard Horgan"]},
{"text": "The loaded-to-the-gills carnival ride, the second in what's shaping up to be a wildly successful trilogy, is almost as good as the first voyage.", "is_fresh": 1, "author": ["Randy Myers"]},
{"text": "A grand-scale train wreck.", "is_fresh": 0, "author": ["Dustin Putman"]},
{"text": "Yes, it's brightly colored carnival fun. But this ride, in the end, only goes round and round and round. Which is ultimately more ho-hum than ho-ho-ho.", "is_fresh": 0, "author": ["Tom Long"]},
{"text": "It's like an amusement park excursion where the entry fee is so high you feel compelled to stay until you get a stomachache to get your money's worth.", "is_fresh": 1, "author": ["Terry Lawson"]},
{"text": "When the scenes work and cook, they're the essence of summer moviemaking. They shiver your timbers and make you feel like a kid.", "is_fresh": 1, "author": ["Glenn Whipp"]},
{"text": "It's too long, unnecessarily complicated and often silly, but Gore Verbinski's Pirates of the Caribbean: Dead Man's Chest is still the purest popcorn entertainment of the summer.", "is_fresh": 1, "author": ["Jack Mathews"]},
{"text": "The director, Gore Verbinski, has grown more adept at Spielberg-style action, in which the fun is as much in the elegance of the staging as the stunts.", "is_fresh": 1, "author": ["David Edelstein"]},
{"text": "This chest is overfilled with exposition and physical comedy, without a doubloon's worth of the scary suspense that made the laughs in the first one such brilliant comic relief.", "is_fresh": 0, "author": ["Kyle Smith"]},
{"text": "Rum, monotony and the lash.", "is_fresh": 0, "author": ["Stephen Whitty"]},
{"text": "When you find out at the end that what you've just seen is merely the overture to yet another sequel, you can't help wondering what more can be extracted from this franchise. Gold, me hearties, more gold!", "is_fresh": 0, "author": ["Gene Seymour"]},
{"text": "At two hours and 30 minutes, the story has its repetitive and wearisome passages, and the plot emerges only to bog things down, but for most of its length it positively dances with gusto.", "is_fresh": 1, "author": ["Colin Covert"]},
{"text": "Here's the movie to put the giddy back in the giddy-ap of summer.", "is_fresh": 1, "author": ["Roger Moore"]},
{"text": "The Curse of the Black Pearl, this second installment in the promised trilogy (Parts 2 & 3 were shot concurrently) lacks the swash and buckle of the original. And then some.", "is_fresh": 0, "author": ["Steven Rea"]},
{"text": "This is the most satisfying big-screen excuse for overpriced popcorn so far this summer.", "is_fresh": 1, "author": ["Michael Phillips"]},
{"text": "I was worn down by the excess.", "is_fresh": 0, "author": ["Jonathan Rosenbaum"]},
{"text": "In essence, Dead Man's Chest gives us an opportunity to join old friends on a new adventure that isn't substantially different from the old one.", "is_fresh": 1, "author": ["James Berardinelli"]},
{"text": "It's the triumphant rogue in Depp that keeps this pirate ship afloat and actually makes the third voyage (coming next summer) a trip worth booking.", "is_fresh": 1, "author": ["Peter Travers"]},
{"text": "It's an amalgam of many of the modern cinema's worst tendencies and modern filmmaking's most unfortunate misconceptions. The film has an epic scale without an epic story, epic characters, epic ideas or epic emotions.", "is_fresh": 0, "author": ["Mick LaSalle"]},
{"text": "This installment in the trilogy feels more like filler between the first and the last episodes, and with no obvious story to tell, it remains mired in the horse latitudes of whimsy.", "is_fresh": 0, "author": ["Bruce Newman"]},
{"text": "A goofball riff on the pirate-movie genre, this sequel is as insubstantial as popcorn -- and as delicious.", "is_fresh": 1, "author": ["Moira MacDonald"]},
{"text": "The movie is lopsided, sloppy, too long and absolutely irresistible.", "is_fresh": 1, "author": ["Eleanor Ringel Cater"]},
{"text": "Dead Man's Chest has every appearance of an epic adventure, but not the soul of one.", "is_fresh": 0, "author": ["Phoebe Flowers"]},
{"text": "Just when things look dire in Dead Man's Chest, Depp makes like Harry Houdini and gets himself -- and the movie -- out of trouble.", "is_fresh": 1, "author": ["Chris Hewitt (St. Paul)"]},
{"text": "It does deliver a combustible combination of ingredients for a summer blockbuster: a cornucopia of action and dazzling effects, some raucous humor and a large dose of Depp's winning charm.", "is_fresh": 1, "author": ["Claudia Puig"]},
{"text": "This Disney movie isn't a follow-up to the first Pirates of the Caribbean so much as its empty-calorie clone.", "is_fresh": 0, "author": ["Desson Thomson"]},
{"text": "The dreaded curse of the sequels hits home with a vengeance in Pirates of the Caribbean: Dead Man's Chest, a noisy and lazy stopgap movie that goes absolutely nowhere and takes 2 1/2 hours to get there.", "is_fresh": 0, "author": ["Ty Burr"]},
{"text": "Even more cartoonish than the original film from 2003 -- a difficult feat to achieve -- this second installment in the Pirates of the Caribbean franchise, often feels like a live-action version of a Road Runner-Wile E. Coyote extravaganza.", "is_fresh": 0, "author": ["Christy Lemire"]},
{"text": "The problem isn't that Pirates of the Caribbean: Dead Man's Chest is only half a movie, it's that it feels like one -- an elaborate tease that's effectively a feature-length coming attraction for Pirates III.", "is_fresh": 0, "author": ["Scott Foundas"]},
{"text": "There was a chance that Depp's oddball act would grow tiresome the second time around but the movie wisely uses him in deliberate dollops. He's the comic-relief clown as de facto star. ", "is_fresh": 1, "author": ["Josh Larsen"]},
{"text": "While it's certainly going to be a hit, there is still no avoiding the fact that this voyage of the Black Pearl is dead in the water.", "is_fresh": 0, "author": ["Sara Michelle Fetters"]},
{"text": "In a year when blockbusters have proven disappointing at best, disposable and joyless at worst ... Dead Man's Chest arrives like an emergency delivery of fun.", "is_fresh": 1, "author": ["Jeffrey Overstreet"]},
{"text": "The whole thing just sits there on the screen, trying to win us over with relentlessness and ending up dangerously close to boring.", "is_fresh": 0, "author": ["Andy Klein"]},
{"text": "The first of two sequels shot in immediate succession, Dead Man's Chest bears the unenviable burden of racking the pins for both movies, which leaves it with precious few opportunities to have a little fun of its own.", "is_fresh": 0, "author": ["Scott Tobias"]},
{"text": "It has its moments, [but] don't confuse this mess with good filmmaking, even by the admittedly low standards set for the summer blockbuster.", "is_fresh": 0, "author": ["Daniel M. Kimmel"]},
{"text": "Bloom and Knightley act as if they are going through the motions, ... and even Depp's devil-may-care portrayal of Captain Jack has a calculated quality.", "is_fresh": 0, "author": ["Sean P. Means"]},
{"text": "Taking Dead Man's Chest for what it is, half a movie, this is a rollicking half a movie that restores glory to the phrase 'production values.'", "is_fresh": 1, "author": ["Jeffrey Westhoff"]},
{"text": "When it comes to sequel-making, Verbinski is a follower of the 'bigger, louder, longer' school of thought... Whether or not viewers will head home feeling entirely satisfied is another question.", "is_fresh": 1, "author": ["James Sanford"]},
{"text": "Devilishly extravagant, joyfully escapist, fun-filled, buccaneer thrill ride", "is_fresh": 1, "author": ["Susan Granger"]},
{"text": "A classic \"middle\" film that delivers as much excitement and ingenuity you could hope for to outclass hundreds of summer popcorn fare.", "is_fresh": 1, "author": ["Erik Childress"]},
{"text": "So gather ye a ration and a bottle of rum - or a soda and popcorn, if that be more convenient - and drop anchor with this summer treasure. Aye-aye!", "is_fresh": 1, "author": ["Phil Villarreal"]},
{"text": "Not quite as good as the first film, but it pulls it all together for a thoroughly enjoyable final act.", "is_fresh": 1, "author": ["Matthew Turner"]},
{"text": "A coulda-been classic ends up feeling variously like a particularly undisciplined director's cut and (shudder!) a Jerry Bruckheimer picture.", "is_fresh": 0, "author": ["Steve Schneider"]},
{"text": "As the film heaves from one muddily motivated set-piece to the next, McGuffins accruing like barnacles all the while (the sketch! the key! the papers! the chest! the heart!), it takes on the sinking feeling of a vessel adrift, sending out flares.", "is_fresh": 0, "author": ["Ben Walters"]},
{"text": "Good things to look at. Not much else, but do you care?", "is_fresh": 1, "author": ["Luke Y. Thompson"]},
{"text": "Slapstick pirates. What happened to gay Jack Sparrow? Depp sells out his most famous character. ", "is_fresh": 0, "author": ["Victoria Alexander"]},
{"text": "Cries of 'Yo ho yo ho' could be replaced with calls for someone to walk the plank after the experience of sitting through this mind-numbing sequel.", "is_fresh": 0, "author": ["Rebecca Murray"]},
{"text": "The effects-driven action scenes alone make Dead Man's Chest worth the price of admission. But in other respects, this one too often rings hollow.", "is_fresh": 1, "author": ["Matt Brunson"]},
{"text": "Pirates of the Caribbean: Dead Man's Chest is even more of a party-hearty-Marty potlatch of silliness than its predecessor.", "is_fresh": 1, "author": ["Michael Atkinson"]},
{"text": "This production is a vast, expensive, sprawling affair that never feels out of control thanks to Verbinski's assured direction.", "is_fresh": 1, "author": ["Kirk Honeycutt"]},
{"text": "This sequel is appropriately named, because that's what you'll be staring at for nearly half the movie: dead men's chests.", "is_fresh": 0, "author": ["Diana Saenger"]},
{"text": "Yes indeed, Pirates 2.0 is a theme ride, if by ride you mean a hellish contraption into which a ticket holder is strapped, overstimulated but unsatisfied, and unable to disengage until the operator releases the restraining harness.", "is_fresh": 0, "author": ["Lisa Schwarzbaum"]},
{"text": "The problem with the Pirates films, and with this one more than the first, is that there's not a genuine moment in them -- no point of human contact...they're baldly concocted, confected, engineered.", "is_fresh": 0, "author": ["Todd McCarthy"]},
{"text": "Like Jack's heart, Dead Man's Chest is unsure of what it wants, so it takes the omnivorous approach, and all of the story lines suffer for it.", "is_fresh": 0, "author": ["Carina Chocano"]},
{"text": "...the fool thing just keeps going and going... and going. (Does a Pirates sequel really need to be five minutes longer than GoodFellas?) The flick should've felt like a sugary snack, not a hot-dog eating contest.", "is_fresh": 0, "author": ["Sean Burns"]},
{"text": "Perhaps the magic is gone because Dead Man's Chest sacrifices the unpredictability of the ever-versatile Depp, who never before has done the same thing twice.", "is_fresh": 0, "author": ["Matt Pais"]},
{"text": "...the ultimate summer action-adventure creature-feature...", "is_fresh": 1, "author": ["JoBlo"]},
{"text": "Watching Depp in The Black Pearl was like discovering a new acting continent. Watching him here is like returning to a warm, familiar place - nice and all, not exciting", "is_fresh": 0, "author": ["Dan Fienberg"]},
{"text": "More swordplay, more swashbuckling, more Jack Sparrow. What's not to love?", "is_fresh": 1, "author": ["David Foucher"]},
{"text": "Great action, more Sparrow... Every bit as entertaining and fun as the original.", "is_fresh": 1, "author": ["Jeff Otto"]},
{"text": "A complicated plot involving a mysterious key and Will's seafood-wearing dad fights for space between relentless action sequences in a film so overloaded that it threatens to capsize.", "is_fresh": 0, "author": ["Paul Arendt"]},
{"text": "PotC:DMC is a smorgasbord of frolicking fun, and a visual cornucopia to behold.", "is_fresh": 1, "author": ["Emily Blunt"]},
{"text": "Captain Jack is back and in rare form in this swashbuckling, booty-licious Pirates sequel which more than equals its predecessor.", "is_fresh": 1, "author": ["Kit Bowen"]},
{"text": "Whilst some pacing issues and a slightly less flippant Depp stop the film from achieving the heights of its predecessor, 'Chest' is still easily the best film of the Summer", "is_fresh": 1, "author": ["Garth Franklin"]},
{"text": "Not as good as the first...but with enough hilarious Captain Jack moments and exciting action scenes to appease the fans.", "is_fresh": 1, "author": ["Edward Douglas"]},
{"text": "[P]acks as many thrills and as much fun into thirty minutes as any of the Indiana Jones films did into their entire running times.", "is_fresh": 1, "author": ["Devin Faraci"]},
{"text": "Dead Man's Chest goes to some very scary places... and few of them are marked on Uncle Walt's brightly colored map.", "is_fresh": 1, "author": ["Rob Vaux"]},
{"text": "Twice as overstuffed with effects as its predecessor but less than half as entertaining...a sequel so dispiriting it almost makes one ashamed to have liked the first movie.", "is_fresh": 0, "author": ["Frank Swietek"]},
{"text": "Though not as fresh or funny as the 2003 original, this sequel is occasionally playful, but seldom inventive or witty.", "is_fresh": 0, "author": ["Emanuel Levy"]},
{"text": "Though the film tries hard, it feels like it's trying hard.", "is_fresh": 1, "author": []},
{"text": "Even for a sequel, Pirates of the Caribbean: Dead Man's Chest takes the practice of double-dipping to extreme depths.", "is_fresh": 0, "author": ["Nick Schager"]},
{"text": "Pirates of the Caribbean returns to theaters for more summer swashbuckling, only they may have forgotten to buckle their swash.", "is_fresh": 1, "author": ["Joshua Tyler"]},
{"text": "Yes, there's a massive cliffhanger of an ending. And yes, it leaves us gagging for more.", "is_fresh": 1, "author": ["Rich Cline"]},
{"text": "Every imaginable pirate fantasy is joyously bundled into a bewitching treasure chest in this action-adventure sequel.", "is_fresh": 1, "author": ["Urban Cinefile Critics"]},
{"text": "like a slow boat to China, it takes a very long time to get where it is going and not every moment is thrill-packed, but it's not without some very nice points of interest that make the effort worthwhile", "is_fresh": 1, "author": ["Andrea Chase"]},
{"text": "As much as we might want to fall madly in love with this adventure, the disappointment is that it makes its pirates' lives seem just that little less attractive.", "is_fresh": 1, "author": ["Joe Utichi"]}
]