[
{"reviews_count": "262", "title": "Drag Me To Hell", "avg_audience_rating": "  3", "rotten_count": "20", "tomatometer": "92", "audience_score": "62", "avg_critic_rating": "7.6", "fresh_count": "242", "user_ratings_count": "847,005"},
{"text": "Drag Me to Hell can have you tense and on the edge of your seat before repulsing you with a gross out moment and then use that revulsion to lead into a gag inspired by the Three Stooges.", "is_fresh": 1, "author": ["Sean Mulvihill"]},
{"text": "The premise is old-fashioned-a gypsy curse haunts a young woman-but the execution is glorious, as funny and cockeyed as it is gasp-inducing. ", "is_fresh": 1, "author": ["Sean Fennessey"]},
{"text": "When violence appears in Raimi's Drag Me to Hell, it's not meant to be real, often it's hilarious, and what Raimi tries to show is what is going on in the mind of his principal character.", "is_fresh": 1, "author": ["Kaleem Aftab"]},
{"text": "Ultimately, what I find most endearing about the film is the same thing that I primarily love about the first two Evil Dead films: it's made by a guy who isn't afraid to let his warring sensibilities go up on display in a single film. ", "is_fresh": 1, "author": ["Brian Collins"]},
{"text": "At what point does gleeful cynicism become so gleeful that it ceases to function as cynicism at all, and mutates into a blatant formalist trope of little emotional or intellectual resonance, but plenty of aesthetic...what's the word? Bliss?", "is_fresh": 1, "author": ["Glenn Kenny"]},
{"text": "If you're looking for a good contemporary scary movie to watch, avoid this one.", "is_fresh": 0, "author": ["Candice Frederick"]},
{"text": "Drag Me To Hell is great fun in a Haunted Mansion kind of way, a spook-house designed to make you jump with fright and squirm with tension.", "is_fresh": 1, "author": ["Giovanni Fazio"]},
{"text": "A bit gross, a bit silly, and entirely entertaining.", "is_fresh": 1, "author": ["Scott Weinberg"]},
{"text": "A fun, frightening blend of terrified screams and disgusted, gut-wrench laughter that aims to recapture the genre-bending spirit of Raimi's pre-Spider-Man cult favorites like Evil Dead II.", "is_fresh": 1, "author": ["Christopher Monfette"]},
{"text": "Drag Me to Hell is a lark fitting snugly between the Saw flicks and silliness like Shaun of the Dead, making the gasps and laughter feel like something earned through ingenuity. Welcome back, Mr. Raimi. We've been lurking for you.", "is_fresh": 1, "author": ["Steve Persall"]},
{"text": "It's gleefully gruesome, dead funny and hella entertaining.", "is_fresh": 1, "author": ["Andrew Hedley"]},
{"text": "At times I hated it for pushing my buttons so relentlessly and with such obvious touches, but I can't deny it: I found it entertaining as hell.", "is_fresh": 1, "author": ["Richard Roeper"]},
{"text": "It provides enough scare-jolts to have you squirming in your seat, plus enough laughs to leave you doubled over.", "is_fresh": 1, "author": ["Clint O'Connor"]},
{"text": "It all works. A return to Raimi's roots, a return to atmospheric horror, a return to fun filmmaking. It's probably the most fun I've had sitting in a darkened theater all year.", "is_fresh": 1, "author": ["Scott Beggs"]},
{"text": "Hell is scary, but also wonderfully wacky.", "is_fresh": 1, "author": ["Leah Rozen"]},
{"text": "It often feels like a nostalgic exercise for Raimi, a blood-spattered deep knee bend between Spiderman sequels.", "is_fresh": 1, "author": ["Daniel Barnes"]},
{"text": "Shamelessly resurrecting ancient horror standbys -- not just curses; seers and s\u00e9ances, too -- Raimi clearly enjoys being allowed to return to the unruly instincts of his Evil Dead trilog", "is_fresh": 1, "author": ["Mike McCahill"]},
{"text": "I would even say that if I liked this kind of film I would almost certainly like this one. It has a knowing, B-movie, schlock sensibility, pushes all the right, diabolical buttons and is also quite funny.", "is_fresh": 1, "author": ["Deborah Ross"]},
{"text": "Drag Me To Hell offers lots of screams, gross-outs and laughs, often at the same time and always without one response ruining the other. That's a Sam Raimi trademark, developed in the first two Evil Dead movies and still fresh two decades later.", "is_fresh": 1, "author": ["Andrew Dowler"]},
{"text": "A frenetic, gross and darkly slapstick trip into Hell. Fans of Army Of Darkness era Raimi will love this.", "is_fresh": 1, "author": ["Lee Medcalf"]},
{"text": "Taking a break from directing Spider-Man blockbusters, Sam Raimi has come home to the gloriously tasteless, lowish-budget horror comedy he pioneered in The Evil Dead trilogy.", "is_fresh": 1, "author": ["Nicholas Barber"]},
{"text": "O, joy, a horror flick that's smart and funny, as well as cringeworthy for all the right reasons. And up to speed on the mortgage crisis too.", "is_fresh": 1, "author": ["Joe Morgenstern"]},
{"text": "Spider-Man director Sam Raimi returns to his Evil Dead roots in this yucky, energetic and consistently entertaining fright movie.", "is_fresh": 1, "author": ["Jamie Russell"]},
{"text": "The aptly titled Drag Me to Hell celebrates Sam Raimi's triumphant return to frightful and cheesy horror films that elicit as many nervous laughs as cringing shudders.", "is_fresh": 1, "author": ["Dann Gire"]},
{"text": "Drag's a brief, blunt and utterly brilliant blast of humor, terror and wicked satire; a trifle that feels like triumph, a dashed-off flick that blows doors off big-budget competition, and is about as much fun as you can have at the multiplex.", "is_fresh": 1, "author": ["Corey Hall"]},
{"text": "The legitimately pleasing touches of absurdity just aren't worth the struggle it takes to make it through long stretches of apathetic moviemaking.", "is_fresh": 0, "author": ["Chris Stamm"]},
{"text": "Playful and relentlessly scary.", "is_fresh": 1, "author": ["Bruce Diones"]},
{"text": "Leave it to Sam Raimi to breathe some new life into the genre most closely associated with lame sequels and lifeless remakes.", "is_fresh": 1, "author": ["Jason Buchanan"]},
{"text": "After a certain point, the movie becomes our own cinematic damnation from which there is no escape.", "is_fresh": 0, "author": ["David Keyes"]},
{"text": "In retrospect, I don't remember much about this film other than the gutpunch of the last scene ... but my, what a gutpunch it is.", "is_fresh": 1, "author": ["Will Leitch"]},
{"text": "This is horror directed with a light touch but delivered like a hammer blow to the head.", "is_fresh": 1, "author": ["Ali Gray"]},
{"text": "Drag Me to Hell is plenty frightening and the effects pass the gross-out test two times over. But this screenplay includes some signature comedic moments that play with the genre and its tired cliches to create something much more interesting.", "is_fresh": 1, "author": ["Kim Brown"]},
{"text": "Drag Me to Hell's PG-13 rating holds [Raimi] back from the all-out, blood-spraying gonzo insanity he reached with Evil Dead, but he still gets away with a surprising amount of gross-out gags.", "is_fresh": 1, "author": ["Alex Sandell"]},
{"text": "There's a necessary coldness at its heart, and I'm honestly unsure whether it's a plus or a minus. I'm convinced, however, that this big inner chill is part of the reason why it's still creeping me out just a bit.", "is_fresh": 1, "author": ["Bob Westal"]},
{"text": "Raimi's return to Evil Dead territory is proof that, respectability be damned, he can still whip up a slapstick splatterfest -- albeit a PG-13 one -- when the mood strikes.", "is_fresh": 1, "author": ["David Fear"]},
{"text": "It could do with some more insanity. That's usually the only time it really feels alive. As it is only about half of Drag Me to Hell really hits that levels, but that's a lot more than we normally get.", "is_fresh": 1, "author": ["Joshua Starnes"]},
{"text": "When a film makes me smile this much (you can't see, but it's a big smile), for this long (about a week) you know it's a great one.", "is_fresh": 1, "author": ["Mike Edwards"]},
{"text": "Director Sam Raimi returns to his Evil Dead roots for this tongue-in-cheek gorefest -- one part spooky chiller, one part campy chuckler.", "is_fresh": 1, "author": ["Tyler Hanley"]},
{"text": "Drag Me To Hell is a genre-buster; one of the funniest and most satisfying films of 2009, and quite simply a perfect horror film. It also has possibly the greatest final-reel shock since Carrie.", "is_fresh": 1, "author": ["Simon Miraudo"]},
{"text": "Raimi took the horror/comedy by the scruff of the neck in 1981 with his no-budget, roller-coaster of a possession film Evil Dead...and he brings his big bag of tricks to his much-anticipated return to horror, Drag Me To Hell. ", "is_fresh": 1, "author": ["Simon Foster"]},
{"text": "Raimi should go slumming more often.", "is_fresh": 1, "author": ["Dana Stevens"]},
{"text": "While few are going to accuse it of breaking new narrative ground, it proves one of the most satisfying horror films of recent years.", "is_fresh": 1, "author": []},
{"text": "Sam Raimi returns to his horror roots in the unrelenting and cheerfully macabre spook tale. ", "is_fresh": 1, "author": ["Matthew Pejkovic"]},
{"text": "Raimi mastered the art of the screeching, zombie hag in The Evil Dead, and 28 years and three Spider-Mans later, he's still got it.", "is_fresh": 1, "author": ["Steve Newton"]},
{"text": "Drag Me To Hell is the thrill ride Sam Raimi should be making year-on-year, not another cash cow hapless Spider-Man film.", "is_fresh": 1, "author": ["Sam Bathe"]},
{"text": "Contemporary economic crisis provides interesting backdrop to otherwise simple and rather predictable horror movie plot.", "is_fresh": 1, "author": ["Dragan Antulov"]},
{"text": "Thrilling, in ways both expected and less so, as prone to provoking giggles as it is gasps.", "is_fresh": 1, "author": ["William Goss"]},
{"text": "Raimi embraces hoary clich\u00e9s like Gypsy curses and gateways to Hades in this cautionary tale for financial professionals.", "is_fresh": 1, "author": ["Betsy Sherman"]},
{"text": "The dichotomies director Sam Raimi presents within that familiar genre are what make this such a kick.", "is_fresh": 1, "author": ["Christy Lemire"]},
{"text": "This certainly qualifies as an auteurist work, but I prefer my Sam Raimi diluted.", "is_fresh": 0, "author": ["Josh Larsen"]},
{"text": "While it has the energy and the endless cinematic invention of his early work, the film's command of economical storytelling is something that once eluded Raimi.", "is_fresh": 1, "author": ["Brian Holcomb"]},
{"text": "This rollercoaster horror film is like an EC horror comic of the 1950s come to life, an unforgiving morality tale with playfully gruesome twists and a doozy of a gallows humor.", "is_fresh": 1, "author": ["Sean Axmaker"]},
{"text": "Raimi puts his pent-up energy to good use in Drag Me to Hell, an unpretentious horror hoot that's scary and funny in equal measure. [Blu-ray]", "is_fresh": 1, "author": ["Peter Canavese"]},
{"text": "Loved the ending, but very little suspense or horror along the way. A tired, conventional plot. Paul Chambers, CNN.", "is_fresh": 0, "author": ["Paul Chambers"]},
{"text": "click to read the full review", "is_fresh": 1, "author": ["Joseph Proimakis"]},
{"text": "Raimi announces off the bat that a decade and change of toiling in mainstream studio projects has not killed the enfant terrible.", "is_fresh": 1, "author": ["Michael Dequina"]},
{"text": "Sam Raimi revels in blurring the line between horror and comedy with gleeful disregard for the emotional well-being of his audience", "is_fresh": 1, "author": ["Sonny Bunch"]},
{"text": "The tone of escalating ghoulish farce is beautifully sustained", "is_fresh": 1, "author": ["Fernando F. Croce"]},
{"text": "Beneficiado por um desfecho que, mesmo tremendamente previs\u00edvel, \u00e9 eficaz e impactante... e como \u00e9 bom ver Sam Raimi voltando a abra\u00e7ar suas ra\u00edzes depois do fraqu\u00edssimo O Homem-Aranha 3.", "is_fresh": 1, "author": ["Pablo Villa\u00e7a"]},
{"text": "A rollicking white-knuckle ride through the classics elements that make a horror film, done well, such an enjoyable experience.", "is_fresh": 1, "author": ["Cris Kennedy"]},
{"text": "Raimi doesn't merely pull out all the stops in his new horror film.... He pulls them out, purees them, stews the pulp in phlegm and vomit, pours us a nice bowlful and then throws it right in our faces. I mean that in the nicest possible way.", "is_fresh": 1, "author": ["Andy Klein"]},
{"text": "Not only is it genuinely scary, it's also outrageously funny. And for once, it's intentional.", "is_fresh": 1, "author": ["Anders Wotzke"]},
{"text": "It's like watching a slide down a slippery slope with big, sharp spikes at the bottom. For horror fans -- irresistible.", "is_fresh": 1, "author": ["Jason Di Rosso"]},
{"text": "Drag Me To Hell is the most fun you'll have being scared for a long time. Nice to see you back, Sam.", "is_fresh": 1, "author": ["Anthony O'Connor"]},
{"text": "As its shameless, tell-all, schlock title signals, Drag Me to Hell is great fun that goes light on gore in favour of inventive freak-outs.", "is_fresh": 1, "author": ["Jim Schembri"]},
{"text": "Not great horror, but it's good enough to be going on with.", "is_fresh": 1, "author": ["Paul Byrnes"]},
{"text": "I'm not sure I'd call it classic Raimi horror, because I think his very first films, the Evil Dead films, were quite a lot better than this. I just didn't really think it worked on the visceral horror level that he does so well at his best.", "is_fresh": 0, "author": ["David Stratton"]},
{"text": "This is classic Raimi horror, it will appeal to fans, others will most probably run from the theatre.", "is_fresh": 1, "author": ["Margaret Pomeranz"]},
{"text": "Wit, invention and shrewdly earned shocks abound in Drag Me to Hell. This burst blood-vessel of B-movie brilliance makes Raimi's rivals look like the corpse-grinding charlatans they truly are.", "is_fresh": 1, "author": ["Leigh Paatsch"]},
{"text": "Director Sam Raimi returns to his roots, and fans of his controlled style of horror, where less is often more, should be grateful.", "is_fresh": 1, "author": ["Des Partridge"]},
{"text": "Drag Me to Hell isn't a classic by any means, but feels like a palate cleanser before the next big project - and anything that washes the taste of Spider-man 3 out of Raimi's mouth can only be a good thing.", "is_fresh": 1, "author": []},
{"text": "[Sam] Raimi returns to the horror game with a film boasting a satisfying originality -- a device too often missing from the horror-film toolbox -- and wicked, depraved wit.", "is_fresh": 1, "author": ["Mike Scott"]},
{"text": "I really can't recommend it. Despite the fact that I support the idea of comedy horror, I do generally ask that it contain at the very least either comedy or horror.", "is_fresh": 0, "author": ["Karina Montgomery"]},
{"text": "One of the finer horror movies released this year...", "is_fresh": 1, "author": ["Felix Vasquez Jr."]},
{"text": "Things fall apart somewhat in the predictable finale, but Raimi shows he hasn't forgotten how much fun it is to get scared to death.", "is_fresh": 1, "author": ["Sean P. Means"]},
{"text": "A gooey, frenetic, raucous and mind-meltingly clever delight. This fabulously compact little morality tale is the most fun you'll ever have analyzing our economic collapse.", "is_fresh": 1, "author": ["Brian Juergens"]},
{"text": "Proves Raimi still knows how to crawl under an audience's skin.", "is_fresh": 1, "author": ["Sean O'Connell"]},
{"text": "Raimi can do more with a set of false teeth and a compelling, if deeply flawed, heroine that most horror hacks can with enough fake blood to flood the Great Basin.", "is_fresh": 1, "author": ["Dan Lybarger"]},
{"text": "The Rolling Stones album 'Let It Bleed' advised: THIS RECORD SHOULD BE PLAYED LOUD. Prints of this film must be stamped with a similar order: Tension is created by ear-smashing NOISE, to create a hell-on-earth feeling of temporary insanity in the viewer.", "is_fresh": 1, "author": ["John Beifuss"]},
{"text": "Stands as the latest in a line of occasional, much-needed reminders that the horror genre isn't going completely downhill anytime soon.", "is_fresh": 1, "author": ["Rob Humanick"]},
{"text": "Raimi's got skills. He has humor. He makes great use of Alison Lohman.", "is_fresh": 1, "author": ["David Poland"]},
{"text": "Serious about its scare factor, but allows us to laugh at our own reactions to Raimi's often frightening, always entertaining images.", "is_fresh": 1, "author": ["Bruce Bennett"]},
{"text": "Drag Me To Hell is low-blow foolishness, but you can't really hate a movie too much that has floating handkerchiefs, flinging dentures, killer staplers and talking goats.", "is_fresh": 1, "author": ["Clay Cane"]},
{"text": "What is nice about this film is it is different from most of the horror films being made currently. What is disappointing is that it is not enough different from some of the classics of the horror genre.", "is_fresh": 1, "author": ["Mark R. Leeper"]},
{"text": "Drag Me to Hell is a sometimes funny and often startling horror movie. That is what it wants to be, and that is what it is.", "is_fresh": 1, "author": ["Roger Ebert"]},
{"text": "'You have staples in your head!' Alison screams at her. 'All the better to collate my thoughts!' sneers the old crone.", "is_fresh": 1, "author": ["Mark Ramsey"]},
{"text": "While it's fun to see Raimi goofing around with horror again, it's nothing to get overly excited about.", "is_fresh": 1, "author": ["Bob Grimm"]},
{"text": "Drag Me to Hell can't quite live up to the Evil Dead movies, mostly because it never finds a consistent tone. Not to mention, its background mythology is both totally ridiculous and almost impossible to understand.", "is_fresh": 0, "author": ["Stephen Silver"]},
{"text": "Built on a love of old movies, on the special camaraderie that exists when you're sitting there in the dark, screaming and laughing with a bunch of strangers.", "is_fresh": 1, "author": ["Michael W. Phillips, Jr."]},
{"text": "A solid horror movie that features such big laughs, you come away wishing that most comedies were consistently as funny and as bright.", "is_fresh": 1, "author": ["Christopher Smith"]},
{"text": "Funny, but not as funny as Raimi's earlier horror films were.", "is_fresh": 1, "author": ["Robert Roten"]},
{"text": "Seethes with atmosphere and characters that echo the hallmarks of Universal horror.", "is_fresh": 1, "author": ["John Wirt"]},
{"text": "Drag Me To Hell isn't a perfect movie, but it may be a perfect moviegoing experience.", "is_fresh": 1, "author": ["Devin Faraci"]},
{"text": "...walks a narrow path between campiness, sincerity, and sudden bursts of shock and 'aaaah'!", "is_fresh": 1, "author": ["Eric Melin"]},
{"text": "Even if Drag Me to Hell isn't particularly scary, even if it idly disregards its potential, it's been a long time since a horror movie of such obvious wit and loving theatrics hit American theaters.", "is_fresh": 1, "author": ["Jeffrey Bloomer"]},
{"text": "A rickety, old-fashioned scare picture made by a man who proved many years ago that he has nothing left to prove in the horror genre.", "is_fresh": 1, "author": ["Tim Brayton"]},
{"text": "Not a movie likely to be enjoyed by cat lovers...", "is_fresh": 1, "author": ["Sean Burns"]},
{"text": "There's something fundamentally disappointing about watching Raimi use his considerable resources to just make more wonderful scat.", "is_fresh": 0, "author": ["Simon Abrams"]},
{"text": "Think of this as Night of the Demon on amphetamines as reimagined by the Three Stooges.", "is_fresh": 1, "author": ["Ken Hanke"]},
{"text": "good, malicious fun that revels in its own absurdity, lack of lofty ambitions, and determination to drag you down with it", "is_fresh": 1, "author": ["James Kendrick"]},
{"text": "Exorcist-like hokey supernatural thriller.", "is_fresh": 1, "author": ["Dennis Schwartz"]},
{"text": "A bold, brash, unsubtle bogey tale full of buzzing hell-flies, repellenet effluvia and black-and-white moral lessons: One step off the path of virtue and everyone knows where you're going, missy.", "is_fresh": 1, "author": ["Maitland McDonagh"]},
{"text": "A visceral horror movie of the kind that established his reputation.", "is_fresh": 1, "author": ["Philip French"]},
{"text": "Campy, funny and scary but the ending is a let down.", "is_fresh": 0, "author": ["Jackie K. Cooper"]},
{"text": "Truly, this is manna from hell.", "is_fresh": 1, "author": ["David Edelstein"]},
{"text": "This grosses you out but it also makes you laugh at how crazy it is.", "is_fresh": 1, "author": ["Ben Lyons"]},
{"text": "It would be tempting to call Sam Raimi's Drag Me to Hell a budding cult classic, except its profitability and popularity may eclipse cult status.", "is_fresh": 1, "author": ["Ben Mankiewicz"]},
{"text": "Audience eyefuls of home invasion cross-generational geriatric female mud wrestling, a homicidal button, and sucking lots of involuntary face. And if the movie makes any impression on banks to stop foreclosing or else, that's good enough.", "is_fresh": 1, "author": ["Prairie Miller"]},
{"text": "has re-animated every trope with a dazzling vibrancy that pays homage to the classics while still being acutely contemporary, thematically timeless, and absolutely terrifying", "is_fresh": 1, "author": ["Andrea Chase"]},
{"text": "A spine-tingling adventure guaranteed to elicit blood-curdling screams and to make you jump out of your seat when you least expect it.", "is_fresh": 1, "author": ["Kam Williams"]},
{"text": "Isn't as inspired, or as gory, as the best of Evil Dead, but it's still good senseless fun.", "is_fresh": 1, "author": ["Geoff Berkshire"]},
{"text": "Gleefully goosing the juice on this ride, Sam Raimi delivers his best film in more than a decade. The brothers Grimm would take pride in this cautionary fable flooded with formaldehyde, flies and more funky-denture action than seemingly possible.", "is_fresh": 1, "author": ["Nick Rogers"]},
{"text": "The movie is manic and gross, all right, but not much fun unless you enjoy watching an attractive 29-year-old woman getting punished repulsively over and over.", "is_fresh": 0, "author": ["Rob Gonsalves"]},
{"text": "Sam Raimi had me at the ticked-off talking goat, but he gave me so much more.", "is_fresh": 1, "author": ["Gina Carbone"]},
{"text": "I don't think Raimi's intent in his latest film is to scare the hell out of you but rather to give you a fun ride and Drag Me to Hell delivers exactly that.", "is_fresh": 1, "author": ["Beth Accomando"]},
{"text": "The evil is back. The Oldsmobile is back. Horror director Sam Raimi is back. What's not to love?", "is_fresh": 1, "author": ["Kevin A. Ranson"]},
{"text": "'Drag Me to Hell' scared the daylights out of me. That is, when I wasn't laughing at the dark humor that only Sam Raimi can concoct.", "is_fresh": 1, "author": ["Linda Cook"]},
{"text": "Director Sam Raimi reconfirms his evil cred.", "is_fresh": 1, "author": ["Kurt Loder"]},
{"text": "[Director Sam Raimi's return to the horror genre is] a bit like a reunion tour by an aging rock band running through a medley of their hits: it's fun to see their routine again, but the magic is gone.", "is_fresh": 0, "author": ["Steve Biodrowski"]},
{"text": "Raimi with the precision of a surgeon pulls all the right strings. He effectively uses sound effects first and then follows up with scary nightmarish visuals. Being a devoted fan of The Three Stooges growing up, Raimi has an appreciation for comedy to rel", "is_fresh": 1, "author": ["Keith Cohen"]},
{"text": "...truly a screamingly giddy piece of entertainment.", "is_fresh": 1, "author": ["JimmyO"]},
{"text": "Drag Me to Hell? More like sauntering through purgatory.", "is_fresh": 0, "author": ["Christian Toto"]},
{"text": "Sam Raimi's return to directing a horror film is everything you could have asked for and more.", "is_fresh": 1, "author": ["Rebecca Murray"]},
{"text": "Watch Sam Raimi get his horror groove back.", "is_fresh": 1, "author": ["Kit Bowen"]},
{"text": "Raimi knows that we know the usual rhythms for these things, and he deliberately plays with them, holding a scary note for an extra long time, or waiting an extra beat before cutting loose.", "is_fresh": 1, "author": ["Jeffrey M. Anderson"]},
{"text": "Don't think of Drag Me to Hell as a grisly horror flick. Instead, realize that it is the most hilarious movie of 2009.", "is_fresh": 1, "author": ["Kevin Carr"]},
{"text": "If The Exorcist were re-imagined by Bugs Bunny, this is what you'd get. Drag Me to Hell is a head trip for the ages.", "is_fresh": 1, "author": ["Mike McGranaghan"]},
{"text": "The biggest howls involve the delicate heroine helplessly ingesting or inhaling bugs, worms, and bile--physical equivalents of her destructive emotions--and Raimi ends the story with the sort of black punch line that's become his signature.", "is_fresh": 1, "author": ["J. R. Jones"]},
{"text": "Yeah, Drag Me to Hell is schlock cinema. But it's schlock cinema with a Ph.D.", "is_fresh": 1, "author": ["Robert W. Butler"]},
{"text": "Welcome back, Sam Raimi.", "is_fresh": 1, "author": ["Jim Slotek"]},
{"text": "Raimi's Drag Me to Hell does everything we want a horror film to do: It is fearsomely scary, wickedly funny and diabolically gross, three stomach-churning states that argue for taking a pass on the $10 box of popcorn.", "is_fresh": 1, "author": ["Betsy Sharkey"]},
{"text": "Drag Me to Hell is pure cheese. Goat cheese.", "is_fresh": 0, "author": ["Kyle Smith"]},
{"text": "Drag Me to Hell shows him (director Sam Raimi) back confidently where he belongs, displaying his trademark brio and invention.", "is_fresh": 1, "author": ["Richard Mowe"]},
{"text": "A funhouse freak show that's more interested in delivering old-fashioned chills than in wallowing in misogyny, masochism and mutilation.", "is_fresh": 1, "author": ["Matt Brunson"]},
{"text": "Raimi as a filmmaker is clearly having more fun than he's had in years. So will his fans.", "is_fresh": 1, "author": ["Mike Russell"]},
{"text": "This movie is a brazen shot of attitudinal viscera pumped directly into the audience's vein as if it were heroin, the film as nasty a scare tactic as any likely to see domestic 2009 theatrical release.", "is_fresh": 1, "author": ["Sara Michelle Fetters"]},
{"text": "A diabolically funny, creepy and thrilling crowd-pleaser, as long as you're willing to check your brain at the door and suspend your disbelief. It's the ultimate midnight-movie experience that should to be watched with a large movie theater crowd.", "is_fresh": 1, "author": ["Avi Offer"]},
{"text": "The looseness Raimi allows himself here results in an especially joyous kind of filmmaking, the sort where the filmmaker's delight in scaring us (and making us laugh) becomes part of the movie's fabric.", "is_fresh": 1, "author": ["Stephanie Zacharek"]},
{"text": "Sam Raimi is back in close to prime form with this week's thoroughly enjoyable Drag Me To Hell, a horror thrill ride almost certain to satisfy any audience member willing to choose a movie with \"Hell\" in the title over the latest Pixar offering.", "is_fresh": 1, "author": ["Brian Tallerico"]},
{"text": "Is it as hilarious as the Evil Deads? Almost.", "is_fresh": 1, "author": ["Amy Biancolli"]},
{"text": "One of the best horror films to be seen in many years.", "is_fresh": 1, "author": ["Pete Hammond"]},
{"text": "Immerses you into a heroine's nightmare, tinged with humor and a threatening blast furnace that could be the gateway to a warm afterlife.\"", "is_fresh": 1, "author": ["Jules Brenner"]},
{"text": "It's the work of a filmmaker once again drunk on the daffy possibilities of horror filmmaking -- and determined to share that joy with his fans.", "is_fresh": 1, "author": ["Christopher Kelly"]},
{"text": "Inspired by the tone of B-movie scare epics of the '50s, they've made a slick, mostly predictable homage-pastiche that itself rates about a B-.", "is_fresh": 1, "author": ["Richard Corliss"]},
{"text": "It's good, clean, bile-soaked fun.", "is_fresh": 1, "author": ["Chris Hewitt (St. Paul)"]},
{"text": "This is a movie that will have you scream, laugh and squirm...", "is_fresh": 1, "author": ["Daniel M. Kimmel"]},
{"text": "Apart from the evocative title, which is a great nod to '50s drive-in fare, the film is as predictable as a meal beneath the golden arches.", "is_fresh": 0, "author": ["Peter Howell"]},
{"text": "Christine's monstrosity is hardly so daunting as that of the evil spirit stalking her, but it's of a piece with Drag Me to Hell's mostly vague cultural critique.", "is_fresh": 1, "author": ["Cynthia Fuchs"]},
{"text": "A movie that is campy, frightening and one of the most memorable of the summer because it is so different from everything else", "is_fresh": 1, "author": ["Willie Waffle"]},
{"text": "It's creepy and gory, not to mention theologically suspect, and will give all but the most stalwart horror fans an unshakable case of the screaming meemees.", "is_fresh": 1, "author": ["Annie Young Frisbie"]},
{"text": "Drag Me to Hell is simultaneously gritty and goofy, brightly coloured and down-to-earth.", "is_fresh": 1, "author": ["Charlotte O'Sullivan"]},
{"text": "Parental Content Review", "is_fresh": 1, "author": ["Jim Judy"]},
{"text": "For sheer visceral jump-out-of-your-seat thrills, you can't get any better than this.", "is_fresh": 1, "author": ["Grant Lauchlan"]},
{"text": "A gross-out fright movie.", "is_fresh": 1, "author": ["Nigel Floyd"]},
{"text": "... Has some fun with its premise and characters.", "is_fresh": 1, "author": ["Greg Maki"]},
{"text": "Drag Me to Hell has everything you want in a horror film...Welcome back to the land of the dead, Sam Raimi. You've been away too long.", "is_fresh": 1, "author": ["Marshall Fine"]},
{"text": "How do you craft a horror film to perfection? Just add Sam Raimi to the mix to get the perfect brew of blood, sacrifices and a gypsy curse while leaving viewers dying for more.", "is_fresh": 1, "author": ["Jolene Mendez"]},
{"text": "When I walked out of the theater, the publicist asked me if I was the little girl screaming in the front row and I answered honestly with; 'Yes.'", "is_fresh": 1, "author": ["Kevin McCarthy"]},
{"text": "A movie that is slickly accomplished in its own dark arts, and one that never once resorts to the recent nihilistic faddishness for torture-porn. It will be a huge hit. The re-invention of horror begins here.", "is_fresh": 1, "author": ["Kevin Maher"]},
{"text": "Raimi is a master at maintaining a particular type of cinematic tone: scary without being unwatchable, and revolting without losing wit.", "is_fresh": 1, "author": ["Andrew Pulver"]},
{"text": "Raimi's return to the splatter genre is absolutely, unrelentingly mental. Terrifying in places, screamingly stupid in others, it's a riot from OTT start to ADHD finish.", "is_fresh": 1, "author": ["Matt Glasby"]},
{"text": "The superb Drag Me To Hell deserves to be seen on a large screen with a sizeable crowd. Much like a theme park rollercoaster ride, the synchronised gasping, screaming and relieved bursts of laughter can only enhance the experience.", "is_fresh": 1, "author": ["Ben Rawson-Jones"]},
{"text": "Raimi keeps the gore flowing - Evil Dead fans will cheer a moment of eyeball zaniness and a s\u00e9ance that features a levitating demon- but what separates him from grunge meisters Rob Zombie and Eli Roth are the subtler flourishes.", "is_fresh": 1, "author": ["Rob Daniel"]},
{"text": "Gaudy, ghoulish, this particular creepshow plugs into the EC Comics of the '50s, laughing uproariously in the face of death. Forgettable, but groovy while it lasts.", "is_fresh": 1, "author": ["Jamie Graham"]},
{"text": "At a time when horror is defined by limp Japanese retreads or punishing exercises in pure sadism, Drag Me to Hell has a tonic playfulness that's unabashedly retro, an indulgent return to Mr. Raimi's goofy, gooey roots.", "is_fresh": 1, "author": ["Jeannette Catsoulis"]},
{"text": "This hellaciously effective B-movie comes with a handy moral tucked inside its scares, laughs and Raimi's specialty, the scare/laugh hybrid. Moral: Be nice to people.", "is_fresh": 1, "author": ["Michael Phillips"]},
{"text": "Sam Raimi's financial services horror is an energetic return to his roots.", "is_fresh": 1, "author": ["Michael Dwyer"]},
{"text": "Drag Me To Hell is never less than trashy, adrenalised fun.", "is_fresh": 1, "author": ["Damon Wise"]},
{"text": "Drag Me To Hell is the greatest horror film of the decade and is a must see for scare fans. Gore-geous!", "is_fresh": 1, "author": ["Simon Thompson"]},
{"text": "Bad taste? Undoubtedly. And the slim storyline only just sustains itself to feature length. But if you're in the mood for this kind of impishness, it's extremely jolly entertainment.", "is_fresh": 1, "author": ["Christopher Tookey"]},
{"text": "Drag Me To Hell really is an unmissable experience, the sort of film that those with nerves of steel will want to see again and again. Scary, electrifying and very, very funny, you won't know whether to laugh or barf.", "is_fresh": 1, "author": ["David Edwards"]},
{"text": "The great thing about Drag Me To Hell is that it is laugh-out-loud funny as well as scream-out-loud scary... and as one who has a hard time with horror movies, I must say it is darn entertaining.", "is_fresh": 1, "author": ["Mark Adams"]},
{"text": "You will curse yourself if you miss this horror classic.", "is_fresh": 1, "author": ["The Sneak"]},
{"text": "Hokum and trash, but very entertaining hokum and a classy kind of trash.", "is_fresh": 1, "author": ["Karl French"]},
{"text": "Cheap, nasty and rather magnificent.", "is_fresh": 1, "author": ["Anthony Quinn"]},
{"text": "Drag Me To Hell is surprisingly conventional fare that feels like an old Twilight Zone episode buffed up with lashings of bad taste for a new generation.", "is_fresh": 1, "author": ["Allan Hunter"]},
{"text": "Maybe not one for all the family but this fairground ghost train will drag you to Hell kicking and screaming - with laughter.", "is_fresh": 1, "author": ["Larushka Ivan-Zadeh"]},
{"text": "It's outrageously dark and twisted in the most delightful ways, a frenetic funhouse of terrors that causes almost as much laughter as pants-wetting.", "is_fresh": 1, "author": ["Eric D. Snider"]},
{"text": "Drag Me To Hell proves it's possible to satiate gorehounds and scare them and make them laugh. It's a descent into the underworld that, for once, is worth taking.", "is_fresh": 1, "author": ["Alistair Harkness"]},
{"text": "Resistance and rebellion to the studio routine resounds throughout Drag Me to Hell, and as a return to the filmmaker's original witty shocks and gross-outs, how goddamn touching it is.", "is_fresh": 1, "author": ["Matthew Sorrento"]},
{"text": "Drag Me To Hell is a startler, and yet one doesn't get irritated by the jump-ups. They pay off and are as well planned as anything else in the film. So much in Drag Me to Hell depends on atmospherics, makeup and orchestral music.", "is_fresh": 1, "author": ["Richard von Busack"]},
{"text": "Hell seems like a less stressful environment compared to some of the stuff on screen.", "is_fresh": 1, "author": ["Dave White"]},
{"text": "A joyous return to Raimi's horror-schlockmeister origins, the film is a timely and inspired horror parody and gross-out comedy about a bank loan officer with an evil spell on her.", "is_fresh": 1, "author": ["James Verniere"]},
{"text": "One of the most unashamedly fun mainstream horror flicks of recent memory.", "is_fresh": 1, "author": ["Matt McAllister"]},
{"text": "Despite certain events being obvious there are still some genuine shocks and scares to be found as well as quite a few laughs.", "is_fresh": 1, "author": ["Scott Nash"]},
{"text": "Drag Me to Hell is the best thing Sam Raimi has done since the Evil Dead films.", "is_fresh": 1, "author": ["Thomas Caldwell"]},
{"text": "If Raimi had a rubber skeleton he could launch into the audience, he probably would.", "is_fresh": 1, "author": ["David Cornelius"]},
{"text": "The plot is pretty silly, but Raimi films are always more about the tour-de-force sequences than the story.", "is_fresh": 1, "author": ["Christopher Long"]},
{"text": "Raimi going back to his roots, showing that he hasn't forgotten how to exercise his wickedly mischievous side to put on a hell of a show.", "is_fresh": 1, "author": ["Jeffrey Chen"]},
{"text": "A combination of silly humor, startling scares and gags (in every sense of the world) that are simultaneously so goofy and gruesome that you won't know whether to laugh or barf. Trust me, in a film of this type, that kind of comment is high praise indeed.", "is_fresh": 1, "author": ["Peter Sobczynski"]},
{"text": "Sam Raimi returns to the format that put him on the map with Drag Me to Hell - and you won't be disappointed.", "is_fresh": 1, "author": ["Vic Holtreman"]},
{"text": "The first horror flick of the mortgage crisis, this is great pulp and Lohman is game for everything.", "is_fresh": 1, "author": ["Amy Nicholson"]},
{"text": "Raimi's fans will no doubt be pleased that he's whipping out the greatest hits. But just the same, it's the greatest hits package equivalent to Peter Gabriel's best-of album not including In Your Eyes.", "is_fresh": 0, "author": ["Erik Childress"]},
{"text": "It's hard to know where to start with what the film does right, since almost everything in the movie is horrortastic.", "is_fresh": 1, "author": ["Matthew Razak"]},
{"text": "Raimi always keeps some part of his tongue firmly planted in his cheek. He wants you to laugh as often as he wants you to scream, and he succeeds in equal measure with both.", "is_fresh": 1, "author": ["Brandon Fibbs"]},
{"text": "...ultimately stands as a refreshing alternative to the myriad of Asian-horror remakes that have been flooding the marketplace as of late.", "is_fresh": 1, "author": ["David Nusair"]},
{"text": "There's no truth in the title. Drag Me to Hell is horror-movie heaven.", "is_fresh": 1, "author": ["Peter Travers"]},
{"text": "[The characters are] so innocuous, and they're played with so little verve, that you don't feel a strong identification when their lives are wrecked.", "is_fresh": 0, "author": ["John Hartl"]},
{"text": "As in the best horror movies, Drag Me to Hell keeps the audience on the edge of hysteria throughout, so that every thump sets the heart racing and every joke earns a slightly out-of-control laugh.", "is_fresh": 1, "author": ["Dan Kois"]},
{"text": "Drag Me to Hell proves two important points about the horror genre: A horror movie can be rated PG-13 and still be scary, and a horror film can be every bit as fun as the big and loud, supposed 'popcorn' movies.", "is_fresh": 1, "author": ["Jeff Vice"]},
{"text": "Drag Me To Hell is quick and lowdown-delightful. It's also a graveyard or two up in class from the torture films that, in recent years, have redefined horror for the worse.", "is_fresh": 1, "author": ["Michael Sragow"]},
{"text": "Behind the camera and in complete control, Sam Raimi comes to Drag Me to Hell with eyes ablaze, taking his genuine love for horror and bestowing it upon the audience like a gift.", "is_fresh": 1, "author": ["Katey Rich"]},
{"text": "...Raimi returns to his roots with a vengeance, giving his gypsy curse/exorcism horror the kind of over-the-top, almost operatic feel that hasn't graced genre screens in decades.", "is_fresh": 1, "author": ["Laura Clifford"]},
{"text": "If all you want are shocks and bumps and screams and laughs and a couple of they-did-NOT-just-show-that jawdroppers -- then Drag Me To Hell is definitely the funhouse ride for you.", "is_fresh": 1, "author": ["Stephen Whitty"]},
{"text": "Drag Me to Hell is an eyeball-gouging lesson in how to make a genre flick and live to tell about it.", "is_fresh": 1, "author": ["Joe Neumaier"]},
{"text": "The characters are solid, the shocks are grab-your-heart-medicine scary, the story glides from twist to twist with diabolical grace. And it's damned funny.", "is_fresh": 1, "author": ["Colin Covert"]},
{"text": "While you wait patiently for Sam Raimi to make Evil Dead 4, he gives you the next best thing.", "is_fresh": 1, "author": ["Luke Y. Thompson"]},
{"text": "Raimi succeeds at giving literal moviemaking a good name, while providing diabolic catharsis for many a disgruntled homeowner.", "is_fresh": 1, "author": ["Wesley Morris"]},
{"text": "Deliciously scary and wickedly tongue-in-cheek, Drag Me to Hell is devilish fun that cinema lovers of all kinds owe themselves to experience. So entertaining it ought to be a crime.", "is_fresh": 1, "author": ["Dustin Putman"]},
{"text": "it is nice to have Sam Raimi back doing what he does best -- scaring the bejesus out of people.", "is_fresh": 1, "author": ["Bill Gibron"]},
{"text": "With the same twisted humor Raimi displayed in Evil Dead and Army of Darkness, his Drag Me to Hell is wickedly jolly and disturbingly frightening -- often at the same time.", "is_fresh": 1, "author": ["Steven Rea"]},
{"text": "An unconscionably fun chiller that re-discovers the genre's missing secret sauce.", "is_fresh": 1, "author": ["Gary Thompson"]},
{"text": "This is junk filmmaking at its finest.", "is_fresh": 1, "author": ["Scott Tobias"]},
{"text": "Doesn't boast a plot to match its hilariously over-the-top title, but it offers enough scares and chuckles to make for an enjoyably ghoulish cinematic roller-coaster ride.", "is_fresh": 1, "author": ["Frank Swietek"]},
{"text": "An unabashedly schlocky, expertly executed blend of jack-in-the-box jolts and humour.", "is_fresh": 1, "author": ["Liam Lacey"]},
{"text": "The wait for a truly scary movie -- for a rambunctious, slam-bang, all-out, slap-you-sideways horror picture -- is finally over.", "is_fresh": 1, "author": ["Rene Rodriguez"]},
{"text": "Undemanding fun.", "is_fresh": 1, "author": ["Sukhdev Sandhu"]},
{"text": "Drag Me to Hell is unlike any scary thriller in a while: frightening, frenzied and fun.", "is_fresh": 1, "author": ["Claudia Puig"]},
{"text": "Drag Me to Hell never quite hits the psychotronic heights of Evil Dead II, but, in the interim, the director has honed his skills to a razor's edge in the creation of nerve-racking suspense and jarring shocks.", "is_fresh": 1, "author": ["Marc Savlov"]},
{"text": "A near-brilliant comedy disguised as a quickie horror flick, Sam Raimi's Drag Me to Hell is the year's most frightfully hilarious movie so far.", "is_fresh": 1, "author": ["Rafer Guzman"]},
{"text": "A junky but entertaining throwback.", "is_fresh": 1, "author": ["Kevin C. Johnson"]},
{"text": "The 99-minute, eye-popping, bowel-twingeing, possessed-talking-goat extravaganza that follows must be one of the scariest things I've ever seen in the cinema.", "is_fresh": 1, "author": ["Robbie Collin"]},
{"text": "Evil Dead 4? Not quite, but you can see it from here.", "is_fresh": 1, "author": ["Rob Vaux"]},
{"text": "Raimi's made this \"Drag\" a race, designed to chill you, thrill you and give you an excuse to clutch your date's arm with each of the many jolts and jumps it delivers as it twists and turns to the finish line.", "is_fresh": 1, "author": ["James Rocchi"]},
{"text": "Crafted sadism is not held back - it's a movie Satan himself might have made if he'd got the funding. Raimi's story weds modern careerism to pagan demonology. The result is a fright-fest with satirical undertones.", "is_fresh": 1, "author": ["Victor Olliver"]},
{"text": "Parts of it are entertaining, although I'm not convinced they're enjoyable entirely for the reasons intended by the filmmakers.", "is_fresh": 0, "author": ["James Berardinelli"]},
{"text": "The film is so relentlessly fun that we're powerless to resist.", "is_fresh": 1, "author": ["Rich Cline"]},
{"text": "Hugely enjoyable, genuinely scary and frequently hilarious, this is a superbly acted horror flick with terrific special effects that shows director Sam Raimi joyfully returning to his Evil Dead roots.", "is_fresh": 1, "author": ["Matthew Turner"]},
{"text": "Diabolically entertaining.", "is_fresh": 1, "author": ["Michael Rechtshaffen"]},
{"text": "Hell is an efficient, exceptional shocker that serves up bucketfuls of jolts and icks with eye-bulging enthusiasm. It's honestly the best horror film I've seen in ages.", "is_fresh": 1, "author": ["Brian Orndorf"]},
{"text": "Rather than inviting the gag reflex with scenes of severed limbs and graphic torture, Raimi takes a manic, tongue-in-cheek approach to horror that seems to revel in its own absurdity. Needless to say, he's been missed.", "is_fresh": 1, "author": ["Rossiter Drake"]},
{"text": "Sam Raimi does not cheat us. I believe in curses and after Drag Me to Hell, so will you.", "is_fresh": 1, "author": ["Victoria Alexander"]},
{"text": "Schlocky and spooky, it's a disturbing terror thriller with an unusually loud soundtrack.", "is_fresh": 1, "author": ["Susan Granger"]},
{"text": "Going back to his roots, Raimi has made the most crazy, fun, and terrifying horror movie in years.", "is_fresh": 1, "author": ["Owen Gleiberman"]},
{"text": "[Raimi] is challenging the typical ethics of the modern horror story...", "is_fresh": 1, "author": ["MaryAnn Johanson"]},
{"text": "Sam Raimi returns to his Evil Dead roots with this white-knuckle horror flick that has the ability to scare the pants off you one moment then cause the giggles the next.", "is_fresh": 1, "author": ["AskMen.com Staff"]},
{"text": "Going gloriously over the top, Raimi simply aims to make us laugh and scare the pants off us, and he hits the mark on both fronts.", "is_fresh": 1, "author": ["Bill Goodykoontz"]},
{"text": "Thrilling and often hilarious, it's good to see one of Hollywood's most inventive directors fully reinvigorated.", "is_fresh": 1, "author": ["Chris Hewitt (UK)"]},
{"text": "Raimi sure-handedly blends thrills with giggles in this old-fashioned, newfangled, over-the-top hair-raiser.", "is_fresh": 1, "author": ["Roger Moore"]},
{"text": "The true test of any successful horror flick is how wretched it makes you feel. At the very least, it should inspire a banquet of dread or offer a canap\u00e9 of anxiety. After Drag Me to Hell you won't mind walking home alone.", "is_fresh": 0, "author": ["Rex Reed"]},
{"text": "Entertaining enough in its squishy-squirmy way, and the payoff delivers a little jolt of that old time Raimi magic.", "is_fresh": 1, "author": ["Scott Von Doviak"]},
{"text": "An uproariously entertaining piece of lunacy, studded with belly laughs.", "is_fresh": 1, "author": ["Ian Berriman"]},
{"text": "Raimi, ever the engineer, takes pleasure in screwing with audience identification, shifting between collaboration and contempt for our heroine.", "is_fresh": 1, "author": ["Nick Pinkerton"]},
{"text": "Drag Me to Hell more than lives up to the hype surrounding the horror master's return to the genre.", "is_fresh": 1, "author": ["Edward Douglas"]},
{"text": "The freewheeling spirit that infused The Evil Dead is absent here.", "is_fresh": 0, "author": ["Robert Levin"]},
{"text": "Drag Me to Hell composes an underscore of terror that will keep its admirers on edge for the entire running time.", "is_fresh": 1, "author": ["Alonso Duralde"]},
{"text": "There's goo, gore and guffaws galore in this outrageous celebration of everything you used to love about both Sam Raimi and the horror genre itself.", "is_fresh": 1, "author": ["Anton Bitel"]},
{"text": "A delirious haunted house carnival ride.", "is_fresh": 1, "author": ["Nick Schager"]},
{"text": "A giddy procession of intermittently successful jump scares and make-you-vomit sight gags strung together by a story so elemental it could be rendered in mural form on a funhouse wall.", "is_fresh": 1, "author": ["Ryan Stewart"]},
{"text": "\"Drag Me to Hell\" is the most fun I've had at the movies in years. It's destined to be a cult classic for all eternity.", "is_fresh": 1, "author": ["Cole Smithey"]},
{"text": "He's not reinventing the genre, but he doesn't have to. He already did that once, and now he's just doing what he's good at. His era of in your face outrageousness didn't last long enough as far as I'm concerned.", "is_fresh": 1, "author": ["Fred Topel"]},
{"text": "I never thought I'd say this. Never. But I have officially forgotten SPIDERMAN 3. I want to hug Sam Raimi. I want to hug him like I did back in the days of EVIL DEAD...Let's just say that pissing off a gypsy is NOT a good idea...", "is_fresh": 1, "author": ["Jenna Busch"]},
{"text": "Does Raimi really have to go back and do another frickin' Spider-Man movie after this?", "is_fresh": 1, "author": ["Jeff Otto"]},
{"text": "Scant of plot and barren of subtext, the pic is single-mindedly devoted to pushing the audience's buttons, and who better than Raimi to do the honors?", "is_fresh": 1, "author": ["Peter Debruge"]},
{"text": "A slickly made, engaging horror film that evokes the spirit of much of the director's early work.", "is_fresh": 1, "author": ["Brent Simon"]},
{"text": "Drag Me To Hell pays off with playful, powerful panache.", "is_fresh": 1, "author": ["Staci Layne Wilson"]},
{"text": "Revealing Raimi in top form as a maestro of the genre that launched his career, this film is an extremely satisfying small-scale supernatural horror, relying more heavily on characterization, acting, tone and mood than on special effects per se.", "is_fresh": 1, "author": ["Emanuel Levy"]},
{"text": "It's a visceral assault on the senses and will have you gasping for breath as the laughs and scares mount. Raimi directs with the confidence and flair of a genre master.", "is_fresh": 1, "author": ["Chris Tilly"]},
{"text": "In modern horror there's always a line they can't cross. Drag Me To Hell stabs it, sacrifices it, buries it in the back yard, and then gets away with it by giving the audience a wink and a nod.", "is_fresh": 1, "author": ["Joshua Tyler"]},
{"text": "[The] brand-new self-described \"spook-a-blast\" is a nasty little bit of cyanide fun, a new Sam Raimi horror film, and it is an indecent amount of fun.", "is_fresh": 1, "author": ["Moriarty"]},
{"text": "Lohman takes a Bruce Campbell-style beating through Raimi's wonderful world of swoop-cams, attacking furniture and pus-spewing creatures...Take a deep sigh of relief, horror fans. Sam's back!", "is_fresh": 1, "author": ["Steve \"Uncle Creepy\" Barton"]},
{"text": "DRAG ME TO HELL was quite simply the most PERFECT horror film I've seen in a long, long while. Raimi stirs a delicious witches brew that blends gore, scares and fun into a perfect blend.", "is_fresh": 1, "author": ["Brad Miska"]}
]