[
{"reviews_count": "201", "title": "Eye in the Sky", "avg_audience_rating": "3.9", "rotten_count": "10", "tomatometer": "95", "audience_score": "83", "avg_critic_rating": "7.6", "fresh_count": "191", "user_ratings_count": "32,705"},
{"text": "The feel-bad mainstream film of the year.", "is_fresh": 1, "author": ["Alistair Ryder"]},
{"text": "The film presents so many possibilities and points of view that it is almost guaranteed to make anyone, regardless of their sensibilities, question their ideas about whether or not such strikes are ever justified. ", "is_fresh": 1, "author": ["Abbie Bernstein"]},
{"text": "\"Eye in the Sky\" builds up the tension and suspense to the point where it becomes unbearable. The film is littered with political commentary and is ambitious and works great as a thriller where no one is right in a tough situation. ", "is_fresh": 1, "author": ["Mae Abdulbaki"]},
{"text": "Though it is emotionally manipulative and comes close to over-dramatic, it never becomes flamboyant... it is a welcome engagement with the current state of war.", "is_fresh": 1, "author": ["Deirdre Crimmins"]},
{"text": "Directed by a white African, Gavin Hood, the movie is perfect for our ISIL and post-Brexit moment. ", "is_fresh": 1, "author": ["Charles Mudede"]},
{"text": "\"Eye in the Sky\" is a thrilling current-day combat film that intelligently portrays the ethical and moral dilemmas of drone and terrorist warfare.", "is_fresh": 1, "author": ["Pamela Powell"]},
{"text": "Gavin Hood's film raises many questions about remote-control attacks in modern warfare, but falters in its handling of these issues.", "is_fresh": 0, "author": ["Uri Klein"]},
{"text": "Alan Rickman may be going out on one of the most emotionally resonant lines in the history of military cinema, assertively exclaiming, after all, is said and done \"Never tell a soldier that he does not know the cost of war.\" R.I.P.", "is_fresh": 1, "author": ["Robert Kojder"]},
{"text": "Not only is it encouraging to see women in so many roles that are not gender traditional, but motives and feelings aren't distributed along expected lines either. There are equal parts compassion and determination displayed by men and women alike.", "is_fresh": 1, "author": ["Alexandra MacAaron"]},
{"text": "Guy Hibbert's clever screenplay gets a lot of mileage out of a simple idea.", "is_fresh": 1, "author": ["Jason Di Rosso"]},
{"text": "In Eye in the Sky, director Gavin Hood takes us behind the scenes of what really goes on in a war zone.", "is_fresh": 1, "author": ["Danielle Solzman"]},
{"text": "Eye In The Sky hits the bulls eye.", "is_fresh": 1, "author": ["Reagan Gavin Rasquinha"]},
{"text": "Mirren is unexpectedly gung-ho, the already much-missed Rickman gets better as some slightly jarring moments of early comedy recede, and Monica Dolan, as a principled junior minister, stands out from a strong supporting cast.", "is_fresh": 1, "author": ["Matthew Bond"]},
{"text": "Different viewers may react differently to what they see here. But the script by Guy Hibbert gives you all sides of the argument, clearly, compellingly, and without prejudice.", "is_fresh": 1, "author": ["M. Faust"]},
{"text": "The film works best as an anxiety-inducing intellectual and ethical thriller that draws viewers into real-world debates being waged.", "is_fresh": 1, "author": ["tt stern-enzi"]},
{"text": "Eye in the Sky hops from place to place, decision to in-decision, from reason to emotion, to create heart-smacking tension.", "is_fresh": 1, "author": ["Martha K. Baker"]},
{"text": "South African director Gavin Hood, who won a well-deserved best foreign language Oscar for Tsotsi,\"knows how to turn the screws. There's more anxiety in four minutes of Eye in the Sky than there is in the entirety of Batman v Superman.", "is_fresh": 1, "author": ["Eleanor Ringel Cater"]},
{"text": "It's the type of film that will reinvigorate the debate on drone war and effect of new weaponry, but it's also highly entertaining, and beyond all else, a well-made movie.", "is_fresh": 1, "author": ["Julia Alexander"]},
{"text": "Mirren and Rickman bring real authority to the proceedings, while Jeremy Northam is effective as a conflicted cabinet minister.", "is_fresh": 1, "author": ["Michael Lee"]},
{"text": "Hood shows us the war on terror as a literal world war, being strategized everywhere from the dust to the heavens.", "is_fresh": 1, "author": ["Richard von Busack"]},
{"text": "Director Gavin Hood works the tension and the moral uncertainty to good effect but at times the film feels schematic and too much like revision.", "is_fresh": 1, "author": ["Raphael Abraham"]},
{"text": "A gripping war thriller.", "is_fresh": 1, "author": ["Camilla Long"]},
{"text": "Taut and chastening, Eye in The Sky leaves you saddened and shaken.", "is_fresh": 1, "author": ["Robert Denerstein"]},
{"text": "It's hard to watch the film and not vacillate between wanting them to act, and wanting them to stand down.", "is_fresh": 1, "author": ["Dwight Brown"]},
{"text": "I'm ready to call Eye in the Sky, released in the spring, the best film of the year, thus far.", "is_fresh": 1, "author": ["Jack Garner"]},
{"text": "Hood and Hibbert's procedural is a crackerjack affair in all the ways that count, and it's safe to say it looks at this hot button issue in a way certain to get audiences talking afterward.", "is_fresh": 1, "author": ["Sara Michelle Fetters"]},
{"text": "Eye in the Sky is a taught, thrilling tale of war time morality told with sophistication ...", "is_fresh": 1, "author": ["Blake Howard"]},
{"text": "Its framework, politically charged and internationally reaching as it is, appears complicated, but this is a very simple story of humanity, tensely and thoughtfully told.", "is_fresh": 1, "author": ["Tara Thorne"]},
{"text": "2016's first wholly unexpected piece of entertaining brain food.", "is_fresh": 1, "author": ["Tim Brayton"]},
{"text": "To their enormous credit, director Gavin Hood and writer Guy Hibbert offer no easy answers and take no easy outs, electing instead to keep viewers as conflicted and uncomfortable as the characters on the screen.", "is_fresh": 1, "author": ["Matt Brunson"]},
{"text": "This tale is intriguingly structured and expertly executed, and wholeheartedly embraces the moral complexities of one of the most divisive issues of modern military combat.", "is_fresh": 1, "author": ["James Mottram"]},
{"text": "Eye in the Sky, air plotting, street sweeping, and home invading, chillingly and intricately maps the murky terrain of today's remote-warfare, where lives become data points and video images, edited out of existence on-screen.", "is_fresh": 1, "author": ["Brian Gibson"]},
{"text": "A sharply observed political thriller that should inspire moral reckoning among partisans on both sides of this contentious issue. ", "is_fresh": 1, "author": ["Noah Gittell"]},
{"text": "The film works even if the running time is a little long. [Full review in Spanish]", "is_fresh": 1, "author": ["Jos\u00e9 Arce"]},
{"text": "No matter how viewers feel about military drones, it is worth seeing simply as a ticking clock thriller.", "is_fresh": 1, "author": ["Joe Bendel"]},
{"text": "Outstanding, absorbing film about the nature of 21st century warfare.", "is_fresh": 1, "author": ["Jim Schembri"]},
{"text": "Ethical dilemmas from every angle where the spectator is an accomplice. [Full review in Spanish]", "is_fresh": 1, "author": ["Javier Oca\u00f1a"]},
{"text": "Extraordinary suspense film, original and powerful. The fil has an unique narrative to it. [Full review in Spanish]", "is_fresh": 1, "author": ["Edgardo Res\u00e9ndiz"]},
{"text": "An effective film about an ethical dilemma with great suspense and extraordinary performances. [Full review in Spanish]", "is_fresh": 1, "author": ["Eduardo Molina"]},
{"text": "Half moral dilemma, half intruction manual for drone use. [Full review in Spanish]", "is_fresh": 1, "author": ["Andrea G. Bermejo"]},
{"text": "Eye In The Sky is unequivocally a thriller, but Hood creates a unique energy by juxtaposing breathstopping tension with the deliberately frustrating inaction of boardroom debates.", "is_fresh": 1, "author": ["Roe McDermott"]},
{"text": "An ethical debate mixed with a great suspense starring Helen Mirren and Aaron Paul. [Full review in Spanish]", "is_fresh": 1, "author": ["Horacio Bilbao"]},
{"text": "Only very hard-hearted people will not be moved by this film, in which there are no easy answers. There is one missing piece of drone warfare question here: Does drone warfare create more enemies than it kills? This film doesn't go there.", "is_fresh": 1, "author": ["Robert Roten"]},
{"text": "Smart dialogue is key to make this an effective and thrilling story full of moral dilemmas and suspense. [Full review in Spanish]", "is_fresh": 1, "author": ["Javier Porta Fouz"]},
{"text": "It's consistent with its goal of presenting a realistic take on a military operation and all the bad things that come with it. There is no room for cliches or easy ways out. [Full review in Spanish]", "is_fresh": 1, "author": ["Benjam\u00edn Harguindey"]},
{"text": "It's a lean, Lumet-like thriller that puts the moral calculus of drone warfare in its crosshairs.", "is_fresh": 1, "author": ["Jake Coyle"]},
{"text": "Director Gavin Hood has achieved something few could -- he made what is essentially 100 minutes of people standing in rooms and staring at screens incredibly compelling. It's a master class in suspense.", "is_fresh": 1, "author": ["Wenlei Ma"]},
{"text": "A high tension thriller that manages to open the debate about the morals in this new way we fight wars. [Full review in Spanish]", "is_fresh": 1, "author": ["Irene Crespo"]},
{"text": "Gavin Hood has created a near-perfect anti-war thriller that culminates with one of the most tightly-wound scenes you're going to see this year.", "is_fresh": 1, "author": ["Rohan Naahar"]},
{"text": "The characters debate about morals, ethics and professionalism make this film an entertaining and sharp cinematic drama. [Full review in Spanish]", "is_fresh": 1, "author": ["Oscar Uriel"]},
{"text": "A film that manages to capture the viewers' attention despite not having any car chases or shootouts. [Full review in Spanish]", "is_fresh": 1, "author": ["Sebastian Zavala Kahn"]},
{"text": "Almost forensic in its approach, this smart thriller explores a drone strike from a variety of perspectives that bring the moral dilemmas sharply into focus.", "is_fresh": 1, "author": ["Rich Cline"]},
{"text": "...a refreshingly adult endeavor that shines a potent spotlight on a fascinating (and quite relevant) contemporary issue.", "is_fresh": 1, "author": ["David Nusair"]},
{"text": "Hood's made his movie with great sobriety and care, even if the scenario's mechanics, engineered to explore the movie's political and moral themes, could have been more adroitly handled. ", "is_fresh": 1, "author": ["Ed Whitfield"]},
{"text": "Intense and provocative, this is a thriller that raises serious questions about the ethics of drone strikes and the possible repercussions of electing malleable politicians who are often unwilling to make hard decisions in the heat of battle.", "is_fresh": 1, "author": ["John Hanlon"]},
{"text": "A thriller with a technological spectacle that drowns the discourse, but invites reflection on the subject. [Full review in Spanish]", "is_fresh": 1, "author": ["Jes\u00fas Chavarria"]},
{"text": "One of the most unsettling and discursive films of 2016. [Full review in Spanish]", "is_fresh": 1, "author": ["Uriel Barco"]},
{"text": "Unsurprisingly, there is ample philosophical and political meat to Eye In The Sky. As a crisis drama it also scores highly, rotating from one set to the next and linking the tense energies and tones of a superb cast.", "is_fresh": 1, "author": ["Hilary A White"]},
{"text": "Mirren and Rickman do strong, measured work, with Rickman's character, rather poignantly, having the film's last word. But the real star of the film is Barkhad Abdi, the chief Somali pirate in Paul Greengrass's Captain Phillips.", "is_fresh": 1, "author": ["Alistair Harkness"]},
{"text": "It's a tense thriller about a single action, taking place in Nairobi, commanded from London, albeit piloted from Las Vegas - and its presentation of the moral dilemma about whether to strike or not is complex and wrenching.", "is_fresh": 1, "author": ["David Sexton"]},
{"text": "The picture may be a glorified \"war room\" re-enactment of the sort shown on television but it's so well done it deserves to be seen on the big screen.", "is_fresh": 1, "author": ["Henry Fitzherbert"]},
{"text": "A drama that forces the audience to think, take sides and examine their own consciences.", "is_fresh": 1, "author": ["Allan Hunter"]},
{"text": "A provocatively tense thriller that negotiates the moral minefields of its thorny subject matter in crowd-pleasing fashion.", "is_fresh": 1, "author": ["Mark Kermode"]},
{"text": "Eye in the Sky is a suspenseful and timely, if simplistic, thriller, exploring the new methods of war.", "is_fresh": 1, "author": ["Udita Jhunjhunwala"]},
{"text": "Alan Rickman adds a wry sardonic note as the high-ranking British army officer advising the vacillating politicians in Whitehall.", "is_fresh": 1, "author": ["Jason Best"]},
{"text": "As entertaining on an escapist level as it is irrefutably engaging on a level that is essential for citizens who are players in our political environment.", "is_fresh": 1, "author": ["MaryAnn Johanson"]},
{"text": "Gavin Hood's film cleverly explores the vexed ethics of remote warfare, and a fine ensemble cast help make this a clever, thought-provoking and deeply satisfying thriller.", "is_fresh": 1, "author": ["Paul Whitington"]},
{"text": "This film shouts its message loud and clear, but it's still a nail-biter exploring a thoroughly topical subject - and Mirren and Rickman are terrific.", "is_fresh": 1, "author": ["David Edwards"]},
{"text": "A basic conundrum; yet it's smart, tense, and surprisingly pointed.", "is_fresh": 1, "author": ["Clarisse Loughrey"]},
{"text": "One in the eye for the sabre-rattlers.", "is_fresh": 1, "author": ["Tim Evans"]},
{"text": "Although Eye in the Sky offers up a range of views and an impressively balanced picture, there's no denying its \"every life matters\" message.", "is_fresh": 1, "author": ["Emma Simmonds"]},
{"text": "There is plenty to admire, not least the mighty Mirren, who manages, aged 70, to be entirely convincing as a tough old soldier. And it's nice, if sad, to see Rickman one last time.", "is_fresh": 1, "author": ["Brian Viner"]},
{"text": "Eye in the Sky is an old-fashioned court-room-style drama... Its aim is to force the audience to confront the ethics of remote-control warfare, and encourage us to despair at self-interested politicians endlessly referring up to absent superiors.", "is_fresh": 1, "author": ["Saskia Baron"]},
{"text": "What's refreshing, though, is how nuanced the film's approach remains. There is no simple minded resolution here and it is inevitable that there will be blood on somebody's hands by the final reel.", "is_fresh": 1, "author": ["Geoffrey Macnab"]},
{"text": "Sharp editing and slick camerawork emphasise the disjuncture between the brightly sunlit killing field and the dark office where political caution wrestles military urgency.", "is_fresh": 1, "author": ["Peter Calder"]},
{"text": "[Eye In The Sky] already rates as one of the most important films of our time.", "is_fresh": 1, "author": ["Rob Carnevale"]},
{"text": "A classy, thrilling and seriously nail-biting experience.", "is_fresh": 1, "author": ["Paul Casserly"]},
{"text": "Eye in the Sky is firm in its didactic commitment to ambiguity. Its answer is that there are no answers.", "is_fresh": 1, "author": ["Donald Clarke"]},
{"text": "An impressive demonstration of cinema's ability to tackle complex ethical and philosophical issues without forgetting to entertain.", "is_fresh": 1, "author": ["Maximilian Von Thun"]},
{"text": "A thought-provoking and very entertaining ride driven by [Helen] Mirren's uncompromising performance.", "is_fresh": 1, "author": ["Richard Knight"]},
{"text": "Hood plays heavily on our moral compass, ensuring that an internal conflict takes place within us, as we become immersed and embroiled in this narrative.", "is_fresh": 1, "author": ["Stefan Pape"]},
{"text": "Mirren and Rickman are outstanding, and Hood complements them by juggling theme and pace with aplomb. The result is as thought-provoking as it is nerve-shredding.", "is_fresh": 1, "author": ["James Mottram"]},
{"text": "Armed with a terrific cast and suspense and poignancy to spare, [director Gavin Hood's] long-awaited return to independent film is a keeper.", "is_fresh": 1, "author": ["J. Olson"]},
{"text": "Powerful performances from Mirren, Rickman and Aaron Paul as an American drone pilot with a conflicted conscience make this the gold standard for thrillers about what waging war is like when one side has God-like powers of life and death.", "is_fresh": 1, "author": ["John Lui"]},
{"text": "It's a tight thriller played out smoothly but tying the viewer in moral knots. A film to think about for days, with little hope of finding a comfortable answer.", "is_fresh": 1, "author": ["Olly Richards"]},
{"text": "'Eye in the Sky' offers no easy answers. But when have there been any easy answers to war? ", "is_fresh": 1, "author": ["Linda Cook"]},
{"text": "A real nail-biter, even in its cornier and more predictable moments. ", "is_fresh": 1, "author": ["Roger Moore"]},
{"text": "Both exhilarating and troublingly foreboding.", "is_fresh": 1, "author": ["Marija Djurovic"]},
{"text": "A chilling look at modern warfare and its detached nature. But it's also a film that works as first-rate suspenseful thriller of a generally cerebral kind.", "is_fresh": 1, "author": ["Ken Hanke"]},
{"text": "The ensemble cast is exceptional, the war thriller is highly entertaining and intelligent, and its high-tech coverage is mesmerizing.", "is_fresh": 1, "author": ["Dennis Schwartz"]},
{"text": "An ethical and immersive film about the collateral damage of drone warfare.", "is_fresh": 1, "author": ["Frederic and Mary Ann Brussat"]},
{"text": "Edge-of-your-seat suspenseful, delineating the new rules of engagement...", "is_fresh": 1, "author": ["Susan Granger"]},
{"text": "... remains even-handed regarding the complexities of drone warfare, and smartly incorporates common fears about the evolving war on terror without resorting to cheap exploitation.", "is_fresh": 1, "author": ["Todd Jorgenson"]},
{"text": "The suspense is there. So is the soul-searching.", "is_fresh": 1, "author": ["Mal Vincent"]},
{"text": "No easy answers are offered in Eye in the Sky. But the many questions it begs will remain with you long after you leave the theater.", "is_fresh": 1, "author": ["Michael Heaton"]},
{"text": "One of the best movies of the year so far -- a riveting, white-knuckle thriller to rank with the best of Hitchcock, and an examination of the morality of drone warfare to rank with the polemical plays of George Bernard Shaw.", "is_fresh": 1, "author": ["Jim Lane"]},
{"text": "A fairly suspenseful film that makes you think as much as it does sweat. (Full Content Review for Parents -- Violence, Profanity, etc. -- Also Available)", "is_fresh": 1, "author": ["Jim Judy"]},
{"text": "There's a subtle, disquieting reminder that there's one more link in the chain that extends from a control panel in Nevada to a target in the Third World - us.", "is_fresh": 1, "author": ["Rob Thomas"]},
{"text": "Terrorists in a house. A little girl is in the way of taking them out. Pummels you with the question is the life of the one more important than the life of the many? ", "is_fresh": 1, "author": ["Gary Wolcott"]},
{"text": "Eye in the Sky offers a ripped-from-the-headlines look at drone warfare... Most movingly, though, the tense thriller offers a final chance to enjoy the greatness of Alan Rickman.", "is_fresh": 1, "author": ["Christopher Lawrence"]},
{"text": "A surprisingly gripping and troubling experience.", "is_fresh": 1, "author": ["David 'Mad Dog' Bradley"]},
{"text": "Eye in the Sky is the best movie about drone warfare I've seen so far, yet it still left me frustrated.", "is_fresh": 1, "author": ["Kristian M. Lin"]},
{"text": "Nobody has made a \"how-we-chase-'em\" story this gripping since \"Zero Dark Thirty.\"", "is_fresh": 1, "author": ["Lawrence Toppman"]},
{"text": "A taut, well-acted thriller that raises all sorts of moral questions - Hitchcock with a conscience.", "is_fresh": 1, "author": ["Robert W. Butler"]},
{"text": "It's hard to imagine a movie making the audience root for the bombing of a little girl, but Eye in the Sky sure comes close.", "is_fresh": 0, "author": ["Josh Bell"]},
{"text": "Maybe best of all, Hood manages to tell his suspenseful tale in a quick-moving 102 minutes. Other, more long-winded filmmakers should take notice.", "is_fresh": 1, "author": ["John Urbancich"]},
{"text": "Eye in the Sky engages multiple perspectives in examining the factors that play into a drone strike, with the film's focus shifting between the cogs in the machine.", "is_fresh": 1, "author": ["Alice McCredie-Dando"]},
{"text": "Suspense and tension are masterfully deployed. Your knuckles will be white. The edge of your seat will see action for 102 minutes. And you will never think about drones in quite the same way as you did before you saw this timely, electrifying film.", "is_fresh": 1, "author": ["Rick Kisonak"]},
{"text": "Eye in the Sky is disturbing, but it's also balanced and ambivalent about what is right.", "is_fresh": 1, "author": ["Molly Eichel"]},
{"text": "Eye in the Sky is compelling, offering the best elements of a drama and a thriller.", "is_fresh": 1, "author": ["James Berardinelli"]},
{"text": "Strong performances and timely subject matter largely cover up TV movie production quality.", "is_fresh": 1, "author": ["Joshua Starnes"]},
{"text": "The effect of this thriller... is ultimately one of a particularly tense (and well-acted) roundtable: a lot of very good ideas about what to think, but rarely does it ever succeed at hitting below the neck.", "is_fresh": 1, "author": ["David Berry"]},
{"text": "The military and covert war-wagers are getting better and better at killing from farther and farther away, and filmmakers seem to be getting better and better in the drone-warfare genre.", "is_fresh": 1, "author": ["Brad Wheeler"]},
{"text": "Hood keeps the action tense throughout this nail-biter, which unfolds like a taut stage play. It offers no easy answers, only difficult questions about following orders and the cost of war.", "is_fresh": 1, "author": ["Adam Graham"]},
{"text": "Eye In The Sky is sporadically sentimental, unrealistic, and overburdened with intrusive soundtrack music. But it gets you in, and it's suspenseful, claustrophobic, and a fairly unusual take on the counter-terrorism sub-genre.", "is_fresh": 1, "author": ["Mark Demetrius"]},
{"text": "This one entertains while also posing tough questions about whom we choose to kill in order to stifle our fears.", "is_fresh": 1, "author": ["Sean P. Means"]},
{"text": "Watching battle organized at arm's length is a strange and surreal experience, steeped in dread. When Eye in the Sky eventually touches down to put a viewer right into the centre of the action, emotionally speaking, it's a jarring transition. ", "is_fresh": 1, "author": ["Liz Braun"]},
{"text": "This riveting drone thriller is contemporary edge-of-your seat stuff, propelled by a crack cast led by Helen Mirren as single-minded British Col. Katherine Powell.", "is_fresh": 1, "author": ["Linda Barnard"]},
{"text": "Eye in the Sky maintains nerve-racking suspense throughout its running time and explicates some of the unknown nuances of drone warfare. Plus, you know, Alan Rickman is reason enough to see it.", "is_fresh": 1, "author": ["Marc Savlov"]},
{"text": "\"Eye in the Sky\" consists mostly of big-name stars squinting at video monitors and saying, in effect: \"Can we shoot now? How about now? OK, how about now?\"", "is_fresh": 0, "author": ["Bill Newcott"]},
{"text": "Look to Eye in the Sky, and you'll find an intelligent, well-rounded military drama, challenging both the efficiency and ethics of modern remote-controlled warfare.", "is_fresh": 1, "author": ["Leigh Paatsch"]},
{"text": "In the hands of gifted South African director Gavin Hood the film is a smart, graphic and disturbing thriller, with a clear eye for the fault lines of modern warfare.", "is_fresh": 1, "author": ["Paul Byrnes"]},
{"text": "As the news travels, Hood keeps building up the tension in the streets surrounding the target.", "is_fresh": 1, "author": ["Sandra Hall"]},
{"text": "A well-intentioned drama about wartime ethics, but the film's own morality is more dubious than it realizes.", "is_fresh": 0, "author": ["Rafer Guzman"]},
{"text": "Eye in the Sky provides an intimate look at the moral minefield that accompanies the employment of drone warfare. It's not the first movie to do so. But thanks to a deeply committed cast this one is well worth your time.", "is_fresh": 1, "author": ["John Lekich"]},
{"text": "The effects look cheap, the action scenes are unmemorable, and the plot regularly blows up its own tension-and the audience's interest-with missiles raining ignorantly down from the heavens. ", "is_fresh": 0, "author": ["Zach Middleton"]},
{"text": "It rigs its case on the sentimental side.", "is_fresh": 0, "author": ["Tony Macklin"]},
{"text": "Eye in the Sky sees, like any good film about warfare, that there are no real victories, and there's no end in sight.", "is_fresh": 1, "author": ["Dominick Suzanne-Mayer "]},
{"text": "Does this much discussion happen with every drone strike?", "is_fresh": 1, "author": ["Kelly Vance"]},
{"text": "The film not only focuses on the political effects of drone warfare, but also the devastating psychological toll it takes on these operators. ", "is_fresh": 1, "author": ["Jon Espino"]},
{"text": "Director Gavin Hood takes a daring look at the toll war takes on everyone... you'll be sitting at the edge of your seat debating what you'd do.", "is_fresh": 1, "author": ["Dana Barbuto"]},
{"text": "Full of excruciating truths about impossible choices in war, Guy Hibbert's screenplay is a searing, gripping and heart wrenching work that is superbly transposed from page to screen by a fabulous cast in the hands of a director who knows his craft", "is_fresh": 1, "author": ["Andrew L. Urban"]},
{"text": "The cost of war is the theme of this gripping drone warfare thriller in which protocol, propaganda and consequences play key roles", "is_fresh": 1, "author": ["Louise Keller"]},
{"text": "Helen Mirren and cast are superb in a truly great thriller that becomes the first significant movie about drones and the morality of modern day warfare. A great humane achievement from Gavin Hood.", "is_fresh": 1, "author": ["Pete Hammond"]},
{"text": "Eye in the Sky is a disturbing, intelligent and very well crafted contemporary thriller with a solid screenplay by Guy Hibbert and seamless direction.", "is_fresh": 1, "author": ["David Stratton"]},
{"text": "Plenty of food for thought, if not very subtly done.", "is_fresh": 1, "author": ["Robert Horton"]},
{"text": "Gavin Hood's movie provides you with more information than any of the participants might have, including glimpses of just who that collateral damage will be.", "is_fresh": 1, "author": ["Cynthia Fuchs"]},
{"text": "Tight editing (there's never any dislocation in sense of place while locale hopping) and well-framed shots hold the tension, as does Hibbert's well-gamed chess match of statesmanship and foreign policy.", "is_fresh": 1, "author": ["Tom Meek"]},
{"text": "Game of Drones, indeed. Excellent ensemble cast, nerve-shattering, technological high-wire act. Mirren, Rickman (sigh) and Abdi in top form.", "is_fresh": 1, "author": ["James Verniere"]},
{"text": "For the foreseeable future, we will be having a debate about the efficacy of drone strikes ... Eye in the Sky establishes itself as an important part of that conversation.", "is_fresh": 1, "author": ["Mark Dujsik"]},
{"text": "Hood ratchets up the tension and keeps it there.", "is_fresh": 1, "author": ["Anders Wright"]},
{"text": "A sober but not-quite-somber drone drama that ably portrays the complicated moral calculus involved in modern warfare.", "is_fresh": 1, "author": ["Matthew Lickona"]},
{"text": "As the creepy title might suggest, the movie explores the danger of detachment in modern warfare, recording the complex moral and political debate among characters charged with making life-or-death decisions.", "is_fresh": 1, "author": ["Leah Pickett"]},
{"text": "Mr. Rickman was never nominated for an Academy Award and it's probably a long shot for a posthumous supporting actor for this film -- but his work here is a reminder of what a special talent he possessed.", "is_fresh": 1, "author": ["Richard Roeper"]},
{"text": "It's clockwork entertainment, in the end - a precisely calibrated schematic in which every aspect of the ethical quandary balances every other aspect, and the only variable is your own moral compass.", "is_fresh": 1, "author": ["Ty Burr"]},
{"text": "What South African director Gavin Hood and his filmmakers do with the military drone drama Eye in the Sky is nothing short of astonishing.", "is_fresh": 1, "author": ["Dann Gire"]},
{"text": "This is the rare military drama that conveys both the graphic physical effects of war and its lingering psychic cost.", "is_fresh": 1, "author": ["Ann Hornaday"]},
{"text": "\"Eye in the Sky\" is refreshing in its lack of a political message.", "is_fresh": 1, "author": ["Mick LaSalle"]},
{"text": "It's suspenseful and it raises many compelling questions.", "is_fresh": 1, "author": ["Chris Hewitt (St. Paul)"]},
{"text": "In an era of loud, ugly and fragmented war films, it creates a movie far more thoughtful and challenging than we expect.", "is_fresh": 1, "author": ["Colin Covert"]},
{"text": "A nifty little thriller...a tense, tough, biting commentary on the way wars are fought today. ", "is_fresh": 1, "author": ["Frank Swietek"]},
{"text": "This is the kind of intelligent, thought-provoking mainstream film that's in danger of becoming extinct. \"Eye in the Sky\" is miles above the average multiplex flick.", "is_fresh": 1, "author": ["Calvin Wilson"]},
{"text": "War is hell, they say. Hood shows us the many ways how.", "is_fresh": 1, "author": ["Bill Goodykoontz"]},
{"text": "At times, the film approaches gallows comedy ... perhaps a little too much so; at others, it's a tense, chilling look at a seemingly unbearable choice - refreshingly, without telling its viewers what to think.", "is_fresh": 1, "author": ["Moira MacDonald"]},
{"text": "A thoughtful, slow-building thriller.", "is_fresh": 1, "author": ["Matt Pais"]},
{"text": "...a film that is timely, certainly relevant, but as a thriller it gets bogged down in minutiae that may be authentic but isn't always entertaining. ", "is_fresh": 1, "author": ["Travis Hopson"]},
{"text": "Eye in the Sky is mired in simplicity.", "is_fresh": 0, "author": ["J.A. Kordosh"]},
{"text": "Profound examination of the psychic ramifications involving modern day warfare and long-range gun-play.", "is_fresh": 1, "author": ["Leonard Maltin"]},
{"text": "Director Gavin Hood and screenwriter Guy Hibbert have their hearts in the right place in this modern morality play set amidst the ongoing war on terror...", "is_fresh": 1, "author": ["Robin Clifford"]},
{"text": "Seems like a remake of Gable's 'Command Decision' updated for the 21st Century. The tension crackles as time is a-wastin' while everyone passes the buck. This is exceptionally realistic with a top flight performance by Helen Mirren in Gable's role.", "is_fresh": 1, "author": ["Tony Medley"]},
{"text": "It would have been exceptionally easy for Eye in the Sky to take either a pro- or anti-drone warfare stance and simply show the horror of the alternative point of view. Rather than doing that, the movie offers a thoughtful, nuanced middle ground.", "is_fresh": 1, "author": ["Josh Lasser"]},
{"text": "a powerful dialectic on ethics and violence", "is_fresh": 1, "author": ["Andrea Chase"]},
{"text": "Only periodically pompous and only rarely about merely flattering preconceived notions, be they anti- or pro-.", "is_fresh": 1, "author": ["Matt Prigge"]},
{"text": "Riveting thriller about drone strikes and their human toll.", "is_fresh": 1, "author": ["S. Jhoanna Robledo"]},
{"text": "One part thriller, one part political drama plus a splash of satire makes for a fine, if sobering, cocktail.", "is_fresh": 1, "author": ["Adam Chitwood"]},
{"text": "While Hood's film says very little about American policy in this area, it does suggest that its terrible subject is likely to be with us for a long time to come.", "is_fresh": 1, "author": ["Godfrey Cheshire"]},
{"text": "A high-tech terror-war story with a covert mission...", "is_fresh": 1, "author": ["Kurt Loder"]},
{"text": "Hood, a South African whose previous films include \"X-Men Origins: Wolverine\" and the capable terror-war thriller \"Rendition,\" does a nice job threading together the immense web of political, legal and military decision-making behind the drone war.", "is_fresh": 1, "author": ["Andrew O'Hehir"]},
{"text": "A fully involving drama about the new rules of engagement.", "is_fresh": 1, "author": ["Sheri Linden"]},
{"text": "\"Eye in the Sky\" is an extremely tense and absorbing expos\u00e9 of the moral, legal and political aspects of unmanned warfare. ", "is_fresh": 1, "author": ["Jeanne Kaplan"]},
{"text": "\"Eye in the Sky\" is an important story that should stand the test of time because of its originality, execution and immediacy to current events.", "is_fresh": 1, "author": ["David Kaplan"]},
{"text": "A rare thriller that grips the mind and heart equally. ", "is_fresh": 1, "author": ["Nell Minow"]},
{"text": "There's wit, integrity and insight here, but it cries out for a lighter touch.", "is_fresh": 1, "author": ["Tom Huddleston"]},
{"text": "The movie is both provocative and fairly gripping, if not altogether convincing.", "is_fresh": 1, "author": ["Mark Jenkins"]},
{"text": "Fundamentally serious, if obviously flawed, \"Eye in the Sky\" argues both sides of its specific case, and, by extension, the merits and perils of a radical new tool for fighting wars.", "is_fresh": 1, "author": ["Joe Morgenstern"]},
{"text": "Director Gavin Hood pulls off some really tricky tonal shifts. He's abetted by a terrific cast, including Barkhad Abdi as a surveillance expert who tries to save the girl -- and Rickman in his final on-screen appearance, one of his very best.", "is_fresh": 1, "author": ["Lou Lumenick"]},
{"text": "Rickman deserves our salute, as does a film that honors his fierce intelligence.", "is_fresh": 1, "author": ["Peter Travers"]},
{"text": "Eye in the Sky is a solid thriller, but a visually static one that doesn't particularly requires a big screen.", "is_fresh": 1, "author": ["Luke Y. Thompson"]},
{"text": "In Hood's Eye in the Sky, Aaron Paul's conscience-stricken pilot is affecting, and you cheer him on when he challenges an order that he considers inhumane and precipitate.", "is_fresh": 1, "author": ["Michael Sragow"]},
{"text": "A grim, suspenseful farce in which unpredictable human behavior repeatedly threatens an operation of astounding technological sophistication.", "is_fresh": 1, "author": ["Stephen Holden"]},
{"text": "This is a film that doesn't want to be easily pegged, either in terms of its politics or generic allegiances. Such ambiguity is a virtue, but for all his technical facility, Hood doesn't really have the finesse of a great, fearless satirist.", "is_fresh": 1, "author": ["Adam Nayman"]},
{"text": "Sells itself as a race against time thriller, but any tension presented gets bogged down by so much talking.", "is_fresh": 0, "author": ["Edward Douglas"]},
{"text": "[It] dwells with the faraway triggerpeople killing from comfortable chairs but refuses to interrogate their actions in any truly meaningful way.", "is_fresh": 0, "author": ["Dan Schindel"]},
{"text": "At its core, the film is a welcome piece of mindfulness and moral complexity on our increasingly black-and-white world stage.", "is_fresh": 1, "author": ["Christine N. Ziemba"]},
{"text": "Hood and Hibbert show the nuts and bolts involved in calling for a drone strike, and it's suspenseful, inherently dramatic and sometimes terrifying to watch unfold.", "is_fresh": 1, "author": ["Jack Giroux"]},
{"text": "The threat of an international incident ... invokes a chain of political grandstanding and second-guessing, which Oscar-winning director Gavin Hood plays out with artful, measured intensity.", "is_fresh": 1, "author": ["Leah Greenblatt"]},
{"text": "In stressing the point that there are no easy answers in war, it scores. In trying to say something insightful, however, something we don't already know, then not so much.", "is_fresh": 0, "author": ["Mike Scott"]},
{"text": "In war, everything has consequences, the movie declares, and if you think you can predict all of them, you're either a fool or running for office (or both!). No answer is perfect.", "is_fresh": 1, "author": ["Stephen Whitty"]},
{"text": "Taut, provocative and timely, Eye in the Sky has the all the right elements.", "is_fresh": 1, "author": ["Rex Roberts"]},
{"text": "Director Gavin Hood treats the aesthetics of high-tech surveillance as the opaque membrane through which the prosecution of the War on Terror must pass.", "is_fresh": 1, "author": ["Matt Brennan"]},
{"text": "Never has a movie been able to wring so much tension from shots of people staring at screens and computer monitors.", "is_fresh": 1, "author": ["Kirk Honeycutt"]},
{"text": "A taut film, photographed in real time, that supplements vivid action sequences with a moral debate.", "is_fresh": 1, "author": ["Harvey S. Karten"]},
{"text": "\"Eye In The Sky\" doesn't always get it right, and sometimes makes some wrong-footed moves, but it opens a discussion and study of how we engage in acts of war that doesn't happen often in the mainstream media.", "is_fresh": 1, "author": ["Kevin Jagernauth"]},
{"text": "A tense, morally complex and extremely prescient thriller.", "is_fresh": 1, "author": ["Kate Muir"]},
{"text": "A tightly-coiled thriller that refuses to take the moral high ground despite the subject matter. Mirren, Rickman, and Paul are all excellent.", "is_fresh": 1, "author": ["Chris Bumbray"]},
{"text": "While this performance gives the drama psychological weight, efforts of those on the ground to get the girl out of harm's way introduce very satisfying action elements.", "is_fresh": 1, "author": ["John DeFore"]},
{"text": "Eye in the Sky is a tick-tock suspense exercise as well as a neat little ethical echo chamber, a plea for reason in a world exploding too vigorously to give it the time of day.", "is_fresh": 1, "author": ["Tim Robey"]},
{"text": "Hood has relied on terse and efficient storytelling to showcase the intricate morality of drone warfare and takes us through one very long and very stressful day in the lives of those tasked with making life or death decisions.", "is_fresh": 1, "author": ["Benjamin Lee"]},
{"text": "A rivetingly suspenseful drama that deftly intertwines elements of ticking-clock thriller and tragic farce.", "is_fresh": 1, "author": ["Joe Leydon"]},
{"text": "The military thriller occasionally grinds to a halt to host a Reddit-like debate on drones. Surprisingly, it still works and manages to present valid, even-keeled positions, too. No trolling necessary.", "is_fresh": 1, "author": ["Radheyan Simonpillai"]},
{"text": "Eye in the Sky presents a talented ensemble of differing perspectives on the controversial use of drone missiles, forcing us to confront our own feelings about the complicated implications of modern warfare.", "is_fresh": 1, "author": ["Darren Ruecker"]}
]