[
{"reviews_count": "233", "title": "Frozen", "avg_audience_rating": "4.2", "rotten_count": "24", "tomatometer": "90", "audience_score": "85", "avg_critic_rating": "7.7", "fresh_count": "209", "user_ratings_count": "305,514"},
{"text": "Highly, highly recommended.", "is_fresh": 1, "author": ["Tara Thorne"]},
{"text": "Frozen is, to put it simply, all technique and iconography in desperate search of a story and its own viable mythology.", "is_fresh": 0, "author": ["PJ Nabarro"]},
{"text": "It's ironic that a film about the land being stuck in winter would be so heart-warming, but it's the truth.", "is_fresh": 1, "author": ["Jennifer Heaton"]},
{"text": "This is simply the best children's film in ages, a total frosty delight.", "is_fresh": 1, "author": ["Camilla Long"]},
{"text": "It's hard to say whether the world of Frozen will compare with Disney's other long-celebrated fairy tales as the years roll on, but for this season, parents and children will probably be happy to add the new film to their resumes.", "is_fresh": 1, "author": ["Josh Terry"]},
{"text": "Even if you are not into fairy-tales, you'll love this one for it's unpredictable and thus keeps you engaged throughout. ", "is_fresh": 1, "author": ["Renuka Vyavahare"]},
{"text": "Frozen is Disney's best animated movie since their second golden age in the early 1990's and is an instant classic.", "is_fresh": 1, "author": ["Sarah Marrs"]},
{"text": "... Frozen, the newest Disney contribution directed by Chris Buck and Jennifer Lee, falls a bit short.", "is_fresh": 1, "author": ["Candice Frederick"]},
{"text": "The songs aren't good enough to stick in your head and the characters aren't good enough to be iconic, but Frozen is pleasant enough. May it have a long life on ABC Family, clogging up your weekend TV holiday schedule for years to come. ", "is_fresh": 1, "author": ["Roxana Hadadi"]},
{"text": "Frozen is a transitional step from movies like the nightmarishly retrograde Little Mermaid, to films that won't need to explicitly tell little girls that true love doesn't have to involve marrying a prince or being rescued.", "is_fresh": 1, "author": ["Melissa Leon"]},
{"text": "I was not disappointed.", "is_fresh": 1, "author": ["Rebecca Pahle"]},
{"text": "While it won't go down as one of Disney's greatest animations, Frozen has enough charm and silliness-a word I use complimentary-to make it a must-see for families.", "is_fresh": 1, "author": ["Jared Mobarak"]},
{"text": "'Frozen' feels like it's breaking new ground in telling a story where the women are actually in control, and where the clich\u00e9s of their narratives are turned inside out, almost as a sly commentary on what has come before.", "is_fresh": 1, "author": ["Jason Bailey"]},
{"text": "Old-school musical numbers, feisty princesses, funny sidekicks and a mix of action, comedy and romance come together in Frozen, a Disney animation that works hard to keep everyone happy.", "is_fresh": 1, "author": ["Francesca Rudkin"]},
{"text": "[Its] target audience should adore the characters, the visuals, and the music, but more importantly, they'll be bequeathed with a message worthy of their hearts and minds.", "is_fresh": 1, "author": ["J. Olson"]},
{"text": "Given the strength of animation, the memorable characters, and a killer soundtrack ... it may well be one of Disney's most accomplished animated features from the past 20 years.", "is_fresh": 1, "author": ["James Plath"]},
{"text": "Frozen brings a warming tale of the power of love, family and sisterhood in the face of adversity.", "is_fresh": 1, "author": ["Latoya Newman"]},
{"text": "...generally as entertaining and engrossing as one might've anticipated.", "is_fresh": 1, "author": ["David Nusair"]},
{"text": "A beautifully crafted fable.", "is_fresh": 1, "author": ["Rob Gonsalves"]},
{"text": "The computer animation of the characters is expressive and detailed (we even notice the freckles on the shoulder of the heroine) while the film-makers work wonders with glacial landscapes in a land of \"eternal winter.\"", "is_fresh": 1, "author": ["Geoffrey Macnab"]},
{"text": "Chris Buck and Jennifer Lee's extremely loose adaptation of Hans Christian Andersen's The Snow Queen strives to put a post-feminist spin on an archetypal Disney princess fantasy, with mixed success.", "is_fresh": 0, "author": ["Jake Wilson"]},
{"text": "Hans Christian Andersen's The Snow Queen is the loose inspiration for Frozen, a celebration of family and the bond of sisterhood set against a beguiling snowbound backdrop. And like Tangled before it, Frozen has all the hallmarks of an instant classic.", "is_fresh": 1, "author": ["Wendy Ide"]},
{"text": "Anyone with an appreciation for old-school musical numbers will find something pleasantly familiar and cozy about Frozen.", "is_fresh": 1, "author": ["Perry Seibert"]},
{"text": "Frozen, the new animated film by Disney earns its charms the honest way: with smart writing and heartfelt performances.", "is_fresh": 1, "author": ["Hans Morgenstern"]},
{"text": "It's a movie about fear and grief and the power of familial, sibling love to sort it all out. Weirdly, in movies that are almost always aimed at children, that's a love that rarely gets equal screen time in a romance-obsessed world. ", "is_fresh": 1, "author": ["Dave White"]},
{"text": "The animation is simply superb. Ice has never looked so good, except as the real thing. Technical precision and innovation is expected nowadays in computer animation but Frozen combines that with a gorgeously rich design.", "is_fresh": 1, "author": ["Paul Byrnes"]},
{"text": "[Proves] that, when done well, there is still a place for big song-driven animation films in an age of quip-filled, pop-culture-referencing buddy movies.", "is_fresh": 1, "author": ["Alistair Harkness"]},
{"text": "Disney has another hit in its repertoire with this heartfelt story of sisterly love and one of the few films released in 3-D this year that splendidly incorporates the technology into the plot line.", "is_fresh": 1, "author": ["Maricar Estrella"]},
{"text": "As gorgeous-looking and highly amusing as the film is, it's the songs that deliver much of the emotional weight.", "is_fresh": 1, "author": ["Rob Hunter"]},
{"text": "Amid exciting moments and gorgeous landscapes, Frozen is, at times, an uncertain whole. But hey, did you see that ice?", "is_fresh": 1, "author": ["Genevieve Valentine"]},
{"text": "Top to bottom, Frozen is a delight. The writing is witty, the voicing is excellent, the story is nuanced and the songs are some of the best since Beauty and the Beast.", "is_fresh": 1, "author": ["Chris Carle"]},
{"text": "Frozen's narrative logic could be tighter. Some of its dialogue and lyrical content is out of step with some of the film's mature direction. But none of this is enough to cancel out what's rewarding about the story.", "is_fresh": 1, "author": ["Nick Olson"]},
{"text": "[Olaf] one of the most charming and hilarious Disney characters in quite some time.", "is_fresh": 1, "author": ["Josh Hylton"]},
{"text": "An enjoyable fairy tale romp with some clever plot twists thrown in and positive messages for young girls that subvert those usually provided by traditional Disney princesses.", "is_fresh": 1, "author": ["Iain McNally"]},
{"text": "As tuneful as it is charming, Frozen is the best Disney animated creation since the studio was reborn via the musical vibes of The Little Mermaid.", "is_fresh": 1, "author": ["Mal Vincent"]},
{"text": "There is a richness and a subtle sadness to the core relationship between Anna and Elsa.", "is_fresh": 1, "author": ["Scott Mendelson"]},
{"text": "Widescreen 3-D visuals sculpt an endlessly inventive setting of ice palaces and snowcapped peaks, the original songs... soar and tickle as needed, and snowman sidekick Olaf giddily beats back the encroaching melodrama.", "is_fresh": 1, "author": ["Jay Horton"]},
{"text": "Disney does two things pretty well: princesses and musicals. Frozen has both of these traits in force.", "is_fresh": 1, "author": ["Alex Doenau"]},
{"text": "Frozen is a glacially stiff, perpetually unamusing animated musical with a talk-singing score that will leave one pining for the lifeless soundtrack to The Princess and the Frog.", "is_fresh": 0, "author": ["Scott Marks"]},
{"text": "Frozen combines cute characters, soaring songs and clever comedy to create a Disney animated winner that tries too hard on some accounts, but that won't stop it from charming audiences.", "is_fresh": 1, "author": ["Michael Smith"]},
{"text": "Disney's latest animated tale, \"Frozen,\" ironically enough, is likely to give viewers of all ages a warm feeling inside.", "is_fresh": 1, "author": ["Sean P. Means"]},
{"text": "The limber visuals and appealing heroines can't hide the smear of on-the-fly rewrites, as the film frequently loses track of its own moving pieces.", "is_fresh": 1, "author": ["Daniel Barnes"]},
{"text": "While it doesn't reach the heights of a Lion King or Beauty And The Beast, it's entertaining enough, despite a lopsided narrative and the lack of a compelling villain.", "is_fresh": 1, "author": ["Glenn Sumi"]},
{"text": "Not only does the movie look great with its scenes of glistening, freezing majesty, but it also sounds absolutely terrific.", "is_fresh": 1, "author": ["Corey Hall"]},
{"text": "Had the icy transformations, the shadows, the devilment and the edge-of-seat action all been sustained for longer at the expense of the odd spoonful of sugar it would have been untouchable in the modern era.", "is_fresh": 1, "author": ["Graham Young"]},
{"text": "Funny, whimsical and delightful to a fault, it is one of those movies that engages minds of all ages.", "is_fresh": 1, "author": ["David Keyes"]},
{"text": "The fairy-tale ending promises not only marriage but adds the didactic twist that 'the only fixer-upper' true love is not restricted to coming exclusively from a lover. ", "is_fresh": 1, "author": ["Donald J. Levit"]},
{"text": "loses points for being a not-very-good musical", "is_fresh": 1, "author": ["Walter Chaw"]},
{"text": "With a billion dollars in the bank, two Oscars on the shelf, and the ire of ridiculous, right-wing pundits who think it's turning the children of the world gay, Frozen has pretty much pulled off the trifecta of cinematic accomplishments. ", "is_fresh": 1, "author": ["Simon Miraudo"]},
{"text": "Born out of warring needs to both play things safe and be truly bold, so it while it's never outright bland, it lacks staying power.", "is_fresh": 0, "author": ["Dan Schindel"]},
{"text": "Frozen is really about all of us learning that we can share our unique qualities with the world, as long as we also develop the maturity and responsibility to understand how our powers work and when it's the right time and place.", "is_fresh": 1, "author": ["Fred Topel"]},
{"text": "Josh Gad's winningly goofy talking snowman... is too dim to realise that longing for the arrival of summer is not particularly wise for one of his kind.", "is_fresh": 1, "author": ["Jason Best"]},
{"text": "With its wonderful songs, spectacular animation, and heartwarming story, 'Frozen' ranks right up there with 'Beauty and the Beast and 'The Little Mermaid' in the Disney pantheon. ", "is_fresh": 1, "author": ["Betty Jo Tucker"]},
{"text": "Frozen represent the middle of the animation bell curve. It's a far cry from the insufferable pop-culture spewing, catchphrase-ridden films churned out during at the beginning every holiday period, but nor does it hit the heights of Disney's best output.", "is_fresh": 1, "author": ["Lee Zachariah"]},
{"text": "The expected Disney components are on display, from gleaming imagery to catchy songs to engaging humour, but this classically told fairytale revels in its moving modernity, crafting a strong ode to empowerment.", "is_fresh": 1, "author": ["Sarah Ward"]},
{"text": "The action is set in a chilling landscape but Frozen warms the heart.", "is_fresh": 1, "author": ["John Millar"]},
{"text": "It's not the best of the modern Disney set, but it's a sweet, charming, musically diverse film that makes you feel bad for not liking it as much as it wants you to.", "is_fresh": 1, "author": ["Wesley Lovell"]},
{"text": "A touching tale of sisterhood with a priceless message about blood being thicker than an ill-advised crush.", "is_fresh": 1, "author": ["Kam Williams"]},
{"text": "Frozen reminds you how many animated films rely more on inside jokes. It's modern without being hip, earnest with being sappy.", "is_fresh": 1, "author": ["Wesley Morris"]},
{"text": "A deeply conservative Disney animated film that left me unmoved.", "is_fresh": 0, "author": ["Damien Straker"]},
{"text": "Uma obra emocionante, divertida e que comprova que as anima\u00e7\u00f5es com o selo Disney continuam t\u00e3o inventivas e envolventes quanto na \u00e9poca em que o velho Walt comandava o est\u00fadio.", "is_fresh": 1, "author": ["Pablo Villa\u00e7a"]},
{"text": "The story is well paced, characters beautifully created and voiced, and the animation is breathtaking, with the sight of a snow covered world (Disney style) a thing of pure driven beauty.", "is_fresh": 1, "author": ["Matthew Pejkovic"]},
{"text": "Disney's animation renaissance continues apace.", "is_fresh": 1, "author": ["Martin Roberts"]},
{"text": "This is definitely one for the whole family to chill out with on a hot Aussie summer's day.", "is_fresh": 1, "author": ["Matt Neal"]},
{"text": "Frozen is a soaring musical that does everything you love about classic Disney while giving their portrayal of princesses a necessary twenty first century upgrade.", "is_fresh": 1, "author": ["Blake Howard"]},
{"text": "Spectacular production and vibrant voices make this a classic piece of Disney eye and ear candy.", "is_fresh": 0, "author": ["Ron Wilkinson"]},
{"text": "Frozen succeeds because of its great story and its catchy musical numbers.", "is_fresh": 1, "author": ["Matthew Toomey"]},
{"text": "You can't go wrong with Disney's absolutely winning animated musical princess fantasy...Already a major box office hit, Frozen is bound to join the Disney pantheon of neo-classics and offers near-perfect holiday entertainment for kids.", "is_fresh": 1, "author": ["Jim Schembri"]},
{"text": "A very traditional Disney animated feature filled with rather old-fashioned songs.", "is_fresh": 1, "author": ["David Stratton"]},
{"text": "It's rather classic Disney. I think it's perfect for young kids in a lot of ways, except that it's rather dark.", "is_fresh": 1, "author": ["Margaret Pomeranz"]},
{"text": "Moms who don't want their daughters piningly opining that \"Someday My Prince Will Come\" may be pleased with Disney's twist on the notion that true love conquers all.", "is_fresh": 1, "author": ["Margot Harrison"]},
{"text": "The clever show tunes and Holiday on Ice visuals border on kitsch, but the fraught relationship of the sisters rings true.", "is_fresh": 1, "author": ["John Beifuss"]},
{"text": "When Frozen presents its ideals of 'true love', it becomes a work that holds significantly more value to growing girls than the Walt Disney classics of yore.", "is_fresh": 1, "author": ["Liam Maguren"]},
{"text": "As alter egos go, you couldn't have two more opposite types than the adorable Sven and the relentlessly fierce ice monster. But they serve similar purposes for the two individuals Anna comes to embrace, to protect, and to celebrate.", "is_fresh": 1, "author": ["Cynthia Fuchs"]},
{"text": "an immensely enjoyable, surprisingly invigorating marriage of the old and the new", "is_fresh": 1, "author": ["James Kendrick"]},
{"text": "A modern twist on a classic Disney formula with lashings of dry wit and old-school romance.", "is_fresh": 1, "author": ["Ed Gibbs"]},
{"text": "Destined to be the family hit of the Christmas season, Frozen has all the elements to make it an outright winner", "is_fresh": 1, "author": ["Louise Keller"]},
{"text": "Disney's return to animation greatness, plus that Idina Menzel can really sing.", "is_fresh": 1, "author": ["Jackie K. Cooper"]},
{"text": "The animation is crisply detailed, the voice work is solid, and the handful of musical numbers are memorably evocative of some of the fine work that Disney has done in that regard in the past.", "is_fresh": 1, "author": ["Todd Jorgenson"]},
{"text": "Making even better use of 3-D - earning the \"plus\" in this B+ review - is a short masterpiece preceding Frozen, an ingenious Mickey Mouse cartoon titled Get a Horse.... It's the only thing your ticket's buying that'll be revered 20 years from now.", "is_fresh": 1, "author": ["Steve Persall"]},
{"text": "\"Frozen\" is stunning. From the beautiful snowflakes, to the ice castle everything in this film was exquisite.", "is_fresh": 1, "author": ["Jolene Mendez"]},
{"text": "Not exactly a new royal standard for Disney females, but these two princesses do pack a two-fisted punch about the power of love and waiting for the right person who's 'worth melting for.'", "is_fresh": 1, "author": ["Neil Pond"]},
{"text": "FROZEN is just about as intelligent as Disney musicals get.", "is_fresh": 1, "author": ["Mark R. Leeper"]},
{"text": "Has everything you want for Christmas: belting songs, soaring hearts, snappy jokes and an inspirational reworking of the traditional happy ending.", "is_fresh": 1, "author": ["Mark Kermode"]},
{"text": "A charming effort that successfully combines gorgeous modern animation with the retro feel of a Disney classic. ", "is_fresh": 1, "author": ["Jeffrey Lyles"]},
{"text": "A dazzling fairy-tale adventure that evokes the studio's early 1990s refreshment of its animated output through an injection of Broadway talent.", "is_fresh": 1, "author": ["Alan Jones"]},
{"text": "The glitz will satisfy militantly feminine sprogs, but is completely at odds with Elsa's gutsy character and Frozen's pioneering message.", "is_fresh": 1, "author": ["Charlotte O'Sullivan"]},
{"text": "A Christmas Disney animation with a cheeky wit, this musical adaptation of Hans Christian Andersen's The Snow Queen is thoroughly enjoyable.", "is_fresh": 1, "author": ["David Edwards"]},
{"text": "It's the year's best animation.", "is_fresh": 1, "author": ["Henry Fitzherbert"]},
{"text": "Disney learns a lesson from Pixar's Brave, giving these orphaned princesses some feisty purpose that doesn't depend on a man. ", "is_fresh": 1, "author": ["Rich Cline"]},
{"text": "A fabulously festive, funny and enjoyable return to form that Walt would surely have adored.", "is_fresh": 1, "author": ["Graham Young"]},
{"text": "Simply put, Frozen is an adorable film with brilliant animation and plenty of old-school Disney charm.", "is_fresh": 1, "author": ["Kevin Carr"]},
{"text": "This loose adaptation of The Snow Queen is the best film from Walt Disney Animation in close to a generation.", "is_fresh": 1, "author": ["Donald Clarke"]},
{"text": "Disney's boldest cartoon in ages, it pulls the Disney princess into the 21st century.", "is_fresh": 1, "author": ["Andrew Osmond"]},
{"text": "Old fashioned it may be, but it's Disney's best films in years.", "is_fresh": 1, "author": ["Andy Lea"]},
{"text": "Cool 3-D animated tale of magic that features the voices of Kristen Bell and Idina Menzel.", "is_fresh": 1, "author": ["Dennis Schwartz"]},
{"text": "It feels mostly like a good version of something we've all seen before, rather than anything new or groundbreaking.", "is_fresh": 1, "author": ["Tim Brayton"]},
{"text": "'Frozen' is one of the most solid family films of 2013. And here it is, just in time for the holiday season - perfect timing on Disney's part.", "is_fresh": 1, "author": ["Linda Cook"]},
{"text": "Extravagant care is taken with minutiae, and the directors, Chris Buck and Jennifer Lee, whistle through the first twenty minutes of the plot with a controlled giddiness that would leave many live-action adventures staggering in their tracks.", "is_fresh": 1, "author": ["Anthony Lane"]},
{"text": "Glorious family entertainment.", "is_fresh": 1, "author": ["Peter Bradshaw"]},
{"text": "It is jolly, spectacular and sumptuously 3D'd. At times it is actually funny.", "is_fresh": 1, "author": ["Nigel Andrews"]},
{"text": "A hugely enjoyable Disney comedy/musical with strong characters, superb voice performances, terrific songs and a witty, intelligent script that sneaks in a tiny subversive edge.", "is_fresh": 1, "author": ["Matthew Turner"]},
{"text": "A very decent seasonal Disney feature which amply refreshes a haggard old template.", "is_fresh": 1, "author": ["David Jenkins"]},
{"text": "Disney are riding a new, confident wave at the moment, and Frozen is a new height.", "is_fresh": 1, "author": ["John Nugent"]},
{"text": "Quietly revolutionary, or boldly feminist, or just a well-told story being true to itself?", "is_fresh": 1, "author": ["Robbie Collin"]},
{"text": "With the consistent success of many Disney princess films lately, it's almost as if they found a way to rejuvenate the sub-genre and are embarking on another golden age of animated features.", "is_fresh": 1, "author": ["Robert Kojder"]},
{"text": "It turns out this film is more like the Disney classics, like \"Snow White and the Seven Dwarfs\" or \"Tangled.\" It has memorable characters and a strong musical score with several good songs.", "is_fresh": 1, "author": ["Robert Roten"]},
{"text": "It won't get any bonus points for breaking new ground, but it does for being very entertaining.", "is_fresh": 1, "author": ["Bill Clark"]},
{"text": "This turns into a squabble that climaxes with Elsa going all Carrie-at-the-prom and freezing the kingdom, before storming off to sing a power ballad.", "is_fresh": 1, "author": ["Ken Hanke"]},
{"text": "These are the first princesses who actually seem born to rule: doing real, important things rather than fulfilling the tweener fantasies about gowns and balls and boys and stuff.", "is_fresh": 1, "author": ["Rob Vaux"]},
{"text": "Crystal-clear 3D animation tells a tale of two sisters, gratifyingly with Prince Charming a mere optional add-on.", "is_fresh": 1, "author": ["Anton Bitel"]},
{"text": "It may be old-fashioned, but it's also as close to an instant classic as family films get.", "is_fresh": 1, "author": ["Eddie Harrison"]},
{"text": "If you thought there was only so much to be done with ice and snow as visual fields, think again along the lines of prismatic crystals, epic storms and fantastical structures built on water's gift for freezing itself into see-through art.", "is_fresh": 1, "author": ["Joe Morgenstern"]},
{"text": "A touching and entertaining fantasy adventure about love, and how it can be both enriching and dangerous. ", "is_fresh": 1, "author": ["Felix Vasquez Jr."]},
{"text": "Following closely in the footsteps of 2010's Tangled,...Frozen hits many of the same beats, and finds some of the same freshness in a complicated family dynamic.", "is_fresh": 1, "author": ["Tasha Robinson"]},
{"text": "Not quite up there with Tangled, but a solid addition to the canon. Catchy tunes will have you humming, but the hunt for the next The Little Mermaid continues...", "is_fresh": 1, "author": ["Josh Winning"]},
{"text": "Frozen' has both showtunes and darkness, but most satisfying is a formula-defying finale that successfully subverts the fairytale status quo.", "is_fresh": 1, "author": ["Catherine Bray"]},
{"text": "The plot's all over the place, but there are a lot of laughs and some strong action beats along the way.", "is_fresh": 1, "author": ["Helen O'Hara"]},
{"text": "A return to form for Disney.", "is_fresh": 1, "author": ["Scott Nash"]},
{"text": "This Disney delight dares to crinkle the studio's patented formula a tad by presenting audiences with not one but two female leads.", "is_fresh": 1, "author": ["Matt Brunson"]},
{"text": "The best animated film of 2013. It's got a timeless magic that may well help it evolve into a classic.", "is_fresh": 1, "author": ["Mike McGranaghan"]},
{"text": "Great in 3D and gratefully, the 3D isn't distracting. This is an animated feature to thaw the hardest heart. ", "is_fresh": 1, "author": ["Gary Wolcott"]},
{"text": "[Its] humming industry and multi-pixelated craft come lit by a spark of something close to genuine enchantment.", "is_fresh": 1, "author": ["Tom Shone"]},
{"text": "...feels like you're either watching the first draft of a classic Disney animated musical or the 347th one.", "is_fresh": 0, "author": ["Josh Larsen"]},
{"text": "I'm afraid a lot of people are going to be distracted by how pretty \"Frozen\" is and ignore its significant flaws.", "is_fresh": 0, "author": ["Pete Vonder Haar"]},
{"text": "The biggest assets to any classic Disney musical are the songs, and the tunes in \"Frozen\" just happen to be the weakest link, making this attempt to return to the glory days of \"The Little Mermaid\" and \"Aladdin,\" an arduous, frigid journey.", "is_fresh": 0, "author": ["Justin Craig"]},
{"text": "What's great about 'Frozen' is how these sisters are able to save themselves and while Snow White couldn't find her way out of a dimly lit room, Anna and Elsa are able to learn and grow and find love and happiness on their own terms.", "is_fresh": 1, "author": ["Mathew DeKinder"]},
{"text": "Disney's brand is showing...", "is_fresh": 0, "author": ["Witney Seibold"]},
{"text": "Frozen is a fine addition to Disney's animated pantheon, offering a witty and heartfelt princess fairly tale with creative musical elements and visual panache.", "is_fresh": 1, "author": ["Sandy Schaefer"]},
{"text": "It has a beautiful, spunky princess and some very nice, catchy musical numbers. ", "is_fresh": 1, "author": ["Jeffrey M. Anderson"]},
{"text": "Frozen can count in its favor visual grandeur, two energetic young women as co-leads, and a couple of plot twists that place the film a cut above your average princess fare.", "is_fresh": 0, "author": ["Kimberley Jones"]},
{"text": "Frozen is an enchanting film that will surely lift spirits for the holiday season. ", "is_fresh": 1, "author": ["Julian Roman"]},
{"text": "Following Disney animation tradition, the sparkling \"Frozen\" features a pair of princesses and dozens of charming non-human characters.", "is_fresh": 1, "author": ["John Wirt"]},
{"text": "It quickly puts every other animated film from this year to shame. And unlike all those pretenders to the throne, 'Frozen' is a comedy that is actually funny, as well as endearing. ", "is_fresh": 1, "author": ["Al Alexander"]},
{"text": "A 3D animated princess tale saluting sisterly love and female empowerment.", "is_fresh": 1, "author": ["Frederic and Mary Ann Brussat"]},
{"text": "A canned 'feisty-pants' Disney product and 'Wicked' knockoff from start to finish. The short, however, is brilliant.", "is_fresh": 0, "author": ["James Verniere"]},
{"text": "It's got that special magic that's been missing from the last several Pixar releases.", "is_fresh": 1, "author": ["Stephen Silver"]},
{"text": "In a year of weak animated features, Frozen - loosely based on \"The Snow Queen\" - takes the lead by default. ", "is_fresh": 1, "author": ["Peter Travers"]},
{"text": "A spirited romp through a traditional Disney princess narrative that ultimately tweaks the formula in ways that make it exciting and new.", "is_fresh": 1, "author": ["Ethan Alter"]},
{"text": "Fulfills every requirement of the Disney princess movie in spectacular fashion.", "is_fresh": 1, "author": ["Josh Bell"]},
{"text": "\"Frozen\" is far and away the best animated movie of 2013. It's not even close.", "is_fresh": 1, "author": ["Rob Thomas"]},
{"text": "Look beyond all the staple elements of Disney animations and you'll see two strong, complicated female characters. Those seem hard to come by even in live-action films.", "is_fresh": 1, "author": ["John Serba"]},
{"text": "It's hard to generate a sense of warmth when the plot points all feel so coldly calculated, and it doesn't help that the musical numbers are so pedestrian.", "is_fresh": 0, "author": ["Adam Nayman"]},
{"text": "Frozen is one of the few recent films to capture that classic Disney spirit.", "is_fresh": 1, "author": ["Bilge Ebiri"]},
{"text": "Full of clever songs, genuine laughs and thrills, plenty of heart and just a touch of romance, [Frozen] definitely holds its own with the likes of The Little Mermaid and Beauty and the Beast.", "is_fresh": 1, "author": ["Cathy Jakicic"]},
{"text": "While the journey may seem overly familiar, the destination has some surprises in store.", "is_fresh": 1, "author": ["Christy Lemire"]},
{"text": "This may be yet another variation on the usual coming-of-age/sisterhood themes so familiar in Disney movies, but who does those better?", "is_fresh": 1, "author": ["Lawrence Toppman"]},
{"text": "Make way for a new kind of fairy tale. These Frozen princesses are the kind we can definitely warm to.", "is_fresh": 1, "author": ["Linda Barnard"]},
{"text": "Gone are many of the story's complexities and its spiritual overtones, replaced by an odd mix of drama, music and comedy designed to entertain the kids and distract the adults from the mediocrity.", "is_fresh": 1, "author": ["Cameron Meier"]},
{"text": "\"Frozen\" is a winter wonder of a family film, the sort of movie you hope for during the holiday season. Well, it's here, go see it.", "is_fresh": 1, "author": ["Tom Long"]},
{"text": "Frozen establishes a strong, confident tone: Cool mythology, rich, vivid animation, and 3-D effects that are actually worth seeing, not just migraine-inducing distractions.", "is_fresh": 1, "author": ["David Hiltbrand"]},
{"text": "For all its professionalism, I found it as cold as the ice rink at Rockefeller Center.", "is_fresh": 0, "author": ["Joe Williams"]},
{"text": "A wonderful family film that offers up some of Disney's best musical moments in years.", "is_fresh": 1, "author": ["John Hanlon"]},
{"text": "Disney claims this feature-length animation is based on Hans Christian Andersen's The Snow Queen, but it feels more like a Hollywood romcom.", "is_fresh": 0, "author": ["Ben Sachs"]},
{"text": "Most importantly, this is a long-needed step in the right direction to a more varied depiction of female characters in Disney's canon.", "is_fresh": 1, "author": ["Kevin McFarland"]},
{"text": "All of this is good, but it's the performances by Menzel and Bell that make the movie work so well.", "is_fresh": 1, "author": ["Rick Bentley"]},
{"text": "You have been misled! Frozen is one of the most magical movies of the year. ", "is_fresh": 1, "author": ["Willie Waffle"]},
{"text": "...this may be the best animated offering out of Hollywood this year.", "is_fresh": 1, "author": ["Daniel M. Kimmel"]},
{"text": "May be the most tragic fairy tale in the Disney canon, which is saying something.", "is_fresh": 0, "author": ["Steven D. Greydanus"]},
{"text": "Among Disney's recent non-Pixar animated efforts, it falls between 'Tangled' and 'Wreck-It Ralph' on the one hand and 'Planes' on the other...middle-grade at best.", "is_fresh": 0, "author": ["Frank Swietek"]},
{"text": "Frozen may not rank as a great Walt Disney animated classic, but it still packs breathtaking scenes, welcome moments of visual and verbal hilarity, plus the most endearing cinematic tribute to sisterhood since A League of Their Own.", "is_fresh": 1, "author": ["Dann Gire"]},
{"text": "Disney's annual holiday release has the hallmarks of Beauty and the Beast and other 1990s-era studio classics, from the regal animation and inspired characters to the soaring musical numbers and heartfelt message.", "is_fresh": 1, "author": ["Kirk Baird"]},
{"text": "The splashy humor and dazzling set pieces of this erratic animated m\u00e9lange compensate for putting a pallid female Mr. Freeze at the center of a paean to sisterly love.", "is_fresh": 1, "author": ["Michael Sragow"]},
{"text": "This isn't one of those animated movies with a lot of current cultural references, and even its wisecracking sidekick is sweet rather than rude. Frozen isn't a classic, but in its way, it's cool.", "is_fresh": 1, "author": ["Jay Stone"]},
{"text": "Disney has taken its share of flak over the years for its old-fashioned, anti-feminist portrayals of princesses, but Frozen helps right that score.", "is_fresh": 1, "author": ["Chris Knight"]},
{"text": "Filled with award-worthy songs, terrific visuals, fun characters and a good mix of drama, comedy, thematic elements and some moments of suspense and action, the pic should appeal to nearly everyone. (Full Content Review for Parents also available)", "is_fresh": 1, "author": ["Jim Judy"]},
{"text": "Frozen is Disney's latest entrant into its classic fairy-tale animation history and mostly lives up to its formidable ancestry even as it tweaks said ancestry's nose.", "is_fresh": 1, "author": ["Joshua Starnes"]},
{"text": "The story-aside from a climax that plays like a too-knowing rebuke to Disney formula-goes tediously through the motions.", "is_fresh": 0, "author": ["Keith Uhlich"]},
{"text": "Unlike in many animated movies, the borrowings aren't so much in-jokey as structural. Homages, of a sort, and fun to spot.", "is_fresh": 1, "author": ["Bob Mondello"]},
{"text": "Disney gets nearly everything right in this animated charmer: wit, warmth, a lovely voice cast and a real message of girl power.", "is_fresh": 1, "author": ["Rafer Guzman"]},
{"text": "It's no secret that Disney princess films are formulaic, and the fact that Chris Buck and Jennifer Lee's Frozen is entertaining without being groundbreaking just confirms that the formula works.", "is_fresh": 1, "author": ["Sherilyn Connelly"]},
{"text": "a new benchmark, a film that fans will find themselves revisiting over and over again", "is_fresh": 1, "author": ["Bill Gibron"]},
{"text": "You'll be ... blissfully entertained ...", "is_fresh": 1, "author": ["Tom Russo"]},
{"text": "Despite the frosty title, it's a warm-hearted, rousing and stunning animated saga ideally poised for the holiday season.", "is_fresh": 1, "author": ["Claudia Puig"]},
{"text": "Its gleaming dream world of snow and ice is one of the most visually captivating environments to be found in a Disney animated film.", "is_fresh": 1, "author": ["Stephen Holden"]},
{"text": "It's almost impossible not to like the film if you grew up consuming Disney animation.", "is_fresh": 1, "author": ["James Berardinelli"]},
{"text": "'Frozen' is filled with so many memorable characters and so many show-stopping musical numbers", "is_fresh": 1, "author": ["Richard Roeper"]},
{"text": "It is encouraging to see Disney crafting women who are focused on something other than the affections of a boy.", "is_fresh": 1, "author": ["David Medsker"]},
{"text": "The voice work is uniformly excellent. Kristen Bell and Idina Menzel are great as Anna and Elsa, and Jonathan Groff is charming as, surprise -- not a prince, but a mountain man.", "is_fresh": 1, "author": ["Dale Roe"]},
{"text": "This isn't a simplistic portrait of light and dark, good and evil, but a story imbued with the complications of real life. You don't expect that out of a Disney fantasy. ", "is_fresh": 1, "author": ["Robert Levin"]},
{"text": "Frozen is the best animated film of the year, a wonderful celebration of music and story....It is a work to be embraced without cynicism, one that can simply be taken on its own merits as a charming, funny, musical experience.", "is_fresh": 1, "author": ["Jason Gorber"]},
{"text": "The filmmakers have a blast skewering all things Nordic and its Broadway musical format works well, but step away and think about the film's big obstacle and there's a glaring problem here...", "is_fresh": 1, "author": ["Laura Clifford"]},
{"text": "\"Frozen\" may be a nod to the pleasures of vintage Disney and old fairy tales, but there's nothing outdated about it.", "is_fresh": 1, "author": ["Stephanie Merry"]},
{"text": "The music consistently entertains. The writing in particular is smart, with nuanced characters and a premium on clever wordplay over cheap laughs and deprecating humor.", "is_fresh": 1, "author": ["Peter Hartlaub"]},
{"text": "Compelling interpretations of classic stories is what built Disney's brand. It's good to see that they're still on the job.", "is_fresh": 1, "author": ["Colin Covert"]},
{"text": "It's just dazzling fun that shows that Disney can still deliver.", "is_fresh": 1, "author": ["Tony Hicks"]},
{"text": "There's no way you're walking out of 'Frozen' without a pep in your step, massive smile on your face and the desire to build a snowman.", "is_fresh": 1, "author": ["Perri Nemiroff"]},
{"text": "Has the ring of classic Disney seamlessly combined with a modern-day sensibility. ", "is_fresh": 1, "author": ["Rene Rodriguez"]},
{"text": "Frozen is a squarely enchanting fairy tale that shows you how the definition of what's fresh in animation can shift.", "is_fresh": 1, "author": ["Owen Gleiberman"]},
{"text": "It doesn't deliver the real goods, eschewing a deepening, psychologically penetrating narrative for a \"Frozen\"-like, shapeless succession of eye-popping set pieces and impressive effects.", "is_fresh": 0, "author": ["Tom Keogh"]},
{"text": "The movie is like an ice cube that's started melting from the inside: sharp and bracing around the edges, but hollow at the center.", "is_fresh": 0, "author": ["Dan Kois"]},
{"text": "\"Frozen\" has all the allure of a snow globe. It whips up a grand, wintry beauty, but it does little else. And there are dozens of other Disney globes just like it.", "is_fresh": 0, "author": ["Jon Niccum"]},
{"text": "This is a grandly entertaining film, full of vigor and wonder.", "is_fresh": 1, "author": ["Mark Dujsik"]},
{"text": "With great voice work, fantastic music, and a script that feels like its themes emerge naturally from its story and characters instead just being forced upon them, Frozen is Disney's best animated feature since The Lion King.", "is_fresh": 1, "author": ["Brian Tallerico"]},
{"text": "The film basically works. It's entertaining, and following an old Disney tradition \"Frozen\" works some old-school magic in its nonhuman characters.", "is_fresh": 1, "author": ["Michael Phillips"]},
{"text": "Gad gives an inventive supporting performance that instantly takes its place with the greatest in animated movies.", "is_fresh": 1, "author": ["Chris Hewitt (St. Paul)"]},
{"text": "What's especially encouraging about it is how directors Chris Buck and Jennifer Lee take a classic tale - Anderson's \"The Snow Queen\" - and update it, without beating us over the head with references that draw attention to the modernization.", "is_fresh": 1, "author": ["Bill Goodykoontz"]},
{"text": "The animation is beautiful, the music is catchy and the lyrics are clever.", "is_fresh": 1, "author": ["Laremy Legel"]},
{"text": "Just buy the album.", "is_fresh": 0, "author": ["Matt Pais"]},
{"text": "Despicable Me 2 will likely go down as the year's highest-grossing animated film, but Frozen is the most complete we've seen so far in 2013. ", "is_fresh": 1, "author": ["Mike Scott"]},
{"text": "It's a lovely story and mostly well-told.", "is_fresh": 1, "author": ["Elizabeth Weitzman"]},
{"text": "Although, yes, it's yet another princess fable - gotta keep that Disney franchise growing - it mostly about real-life sisterhood.", "is_fresh": 1, "author": ["Stephen Whitty"]},
{"text": "It has its charms, but the thin story and forgettable tunes mean this isn't one of Disney's best", "is_fresh": 1, "author": ["Roger Moore"]},
{"text": "There's undeniable charm to be found in the movie, which features wonderful singing, dazzling animation, and some cheeky Nordic humor, helping to enliven what's often a disappointingly routine picture. ", "is_fresh": 1, "author": ["Brian Orndorf"]},
{"text": "\"Frozen\" is lighthearted and funny when it wants to be, but its dramatic core is where it gets its strength and durability.", "is_fresh": 1, "author": ["Dustin Putman"]},
{"text": "This animated adaptation of \"The Snow Queen\" has a familiar setup, but a skillful and modern execution.", "is_fresh": 1, "author": ["Marc Mohan"]},
{"text": "The animation in ''Frozen'' is premium and the 3-D earmark adds to the pearly appeal of the ice and snow, but we are lacking in the sweeping romance we've grown accustomed to in a Disney princess movie.", "is_fresh": 1, "author": ["Jessica Herndon"]},
{"text": "With a cool, contemporary spin on a fairy-tale classic, a dramatic Nordic landscape animated in splendid storybook style and Broadway vets belting out power ballads, Frozen is an icy blast of fun from the very first flake.", "is_fresh": 1, "author": ["Betsy Sharkey"]},
{"text": "It's great to see Disney returning to its roots and blooming anew: creating superior musical entertainment that draws on the Walt tradition of animation splendor and the verve of Broadway present.", "is_fresh": 1, "author": ["Richard Corliss"]},
{"text": "This is an extravagant yet profound story for the entire family.", "is_fresh": 1, "author": ["JimmyO"]},
{"text": "There's never a dull moment in \"Frozen,\" which throws in a fearsome snow monster, a life-and-death race to rescue one of its principals, and unexpected character twists..", "is_fresh": 1, "author": ["Leonard Maltin"]},
{"text": "Disney has reclaimed its animation crown with this fast-paced comedic adventure, ready to warm even the coldest of hearts.", "is_fresh": 1, "author": ["Susan Granger"]},
{"text": "Not quite the return to form that the studio may have hoped for, the movie's grand scale and full-fledged musical score will still insure its long commercial afterlife.", "is_fresh": 1, "author": ["Daniel Eagan"]},
{"text": "It's never very funny, nor is the music particularly memorable. Two big strikes right there. ", "is_fresh": 0, "author": ["Marshall Fine"]},
{"text": "If there's something wrong with a grown man confessing his adoration for Frozen, then I don't want to be right.", "is_fresh": 1, "author": ["Matt Donato"]},
{"text": "\"Frozen\" is a great big snowy pleasure with an emotionally gripping core, brilliant Broadway-style songs and a crafty plot.", "is_fresh": 1, "author": ["Kyle Smith"]},
{"text": "Frozen feels a little like a Las Vegas tribute show: it hits all the recognizable beats without quite capturing the soul of what it's paying tribute to.", "is_fresh": 0, "author": ["Geoff Baker"]},
{"text": "Frozen is a magnificent film, a gorgeously animated, well-told and beautifully evocative adaptation of Anderson's tale - but the only fairy tale ending that comes out of it is how well all of its unconventional parts come together.", "is_fresh": 1, "author": ["Todd Gilchrist"]},
{"text": "This is simply charming cinema, and to counteract the film's title somewhat, it sure does leave you feeling rather warm.", "is_fresh": 1, "author": ["Stefan Pape"]},
{"text": "'Frozen' is a case of strong creative alchemy, where everything works together just right, in ways they probably couldn't have imagined.", "is_fresh": 1, "author": ["Drew McWeeny"]},
{"text": "Walt Disney Animation is back from the dead.", "is_fresh": 1, "author": ["Kirk Honeycutt"]},
{"text": "This is rigorous Disney hit-making at its finest, but with enough charm to get away with it. ", "is_fresh": 1, "author": ["Katey Rich"]},
{"text": "It straddles the classic and the current in a way that will delight Disney geeks of all stripes, and its wonderfully girl-powered story melted the heart of even a Disney cynic like me. ", "is_fresh": 1, "author": ["Devin Faraci"]},
{"text": "The showstopping central musical number is a glorious anthem to female power and ability... and so, in fact, is the whole wonderful movie. Disney is finally getting it.", "is_fresh": 1, "author": ["MaryAnn Johanson"]},
{"text": "Anna needs a boyfriend like a reindeer needs a bicycle, and while that isn't to say she isn't tickled by the attention, 'Frozen' passes any number of \"is this a good role model for girls?\" tests in my book.", "is_fresh": 1, "author": ["Jordan Hoffman"]},
{"text": "Disney Animation's best feature since The Lion King.", "is_fresh": 1, "author": ["William Bibbiani"]},
{"text": "The film's empowering themes of feminine strengths and bonds eventually flourish in novel fashion. ", "is_fresh": 1, "author": ["R. Kurt Osenlund"]},
{"text": "Looks terrific and has plenty of relatively innocent fun and adventure ...", "is_fresh": 1, "author": ["Mark Adams"]},
{"text": "Frozen feels like classic Disney animation. If someone had announced Frozen as the studio's follow-up to Beauty & the Beast, no one would blink. It's that good.", "is_fresh": 1, "author": ["Drew Taylor"]},
{"text": "This smartly dressed package injects a traditional fairy tale, Hans Christian Andersen's The Snow Queen, with enough contemporary attitudes and female empowerment touches to please both little girls and their moms. ", "is_fresh": 1, "author": ["Todd McCarthy"]},
{"text": "This always enjoyable tale of mysterious magic, imperiled princesses and square-jawed men of action proves longer on striking visuals than on truly engaging or memorable characters.", "is_fresh": 1, "author": ["Scott Foundas"]},
{"text": "Frozen is an exhilarating, joyous, human story that's as frequently laugh-out-loud funny as it is startling and daring and poignant.", "is_fresh": 1, "author": ["Emma Dibdin"]},
{"text": "Given that it's a Disney cartoon, you probably already know how it ends, but what's interesting about Frozen is that you may not predict how they're going to get there. And for children's animation, that's a wilder ride than we usually get.", "is_fresh": 1, "author": ["Alonso Duralde"]}
]