[
{"reviews_count": "249", "title": "Furious 7", "avg_audience_rating": "4.1", "rotten_count": "49", "tomatometer": "80", "audience_score": "82", "avg_critic_rating": "6.7", "fresh_count": "200", "user_ratings_count": "194,572"},
{"text": "No matter how you feel about these films, the seventh one isn't going to suddenly change your opinion.", "is_fresh": 1, "author": ["Zaki Hasan"]},
{"text": "It's an entertaining and carefree party of a movie from start to finish, screaming nonsense at the top of its voice and paying no attention to the obvious illogic in its thinking.", "is_fresh": 1, "author": ["Jennifer Heaton"]},
{"text": "Fast cars, gorgeous characters, adrenaline pumping action, and an ending that warms the heart. This franchise isn't for everyone, but it's definitely for me.", "is_fresh": 1, "author": ["Aaron Peterson"]},
{"text": "Furious 7 is full of absurd, intricate stunt sequences that are quite gleeful in their lack of bearing on reality.", "is_fresh": 1, "author": ["Molly Templeton"]},
{"text": "This constant bombardment just becomes boring.", "is_fresh": 0, "author": ["Pamela Powell"]},
{"text": "At this point, the cast can play these roles in their sleep. And it shows. You genuinely believe that they're all friends as a result of their chemistry.", "is_fresh": 1, "author": ["Keith Reid-Cleveland"]},
{"text": "[Paul] Walker bows out with a fitting send off.", "is_fresh": 1, "author": ["Eli Glasner"]},
{"text": "That is how you do dude movies. ", "is_fresh": 1, "author": ["Andre Meadows"]},
{"text": "It's an interesting mixture: it's dumb and over-the-top, but also, due to Walker's death, emotional and solemn. [Full review in Spanish]", "is_fresh": 1, "author": ["Sebastian Zavala Kahn"]},
{"text": "These movies are about implausibility and giving the middle finger to physics in order to deliver unforgettable fistfights, car chases, one-liners, and non-stop mayhem", "is_fresh": 1, "author": ["Robert Kojder"]},
{"text": "... Furious 7 is a fitting sendoff for the franchise, not only to the many millenials who grew up with the films but the rest of us who admire them for their penchant for rebellion, diverse casts and, yes, their foolishness.", "is_fresh": 1, "author": ["Candice Frederick"]},
{"text": "A fitting wake for a lost friend.", "is_fresh": 1, "author": ["Brooke Corso"]},
{"text": "Furious 7, more so even than its Furious Forefathers, is about people who love each other un-self-consciously (and the way they express said love with their cars).", "is_fresh": 1, "author": ["Carolyn Cox"]},
{"text": "This installment makes it easy to feel like you've been part of the gang forever, introducing the characters with just the right balance of affection and respect.", "is_fresh": 1, "author": ["Eleanor Ringel Cater"]},
{"text": "Great and familiar cast, excellent script, superb production values and the direction is tight as a drum. Can't say this is the best film of the franchise, because so many of them have been excellent. But it's easily the most daring.", "is_fresh": 1, "author": ["Dwight Brown"]},
{"text": "Furious Seven is constructed of clich\u00e9s ('You do whatever you gotta do') and lines that aspire to be clich\u00e9s ('There's a billion things that's wrong-but not in this moment').", "is_fresh": 0, "author": ["Sonny Bunch"]},
{"text": "Gleefully sexist (buttttttts!), stupefyingly loud and heart-hurtingly ridiculous, you at least can't accuse Furious 7 of being boring. Or nuanced, or aware of the basic laws of science. But it sure is angry.", "is_fresh": 0, "author": ["Tara Thorne"]},
{"text": "Seven-year itch?", "is_fresh": 0, "author": ["S. James Wegg"]},
{"text": "Dom's various vehicles are vehemently put through the wringer in the engine-block-destroying 'Furious 7.' It's like banging your head between two trash can lids, except fun!", "is_fresh": 1, "author": ["Mark Jackson"]},
{"text": "Fast 7 delivers exactly what fans want: a high-octane thrillride that's a fitting tribute to its late star.", "is_fresh": 1, "author": ["Chris Schulz"]},
{"text": "The juvenile implausibility of the stunts has always been the strength of the franchise.", "is_fresh": 1, "author": ["Kong Rithdee"]},
{"text": "Wan has done an admirable job salvaging the project, but it might have been more at home in the salvage yard, among other abandoned films lost to time and circumstance.", "is_fresh": 0, "author": ["J. Olson"]},
{"text": "Ultimately though, this was always about the bromance between Dominic and Brian and the film's ending will have the biggest car fans sniffing quietly into their popcorn. But, for now, this one is very much for the fans.", "is_fresh": 1, "author": ["Theresa Smith"]},
{"text": "While [Paul Walker's] goodbye is heartfelt and important, it hurts the film's standalone capability.", "is_fresh": 0, "author": ["Jared Mobarak"]},
{"text": "... the character is ladled on thick and the stunts are so outrageous that you either dismiss the whole thing out of hand or go with the madness and enjoy the ride.", "is_fresh": 1, "author": ["Sean Axmaker"]},
{"text": "Heavy-hearted, lead footed and energetic as hell, this James Wan directed joint fits right into the franchise.", "is_fresh": 1, "author": ["Neil Miller"]},
{"text": "The images are breathtaking, as are the ideas that any vehicle could actually handle such abuse, specifically abuse for which they are absolutely and utterly not made to handle.", "is_fresh": 1, "author": ["Cynthia Fuchs"]},
{"text": "With its incredibly entertaining action, this series has plenty of fuel left in the tank.", "is_fresh": 1, "author": ["Alex Zane"]},
{"text": "As we must do in life, they celebrate his life but move on, giving fans a fitting tribute to one of the men who helped establish what has become one of Hollywood's most formidable franchises.", "is_fresh": 1, "author": ["David Blaustein"]},
{"text": "The chemistry between Walker and his costars, his friends, gives this muscled sledgehammer of a film some surprisingly gentle moments that you'll think about hours later.", "is_fresh": 1, "author": ["Alex Abad-Santos"]},
{"text": "Another factor that makes Furious 7 highly watchable is director James Wan's commitment to following the action from several characters' points of view within each set piece, and to making that action legible, if rarely plausible.", "is_fresh": 1, "author": ["Margot Harrison"]},
{"text": "Freshens up the usual over-the-top thrills.", "is_fresh": 0, "author": ["Dennis Schwartz"]},
{"text": "Holding it all together is Diesel, who comes off as a steroid-stoked Buddha; even in the midst of chaos he calmly delivers proverbs in a rumbling basso: \"Everyone's looking for the feel, but what's real is family.\" Whatever.", "is_fresh": 0, "author": ["Robert W. Butler"]},
{"text": "The crowd cheers. Vin Diesel glowers. At almost 2 1/2 hours it isn't exactly fast, but it's as furious as hell.", "is_fresh": 1, "author": ["Jay Stone"]},
{"text": "The fact that Furious 7 is messier than any of the past installments is more than mitigated by its grandeur. \"Dom, cars don't fly! Cars don't fly!\" Brian yells before its biggest stunt. Furious 7 makes you believe they can.", "is_fresh": 1, "author": ["Alison Willmore"]},
{"text": "While the final salute to Paul is sweet, there's so much here that's tiresome -- not least the fact that almost nothing here involving cars is real.", "is_fresh": 0, "author": ["David 'Mad Dog' Bradley"]},
{"text": "If you know how to lower your standards you'll have a great time. [Full review in Spanish]", "is_fresh": 0, "author": ["Cuauht\u00e9moc Ruelas"]},
{"text": "One of the best movies of the year.", "is_fresh": 1, "author": ["Felix Vasquez Jr."]},
{"text": "Much of the hilarity in these films -- and they really are very funny -- comes from watching the excess as characters try to outdo one another's manliness.", "is_fresh": 1, "author": ["Helen O'Hara"]},
{"text": "Can you really call a film bad if it achieves exactly what it sets out to achieve?", "is_fresh": 1, "author": ["Josh Terry"]},
{"text": "Furious 7 ridiculously and often spectacularly forgoes any and all semblance of real world gravitas as its muscle cars race over cliffs, ski down tree-laden slopes and fly through the air.", "is_fresh": 1, "author": ["Stephen Schaefer"]},
{"text": "The franchise's way of bidding adieu to Paul Walker is tastefully, even touchingly achieved.", "is_fresh": 1, "author": ["Rob Gonsalves"]},
{"text": "I'm waiting for the scene in this series when Vin Diesel straps himself to a Wile E. Coyote rocket and lights the fuse. ", "is_fresh": 1, "author": ["Rob Vaux"]},
{"text": "The actors are completely secondary. The hoops they jump through to get to the next action scene are just that. The expositional dialogue [starts] only after the action scene has, because they know we don't care why they're there: We're already with them.", "is_fresh": 1, "author": ["Eric Melin"]},
{"text": "The movie feels stitched together and soldiered-on, with a heart-like-a-wheel coda that's not particularly well-executed, and is weirdly moving all the same.", "is_fresh": 0, "author": ["Sean Burns"]},
{"text": "It's a franchise of winking ridiculousness, in which the characters take themselves far too seriously while giving you hints that they are in on the gag.", "is_fresh": 1, "author": ["Daniel Gelb"]},
{"text": "Outlandish as it all is, the movie delivers the goods.", "is_fresh": 1, "author": ["Jim Lane"]},
{"text": "After cars have been smashed and big-ticket weaponry unleashed, it is really about family, friendship and loss.", "is_fresh": 1, "author": ["Jyoti Sharma Bawa"]},
{"text": "Try to remember what happened in the last few Fast & Furious films and it will blend into one head-crushingly loud montage of vehicles flipping and exploding.", "is_fresh": 0, "author": ["John Lui"]},
{"text": "The Fast and Furious franchise hits its nadir with this overlong and aggressively over-the-top entry...", "is_fresh": 0, "author": ["David Nusair"]},
{"text": "...while the effects shots and stunt work keep you on the edge of your seat, you can't shake that feeling that it's all one Wile E. Coyote gag from a Looney Tunes cartoon.", "is_fresh": 1, "author": ["Kevin A. Ranson"]},
{"text": "... a handful of dazzling action set pieces and impressive stunts will delight fans, even if they don't make much narrative sense or contain much subtlety or surprise.", "is_fresh": 0, "author": ["Todd Jorgenson"]},
{"text": "Either get out of the way or go along for the ride", "is_fresh": 1, "author": ["Robert Denerstein"]},
{"text": "To really enjoy these films, it is important to understand that at their core, they are comedies.", "is_fresh": 1, "author": ["Bruce Bennett"]},
{"text": "A big, noisy, ridiculously diverting time, that not only gives a proper sendoff to the character of Brian O' Conner, but manages to be a whole lot of fun in the process.", "is_fresh": 1, "author": ["Chris Stuckmann"]},
{"text": "The action scenes are ridiculous and implausible, but they are undeniably entertaining. Everything else, though, is drudgery.", "is_fresh": 0, "author": ["Eric D. Snider"]},
{"text": "Has a heightened sense of mortality giving the series stakes for once, born of tragic circumstances due to the passing of Paul Walker, handled deftly by director James Wan", "is_fresh": 1, "author": ["Cameron Williams"]},
{"text": "Operating with the same adolescent, bacchanalian glee of a comic book... Furious 7 thrusts the series to new heights of intensity, emotion, and head-shaking absurdity.", "is_fresh": 1, "author": ["Nathanael Hood"]},
{"text": "If this episode is a little less coherent than the previous two, it's still very much a Fast and Furious movie, which means it's two tons of fun.", "is_fresh": 1, "author": ["CJ Johnson"]},
{"text": "A captivating combination of camaraderie and cartoon physics tempered by just enough nostalgia to tug at your heartstrings.", "is_fresh": 1, "author": ["Kam Williams"]},
{"text": "Once you've defeated gravity in one scene, why not just keep doing it? ", "is_fresh": 1, "author": ["Linda Cook"]},
{"text": "The victory lap of Furious 7 proves there's still plenty of gas left in the tank.", "is_fresh": 1, "author": ["Christopher Lawrence"]},
{"text": "The touching tribute to Walker puts the entire series into perspective and will make many eyes teary. The film's flaws suddenly vanish when you realise that if there is another film in this series, it just wouldn't be the same.", "is_fresh": 1, "author": ["Reagan Gavin Rasquinha"]},
{"text": "Though many scratched their heads when Aussie filmmaker, James Wan, was tapped to replace the departing Justin Lin in the director's chair, he proves to be a perfect fit.", "is_fresh": 1, "author": ["Erin Free"]},
{"text": "Wan and Morgan, stuffing another plot into the main plot like a cinematic turducken, justify a series of jaw-dropping car stunts in settings such as Azerbaijan and Abu Dhabi.", "is_fresh": 0, "author": ["Sean P. Means"]},
{"text": "With heroes like these, who needs terrorists?", "is_fresh": 0, "author": ["John Beifuss"]},
{"text": "Put simply and bluntly, Fast & Furious 7 is great, thrilling, balls-to-the-wall entertainment. It's not only, and easily, the best in the F&F series, it's one of the best car operas you're ever likely to see.", "is_fresh": 1, "author": ["Jim Schembri"]},
{"text": "Paul Walker's action scenes excite without feeling exploitative and the finale saves it. The bummer is that \"Furious Seven\" needs saving, as too much of it feels more like joyless, obligatory and bereaved due diligence than a fist-pumping thrill.", "is_fresh": 1, "author": ["Nick Rogers"]},
{"text": "It's pretty great. Or at least, it's pretty much exactly the movie it should be, even with all its lumps and missteps.", "is_fresh": 1, "author": ["Tim Brayton"]},
{"text": "Rev your engines... and grab the tissues. Furious 7 delivers the same outrageous thrill ride you expect , but tears will also flow for the late Paul Walker.", "is_fresh": 1, "author": ["Kit Bowen"]},
{"text": "7 disappoints a little because it doesn't go off the rails enough, especially in comparison to the last two movies.", "is_fresh": 0, "author": ["Gary Dowell"]},
{"text": "Along with all of the nonsense, Furious 7 is built on a series of forced dialogues and a bad mix of different movie genres that make the story hard to believe.", "is_fresh": 0, "author": ["Mabel Salinas"]},
{"text": "The special effects are simply spectacular.", "is_fresh": 1, "author": ["Sergio L\u00f3pez Aguirre"]},
{"text": "It's becoming increasingly hard to outright dismiss this franchise, even if every nuanced critical bone in my body would love to do so. ", "is_fresh": 1, "author": ["Robert Levin"]},
{"text": "The action and chase sequences are visceral and triumphant but Furious 7 is undone by a misogynistic streak that runs all the way through the movie and director James Wan's relentless objectification of its female characters.", "is_fresh": 1, "author": ["Sam Bathe"]},
{"text": "The director, James Wan, sends cars repeatedly airborne and seems himself to marvel at the results; the movie's real subject is the stunt work, but its stars' authentic chemistry lends melody to its relentless beat.", "is_fresh": 1, "author": ["Richard Brody"]},
{"text": "Explosive, spectacular and surprisingly touching, Episode 7 is a fitting tribute to Paul Walker. ", "is_fresh": 1, "author": ["Andy Lea"]},
{"text": "'Furious Seven' is not the best movie in the series. It is a fine farewell tribute to (Paul) Walker and a dizzying popcorn feature.", "is_fresh": 1, "author": ["Bob Bloom"]},
{"text": "The film-makers give Paul Walker and his Brian O'Conner character a graceful farewell - perhaps that's what's most memorable.", "is_fresh": 1, "author": ["Susan Granger"]},
{"text": "While there's a deeply sentimental tone throughout, Furious 7 is also the biggest, loudest, and \"holy crap that was incredible!!!\" chapter yet. ", "is_fresh": 1, "author": ["Travis Hopson"]},
{"text": "It's flying cars and explosions. Chitty Chitty Bang Bang Bang Bang.", "is_fresh": 1, "author": ["Nell Minow"]},
{"text": "I'm not ashamed to say (ok, maybe a little) that I cried like a baby at the end - but I didn't ugly cry. A perfect ending to this 7 film ride and they should just stop now and leave on a high note.", "is_fresh": 1, "author": ["Michelle Alexandria"]},
{"text": "The action sequences are ridiculously over-the-top... but they're done in a semi-comedic way that is still entertaining.", "is_fresh": 1, "author": ["Matthew Toomey"]},
{"text": "A deafening orgy of explosions, car chases, well-polished bumpers (human and automotive), explosions, fist-fights and more explosions.", "is_fresh": 1, "author": ["Mark Kermode"]},
{"text": "As zippy, playful and amiably preposterous as the best of the previous models.", "is_fresh": 1, "author": ["Mark Jenkins"]},
{"text": "Yes, it's just more junk in the trunk, but it sure leaves your heart racing. ", "is_fresh": 1, "author": ["Al Alexander"]},
{"text": "\"Furious 7\" could have come across as ghoulish, but it's not until the very end that we're reminded of Walker's fate, and the filmmakers handle it with taste and respect.", "is_fresh": 1, "author": ["Richard Roeper"]},
{"text": "While the story ran out of steam long ago, there's plenty of action and excitement that kept the engine going. Another fun ride and first rate entertainment.", "is_fresh": 1, "author": ["Wilson Morales"]},
{"text": "The film ends on a sentimental note with a tear-jerking tribute to the late Paul Walker. The audience applauded at the end. I did too. Many of us sat through the credits hoping to see a Fast 8 teaser. There isn't one. None of us want this series to end.", "is_fresh": 1, "author": ["Robert Roten"]},
{"text": "For now, let's just marvel at how much mileage the studio has gotten out of what are basically 1950s-style \"B\" programmers supercharged for contemporary audiences.", "is_fresh": 1, "author": ["Matt Brunson"]},
{"text": "The ending of Furious 7 is downright touching...", "is_fresh": 1, "author": ["Josh Larsen"]},
{"text": "Spectacular stunts, a touching send-off for Paul Walker and pedal-to-the-metal action make this one furiously good - best in the series so far.", "is_fresh": 1, "author": ["Pete Hammond"]},
{"text": "It's Dom's story -- so fun and funny and exhilaratingly over the top -- that resonates.", "is_fresh": 1, "author": ["Annlee Ellingson"]},
{"text": "Furious 7 is louder and crazier than the previous films, but crazy in a sense that is borderline mentally ill. Its brainless and senseless action is almost as offensive as its terrible jabs at humor. ", "is_fresh": 0, "author": ["Chris Sawin"]},
{"text": "I have now seen all of the R\u00e1pido y Furioso movies, and I can recall almost no salient details about any of them. ", "is_fresh": 0, "author": ["Pete Vonder Haar"]},
{"text": "Rather than simply ignoring physics, it downright defies physics with what we see happen on screen. The result is a giant Looney Tunes car chase for more than two hours.", "is_fresh": 1, "author": ["Kevin Carr"]},
{"text": "It remains a reliably entertaining series but if its to go on much longer those in creative control will have to sit down and think hard about how to give future sequels more life than pyrotechnic polish.", "is_fresh": 0, "author": ["Ed Whitfield"]},
{"text": "Fabulously stacked with furiously over the top, in a good way, action. Call it Car Wars. ", "is_fresh": 1, "author": ["John Wirt"]},
{"text": "A tedious, vapid and over-produced bore that will surely please the shallow masses who are unashamedly entertained by bread and circuses.", "is_fresh": 0, "author": ["Avi Offer"]},
{"text": "Who would have thought that a series addicted to the high of movement could also summon a solemnity that leaves you moved?", "is_fresh": 1, "author": ["Wesley Morris"]},
{"text": "It's bananas -- a loud, crackpot joyride and you'll love every messed-up minute of it.", "is_fresh": 1, "author": ["Stephen Rebello"]},
{"text": "The gloriously idiotic, jingoism-tinged pro wrestling morality play that Michael Bay has been trying to make for his entire career.", "is_fresh": 1, "author": ["Vincent Mancini"]},
{"text": "James Wan (\"The Conjuring\") steps out of his genre to supervise traffic and he does an excellent job. ", "is_fresh": 1, "author": ["Paul Chambers"]},
{"text": "This whole series is little more than adolescent boy wish fulfillment; and as a former adolescent boy that is cool with me. ", "is_fresh": 1, "author": ["Mathew DeKinder"]},
{"text": "A tactful and touching legacy for Paul Walker, \"Furious 7\" is a relentlessly action-packed thrill ride that actually has a story, too. Its fun is propelled by characters you give a frick about even if you've never called yourself a franchise fan before.", "is_fresh": 1, "author": ["Adam Fendelman"]},
{"text": "Furious 7 is another solid Fast and the Furious installment - one that (flaws aside) provides a nice farewell to star Paul Walker.", "is_fresh": 1, "author": ["Sandy Schaefer"]},
{"text": "The movie that is staggered by real life tragedy but refuses to be felled; it blurs the line between the world of the characters and the real world in a way that is so effective and affecting that the finale packs a humongous emotional punch.", "is_fresh": 1, "author": ["Devin Faraci"]},
{"text": "Takes no names. Saves no places... The racing franchise continues bigger and better...", "is_fresh": 1, "author": ["Leonard Maltin"]},
{"text": "Has a lot of the same problems as its most recent predecessors. The dialogue is flat, the action scenes are over-edited so that it's not always clear what you're looking at, and situations often get so implausible that it becomes a distraction.", "is_fresh": 0, "author": ["Mike McGranaghan"]},
{"text": "Furious 7 is undeniably satisfying and mostly fun. More than pure escapism, however, it also serves as a fitting tribute to its costar Paul Walker, who was killed in a car accident while on a break during filming.", "is_fresh": 1, "author": ["Kirk Baird"]},
{"text": "James Wan directs Furious 7 like a boy tossing his Matchbox cars and action figures down the steps.", "is_fresh": 0, "author": ["John Serba"]},
{"text": "The only grace note in this otherwise determinedly graceless movie is the classy way Walker's exit is handled. To say more is to say too much.", "is_fresh": 1, "author": ["Peter Rainer"]},
{"text": "I have never once, not ever, been genuinely disappointed in a The Fast and the Furious movie. It is, by far, the most satisfying franchise in American action cinema... That being said, something is very slightly off in Furious 7.", "is_fresh": 1, "author": ["Joe Gross"]},
{"text": "Furious 7 is exactly what most popular movies are today: behemoth amusement rides adding more preposterous loop-de-loops with each sequel because nothing succeeds like excess. No brand does that better than the Fast & Furious franchise. ", "is_fresh": 1, "author": ["Steve Persall"]},
{"text": "The latest instalment of the franchise cost a pretty penny, yet often feels less like a slick blockbuster than a demented day-time soap.", "is_fresh": 0, "author": ["Charlotte O'Sullivan"]},
{"text": "A masterful cavalcade of carefully orchestrated vehicular mayhem, a dose of high-octane escapism ramped up to ridiculous, fantastical extremes.", "is_fresh": 1, "author": ["Neil Pond"]},
{"text": "Furious 7 kicks the biggest and hardest, but it's far from the best.", "is_fresh": 1, "author": ["David Edelstein"]},
{"text": "This is an immensely entertaining movie, and if the filmmakers are wise, they'll quit on this high note.", "is_fresh": 1, "author": ["Odie Henderson"]},
{"text": "It's Mission: Impossible with extra emphasis on \"impossible,\" & a gleeful anarchistic disregard for how often it jumps the shark (& a few skyscrapers) because it's having too much damn fun to care.", "is_fresh": 1, "author": ["Mark Hughes"]},
{"text": "Trust me when I say absolutely nothing's been left out of Furious 7. A thrill ride from beginning to end. ", "is_fresh": 1, "author": ["Chris Bumbray"]},
{"text": "It's time to come back to earth, which this film only does in its memorial coda to Paul Walker, a fine sendoff which doesn't take the road most traveled.", "is_fresh": 0, "author": ["Laura Clifford"]},
{"text": "The stunts are pure insanity, and the best part is, even though I'm sure there is a sizable helping of digital effects involved, there is a lot of actual, old-fashioned stunt work on the screen ...", "is_fresh": 1, "author": ["Greg Maki"]},
{"text": "Suspension of disbelief is a must and watching Paul Walker in his last movie is like watching a ghost. It's uncomfortable at times. ", "is_fresh": 1, "author": ["Gary Wolcott"]},
{"text": "Overall, it's a job well done and, ultimately, a fitting tribute to both the late actor and his character. (Full Content Review -- Sex, Profanity, Violence, etc. -- for Parents also available)", "is_fresh": 1, "author": ["Teddy Durgin"]},
{"text": "Furious 7 is everything you expect it to be. An over-the-top car chase film jam packed with fist fights, gun battles, insanely awesome set pieces and lots of dialog about family. ", "is_fresh": 1, "author": ["Matthew Razak"]},
{"text": "State-of-the-art automotive uproar, room-wrecking MMA-style smack-downs, and wild stunts performed by real live people. ", "is_fresh": 1, "author": ["Kurt Loder"]},
{"text": "Soap opera with supercars and explosions. Pitch perfect tribute to Paul Walker. What's not to love? ", "is_fresh": 1, "author": ["Rebecca Cusey"]},
{"text": "Furious 7 has so much adrenaline and testosterone that women who see the movie could become pregnant.", "is_fresh": 1, "author": ["Willie Waffle"]},
{"text": "...lazy and annoying, devoid of any hint of what might have once made it interesting. But that is not to say that there aren't exciting moments, it's just that none of them add up to anything we care about.", "is_fresh": 0, "author": ["Jonathan W. Hickman"]},
{"text": "If you gave a 15-year-old boy $250million and told him to go away and make a movie, the result would probably look like this.", "is_fresh": 1, "author": ["David Edwards"]},
{"text": "It's not a magnificent seven but fans will certainly lap it up.", "is_fresh": 1, "author": ["Allan Hunter"]},
{"text": "It's all entertaining enough, I suppose. But there's a twisted coldness under the action that's anxiously concealed by the characters' refrains of the importance of \"family\" and sticking together and other ostensibly nice stuff.", "is_fresh": 0, "author": ["John Semley"]},
{"text": "The real stars of these films are the bonkers action setpieces, and \"Furious 7\" achieves new high points in that department.", "is_fresh": 1, "author": ["Adam Graham"]},
{"text": "It's not the best \"Furious\" but it's far from the worst.", "is_fresh": 1, "author": ["Chris Hewitt (St. Paul)"]},
{"text": "The story is an appropriately flimsy excuse for a series of undercards - Statham vs. Rock, Tony Jaa vs. Paul Walker (twice), Michelle Rodriguez vs. Ronda Rousey.", "is_fresh": 1, "author": ["Gary Thompson"]},
{"text": "It's all dumb, but it's wonderfully, comfortably dumb in just the right way.", "is_fresh": 1, "author": ["Molly Eichel"]},
{"text": "The brashest, noisiest, most ludicrously outrageous in the series so far. No surprises there... What is unexpected is quite how tender and poignant the film should turn out to be, a touching farewell to departed star Paul Walker.", "is_fresh": 1, "author": ["Jason Best"]},
{"text": "Furious 7 is basically a live action version of Grand Theft Auto, with a touching tribute to its fallen star - Paul Walker. ", "is_fresh": 1, "author": ["Julian Roman"]},
{"text": "This is a franchise where the filmmakers and stars willingly embrace the absurd so going in your motto should be 'everything is impossible, but awesome.' ", "is_fresh": 1, "author": ["Jeffrey Lyles"]},
{"text": "Fun, exciting and emotionally involving, this sequel delivers the best qualities of this series and a stirring tribute to the late Paul Walker.", "is_fresh": 1, "author": ["John Hanlon"]},
{"text": "\"Over-the-top\" doesn't cut it as a descriptor for these movies any more - there needs to be an adjective for whatever is above \"over-the-top\", because that's what F&F7 is.", "is_fresh": 1, "author": ["Matt Neal"]},
{"text": "Though its respect for road safety or, indeed, logic, is flimsy at best, Fast & Furious 7 is also an undeniably enjoyable ride.", "is_fresh": 1, "author": ["Lewis Bazley"]},
{"text": "It's perhaps fitting that the best part of Furious 7 is that it has drive. This is a film that knows what it wants to be, and it delivers it both with impact and precision.", "is_fresh": 1, "author": ["Jason Gorber"]},
{"text": "The monster muscle-car franchise continues to relentlessly assault the senses in this globe-trotting sequel, with horror maestro James Wan's direction adding extra high-style brilliance to proceedings.", "is_fresh": 1, "author": ["Alan Jones"]},
{"text": "\"Cars don't fly!\" is the recurring cry in Fast and Furious 7 and in scene after improbably hilarious heavy-metal crashing scene, this idea is disproved.", "is_fresh": 1, "author": ["Kate Muir"]},
{"text": "Spectacular action, chases, races and fight scenes are combined with plotting and dialogue of mind-numbing crudity and plenty of shameless product placement in the latest sequel.", "is_fresh": 0, "author": ["Geoffrey Macnab"]},
{"text": "What transpires is grimmer than what's come before, and without the sense of fun, the absurdity of the action becomes less enjoyable.", "is_fresh": 0, "author": ["Matthew Lickona"]},
{"text": "Superior set pieces continue to sustain this most dumbly enjoyable of franchises ...", "is_fresh": 1, "author": ["Mike McCahill"]},
{"text": "leaves us hoping for more four wheel mayhem in the future", "is_fresh": 1, "author": ["Bill Gibron"]},
{"text": "A remarkably satisfying and entertaining action movie, one of the best in the series. Put your brain in neutral and enjoy the ride.", "is_fresh": 1, "author": ["Peter Howell"]},
{"text": "Furious Seven may only be 'good' by way of the [Howard] Hawks Rule, but nonetheless, it's damn good at what it sets out to do.", "is_fresh": 1, "author": ["Mark Dujsik"]},
{"text": "The movie doesn't hold together as well as the previous chapter, but that's really a function of expanding the cast still further.", "is_fresh": 1, "author": ["Tom Russo"]},
{"text": "A number of the sequences verge on the obscene, in terms of credibility, and if you thought these films disregarded the laws of physics in the past, well, Wan has simply gone ahead and dispensed with them.", "is_fresh": 1, "author": ["Anders Wright"]},
{"text": "Furious Seven provides what viewers have come to expect from the long-running The Fast and the Furious series: a string of high-octane, physics-defying action scenes loosely connected by a narrative that occasionally makes rudimentary sense.", "is_fresh": 1, "author": ["James Berardinelli"]},
{"text": "The film follows an exceedingly well-traveled road, though the formula-a crew of racer-adventurers who put dual premiums on speed and family values-has been spiked with ever more spectacular, or preposterous, effects.", "is_fresh": 1, "author": ["Joe Morgenstern"]},
{"text": "A huge, galumphing bore...the maelstrom of mayhem very quickly becomes an orgy of stupidity, and a remarkably tedious one at that.", "is_fresh": 0, "author": ["Frank Swietek"]},
{"text": "For a franchise known for cheesy, heavy-handed lines, Furious 7 served up a classy, heartbreaking send-off for its departed star, one that acknowledged the tragedy of real life without allowing it to overwhelm the fictional world.", "is_fresh": 1, "author": ["Elaine Teng"]},
{"text": "Those actors are good. But the movie survives and thrives on big explosions and even bigger explosions.", "is_fresh": 1, "author": ["Rick Bentley"]},
{"text": "Although it's too long by a good 30 minutes, watching Furious 7 is about as much fun as you can legally, safely, and sanely have without crashing your own Lykan Hypersport through Abu Dhabi's famed Etihad Towers complex.", "is_fresh": 1, "author": ["Marc Savlov"]},
{"text": "The story takes place in LA, Abu Dhabi, Tokyo, and the Caucasus Mountains, yet Wan has so few ideas about how to choreograph and edit action that the elaborate stunt sequences all feel exactly the same.", "is_fresh": 0, "author": ["Ben Sachs"]},
{"text": "Furious 7 is incapable of being indictable: it's pure popcorn escapism, brashly dumb and knowing at the same time. Like its central muscleheads, the film is aware it's breaking all the rules.", "is_fresh": 1, "author": ["Barry Hertz"]},
{"text": "This combination of the earnest with the ridiculous is exactly how Fast & Furious draws you in.", "is_fresh": 1, "author": ["Alex Doenau"]},
{"text": "If it turns out that this really is the last Fast & Furious film, it's a good note to go out on.", "is_fresh": 1, "author": ["Anthony Morris"]},
{"text": "Watching Furious 7... one gets the distinct impression that, when faced with a creative choice, the filmmakers asked themselves, \"What's the most insane, over-the-top thing we can do here?\"", "is_fresh": 1, "author": ["Brent McKnight"]},
{"text": "The ramrod-serious Diesel and Statham sell the dialogue, anyway. So do the more lighthearted Johnson and Tyrese Gibson. Johnson and Gibson wring laughs from obvious jokes. The acting champ of 7, though, is Michelle Rodriguez.", "is_fresh": 1, "author": ["Carla Meyer"]},
{"text": "When a film is this exciting in its action set pieces and this meaningful in its quiet moments, the filmmakers are getting it right.", "is_fresh": 1, "author": ["Michael Smith"]},
{"text": "James Wan embraces the series' visual hallmarks with what translates to unencumbered glee onscreen.", "is_fresh": 1, "author": ["Genevieve Koski"]},
{"text": "The grunted catch-phrases, the implausible escapes, the plot holes the size of the Bonneville Salt Flats - it's all pitched at a particular audience like a dog whistle that fully grown humans can't hear.", "is_fresh": 0, "author": ["Joe Williams"]},
{"text": "At this rate, the next chapter will have to take place in outer space. Fast & Furious: Venusian Drift.", "is_fresh": 1, "author": ["Chris Nashawaty"]},
{"text": "It took seven movies, but \"Furious Seven\" can be counted as the franchise's first unequivocal success, a go-for-broke extravaganza of gripping tension, unbelievably wild stuntwork, and a beating heart that doesn't feel prefabricated.", "is_fresh": 1, "author": ["Dustin Putman"]},
{"text": "This is a cockamamie amalgamation of absurd car chases, ridiculous fights, and more noise than you can tolerate blasting away at you for almost 2 1/2 hours with no coherent plot or raison d'\u00eatre outside of big box office.", "is_fresh": 0, "author": ["Tony Medley"]},
{"text": "Start your engines.", "is_fresh": 1, "author": ["David Jenkins"]},
{"text": "\"Furious 7\" buzzes with a frenetic energy so contagious, there's no sense in resisting it. Like its predecessors, this film has no shame about being its high-octane, gloriously ridiculous self.", "is_fresh": 1, "author": ["Jen Chaney"]},
{"text": "If you've bought into the series overall thus far, you're not going to want to miss Paul Walker's final ride. ", "is_fresh": 1, "author": ["Luke Y. Thompson"]},
{"text": "\"Furious 7\" is not as zippy as \"Fast Five,\" my favorite of the ones I've seen, but it has its satisfactions; its global audience is built-in, as well as strapped in and ready to ride.", "is_fresh": 1, "author": ["Michael Phillips"]},
{"text": "Some things succeed without being an outstanding achievement. Larry the Cable Guy, Justin Bieber, Spam. To that cavalcade, let us add the likable, repetitive, chaotic \"Furious Seven.\"", "is_fresh": 1, "author": ["Colin Covert"]},
{"text": "This one sticks with you. Forget the plot bumps, muscle acting, and tweet-length dialogue. Finishing the film in Paul Walker's honor clearly brought out the best in everyone. ", "is_fresh": 1, "author": ["Peter Travers"]},
{"text": "In Furious 7, the unstoppable Fast and the Furious franchise sputters and stalls, edging from spectacular, tongue-in-cheek B-movie fun to soulless, insulting inanity.", "is_fresh": 0, "author": ["Rene Rodriguez"]},
{"text": "Big and numbingly loud, \"Furious 7\" jets around the globe so we can watch cars crash, explode and repeatedly defy gravity. If that sounds like a great way to spend two hours and 17 minutes, read no more.", "is_fresh": 0, "author": ["Randy Cordova"]},
{"text": "It's the kind of movie in which the endlessly antagonistic villain and hero express their boiling hatred by driving head-on into each other's rides. At high speed. Twice.", "is_fresh": 1, "author": ["Stephen Whitty"]},
{"text": "Physics and Gravity be Damned! \"Furious 7\" Aims to Please.", "is_fresh": 0, "author": ["Charles Koplinski"]},
{"text": "Loud, long and laughably over-the-top, Furious 7 is one of the best pure action movies ever made.", "is_fresh": 1, "author": ["Bruce Kirkland"]},
{"text": "For their seventh adventure, the Fast & Furious cast and crew continue to outdo themselves with mind-boggling stunt driving and outrageous action mayhem...", "is_fresh": 1, "author": ["Rich Cline"]},
{"text": "Furious 7 is so giddy and overblown that its bloated runtime is more of a blessing than a burden.", "is_fresh": 1, "author": ["Jack Giroux"]},
{"text": "Hey, action flicks aren't supposed to make you cry! ", "is_fresh": 1, "author": ["Mara Reinstein"]},
{"text": "The nicest thing I can say about Furious 7 is that if it were the end of the franchise, it'd be a fine and fitting one.", "is_fresh": 1, "author": ["James Rocchi"]},
{"text": "Alternately entertaining and annoying.", "is_fresh": 0, "author": ["Matt Pais"]},
{"text": "As long as you're willing to buckle your seat belt, disengage your brain and just go along for the ride, there's also no small amount of fun to be had.", "is_fresh": 1, "author": ["Mike Scott"]},
{"text": "As for the plot, there is one. As for the acting, it's there in the sense that actors are onscreen moving around and saying words that don't make sense.", "is_fresh": 0, "author": ["Jeff Baker"]},
{"text": "James Wan came up in the horror ranks and gave the world the first Saw... If \"F&F\" fans feared that he would tamper with the box-office formula and end up slaying and gutting this cinematic golden goose for shocks and giggles, they can rest easy. ", "is_fresh": 1, "author": ["Cary Darling"]},
{"text": "Delivers the goods, and then some.", "is_fresh": 1, "author": ["Moira MacDonald"]},
{"text": "Here and there, we get the imaginative and outrageous stunts this series is famous for, but mostly the movie plods along, muscling through without much life or spirit.", "is_fresh": 0, "author": ["Mick LaSalle"]},
{"text": "\"Furious 7\" is the fuel-injected fusion of all that is and ever has been good in \"The Fast and the Furious\" saga that began in 2001 with souped-up cars and a stripped-down story about a tightknit East L.A. street racing crew.", "is_fresh": 1, "author": ["Betsy Sharkey"]},
{"text": "The series will doubtless continue on with Diesel, Rodriguez, Johnson, and the rest, but in the meantime, Furious 7 comes to the most conclusive and emotionally satisfying ending since, fittingly, the very first film.", "is_fresh": 1, "author": ["Jesse Hassenger"]},
{"text": "Head-slappingly stupid", "is_fresh": 0, "author": ["Roger Moore"]},
{"text": "Kind of like the Avengers, only more racially diverse, and marginally less bound by the laws of physics or common sense.", "is_fresh": 1, "author": ["Tom Clift"]},
{"text": "You're left wondering if there is such a thing as too much.", "is_fresh": 1, "author": ["Steve Newall"]},
{"text": "Yes, \"Furious Seven\" is incredible. I spent just about the entire running time either with a huge smile on my face or cackling hysterically. ", "is_fresh": 1, "author": ["Stephen Silver"]},
{"text": "It turns out 2011's \"Fast Five\" wasn't a turning point for the series, just a wildly entertaining fluke. ", "is_fresh": 0, "author": ["Brian Orndorf"]},
{"text": "Furious 7 offers edge-of-the-seat excitement with outlandish action sequences, inventive stunts, hilarious cartoonish moments and even some touching emotion.", "is_fresh": 1, "author": ["Claudia Puig"]},
{"text": "It is, perhaps, the ultimate proof that a ridiculous movie and a good movie aren't mutually exclusive.", "is_fresh": 1, "author": ["Tony Hicks"]},
{"text": "There will no doubt be better movies released in 2015, but \"Furious 7\" is an early favorite to win the prize for most picture.", "is_fresh": 1, "author": ["A.O. Scott"]},
{"text": "There's so much destruction at the climax that it's like an apocalypse with a happy ending. Furious 7 is the demon love child of Fast & Furious 6 and a Mad Max movie. ", "is_fresh": 1, "author": ["Michael Sragow"]},
{"text": "...if the series gives in to its worst impulses going forward, we fans have a good, satisfying stopping point.", "is_fresh": 1, "author": ["Dan Schindel"]},
{"text": "All laws of velocity, geometry and air-traffic control are so flagrantly disobeyed, you just won't be able to wipe the dopey grin off your face.", "is_fresh": 1, "author": ["Leigh Paatsch"]},
{"text": "The sheer implausibility is entertaining, yet it feels as if nothing is really at stake: everyone has nine lives.", "is_fresh": 1, "author": ["Philippa Hawker"]},
{"text": "This is Wan's first major Hollywood production after more than a decade of profitable horror outings including Saw and Insidious, and it's disappointing that neither the gonzo gore of the former nor the calculating restraint of the latter register here.", "is_fresh": 0, "author": ["Craig Mathieson"]},
{"text": "It's an enormous, steroidal blast, and as much ingenious fun as a blockbuster can be.", "is_fresh": 1, "author": ["Richard Corliss"]},
{"text": "This is the pinnacle, people. This is everything they've got.", "is_fresh": 1, "author": ["Will Leitch"]},
{"text": "Fast-moving fight scenes, outrageous auto antics and a sprinkling of ridiculous one-liners make Furious 7 a campy, crowd-pleasing escape.", "is_fresh": 1, "author": ["Sandy Cohen"]},
{"text": "'Furious 6' was \"dumb fun\" to a breaking point. 'Furious 7' revives the franchise with cohesion and elegance.", "is_fresh": 1, "author": ["Matt Patches"]},
{"text": "Seventh entry in the high-octane franchise won't disappoint fans, and serves as a moving tribute to star Paul Walker.", "is_fresh": 1, "author": ["Daniel Eagan"]},
{"text": "The most gleefully meat-headed franchise going has intersected with real-life tragedy and handled it with surprising grace. Meat-headed grace, sure, but grace nonetheless.", "is_fresh": 1, "author": ["Simon Miraudo"]},
{"text": "I daresay Furious 7 is best of the lot since the original. Fasten your seatbelts, suspend your disbelief, and enjoy the ride!", "is_fresh": 1, "author": ["Staci Layne Wilson"]},
{"text": "A slim excuse, and a perfectly good one, for trotting around the globe, blowing up drones in Los Angeles and sending Lebanese sports cars crashing through Abu Dhabi skyscrapers.", "is_fresh": 1, "author": ["Rafer Guzman"]},
{"text": "The good news is that Furious 7 offers more - and more, and yet more - of the same.", "is_fresh": 1, "author": ["Stephanie Zacharek"]},
{"text": "It lays bare that the franchise's most radical asset is also its most conservative: an overriding emphasis on, above all else, the on-screen family.", "is_fresh": 1, "author": ["Steve Macfarlane"]},
{"text": "There won't be a faster, more furious movie this year. ", "is_fresh": 1, "author": ["Fred Topel"]},
{"text": "You'll end up so unashamedly engrossed by Furious 7 that you'll forgive its blatant disregard of narrative, subtlety and gravity and just enjoy and appreciate the rollicking ride for what it is. ", "is_fresh": 1, "author": ["Gregory Wakeman"]},
{"text": "It certainly aims to be no less than the ultimate action movie, which, for some filmgoers, translates into the ultimate movie, period.", "is_fresh": 1, "author": ["Matt Prigge"]},
{"text": "\"Furious 7\" is the biggest, silliest movie in the \"Fast and Furious\" franchise, officially transforming the series into \"The Avengers\" with muscle cars. But what's wrong with big and silly?", "is_fresh": 1, "author": ["Jacob Hall"]},
{"text": "Car racing, vengeance, logic-defying stunts and stuff blowing up. Too much stuff blowing up, really. We came for the cars and their reckless, gorgeous drivers; we can get explosions anywhere.", "is_fresh": 0, "author": ["Sara Stewart"]},
{"text": "Screeching incomprehensibly from one stunt-filled set piece to the next, Fast And Furious 7 is an exuberantly high-octane ride across a ridiculously elaborate plot.", "is_fresh": 1, "author": ["Fionnuala Halligan"]},
{"text": "Ranks a very successful fourth place overall, with at least one gargantuan set piece that ranks among the series' finest.", "is_fresh": 1, "author": ["Alonso Duralde"]},
{"text": "A group more bulletproof than The Avengers, causing more mayhem than General Zod. Think Universal doesn't have a superhero franchise? Think again.", "is_fresh": 1, "author": ["James Dyer"]},
{"text": "This film isn't taking itself too seriously, and it certainly doesn't expect us to.", "is_fresh": 1, "author": ["Emma Simmonds"]},
{"text": "Too long, too convoluted, too sentimental, and too ridiculous. Some will say those are its good points. Will they embrace the homoeroticism too?", "is_fresh": 0, "author": ["MaryAnn Johanson"]},
{"text": "Furious 7 hits every note that it must to satisfy fans and effectively pay tribute to Walker in his final on-screen performance.", "is_fresh": 1, "author": ["Roth Cornet"]},
{"text": "\"Furious 7\" isn't so much goodbye as it is merely the end of something. ", "is_fresh": 1, "author": ["Scott Mendelson"]},
{"text": "Nothing is impossible in his no holds barred thrilling actioner in which cars leap from planes, skyscrapers and cliff-tops as stunts accelerate to levels that almost break the sound barrier", "is_fresh": 1, "author": ["Louise Keller"]},
{"text": "\"The logic-free, consequence-free property damage is never very involving. Furious 7 is sure to be the most lucrative entry of the series. But if you give it any thought at all, it will leave you feeling carsick.\"", "is_fresh": 0, "author": ["Nicholas Barber"]},
{"text": "Everything about F&F 7 is supersized, from the actors to the running time to the scope of urban destruction.", "is_fresh": 1, "author": ["Catherine Shoard"]},
{"text": "So fast, furious, ginormous, crazed, maxed-out and heart-on-sleeve emotional is this gloriously ludicrous instalment that it's impossible to see where an eighth could go.", "is_fresh": 1, "author": ["Jamie Graham"]},
{"text": "The face-to-face punch-ups are a lot of fun. The Statham-Johnson smackdown resembles nothing more than two shaved pitbulls in a tumble dryer.", "is_fresh": 1, "author": ["Tom Huddleston"]},
{"text": "The final shot could not be more perfect. Tears will be shed.", "is_fresh": 1, "author": ["Simon Reynolds"]},
{"text": "I found myself unexpectedly shedding a tear at the film's perfectly judged, sunbathed, final fade to white.", "is_fresh": 1, "author": ["Robbie Collin"]},
{"text": "Diesel & Statham test each other's manhood by playing a game of car chicken, smashing into each other at maximum velocity in a tunnel - Furious 7 is the Large Hardon Collider.", "is_fresh": 1, "author": ["Ali Gray"]},
{"text": "\"Furious 7\" finds the franchise at an unwanted crossroads, but it makes such a play for the diehard fans that it leaves everyone else at somewhat of a loss.", "is_fresh": 0, "author": ["Charlie Schmidlin"]},
{"text": "It's impossible to watch Furious 7 and not think about [Paul] Walker the entire time. And as much as I enjoyed Furious 7 ... I found myself feeling incredibly sad. Most of the time, it feels like one long goodbye.", "is_fresh": 1, "author": ["Mike Ryan"]},
{"text": "Furious 7 knows its audience and delivers exactly what they want, including an exciting last act with a huge pay-off.", "is_fresh": 1, "author": ["Edward Douglas"]},
{"text": "The hit muscle-car franchise does itself and the late Paul Walker proud with a solid seventh entry.", "is_fresh": 1, "author": ["Scott Foundas"]},
{"text": "Furious 7 is the perfect popcorn movie and there is no better way they could have paid tribute to Paul Walker.", "is_fresh": 1, "author": ["Jon Lyus"]},
{"text": "The most over-the-top sequences the filmmakers could imagine, and each one is as fun as the last.", "is_fresh": 1, "author": ["Eric Eisenberg"]},
{"text": "The filmmakers are well aware of how silly this franchise has become. They're more than happy to keep the good times rolling, just so long as they can keep finding new and amusing ways in which to drive cars irresponsibly and destroy buildings at will.", "is_fresh": 1, "author": ["Scott Weinberg"]},
{"text": "Stupendously stupid and stupidly diverting.", "is_fresh": 1, "author": ["John DeFore"]},
{"text": "As a relentlessly paced action movie, Furious 7 is an excellent entry for those who would appreciate this sort of thing. As a memorial for one of its own, it's about as affecting as big, loud, ridiculous action movies get.", "is_fresh": 1, "author": ["Dominick Suzanne-Mayer "]},
{"text": "Furious 7 is an in-your-face assault of awesomeness under the guidance of James Wan, who saves a more lax story by orchestrating a metallic ballet of kick-ass proportions.", "is_fresh": 1, "author": ["Matt Donato"]},
{"text": "A fitting and moving send-off for Walker that still delivers the knowingly absurd stunts that Fast fans have come to expect. ", "is_fresh": 1, "author": ["Matt Singer"]},
{"text": "There are indeed faster and, sadly, significantly more furious movies in the Fast & Furious canon.", "is_fresh": 0, "author": ["William Bibbiani"]}
]