[
{"reviews_count": "185", "title": "Hunt for the Wilderpeople", "avg_audience_rating": "4.3", "rotten_count": "7", "tomatometer": "96", "audience_score": "91", "avg_critic_rating": "7.9", "fresh_count": "178", "user_ratings_count": "24,153"},
{"text": "Too smart by half, and calibrated to within an inch of its life with its wannabe eccentric narrative, gags and 'cool' soundtrack choices.", "is_fresh": 0, "author": ["PJ Nabarro"]},
{"text": "Julian Dennison is a revelation as the young miscreant forced to team up with a very curmudgeonly Sam Neill as they try to survive in the wilds of New Zealand.", "is_fresh": 1, "author": ["Jennifer Heaton"]},
{"text": "This warmed my heart plenty on the cold night that I watched it, and that's exactly what I needed.", "is_fresh": 1, "author": ["Tomas Trussow"]},
{"text": "Hector and Ricky build an uneasy and finally heartwarming camaraderie.", "is_fresh": 1, "author": ["Pat Padua"]},
{"text": "Hunt for the Wilderpeople transforms a fairly unremarkable tale of adoption into a wild and wonderful fantasy, yet again proving that New Zealand may as well just be Middle Earth.", "is_fresh": 1, "author": ["Kambole Campbell"]},
{"text": "It's just so sophisticated and mordantly humorous you don't notice at first that it's also in the tradition of a classic boy's adventure tale.", "is_fresh": 1, "author": ["Asia Frey"]},
{"text": "a leisurely and hopeful coming-of-age comedy adapted from Barry Crump's 1986 novel, Wild Pork and Watercress.", "is_fresh": 1, "author": ["Glenn Heath Jr."]},
{"text": "It all sounds very serious, but it's not at all, with director Taika Waititi injecting a rich vein of dark humour and a cast of eccentric characters to deliver something that is weird, funny and mildly moving.", "is_fresh": 1, "author": ["Matthew Bond"]},
{"text": "... Wilderpeople isn't just charming or good-it's a legitimately great film.", "is_fresh": 1, "author": ["Sarah Marrs"]},
{"text": "It's funny, sweet, sad, and exhilarating all at once.", "is_fresh": 1, "author": ["Diane Carson"]},
{"text": "Wilderpeople is a hugely loveable movie that's suitable for date night or the whole family, and I know that sounds like a hacky movie poster blurb. But when a movie's this good, it's tough to avoid clich\u00e9s. ", "is_fresh": 1, "author": ["Ned Lannamann"]},
{"text": "Hunt for the Wilderpeople tackles some fairly serious issues, but it handles those issues with just the right sense of the sweet.", "is_fresh": 1, "author": ["Dan Webster"]},
{"text": "It has all the makings of a new childhood classic: it's got wonder and adventure and loads of humor, and ultimately winds up on the side of optimism - but it also has moments of genuine tragedy and danger.", "is_fresh": 1, "author": ["Angie Han"]},
{"text": "A film about romanticism, respect, acceptance and loyalty, however, it becomes excellent because of the construction of one of the most wonderful characters that modern cinema has given us. [Full review in Spanish]", "is_fresh": 1, "author": ["Alberto S\u00e1ez Villarino"]},
{"text": "Its whackiness and borderline fantasy might not be for everyone, but there's a universal, childlike appeal to the story that feels too powerful to deny.", "is_fresh": 1, "author": ["Alex Casey"]},
{"text": "I can't remember the last time I laughed this much at a movie. This wacky adventure set in New Zealand's wilderness is outrageously funny. It is filled with quirky, compelling characters and witty dialog.", "is_fresh": 1, "author": ["Robert Roten"]},
{"text": "Wilderpeople emerges as a hugely likeable but not always coherent yarn.", "is_fresh": 1, "author": ["Graeme Tuckett"]},
{"text": "While there are numerous nods to cultural references only a local audience will appreciate, Ricky and Hec's emotional journey is one which every viewer can climb aboard.", "is_fresh": 1, "author": ["Sarah Watt"]},
{"text": "Gentle and appealing performances can't rescue this facile and cloying comedy.", "is_fresh": 0, "author": ["Richard Brody"]},
{"text": "[Its] sheer good-naturedness pulls off a not particularly inspired crusty-old-coot-thawed-by-young-scamp concept, maintaining an agreeable tonal balance despite occasional wobbles between spoof, sentimentality and silliness.", "is_fresh": 1, "author": ["Dennis Harvey"]},
{"text": "In Hunt for the Wilderpeople by Taika Waititi, lush landscapes of the rainforest of New Zealand counter a sense of humor so toast-dry that it makes the British Ealing comedies of the 1950s seem overripe.", "is_fresh": 1, "author": ["Richard von Busack"]},
{"text": "The film would be thuddingly familiar if not for Waititi's willingness to grasp overused tropes and manipulate them into something new.", "is_fresh": 1, "author": ["Chris Plante"]},
{"text": "Hunt for the Wilderpeople is one of the most entertaining films of the year.", "is_fresh": 1, "author": ["Cassam Looch"]},
{"text": "Warmly funny and deeply delightful.", "is_fresh": 1, "author": ["Tim Grierson"]},
{"text": "Hunt for the Wilderpeople is very likely the summer's most magical film.", "is_fresh": 1, "author": ["Rick Kisonak"]},
{"text": "This is really a wonderful adventure-comedy.", "is_fresh": 1, "author": ["Chris Bumbray"]},
{"text": "One of the most sincere and funny portraits of family life to come along in a while.", "is_fresh": 1, "author": ["April Wolfe"]},
{"text": "Sweeping cinematography (by Lachlan Milne) and playful editing (by Luke Haigh, Tom Eagles and Yana Gorskaya) make the adventure all the more majestical.", "is_fresh": 1, "author": ["Tara Brady"]},
{"text": "Strictly for those who love pie-eyed problem pics with scenic wanderlust.", "is_fresh": 0, "author": ["Nigel Andrews"]},
{"text": "What keeps all this enchantment grounded is the characters.", "is_fresh": 1, "author": ["Jennifer Panzera"]},
{"text": "It's formulaic at heart, but has a sweet, unpredictable sense of humour and a nice way with words.", "is_fresh": 1, "author": ["Edward Porter"]},
{"text": "Hunt for the Wilderpeople might just be Waititi's most triumphant moment to date.", "is_fresh": 1, "author": ["James Mottram"]},
{"text": "A splendidly morbid comedy for the whole family.", "is_fresh": 1, "author": ["Tim Brayton"]},
{"text": "Hunt for the Wilderpeople is a kicky treat. ", "is_fresh": 1, "author": ["Tony Macklin"]},
{"text": "Hunt for the Wilderpeople is unabashedly sentimental, and some of the specific tragic notes threaten to come across as cloying, but the comedy gives it a lot of life.", "is_fresh": 1, "author": ["Benjamin Wang"]},
{"text": "Waititi shows a larger scope than his previous films, with overhead shots surveying the gorgeous New Zealand landscape. A snowy montage scene set to Leonard Cohen recalls Robert Altman's 1971 opus McCabe and Mrs. Miller.", "is_fresh": 1, "author": ["Jimmy Geurts"]},
{"text": "In the hands director Taika Waititi, who mixes sentimentality with spiky, even absurdist humor, it's a remarkable treat.", "is_fresh": 1, "author": ["Max Weiss"]},
{"text": "[The film] has a laidback, gentle tone - one that makes the viewer lean in to listen carefully.", "is_fresh": 1, "author": ["John Lui"]},
{"text": "...looks as funny as it sounds.", "is_fresh": 1, "author": ["Josh Larsen"]},
{"text": "... a coming of age comedy with a heartwarming soul that never slips into easy sentiment.", "is_fresh": 1, "author": ["Sean Axmaker"]},
{"text": "This film is an adventure itself, a gem that surely will become brighter over time. [Full review in Spanish]", "is_fresh": 1, "author": ["Emmanuel B\u00e1ez"]},
{"text": "A mixture of comedy, drama, whimsy and anarchy (and with plenty of charm to spare, even if sometimes the tone wavers a little), this is almost impossible not to like, and it's the strong characters that draw you in.", "is_fresh": 1, "author": ["James Bartlett"]},
{"text": "There's brilliant chemistry between Dennison and Neil, the pair quite obviously bouncing off each other; a joy to watch on screen, and as the story progresses you begin to feel like a member of their special pack, gleefully part of the adventure.", "is_fresh": 1, "author": ["Jack Shepherd"]},
{"text": "The film's main asset is an unaffected naturalism, both in the film-making, and in the unpolished characters that we root for.", "is_fresh": 1, "author": ["Wendy Ide"]},
{"text": "Hunt for the Wilderpeople has been a huge audience favourite at festivals this year and you can see why, with its brand of dark New Zealand humour, coupled with a boy's own adventure story that goes not merely off the rails, but off-road and off-grid.", "is_fresh": 1, "author": ["Kate Muir"]},
{"text": "It's hard to imagine anybody not being won over by this charming adventure, which I'm already looking forward to watching again.", "is_fresh": 1, "author": ["Martin Roberts"]},
{"text": "This charming comedy combines endearing characters with generous helpings of deadpan humour - and the result is quite wonderful.", "is_fresh": 1, "author": ["Stephen Carty"]},
{"text": "Hunt for the Wilderpeople is a fun, funny family yarn.", "is_fresh": 1, "author": ["Anton Bitel"]},
{"text": "A sweet crowdpleaser guaranteed to lift your spirits.", "is_fresh": 1, "author": ["Allan Hunter"]},
{"text": "It's far from original - grumpy-old-git-bond-with-mouthy-adolescent - but is delivered with such joy-infused enthusiasm it's almost impossible to resist.", "is_fresh": 1, "author": ["Tim Evans"]},
{"text": "It's a not unpromising set-up -- masculinity left to fend for itself against Mother Nature -- and I wished Waititi had made merry with his hapless hunter-gatherers in the same way Shadows did with wannabe outlaw vampires.", "is_fresh": 0, "author": ["Mike McCahill"]},
{"text": "Waititi keeps the jokes coming thick and fast, delivering hi-jinks and heightened characters with an emotional undertow that really resonates.", "is_fresh": 1, "author": ["Alistair Harkness"]},
{"text": "Without actively disliking any part of it, you wish you could be on your way a whole hour before it limps to a close.", "is_fresh": 0, "author": ["Tim Robey"]},
{"text": "An inward-looking comedy that's not afraid to poke fun at its country's own foibles but still manages to feel like a celebration of life on a little island.", "is_fresh": 1, "author": ["Ali Gray"]},
{"text": "Growing up, growing old and the grief that's part of both is beautifully handled here with a quirky mix of humour and heart.", "is_fresh": 1, "author": ["Harry Guerin"]},
{"text": "Warm, witty, and occasionally wild, Waititi's bush-bonding romp is a kind, generous-spirited winner.", "is_fresh": 1, "author": ["Kevin Harley"]},
{"text": "This might be the best kids' movie since Up.", "is_fresh": 1, "author": ["Tom Huddleston"]},
{"text": "Delightful... Ends up being sweet and affecting despite its characters' disdain for mushy stuff.", "is_fresh": 1, "author": ["Eric D. Snider"]},
{"text": "A bit Up, a bit Moonrise Kingdom, a bit Midnight Run, even... Taika Waititi's latest is an oddball treat of a mismatched-buddy pursuit move.", "is_fresh": 1, "author": ["Dan Jolin"]},
{"text": "While I could go on and on about what good company Neill and Dennison are, it's an actress named Rima Te Wiata who works the most magic. ", "is_fresh": 1, "author": ["Jeffrey Overstreet"]},
{"text": "Bring a hanky.", "is_fresh": 1, "author": ["Marie Asner"]},
{"text": "It's a classic reluctant camaraderie story with emotion that sways like trees in a gentle breeze between sad, bittersweet, and rambunctious adventure.", "is_fresh": 1, "author": ["Neil Miller"]},
{"text": "Neill could play a cranky old bushman in his sleep, but it's Julian Dennison as Ricky who steals the film as a rap-loving, pre-pubescent gangster wannabe. This kid's a find.", "is_fresh": 1, "author": ["Austin Trunick"]},
{"text": "... uses familiar themes to launch a exploration of misfit male bonding and surrogate families with heartfelt tenderness and visual flair.", "is_fresh": 1, "author": ["Todd Jorgenson"]},
{"text": "This charming, witty and heartfelt film about the meaning of family might just remind you that there really are fresh voices at the movies.", "is_fresh": 1, "author": ["Josh Terry"]},
{"text": "The byplay between the newcomer Dennison and the veteran Neill is delightful, as the two characters' fa\u00e7ades slowly melt and a genuine bond of affection develops.", "is_fresh": 1, "author": ["Sean P. Means"]},
{"text": "Hunt for the Wilderpeople is a refreshing alternative to standard Hollywood children's fare.", "is_fresh": 1, "author": ["T'Cha Dunlevy"]},
{"text": "\"Wilderpeople\" isn't Taititi's best work, but it's impressively executed, making time for broad antics and intimate exchanges without unraveling into a mess of ideas.", "is_fresh": 1, "author": ["Brian Orndorf"]},
{"text": "Waititi's most iconically \"New Zealand\" movie shows a deep love of the country's \"majestical\" landscapes and the rough-and-tumble people that live in its hidden places.", "is_fresh": 1, "author": ["Matt Neal"]},
{"text": "It has too many strained feel-good moments for my comfort zone.", "is_fresh": 0, "author": ["Dennis Schwartz"]},
{"text": "Hunt for the Wilderpeople is excellent when it focuses solely on the relationship between -- and the misadventures of -- its two central figures. It's less captivating when the attention turns to several doltish supporting characters.", "is_fresh": 1, "author": ["Matt Brunson"]},
{"text": "Yet another home run from Taika Waititi...", "is_fresh": 1, "author": ["Felix Vasquez Jr."]},
{"text": "Hunt for the Wilderpeople treads on such familiar ground that it's a miracle it works as well as it does.", "is_fresh": 1, "author": ["Sarah Boslaugh"]},
{"text": "Waititi's film has the stylized exaggerations and emotional directness of the best children's literature. Everything is just a tiny bit louder and more colorful than real life, but the feelings are straightforward and unadorned. ", "is_fresh": 1, "author": ["Sean Burns"]},
{"text": "Hunt for the Wilderpeople shows us a cruel, unsentimental and thankless world, and yet we're made to love that world anyway. ", "is_fresh": 1, "author": ["Molly Laich"]},
{"text": "This is a movie you watch with minor pleasure when you happen upon it channel surfing on cable TV. Leaving home for it and selecting it over and above a city's full cinematic outlay is another matter.", "is_fresh": 0, "author": ["Jeff Simon"]},
{"text": "Flawed 'Wilderpeople' has its requisite charms.", "is_fresh": 1, "author": ["Charles Koplinski"]},
{"text": "When this film earns your tears... and it will... it does it honestly, and I suspect this is a film that people are going to share by word of mouth for years, one of those rare gems that will play equally well for viewers of any age.", "is_fresh": 1, "author": ["Drew McWeeny"]},
{"text": "Great screen chemistry and shimmering cinematography make this film work.", "is_fresh": 1, "author": ["Ron Wilkinson"]},
{"text": "Few films have ever been less likely to get but more deserving of a sequel.", "is_fresh": 1, "author": ["J. Olson"]},
{"text": "Its heartwarming message combined with creative, fantastical elements make it unique and memorable. ", "is_fresh": 1, "author": ["Jonathan W. Hickman"]},
{"text": "The story, told in Wes Anderson-style storybook chapters with titles like \"Goodbye Ricky Baker\" and \"Close to the Sky,\" grows ever more absurd, almost to the breaking point.", "is_fresh": 1, "author": ["Joanna Connors"]},
{"text": "\"Wilderpeople\" is one of those rare movies that works for almost any generation, silly and sweet and big-hearted. To quote Hec, it's a majestical piece of filmmaking.", "is_fresh": 1, "author": ["Rob Thomas"]},
{"text": "\"Hunt for the Wilderpeople\" is a hoot with heart.", "is_fresh": 1, "author": ["Tom Long"]},
{"text": "A 60 year-old man and a 12-year old boy's walk on the wild side in New Zealand.", "is_fresh": 1, "author": ["Frederic and Mary Ann Brussat"]},
{"text": "Director Taika Waititi proves expert in his management of tone, such that the farcical elements, however numerous, don't detract from the very real friendship the renegades develop as they elude the world's most dedicated social services officer.", "is_fresh": 1, "author": ["Matthew Lickona"]},
{"text": "\"Hunt for the Wilderpeople\" is the kind of adorable, coming-of-age dramedy that Pixar would proudly create if it made live-action movies and not cartoons.", "is_fresh": 1, "author": ["Colin Covert"]},
{"text": "Hunt for the Wilderpeople is a thoughtful and hilarious film with nuanced performances from the two leads.", "is_fresh": 1, "author": ["Josh Kupecki"]},
{"text": "A charming coming-of-age film set in the New Zealand bush, complete with a company of quirky, mismatched characters.", "is_fresh": 1, "author": ["Anders Wright"]},
{"text": "A warm-hearted, funny, well-crafted coming-of-age story.", "is_fresh": 1, "author": ["Josh Bell"]},
{"text": "... Hunt for the Wilderpeople is a wonderfully executed genre cocktail where one moment will leave you breathless from laughter, the next recovering from heartache.", "is_fresh": 1, "author": ["Allyson Johnson"]},
{"text": "Has more genuinely funny moments than most so-called comedies at the multiplex, abetted by Waititi's now-practiced comic sensibility, his stylized snap of performance and editing.", "is_fresh": 1, "author": ["Peter Canavese"]},
{"text": "Hunt for the Wilderpeople is all about life-changing moments and the people who are the catalysts. It's about learning from those around you, regardless of age or circumstance.", "is_fresh": 1, "author": ["Miriam Di Nunzio"]},
{"text": "It takes a well-worn premise and turns it into a quirkily funny delight.", "is_fresh": 1, "author": ["Frank Swietek"]},
{"text": "HUNT FOR THE WILDERPEOPLE, the most endearing buddy comedy adventure you'll see this year. It has all the wit and its crafty humor will keep you laughing and entertained from beginning to end. See this movie as soon as you can. ", "is_fresh": 1, "author": ["Chase Whale"]},
{"text": "There is so much goodness, such an unabashed sense of decency, in the first act of Hunt for the Wilderpeople that the sentiment carries through the rest of the film...", "is_fresh": 1, "author": ["Mark Dujsik"]},
{"text": "It's a beautiful and moving \"buddy\" story --- full of hilarity. ", "is_fresh": 1, "author": ["Jeanne Kaplan"]},
{"text": "Without the exceptional performances from Sam Neill and Julian Dennison, \"Hunt for the Wilderpeople\" would likely devolve into an outlandish situation comedy-wannabe. ", "is_fresh": 1, "author": ["David Kaplan"]},
{"text": "Given Waititi's creativity, I was a little disappointed in how few surprises there are in Wilderpeople. But it's all right to be just a well-executed charmer -- and this movie is certainly that.", "is_fresh": 1, "author": ["Robert Horton"]},
{"text": "Quirky Kiwi dramedy promotes teamwork, friendship.", "is_fresh": 1, "author": ["Sandie Angulo Chen"]},
{"text": "A lopsided gem full of off-kilter humor, hard truths and real emotion. Great for preteens and up.", "is_fresh": 1, "author": ["Rafer Guzman"]},
{"text": "Waititi looks for humor in quirks of character and degrees of stubbornness, and the natural challenges of Crump's wilderness journey generate a succession of belly laughs onscreen as the gruff old man scraps with the loudmouthed kid.", "is_fresh": 1, "author": ["J. R. Jones"]},
{"text": "Laugh-out-loud funny one minute, achingly sad the next, \"Hunt for the Wilderpeople\" takes the audience on a rollicking yet poignant journey through the New Zealand backcountry in the company of a pair of engagingly eccentric characters.", "is_fresh": 1, "author": ["Soren Andersen"]},
{"text": "A kind and moving story bristling with honest humor and genuine affection for its characters.", "is_fresh": 1, "author": ["Dann Gire"]},
{"text": "Dennison is a marvel, completely unself-conscious in his portrayal of a kid who is lost but thinks if he acts tough, it'll look like he's found. Neill, playing a different sort of character for him (quiet, unfriendly), is also outstanding.", "is_fresh": 1, "author": ["Bill Goodykoontz"]},
{"text": "The movie's intense charm, killer performances, and offbeat music -- from Nina Simone to '70s soft rock -- make it a must-see for 2016.", "is_fresh": 1, "author": ["Ken Eisner"]},
{"text": "\"Hunt for the Wilderpeople\" has much to recommend it, but none of it would work unless Hec and Ricky are believable and have chemistry. Fortunately, they do.", "is_fresh": 1, "author": ["G. Allen Johnson"]},
{"text": "The cranky charisma of the performers, plus the cheerfully idiosyncratic rhythms of Waititi's filmmaking, keep it clicking.", "is_fresh": 1, "author": ["Stephanie Zacharek"]},
{"text": "As funny as it is scary. But it's also utterly charming, and surprisingly moving in ways you'd never expect. ", "is_fresh": 1, "author": ["Al Alexander"]},
{"text": "Hunt for the Wilderpeople manages to be touching without turning sappy, and funny without relying on cheap humor.", "is_fresh": 1, "author": ["Mike McGranaghan"]},
{"text": "Hunt for the Wilderpeople magically taps into the logic, thought processes, and emotions of a child. It's a rich, strange, and wondrous world.", "is_fresh": 1, "author": ["Tirdad Derakhshani"]},
{"text": "Hunt For the Wilderpeople is funny, moving, enthralling and exciting, and impossible to not be drawn into.", "is_fresh": 1, "author": ["Andrew Marshall"]},
{"text": "May sound like a National Geographic special but is actually a genuine, offbeat road trip comedy/coming-of-age film.", "is_fresh": 1, "author": ["Travis Hopson"]},
{"text": "A New Zealand import with a knack for finding humor in dreary, even ill-advised themes.", "is_fresh": 1, "author": ["Tom Russo"]},
{"text": "Waititi is an expansive, warm-hearted humanist. The fun he pokes is strictly superficial, never grazing his characters' vital organs or essential dignity.", "is_fresh": 1, "author": ["Ann Hornaday"]},
{"text": "One of the year's most transportive comedies.", "is_fresh": 1, "author": ["Matt Patches"]},
{"text": "Like What We Do In The Shadows, Wilderpeople is laugh-out-loud funny and full of left-turn surprises.", "is_fresh": 1, "author": ["Tasha Robinson"]},
{"text": "Full of off-kilter characters, an improbable set of events, and a touching if predictable ending, Hunt for the Wilderpeople is as enjoyable to watch as it is a gorgeously shot film.", "is_fresh": 1, "author": ["Josh Lasser"]},
{"text": "Neill and Dennison's chemistry ensures this unusual survival story is so knee-deep in charm that even moments of gloopy pathos feel thoroughly earned.", "is_fresh": 1, "author": ["Eddie Harrison"]},
{"text": "An oddball and oddly affecting take on two misfits finding their metaphorical partner-in-crime match.", "is_fresh": 1, "author": ["David Fear"]},
{"text": "Hunt for the Wilderpeople is ultimately disarming in its innocent sincerity.", "is_fresh": 1, "author": ["Kenji Fujishima"]},
{"text": "a hilarious and heartfelt adventure that's a Kiwi twist on the curmudgeonly Carl and overweight outsider Russell of Pixar's \"Up\" by way of the outlaws that were \"Thelma and Louise.\"", "is_fresh": 1, "author": ["Laura Clifford"]},
{"text": "New Zealand writer-director Taika Waititi blends sharply cynical humour with huge heart in arguably his best film to date, Hunt for the Wilderpeople.", "is_fresh": 1, "author": ["Linda Barnard"]},
{"text": "\"Hunt for the Wilderpeople\" is consistently clever and even moving. It's proof that we'll keep listening to the familiar stories if they're this well-told.", "is_fresh": 1, "author": ["Brian Tallerico"]},
{"text": "Wilderpeople is fully redeemed by its sense of humor, both deadpan and broad, well-delivered through the strong performances.", "is_fresh": 1, "author": ["Jesse Hassenger"]},
{"text": "101 minutes of pure comic joy.", "is_fresh": 1, "author": ["Barry Hertz"]},
{"text": "Waititi's films have a lively energy that provides a delicious counterpoint to the understated comedy. ", "is_fresh": 1, "author": ["Nell Minow"]},
{"text": "Wilderpeople is ultimately winning, like all buddy comedies, because of the chemistry of its leads.", "is_fresh": 1, "author": ["Jake Coyle"]},
{"text": "\"Hunt for the Wilderpeople\" takes a troika of familiar story types - the plucky kid, the crusty geezer, the nurturing bosom - and strips them of clich\u00e9.", "is_fresh": 1, "author": ["Manohla Dargis"]},
{"text": "Ricky is a wonderfully fresh creation, the embodiment of hilarity because he doesn't see anything funny about anything, least of all himself.", "is_fresh": 1, "author": ["Joe Morgenstern"]},
{"text": "A familiar sort of coming-of-age movie made more interesting by the uniqueness of its setting and its off-kilter Kiwi humor.", "is_fresh": 1, "author": ["Andrew Lapin"]},
{"text": "Every once in a while, a small, unheralded film comes along, so smart and funny, such a pleasure to experience, you can't believe your luck. \"Hunt for the Wilderpeople\" is such a film.", "is_fresh": 1, "author": ["Kenneth Turan"]},
{"text": "We know we're in good hands from the opening moments, when the New Zealand greenery undulates across the screen while an otherworldly choral chant fills the soundtrack.", "is_fresh": 1, "author": ["Michael Sragow"]},
{"text": "Enjoy this wonderfully unpredictable, eccentric tale.", "is_fresh": 1, "author": ["Chris Knight"]},
{"text": "It's off-beat in all the best ways, has fantastic actors all delivering fantastic performances, and is a uproarious adventure with endless heart.", "is_fresh": 1, "author": ["Eric Eisenberg"]},
{"text": "Dennison juggles foulmouthed brattiness and sweet sincerity well enough, and Neill soars as a gruff outdoorsman hiding a soft, chewy center.", "is_fresh": 1, "author": ["Chris Nashawaty"]},
{"text": "A delightful little movie that ranks as one of the more pleasant surprises of the year thus far.", "is_fresh": 1, "author": ["Jason Zingale"]},
{"text": "An enjoyably goofy adventure that manages to bring some freshness to the moldy \"cantankerous adult reluctantly bonds with adorable kid\" subgenre.", "is_fresh": 1, "author": ["Mike D'Angelo"]},
{"text": "[A] lovely little study of bonding and healing in the New Zealand bush.", "is_fresh": 1, "author": ["Norman Wilner"]},
{"text": "In the midst of another big blockbuster summer, this raffish comedy-adventure provides a breath of fresh air.", "is_fresh": 1, "author": ["Michael Sauter"]},
{"text": "It infuses an outdoorsy survival tale and a coming-of-age story of friendship with Taika Waititi's penchant for distaff flakiness.", "is_fresh": 1, "author": ["Chuck Bowen"]},
{"text": "A wonderful slice of New Zealand-bred humor that should have a far wider appeal than Waititi's previous films.", "is_fresh": 1, "author": ["Edward Douglas"]},
{"text": "A rollicking, joke-filled, brightly-colored boys' adventure where both boy and adult get to be boys.", "is_fresh": 1, "author": ["Matt Prigge"]},
{"text": "As a transient feel-good movie it certainly is 'magestical'.", "is_fresh": 1, "author": ["Matthew Anderson"]},
{"text": "Quirky outsider comedy is clearly Waititi's forte, and here it's polished to an effortlessly funny, confident and crowd-pleasing shine.", "is_fresh": 1, "author": ["Michelle Devereaux"]},
{"text": "A deliciously good time at the movies.", "is_fresh": 1, "author": ["Todd McCarthy"]},
{"text": "This is Waititi's best film yet. The way he mixes tones throughout the film is a thing of beauty.", "is_fresh": 1, "author": ["Matthew Toomey"]},
{"text": "With its youthful protagonist, wicked sense of humor, and monstrous depiction of authority figures, the spirit of Roald Dahl is alive and well in Hunt for the Wilderpeople.", "is_fresh": 1, "author": ["Noah Gittell"]},
{"text": "Offbeat, intimate and impressively affecting, this Kiwi comedy is one of the year's strongest films to date.", "is_fresh": 1, "author": ["Tom Glasson"]},
{"text": "This may sound like a standard adventure narrative or buddy film, but Waititi magnificently feels out the nuances with enormous heart.", "is_fresh": 1, "author": ["Lachlan Kanoniuk"]},
{"text": "It's quite possibly the best movie (so far) this year.", "is_fresh": 1, "author": ["Wenlei Ma"]},
{"text": "New Zealand has never looked more breath-taking (and fearsome) and the performances are all tremendous here.", "is_fresh": 1, "author": ["David 'Mad Dog' Bradley"]},
{"text": "Dennison holds his own opposite Neill, who hasn't been tasked with such a gravely amusing role in years. Together, the two are comic dynamite.", "is_fresh": 1, "author": ["Nigel M. Smith"]},
{"text": "It's like being killed with kindness, a good problem to have but a hard one to define beyond pleasantries ", "is_fresh": 1, "author": ["Cameron Williams"]},
{"text": "Waititi, who wrote the screenplay based on a novel by Barry Crump, is pretty fearless in his tonal palette ... It's not your conventional, conservative kid's flick, to its definite credit.", "is_fresh": 1, "author": ["CJ Johnson"]},
{"text": "Sam Neill is as good as he's ever been, spurred on by his unpredictable and lively offsider, Julian Dennison. It's a good sign when you don't want a movie to end.", "is_fresh": 1, "author": ["Paul Byrnes"]},
{"text": "[An] immensely likable film.", "is_fresh": 1, "author": ["David Stratton"]},
{"text": "This film is a rough-cut, homegrown gem.", "is_fresh": 1, "author": ["Vicky Roach"]},
{"text": "This deceptively quaint feel-good comedy-adventure instantly finds an arresting storytelling groove that cannot help but win you over. It is, without doubt, one of the best films that will be released in 2016.", "is_fresh": 1, "author": ["Leigh Paatsch"]},
{"text": "If you're after a film that's funny and sweet and harks back to a certain kind of innocent (but not toothless) 80s action-adventure, then Hunt for the Wilderpeople is perfect.", "is_fresh": 1, "author": ["Rochelle Siemienowicz"]},
{"text": "...a very winning comedy. ", "is_fresh": 1, "author": ["Julian Wood"]},
{"text": "In an age of branded films, it's such a relief to stumble upon a film like Hunt for the Wilderpeople. Filmmaking this fresh, this vibrant, and this affecting for all ages is rare these days.", "is_fresh": 1, "author": ["Michael Roffman"]},
{"text": "The humour here is derived from the gap between a fantastic scenario and the everyday outcomes. It's [Waititi's] ability to create a self-contained world - complete with amateurish songs - which makes the resulting dialogue so amusing. ", "is_fresh": 1, "author": ["Craig Mathieson"]},
{"text": "I do find New Zealand films refreshingly offbeat, crazy in the most entertaining way, and peopled with characters who inhabit the outer edges of society. In this film, those characteristics are in abundance", "is_fresh": 1, "author": ["Andrew L. Urban"]},
{"text": "It's a small film with a big heart and one whose charm resonates and grows on you", "is_fresh": 1, "author": ["Louise Keller"]},
{"text": "The Revenant had a lot of things (too many things, even), but it didn't have the heart, humour and hoodies of Taika Waititi's Hunt for the Wilderpeople... one of 2016's best, warmest and wildest comedies.", "is_fresh": 1, "author": ["Simon Miraudo"]},
{"text": "Wilderpeople is the best film of 2016, so far; or as Ricky and Uncle Hect would say - \"sh*t just got real.\"", "is_fresh": 1, "author": ["Blake Howard"]},
{"text": "Here is the perfect example of a film that at a glance appears to be going one way, but winds up somewhere far more entertaining and endearing that you could possibly expect.", "is_fresh": 1, "author": ["David Crow"]},
{"text": "It's a gentle movie, but with a bittersweet edge - and it's funny as hell to boot.", "is_fresh": 1, "author": ["Jason Bailey"]},
{"text": "Full of character and comedy, it's easily one of the best films of the year.", "is_fresh": 1, "author": ["Kristy Puchko"]},
{"text": "Hunt For The Wilderpeople is a comical, soul-searching tale from the Bush that delights around every leaf-covered turn.", "is_fresh": 1, "author": ["Matt Donato"]},
{"text": "It finds humor and love in a potentially grim situation without ever belittling or caricaturing the characters.", "is_fresh": 1, "author": ["Elise Nakhnikian"]},
{"text": "Neil proves compellingly gruff as a reluctant father figure, though it's the trash-talking, family-craving ten-year-old Dennison who steals the show, exuding a wacko, wounded attitude rooted in Ricky's backwoods Rambo-Scarface-Mad Max reveries.", "is_fresh": 1, "author": ["Nick Schager"]},
{"text": "The remarkable performance of young Julian Dennison as Ricky Baker, the city juvenile delinquent fostered out in the backblocks, gives Wilderpeople most of its many laughs. But he's not just there doing cute stuff and being precocious.", "is_fresh": 1, "author": ["Russell Baillie"]},
{"text": "A hilarious, heartwarming tale that harnesses script, direction and performances and takes plenty of creative risks on its way to delivering movie magic.", "is_fresh": 1, "author": ["Steve Newall"]},
{"text": "A throwback family classic in the mold of The Goonies.", "is_fresh": 1, "author": ["Michael Agresta"]},
{"text": "While the plot and some of the characters may be a bit cartoonish, the emotions always feel honest and Waititi is able to get some big laughs thanks to his charming protagonists.", "is_fresh": 1, "author": ["Matt Goldberg"]},
{"text": "If one imagines a real-life version of Up with a bit of Thelma & Louise thrown in, they get [this] charming on-the-run adventure comedy.", "is_fresh": 1, "author": ["Jordan Raup"]},
{"text": "There's no point where Hunt for the Wilderpeople does anything that you've never seen before, but it would be crazy to hold that against a film made with such an effortlessly cultivated tone and an accommodating ear for comedy.", "is_fresh": 1, "author": ["Russ Fischer"]},
{"text": "Taika Waititi knows growing up isn't child's play but he also respects childhood as a place of adventure, where spontaneity rules and the possibilities are only limited by imagination.", "is_fresh": 1, "author": ["Amber Wilkinson"]},
{"text": "Built on formula, but when a formula is this well-executed, it's awfully hard to complain.", "is_fresh": 1, "author": ["Scott Renshaw"]},
{"text": "\"Hunt For The Wilderpeople\" is a perfectly amicable dramedy that makes a concerted effort to avoid offending or provoking. ", "is_fresh": 1, "author": ["Sam Fragoso"]},
{"text": "Waititi manages the balance of tones perfectly and his eye for editing and action show both scale and restraint, so he won't fall short and won't go overboard. ", "is_fresh": 1, "author": ["Fred Topel"]},
{"text": "There aren't a lot of truly fantastic kids movies out there nowadays, but this is one of them.", "is_fresh": 1, "author": ["William Bibbiani"]},
{"text": "A sweetly-told, laugh-out-loud adventure that reminds us you're never too young or too old to find someone to love who'll also love you back.", "is_fresh": 1, "author": ["Rob Hunter"]}
]