[
{"reviews_count": "80", "title": "Jackie Brown", "avg_audience_rating": "3.5", "rotten_count": "11", "tomatometer": "86", "audience_score": "85", "avg_critic_rating": "7.4", "fresh_count": "69", "user_ratings_count": "214,717"},
{"text": "Surprisingly, Tarantino displays less confidence assembling it than he did in the earlier film. At more than two hours, it's simply too long, or at least it seems so.", "is_fresh": 0, "author": ["Jay Carr"]},
{"text": "'Jackie Brown' may be the only Quentin Tarantino movie that gets noticeably better with each viewing. ", "is_fresh": 1, "author": ["Jason Bailey"]},
{"text": "Pam Grier is at her best recapturing the type of role that made her a bonafide star in '70s blaxploitation movies like Foxy Brown... ", "is_fresh": 1, "author": ["Candice Frederick"]},
{"text": "Pam Grier's entrance in her retro stewardess outfit introduces the kick-ass star of Foxy Brown and Friday Foster gracefully aging into the modern world. ", "is_fresh": 1, "author": ["Sean Axmaker"]},
{"text": "Quentin Tarantino had a lot to live up to with this release and while he has not made a movie that has matched his previous successes, Jackie Brown is still a great film.", "is_fresh": 1, "author": ["Matthew Pejkovic"]},
{"text": "It's slow, it's sad and it's very funny in ways that don't really revolve around punchlines. It's about characters who have been around the block one too many times and they're exhausted, full of dreams deferred, just trying to scrape by.", "is_fresh": 1, "author": ["Sean Burns"]},
{"text": "While Jackie Brown can be too languid, drifting like one of Melanie's highs, its wearied, over-40 lows reveal Tarantino as a director who, once upon a crime, could've mined complexity and depth from the cracks and crevices of American genre movies.", "is_fresh": 1, "author": ["Brian Gibson"]},
{"text": "A much moodier, slower pace from Tarantino's other work, but Jackie Brown is one enjoyable flick that rewards its audience with each viewing.", "is_fresh": 1, "author": ["R.L. Shaffer"]},
{"text": "might be his best film", "is_fresh": 1, "author": ["Walter Chaw"]},
{"text": "Succeeds as a witty Elmore Leonard crime story...but also as a surprisingly affecting mid-life romance. [Blu-ray]", "is_fresh": 1, "author": ["Peter Canavese"]},
{"text": "Tarantino's films aren't so much stories as strings of anecdotes: movie moments, urban myths, conversations strewn with pop culture references.", "is_fresh": 1, "author": ["Sean Axmaker"]},
{"text": "Mellower Tarantino still has sex, drugs, swearing, murder.", "is_fresh": 1, "author": ["Charles Cassady"]},
{"text": "Loaded with all the crisp dialogue, trademark camera work, and memorable characters that we've come to expect from every Tarantino film.", "is_fresh": 1, "author": ["Jason Zingale"]},
{"text": "Consider it a superb Elmore Leonard adaptation by a filmmaker who knows how to serve someone else's material while making it his own.", "is_fresh": 1, "author": ["Rob Gonsalves"]},
{"text": "The tale is filled with funny, gritty Tarantino lowlife gab and a respectable body count, but what is most striking is the film's gallantry and sweetness.", "is_fresh": 1, "author": ["David Ansen"]},
{"text": "Quentin Tarantino puts together a fairly intricate and relatively uninvolving money-smuggling plot, but his cast is so good that you probably won't feel cheated.", "is_fresh": 1, "author": ["Jonathan Rosenbaum"]},
{"text": "The film is more Jarmusch than Peckinpah -- its soul is in the minutiae.", "is_fresh": 1, "author": ["David Edelstein"]},
{"text": "That this modest crime thriller can't quite live up to its audacious dance across so many strata of hip and hommage and self-referential cool it makes your head spin is hardly a surprise, or even a criticism.", "is_fresh": 1, "author": ["Maitland McDonagh"]},
{"text": "Offers an abundance of pleasures, especially in the realm of characterization and atmosphere.", "is_fresh": 1, "author": ["Todd McCarthy"]},
{"text": "It's like a scuzz-bucket film noir directed by Stanley Kubrick at his most static-mesmeric.", "is_fresh": 1, "author": ["Owen Gleiberman"]},
{"text": "When you absolutely, positively got to thrill every mother****er in the room, accept no substitutes. Jackie Brown is the AK-47 in Tarantino's arsenal.", "is_fresh": 1, "author": ["Nick Davis"]},
{"text": "Tarantino's tribute to creative influences, writer Elmor Leonard and blaxploitation star Grier, results in a more mature but less audacious film; last shot, taken from Queen Christina, only shows how magical Garbo was and Grier isn't", "is_fresh": 1, "author": ["Emanuel Levy"]},
{"text": "These are unquestionably Tarantino's greatest characters, and the actors eat them up with verve.", "is_fresh": 1, "author": ["Jeffrey M. Anderson"]},
{"text": "Tarantino's finest, most mature movie to date.", "is_fresh": 1, "author": ["Geoff Andrew"]},
{"text": "Forster and Grier have real chemistry in their limited time together on-screen. Forster has star-quality presence and is used well by Tarantino.", "is_fresh": 1, "author": ["Robin Clifford"]},
{"text": "Those who were waiting to see Quentin Tarantino, a k a the most annoying man in Hollywood, fall flat on his face are likely to be disappointed with Jackie Brown.", "is_fresh": 1, "author": ["Philip Martin"]},
{"text": "As an exercise in style, Jackie Brown is a refinement of the innovative elements Tarantino employed in the Reservoir Dogs and Pulp Fiction.", "is_fresh": 0, "author": ["Jeffrey Overstreet"]},
{"text": "Working from an Elmore Leonard novel, Tarantino has created a gangster fiction that is never larger than life and sometimes smaller.", "is_fresh": 0, "author": ["David Denby"]},
{"text": "Give (Jackson) the best-actor Oscar for his picture-perfect performance as a gun-running criminal whose vocabulary is as vulgar as his occupation. ", "is_fresh": 1, "author": ["Judith Egerton"]},
{"text": "[A] flawed but stylish and moderately entertaining crime thriller.", "is_fresh": 1, "author": ["Dragan Antulov"]},
{"text": "His latest offering is as vibrant as any he has produced.", "is_fresh": 1, "author": ["John R. McEwen"]},
{"text": "Quentin actually made a REAL movie, with believable characters and performances, rather than just repositories for clever dialog.", "is_fresh": 1, "author": ["Ron Wells"]},
{"text": "Tarantino's attention to smart, witty dialogue, and the stepped up last half of the film make the feature worthwhile.", "is_fresh": 1, "author": ["Jim Judy"]},
{"text": "On the surface, Jackie Brown -- based on Elmore Lenoard's novel Rum Punch -- is a caper movie, full of guns, drugs, purple profanity and bloody murder. But scratch the surface and you find a love letter.", "is_fresh": 1, "author": ["Margaret A. McGurk"]},
{"text": "A great, quirky little film that gets better every time you watch it.", "is_fresh": 1, "author": ["Kevin N. Laforest"]},
{"text": "A potboiler, and a fairly good one", "is_fresh": 1, "author": ["Christopher Null"]},
{"text": "Achieves the soulful edge lacking from Tarantino's previous efforts. Forster and Grier's performances deserve to join the short-list of all-time greats.", "is_fresh": 1, "author": ["Chuck Rudolph"]},
{"text": "Jackie Brown isn't the movie-length adrenaline rush Pulp Fiction was, but it deepens and broadens Tarantino's storytelling.", "is_fresh": 1, "author": ["Melissa Morrison"]},
{"text": "Um filme divertido que se ressente do choque entre os personagens criados por Elmore Leonard e os concebidos por Tarantino.", "is_fresh": 1, "author": ["Pablo Villa\u00e7a"]},
{"text": "Beyond the grasp of most directors, this is tour de force stuff -- definitely meriting the price of admission and almost worth the three-year wait.", "is_fresh": 1, "author": ["Rick Groen"]},
{"text": "In this quirky film directed by Quentin Tarantino, two middle-agers are forced to take stock of their lives.", "is_fresh": 1, "author": ["Frederic and Mary Ann Brussat"]},
{"text": "Grier logs her best performance since Fort Apache the Bronx as a flight attendant who gets nabbed transporting illegal amounts of cash into the country.", "is_fresh": 1, "author": ["Jon Popick"]},
{"text": "While this is not his best work to date, it is still a solid piece of moviemaking that shows he has more range as a writer and director than many wanted to give him credit for.", "is_fresh": 1, "author": ["James Kendrick"]},
{"text": "A leisurely and easygoing diversion that goes down easy enough but is far from compelling.", "is_fresh": 0, "author": ["Kenneth Turan"]},
{"text": "For all its enthusiasm, this film isn't sharp enough to afford all the time it wastes on small talk, long drives, trips to the mall and favorite songs played on car radios.", "is_fresh": 0, "author": ["Janet Maslin"]},
{"text": "An entertaining diversion, but not a masterpiece.", "is_fresh": 1, "author": ["James Berardinelli"]},
{"text": "The flat, self-exposing dud that fate often keeps in store for the initially overpraised.", "is_fresh": 0, "author": ["Stanley Kauffmann"]},
{"text": "[Tarantino] wanted to give Grier a role worthy of her, and he has. If only he'd given her a movie worthy of her as well.", "is_fresh": 0, "author": ["Charles Taylor"]},
{"text": "This is the movie that proves Tarantino is the real thing, and not just a two-film wonder boy.", "is_fresh": 1, "author": ["Roger Ebert"]},
{"text": "Both Jackie and Grier manage to stay tough and independent throughout, which seems a credit to both the actress and her director.", "is_fresh": 1, "author": ["Rob Nelson"]},
{"text": "It's not quite Pulp Fiction, but Jackie Brown is a hip tour de force of Tarantino's criminal universe.", "is_fresh": 1, "author": []},
{"text": "At more than 2 1/2 hours, Jackie Brown could probably have been shorter and entertained nearly as much, but Tarantino lets his characters develop at their leisure.", "is_fresh": 1, "author": ["MaryAnn Johanson"]},
{"text": "While Jackie Brown digs into its own stockpile of generic (namely, blaxploitation) conventions, it mostly avoids repetition, because it is Pam Grier's movie, flat out.", "is_fresh": 1, "author": ["Cynthia Fuchs"]},
{"text": "Tarantino has once again defied the critics and produced a movie that solidly establishes him as still the most important filmmaker of the decade.", "is_fresh": 1, "author": ["Adam Smith"]},
{"text": "Jackie Brown won't make the same sort of splash as Pulp Fiction (few films could). But if viewers are willing to watch Tarantino's new film on its own terms, they'll be richly rewarded.", "is_fresh": 1, "author": ["Jack Garner"]},
{"text": "Tarantino's third full length directoral effort is a good film, but the worst of the three.", "is_fresh": 1, "author": ["Madeleine Williams"]},
{"text": "Pulp Fiction is a hard film to top, but Tarantino has done it, with great flair, style and sheer cinematic genius.", "is_fresh": 1, "author": ["Urban Cinefile Critics"]},
{"text": "There are a lot of things right in Jackie Brown, and they all combine to form an entertaining, stimulating movie.", "is_fresh": 1, "author": ["Marty Mapes"]},
{"text": "[A] surprisingly sluggish Tarantino piece.", "is_fresh": 0, "author": ["Susan Stark"]},
{"text": "Both Grier and especially Forster are spot-on in their roles.", "is_fresh": 1, "author": ["Marc Savlov"]},
{"text": "A great actor's movie.", "is_fresh": 1, "author": ["Joe Baltake"]},
{"text": "Despite its difficulties with pacing, though, Jackie Brown is ample proof that Quentin Tarantino continues to grow as one of America's brightest filmmakers.", "is_fresh": 1, "author": ["Edward Johnson-Ott"]},
{"text": "A slick, sly, soulful story of paranoia, misgivings, a dominant theme of vengeance and a tone of whimsy.", "is_fresh": 1, "author": ["Harvey S. Karten"]},
{"text": "A surprisingly mediocre movie.", "is_fresh": 0, "author": ["Steve Rhodes"]},
{"text": "While not as polished as \"Pulp Fiction,\" his best film, \"Jackie Brown\" does have one thing his earlier films lacked, a couple of characters with brains.", "is_fresh": 1, "author": ["Robert Roten"]},
{"text": "Although not nearly as good as director Quentin Tarantino's previous effort Pulp Fiction, is nonetheless a solid, albeit overlong, exercise in filmmaking.", "is_fresh": 1, "author": ["Matt Easterbrook"]},
{"text": "The movie takes 150 minutes to tell what should have been a 90-minute story.", "is_fresh": 0, "author": ["Jeff Vice"]},
{"text": "Between Jackson's opining and De Niro's hopeless alibis when he messes up, Jackie is good for a bundle of bloody ho-ho-hos.", "is_fresh": 1, "author": ["Mike Clark"]},
{"text": "A refreshingly modest piece of work.", "is_fresh": 1, "author": ["Bryant Frazer"]},
{"text": "Turns out that author Elmore Leonard and director Quentin Tarantino are not the odd couple after all.", "is_fresh": 1, "author": ["Jeff Millar"]},
{"text": "A modest crime thriller.", "is_fresh": 1, "author": ["Maitland McDonagh"]},
{"text": "A classy package and an interesting auteur piece.", "is_fresh": 1, "author": ["Keith H. Brown"]},
{"text": "Scene by scene, Jackie Brown is amusing, but after two hours, it seems sluggish, and at that point still has a half-hour to go.", "is_fresh": 0, "author": ["Mick LaSalle"]},
{"text": "Jackie Brown isn't a great film, but it has the air of its director's wicked brilliance.", "is_fresh": 1, "author": ["Rob Blackwelder"]},
{"text": "An unconventional crime caper adapted from an Elmore Leonard story about double-crosses and gun smuggling.", "is_fresh": 1, "author": ["Dennis Schwartz"]},
{"text": "I found it hard not to smile virtually from start to finish in Jackie Brown -- not because it's constantly amusing, but because it's such a pleasure to be in the hands of someone who knows how to use the medium.", "is_fresh": 1, "author": ["Scott Renshaw"]},
{"text": "Though the film is consistently engrossing, at 155 minutes, it is overlong by at least 20 minutes, and the unspectacular climax is quite disappointing.", "is_fresh": 1, "author": ["Michael Dequina"]},
{"text": "A damn-near flawless little piece of film noir, filled with excellent characterization, and just the right bit of hipness.", "is_fresh": 1, "author": ["Ted Prigge"]},
{"text": "Overall, Tarantino has made an acceptable film, even if it is over two and a half hours long.", "is_fresh": 1, "author": ["Mark R. Leeper"]},
{"text": "", "is_fresh": 1, "author": ["Jim Shelby"]}
]