[
{"reviews_count": "195", "title": "Leave No Trace", "avg_audience_rating": "  4", "rotten_count": "0", "tomatometer": "100", "audience_score": "82", "avg_critic_rating": "8.5", "fresh_count": "195", "user_ratings_count": "3,364"},
{"text": "Every single person in Leave No Trace is seen and depicted as just that: a person, a human being, a significant Other.", "is_fresh": 1, "author": ["Joel Mayward"]},
{"text": "Very, very good acting. I do wish some more happened, though.", "is_fresh": 1, "author": ["Kristian Harloff"]},
{"text": "Debra Granik continues to peer into the grungy sideshow of backcountry American life.", "is_fresh": 1, "author": ["Matt Oakes"]},
{"text": "If Leave No Trace isn't quite as formidable as Debra Granik's Winter's Bone, it's still a potent drama marked by a superlative turn from teenage actress Thomasin Harcourt McKenzie.", "is_fresh": 1, "author": ["Matt Brunson"]},
{"text": "director Debra Granik...has created a film rooted in realistic details of wilderness life that's a sympathetic but unsentimental comment on conventional and alternative societies.", "is_fresh": 1, "author": ["Alexa Dalby"]},
{"text": "Ben Foster has rarely been better than he is here.", "is_fresh": 1, "author": ["Joey Magidson"]},
{"text": "Leave No Trace is a heartfelt road picture in which the road is both the lure and the prison.", "is_fresh": 1, "author": ["Christopher Lloyd"]},
{"text": "Foster and McKenzie are fantastic. The authentic performances drive this beautiful story filled with hope and heartbreak. The audience is rooting for these two in a world that can be very harsh.", "is_fresh": 1, "author": ["Joe Friar"]},
{"text": "A deeply affecting tale of love and survival", "is_fresh": 1, "author": ["Ben Rolph"]},
{"text": "Leave No Trace is a powerful and devastating call for help for ill veterans, a love letter to nature and familial love. Mackenzie is effortlessly lifelike in a stunning, delicate performance and Foster is as usual, stellar and dominant.", "is_fresh": 1, "author": ["Anne Brodie"]},
{"text": "Granik's star-making instincts are as sharp as ever. ", "is_fresh": 1, "author": ["Sandra Hall"]},
{"text": "This is a real, beautiful, quiet movie.", "is_fresh": 1, "author": ["Eli Glasner"]},
{"text": "Like \"Winter's Bone,\" \"Leave No Trace\" doesn't unfold with a typical Hollywood-type narrative. Instead of the dramatic highs and lows, it proceeds in a stately, evenly paced manner that smacks of authentic life. ", "is_fresh": 1, "author": ["Dan Webster"]},
{"text": "My favorite movie of the summer is the quiet masterpiece Leave No Trace, directed by Debra Granik.", "is_fresh": 1, "author": ["Kathryn Reklis"]},
{"text": "Serves as a reminder of all the amazing things American independent cinema could be if it pushed itself more.", "is_fresh": 1, "author": ["Tim Brayton"]},
{"text": "I loved this film. ", "is_fresh": 1, "author": ["Mark Kermode"]},
{"text": "These are two empathetic people reconciling the fact their boundless love is no match for the widening chasm of personal urgency between them.", "is_fresh": 1, "author": ["Jared Mobarak"]},
{"text": "Leave No Trace, in the biggest of ironies, leaves the greatest of traces upon us. ", "is_fresh": 1, "author": ["Robert Daniels"]},
{"text": "Beautifully written and powerfully performed by the two leads, Debra Granik's Leave No Trace is a subtle moving story with complexity and heart.", "is_fresh": 1, "author": ["Rendy Jones"]},
{"text": "The subtle ways we witness [Tom's] epiphany, her little flickers of rebellion, are striking.", "is_fresh": 1, "author": ["Adam Kempenaar"]},
{"text": "One of the most gentle and unique films to be released so far in 2018. ", "is_fresh": 1, "author": ["Damien Straker"]},
{"text": "I was completely immersed in Leave No Trace. The pacing is perfect and while I tend to believe that 2 hours is too long for most films, this one never dragged.", "is_fresh": 1, "author": ["Lindsay Pugh"]},
{"text": "Granik's star-making instincts are as sharp as ever. ", "is_fresh": 1, "author": ["Sandra Hall"]},
{"text": "Leave No Trace is an absolute gem.", "is_fresh": 1, "author": ["Graeme Tuckett"]},
{"text": "With genuine performances and artistically skilled direction and cinematography, we are brought into their world, experiencing their every thought and emotion and ultimately leaving us breathless and awestruck.", "is_fresh": 1, "author": ["Pamela Powell"]},
{"text": "It is a testament to Granik's storytelling prowess that she sees no need to ratchet up the tension when the going gets tough for Will and Tom, and the film is stronger because of it.", "is_fresh": 1, "author": ["Ruben Rosario"]},
{"text": "The film captures the universal dynamic between teens and their parents, but the stakes are unfamiliar. Yet, Foster and McKenzie present a level of humanity that is timelessly authentic.", "is_fresh": 1, "author": ["tt stern-enzi"]},
{"text": "As a coming of age tale it is sparse, bittersweet and desperately powerful - change is pulling these two interwoven lives apart, made explicit by Granik's empathy and unerring eye.", "is_fresh": 1, "author": ["Craig Mathieson"]},
{"text": "Granik only sees hope and endurance in her worn out characters. They are people struggling to decide which future makes the most sense living in a country suffering its own identity crisis. Her optimism feels as essential as the wind in the trees. ", "is_fresh": 1, "author": ["Glenn Heath Jr."]},
{"text": "Leave No Trace is a small film, but a quietly memorable one.", "is_fresh": 1, "author": ["David Stratton"]},
{"text": "An awesome off the grid survivalist drama.", "is_fresh": 1, "author": ["Dennis Schwartz"]},
{"text": "There are few, if any, villains in Leave No Trace. There are no definitive bad or good guys -- just real people with real-world problems trying really hard to stay out of trouble and stay alive.", "is_fresh": 1, "author": ["Laura McPhee"]},
{"text": "The middle of a forest in Portland is the unlikely setting for this touching story from writer director Debra Granik as it explores the bond between father and daughter.", "is_fresh": 1, "author": ["Louise Keller"]},
{"text": "We become the mute voice of society, quietly judging, urging for conformity so that all feels right in the world. Yet, that's the very thing this movie refuses to reconcile. Nothing is \"right in the world.\" ", "is_fresh": 1, "author": ["Katherine Monk"]},
{"text": "Both Foster and McKenzie display a profound respect for their characters and the journey towards peace that doesn't always keep them at the same pace.", "is_fresh": 1, "author": ["Brooke Corso"]},
{"text": "Compelling and compassionate, it's a powerful character study.", "is_fresh": 1, "author": ["Susan Granger"]},
{"text": "Adapted by director/co-writer Debra Granik and Anne Rosselini from Peter Rock's 2009 novel \"My Abandonment,\" Granik shows the same profound, compassionate understanding of human relationships showcased in her breakout hit \"Winter's Bone.\"", "is_fresh": 1, "author": ["Diane Carson"]},
{"text": "Occasionally uplifting and sometimes heartbreaking, it is nothing less than sublime.", "is_fresh": 1, "author": ["James Berardinelli"]},
{"text": "There's a patience and care to the way [Granik] makes movies, an appreciation for detail and nuance, that makes them bracingly different from any other movies being made.", "is_fresh": 1, "author": ["Rob Thomas"]},
{"text": "Its tender portrait of the relationship between father and daughter defamiliarises our fixed, often one-way understandings of care.", "is_fresh": 1, "author": ["Hannah Paveck"]},
{"text": "It's a sad movie that's somehow full of hope. You leave with your heart aching but not quite broken.", "is_fresh": 1, "author": ["Sean Burns"]},
{"text": "Leaves a haunting impression, and drives home the central question; how do we make choices for ourselves without hurting the ones we love? In Granik's world, it's not the answer that hurts - rather, it's the journey to find one that does.", "is_fresh": 1, "author": ["George Fenwick"]},
{"text": "All of the movie's relationships, even those that last for a single scene, are quietly affecting.", "is_fresh": 1, "author": ["Josh Bell"]},
{"text": "A thoughtful story about a father and daughter who discover that kindness is good medicine.", "is_fresh": 1, "author": ["Frederic and Mary Ann Brussat"]},
{"text": "This is a family drama, not a Social Studies discourse, and in that respect, it succeeds with quiet grace.", "is_fresh": 1, "author": ["Lisa Jensen"]},
{"text": "Leave No Trace is mostly a thoughtful, empathetic exploration of what really makes a home, and how hard-fought the battle can be to find it.", "is_fresh": 1, "author": ["Andrea Thompson"]},
{"text": "A powerful, sensitive film that looks at those stuck between the obligations of society and the invisible scars that conflict leaves behind.", "is_fresh": 1, "author": ["Jason Gorber"]},
{"text": "[Director Debra] Granik's latest cements her standing as a filmmaker of extraordinary craftsmanship and humanistic vision. She's poet laureate of the dispossessed, an artist capable of seeing both the forest and the trees.", "is_fresh": 1, "author": ["Rick Kisonak"]},
{"text": "Leave No Trace is a paean to empathy.", "is_fresh": 1, "author": ["Tony Macklin"]},
{"text": "I recommend it as much for what it doesn't do as for what it does. It's a gentle, troubling drama that contributes to the sort of questions many of us have these days: Who are we now? Who are we really?", "is_fresh": 1, "author": ["Steve Murray"]},
{"text": "...a movie that's willing to whisper.", "is_fresh": 1, "author": ["Josh Larsen"]},
{"text": "Granik fills the screen with humanity in an assortment of characters doing their jobs and at least offering the rare opportunity to connect with others", "is_fresh": 1, "author": ["John Urbancich"]},
{"text": "Leave No Trace is a rarity, a movie that runs its finger over a deep vein of pain without offering palliatives or bromides. That feels unblinkered and right.", "is_fresh": 1, "author": ["Robert Denerstein"]},
{"text": "Debra Granik directs with a touch that's as gentle on the audience as bees are to Tom. There is not a move, cut, sound, or deliberate stretch of silence that in some way doesn't advance and inform the plot. ", "is_fresh": 1, "author": ["Scott Marks"]},
{"text": "The movie's steady pacing and first-rate acting keep us interested through a running time of close to two hours...", "is_fresh": 1, "author": ["M. Faust"]},
{"text": "\"Leave No Trace\" is almost perfect.", "is_fresh": 1, "author": ["Sr. Rose Pacatte"]},
{"text": "Granik is generous but unsentimental; allowing every character, no matter how minor or briefly glimpsed, a measure of dignity. No one -- not even a leotarded Christian dance troupe called For Your Glory -- is made to seem ridiculous.", "is_fresh": 1, "author": ["Philip Martin"]},
{"text": "Leave No Trace beautifully takes viewers on different but parallel journeys, those of the father and the daughter as one can't veer off his path and the other one must.", "is_fresh": 1, "author": ["Indra Arriaga"]},
{"text": "Granik has created a breakout role for McKenzie... Hers is a name you will hear a lot of from now on. ", "is_fresh": 1, "author": ["Tara Thorne"]},
{"text": "An arguably more restrained and refined narrative than her excellent \"Winter's Bone,\" director Debra Granik's \"Leave No Trace\" is intimate story-telling at its best.", "is_fresh": 1, "author": ["Jonathan W. Hickman"]},
{"text": "Leave No Trace's exploration of powerful themes like the power of community and the kindness of strangers turns what appears to be a sad story on the surface into something very worthwhile.", "is_fresh": 1, "author": ["Josh Terry"]},
{"text": "It covers difficult ground, but to say it leaves no trace would be a lie. It definitely makes its mark.", "is_fresh": 1, "author": ["Adam Graham"]},
{"text": "Granik's films also convey a strong sense of place, which is aided in large measure by cinematographer Michael McDonough.", "is_fresh": 1, "author": ["Marjorie Baumgarten"]},
{"text": "Tolstoy's observation that all happy families are alike gets overturned in Leave No Trace.", "is_fresh": 1, "author": ["Gary Thompson"]},
{"text": "A kind-hearted drama whose consistent quiet and composure leaves you all the more floored by its low-volume, high-stakes conclusion, \"Leave No Trace\" continues 2018's welcome trend of confident, compassionate stories about those on society's margins.", "is_fresh": 1, "author": ["Nick Rogers"]},
{"text": "The movie, directed and co-written by Debra Granik, speaks volumes about family ties - in assured but hushed tones.", "is_fresh": 1, "author": ["Bob Bloom"]},
{"text": "Leave No Trace will leave an indelible mark on audience's memories.", "is_fresh": 1, "author": ["Sean P. Means"]},
{"text": "With top-tier performances by Ben Foster and newcomer Thomasin McKenzie, director Debra Granik has captured an authentic dynamic between two characters who find themselves at an impasse.", "is_fresh": 1, "author": ["Kiko Martinez"]},
{"text": "You can't say enough about 18-year-old Thomasin McKenzie, whose nuanced performance here burnishes Granik's reputation as a discoverer and molder of exciting young talent.", "is_fresh": 1, "author": ["Mike Scott"]},
{"text": "Leave No Trace might be described in social terms as a film about homelessness, but it never loses sight of the fact that what makes a home is the privacy people need to connect with each other.", "is_fresh": 1, "author": ["J. R. Jones"]},
{"text": "Leave No Trace immerses us in rugged and rain-saturated terrain, where it is easy to get lost and even easier to get into trouble.", "is_fresh": 1, "author": ["Jeffrey Overstreet"]},
{"text": "In a year full of films that explore the precious nature of father-daughter dynamics, Granik's feature is a standout.", "is_fresh": 1, "author": ["Courtney Howard"]},
{"text": "Leave No Trace speaks, not just to the trauma and the damage of soldiers who have seen too much in war, but wider questions of endurance and the soul that can touch all of us. ", "is_fresh": 1, "author": ["Karen Gordon"]},
{"text": "Leave No Trace is one of the best films of 2018 and promises to make a star of McKenzie.", "is_fresh": 1, "author": ["David Sims"]},
{"text": "Shot on location in the Pacific Northwest ... Leave No Trace contrasts, in gorgeously evocative visuals, the green lushness of nature with the withered barrens of Will's soul.", "is_fresh": 1, "author": ["Christopher Llewellyn Reed"]},
{"text": "With Leave No Trace, filmmaker Debra Granik revisits themes of female power years after the flawless Winter's Bone.", "is_fresh": 1, "author": ["Roxana Hadadi"]},
{"text": "This movie filled my heart, and it broke my heart. ", "is_fresh": 1, "author": ["Alonso Duralde"]},
{"text": "[Thomasin McKenzie] is a massive find. There is such wisdom in her presence...You can feel her seeing everything and taking it all in. There's such a naturalism to the way she responds in every single situation. ", "is_fresh": 1, "author": ["Christy Lemire"]},
{"text": "Leave No Trace is further evidence Granik is one of the most talented directors around - and Ben Foster ranks among the finest and most intense actors working today.", "is_fresh": 1, "author": ["Richard Roeper"]},
{"text": "I admire \"Leave No Trace\" for its minimalist approach, lead performances and overall tone, but didn't love it like many other reviewers. (Full Content Review for Parents - Thematic Elements, etc. - also Available)", "is_fresh": 1, "author": ["Jim Judy"]},
{"text": "It speaks in hushed voices, makes few fast moves and requires the viewer to infer a lot about its characters - and also to fear for their safety.", "is_fresh": 1, "author": ["Peter Howell"]},
{"text": "'Leave No Trace' gets across its simple, beautiful ideas as lightly as poetry. ", "is_fresh": 1, "author": ["Jeffrey M. Anderson"]},
{"text": "With its Pacific Northwest setting, Granik evokes the same feeling and aesthetic as Kelly Reichardt...While Leave No Trace does not specifically take place in the present, it has added resonance for this particular cultural moment. ", "is_fresh": 1, "author": ["Alan Zilberman"]},
{"text": "Leave No Trace forms a beautiful, heartfelt testament.", "is_fresh": 1, "author": ["Norman Wilner"]},
{"text": "Their idyllic but fragile existence is interrupted when police officers capture them and they are catapulted into a social system that is well-meaning but clearly not a good fit, at least for the father.", "is_fresh": 1, "author": ["Chris Knight"]},
{"text": "[T]he impact of this story is subtle, gradual, and filled with insight.", "is_fresh": 1, "author": ["Mark Dujsik"]},
{"text": "Thomasin McKenzie's Tom is an affecting and multi-faceted character.", "is_fresh": 1, "author": ["Peg Aloi"]},
{"text": "This perceptive, deeply humane film will certainly belie its title and linger in your memory.", "is_fresh": 1, "author": ["Frank Swietek"]},
{"text": "Beneath the slight narrative, deliberate pace, and long stretches of quiet, Granik and her outstanding cast are busy flushing Leave No Trace with sadness and compassion.", "is_fresh": 1, "author": ["Adrian Mack"]},
{"text": "It doesn't take long for \"Leave No Trace\" to tell you that it's a well written, low-key, adult story.", "is_fresh": 1, "author": ["Colin Covert"]},
{"text": "Ben Foster is making a career out of playing men who either can't or won't adhere to society's rules... But as Will in Debra Granik's Leave No Trace, he reinvigorates these baleful character traits by suppressing rather than expressing them.", "is_fresh": 1, "author": ["Jeffrey Edalatpour"]},
{"text": "Granik is one of the most distinctive filmmaking voices we have; I'd love to see her make more features but I'm also glad she takes the time to do them right.", "is_fresh": 1, "author": ["Chris Vognar"]},
{"text": "\"Leave No Trace\" isn't a popcorn flick, but serious film buffs will find much to appreciate.", "is_fresh": 1, "author": ["Calvin Wilson"]},
{"text": "In Leave No Trace, director Debra Granik continues to refine a style of tranquil intensity. The film's images have a rapt and pared-down power, with emphases that are never quite where you expect them to be. ", "is_fresh": 1, "author": ["Chuck Bowen"]},
{"text": "Ultimately Winter's Bone and Leave No Trace could not be tonally more different, revealing Granik to be a virtuoso filmmaker of a diverse, if too brief, oeuvre.", "is_fresh": 1, "author": ["Annlee Ellingson"]},
{"text": "A quiet movie filled with heart and hope. Will Debra Granik make us wait another eight years for her next narrative film? I certainly hope not.", "is_fresh": 1, "author": ["Alexandra MacAaron"]},
{"text": "Foster and McKenzie are almost symbiotic here, with the young actress, a native of New Zealand, delivering a startlingly confident performance that is, by every measure, the equal of Foster's.", "is_fresh": 1, "author": ["Michael O'Sullivan"]},
{"text": "I could have done with more electricity from Foster - ears pricked for danger, he seems to pose little himself - but the New Zealand-born McKenzie is superb. Her wary grey eyes seem to take in every leaf on every tree.", "is_fresh": 1, "author": ["Tom Shone"]},
{"text": "It's both thought-provoking and life-affirming.", "is_fresh": 1, "author": ["Matthew Bond"]},
{"text": "Leave No Trace's real power lies in how intelligently and empathetically [director Debra] Granik engages with the subject of America's marginalised people.", "is_fresh": 1, "author": ["Joseph Walsh"]},
{"text": "Foster and McKenzie spark the same chemistry through their combined acting talents, an achievement made more remarkable given how little dialogue there is.", "is_fresh": 1, "author": ["Alison Rowat"]},
{"text": "Leave No Trace asks all sorts of interesting questions about the nature of society and the rights of the individual versus the supposed common good. It looks tremendous, and is wonderfully acted by McKenzie and Foster.", "is_fresh": 1, "author": ["Paul Whitington"]},
{"text": "Debra Granik's third narrative feature, Leave No Trace, is a emotionally powerful film with a breakout performance from actress Thomasin Harcourt McKenzie.", "is_fresh": 1, "author": ["Danielle Solzman"]},
{"text": "Where does Granik find these young, superb actresses? It's like she has a patent on it. But it's her skill as a filmmaker that leaves you gobsmacked; taking small tales about people living on the margin and making them resonate.", "is_fresh": 1, "author": ["Al Alexander"]},
{"text": "The story, from beginning to end, is enthralling, mainly due to the anchoring performances by Ben Foster and Thomasin McKenzie.", "is_fresh": 1, "author": ["Robin Clifford"]},
{"text": "Debra Granik's drama about a damaged war vet (Ben Foster) living off the grid with his teen daughter, brilliantly played by breakout star Thomasin Harcourt McKenzie, is hypnotic, haunting and one of the year's best", "is_fresh": 1, "author": ["Peter Travers"]},
{"text": "LEAVE NO TRACE starts off with great promise, particularly due to Harcourt McKenzie's presence, but in the end, it doesn't quite deliver for me. ", "is_fresh": 1, "author": ["Jeanne Kaplan"]},
{"text": "Tom's self-awakening creates a wedge in their relationship, and when the inevitable happens, we are neither surprised nor shocked. But more importantly, we are not sufficiently moved.", "is_fresh": 1, "author": ["David Kaplan"]},
{"text": "In her first narrative film since Winter's Bone, director Debra Granik once again makes a compelling and human drama set in the wilderness , and once again discovers a bright new star.", "is_fresh": 1, "author": ["Pete Hammond"]},
{"text": "Fiercely involving in a way we're not used to, made with sensitivity and honesty.", "is_fresh": 1, "author": ["Kenneth Turan"]},
{"text": "Whether this insular relationship can survive in the larger world is the source of such consistent, compelling tension that you do not notice until this close-to-two-hour film is nearly over that it contains almost no exposition.", "is_fresh": 1, "author": ["Carla Meyer"]},
{"text": "Director Debra Granik's 2010 'Winter's Bone' was a surprise stunner. So is this. Granik needs to make more than one film every 8 years.", "is_fresh": 1, "author": ["Tony Medley"]},
{"text": "Foster and McKenzie are admirably restrained, acting mostly without dialogue, but with grimaces and twitches, glances and nods. ", "is_fresh": 1, "author": ["Kevin Maher"]},
{"text": "It is the acting of the two leads that makes the film special.", "is_fresh": 1, "author": ["Sara Michelle Fetters"]},
{"text": "The film's so tight and intimate and quiet you feel as if you're at the campfire sipping pine needle tea with Tom and Will.", "is_fresh": 1, "author": ["Tom Meek"]},
{"text": "This sensitive, brooding drama is an Oscar magnet.", "is_fresh": 1, "author": ["Tim Appelo"]},
{"text": "McKenzie's performance is shocking in its confident nuance and seemingly effortless naturalism, making every moment feel bracingly authentic.", "is_fresh": 1, "author": ["Kristy Puchko"]},
{"text": "A story of deep emotional poignancy, with a grim political relevance.", "is_fresh": 1, "author": ["Pamela Hutchinson"]},
{"text": "Every year a handful of small, independent American films show up that leave you breathless. Leave No Trace is one of them.", "is_fresh": 1, "author": ["Alissa Wilkinson"]},
{"text": "Debra Granik's first feature since Winter's Bone is another backwoods winner. Foster and Harcourt McKenzie are standouts in drama about a powerful father-daughter bond.", "is_fresh": 1, "author": ["James Verniere"]},
{"text": "It's clear from watching \"Leave No Trace\" that these are people, and this is a story, that Granik cares deeply about. It's rarer than you think to watch a movie in which this is the case.", "is_fresh": 1, "author": ["Peter Rainer"]},
{"text": "Beautifully shot, lyrical, and heartfelt, 'Leave No Trace' is also missing some of the edge that made 'Winter's Bone' so memorable.", "is_fresh": 1, "author": ["Vincent Mancini"]},
{"text": "Thomasin McKenzie's performance blew my mind. Ben Foster says more with a look than most can with pages of dialogue. Terrific telling of hopelessness, homelessness and hope.", "is_fresh": 1, "author": ["Gary Wolcott"]},
{"text": "By the end, though, Will and Tom feel all too human. And their predicament will have you in tears.", "is_fresh": 1, "author": ["Charlotte O'Sullivan"]},
{"text": "An immensely moving portrait of a father and daughter who love each other, and who can't bear to be apart.", "is_fresh": 1, "author": ["Sheila O'Malley"]},
{"text": "With understated portrayals by both leads and a meticulous attention to detail, the film is both tender and evocative.", "is_fresh": 1, "author": ["Todd Jorgenson"]},
{"text": "Debra Granik is an exceptional filmmaker. Her output is small but each film is resolute and genuine. Her latest, Leave No Trace, maintains the high standards she's set. Leave No Trace is one of the best films I've seen this year. ", "is_fresh": 1, "author": ["Leonard Maltin"]},
{"text": "The beautifully observed details of this heroine's journey are heartbreaking.", "is_fresh": 1, "author": ["Robert Horton"]},
{"text": "...never less than utterly arresting.", "is_fresh": 1, "author": ["Travis Johnson"]},
{"text": "While the meandering pace, which doesn't create any sense of urgency, may be a bit slow for some viewers, this is a richly drawn and rewarding film that stays with you.", "is_fresh": 1, "author": ["Sarah McIntyre"]},
{"text": "A thoughtful meditation on parents and children, on damage and courage, on communities we create, and on what we mean by home.", "is_fresh": 1, "author": ["Nell Minow"]},
{"text": "The director, Debra Granik, made a stunning feature eight years ago: \"Winter's Bone,\"... Here's another stunner, and another revelation in the calmly radiant person of Thomasin Harcourt McKenzie.", "is_fresh": 1, "author": ["Joe Morgenstern"]},
{"text": "[Granik] brings McKenzie to the forefront. The young actress projects the dazed yet intelligent innocence of someone unfamiliar with the modern world.", "is_fresh": 1, "author": ["Laura Clifford"]},
{"text": "Despite Leave No Trace's humorless treatment and tragedy of its issues, McKenzie's incandescent ebullience blazes.", "is_fresh": 1, "author": ["Jay Horton"]},
{"text": "Leave No Trace is a gorgeous story about adolescence, about basic human kindness, about separation and reconciliation, about the limits of what parents can teach their kids.", "is_fresh": 1, "author": ["Stephanie Zacharek"]},
{"text": "Granik gives her characters room enough to breathe so we get a full sense of just how precarious their lives really are. ", "is_fresh": 1, "author": ["Alistair Harkness"]},
{"text": "[Thomasin McKenzie's] acting, like Foster's, is flawless, and their father-daughter rapport rings true from the film's first moments.", "is_fresh": 1, "author": ["Victoria Albert"]},
{"text": "Little is said and little happens - it's inaction-packed, if you like - yet it pulls you in and keeps you pulled in. I'm still turning it over in my mind days later. It will certainly leave a trace in you, in other words.", "is_fresh": 1, "author": ["Deborah Ross"]},
{"text": "Debra Granik has a gift for cinematic spaces that are vibrantly, palpably alive, and for putting you in places, whether modest homes or the great outdoors, that make you feel as if you're standing right alongside her characters. ", "is_fresh": 1, "author": ["Manohla Dargis"]},
{"text": "This gentle, miracle of a film is almost an antidote to Matt Ross' \"Captain Fantastic,\" which explores similar themes in a comparatively showy, crude fashion.", "is_fresh": 1, "author": ["Tomris Laffly"]},
{"text": "Leave No Trace is better than all its forebears.", "is_fresh": 1, "author": ["Nigel Andrews"]},
{"text": "The movie shines a gentle but insistent light on America's underclass and walking wounded, the people in the cracks just getting by.", "is_fresh": 1, "author": ["Ty Burr"]},
{"text": "\"Leave No Trace\" is a beautiful film, heartbreaking in the self-awareness - both existing and burgeoning - of its characters.", "is_fresh": 1, "author": ["Bill Goodykoontz"]},
{"text": "While there's sadness in the movie, it's countered with hope, and Granik's faith in humanity proves contagious.", "is_fresh": 1, "author": ["Anita Katz"]},
{"text": "Unlike Sean Penn's 'Into the Wild', which also explores the quiet radicalism of disappearing off the grid, there's no big emotional swells here. 'Leave No Trace' is a more hushed, contemplative movie. ", "is_fresh": 1, "author": ["Philip De Semlyen"]},
{"text": "Leave No Trace lacks the ferocity that drove Granik's earlier features, as well as a ready hook for audiences; but it offers deeper sorrow and greater hope, as well as a direct line to a substratum of the American imagination.", "is_fresh": 1, "author": ["Stuart Klawans"]},
{"text": "The movie belongs to McKenzie, whose extraordinary performance as daughter Tom is heartbreaking, inspiring, and unforgettable.", "is_fresh": 1, "author": ["Ned Lannamann"]},
{"text": "Leave No Trace asserts, with exquisite humanity and a long bittersweet sigh, that the best the broken can do is disappear before they break anyone else.", "is_fresh": 1, "author": ["Dom Sinacola"]},
{"text": "It sneaks up on you, then leaves you in paralyzed shock.", "is_fresh": 1, "author": ["Inkoo Kang"]},
{"text": "Granik charts the evolution of their relationship in microscopic detail, harvesting from the smallest gestures the sort of emotion that screenwriters spend pages trying to rustle up.", "is_fresh": 1, "author": ["Ryan Gilbey"]},
{"text": "Debra Granik, director and co-writer of Winter's Bone, is back with another-slightly more low-key, but still riveting-story of \"the other America.\"", "is_fresh": 1, "author": ["Maria Garcia"]},
{"text": "The brilliance of Leave No Trace lies in its understatement.", "is_fresh": 1, "author": ["Geoffrey Macnab"]},
{"text": "The jeopardy remains muted and subterranean until it sprouts at the very end.", "is_fresh": 1, "author": ["Jasper Rees"]},
{"text": "A slow-burning drama infused with both sadness and hope. ", "is_fresh": 1, "author": ["Anna Smith"]},
{"text": "This is a delicate, heartfelt character drama built around two of the best performances you are likely to see all year - and will leave you hoping that it doesn't take as long for Granik's next film to enter production.", "is_fresh": 1, "author": ["Alistair Ryder"]},
{"text": "Tension, some peril in intense father-daughter drama. ", "is_fresh": 1, "author": ["Michael Ordo\u00f1a"]},
{"text": "Granik doesn't spell out the connection between these characters. She doesn't have to. You feel it. ", "is_fresh": 1, "author": ["Chris Nashawaty"]},
{"text": "When civilization feels threatened, starting over in the woods seems not only appealing, but maybe even necessary. Especially when seen though Granik's discerning eye. How lucky we are to have her work.", "is_fresh": 1, "author": ["Katie Walsh"]},
{"text": "Harrowing and enthralling in equal measures, it's a challenging and rewarding experience. ", "is_fresh": 1, "author": ["Brent McKnight"]},
{"text": "Their journey from here may not be all that surprising, but it's a testament to the actors and director that it remains riveting throughout. ", "is_fresh": 1, "author": ["Lindsey Bahr"]},
{"text": "Refreshingly, there's no artificial conflict... Confident filmmaking shows in every frame.", "is_fresh": 1, "author": ["Rich Cline"]},
{"text": "Every moment and every character is charged with raw and real emotion. Describing Leave No Trace as a tearjerker barely scratches the surface.", "is_fresh": 1, "author": ["David Jenkins"]},
{"text": "An equally tender and devastating father-and-daughter effort that's handled with supreme sensitivity and shot with unwavering kindness.", "is_fresh": 1, "author": ["Sarah Ward"]},
{"text": "It is small and, story-wise, slight, but quietly powerful in its detail and compassion.", "is_fresh": 1, "author": ["Ian Freer"]},
{"text": "This is a film strongly invested in those marginalised by society.", "is_fresh": 1, "author": ["James Mottram"]},
{"text": "\"Leave No Trace\" should, by rights, be dull... Yet the movie's patient progress is driven and tensed, and you feel that, at every turn in the path, something could go badly astray. ", "is_fresh": 1, "author": ["Anthony Lane"]},
{"text": "Debra Granik's haunting drama makes other living-off-the-grid films feel like pretenders. ", "is_fresh": 1, "author": ["Joanna Langfield"]},
{"text": "Captures like few other films a remarkable bond between father and daughter.", "is_fresh": 1, "author": ["Harvey S. Karten"]},
{"text": "Granik is a strikingly observational director, and she takes great care to avoid leading viewers in any direction.", "is_fresh": 1, "author": ["Elizabeth Weitzman"]},
{"text": "The heart of Leave No Trace is the rapport between the father and daughter, and McKenzie and Foster are keyed to each other's movements, perhaps even each other's thoughts. ", "is_fresh": 1, "author": ["David Edelstein"]},
{"text": "Minimalistic, deliberate and largely silent, \"Leave No Trace\" clings to each word like an endangered species. It demands patience from the audience, but that patience is richly rewarded.", "is_fresh": 1, "author": ["J.R. Kinnard"]},
{"text": "Granik has exhibited a depth of feeling for these characters that is fair-minded and gentle, offering a nation's most broken and isolated progeny a safe fictional harbor in her film.", "is_fresh": 1, "author": ["Christina Newland"]},
{"text": "Alive to the majesty of the wilderness and the sanctuary it offers a tortured soul, Leave No Trace is a rich and refreshingly apolitical portrait of rural America.", "is_fresh": 1, "author": ["Emma Simmonds"]},
{"text": "Ben Foster and Thomasin McKenzie are sublimely cast, creating nuanced and indelible characters that will leave you in suspense about how they can come to terms with the world without breaking each other's hearts.", "is_fresh": 1, "author": ["Carl Spence"]},
{"text": "Judging by both her talent and the Debra Granik seal of approval, we would say that Thomasin McKenzie is one to watch out for.", "is_fresh": 1, "author": ["Hugh Armitage"]},
{"text": "There's a lot to watch and enjoy in this film that takes the time to look at faces properly and that constructs a totally believable world of misfits and underdogs.", "is_fresh": 1, "author": ["Caspar Salmon"]},
{"text": "A small, intimate film, contained in both scale and content, but undoubtedly solid. [Full review in Spanish]", "is_fresh": 1, "author": ["Juanma Ruiz"]},
{"text": "It's a movie that will live with me for a long time.", "is_fresh": 1, "author": ["Peter Bradshaw"]},
{"text": "Subtle but assured to the end, Granik's film is all undertow, but it irresistibly grabs you.", "is_fresh": 1, "author": ["Tim Robey"]},
{"text": "A profound story about love, family, loyalty, understanding, and compassion.", "is_fresh": 1, "author": ["Tiffany Tchobanian"]},
{"text": "A refreshing look at humanity in general, \"Leave No Trace\" is a universal, unforgettable experience. ", "is_fresh": 1, "author": ["Jordan Ruimy"]},
{"text": "This is the gentlest I've ever seen Ben Foster. Of course, Will is still tortured. He's a veteran but he doesn't rage and he doesn't even lash out at people interrupting his peace. He channels it into something positive. ", "is_fresh": 1, "author": ["Fred Topel"]},
{"text": "While certain aspects ofLeave No Traceremain inscrutable, what's undeniable is the hopefulness Granik finds in those who live off the grid.", "is_fresh": 1, "author": ["Travis Hopson"]},
{"text": "As a depiction of a certain corner of American life, Leave No Trace is vivid and true.", "is_fresh": 1, "author": ["A.A. Dowd"]},
{"text": "Granik and her Winter's Bone writing partner Anne Rosselini have once again burrowed into the lives of the truly forgotten people of the United States, only this time they're without a marketable whodunit hook.", "is_fresh": 1, "author": ["Jeremy Smith"]},
{"text": "[Director Debra Granik] made a film of grace and power, a story of people lost and found in America that often shows us at our noble and humble best. How rare and refreshing that is these days.", "is_fresh": 1, "author": ["Richard Lawson"]},
{"text": "This is a movie driven by filmmaking, and [Debra] Granik's skill behind the camera drives a lot of the narrative forward. That and, of course, [Harcourt] McKenzie's performance.", "is_fresh": 1, "author": ["Adam Chitwood"]},
{"text": "Early scenes of Leave No Trace feel like The Road. Not the movie adaptation, but Cormac McCarthy's book, which evokes familial intimacy to an almost harrowing degree. ", "is_fresh": 1, "author": ["Dan Schindel"]},
{"text": "It's a film that never overwhelms but it lingers, leaving its mark on the viewer.", "is_fresh": 1, "author": ["Tim Grierson"]},
{"text": "Leave No Trace is a powerful statement about devotion, survival, and the interconnected threads that shape a society. ", "is_fresh": 1, "author": ["J.R. Kinnard"]},
{"text": "Once again, Granik introduces us to a kind of family that cinema rarely captures believably, and she does so with a style that's both lyrical and realistic at the same time, anchored by a pair of unforgettable performances.", "is_fresh": 1, "author": ["Brian Tallerico"]},
{"text": "It might not have the genre elements that helped make Winter's Bone something of a breakout, but Leave No Trace rivets and terrifies in its own way.", "is_fresh": 1, "author": ["Bilge Ebiri"]},
{"text": "The film is consistently at its best when it's attuned to a quiet sense of harmony between all things. ", "is_fresh": 1, "author": ["David Ehrlich"]},
{"text": "For fans of the director's \"Winter's Bone\"... this unconventional family portrait shares many qualities with the 2010 film, including profound empathy for backwoods characters and the discovery of yet another young talent in Thomasin Harcourt McKenzie. ", "is_fresh": 1, "author": ["Peter Debruge"]},
{"text": "An absorbing, delicately directed and acted father-daughter drama.", "is_fresh": 1, "author": ["Jon Frosch"]}
]