[
{"reviews_count": "363", "title": "Logan", "avg_audience_rating": "4.3", "rotten_count": "25", "tomatometer": "93", "audience_score": "90", "avg_critic_rating": "7.9", "fresh_count": "338", "user_ratings_count": "90,743"},
{"text": "Jackman has been defined as a screen presence by almost two decades of playing this character across the various X-Men movies... and yet, the X-Men movies themselves have ultimately been a succession of average-to-forgettable films.", "is_fresh": 1, "author": ["Bob Chipman"]},
{"text": "Director James Mangold has crafted a superhero movie that examines the demands of being a superhero in rather dark and refreshing ways.", "is_fresh": 1, "author": ["Micheal Compton"]},
{"text": "Blissfully free of giant robots and blue beams shooting into the sky, the story instead claws drama from the essential tragedy of a man whose longevity curses him with seeing people he cares about constantly ripped away.", "is_fresh": 1, "author": ["Zaki Hasan"]},
{"text": "This is the Wolverine story fans have wanted to see on screen all along, and the filmmakers are to be commended for taking the character to this difficult but necessary place.", "is_fresh": 1, "author": ["Jennifer Heaton"]},
{"text": "Over 17 years, Hugh Jackman has played Wolverine through all sorts of highs and lows. If this is definitely his final turn as the character, he's going out on the highest note yet.", "is_fresh": 1, "author": ["Sean Mulvihill"]},
{"text": "Raw, stripped-down, and vulnerable, it's a razor-sharp, surprisingly effective study of characters we thought we knew well.", "is_fresh": 1, "author": ["Johnny Gayzmonic"]},
{"text": "17 years after his introduction into the \"X-Men\" franchise, Fox has finally made a Wolverine movie that will truly satisfy fans of the character.", "is_fresh": 1, "author": ["Kirsten Acuna"]},
{"text": "Logan is the film that Wolverine so rightfully deserved.", "is_fresh": 1, "author": ["Rosalie Kicks"]},
{"text": "If I had a special connection to the X-Men franchise, and if Wolverine had been one of my all-time favourite characters, I would've appreciated this far more.", "is_fresh": 1, "author": ["Tomas Trussow"]},
{"text": "Bless director James Mangold and crew ... [for understanding that] for Logan's journey to end on an appropriately high note, all leashes must be taken off. ", "is_fresh": 1, "author": ["Nguyen Le"]},
{"text": "Stark. Bleak. Honest. Fulfilling. These are the words I would use to describe James Mangold's Oscar-worthy Logan.", "is_fresh": 1, "author": ["Aaron Peterson"]},
{"text": "Drops the ball with a lackluster third quarter that results in the film to a disappointingly underwhelming sendoff to Hugh Jackman's portrayal of the iconic character.", "is_fresh": 0, "author": ["Rendy Jones"]},
{"text": "[Logan] keeps itself away from another 'saving the world' trope, and crafts a uniquely personal and tragic story that will leave many choked up.", "is_fresh": 1, "author": ["Akhil Arora"]},
{"text": "Logan manages to be about Logan and Charles while simultaneously building a mutant world with broader representation. It's a bloody, crushing battle to get there, but there could be a better future.", "is_fresh": 1, "author": ["Molly Templeton"]},
{"text": "It's a great send-off for Hugh Jackman.", "is_fresh": 1, "author": ["Achara Kirk"]},
{"text": "I'd put it up there with First Class as my favorite X-Men movies.", "is_fresh": 1, "author": ["Jaby Koay"]},
{"text": "Neither Mangold or his cast are messing around here, with all concerned determined to deliver a final, hugely satisfying, one-way trip for this A-list member of the X-Men. As for what might come next, one fancies fans will like that too.", "is_fresh": 1, "author": ["Alison Rowat"]},
{"text": "Aside from being a great film, [\"Logan\"] speaks to bigger themes that will make it relevant far longer than most other superhero movies.", "is_fresh": 1, "author": ["Mae Abdulbaki"]},
{"text": "Logan moves from self-loathing lush to reluctant protector to impassioned avenger... For the first time, he's not the hero we want but, rather, the one we need. ", "is_fresh": 1, "author": ["Glenn Heath Jr."]},
{"text": "Dafne Keen plays Laura and hot diggity dog, she's actual perfection.", "is_fresh": 1, "author": ["Stephanie Cooke"]},
{"text": "Jesus this movie was fantastic,i think part of the reason why this movie was so amazing was because, we knew it would be Hugh Jackman's last movie.", "is_fresh": 1, "author": ["Dorian Parks"]},
{"text": "[It's] a very good, very violent action movie, with a sense of stakes that modern blockbusters rarely have.", "is_fresh": 1, "author": ["Joshua Rivera"]},
{"text": "This is the grown up version of these films and given the history of the movies, its absolutely earned.", "is_fresh": 1, "author": ["William Evans"]},
{"text": "Mangold's film is undoubtedly overlong and some stretches do drag, but Jackman and Stewart's superb, nuanced performances ensure that it's not just the fight scenes but also the emotionally charged ones that really pack a punch.", "is_fresh": 1, "author": ["Jason Best"]},
{"text": "Logan gamely bats away most of the genre's perceived narrative mold and \"fatigue\", jettisoning a previously de-clawed, 12A-rated Wolverine in favour of a full-fat, crimson-soaked final outing for the iconic mutant.", "is_fresh": 1, "author": ["Shaun Munro"]},
{"text": "An harsh testament... to an enduring icon. [Full review in Spanish]", "is_fresh": 1, "author": ["Yago Garc\u00eda"]},
{"text": "The movie is tough and unyielding before overexposure to these kids sets it. The warning in Logan's trailer should have mentioned that it's not mayhem you have to worry about. Saccharin will get you in the end.", "is_fresh": 1, "author": ["A.S. Hamrah"]},
{"text": "Even if the dire tone gives off the whiff of calculation, its violence and profanity are liberating, a closing of the gap between comic book fantasy and life as we recognize it.", "is_fresh": 1, "author": ["Mark Keizer"]},
{"text": "After some nine X-Men movies of various stripes and styles including a couple of previous stand-alone Wolverine films, I had little hope that the best was yet to come. But indeed it has come in the form of Logan...", "is_fresh": 1, "author": ["Pete Hammond"]},
{"text": "One has taken Jackman for granted in this role, but there's something grandly Shakespearean too about the Wolverine's rage against the dying of the light.", "is_fresh": 1, "author": ["Paul Whitington"]},
{"text": "Whether or not you think Superhero Movies is a genre in itself, [Logan] proves that you can have other genres, other types of films that you're familiar with, but add the element of superheroes, or in this case, mutants. ", "is_fresh": 1, "author": ["Andre Meadows"]},
{"text": "Logan does take worthwhile risks and breaks some good ground in superhero storytelling. ", "is_fresh": 1, "author": ["Megan Basham"]},
{"text": "The best comic-book-inspired offering this year - and maybe ever - was the weighty, somber, ultra-violent final chapter in the X-Men's Wolverine saga.", "is_fresh": 1, "author": ["Kiko Martinez"]},
{"text": "At over two hours, the movie drags a bit towards its finish, but still remains a strong tribute to Jackman as Logan, bidding him a fond farewell as he exits the series.", "is_fresh": 1, "author": ["Christopher Llewellyn Reed"]},
{"text": "An amazing way to end Logan's saga.", "is_fresh": 1, "author": ["Steph Cozza"]},
{"text": "Mangold has crafted a movie that sends its hero off in great feeling and style. Logan has a great emotional depth and Jackman is terrific.", "is_fresh": 1, "author": ["Carl Kozlowski"]},
{"text": "Logan would absolutely deserve a Best Picture Oscar nomination, even more than Christopher Nolan's hailed yet arguably snubbed Batman masterpiece The Dark Knight.", "is_fresh": 1, "author": ["Robert Kojder"]},
{"text": "You mean this is the Wolverine we could have always had? Of course this would be the last one. Logan is a fantastically dark and satisfying story ending for this Hugh Jackman's Wolverine.", "is_fresh": 1, "author": ["Alachia Queen "]},
{"text": "If indoctrinating child audiences into accepting, and enjoying, brutal deadly violence was the intent of the filmmakers responsible for making \"Logan,\" then their mission is accomplished. ", "is_fresh": 0, "author": ["Cole Smithey"]},
{"text": "Logan is a melancholic paen to the Western with enough blood and gore to redefine what a comic book movie can and should be.", "is_fresh": 1, "author": ["Kristen Lopez"]},
{"text": "Inspired by Old Man Logan, this film is very grounded and it's not the typical superhero action film.", "is_fresh": 1, "author": ["Danielle Solzman"]},
{"text": "... the despair is compensated with certain optimism by a new generation with retractable claws. [Full review in Spanish]", "is_fresh": 1, "author": ["Nazareno Brega"]},
{"text": "The film does have a generous amount of gore and splatter. But the whole blood soaked approach is what makes this movie such a dark and fascinating experience.", "is_fresh": 1, "author": ["Rachit Gupta"]},
{"text": "If this is some sort of a farewell, then, sad to say, it's too nasty for me.", "is_fresh": 0, "author": ["Matthew Bond"]},
{"text": "\"Logan\" is not only the most violent Marvel movie ever made, but also one of the very best", "is_fresh": 1, "author": ["Jordan Ruimy"]},
{"text": "Logan is well made, though, with SUPERB acting across the board, including franchise-best performances from Jackman and Stewart.", "is_fresh": 1, "author": ["Sarah Marrs"]},
{"text": "Logan, Hugh Jackman's ninth and final outing as the Wolverine, is really a profoundly hopeful film.", "is_fresh": 1, "author": ["Melissa Leon"]},
{"text": "Heartbreaking yet touching, Logan is a fitting farewell to an icon.", "is_fresh": 1, "author": ["Joanne Soh"]},
{"text": "[Hugh] Jackman is up to the task, as usual. But he, the character, and the fans might have wished for the saga to go out with a little less bang, and a lot more heart.", "is_fresh": 1, "author": ["Lisa Jensen"]},
{"text": "The superhero movie is a major American genre, and one that is malleable for the silly and the profound. And Logan is the most profound one yet.", "is_fresh": 1, "author": ["Jordan Hoffman"]},
{"text": "And so the curtain comes down on the Wolverine series. Logan isn't so much a fitting finale for the series as a fitting finale for one of the most beloved superhero characters in the Marvel universe.", "is_fresh": 1, "author": ["Harry Readhead"]},
{"text": "[Logan] puts a period at the end of a 17-year sentence.", "is_fresh": 1, "author": ["Jesse Hassenger"]},
{"text": "One of the most gripping Marvel-inspired movies yet.", "is_fresh": 1, "author": ["Robert Denerstein"]},
{"text": "Logan isn't just a great superhero movie, it's a great movie.", "is_fresh": 1, "author": ["Erik Henriksen"]},
{"text": "Logan ventures to all the places superhero movies have tended not to go.", "is_fresh": 1, "author": ["K. Austin Collins"]},
{"text": "I will not tell you about the final scene, but suffice to say there was not a dry eye in the theatre that day. I never thought I would cry in a Wolverine movie, but there it is.", "is_fresh": 1, "author": ["Dorothy Woodend"]},
{"text": "In his final round as Wolverine, Jackman's iconic portrayal ultimately shows the man coming around.", "is_fresh": 1, "author": ["Brooke Corso"]},
{"text": "In Logan, Laura kicks the most ass, saves the most lives, and possesses the biggest heart. It's all about the unbridled force of good old-fashioned girl power.", "is_fresh": 1, "author": ["Morgan Baila"]},
{"text": "At its best, really does feel like it's making a strong play for that title [of Best Comic Book Movie of the '10s].", "is_fresh": 1, "author": ["Tim Brayton"]},
{"text": "Logan may be a slower, more character-driven comic book movie, but it's incredibly gritty and violent as well,", "is_fresh": 1, "author": ["Jason Zingale"]},
{"text": "How Marvel and Fox can ever top this I don't know. But there's going to be some great nights at the multiplex in the next couple of years watching them try.", "is_fresh": 1, "author": ["Graeme Tuckett"]},
{"text": "\"Logan\" proves there's nothing wrong with mindless entertainment - especially when the people making said entertainment have put their minds to making the best movie they can.", "is_fresh": 1, "author": ["Eleanor Ringel Cater"]},
{"text": "Absolutely bloody brilliant. Brutal, foul-mouthed and tragic.", "is_fresh": 1, "author": ["Jamie East"]},
{"text": "True to the spirit of the Marvel comics the character was ripped from, this is a splatter fest of bone splitting, brain skewering violence. And it's all the more fun for it.", "is_fresh": 1, "author": ["Chris Hunneysett"]},
{"text": "These are things that I wish Logan had done better, but that in itself says something. I wish it had done these things better precisely because it is a very good movie, and a very, very good Wolverine story.", "is_fresh": 1, "author": ["Susana Polo"]},
{"text": "Tthe plotting is a bit too blockbuster-pulpy for the movie to be the cleansing back-to-basics art it seems to want to be. Still, I must be honest and say I got misty a couple of times.", "is_fresh": 1, "author": ["Rob Gonsalves"]},
{"text": "Imagine a superhero film that feels more realistic than most war dramas.", "is_fresh": 1, "author": ["Wesley Lovell"]},
{"text": "Can a comic book superhero movie tell a human story? Logan makes the case that the genre is not limited to spectacle, end of the world stakes, or world-building chapters in a massive franchise.", "is_fresh": 1, "author": ["Sean Axmaker"]},
{"text": "Jackman find the humanity in \"Logan.\"", "is_fresh": 1, "author": ["Charles Koplinski"]},
{"text": "A moving tribute to a beloved character.", "is_fresh": 1, "author": ["Priscilla Page"]},
{"text": "Come for the adamantium claws but bring a box of tissues; you knew this was going to happen sooner than later.", "is_fresh": 1, "author": ["Kevin A. Ranson"]},
{"text": "Logan is not just the latest but the greatest Wolverine movie.", "is_fresh": 1, "author": ["Nathaniel Rogers"]},
{"text": "While Mangold grants the gruesome, R-rated dreams of X-fans, Logan stands as one of the best comic book movies of all time by slicing through fatalistic philosophy", "is_fresh": 1, "author": ["Matt Patches"]},
{"text": "'Logan' delivers a savage, powerful tale.", "is_fresh": 1, "author": ["Linda Cook"]},
{"text": "A vast improvement over The Wolverine...", "is_fresh": 1, "author": ["David Nusair"]},
{"text": "'Logan' is definitely good news for those looking for more visceral stories in comics. [Full review in Spanish]", "is_fresh": 1, "author": ["Mario P. Sz\u00e9kely"]},
{"text": "Hugh Jackman-allegedly-says goodbye to Wolverine with Logan in this gritty, bloody, nasty and awesome ride. ", "is_fresh": 1, "author": ["Bob Grimm"]},
{"text": "An ultra-violent drama about time and loss, an emotional final journey of a hero in conflict with himself. [Full review in Spanish]", "is_fresh": 1, "author": ["Uriel Barco"]},
{"text": "Logan has bite that leaves a mark. Surprisingly, that biggest mark is left on the heart.", "is_fresh": 1, "author": ["Matthew Pejkovic"]},
{"text": "Logan when, in the aftermath, our heroes navigate a battleground littered with non-combatants. For all the wrestling in the Marvel Universe with collateral damage, this is the best, most devastating representation of it.", "is_fresh": 1, "author": ["Walter Chaw"]},
{"text": "Logan is one of the best of the entire X-Men franchise.", "is_fresh": 1, "author": ["Diane Pershing"]},
{"text": "Logan/i> is everything we complain comic book movies aren't: It's contemplative and poignant, and there are depths to these characters only hinted at in earlier films.", "is_fresh": 1, "author": ["Pete Vonder Haar"]},
{"text": "A very good and often compelling action film, warts and all. ", "is_fresh": 1, "author": ["Felix Vasquez Jr."]},
{"text": "You don't need to like superheroes to enjoy this film, you just need to know that it will leave you welling up with tears and clutching your loved ones, which is a momentous achievement for any blockbuster indeed.", "is_fresh": 1, "author": ["Alex Casey"]},
{"text": "a gritty, bloody, and ultimately heartfelt paean to both the sanctity and the temporality of life", "is_fresh": 1, "author": ["James Kendrick"]},
{"text": "It's the film that many expected. If it were true that Jackman will not return to the role, we can say that he said goodbye in a dignified manner. [Full review in Spanish]", "is_fresh": 1, "author": ["Carlos D\u00edaz Reyes"]},
{"text": "The movie is exhilaratingly vicious (those claws are made to order for R-rated bloodshed) but also elegiac, thanks to Stewart's gravitas, Jackman's weary charisma and the quixotic-quest storyline...", "is_fresh": 1, "author": ["John Beifuss"]},
{"text": "Concerned with the here and now rather than with what will come, it's the cinematic equivalent of a long life brought to its natural conclusion and given a meaty, meaningful send off. ", "is_fresh": 1, "author": ["Sarah Ward"]},
{"text": "Marvel fans that moonlight as undiscerning gorehounds just might find Valhalla in \"Logan,\" but the project goes out of its way to give everyone else the cold, dead shoulder.", "is_fresh": 0, "author": ["J. Olson"]},
{"text": "Fans who come to see Wolverine in brutal, bloody, R-rated combat will get their fill. But Mangold alternates those battles with quieter scenes that establish even supporting characters as people whose deaths matter.", "is_fresh": 1, "author": ["Margot Harrison"]},
{"text": "In its look at human frailty and death, James Mangold's Logan is unlike any superhero film ever produced -- and it just may change the genre for good.", "is_fresh": 1, "author": ["Wade Bearden"]},
{"text": "A compelling, overlong, grown-up, 21st-century Western with a tinge of sci-fi. It's good, but it can be grueling.", "is_fresh": 1, "author": ["Eric D. Snider"]},
{"text": "Jackman gets to play the role the way it always should've been played.", "is_fresh": 1, "author": ["Bob Grimm"]},
{"text": "Logan is a deliberately scuffed up work of comic adaptation art, and Jackman and Stewart could not have chosen to end their X careers on a higher note.", "is_fresh": 1, "author": ["Alex Doenau"]},
{"text": "A film that will leave you exhausted in your seat, with tachycardia and excited on the verge of tears. [Full review in Spanish]", "is_fresh": 1, "author": ["Hugo Lara"]},
{"text": "Make no mistake, Logan earns its tears. If Jackman and Stewart are serious about this being their mutual X-Men swan song, they could not have crafted a more heartfelt valedictory.", "is_fresh": 1, "author": ["Peter Travers"]},
{"text": "Unlike any of its predecessors, Logan feels organic and, despite being loaded with plenty of references and Easter eggs, manages to work well as a standalone film.", "is_fresh": 1, "author": ["Marija Djurovic"]},
{"text": "Logan, and Jackman, know you can't secure a legacy by leaving a door open.", "is_fresh": 1, "author": ["Ali Gray"]},
{"text": "This is Death Wish Wolverine, with spring-loaded self-loathing action and retractable claws he can hide, but never discard. Comes complete with sadness, depression and existential darkness.", "is_fresh": 1, "author": ["John Serba"]},
{"text": "For Jackman, Logan is a triumph: a vulnerable portrayal of a tortured character coming to terms with his plight & humanity. As a gritty western about redemption, the film is also effective...", "is_fresh": 1, "author": ["Louise Keller"]},
{"text": "The women do not suffer their deaths with any less violence. Three important men, named, with histories and layers, die too. The movie pauses and allows each of their passings a solemn grace, as dictated by its audience, single-minded and insatiable.", "is_fresh": 0, "author": ["Tara Thorne"]},
{"text": "The film and the latest incarnation of Jackman as Wolverine is entertaining and meets expectations. [Full review in Spanish]", "is_fresh": 1, "author": ["Oswaldo Betancourt Lozano"]},
{"text": "Logan's virtue is that it distances itself completely from previous films. There are no superheroes, impressive costumes or big demonstrations of mutant power. Without a doubt, the best of the genre. [Full review in Spanish]", "is_fresh": 1, "author": ["Lucero Sol\u00f3rzano"]},
{"text": "Offering a touch of Mad Max, some tense humour, a glimpse of the classic Western Shane for obvious reasons and Hugh's most glowering performance in X-Men history, this is a fitting and surprisingly moving... finale to the Wolverine saga.", "is_fresh": 1, "author": ["David 'Mad Dog' Bradley"]},
{"text": "This is a well-acted film with decent action scenes. It isn't really my cup of tea, but that doesn't take away from the fact this movie is well made. I just wish they had made it less depressing.", "is_fresh": 1, "author": ["Robert Roten"]},
{"text": "Jackman and Stewart are why Logan works-why the film doesn't feel like a cheap exercise in bloody violence, and its subversion of typical superhero-movie tropes feels organic.", "is_fresh": 1, "author": ["David Sims"]},
{"text": "Another expensive throwaway aimed at milking money out of people who still read comic books. Color it stupid.", "is_fresh": 0, "author": ["Rex Reed"]},
{"text": "Logan is a perfect bookend to Hugh Jackman's years of playing the role. To see him go out on such an exuberant high is much more than anyone could have asked for.", "is_fresh": 1, "author": ["David Fontana"]},
{"text": "An intimate story of few characters, without exaggerated digital effects, and focused on the mortality of its protagonists and the consequences of their violent acts. Logan definitely couldn't have had a better goodbye. [Full review in Spanish]", "is_fresh": 1, "author": ["Sebastian Zavala Kahn"]},
{"text": "Logan is a sign that it's possible to make mature films with superheroes, with themes of real emotional resonance. [Full review in Spanish]", "is_fresh": 1, "author": ["Rafael Paz"]},
{"text": "Strips away the spandex, the posse and the chaos, distilling the story down to the essence of the man, Logan. What's left is the agony and the ecstasy of mutanthood. ", "is_fresh": 1, "author": ["Katie Walsh"]},
{"text": "A film with adult themes such as illness, death wish, contradictions between longings and reality, and confronts them in a cruel and visceral way with a tender, memorable and heartbreaking ending. [Full review in Spanish]", "is_fresh": 1, "author": ["Luis Fernando Galv\u00e1n"]},
{"text": "Maybe it has 20 minutes more, but the pieces are placed to, within its genre, have an anthology film for the character, the closing of this saga manages to leave a mark on the viewer. [Full review in Spanish]", "is_fresh": 1, "author": ["Adri\u00e1n Ruiz"]},
{"text": "A story with little action that lacks the epic brilliance of the character. Finally the worst happens: the film becomes long and boring. [Full review in Spanish]", "is_fresh": 0, "author": ["Pilar Ayuso"]},
{"text": "A dark, tragic and hopeful story that leaves us with a bittersweet feeling because it's best solo film of the character, and even within the X-Men universe. [Full review in Spanish]", "is_fresh": 1, "author": ["Iv\u00e1n Belmont"]},
{"text": "Before it settles down as a cross between 'Mad Max Beyond Thunderdome' and 'Shane' it's a pretty joyless slog, one CG-enhanced battle after another ... Dafne Keen as Wolvie's ward goes full feral. ", "is_fresh": 1, "author": ["Glenn Lovell"]},
{"text": "The tonal shift for Marvel, however, is welcome, and no character from its stable better suits the Western mould (the 1953 classic Shane is referenced heavily). Conventional as it is, overall Mangold finds room for more strikingly inventive set pieces.", "is_fresh": 1, "author": ["Hilary A White"]},
{"text": "The super-violent Logan is just slashed brisket.", "is_fresh": 0, "author": ["Camilla Long"]},
{"text": "After the 140-minute running time I felt as exhausted as Wolverine.", "is_fresh": 0, "author": ["Henry Fitzherbert"]},
{"text": "Full of grainy light and bloody violence that is shadowed by sorrowful regret, James Mangold's movie creates a sober and deeply satisfying finale for Hugh Jackman's Wolverine, the snarling centrepiece of so many X-Men movies.", "is_fresh": 1, "author": ["Craig Mathieson"]},
{"text": "It's as if Quentin Tarantino took the reigns of the X-Men franchise and offered his own perspective on Wolverine and Professor Xavier. ", "is_fresh": 1, "author": ["John Hanlon"]},
{"text": "Jackman's last and best turn as Wolverine shows us something new: a superhero, aging and past his prime. (Splice Today) ", "is_fresh": 1, "author": ["Stephen Silver"]},
{"text": "For fans of the \"X-Men,\" this is easily the best entry in the series in some time, a film that's more interested in the characters than in the special effects. ", "is_fresh": 1, "author": ["Daniel M. Kimmel"]},
{"text": "Tightly plotted and ruthlessly bloodthirsty, this is an impressive return to form for the X-Men franchise.", "is_fresh": 1, "author": ["Wendy Ide"]},
{"text": "It's the heartfelt performance by Jackman that keeps this last Logan superhero film on the right track.", "is_fresh": 1, "author": ["Dennis Schwartz"]},
{"text": "Elegiac conclusion to Wolverine's solo trilogy...", "is_fresh": 1, "author": ["Susan Granger"]},
{"text": "On this rich and emotionally satisfying evidence, lower budget, intimate and psychological takes on the incredible just might be the way forward.", "is_fresh": 1, "author": ["Ed Whitfield"]},
{"text": "\"Owing to its agitated hero's misfortunes through the ages, this is a film that's acutely aware of the dangers of emotional exploitation, and it spares its audience a similar fate.\"", "is_fresh": 1, "author": ["Fiona Williams"]},
{"text": "The Dark Knight of the X-Men film universe.", "is_fresh": 1, "author": ["Matt Neal"]},
{"text": "Gives Hugh Jackman's Wolfie a smoothly-executed but hard-R sendoff that arguably represents the high point of the actor's nearly two-decade run in the role.", "is_fresh": 1, "author": ["Frank Swietek"]},
{"text": "Drawing from the pages of comics written in 2008 and 2009, Mangold and his team have created a script that more about human connection than silly, over-the-top fighting.", "is_fresh": 1, "author": ["Matthew Toomey"]},
{"text": "The morose nihilism and all-around joylessness come to stink of adolescent posturing. This \"comic book movie for adults\" feels like one of the genre's most juvenile entries.", "is_fresh": 0, "author": ["Sean Burns"]},
{"text": "It's Stan Lee by way of Cormac McCarthy, but the end result -- basically, No Country for Old X-Men -- suffers from its own sense of self-importance.", "is_fresh": 0, "author": ["Matt Brunson"]},
{"text": "Stripped of their pen and ink testosterone, we can see them as human. It's not as sexy as ripped muscles and lycra tights, but it's as real as the genre can get without sacrificing our inner child on the cold altar of hard facts and undeniable mortality.", "is_fresh": 1, "author": ["Katherine Monk"]},
{"text": "...eschews invincibility in favor of human frailty. ", "is_fresh": 1, "author": ["Josh Larsen"]},
{"text": "There's much to like in Logan, despite the bumpy landing. It reminds us that comic book franchises can aspire to deeper emotions and more complex relationships.", "is_fresh": 1, "author": ["Jason Di Rosso"]},
{"text": "The best adaptation ever made of the X-Men universe and the best Wolverine film. [Full review in Spanish]", "is_fresh": 1, "author": ["Nicol\u00e1s Ruiz"]},
{"text": "A great action film, hard but penetrable, rigid but anti-static, violent but entertaning. [Full review in Spanish]", "is_fresh": 1, "author": ["Erick Estrada"]},
{"text": "Jackman's solemn performance matches perfectly with the surprises Mangold has in store during the emotional and action-packed farewell to an iconic hero. ", "is_fresh": 1, "author": ["John Urbancich"]},
{"text": "Jackman gives Logan a withering rage that seems heartfelt, not hammy; Stewart is touching in his enraged befuddlement; and Keen, who resembles here what Katie Holmes might look like if she were Carrie, has a feral intensity.", "is_fresh": 1, "author": ["Peter Rainer"]},
{"text": "Whenever the filmmakers have a choice between cruelly slaughtering characters and letting them live, they almost always choose the cruel path.", "is_fresh": 0, "author": ["Steven D. Greydanus"]},
{"text": "[Director] Mangold drags [Wolverine] - much older, if not much wiser - into a Western, and ends up with the best superhero movie in recent memory. ", "is_fresh": 1, "author": ["Matthew Lickona"]},
{"text": "With Logan, Fox has cornered the market on R-rated superhero movies, following Deadpool with another adults-only comic-book flick. (Your move, DC.)", "is_fresh": 1, "author": ["Annlee Ellingson"]},
{"text": "Mangold gives us a lean, focused story that doesn't involve any convoluted plots about evil global plans. Instead it's an elegiac tale about a man coming to terms with his life.", "is_fresh": 1, "author": ["Beth Accomando"]},
{"text": "Logan gets its strength from its heartpounding action scenes and its heart-breaking personal moments.", "is_fresh": 1, "author": ["Rick Bentley"]},
{"text": "A down-to-earth title for a movie that holsters comic book camp and draws instead on classic Westerns.", "is_fresh": 1, "author": ["Sharon Eberson"]},
{"text": "If the previous films focussed on Wolverine's superior healing abilities and fighting skills, Mangold has finally cracked the code with the third film -- it's the humane side of Wolverine/Logan that was always the most interesting thing about him.", "is_fresh": 1, "author": ["Aakash Karkare"]},
{"text": "Logan does go defiantly against the grain by favouring melancholic mood and themes of mortality and deterioration over inflated, end-of-the-world stakes or grandiose action pyrotechnics.", "is_fresh": 1, "author": ["Jessica Kiang"]},
{"text": "Did I get closure? No! I don't think I could ever say goodbye to Wolverine and Jackman (sorry, I can't separate the two).", "is_fresh": 1, "author": ["Debashine Thangevelo"]},
{"text": "Logan's superb depiction of sorrow, of deadening dejection, of the awareness of mortality on multiple planes, rises far above Mangold's ready embrace of influence.", "is_fresh": 1, "author": ["Ray Pride"]},
{"text": "In the way it explores the inescapable nature of violence and its long-term effects, Logan is the Unforgiven of superhero cinema. ", "is_fresh": 1, "author": ["Mike McGranaghan"]},
{"text": "Dark, darkly funny farewell to the Wolverine. Stewart steals scenes left and right. Caliban and the kid are terrific. Come back, Wolvie.", "is_fresh": 1, "author": ["James Verniere"]},
{"text": "This is one of the finest comics-to-screen adaptations ever.", "is_fresh": 1, "author": ["Rashid Irani"]},
{"text": "This isn't just a great comic book movie, isn't just a superb X-Men adventure, it's a fantastic motion picture, period, and Mangold, Jackman and everyone else involved with its creation should be more than proud of what it is they've accomplished.", "is_fresh": 1, "author": ["Sara Michelle Fetters"]},
{"text": "Fans of Marvel, X-Men, and the Wolverine character should be pleased with Logan-it's a strong finale and arguably the best in this highly uneven spin-off series. ", "is_fresh": 1, "author": ["Leonard Maltin"]},
{"text": "The result is easily the most varied, earnest and interesting take on a comic book character since The Dark Knight.", "is_fresh": 1, "author": ["Andy Hoglund"]},
{"text": "[Logan is] really just another exercise in violence featuring Logan's adamantium claws - a trait shared with teenage Laura (Dafne Keen) in overblown action scenes that recall the sickeningly sadistic kiddie assassin movie Kick-Ass.", "is_fresh": 0, "author": ["Armond White"]},
{"text": "No doubt, a reboot is on the way for the X-Men franchise, and the Wolverine character in particular, but make no mistake, Jackman has left big boots to fill and an indelible impression where X marks the spot.", "is_fresh": 1, "author": ["Jeremy Aspinall"]},
{"text": "Jackman is, once more, superb, holding down the whole film: no matter how battered, gnarled and shrubby he looks, you always root for him. A bit of a beast - but our beast.", "is_fresh": 1, "author": ["David Sexton"]},
{"text": "A film that, maybe more than anything else, showcases what a fine actor Jackman is. He gives a performance of genuine depth and poignancy.", "is_fresh": 1, "author": ["Brian Viner"]},
{"text": "Logan establishes a new beachhead in comic book cinema wars, somewhere between hectic Avengers spectacle and Deadpool irreverence, a somberness that Batman and Superman haven't mastered.", "is_fresh": 1, "author": ["Steve Persall"]},
{"text": "While Logan finds a mature tone to carry this final chapter of Wolverine's story, it doesn't come to a conclusion with any more meaning to it than this: People, in general, don't change; more violence will be necessary.", "is_fresh": 1, "author": ["Michael Smith"]},
{"text": "Well, they are sure sending Wolverine out in style. And a big, oozing blaze of glory.", "is_fresh": 1, "author": ["Joanna Langfield"]},
{"text": "Raising the stakes on superhero movies by a significant margin, \"Logan\" could be the cinematic equivalent to Frank Miller's legendary comic book \"The Dark Knight Returns.\"", "is_fresh": 1, "author": ["Jeffrey M. Anderson"]},
{"text": "Logan elevates itself from a superb superhero film to a superb film, period, one that all superhero films to come should strive to emulate.", "is_fresh": 1, "author": ["Kanin Srimaneekulroj"]},
{"text": "Hugh Jackman goes out in R-rated style with Logan.Just don't buy into the 'Best Superhero Movie Ever' hype. Not even close.", "is_fresh": 1, "author": ["Christian Toto"]},
{"text": "There will doubtlessly be other superhero movies to follow this sort of tragic trajectory, but they won't have the luxury of utilizing an actor we've been watching for nearly two decades in the role, finally closing it out his way.", "is_fresh": 1, "author": ["Piers Marchant"]},
{"text": "Simply put, \"Logan\" is arguably the best \"X-Men\" movie of the bunch. (Full Content Review for Parents - Violence, Profanity, Nudity, etc. - also Available)", "is_fresh": 1, "author": ["Jim Judy"]},
{"text": "Logan is a fine example of the superhero film where fantasy is tame and reality is wild.", "is_fresh": 1, "author": ["Stephen Romei"]},
{"text": "It's the Wolverine movie some fans have been waiting for for nearly two decades.", "is_fresh": 1, "author": ["Christopher Lawrence"]},
{"text": "Credit where it's due: this is a grown-up movie that's a drama first and superhero story second. Maybe you shouldn't give points for effort, but maybe you should when you're talking about a subset of films as locked-in to their formulas as these.", "is_fresh": 1, "author": ["Jason Bailey"]},
{"text": "For those who want to see their superheroes grow up, Logan is a satisfying vision of what that real-world mutant would be.", "is_fresh": 1, "author": ["Kirk Baird"]},
{"text": "Hugh Jackman and Patrick Stewart take the opportunity to go into far more depth and weight to characters they have played umpteen times over the past two decades.", "is_fresh": 1, "author": ["Phil Villarreal"]},
{"text": "\"Logan\" is one heck of a movie, easily rating as the best X-Men-related movie to come along.", "is_fresh": 1, "author": ["Mathew DeKinder"]},
{"text": "Jackman twists the pain at the centre of the hero's struggle into remarkably uncomfortable places for a blockbuster.", "is_fresh": 1, "author": ["Barry Hertz"]},
{"text": "While there are action sequences, the quiet moments work best . One gets a \"Shawshank\" vibe as the men longingly look into one another's eyes expressing platonic love as only two original X-Men can. Yes, fanboy, this movie is for you, and count me in.", "is_fresh": 1, "author": ["Jonathan W. Hickman"]},
{"text": "The picture sounds a deep human note that might be what you'll remember most fondly when looking back on it.", "is_fresh": 1, "author": ["Kurt Loder"]},
{"text": "Jackman's performance is Clint Eastwood-esque, and the lines in Jackman's face tell the story of his worn character; he plays Wolverine as a man at the end of his line, adding at least a decade to his 48 years.", "is_fresh": 1, "author": ["Adam Graham"]},
{"text": "The film pulls out all the stops to deliver an emotionally and viscerally satisfying experience. It works so well it easily qualifies as the best movie of the entire X-Men franchise as well as one of the best in the increasingly tired superhero genre.", "is_fresh": 1, "author": ["Jim Schembri"]},
{"text": "A fitting finale for Jackman that sometimes falters in its urge to please.", "is_fresh": 1, "author": ["Sonny Bunch"]},
{"text": "Combining these two blade runners, working side by side, is a recipe for stunts, special effects, and big box office.", "is_fresh": 1, "author": ["Steve Crum"]},
{"text": "Logan is not a superhero movie. It's a neo-western with a tragic, reluctant anti-hero ", "is_fresh": 1, "author": ["Willie Waffle"]},
{"text": "It is uncompromising in its brutality and fearless in its reverence of these iconic characters. It's a testament to the power of storytelling, and what creative freedom can produce. Goodbye bub. You've changed superhero movies forever.", "is_fresh": 1, "author": ["Rohan Naahar"]},
{"text": "The best superhero movie ever is more about the curse of super powers than super powers. Maybe that's why it's the best superhero movie ever. ", "is_fresh": 1, "author": ["Gary Wolcott"]},
{"text": "Nobody needs to call Logan a masterpiece. But it's heartening to see a blockbuster-minded movie this well made, one that ticks all its genre boxes and delivers a potent emotional punch.", "is_fresh": 1, "author": ["Robert Horton"]},
{"text": "I can't think of another superhero film where the main subject is the heroes getting old and losing their powers, nor of one that opens with their world apparently coming to an end. ", "is_fresh": 1, "author": ["Sarah Boslaugh"]},
{"text": "Logan is as understated a masterpiece as there's ever been, delivering the Wolverine film we've all been waiting for, and if this truly is Hugh Jackman's final time playing him, he has definitely left the series on a high note.", "is_fresh": 1, "author": ["Ryan Pollard"]},
{"text": "Well-made and thoughtful, and it pays off so splendidly in the final fifteen minutes one wishes what preceded this climax could have been its equal. Where \"Logan\" leads is inevitable and necessary, but it doesn't make it any easier.", "is_fresh": 1, "author": ["Dustin Putman"]},
{"text": "A film of rare power and tension in this subgenre and a farewell to the measure of that iconic character called Wolverine. [Full review in Spanish]", "is_fresh": 1, "author": ["Diego Batlle"]},
{"text": "It's as if its director, in his effort to be profound, ends up being annoying. [Full review in Spanish]", "is_fresh": 1, "author": ["Luis Mart\u00ednez"]},
{"text": "The bloodiest Marvel movie ever. It's by no means a despicable work, by far the best X-men film. [Full review in Spanish]", "is_fresh": 1, "author": ["Jordi Costa"]},
{"text": "Director James Mangold shoots and orchestrates action with an appreciable clarity, and when he synchs up with the pounding drums of Marco Beltrami's score, the mayhem has a lively intensity.", "is_fresh": 1, "author": ["James Robert Douglas"]},
{"text": "Logan is a beautiful send-off for the proud, tormented warrior who was so recognizably human underneath his claws.", "is_fresh": 1, "author": ["Kristian M. Lin"]},
{"text": "Slow and depressing, and not in a good way.", "is_fresh": 0, "author": ["Nell Minow"]},
{"text": "It strikes a sombre, gritty tone from the start to take the audience on a dark and rather brutal road trip. So while it feels rather long and repetitive, the movie also has a strong emotional kick.", "is_fresh": 1, "author": ["Rich Cline"]},
{"text": "Unlike any other comic book movie made so far, but for all that ambition and gratuitous violence, Logan is a taxing and overindulgent experience. ", "is_fresh": 0, "author": ["Jeffrey Lyles"]},
{"text": "With dignity and grace, Jackman says sayonara to this signature role. It's clear how much physicality and humor he passed on to this mashup of comic book action and political allegory, in his portrait of the ronin with six swords.", "is_fresh": 1, "author": ["Richard von Busack"]},
{"text": "It's not often that a film embedded in a franchise is allowed to break from its shackles to offer something genuinely different... which makes Logan, the final outing for Hugh Jackman's Wolverine, even more remarkable.", "is_fresh": 1, "author": ["Rob Carnevale"]},
{"text": "Logan is a superhero movie like no other.", "is_fresh": 1, "author": ["Chris Knight"]},
{"text": "With its mix of neo-Western and quasi-samurai tropes, Logan isn't just the best X-Men movie in forever; it's one of the best comic-book-sourced movies we've seen in some time.", "is_fresh": 1, "author": ["Joe Gross"]},
{"text": "Jackman, who first starred as Logan/Wolverine 17 years ago, turns in a great performance. He's clearly relishing the chance to play the character one last time in a project that's not just a good superhero movie, but a good movie, period.", "is_fresh": 1, "author": ["Scott D. Pierce"]},
{"text": "Finally, 17 years since it all began, we get the payoff.", "is_fresh": 1, "author": ["Kevin Maher"]},
{"text": "Through one simple, emotionally satisfying revelation late in the movie, Logan argues that stories like this - like the Westerns before them - can be culturally crucial because they give us hope when we need it the most. ", "is_fresh": 1, "author": ["Eric Melin"]},
{"text": "The darkest and arguably the best of the Wolverine adventures is an emotional journey that's marked by bursts of bloody violence.", "is_fresh": 1, "author": ["Roger Tennis"]},
{"text": "Logan was written by Scott Frank, Mr. Mangold and Michael Green. Their script is the crucial ingredient of this impressive production, a model of ambition, complexity and old-fashioned showmanship that's matched by Mr. Mangold's direction.", "is_fresh": 1, "author": ["Joe Morgenstern"]},
{"text": "The fight scenes are entertainingly brutal, but the consequences are bloody and the emotional stakes high. It's an elegiac superhero movie that understands there's no living with killing.", "is_fresh": 1, "author": ["Alistair Harkness"]},
{"text": "Ultimately, it's not just a movie for adults because of the death toll, it's one for the grown-ups because it actually engages the emotions. No small feat for a superhero movie.", "is_fresh": 1, "author": ["Tim Evans"]},
{"text": "Logan, the third Wolverine spinoff from an X-Men movie empire that has grown terribly long in the tooth (or is that claw?), does a nice job of righting the ship with this elegiac closing chapter.", "is_fresh": 1, "author": ["Tom Meek"]},
{"text": "The only problem with calling it the boldest and most affecting superhero flick in many years is that it's barely a superhero movie at all.", "is_fresh": 1, "author": ["Chris Klimek"]},
{"text": "The film celebrates the medium by taking itself seriously, with an added hint of apology for the genre's earlier sins. Best of all, there's an element of risk.", "is_fresh": 1, "author": ["Peter Hartlaub"]},
{"text": "The film is, above all else, a refreshing change of pace from the usual, comic-book superhero fodder. It's melancholy and introspective...", "is_fresh": 1, "author": ["Mark Dujsik"]},
{"text": "Provides the tough, adult version of Wolverine that fans have been wanting for a long time...", "is_fresh": 1, "author": ["Tony Stamp"]},
{"text": "Even as the formulaic plotline of government/corporations versus the disenfranchised that X-Men have used for seventeen years now begins to surface, it fails to diminish from the intensity and excitement rampant throughout every scene.", "is_fresh": 1, "author": ["Michael O'Sullivan"]},
{"text": "The startling trick here is to turn Wolverine into a self-destructive and fed-up old man... And director Mangold, incredibly, makes you buy Wolverine's \"where are the mutants of yesteryear\" melancholy.", "is_fresh": 1, "author": ["Jeff Simon"]},
{"text": "Logan is a family drama, an action thriller and an epic superhero story. If this is indeed Jackman's last Wolverine film, he's going out in heartfelt, high-class style.", "is_fresh": 1, "author": ["Sandy Cohen"]},
{"text": "a remarkable, meaningful way to go out", "is_fresh": 1, "author": ["Blake Crane"]},
{"text": "Like Rogue One: A Star Wars Story, the flicker of hope Logan offers is so fragile, it's hard to believe it won't be snuffed out... Superhero movies, it seems, can no longer be counted upon as a cinematic escape.", "is_fresh": 1, "author": ["Vicky Roach"]},
{"text": "Logan is kind of a special superhero movie, in a good way, and if Jackman holds to his stated intention to make it his Wolverine swan song, he's going out not with a whimper but a bang.", "is_fresh": 1, "author": ["Peter Howell"]},
{"text": "On its own terms, Logan is a crackerjack piece of work: The dialogue is crisp, the staging snappy, and the action scenes really pop.", "is_fresh": 1, "author": ["David Edelstein"]},
{"text": "The gloomiest and grisliest of the X-Men franchise is expertly crafted in detail but overlong, dreary and dispiriting as a whole.", "is_fresh": 0, "author": ["Jim Lane"]},
{"text": "For what it is, Logan is strong stuff, and a classy sendoff to Wolverine. Let's just hope that Marvel and Jackman let sleeping wolves lie.", "is_fresh": 1, "author": ["Stephen Rebello"]},
{"text": "A tale that is as psychically violent as it is physically so, it is a sharp descant to the earlier films in the franchise as it presents a brooding, aging Logan very near the end of his existential rope.", "is_fresh": 1, "author": ["Andrea Chase"]},
{"text": "Jackman and Stewart are at the top of their game, and Dafne Keen as Laura makes the most of her watchful, silence-laden role.", "is_fresh": 1, "author": ["Rich Heldenfels"]},
{"text": "Hugh Jackman sharpens his claws in every sense of the word and delivers killer work.", "is_fresh": 1, "author": ["Richard Roeper"]},
{"text": "Entertaining as they are, Marvel movies aren't expected to be this mature, this dark or this human. This is a bold, coherent story inspired by a comic book, not slavishly based on it.", "is_fresh": 1, "author": ["Colin Covert"]},
{"text": "For once, a film derived from a Marvel source gives you something solid to hang on to. ", "is_fresh": 1, "author": ["Donald Clarke"]},
{"text": "This is the collapse of the sprawling X-Men family that Wolverine only begrudgingly joined in the first place. ", "is_fresh": 1, "author": ["Amy Nicholson"]},
{"text": "... It boldly blazes its own trail, refusing to be reined in by what has come before.", "is_fresh": 1, "author": ["Greg Maki"]},
{"text": "Logan offers an element of completion, and an intriguingly different take on the material. It is also, along with the FX series Legion, a sign of the maturation of comics on screen, for better or worse.", "is_fresh": 1, "author": ["Brian Lowry"]},
{"text": "Director James Mangold, returning after the second installment, The Wolverine, orchestrates several jaw-dropping action sequences, heightened by Jackman's and Keen's intense performances and by Marco Beltrami's taut and plunky score.", "is_fresh": 1, "author": ["Leah Pickett"]},
{"text": "If this is indeed Jackman's final appearance as Logan, he's going out in style.", "is_fresh": 1, "author": ["Calvin Wilson"]},
{"text": "It has, simultaneously, the exhilarating feel of a departure and the finality of a full stop.", "is_fresh": 1, "author": ["Michael O'Sullivan"]},
{"text": "In erratic, passionate bursts, I loved Logan, for the tenderness of Wolverine and Xavier's long goodbye to each other, and to us.", "is_fresh": 1, "author": ["Kimberley Jones"]},
{"text": "\"Logan\" is good enough that you might forget it's a comic-book movie.", "is_fresh": 1, "author": ["Manohla Dargis"]},
{"text": "Two and a quarter hours of lycanthropic hokum with fun moments.", "is_fresh": 1, "author": ["Nigel Andrews"]},
{"text": "Jackman and Stewart's fond, easy dynamic helps to balance some very provocative brutality, as the movie pushes Wolverine's berserk nature to graphic new extremes.", "is_fresh": 1, "author": ["Tom Russo"]},
{"text": "It runs long and has a bit more action than it really needs, but Logan will likely find a spot among the best comic book adaptations to grace a movie theater.", "is_fresh": 1, "author": ["Britton Peele"]},
{"text": "\"Logan\" is a serious take on the comic-book genre, the Marvel Cinematic Universe in particular, and it's a good one.", "is_fresh": 1, "author": ["Bill Goodykoontz"]},
{"text": "It wants its stand-alone story of Wolverine and Professor Xavier to be taken seriously as authentic drama. And, to a surprising extent, it succeeds.", "is_fresh": 1, "author": ["Kenneth Turan"]},
{"text": "While the relationship among the central trio is strong, the lengthy plot heads off on too many detours, and the serious tone, while refreshing, gets a bit numbing over time.", "is_fresh": 1, "author": ["Josh Bell"]},
{"text": "A violent, gritty and soulful tribute to the character behind so much of this franchise's enduring popularity.", "is_fresh": 1, "author": ["Tom Glasson"]},
{"text": "With his glimpse into what superhero movies can be, James Mangold has given us something sadly lacking in recent genre entries: hope.", "is_fresh": 1, "author": ["James Berardinelli"]},
{"text": "Logan provides a fitting finale to the Wolverine franchise. It isn't often a Marvel superhero gets to saddle up, tip his hat and ride off into the proverbial sunset.", "is_fresh": 1, "author": ["Rafer Guzman"]},
{"text": "The finest Marvel film so far since Stan Lee's empire moved into the multiplexes, and it's almost up there with Christopher Nolan's Dark Knight trilogy", "is_fresh": 1, "author": ["John Byrne"]},
{"text": "The last of Logan is also the best of Logan.", "is_fresh": 1, "author": ["Adam Sweeting"]},
{"text": "Mangold's direction helps to take this particular genre to another level that is poignant and, at times, tragic.", "is_fresh": 1, "author": ["George Thomas"]},
{"text": "Logan is not really asking us to consider the plight of vulnerable children, it's encouraging us to get off on it.", "is_fresh": 0, "author": ["Gary Thompson"]},
{"text": "Logan is the violent, brutal and gory R-rated Wolverine movie 40-something fanboys have always wanted. It's most definitely for grown-ups. It's also very, very good.", "is_fresh": 1, "author": ["David Frese"]},
{"text": "If this really is Jackman's last big-screen adventure as Wolverine, it's an excellent and fitting finale.", "is_fresh": 1, "author": ["Julie Washington"]},
{"text": "Jackman's performance is likably physical, with Logan on the verge of dying throughout. He takes a ton of punishment.", "is_fresh": 1, "author": ["Paul Byrnes"]},
{"text": "You don't have to be a comic superhero fan to enjoy this movie -- watch it for the outstanding performances by Jackman, Stewart and Keen. This one's a gripping finale to Wolverine's indomitable journey.", "is_fresh": 1, "author": ["Zeenia Baria"]},
{"text": "Logan is deadly serious, and while its gamer-style killing sprees are meant to be excitingly brutal, I found them numbing and, in the climax, borderline offensive.", "is_fresh": 0, "author": ["Michael Phillips"]},
{"text": "This is the Wolverine movie that unlocks the explosive violence that was always inside the Marvel character but, frustratingly, never let out.", "is_fresh": 1, "author": ["John Lui"]},
{"text": "Of the three Wolverine movies, this is the best. I'm glad I saw it and glad it's over.", "is_fresh": 1, "author": ["Edward Johnson-Ott"]},
{"text": "Logan makes for a better character study than superhero adventure.", "is_fresh": 1, "author": ["Dann Gire"]},
{"text": "Jackman, who's always been remarkably human in this superhuman role, is as good as he's ever been at finding the beating heart underneath all that adamantium. I will miss the hell out of him.", "is_fresh": 1, "author": ["Norman Wilner"]},
{"text": "Despite tonal missteps, a major one serving as the film's transition to the third act, Logan is a thinking man's superhero flick: the best \"gritty\" offering we've had since The Dark Knight Returns.", "is_fresh": 1, "author": ["Walker MacMurdo"]},
{"text": "Here, at last, was a Wolverine story that felt like the comics I remembered. And not just that: it's a comic-book superhero movie that genuinely pushes the form forward", "is_fresh": 1, "author": ["Luke Y. Thompson"]},
{"text": "I never thought I'd say this about a superhero movie, but bring a hankie.", "is_fresh": 1, "author": ["Rob Vaux"]},
{"text": "Jackman makes Wolverine seem acutely-sometimes sardonically; sometimes tragically-aware of his capacity for pain, whether inflicted on himself or others.", "is_fresh": 1, "author": ["Jesse Hassenger"]},
{"text": "Overall, this is a surprisingly strong entry in the X-Men canon, radically different where it counts, but always respectfully honouring Wolverine's hard-earned heritage as a character.", "is_fresh": 1, "author": ["Leigh Paatsch"]},
{"text": "It's just as much an arthouse drama, or a prestige picture, as it is a big-budget, action-fantasy movie starring Wolverine. And how many other superhero movies can you say that about?", "is_fresh": 1, "author": ["Germain Lussier"]},
{"text": "It's difficult to imagine how this could be improved upon. An unmissable treat for comic fans, but a thoroughly enjoyable thriller in its own right.", "is_fresh": 1, "author": ["Matthew Turner"]},
{"text": "Easily the best entry in the sprawling X-Men franchise, and arguably the best superhero film since The Dark Knight offered a similar sense of refreshing thoughtfulness.", "is_fresh": 1, "author": ["Mike Scott"]},
{"text": "Logan makes sadism fun! ", "is_fresh": 0, "author": ["Damien Straker"]},
{"text": "Discarding the spandex and playful camaraderie of the X-Men for a grizzled, dustball future where mutants are all but extinct, it is also the series' most nihilistic chapter.", "is_fresh": 1, "author": ["James Marsh"]},
{"text": "It's Unforgiven, with claws.", "is_fresh": 1, "author": ["Jonathan L. Fischer"]},
{"text": "The action scenes are visceral and raw, however those are few, far between and spoiled by the trailers. The movie is too small, insular and grim to be completely enjoyable. Worth a watch once, but won't hold up on repeat viewings. ", "is_fresh": 1, "author": ["Michelle Alexandria"]},
{"text": "Easily the best Wolverine film, Logan is violent, vicious and ruthless, but with heart and hope at its center, and probably the best X-Men film. [Full review in Spanish]", "is_fresh": 1, "author": ["Fico Cangiano"]},
{"text": "Logan is the best argument in years for making movies out of comic books.", "is_fresh": 1, "author": ["Daniel Eagan"]},
{"text": "Don't be put off by the slow beginning. Don't be deterred by Logan's incessant bitterness. At some point the film builds to a thoroughly satisfying ending.", "is_fresh": 1, "author": ["Dwight Brown"]},
{"text": "Logan deserves praise for its action scenes, delivering R-rated violence with enough blood to feel weighty without being an egregious gore-fest.", "is_fresh": 1, "author": ["Gavia Baker-Whitelaw"]},
{"text": "The superhero category has gotten more boring as it's gotten more popular, but \"Logan\" suggests an escape from escapism, a restoration of the human element in blockbusters, a stripped-down return to the feel of 1970s Clint Eastwood pictures.", "is_fresh": 1, "author": ["Kyle Smith"]},
{"text": "What's special about Logan is that it manages to deliver the visceral goods, all the hardcore Wolverine action its fans could desire, while still functioning as a surprisingly thoughtful, even poignant drama-a terrific movie ...", "is_fresh": 1, "author": ["A.A. Dowd"]},
{"text": "Just because a comic book flick takes the dirt road less traveled doesn't mean it's a cinematic work of art.", "is_fresh": 0, "author": ["Mara Reinstein"]},
{"text": "This is the X-Men movie - and the Wolverine - I've been waiting for. Violent, thrilling, funny, heartbreaking; everything's up for grabs and it leaves us breathless. Logan inflicts emotional wounds on the audience, yet keeps us wildly entertained.", "is_fresh": 1, "author": ["Diva Velez"]},
{"text": "After a while, with all that relentless drudgery and all the maimings, it becomes a bit much. ", "is_fresh": 0, "author": ["Will Leitch"]},
{"text": "Let's cut straight to the chase and not mope around the point. \"Logan\" - the final chapter in the saga of the X-Men's Wolverine - is the best superhero-related movie since \"The Dark Knight\" nearly a decade ago. ", "is_fresh": 1, "author": ["Cary Darling"]},
{"text": "Instead of putting the emphasis on superhero superpowers, Mangold delves deeply into these characters' human-scale vulnerabilities.", "is_fresh": 1, "author": ["Soren Andersen"]},
{"text": "\"Logan\" synthesises comic book characters into the real world in a way that's only been reached in what Roger Ebert called the \"engrossing tragedy\" of the \"The Dark Knight.\"", "is_fresh": 1, "author": ["Blake Howard"]},
{"text": "One of the best superhero movies, definitely the best from X-Men. More importantly, the first great film of the year. [Full review in Spanish]", "is_fresh": 1, "author": ["Jorge Rivera Rubio"]},
{"text": "The X-Men series - the entire superhero genre - has never seen a film like Logan before: raw, rageful, tormented, human. Best of the series yet.", "is_fresh": 1, "author": ["MaryAnn Johanson"]},
{"text": "Hugh Jackman has been Wolverine for over 17 years, and yet he found a way to deliver a [new] version of the character...in quite possibly the best performance of his career.", "is_fresh": 1, "author": ["Jacqueline Coley"]},
{"text": "Logan is the rare blockbuster that could be a game-changer. It will certainly change the way we look at other superhero movies and how history judges the entire MCU and DC Universe of films.", "is_fresh": 1, "author": ["Brian Tallerico"]},
{"text": "When Logan and Laura unleash their furious scythes nothing feels settled or satisfied. The world grinds on, fruitlessly weary and wild.", "is_fresh": 0, "author": ["Anthony Lane"]},
{"text": "One of next year's nominees for Best Actor must go to Jackman. His Logan is as moving and complex as dramatic characters demand. Boyd Holbrook is a charismatic villain. ", "is_fresh": 1, "author": ["Victoria Alexander"]},
{"text": "Mangold and Jackman bring integrity and ability to an increasingly stale and pandering genre, closing out Jackman's Wolverine with dignity and poise. That's more that most of us can hope for when we're 170-plus years old, right?", "is_fresh": 1, "author": ["Patrick Kolan"]},
{"text": "This is NOT your father's Wolverine!\"", "is_fresh": 1, "author": ["Michael A. Smith"]},
{"text": "Logan is not just a great superhero film, it's a great film, period.", "is_fresh": 1, "author": ["Travis Johnson"]},
{"text": "A bruisingly good elegy ", "is_fresh": 1, "author": ["Alison Willmore"]},
{"text": "A truly affecting and gritty human story.", "is_fresh": 1, "author": ["Amy West"]},
{"text": "Jackman's is a revelatory performance that paradoxically works as a worthy send-off yet leaves us wishing for more.", "is_fresh": 1, "author": ["Gary Dowell"]},
{"text": "Legitimate character drama that happens to include bouts of gratuitous murder and mayhem.", "is_fresh": 1, "author": ["J.R. Kinnard"]},
{"text": "Jackman taps into the darkest elements of the character but never loses the humanity, and if this is his last outing, he's gone out with a perfect, heart-breaking portrayal full of rage and grief.", "is_fresh": 1, "author": ["Jonathan Hatfull"]},
{"text": "It's not a film calculated to be a people-pleaser, but it is an appropriately intense end to a character defined by the tenacity and ferocity of a wolverine.", "is_fresh": 1, "author": ["Jim Vorel"]},
{"text": "I feel the third act is not nearly as strong as the first two, but the climax is damned near perfect and a great send off for Jackman and the Wolverine character.", "is_fresh": 1, "author": ["Anthony Ray Bench"]},
{"text": "It doesn't look like a superhero movie, but rather a good \"American\" film, where the important thing is the construction of the internal bonds that are tying the protagonists. [Full review in Spanish]", "is_fresh": 1, "author": ["Alejandro G. Calvo"]},
{"text": "The poisonous political climate of 2017 and persecution of a 2029 comic book world collide with devastating force.", "is_fresh": 1, "author": ["Matthew Anderson"]},
{"text": "director James Mangold has wrapped the trilogy with R-rated violence and gore while also giving his protagonist that which has always eluded him...what's so refreshing about \"Logan\" is how divorced it is from the genre that spawned it.", "is_fresh": 1, "author": ["Laura Clifford"]},
{"text": "Logan is a punch in the gut in all the right ways.", "is_fresh": 1, "author": ["Alan Scherstuhl"]},
{"text": "Hugh Jackman says goodbye to Wolverine in a more than dignified way and exceeding everyone's expectations. Maybe even his own. [Full review in Spanish]", "is_fresh": 1, "author": ["Carlos Jes\u00fas Gonz\u00e1lez"]},
{"text": "A sensational film worthy of having a special place next to titles as 'Unbreakable', 'The Incredibles' and 'The Dark Knight'. [Full review in Spanish]", "is_fresh": 1, "author": ["Mikel Zorrilla"]},
{"text": "An interesting meditation on life and death, periodically interrupted by excessive, skin-slashing, bone-snapping ultraviolence. ", "is_fresh": 1, "author": ["Brian Orndorf"]},
{"text": "At the end of the day it's still just a comic book movie bragging about how it's no typical comic book movie. Yes, and?", "is_fresh": 0, "author": ["Matt Prigge"]},
{"text": "Logan is a dark and thrilling finale for Wolverine. Director James Mangold brings stark realism to the comic genre.", "is_fresh": 1, "author": ["Julian Roman"]},
{"text": "Mangold has open-heartedly embraced the use of violence, but this is light years away from the tongue-in-cheek gore-fest of Deadpool", "is_fresh": 1, "author": ["Joseph Walsh"]},
{"text": "Logan is the mercilessly barbaric Wolverine film you have always wanted chock full of blood, gore, and extreme vulgarity even South Park would be proud of. Beautifully bleak and faithful to the source material.", "is_fresh": 1, "author": ["Chris Sawin"]},
{"text": "Not a great film, but a movie with a noble, weary and tragic performance at its center. There is but one Wolverine. ", "is_fresh": 1, "author": ["Roger Moore"]},
{"text": "It's hard to fathom that we will no longer see the buff Jackman preening with those shiny steel claws, but he is getting older, so I suppose we should let him retire this character from his repertoire. ", "is_fresh": 1, "author": ["Jeanne Kaplan"]},
{"text": "There's a good reason to see \"Logan\", and also some good reasons not to see \"Logan\". ", "is_fresh": 1, "author": ["David Kaplan"]},
{"text": "Although it's a \"super-hero movie\", Logan is not about action, but about characters and their relationships. [Full review in Portuguese.]", "is_fresh": 1, "author": ["Pablo Villa\u00e7a"]},
{"text": "It's something no-one could have expected: a creatively risky superhero movie. And it deserves to pay off.", "is_fresh": 1, "author": ["Robbie Collin"]},
{"text": "Logan is full of juicy surprises. But what impresses most is how, for once, this is a comic-book film that has the guts to wrap things up.", "is_fresh": 1, "author": ["James Mottram"]},
{"text": "If you're open to seeing a new, previously unknown Wolverine, Logan is going to stay with you for a long time.", "is_fresh": 1, "author": ["Lauren O'Callaghan"]},
{"text": "Logan is a Marvel movie with a bit of soul and some true grit. Presumed to be the final outing for Wolverine, it plays more like a late period John Wayne western than it does like a conventional superhero film.", "is_fresh": 1, "author": ["Geoffrey Macnab"]},
{"text": "Jackman does his usual gruff protagonist as well as expected, but it's other performances that really stand out; mostly notably Stewart -- haggard, vulnerable but never skipping out on his humour.", "is_fresh": 1, "author": ["George Simpson"]},
{"text": "The best X-Men movie since 2003's X2.", "is_fresh": 1, "author": ["Todd VanDerWerff"]},
{"text": "This is the Wolverine movie fans have always wanted to see; period. ", "is_fresh": 1, "author": ["Travis Hopson"]},
{"text": "The grim side of human nature is all over James Mangold's Logan. But that doesn't necessarily make it a good movie.", "is_fresh": 0, "author": ["Stephanie Zacharek"]},
{"text": "The weight of graphic, grotesque violence hangs over the entire movie. But the daring emotional violence lingers longer, well after the lights go down on the final shot.", "is_fresh": 1, "author": ["Tasha Robinson"]},
{"text": "When it comes to playing a properly magnetic anti-hero with a gruff '70s-cinema exterior and a dark reservoir of inner depth, Jackman really is the best at what he does.", "is_fresh": 1, "author": ["Dan Jolin"]},
{"text": "Star Hugh Jackman isn't just giving us the definitive X-Men movie; it could just be the definitive comic book movie.", "is_fresh": 1, "author": ["Mark Daniell"]},
{"text": "Operatic and also deeply personal, Logan is one of the true great films of the superhero genre, among the best films of 2017 to date, and a rousing send-off for the old guard while ushering in the future of the X-Men franchise.", "is_fresh": 1, "author": ["Mark Hughes"]},
{"text": "From the very first shot to the very last, every frame feels perfectly rendered and absolutely necessary to the narrative trajectory.", "is_fresh": 1, "author": ["Allyson Johnson"]},
{"text": "There's a resonant motif in Logan that times have changed for the worst, but this dystopian world revives the humanity in these characters, a development that's all for the best.", "is_fresh": 1, "author": ["Peter Canavese"]},
{"text": "If you remove the graphic violence, it's not all that different from 'The Wolverine,' with Logan again finding someone to protect after turning his back on life. ", "is_fresh": 1, "author": ["Scott Mendelson"]},
{"text": "Logan is way bloodier than Deadpool, yet still artful in the way The Raid movies turn rhythmic stabbing into a brutal ballet.", "is_fresh": 1, "author": ["Fred Topel"]},
{"text": "Mangold confidently places the film in the context of a neo-Western, painting Logan and Professor X as two men who have been left behind by the world they once defined.", "is_fresh": 1, "author": ["Matt Goldberg"]},
{"text": "It's an amazing swan song for the Wolverine character, and for Jackman, and perhaps the best X-Men movie yet.", "is_fresh": 1, "author": ["Scott Collura"]},
{"text": "Jackman clearly adores the character, and he embraces the chance to essentially reinvent the mutton-chopped slayer for one final hurrah. It's strange to think that this might stand as one of his greatest performances, but so it goes.", "is_fresh": 1, "author": ["David Jenkins"]},
{"text": "Easily the best Wolverine outing, Logan is The Dark Knight of the mutant-filled X-franchise, a gripping film that transcends the comic-book genre by saying something important ...", "is_fresh": 1, "author": ["Brian Truitt"]},
{"text": "Well done, Mr. Jackman, and Godspeed Wolverine. We're sorry to say goodbye to our bare-knuckled friend - but you've both earned the rest.", "is_fresh": 1, "author": ["Stephen Whitty"]},
{"text": "A rather brilliant mesh of dystopian and superhero tropes that proves to be as entertaining as it is timely. ", "is_fresh": 1, "author": ["Rory O'Connor"]},
{"text": "I'm not speaking hyperbolically when I say that Logan is the best, most exciting X-Men film to have made it to the big screen.", "is_fresh": 1, "author": ["Keisha Hatchett"]},
{"text": "This is honestly one of the best comic book movies of all time.", "is_fresh": 1, "author": ["Kyle Anderson"]},
{"text": "\"Logan\" self-consciously aspires to retire the steel-clawed hero with epic grandeur, and the results are often rousingly bleak. And yet, the risks taken only make the formulaic redemption story and cliched emotional underpinnings increasingly frustrating.", "is_fresh": 0, "author": ["Tim Grierson"]},
{"text": "Mangold gives our grumpy old friend quite a send-off, a blood-drenched stab-a-thon that frequently hits bone.", "is_fresh": 1, "author": ["Richard Lawson"]},
{"text": "X-Men movie franchise connections aside, Logan is a grisly and somber character drama that sends off Hugh Jackman's Wolverine on a high note.", "is_fresh": 1, "author": ["Sandy Schaefer"]},
{"text": "Logan is a searing, claws-out action drama that hits hard, chews grit and leaves an everlasting impression.", "is_fresh": 1, "author": ["Matt Donato"]},
{"text": "What Deadpool awakened in audiences a year ago, this thirst for blood, can be credited as paving the way for Logan, which picks up the cause of violence and accelerates it considerably.", "is_fresh": 1, "author": ["Neil Miller"]},
{"text": "By grounding the film's action, and painting on a relatively small-scale canvas, 'Logan' raises the bar on the types of stories you can tell with superheroes -- thereby redefining what the term Superhero Movie even means in the year 2017.", "is_fresh": 1, "author": ["Sean O'Connell"]},
{"text": "Seamlessly melding Marvel mythology with Western mythology, James Mangold has crafted an affectingly stripped-down standalone feature, one that draws its strength from Hugh Jackman's nuanced turn as a reluctant, all but dissipated hero.", "is_fresh": 1, "author": ["Sheri Linden"]},
{"text": "Logan is a forthright, muscular movie which preserves the X-Men's strange, exotic idealism.", "is_fresh": 1, "author": ["Peter Bradshaw"]},
{"text": "It's both the most violent film in the series and the most sentimental one. When it's not showering you in blood, it's trying to make you spill tears.", "is_fresh": 1, "author": ["Chris Nashawaty"]},
{"text": "The analog pace and elemental story work for it. Each time the violence explodes, it's slashingly satisfying, because it's earned, and also because Mangold knows just how to stage it.", "is_fresh": 1, "author": ["Owen Gleiberman"]},
{"text": "The violence in \"Logan\" isn't played for kicks, like it was in \"Deadpool.\" It's grave and serious and sometimes hard to watch, which fits in with the overall tone of this grim, surprisingly downbeat movie.", "is_fresh": 1, "author": ["Rene Rodriguez"]},
{"text": "Logan is the movie that finally satisfies the wish fulfillment of those superhero movie conversations that that speculate on what a hard R-rated superhero movie would look like with a major established character.", "is_fresh": 1, "author": ["Mike Ryan"]},
{"text": "Perhaps it's just the novelty, but that explicit violence and salty language (Professor X turns out to be quite the potty-mouth as well) adds a bit of much-needed fizz to the Wolverine sub-franchise.", "is_fresh": 1, "author": ["Alonso Duralde"]},
{"text": "Logan is a great addition to the X-Men films and it should please adult fans of the series.", "is_fresh": 1, "author": ["Scott Chitwood"]},
{"text": "Hugh Jackman's last Wolverine story ends on a grim, gritty and ultra-violent note that wins points both for being cinematic and for being so different. ", "is_fresh": 1, "author": ["Edward Douglas"]},
{"text": "James Mangold has re-teamed with Jackman for an intense Western that re-introduces the brutish X-Men as a cowboy, wracked with remorse and reckoning with redemption.", "is_fresh": 1, "author": ["Kristy Puchko"]},
{"text": "Logan is Hugh Jackman's finest work as Wolverine, and a movie full of ambition, emotion, and drama.", "is_fresh": 1, "author": ["Alan Cerny"]},
{"text": "Hugh Jackman is all growl and gristle, Logan's lovable grouchiness turned to outright rage.", "is_fresh": 1, "author": ["Tom Huddleston"]},
{"text": "Better as an agitated Western than as a fading superhero movie (or a listless cross-country chase), the most cantankerous X-Man's final outing is a scaled-back affair that nevertheless knows how to swing for the fences.", "is_fresh": 1, "author": ["David Ehrlich"]},
{"text": "It looks like a small production but really, it feels like the biggest X-Men movie. It has more to say than any other installment. It leads to meaningful conclusions. It is brutal and bold and it shouldn't be missed.", "is_fresh": 1, "author": ["William Bibbiani"]},
{"text": "Easily the best Wolverine movie. ", "is_fresh": 1, "author": ["Matt Singer"]},
{"text": "The movie fans have been asking for ever since Hugh Jackman first put on his claws. ", "is_fresh": 1, "author": ["Chris Bumbray"]},
{"text": "\"Logan\" is the bleakest vision of Wolverine yet, but also hands down the best treatment the character has received on the big screen in the fifteen plus years Hugh Jackman has inhabited the role.", "is_fresh": 1, "author": ["Kevin Jagernauth"]},
{"text": "Logan is without question the best superhero movie in years, and certainly the most ambitious one since Christopher Nolan hung up the cape.", "is_fresh": 1, "author": ["David Crow"]},
{"text": "Logan is a mighty swan song for Hugh Jackman's Wolverine, a tour de force for Patrick Stewart and an amazing debut from young Dafne Keen. Don't bring your kids. Do bring your hankies.", "is_fresh": 1, "author": ["Rosie Fletcher"]},
{"text": "Logan is a total anomaly. James Mangold turns the key on the tawdry, predictable superhero formula, delivering both his best film to date and one of the most game-changing comic book adaptations to ever leave the pages.", "is_fresh": 1, "author": ["Michael Roffman"]},
{"text": "Brutal, raw & emotionally satisfying. Logan is up there with the best comic book movies ever made. ", "is_fresh": 1, "author": ["Jon Lyus"]},
{"text": "It recognizes that the thinly veiled secret of Wolverine's loner act is that he's always been a cog of some kind.", "is_fresh": 1, "author": ["Jake Cole"]}
]