[
{"reviews_count": "256", "title": "Logan Lucky", "avg_audience_rating": "3.7", "rotten_count": "20", "tomatometer": "92", "audience_score": "75", "avg_critic_rating": "7.5", "fresh_count": "236", "user_ratings_count": "26,966"},
{"text": "A witty script and fantastic performances, particularly from a nearly-unrecognisable Daniel Craig, make this more than just another crime caper.", "is_fresh": 1, "author": ["Jennifer Heaton"]},
{"text": "Ocean's Eleven by way of Ricky Bobby. ", "is_fresh": 1, "author": ["Matt Oakes"]},
{"text": "That these seemingly dim dudes with cartoonish Southern accents, a matter-of-fact grounding in the world of NASCAR, county fairs, John Denver and child beauty pageants are actually smarter than we assume isn't a \"gag\" but a key part of the story.", "is_fresh": 1, "author": ["Bob Chipman"]},
{"text": "Logan Lucky is triumphant return, a crowd-pleasing heist movie that is funny, thrilling, and just so damn cool.", "is_fresh": 1, "author": ["Sean Mulvihill"]},
{"text": "A sharp-looking vehicle, even if there's not much going on under the hood.", "is_fresh": 1, "author": ["Daniel Barnes"]},
{"text": "The formula succeeds because the final product is an entertaining ride as similar to [the Ocean's trilogy's] concept as it is dissimilar in environment.", "is_fresh": 1, "author": ["Jared Mobarak"]},
{"text": "It's a decent comeback for Soderbergh, though not one that fires on all cylinders.", "is_fresh": 1, "author": ["Tomas Trussow"]},
{"text": "Logan Lucky is momentarily entertaining, but it is very quickly forgettable; a minor work from one of American cinema's most restless mainstream filmmakers that has such little impact, he might as well have remained in retirement.", "is_fresh": 0, "author": ["Alistair Ryder"]},
{"text": "Funny, creative, and the refreshing heist movie of its genre since \"Ant-Man\", \"Logan Lucky\" is an entertaining romp from beginning to end.", "is_fresh": 1, "author": ["Rendy Jones"]},
{"text": "Yes haw! Steven Soderbergh is back with an end of summer hayride of a film that will have you howling.", "is_fresh": 1, "author": ["Glynis Costin"]},
{"text": "Logan Lucky doesn't try to be something it's not and with its somewhat charming nature, it's a heist film that knows how to keep it light without losing its edge.", "is_fresh": 1, "author": ["Mae Abdulbaki"]},
{"text": "This is that rare breed of subtle comedy that engages your heart, mind and funny bone, all at the same time.", "is_fresh": 1, "author": ["Lisa Johnson Mandell"]},
{"text": "It's a heist movie, so we are still cheering for criminal behavior, but it is positively old-fashioned in its warm-hearted generosity toward its characters and by extension its viewers.", "is_fresh": 1, "author": ["Kathryn Reklis"]},
{"text": "Content to unfold seamlessly, indulging in the pleasures of listening to people banter. It moves forward at a gleeful pace, creating a slap-happy momentum reminiscent of the careening madness found in the best 1940s-era screwball comedies. ", "is_fresh": 1, "author": ["Glenn Heath Jr."]},
{"text": "This is just not as great as it could have been and it is so deeply frustrating given what a trailblazer Steven Soderbergh has been over the past 20 years.", "is_fresh": 0, "author": ["Rosalynn Try-Hane"]},
{"text": "It's a guilty pleasure, but it's definitely a pleasure.", "is_fresh": 1, "author": ["Steve Murray"]},
{"text": "As we get to know the characters, it becomes clear that something deeper is going on.", "is_fresh": 1, "author": ["Megan Basham"]},
{"text": "Perhaps the biggest surprise comes from the fact that Soderbergh and his cast make the brothers sympathetic, rather than merely treating them with condescension. Tatum and Driver portray Jimmy and Clyde with an underlying sense of dignity.", "is_fresh": 1, "author": ["Carl Kozlowski"]},
{"text": "Soderbergh has made an indie movie the way he wanted to, on his terms, and the result shows the success of this method.", "is_fresh": 1, "author": ["Joseph Walsh"]},
{"text": "There is no doubting that Logan Lucky has a big heart and tries its hardest to be endearing, but it falls a couple of rednecks short of a Lynyrd Skynyrd concert.", "is_fresh": 0, "author": ["Toby Woollaston"]},
{"text": "With a quartet of committed and super-fun performances from Channing Tatum, Adam Driver, Riley Keough, and Daniel Craig, it's tough not to be incredibly thankful to have Steven Soderbergh back doing his thing.", "is_fresh": 1, "author": ["Joe Reid"]},
{"text": "Logan Lucky shows Soderbergh operating modestly with optimum skill. ", "is_fresh": 1, "author": ["Jeremy Carr"]},
{"text": "The film has a comfortable shaggy feel, even as it unspools a fairly tight heist.", "is_fresh": 1, "author": ["Al Hoff"]},
{"text": "... the folksy, loping, rural Southern answer to the snappy, swinging, showbiz flair of Soderbergh's Ocean's 11 and sequels.", "is_fresh": 1, "author": ["Sean Axmaker"]},
{"text": "Logan Lucky is a rarity on multiple levels, just as remarkable as what the film comes to call \"the Hillbilly Heist.\" ", "is_fresh": 1, "author": ["Karen Han"]},
{"text": "The Logan family may have had a curse on them, but this winning outing from returning director Steven Soderbergh has lifted it; Logan Lucky is one madcap heist flick that ranks up there with the best of them.", "is_fresh": 1, "author": ["Robert Kojder"]},
{"text": "The film is a breezy, undemanding romp, a nice respite from what's in theaters now.", "is_fresh": 1, "author": ["Rob Lowman"]},
{"text": "The auteur who was smart enough to rethink the classic heist movie has returned with a turbocharged gasser, Logan Lucky, that once again puts him in the pole position.", "is_fresh": 1, "author": ["Courtney Howard"]},
{"text": "...a very funny heist caper.", "is_fresh": 1, "author": ["Danielle Solzman"]},
{"text": "Only Craig's turn really leaves an impression, and you're left with the feeling that, for all its brio, Logan Lucky doesn't amount to a hill of beans, as they say in those parts.", "is_fresh": 0, "author": ["James Mottram"]},
{"text": "... [Steven Soderbergh] is back in Hollywood with Logan Lucky, one of the best films of his career... [Full review in Spanish]", "is_fresh": 1, "author": ["Nazareno Brega"]},
{"text": "Like all his film's, this one has a homebrew flavour of Soderbergh's backyard of anti-studio film development. That makes it both fresh and fantastic.", "is_fresh": 1, "author": ["Rachit Gupta"]},
{"text": "This is a fun film. These characters aren't the sharpest tools in the shed and they make a few mistakes along the way.", "is_fresh": 1, "author": ["Matthew Toomey"]},
{"text": "Logan Lucky follows the classic structure of the Heist Movies... [Full review in Spanish]", "is_fresh": 1, "author": ["Alberto S\u00e1ez Villarino"]},
{"text": "Even if it doesn't raise the stakes of the genre, there's enough potential to turn this funny and smartly written caper into another entertaining Soderbergh franchise.", "is_fresh": 1, "author": ["Neil Soans"]},
{"text": "You'll certainly find bracingly funny moments scattered throughout an amusing tale that benefits with the sprightly insouciance adopted by a filmmaker who has nothing to prove.", "is_fresh": 1, "author": ["Filipe Freitas"]},
{"text": "Soderbergh has returned in top form to prescribe an entertaining and very enjoyable exhibition of himself. [Full review in Spanish] ", "is_fresh": 1, "author": ["Luis Mart\u00ednez"]},
{"text": "Logan Lucky is a fun heist flick with a satisfyingly smart twist, too, full of great performances and deadpan humor and it will eventually find an audience, even if it's not a box office smash. Movies this fun and well-made always do.", "is_fresh": 1, "author": ["Sarah Marrs"]},
{"text": "Welcome back, Steven.", "is_fresh": 1, "author": ["Jordan Ruimy"]},
{"text": "... the redneck answer to Ocean's Eleven (2001), as suggested one of the many winks of the film. [Full review in Spanish]", "is_fresh": 1, "author": ["Jordi Costa"]},
{"text": "... is lively, cunning and witty. [Full review in Spanish]", "is_fresh": 1, "author": ["Yago Garc\u00eda"]},
{"text": "A hilarious and crazy parody that takes its raw material very seriously and moves between the ridiculously sublime to give the spectator memorable moments. [Full review in Spanish]", "is_fresh": 1, "author": ["Paula Arantzazu Ruiz"]},
{"text": "While Logan Lucky falls strictly into the category of popcorn entertainment, that doesn't make it any less worthy of praise.", "is_fresh": 1, "author": ["Lee Jutton"]},
{"text": "Not so much a slow burner as a damp squib.", "is_fresh": 1, "author": ["Matthew Bond"]},
{"text": "It is the cleanest heist film I have ever seen. ", "is_fresh": 1, "author": ["Sr. Rose Pacatte"]},
{"text": "... Logan Lucky is dazzlingly entertaining, while its surprising core ultimately gives way to an impact that is much more profound and poignant than you expect it to be.", "is_fresh": 1, "author": ["Gregory Wakeman"]},
{"text": "Logan Lucky is sensational, the fact it stole my heart away with seemingly so little effort whatsoever the greatest heist of them all.", "is_fresh": 1, "author": ["Sara Michelle Fetters"]},
{"text": "A clever, goofy and a thoroughly entertaining ride. ", "is_fresh": 1, "author": ["Marija Djurovic"]},
{"text": "Logan Lucky is delightful entertainment.", "is_fresh": 1, "author": ["Joanne Soh"]},
{"text": "Soderbergh raises clumsy and absurd moments to keep the mood, wrapped in country-style musical atmospheres like John Denver and Creedence Clearwater Revival. [Full review in Spanish]", "is_fresh": 1, "author": ["Luis Fernando Galv\u00e1n"]},
{"text": "A flighty shrimp and grits caper that willfully evokes the best - and a little of the worst - of [Soderbergh's] billion dollar-grossing [Ocean's] trilogy.", "is_fresh": 1, "author": ["J. Olson"]},
{"text": "Need escape? Logan Lucky is for you.", "is_fresh": 1, "author": ["Diane Pershing"]},
{"text": "Logan Lucky is intelligent comedy presented through absolute stupidity, and I feel lucky to have watched it.", "is_fresh": 1, "author": ["Keeva Stratton"]},
{"text": "One of the most pure fun times I've had at the movies this year.", "is_fresh": 1, "author": ["Matt Patches"]},
{"text": "Directed by Steven Soderberg, the film is intended as a backhander to the director's own Ocean's 11 trilogy, which were all glossy, hi-tech, largely unfunny and totally lacking in ideas. Logan Lucky certainly provides an entertaining counter punch.", "is_fresh": 1, "author": ["Jim Schembri"]},
{"text": "... Logan Lucky speeds and cruises like the freshest Ford Mustang. It shifts and drifts without any sign of choking. ", "is_fresh": 1, "author": ["Jon Winkler"]},
{"text": "Logan Lucky is emblematic of the classic 1980s Hollywood blockbuster: it is great fun while it lasts, but you will forget it soon after.", "is_fresh": 1, "author": ["Aakash Karkare"]},
{"text": "[Logan Lucky] is packed with deadpan humour, speedway action and a myriad twists.", "is_fresh": 1, "author": ["Rashid Irani"]},
{"text": "Stylish but shallow, this could be the director's next franchise, along with Eleven and Magic Mike.", "is_fresh": 1, "author": ["John Lui"]},
{"text": "Nah...", "is_fresh": 0, "author": ["Bob Grimm"]},
{"text": "...the movie, despite its raft of appealing attributes, comes off as a forgettable caper that could (and should) have been so much better.", "is_fresh": 0, "author": ["David Nusair"]},
{"text": "If nothing else, see the film for Craig's portrayal of pure larcenous joy. It is a thing of beauty, as white hot as his livid blue eyes.", "is_fresh": 1, "author": ["Dorothy Woodend"]},
{"text": "Come for the zippy comedy about ordinary people mastering their own destinies. Stay for the entertaining filmmaking masterclass.", "is_fresh": 1, "author": ["Sarah Ward"]},
{"text": "A singular film-maker returns from a cinematic sabbatical in qualified triumph. We're lucky to have him.", "is_fresh": 1, "author": ["Donald Clarke"]},
{"text": "What could go wrong? Rather a lot and the most enjoyable parts of. Soderbergh's smartly written film involve the negotiations and shared worries of the amateurish but thoroughly lovable gang.", "is_fresh": 1, "author": ["Paul Whitington"]},
{"text": "He's made great movies in both categories, but with Logan Lucky, Soderbergh the studio-movie entertainer and Soderbergh the clinical, experimental stylist fully merge.", "is_fresh": 1, "author": ["Jesse Hassenger"]},
{"text": "Logan Lucky hums and purrs along like an Xfinity Ford Mustang, although, once the smoke clears, you may find yourself wondering if you've been watching a film about anything.", "is_fresh": 1, "author": ["Tom Shone"]},
{"text": "Soderbergh films the movie with swing, relishing the overlapping and intertwining strands of the complex plot, the brightly lit personalities of the characters it involves, and the magnificently conceived, essential tiny details ...", "is_fresh": 1, "author": ["Richard Brody"]},
{"text": "Though the prison break and heist scenes are slickly and efficiently staged, the film's great strength is its good nature.", "is_fresh": 1, "author": ["Simran Hans"]},
{"text": "Clever, wildly entertaining West Virginia-set heist comedy-a terrific entertainment described as an \"Ocean's 7-Eleven\" inside the movie itself...warmly empathetic embrace of its economically dismissed characters... wears its kindly politics on its sleeve", "is_fresh": 1, "author": ["Ray Pride"]},
{"text": "It would be a fabulously funny and endlessly entertaining summer treat no matter who was making it - though it's hard to imagine anyone making it as well as Soderbergh.", "is_fresh": 1, "author": ["Jason Bailey"]},
{"text": "Here is a likable, sometimes uproarious, movie in which every actor comes up with something funny. We've got a lot of Southern gothics, but very few southern Ealing comedies.", "is_fresh": 1, "author": ["Richard von Busack"]},
{"text": "While it's overlong and sometimes disjointed, this heist flick delivers genuinely likable characters, winning performances and solid laughs.", "is_fresh": 1, "author": ["Margot Harrison"]},
{"text": "The charm of this film is not the heist, which is ridiculously complicated and improbable, but in its combination of quirky, often very funny, characters and the entirely earnest way the actors play these characters.", "is_fresh": 1, "author": ["Robert Roten"]},
{"text": "Steven Soderbergh returns to the big screen after a self-imposed \"retirement\" with a movie that's very much in the vein of his Ocean's trilogy but pulpier and quirkier -- and tons of fun. ", "is_fresh": 1, "author": ["Jeffrey M. Anderson"]},
{"text": "Fun enough and diverting enough while you're in the middle of it, but hints of something much richer and more satisfying dangle just out of its reach.", "is_fresh": 1, "author": ["MaryAnn Johanson"]},
{"text": "Daniel Craig displays a gift for character comedy that suggests he'll have plenty of new and exciting avenues to explore in his post-Bond career.", "is_fresh": 1, "author": ["Matthew Turner"]},
{"text": "Wildly entertaining.", "is_fresh": 1, "author": ["Charlotte O'Sullivan"]},
{"text": "Expertly made but strangely uninvolving.", "is_fresh": 0, "author": ["Allan Hunter"]},
{"text": "Steven Soderbergh returns from his self-imposed retirement with a hillbilly heist movie that has too many funny accents but not enough funny lines.", "is_fresh": 0, "author": ["Jamie Dunn"]},
{"text": "Soderbergh directs with his trademark pace and panache, but to this he adds an obvious affection for his hapless hillbilly heroes.", "is_fresh": 1, "author": ["Debra Craine"]},
{"text": "Steven Soderbergh ... is a steady hand when it comes to these convoluted crime capers and this pleasingly unspools to reveal a plot within a plot.", "is_fresh": 1, "author": ["Tim Evans"]},
{"text": "Not the precision near-masterpiece that Out of Sight is, nor as tight or funny as the Ocean's films, but it's certainly got all the requisite qualities [of the genial heist movie] ... goes down smooth and easy ... the jokes raise a smile [not] a laugh.", "is_fresh": 1, "author": ["CJ Johnson"]},
{"text": "If this is the kind of eminently stylish and self-assured work that comes after taking a four-year hiatus from feature filmmaking, perhaps more directors should start looking into extended vacations as well.", "is_fresh": 1, "author": ["Peter Sobczynski"]},
{"text": "What a fun movie.", "is_fresh": 1, "author": ["Uri Klein"]},
{"text": "Like in the Ocean films, Soderbergh's loaded A-list goes on and on.", "is_fresh": 1, "author": ["Tom Meek"]},
{"text": "Logan's Lucky feels like a filmmaker re-indulging a passion. It's beautifully shot, as stylish as ever, impeccably acted and typically articulate.", "is_fresh": 1, "author": ["Rob Carnevale"]},
{"text": "Logan Lucky feels like the work of a filmmaker with nothing to prove, neither sententious seriousness of purpose nor technical knowhow.", "is_fresh": 1, "author": ["Nick Pinkerton"]},
{"text": "A couple of clicks toward even more weirdness and Logan Lucky might have landed Soderbergh in Coen Brothers territory. Now that really would have been something to behold.", "is_fresh": 1, "author": ["Ned Lannamann"]},
{"text": "All national and industry politics aside, Logan Lucky is a high-octane gas, a shaggy-dog story that's hard to outguess.", "is_fresh": 1, "author": ["Tim Appelo"]},
{"text": "It's USP is that it's \"a red-necked Oceans\" or \"a hillbilly Oceans\" so, in other words, it's a riff on Oceans. Soderbergh directed the Ocean's franchise, so it is hardly a stretch for him. Or us, for that matter.", "is_fresh": 0, "author": ["Deborah Ross"]},
{"text": "Soderbergh... remains a talented filmmaker with an instinctive gift for pacing and style. Cinephiles can rejoice that his self-imposed retirement seems to be over, even if he doesn't push himself too hard in this modest return.", "is_fresh": 1, "author": ["J.R. Kinnard"]},
{"text": "Filled with colourful characters, crazy situations, clever camera shots and choice soundtrack cuts, Logan Lucky's beautifully layered plot features more twists and turns than a Nascar race (which admittedly isn't hard).", "is_fresh": 1, "author": ["James Croot"]},
{"text": "Remember how panicked we all were when Soderbergh said he was retiring a few years back? Thank the film gods, there's always one last heist.", "is_fresh": 1, "author": ["Max Weiss"]},
{"text": "With Logan Lucky, Soderbergh, one of our most inventive and unpredictable directors, just wants to have fun and bring the audience in on it. That's going to be all right with a lot of us.", "is_fresh": 1, "author": ["Stephen Rebello"]},
{"text": "If the Ocean's Eleven movies left you with the urge to upgrade your wardrobe, Logan Lucky might inspire a day at the races.", "is_fresh": 1, "author": ["Josh Terry"]},
{"text": "It's always supremely watchable, but rarely, if ever, commits itself to genuine jeopardy or suspense.", "is_fresh": 1, "author": ["Peter Bradshaw"]},
{"text": "We admire the cheek and chic of how it's done. We wonder quite why it was thought worth doing.", "is_fresh": 1, "author": ["Nigel Andrews"]},
{"text": "The film's comedy is loose and generous, and its esprit de corps sneaks up on you with a soft tread.", "is_fresh": 1, "author": ["Tim Robey"]},
{"text": "The ideal combination of grown-up concerns and childlike joy for big goofy movies.", "is_fresh": 1, "author": ["Tim Brayton"]},
{"text": "Logan Lucky builds to one of those impossibly complicated heists that only ever happen in movies and rather contradicts the notion that the Logans are stupid or cursed. ", "is_fresh": 1, "author": ["David 'Mad Dog' Bradley"]},
{"text": "Steven Soderbergh makes entertaining, well-crafted films. Logan Lucky is no different. If you're in the mood for a heist-comedy that looks fantastic, you're not going to go wrong.", "is_fresh": 1, "author": ["Dave Crewe"]},
{"text": "Daniel Craig steals the show. ", "is_fresh": 1, "author": ["Harry Guerin"]},
{"text": "[Logan Lucky] is not going to win him any Oscars but Soderbergh certainly appears to have recovered his zest for filmmaking.", "is_fresh": 1, "author": ["Geoffrey Macnab"]},
{"text": "Soderbergh, back from a self-inflicted hiatus, is the perfect man to bring this Rebecca Blunt screenplay to life, utilising his experience in this sub-genre to triumphant effect.", "is_fresh": 1, "author": ["Stefan Pape"]},
{"text": "A frolicsome rural crime thriller.", "is_fresh": 1, "author": ["Frederic and Mary Ann Brussat"]},
{"text": "The movie almost has enough assured touches and aromatic performances to make you overlook that the humour is generic at times and that the story suffers from not having a genuine antagonist to shake things up.", "is_fresh": 1, "author": ["Craig Mathieson"]},
{"text": "Soderbergh's most entertaining film, since at all times on the screen you can tell that the cast is having a great time. This is contagious and compensates many times for the slow development of the plot. [Full review in Spanish]", "is_fresh": 1, "author": ["Juanma Fern\u00e1ndez Par\u00eds"]},
{"text": "Logan Lucky is like a cheerful sing-a-long of a movie, sweeping its audience along easily, even if some of the details quickly vanish from memory.", "is_fresh": 1, "author": ["David Sims"]},
{"text": "If a movie could strut, Logan Lucky would look like Travolta in Saturday Night Fever, so confident in its ability to impress and to please its audience with its entertaining heist hijinks. ", "is_fresh": 1, "author": ["Matthew Pejkovic"]},
{"text": "Soderbergh knows precisely how the formula works: likable leads, eccentric supporting characters, a complicated plan, unexpected glitches... ", "is_fresh": 1, "author": ["Daniel M. Kimmel"]},
{"text": "An absurd -- and absurdly funny -- cinema experience, marking a welcome return to the form by Soderbergh.", "is_fresh": 1, "author": ["Annlee Ellingson"]},
{"text": "Lithe, lively and ludicrous, Logan Lucky is a joyful celebration of Southern culture with a generous helping of down-home whimsy. ", "is_fresh": 1, "author": ["Kristy Puchko"]},
{"text": "...suffers from more than one kind of Southern drawl.", "is_fresh": 1, "author": ["Josh Larsen"]},
{"text": "Logan Lucky is like those inline tube slides at a water park: you don't worry about where you're going, because getting there is so much darned fun.", "is_fresh": 1, "author": ["Karen Krizanovich"]},
{"text": "Soderbergh is back for real, with no signs of rust at all ", "is_fresh": 1, "author": ["Stephen Silver"]},
{"text": "Transposing the milieu from glitz to grits . . .it does more set an intricate heist flick in the back roads of Appalachia, it also makes a sly statement about class, culture, and our preconceived notions about those two things. ", "is_fresh": 1, "author": ["Andrea Chase"]},
{"text": "The heist is fun, but the detailed inside look at the workings of a speedway really makes Logan Lucky special.", "is_fresh": 1, "author": ["Mike McGranaghan"]},
{"text": "Soderbergh again proves his mastery at this sort of comic crime thriller.", "is_fresh": 1, "author": ["David Kaplan"]},
{"text": "We're talking at least 11, 12, 13, maybe 14 players involved in robbing the Charlotte Motor Speedway. (Not that the Rube Goldbergian plot -- with the accent on rube, of course -- bears any resemblance to any of Soderbergh's trio of \"Ocean's\" movies).", "is_fresh": 0, "author": ["John Urbancich"]},
{"text": "There are precious few characters who don't look and sound like they just got back from molesting Ned Beatty alongside the Georgia river. But the movie somewhat works thanks to a solid second half and some sharp performances.", "is_fresh": 1, "author": ["Matt Brunson"]},
{"text": "Such is the merriment of the new movie, and so spirited is its pace, that you barely notice the wavering of the tone.", "is_fresh": 1, "author": ["Anthony Lane"]},
{"text": "Steven Soderbergh's amusing, escapist, 'Oceans 7-Eleven' heist is a blast! ", "is_fresh": 1, "author": ["Susan Granger"]},
{"text": "A very funny heist film.", "is_fresh": 1, "author": ["Dennis Schwartz"]},
{"text": "This picture suggests a great director easing back into the feature-film game.", "is_fresh": 1, "author": ["Kurt Loder"]},
{"text": "Just as impressive as Logan Lucky's technical proficiency is its winning embrace of fun. ", "is_fresh": 1, "author": ["Michael Arbeiter"]},
{"text": "The podunk milieu in which Logan Lucky is set feels overstated, like a New Yorker taking a selfie in front of a Stuckey's.", "is_fresh": 0, "author": ["Sean Nelson"]},
{"text": "Like its characters, the film has no airs about it, and simply exists to entertain viewers and it does that with plenty of aplomb and ease. (Full Content Review for Parents - Violence, Profanity, etc. - also Available)", "is_fresh": 1, "author": ["Jim Judy"]},
{"text": "Logan Lucky is an entertaining romp powered by a smart script, strong performances across the board, and great direction.", "is_fresh": 1, "author": ["Chris Agar"]},
{"text": "Logan Lucky is a fun and engaging caper movie directed by Steven Soderbergh.", "is_fresh": 1, "author": ["Edward Johnson-Ott"]},
{"text": "After four years away, it's far better to have too much of a Soderbergh movie than not enough.", "is_fresh": 1, "author": ["Christopher Lawrence"]},
{"text": "Craig manages to steal each scene he's in with his bleached hair, impeccable Southern accent and hair-trigger personality. An Oscar nomination for Best Supporting Actor is likely.", "is_fresh": 1, "author": ["Charles Koplinski"]},
{"text": "Logan Lucky is as charming and welcome as toenail fungus.", "is_fresh": 0, "author": ["Rex Reed"]},
{"text": "It's rare that you can enter a film with full confidence that everyone involved knows what they're doing, and they're going to be excellent doing it. And in that way, Logan Lucky is the ultimate caper.", "is_fresh": 1, "author": ["Rain Jokinen"]},
{"text": "Ocean's 7-Eleven, indeed. Amiable heist flick.", "is_fresh": 1, "author": ["James Verniere"]},
{"text": "It's good to have Soderbergh back, even if he never was really away.", "is_fresh": 1, "author": ["James Berardinelli"]},
{"text": "Steven Soderbergh's \"Logan Lucky,\" written by Rebecca Blunt, is a down-home heist movie that comes across like a Southern-fried variation of one of his \"Ocean's\" films.", "is_fresh": 1, "author": ["Peter Rainer"]},
{"text": "LOGAN LUCKY is a delight, peppered throughout with clever set-ups and pay-offs beset only by an over-abundance of characters. ", "is_fresh": 1, "author": ["Rubin Safaya"]},
{"text": "With a charmingly relatable cast of quirky losers...and a plot that unfolds like a Rube Goldberg construction, \"Logan Lucky\" is ideal summer entertainment.", "is_fresh": 1, "author": ["Laura Clifford"]},
{"text": "Trotting out a cast of high-caliber actors, all playing against type, Soderbergh spins a wily, joyous slice of Southern-fried outlaw adventure. ", "is_fresh": 1, "author": ["Phil Villarreal"]},
{"text": "Director Steven Soderbergh is back and firing on all cylinders in Logan Lucky, a Southern-fried heist comedy that is, like its main characters, smarter than it lets on.", "is_fresh": 1, "author": ["Sean P. Means"]},
{"text": "This movie does not aspire to greatness or significance; being extremely clever and thoroughly competent is the goal here.", "is_fresh": 1, "author": ["Robert Horton"]},
{"text": "The best heist film in years. ", "is_fresh": 1, "author": ["Gary Wolcott"]},
{"text": "The script, the direction and the performances work in concert like a souped-up muscle car.", "is_fresh": 1, "author": ["David Jenkins"]},
{"text": "Soderbergh's ace-in-the-hole has to be the young Farrah Mackenzie. When she has her big scene, no parent could resist the tug at their heart-strings. More than a heist comedy, \"Logan Lucky\" is an endearing father-daughter love story.", "is_fresh": 1, "author": ["Jonathan W. Hickman"]},
{"text": "A star-studded heist flick that calls to mind some of the eclectic director's most popular work even if it falters a bit at the end.", "is_fresh": 1, "author": ["Sonny Bunch"]},
{"text": "A slick, smarter-than-your-average-bear heist comedy that moves and grooves with all the hallmarks of a Soderbergh caper. He's back, baby.", "is_fresh": 1, "author": ["Adam Graham"]},
{"text": "The story here is clean and the characters very charming, and it doesn't fall into the trap of being smugly pleased with itself by overcomplicating matters (ahem, Ocean's Twelve).", "is_fresh": 1, "author": ["Wenlei Ma"]},
{"text": "'Logan Lucky' succeeds because Soderbergh shows not only respect for his characters, but reveals their hearts and souls. He gently pushes you to embrace them.", "is_fresh": 1, "author": ["Bob Bloom"]},
{"text": "Keough is a standout and Craig is a complete hoot. ", "is_fresh": 1, "author": ["Nell Minow"]},
{"text": "Intelligent, fun and well executed, we could even say that the film works as a \"Ocean's Fourteen\". [Full review in Spanish]", "is_fresh": 1, "author": ["Fico Cangiano"]},
{"text": "When the plot stops cold for a beauty-pageant performance of exquisite purity, you'll feel like you're watching the most American film of the year.", "is_fresh": 1, "author": ["Joshua Rothkopf"]},
{"text": "Didn't I read somewhere that Soderbergh had retired from filmmaking? This would be a perfect time for him to keep that promise.", "is_fresh": 0, "author": ["Michael Heaton"]},
{"text": "Logan Lucky is a crackerjack heist film that strongly echoes Soderbergh's other crackerjack heist franchise, but with a uniquely downmarket and genuinely affectionate charm all its own.", "is_fresh": 1, "author": ["Barry Hertz"]},
{"text": "Smart, clever and hilarious it is fun from start to finish line.", "is_fresh": 1, "author": ["Pete Hammond"]},
{"text": "It's a lark, if you can tolerate the hammy redneck accents, and confirms that Soderbergh is as agile as ever at knitting together all the moving parts of a complex heist.", "is_fresh": 1, "author": ["Sara Stewart"]},
{"text": "Steven Soderbergh, with his mysterious screenwriter Rebecca Blunt (reportedly the pseudonym of the director), and a great cast have fun in creating a twisty heist thriller with a sense of humor. ", "is_fresh": 1, "author": ["Robin Clifford"]},
{"text": "Soderbergh is in the mood for some fun, and so is a star-filled cast led by Channing Tatum, Adam Driver and Daniel Craig.", "is_fresh": 1, "author": ["Peter Howell"]},
{"text": "Amusing and big-hearted, Soderbergh delivers an entertaining tale of honour among thieves. ", "is_fresh": 1, "author": ["Adam Fresco"]},
{"text": "[T]he film is tightly constructed in its plotting, while also being loose enough in its focus to appreciate what clever and relatable characters it possesses.", "is_fresh": 1, "author": ["Mark Dujsik"]},
{"text": "[Soderbergh's] big-screen comeback, Logan Lucky, finds him taking the relatively easy option of the lighthearted heist movie, something he's always done well.", "is_fresh": 1, "author": ["David Stratton"]},
{"text": "The whole movie is a trick, reversing our expectations at nearly every turn and casting actors in roles that they were not exactly born to play, but do so with relish.", "is_fresh": 1, "author": ["David Edelstein"]},
{"text": "Steven Soderbergh has returned from a four-year motion-picture retirement to once again show us that when it comes to crafting robberies of high stakes-even ones involving the lower classes-he remains the slickest of them all.", "is_fresh": 1, "author": ["Tricia Olszewski"]},
{"text": "After four years of \"retirement\", Soderbergh shows that he is still in perfect shape. [Full review in Spanish]", "is_fresh": 1, "author": ["Mario Alegre"]},
{"text": "As sunny and implausible as an old-timer's anecdote, with a few hints at topicality that don't detract from its insouciance. It's fun for fun's sake. ", "is_fresh": 1, "author": ["Eric D. Snider"]},
{"text": "An original breath of fresh air. It's an unexpected delight.", "is_fresh": 1, "author": ["Bill Gibron"]},
{"text": "While Logan Lucky gives off the impression of a shaggy character-based comedy, such an assessment shortchanges how deliriously clever it is.", "is_fresh": 1, "author": ["Dominick Suzanne-Mayer "]},
{"text": "Who among us predicted that Channing Tatum would become a major actor, equally adept at light-fingered comedy and low-key contemporary dramas?", "is_fresh": 1, "author": ["Ken Eisner"]},
{"text": ". . .this Friday brings with it Logan Lucky, a southern-fried caper of virtuosic showmanship that, beneath its easygoing exterior, also succeeds at tapping into larger s...[ END HERE ]ocioeconomic concerns", "is_fresh": 1, "author": ["Nick Schager"]},
{"text": "Soderbergh's return to features is a redneck riff on his Ocean's 11, a cool breeze of summertime sweetness that restores the good name of movie escapism. Daniel Craig is off-the-chain hilarious.", "is_fresh": 1, "author": ["Peter Travers"]},
{"text": "Like the best of his movies, this heist film retains its essential shagginess despite the A-list stars headlining it, and it reminds us what a nifty flair the director has for light entertainment.", "is_fresh": 1, "author": ["Kristian M. Lin"]},
{"text": "As a hotly anticipated comeback, it feels like a slightly dippy, ultimately disposable warm-up of a director whose brains, chops and judicious taste we need more than ever.", "is_fresh": 0, "author": ["Ann Hornaday"]},
{"text": "\"Logan Lucky\" is his down-home version of the \"Ocean's\" franchise, with NASCAR instead of the Bellagio, but it's every bit as cheeky, fun and funny.", "is_fresh": 1, "author": ["Rafer Guzman"]},
{"text": "Essentially a red-state Ocean's Eleven - a fizzy, twisty Southern-fried heist flick that's more enjoyable the less you try to dissect it.", "is_fresh": 1, "author": ["Chris Nashawaty"]},
{"text": "Soderbergh rolls the dice with 'Logan Lucky' and comes up with a winner.", "is_fresh": 1, "author": ["Roger Tennis"]},
{"text": "Steven Soderberg's funny, underdog heist movie is a heartfelt paean to the kinds of Southern working-class whites normally caricatured as Confederate-flag-waving racists.", "is_fresh": 1, "author": ["Jason Di Rosso"]},
{"text": "The movie is smart and funny, though ultimately it's less noteworthy as an entertainment than as a marketing concept.", "is_fresh": 1, "author": ["J. R. Jones"]},
{"text": "The result is a breezy, slight, Southern-flavored movie where the cast appears to be having enough fun to prove mildly infectious.", "is_fresh": 1, "author": ["Brian Lowry"]},
{"text": "The script's vibe recalls Soderbergh's arch, knowing \"Ocean's\" movies, but also evokes older pictures such as \"Bank Shot\" in the early '70s or \"Who's Minding the Mint?\" in the late '60s.", "is_fresh": 1, "author": ["Michael Phillips"]},
{"text": "But the best part of Logan Lucky is that from the get-go you know you're in confident hands, and whatever's about to happen, it's going to be great.", "is_fresh": 1, "author": ["Alissa Wilkinson"]},
{"text": "If there is something wrong with \"Logan Lucky,\" I simply can't find it.", "is_fresh": 1, "author": ["Colin Covert"]},
{"text": "A nice change of pace for Soderbergh, who, for the first time in a long time, seems genuinely interested in providing an entertaining ride.", "is_fresh": 1, "author": ["Brian Orndorf"]},
{"text": "Perhaps \"Logan Lucky\" is best appreciated as a stealth commentary on tough times in America. It takes a director of Soderbergh's gifts to actually make that funny.", "is_fresh": 1, "author": ["Calvin Wilson"]},
{"text": "If it verges on being a little too pleased with itself for its own good, that's an acceptable price to pay for something that makes you smile.", "is_fresh": 1, "author": ["Kenneth Turan"]},
{"text": "In the very least, Hal Needham's Smokey and the Bandit films displayed a fair amount of affection amid the hamming for their shit-kicking rubes.", "is_fresh": 0, "author": ["Scott Marks"]},
{"text": "Heartfelt felicitations to [Steven] Soderbergh on his rebirth of the cool.", "is_fresh": 1, "author": ["Kimberley Jones"]},
{"text": "Jimmy's team is like a blue-collar mirror image of the Ocean's crew. But there's more going on here than a story about a bunch of amateurs attempting a complicated robbery. ", "is_fresh": 1, "author": ["Karen Gordon"]},
{"text": "A precision-tooled entertainment made by experts, and sometimes more than that. Watching it is like finding money in the pocket of a coat that you haven't worn in years.", "is_fresh": 1, "author": ["Matt Zoller Seitz"]},
{"text": "The glitz and glamour of the Ocean's trilogy is in a completely different area code than Logan Lucky, but Soderbergh's latest has the same terrific camaraderie and joy as those movies.", "is_fresh": 1, "author": ["Jack Giroux"]},
{"text": "I liked the movie - it's certainly well made, and a lot of fun - but I mostly found myself laughing at it, not with it.", "is_fresh": 1, "author": ["Bill Goodykoontz"]},
{"text": "Logan Lucky reminded me most of Howard Hawks' El Dorado. It has the tossed-off, casual sophistication of an old master's late work. ", "is_fresh": 1, "author": ["Sean Burns"]},
{"text": "Rating Soderbergh's back catalogue is like comparing apples and oranges and tractors, but this is in his top bracket. Welcome back, Mr Soderbergh.", "is_fresh": 1, "author": ["Matt Neal"]},
{"text": "A high-spirited hillbilly-heist caper with a dynamite, all-star ensemble cast.", "is_fresh": 1, "author": ["Neil Pond"]},
{"text": "It ... feels like the director is trying to reverse-engineer one of the Coen brothers' loopier excursions and not getting every one of the pieces in order. But he comes close.", "is_fresh": 1, "author": ["Ty Burr"]},
{"text": "A slick, surprising summer entertainment from a terrific director who's having a helluva time just keeping everyone laughing, and guessing.", "is_fresh": 1, "author": ["Stephen Whitty"]},
{"text": "The actors mostly lean hard on comical redneck accents, and the slow-moving plot features way too many leaps of logic.", "is_fresh": 0, "author": ["Josh Bell"]},
{"text": "Quite simply, one of the most sheerly enjoyable movies of the year....we're lucky to have [Soderbergh] back.", "is_fresh": 1, "author": ["Frank Swietek"]},
{"text": "So warmheartedly enthusiastic, it's hard not to get swept away with this group of not-so-average Joes.", "is_fresh": 1, "author": ["Katie Walsh"]},
{"text": "Logan Lucky may be more of the same. But more of the same, from Soderbergh, is what more summer movies should aspire to be.", "is_fresh": 1, "author": ["K. Austin Collins"]},
{"text": "Soderbergh smoothly glides us through this NASCAR world, emanating an old-fashioned Hal Needham vibe, but with greater character depth and extra IQ points.", "is_fresh": 1, "author": ["Dann Gire"]},
{"text": "Logan Lucky lands somewhere between Magic Mike and the Ocean's trilogy. Turns out, that's one hell of a sweet spot.", "is_fresh": 1, "author": ["Alison Willmore"]},
{"text": "I'm really glad Soderbergh's back doing what he does best. I didn't know how much I missed the guy.", "is_fresh": 1, "author": ["Norman Wilner"]},
{"text": "Logan Lucky is a hoot, a holler, a drag at times and doesn't know when to end but it's fun.", "is_fresh": 1, "author": ["Steve Persall"]},
{"text": "This one offers pleasures you won't find anywhere else.", "is_fresh": 1, "author": ["Chris Knight"]},
{"text": "So who really needs Logan Lucky? More to the point: Will they buy this in the South?", "is_fresh": 0, "author": ["Kelly Vance"]},
{"text": "Soderbergh is perhaps Hollywood's finest technician, and it's a pleasure to watch him tour his Vegas act through Appalachia.", "is_fresh": 1, "author": ["Chance Solem-Pfeifer"]},
{"text": "There's no question that the film is full of gentle, good-natured mockery of the sort of knucklehead culture that we call \"redneck\" but it's all very sympathetic -- more so, even, than a Jeff Foxworthy You May Be a Redneck If (filll in the blank) routine.", "is_fresh": 1, "author": ["Jeff Simon"]},
{"text": "Some will write off Logan Lucky as one of Soderbergh's most frivolous efforts, but that would be a mistake. ", "is_fresh": 1, "author": ["Travis Hopson"]},
{"text": "Logan Lucky is great fun and one of the most purely entertaining movies of the year.", "is_fresh": 1, "author": ["Richard Roeper"]},
{"text": "Mr. Soderbergh revels in squareness, and in a loose self-confidence that disguises its mastery. \"Logan Lucky\" is a terrific movie.", "is_fresh": 1, "author": ["A.O. Scott"]},
{"text": "I think that's a big part of what makes Logan Lucky a very fun movie: You're lost, you're lost, you're lost -- and then it all makes so much sense that you feel like you should have known what was happening all along.", "is_fresh": 1, "author": ["Chris Hewitt (St. Paul)"]},
{"text": "Independently financed and distributed by Soderbergh, Logan Lucky is a magnificent movie that comes disguised as a modest one. Or, as I like to call it, a Joe Bang.", "is_fresh": 1, "author": ["Stephanie Zacharek"]},
{"text": "An eccentric combo of scrappy crime caper and angular redneck comedy, Logan Lucky shouldn't work anywhere near well as it does.", "is_fresh": 1, "author": ["Leigh Paatsch"]},
{"text": "Soderbergh keeps the action light and playful, and lets the cast members find their own silliness within it.", "is_fresh": 1, "author": ["Moira MacDonald"]},
{"text": "Southern flavor, rampant goofiness and fun twangs go a long way in making director Steven Soderbergh's cinematic return such a sparkling hoot.", "is_fresh": 1, "author": ["Brian Truitt"]},
{"text": "For a fast and funny crime flick, Logan Lucky has plenty of grunt under the hood. ", "is_fresh": 1, "author": ["Travis Johnson"]},
{"text": "A fun and unpretentious romp that benefits from smart pacing, likeable characters and a stick-it-to-the-man undercurrent that helps keep things moving along.", "is_fresh": 1, "author": ["Mike Scott"]},
{"text": "It's a genuine effort by talented people that never quite comes off.", "is_fresh": 0, "author": ["Mick LaSalle"]},
{"text": "The whole thing comes together to form the best Burt Reynolds movie he never made.", "is_fresh": 1, "author": ["Gary Thompson"]},
{"text": "The endearing charm of the characters - along with a plot that teases the audience with just enough information to keep them wondering what's next - makes Logan Lucky a winner.", "is_fresh": 1, "author": ["Thaddeus McCollum"]},
{"text": "Sometimes, the only reason for doing anything is to have a little fun, and Soderbergh seems to be having a lot of it.", "is_fresh": 1, "author": ["April Wolfe"]},
{"text": "Steven Soderburgh's return to the big screen may look like an Ocean's reboot a la NASCAR, but don't you go thinking this is some smart alecky snobby spin. ", "is_fresh": 1, "author": ["Joanna Langfield"]},
{"text": "Having successfully pulled off three Danny Ocean cons, director Steven Soderbergh is looking for a new bank vault to plunder. Logan Lucky turns out to be a playfully subversive variation on the theme.", "is_fresh": 1, "author": ["Vicky Roach"]},
{"text": "Soderbergh's here to have fun, and his mood is contagious.", "is_fresh": 1, "author": ["Peter Canavese"]},
{"text": "Flaws aside, it is a darn good heist, and sure to leave you with a smile on your face. We should be glad Soderbergh is back, hopefully this time for good.", "is_fresh": 1, "author": ["Lindsey Bahr"]},
{"text": "An updated, more sophisticated take on those old Burt Reynold's seventies good ol'boy flicks. ", "is_fresh": 1, "author": ["Chris Bumbray"]},
{"text": "Soderbergh isn't exactly hiding a secret drama inside his barrel of laughs and twists. But his comeback project keeps quiet about being one of the sweetest, most affirming movies he's ever made.", "is_fresh": 1, "author": ["Jesse Hassenger"]},
{"text": "Logan Lucky is both a Robin Hood fantasy and a uniquely Soderberghian lark, an ensemble comedy that's simultaneously effervescent and cerebral. ", "is_fresh": 1, "author": ["Christopher Gray"]},
{"text": "If you'd like to see a blend of Ocean's 11 and Talladega Nights: The Ballad of Ricky Bobby, then Logan Lucky is for you.", "is_fresh": 1, "author": ["Scott Chitwood"]},
{"text": "Logan Lucky has the briskness and sheen of a professional, a man who, after years of restlessness, has become comfortable enough to simply tell a story with confidence, clarity and gusto.", "is_fresh": 1, "author": ["Will Leitch"]},
{"text": "The snappily-edited and uber-efficient working-class caper Logan Lucky is so ephemeral, its screenwriter may not even exist.", "is_fresh": 1, "author": ["Simon Miraudo"]},
{"text": "Fun, snappy and classically Soderbergh-ian delight with impeccable, Ocean's-like rhythms, shrewdly set against the everyday struggles of small-town America.", "is_fresh": 1, "author": ["Tomris Laffly"]},
{"text": "Four years after his self-imposed retirement, maverick director Steven Soderbergh takes the easy way out. Or, rather, back in. ", "is_fresh": 0, "author": ["Mara Reinstein"]},
{"text": "Clunky, tin-eared caper comedy that drips with contempt for its own characters. ", "is_fresh": 0, "author": ["Roger Moore"]},
{"text": "While even the film itself cites the heist as \"Ocean's 7-11\", it's got a flavor and energy all its own. It's a blast from start to finish.", "is_fresh": 1, "author": ["Matt Goldberg"]},
{"text": "Logan Lucky is a hoot. It's the sort of movie that allows you to laugh, relax and let everything wash over you... Everything is laid back - from the characters to the humour - and the payoff is delicious.", "is_fresh": 1, "author": ["Louise Keller"]},
{"text": "Logan Lucky is a hillbilly heist caper brimming with good natured humor.", "is_fresh": 1, "author": ["Julian Roman"]},
{"text": "Soderbergh shows here that the melding of mainstream storytelling and artful execution is possible.", "is_fresh": 1, "author": ["Jason Guerrasio"]},
{"text": "Logan Lucky is easygoing entertainment that, on occasion, gently brushes up against its stiffer real-world framing. I'm not sure the film is as successful in doing that as Magic Mike is, but it still makes for an intriguingly toned film.", "is_fresh": 1, "author": ["Richard Lawson"]},
{"text": "With his latest directorial effort, Soderbergh has made a film that not only constantly pokes fun at its own characters and their lives, but finds a way to imbue each of them with a soul and heart along the way.", "is_fresh": 1, "author": ["Alex Welch"]},
{"text": "Of course, there's a level of tactical sophistication to this kind of fantasy-crime scenario, but Blunt's screenplay scores many points by making the follow-through of the plan so damned pleasurable. ", "is_fresh": 1, "author": ["Robert Abele"]},
{"text": "Soderbergh executes his cine-comeback with \u00e9lan, aided by winning A-team work from Tatum, Driver and Craig.", "is_fresh": 1, "author": ["Kevin Harley"]},
{"text": "The kind of small-scale, shaggy dog story Hollywood rarely makes these days.", "is_fresh": 1, "author": ["Dave Schilling"]},
{"text": "Logan Lucky is one country-fried hootenanny of a heist thriller that goes off with a (Joe) Bang.", "is_fresh": 1, "author": ["Matt Donato"]},
{"text": "A purely auteur-driven lark slipped into an era when studios no longer want to work with directors with personality and pesky calls for final cut - a high entertainment with a handmade feel.", "is_fresh": 1, "author": ["Matt Prigge"]},
{"text": "Logan Lucky feels a lot like Oceans 14.", "is_fresh": 1, "author": ["Mike Ryan"]},
{"text": "This is a brilliantly constructed, whip-smart, and laugh-out-loud-funny romp from a filmmaker whose precision and craft is nearly unparalleled. ", "is_fresh": 1, "author": ["Drew Taylor"]},
{"text": "Steven Soderbergh's Logan Lucky is a high-spirited, low-down blast.", "is_fresh": 1, "author": ["Owen Gleiberman"]},
{"text": "Channing Tatum, working with Soderbergh for the fourth time, is at his sympathetic and charismatic best in Logan Lucky.", "is_fresh": 1, "author": ["Jordan Hoffman"]},
{"text": "Even if it needed one last push to make it truly exceptional, there's a lot to enjoy here. And Soderbergh once again attracts a cast it's a pleasure to spend time with.", "is_fresh": 1, "author": ["Andrew Lowry"]},
{"text": "This is a good-times film that doesn't put on airs, dress to impress or pretend to be something it isn't. It just aims to please and does a pretty good job of it.", "is_fresh": 1, "author": ["Todd McCarthy"]},
{"text": "This blue-collar \"Ocean's Eleven\" is a smooth-running, pleasantly familiar crime caper. In a movie full of cons, the greatest may be how deceptively easy Steven Soderbergh makes the whole enterprise seem.", "is_fresh": 1, "author": ["Tim Grierson"]},
{"text": "As the film teeters the line between ridiculous and generic screwball, the all-star cast dazzles to hilarious effect. ", "is_fresh": 1, "author": ["Clayton Davis"]},
{"text": "Logan Lucky embodies so much of what's made Steven Soderbergh that rare journeyman between arthouse and multiplex.", "is_fresh": 1, "author": ["Nick Newman"]},
{"text": "A heist comedy that reaffirms why Soderbergh belongs behind the movie camera.", "is_fresh": 1, "author": ["Oliver Whitney"]},
{"text": "Soderbergh returns from retirement with a silly heist movie that packs real soul. ", "is_fresh": 1, "author": ["David Ehrlich"]}
]