[
{"reviews_count": "26", "title": "Love After Love", "avg_audience_rating": "2.7", "rotten_count": "3", "tomatometer": "88", "audience_score": "45", "avg_critic_rating": "7.6", "fresh_count": "23", "user_ratings_count": "332"},
{"text": "A gorgeously wrought drama, and hard to believe it's only Harbaugh's first, but it buzzes from the anxious energy that comes from searching for what's next", "is_fresh": 1, "author": ["Stephen Saito"]},
{"text": "So what does Love After Love deliver? Performances. Harbaugh and Mendelsohn are less interested with plot than creating an environment to let their characters screw up.", "is_fresh": 1, "author": ["Jared Mobarak"]},
{"text": "I wish the pieces of Harbaugh's domestic jigsaw fit more elegantly together. Sometimes, it seems as if he's tripping into scenes the way a person might stumble into a darkened room before turning on the light.", "is_fresh": 0, "author": ["Robert Denerstein"]},
{"text": "The film is a bit messy at times, but considering the circumstances on screen, that seems appropriate.", "is_fresh": 1, "author": ["Todd Jorgenson"]},
{"text": "The story of Love After Love is one of grieving, and it's about that process in a specific, particularly sad sort of way.", "is_fresh": 1, "author": ["Mark Dujsik"]},
{"text": "Maybe the most damaging factor is that [director Russ] Harbaugh does nothing to establish that the paterfamilias, first seen in reasonably good health at a family gathering, is such an emotional touchstone to his wife and sons. ", "is_fresh": 0, "author": ["M. Faust"]},
{"text": "It's a film intentionally adrift, rambling between a loose succession of family gatherings and dinner parties with subdued style, the camera feeling like just another person at the edge of the room.", "is_fresh": 1, "author": ["Barbara VanDenburgh"]},
{"text": "An unflinching portrait of how grief can unravel a tightknit family in ways both banal and heart-wrenching.", "is_fresh": 1, "author": ["Christopher Kompanek"]},
{"text": "Challenging, unflinching and deeply honest.", "is_fresh": 1, "author": ["Katie Walsh"]},
{"text": "Yet this movie, for all its laudable aspects, left me wanting for more, a personally frustrating turn of events to say the least.", "is_fresh": 0, "author": ["Sara Michelle Fetters"]},
{"text": "Andie MacDowell [displays] one of the best performances of her career.", "is_fresh": 1, "author": ["Danielle Solzman"]},
{"text": "First-time director Russell Harbaugh presents grief as it is, in all its pain and ugliness, rather than using the convenient, uplifting short-hand that Hollywood prefers.", "is_fresh": 1, "author": ["James Berardinelli"]},
{"text": "I found it a great masochistic experience.", "is_fresh": 1, "author": ["David Edelstein"]},
{"text": "The three leads are particularly strong, with MacDowell getting a rare, meaty role.", "is_fresh": 1, "author": ["Stephen Whitty"]},
{"text": "This first-time feature from writer/director Russell Harbaugh has an understated, intimate, pointillist style, with a cool jazz score that matches its improvisational tone.", "is_fresh": 1, "author": ["Nell Minow"]},
{"text": "Central to the film's vision of love and loss is a certain realism marked by unshowy performances, un-stagy mise-en-sc\u00e8ne, and eye-level, frequently handheld camerawork.", "is_fresh": 1, "author": ["Jonah Jeng"]},
{"text": "Writer-director Russell Harbaugh's Love After Love is a remarkably cool-headed, composed piece of work.", "is_fresh": 1, "author": ["Carson Lund"]},
{"text": "Intimate, brittle tale of a family quietly spinning apart after the death of the patriarch. ", "is_fresh": 1, "author": ["Roger Moore"]},
{"text": "This unflinching debut feature from Russ Harbaugh delivers something rarely seen in American movies: a warts-and-all examination of extended grief.", "is_fresh": 1, "author": ["Jeannette Catsoulis"]},
{"text": "In its way, this small, handcrafted, and immaculately well-realized feature challenges the limited way that movies tend to depict loss.", "is_fresh": 1, "author": ["David Ehrlich"]},
{"text": "You'll want to watch Love After Love because it's something different. It throws out traditional narrative storytelling and portrays itself as real. Andie MacDowell is great as usual.", "is_fresh": 1, "author": ["Alan Ng"]},
{"text": "Harbaugh, with his subtle approach, renders this trio likable. He knows just when to burrow the camera in for jittery effect and when to relent.", "is_fresh": 1, "author": ["Sam Weisberg"]},
{"text": "Rarely have I watched a movie, hated it with an intense malevolence for every person involved and, then, only then, found myself blinking through tears.", "is_fresh": 1, "author": ["Andrew Karpan"]},
{"text": "Strong in its resolve, lyrically composed and poetically captured, Love After Love reminds that death isn't an end or beginning for those left behind, but a moment that defines what happens next.", "is_fresh": 1, "author": ["Allyson Johnson"]},
{"text": "Andie MacDowell and Chris O'Dowd are superb as a mother and son coping with grief in Russell Harbaugh's intimate, insightful indie drama.", "is_fresh": 1, "author": ["Nick Schager"]},
{"text": "Elegant and unsentimental, this is a minor-key, wintry ensemble piece with an emotional hold that sneaks up on you.", "is_fresh": 1, "author": ["David Rooney"]},
{"text": "A gorgeously wrought drama, and hard to believe it's only Harbaugh's first, but it buzzes from the anxious energy that comes from searching for what's next", "is_fresh": 1, "author": ["Stephen Saito"]},
{"text": "So what does Love After Love deliver? Performances. Harbaugh and Mendelsohn are less interested with plot than creating an environment to let their characters screw up.", "is_fresh": 1, "author": ["Jared Mobarak"]},
{"text": "I wish the pieces of Harbaugh's domestic jigsaw fit more elegantly together. Sometimes, it seems as if he's tripping into scenes the way a person might stumble into a darkened room before turning on the light.", "is_fresh": 0, "author": ["Robert Denerstein"]},
{"text": "The film is a bit messy at times, but considering the circumstances on screen, that seems appropriate.", "is_fresh": 1, "author": ["Todd Jorgenson"]},
{"text": "The story of Love After Love is one of grieving, and it's about that process in a specific, particularly sad sort of way.", "is_fresh": 1, "author": ["Mark Dujsik"]},
{"text": "Maybe the most damaging factor is that [director Russ] Harbaugh does nothing to establish that the paterfamilias, first seen in reasonably good health at a family gathering, is such an emotional touchstone to his wife and sons. ", "is_fresh": 0, "author": ["M. Faust"]},
{"text": "It's a film intentionally adrift, rambling between a loose succession of family gatherings and dinner parties with subdued style, the camera feeling like just another person at the edge of the room.", "is_fresh": 1, "author": ["Barbara VanDenburgh"]},
{"text": "An unflinching portrait of how grief can unravel a tightknit family in ways both banal and heart-wrenching.", "is_fresh": 1, "author": ["Christopher Kompanek"]},
{"text": "Challenging, unflinching and deeply honest.", "is_fresh": 1, "author": ["Katie Walsh"]},
{"text": "Yet this movie, for all its laudable aspects, left me wanting for more, a personally frustrating turn of events to say the least.", "is_fresh": 0, "author": ["Sara Michelle Fetters"]},
{"text": "Andie MacDowell [displays] one of the best performances of her career.", "is_fresh": 1, "author": ["Danielle Solzman"]},
{"text": "First-time director Russell Harbaugh presents grief as it is, in all its pain and ugliness, rather than using the convenient, uplifting short-hand that Hollywood prefers.", "is_fresh": 1, "author": ["James Berardinelli"]},
{"text": "I found it a great masochistic experience.", "is_fresh": 1, "author": ["David Edelstein"]},
{"text": "The three leads are particularly strong, with MacDowell getting a rare, meaty role.", "is_fresh": 1, "author": ["Stephen Whitty"]},
{"text": "This first-time feature from writer/director Russell Harbaugh has an understated, intimate, pointillist style, with a cool jazz score that matches its improvisational tone.", "is_fresh": 1, "author": ["Nell Minow"]},
{"text": "Central to the film's vision of love and loss is a certain realism marked by unshowy performances, un-stagy mise-en-sc\u00e8ne, and eye-level, frequently handheld camerawork.", "is_fresh": 1, "author": ["Jonah Jeng"]},
{"text": "Writer-director Russell Harbaugh's Love After Love is a remarkably cool-headed, composed piece of work.", "is_fresh": 1, "author": ["Carson Lund"]},
{"text": "Intimate, brittle tale of a family quietly spinning apart after the death of the patriarch. ", "is_fresh": 1, "author": ["Roger Moore"]},
{"text": "This unflinching debut feature from Russ Harbaugh delivers something rarely seen in American movies: a warts-and-all examination of extended grief.", "is_fresh": 1, "author": ["Jeannette Catsoulis"]},
{"text": "In its way, this small, handcrafted, and immaculately well-realized feature challenges the limited way that movies tend to depict loss.", "is_fresh": 1, "author": ["David Ehrlich"]}
]