[
{"reviews_count": "181", "title": "Mean Girls", "avg_audience_rating": "  3", "rotten_count": "30", "tomatometer": "83", "audience_score": "66", "avg_critic_rating": "6.9", "fresh_count": "151", "user_ratings_count": "32,167,538"},
{"text": "Mean Girls is not only of the one most enjoyable films of the 21st century but it is also one that explores the wonderful comedic potential of women.", "is_fresh": 1, "author": ["Hannah Ryan"]},
{"text": "When the film is following the twists and turns of the mean girl schemes, it has an energy and a life that is fun and entertaining but it gets soft and sappy with a feel good finale that is pure grade A-bullshit.", "is_fresh": 0, "author": ["Dorothy Woodend"]},
{"text": "Fizzes with peculiarly feminine evil, of the kind that comes dripping through a pillowy smirk garnished with baby-pink lipgloss.", "is_fresh": 1, "author": ["Jenny McCartney"]},
{"text": "The best of the recent clutch of teen movies, Mean Girls also represents a return to form for the filmmaking wing of Saturday Night Live.", "is_fresh": 1, "author": []},
{"text": "Mature but often-hilarious teen comedy.", "is_fresh": 1, "author": ["Nell Minow"]},
{"text": "Lindsay Lohan is more likely to die before 30 than to land another lead role as suited to her (likely squandered) talent. Tina Fey's script is an observant equal-opportunity offender about how high school remains a jungle of hormones and haughtiness.", "is_fresh": 1, "author": ["Nick Rogers"]},
{"text": "Like Heathers with the edges filed down a bit...the kind of smooth, clever (and rare) entertainment that critics and audiences can all enjoy, guilt-free. [Blu-ray]", "is_fresh": 1, "author": ["Peter Canavese"]},
{"text": "A very intelligent, often funny, well written and clever satire on high school and its status quo...", "is_fresh": 1, "author": ["Felix Vasquez Jr."]},
{"text": "The film boasts a solidly female cast, and its' a well cast film at that.", "is_fresh": 1, "author": ["Kevin Carr"]},
{"text": "Like the wannabes at North Shore, Mean Girls longs to take a step beyond the ordinary, but it takes the easier, more traditional route instead.", "is_fresh": 0, "author": ["John J. Puccio"]},
{"text": "Though better written, better acted and with more wit and subtlety than your average teen flick, the atmosphere in Mean Girls with its promiscuous sex and well, meanness, make it almost as nasty to sit through as these girls are to each other.", "is_fresh": 0, "author": ["Steven D. Greydanus"]},
{"text": "A lively and upbeat teen comedy that grapples with social dynamics, Mean Girls is fresh, spicy and laden with plenty of tang.", "is_fresh": 1, "author": ["Urban Cinefile Critics"]},
{"text": "It's not a classic, but it's an above-average and refreshingly smart teen comedy.", "is_fresh": 1, "author": ["Joe Lozito"]},
{"text": "It announces the arrival of Tina Fey into the ranks of smart screenwriters.", "is_fresh": 1, "author": ["Rob Gonsalves"]},
{"text": "Lacks the genuine bile that made Heathers so bracing.", "is_fresh": 0, "author": ["J. R. Jones"]},
{"text": "Props to Tina Fey for being the first cast member since Mike Myers in Wayne's World to survive her movie being produced by Saturday Night Live boss Lorne Michaels -- and not also have her movie completely suck.", "is_fresh": 1, "author": ["Eric Melin"]},
{"text": "Mean Girls lacks sincerity, and instead acts like any teenage queen bee -- being cruel and picking on the weak -- only to then break its own rules and be hypocritical.", "is_fresh": 0, "author": ["Todd Hertz"]},
{"text": "Happily, Fey and Waters gently tweak the studios' usual high-gloss caricature of adolescence and aim for acutely hilarious and surprisingly empathic sociology.", "is_fresh": 1, "author": ["Jessica Winter"]},
{"text": "The stinging wit of first-time screenwriter Tina Fey gives Mean Girls a zest and zing few high school comedies ever muster.", "is_fresh": 1, "author": ["Jeffrey M. Anderson"]},
{"text": "It is precisely intelligence, and Fey's refusal to talk down to her audience, that elevates Mean Girls above most other teen movies out there.", "is_fresh": 1, "author": ["Christopher Zinsli"]},
{"text": "The movie is smart and perceptive about the messages our culture sends to young women, and about how they, like all of us, tend to respond in predictable ways.", "is_fresh": 1, "author": ["Jeremy C. Fox"]},
{"text": "Nails the \"survival of the fittest\" mentality that permeates high school social life.", "is_fresh": 1, "author": ["Nick Schager"]},
{"text": "Has the truth-exposing agenda of Election and almost as much bite.", "is_fresh": 1, "author": ["Jeffrey Chen"]},
{"text": "The distributors didn't try to rook impatient people by first releasing a \"Plain Jane\" edition then waiting six months to release this one.", "is_fresh": 1, "author": ["Sandy Maynard"]},
{"text": "Fey's script is brilliant. Waters' direction is inspired. This film has pace,...This is a funny, enjoyable film. ", "is_fresh": 1, "author": ["Tony Medley"]},
{"text": "Tina Fey turns gag-me cliches into something fresh, edgy and laugh-out-loud funny.", "is_fresh": 1, "author": ["Mark Robison"]},
{"text": "This movie should be required viewing for all adolescent girls and their parents.", "is_fresh": 1, "author": ["Sarah Chauncey"]},
{"text": "Certainly no film for the ages, but it does have its moments.", "is_fresh": 1, "author": ["Lewis Beale"]},
{"text": "A smart little teen picture that, for a change, actually features recognizable teens.", "is_fresh": 1, "author": ["Peter Rainer"]},
{"text": "a fascinatingly adroit dissection of high school culture", "is_fresh": 1, "author": ["James Kendrick"]},
{"text": "Kind of makes you wish you were back at school. Kind of.", "is_fresh": 1, "author": ["Harry Guerin"]},
{"text": "I would be more amused if the topic of rich material girls had not been worn to a thread elsewhere.", "is_fresh": 0, "author": ["Anthony Lane"]},
{"text": "One of those rare treasures, a well-written teen comedy.", "is_fresh": 1, "author": ["Robert Roten"]},
{"text": "Fey's stinging wit has been reined in to secure a PG-13 rating, it's still cuts above The Ladies Man and the awful A Night at the Roxbury.", "is_fresh": 1, "author": ["Judith Egerton"]},
{"text": "Frequently hilarious teen comedy with a witty script and likeable characters -- this is further proof that Lindsay Lohan is fast becoming THE teen star of the noughties.", "is_fresh": 1, "author": ["Matthew Turner"]},
{"text": "The girls may be mean, but I've got nothing nasty to say about this praise-worthy flick.", "is_fresh": 1, "author": ["Mike Sage"]},
{"text": "There's nothing here you won't have seen a million times before, but -- despite its shortcomings -- it's still one of the better teen movies to come along in a while.", "is_fresh": 1, "author": ["Caroline Westbrook"]},
{"text": "Proof that Hollywood occasionally gets it right", "is_fresh": 1, "author": ["Wendy Ide"]},
{"text": "Far from perfect, but it has brains beneath its glossy, vacuum-packed beauty.", "is_fresh": 1, "author": ["Nev Pierce"]},
{"text": "More wholesome than mean, but still very funny (if you can stomach the homespun moral at the end).", "is_fresh": 1, "author": ["Anton Bitel"]},
{"text": "I've seen worse and other than a teenager, I really don't know who to recommend this movie for. And even then you may have wished that you waited to rent it.", "is_fresh": 0, "author": ["Kamal 'The Diva' Larsuel"]},
{"text": "Lindsay Lohan continues to impress as a former child star walking the tightrope toward adulthood.", "is_fresh": 1, "author": ["Lori Hoffman"]},
{"text": "A teen movie I enjoyed enormously, much to my surprise.", "is_fresh": 1, "author": ["Andrew Sarris"]},
{"text": "Does Mean Girls screenwriter Tina Fey want to throw George W. Bush under the wheels of a bus?", "is_fresh": 1, "author": ["Martin Scribbs"]},
{"text": "Surpreende o espectador, que, ao final da proje\u00e7\u00e3o, descobre que realmente se importou com aqueles personagens.", "is_fresh": 1, "author": ["Pablo Villa\u00e7a"]},
{"text": "\"Mean Girls,\" in all its episodic parts, has the air of a memoir, and it likely will feel sufficiently familiar to some of those who watch.", "is_fresh": 1, "author": ["Christopher Smith"]},
{"text": "Trafficking unknowingly in stale teen girl flick clich\u00e9s and failing to maintain a narrative flow past the hour mark, Mean Girls is a disappointment.", "is_fresh": 0, "author": ["Brian Orndorf"]},
{"text": "...a lean, mean entertainment that manages to be both playful and subversive while exhibiting plenty of mainstream appeal.", "is_fresh": 1, "author": ["Lance Goldenberg"]},
{"text": "All readers who ever have been teen-agers: Raise your hands. You're the ones who should see \"Mean Girls.\"", "is_fresh": 1, "author": ["Linda Cook"]},
{"text": "The cinematic equivalent of a funny and sick yearbook collage.", "is_fresh": 1, "author": ["Jimmy O"]},
{"text": "[Fey] has confessed to being a geeky type who delivered caustic scorn... The problem is that this same scorn is directed at the Plastics, which prevents the movie from engaing some larger truths about its deconstruction of the social milieu.", "is_fresh": 0, "author": ["Stephen Himes"]},
{"text": "Tina Fey's screenplay maintains an excellent balance between cutting social commentary and plain good old fashioned fun.", "is_fresh": 1, "author": ["Brian Webster"]},
{"text": "Lindsay Lohan is great here.", "is_fresh": 1, "author": ["Glen Bucher"]},
{"text": "Saturday Night Live scribe Tina Fey can officially pat herself on the back.", "is_fresh": 1, "author": ["Tyler Hanley"]},
{"text": "I sense the movie is payback time for Fey: She's just as bitchy as the Plastics are, and at least the Plastics don't push their rivals in front of trucks.", "is_fresh": 0, "author": ["Thomas Delapa"]},
{"text": "High school social hierarchy gets a bright and funny treatment.", "is_fresh": 1, "author": ["Mark Palermo"]},
{"text": "Mean Girls\" is a rich and raunchy laugh riot.", "is_fresh": 1, "author": ["Tony Toscano"]},
{"text": "There's a precision and an uncanny sense of insider knowledge at work that causes Mean Girls to be very funny and a startlingly perceptive look at life in high school.", "is_fresh": 1, "author": ["Ken Hanke"]},
{"text": "Mind you, I'm not quite prepared to elevate the team of Waters-Lohan to the level of Kurosawa-Mifune or Scorsese-De Niro, but they've clearly got a good thing going.", "is_fresh": 1, "author": ["Matt Brunson"]},
{"text": "Perhaps the meanness of the girls at Evanstown HS reflects the maliciousness of the U.S. presidential campaign!", "is_fresh": 1, "author": ["Harvey S. Karten"]},
{"text": "Not as consistently funny as 'Heathers' or corrosive as 'Election,' but usually hilarious and occasionally chilling in its observations of 'Girl World.'", "is_fresh": 1, "author": ["Jonathan R. Perry"]},
{"text": "Mean Girls dips itself into the acidity of the 1989 cult favorite Heathers just long enough to give this smart teen comedy a delicious bite.", "is_fresh": 1, "author": ["Jeffrey Bruner"]},
{"text": "Steers toward familiar teen-movie hyperbole, but it's the way the girls plot their sabotage while doling out empty compliments that keeps things real.", "is_fresh": 1, "author": ["Peter Debruge"]},
{"text": "High school girls are \"mean\" but not in the biting \"SNL\" way you expect ", "is_fresh": 0, "author": ["Jackie K. Cooper"]},
{"text": "Lohan does what all great stars have to do, blend animal sex appeal with quantifiable acting skills.", "is_fresh": 1, "author": ["D.K. Holm"]},
{"text": "Refreshing, astute.", "is_fresh": 1, "author": ["Susan Granger"]},
{"text": "A surprisingly sweet love letter to teenage gals. ", "is_fresh": 1, "author": ["Beth Jones"]},
{"text": "Sports a wicked script with scathing insight and humor rarely seen in teen comedies.", "is_fresh": 1, "author": ["Audrey Rock-Richardson"]},
{"text": "This film was a blast.", "is_fresh": 1, "author": ["Vince Koehler"]},
{"text": "An inoffensive chick flick with an intelligent sense of humor.", "is_fresh": 1, "author": ["Dennis Schwartz"]},
{"text": "Mean Girls is the smartest, funniest, most observant comedy about teenagers in a long time.", "is_fresh": 1, "author": ["Mike McGranaghan"]},
{"text": "You might expect this clique comedy to have some bite. It does, in moments -- but not enough to elevate Mean Girls above the pack of teen fare.", "is_fresh": 0, "author": ["Marrit Ingman"]},
{"text": "Could be a new classic of the teen genre.", "is_fresh": 1, "author": ["Dustin Putman"]},
{"text": "Yet, while humorously exaggerated, the movie strives to make a point: That for young girls to expect respect from their male peers, they first have to respect each other. ", "is_fresh": 1, "author": ["Bob Bloom"]},
{"text": "Mean Girls isn't a particularly deep picture, but it does have some weight and ballast.", "is_fresh": 1, "author": ["Stephanie Zacharek"]},
{"text": "Fey's mix of bromide and bile is no mean feat.", "is_fresh": 0, "author": ["Peter Keough"]},
{"text": "Glistening behind a shiny Barbie Doll smile, she's completely unafraid to kiss you on the cheek while planting a knife square in your back.", "is_fresh": 1, "author": ["Sara Michelle Fetters"]},
{"text": "The most brutally funny teen movie since Heathers.", "is_fresh": 1, "author": ["Sean P. Means"]},
{"text": "...a wicked and wily commentary on feminine teenage torture...armed with savage wit and a snappy attitude to match...a smart and sassy gem", "is_fresh": 1, "author": ["Frank Ochieng"]},
{"text": "A surprisingly witty and edgy teen comedy.", "is_fresh": 1, "author": ["Kevin N. Laforest"]},
{"text": "Mean Girls has a sharp, grown-up sensibility that belies its marketing as airhead comedy.", "is_fresh": 1, "author": ["Michael O'Sullivan"]},
{"text": "Boasts a one-two-three punch in star Lindsay Lohan, screenwriter Tina Fey and director Mark Waters, and, indeed, it delivers a knockout.", "is_fresh": 1, "author": ["Ann Hornaday"]},
{"text": "Girls, which gets funnier as it goes, is [Lorne Michaels'] best since 1992's Wayne's World.", "is_fresh": 1, "author": ["Mike Clark"]},
{"text": "Director Mark Waters (whose brother, Daniel, wrote Heathers) strikes a carefully calibrated balance between the film's darkly malicious sense of humor and its pastel sets and costumes.", "is_fresh": 1, "author": ["Angel Cohn"]},
{"text": "It all seems, finally, as if Fey is pulling her punches, an unusually defensive posture for her.", "is_fresh": 0, "author": ["Peter Howell"]},
{"text": "Like the beast it sets out to analyze, the film is defeated by its dual identity: drama and comedy.", "is_fresh": 0, "author": ["Tenley Woodman"]},
{"text": "[Lindsay] Lohan and her fellow cast members give thoroughly engaging, likable performances, but the real star here is Fey. As SNL fans know, this writer is not a mean girl, just a very smart and funny one.", "is_fresh": 1, "author": ["Deborah Hornblow"]},
{"text": "Waters tries for a tone that mixes dark humor and emotional realism, and he often finds it.", "is_fresh": 1, "author": ["Robert Denerstein"]},
{"text": "Tart and refreshing, Mean Girls is the kind of high-school movie that really feels as if it's for grown-ups -- but hey, the teens can come, too.", "is_fresh": 1, "author": ["Moira MacDonald"]},
{"text": "Fey has crafted what would seem to be an impossibility: a bawdy, uproarious, entertaining teen comedy that successfully delivers a worthwhile message.", "is_fresh": 1, "author": ["Larry Carroll"]},
{"text": "A smart little comedy that tries, within the limits of the teen-movie form, to say some real things about high school girls and the struggle for popularity.", "is_fresh": 1, "author": ["Mick LaSalle"]},
{"text": "Parts of it are quite funny. So, go fetch.", "is_fresh": 1, "author": ["David Elliott"]},
{"text": "This is the best film of its kind since Amy Heckerling's Clueless.", "is_fresh": 1, "author": ["Joe Baltake"]},
{"text": "undoubtedly the best teen comedy ever adapted from a sociological study... this anti-fairy tale should serve as a wake-up call to any Sleeping Beauties in the audience. ", "is_fresh": 1, "author": ["James Sanford"]},
{"text": "Fey subverts formula to find comic gold.", "is_fresh": 1, "author": ["Peter Travers"]},
{"text": "Waters keeps the film brisk, entertaining and edgy, successfully sidestepping any temptation to preach.", "is_fresh": 1, "author": ["Jack Garner"]},
{"text": "Mean Girls is a hysterical comedy about high school cliques, and may be the best teen satire since Heathers (1989).", "is_fresh": 1, "author": ["Daniel M. Kimmel"]},
{"text": "The Tina Fey-written bits make for good absurdist cinema, lifting the film from being too potentially feel-goodish.", "is_fresh": 1, "author": ["Kim Morgan"]},
{"text": "The social situations will be tellingly familiar to anyone who's been to high school, girls especially.", "is_fresh": 1, "author": ["Gary Thompson"]},
{"text": "Though dramatically inconsistent, the movie clearly grasps the subtle nuances of the pubescent pecking order. Plus, it's funny -- more often than not, anyway.", "is_fresh": 1, "author": ["Steve Schneider"]},
{"text": "It's that rare teen comedy that both teens and former teens can enjoy.", "is_fresh": 1, "author": ["Jay Boyar"]},
{"text": "Packed with enough trenchant observations of teen life to make you laugh and wince in equal measure.", "is_fresh": 1, "author": ["Karen Karbo"]},
{"text": "Takes on issues of self-loathing, body image, competition and female sabotage. Even better, it does it with a smile.", "is_fresh": 1, "author": ["Stephen Whitty"]},
{"text": "It's an improvement over the dire Confessions of a Teenage Drama Queen, but Mean Girls is nowhere near as satisfying as Freaky Friday.", "is_fresh": 0, "author": ["Lou Lumenick"]},
{"text": "[Fey's] snappy script and the deft direction of Mark Waters, who did Freaky Friday, keep the laughs coming.", "is_fresh": 1, "author": ["Elizabeth Weitzman"]},
{"text": "Though it revels in petty, malicious humor -- and is far more effective than most Hollywood looks at high school hell -- this comedy about adolescent exclusion possesses a big, accepting heart.", "is_fresh": 1, "author": ["Bob Strauss"]},
{"text": "Once you get past a few killer jokes, it's a rather uninspired affair that rarely engages the emotions while recycling most of the clich\u00e9s we've come to expect from the high school genre.", "is_fresh": 0, "author": ["Robert W. Butler"]},
{"text": "Generally smart and often very funny. And there is a pearl of wisdom or two in there among the laughs.", "is_fresh": 1, "author": ["Liz Braun"]},
{"text": "There are laughs and lessons in this one for everyone, which is why it goes straight to the head of the class.", "is_fresh": 1, "author": ["Louis B. Hobson"]},
{"text": "With colorful characters and snappy performances, Mean Girls is a rare laugh-out-loud film.", "is_fresh": 1, "author": ["Bruce Westbrook"]},
{"text": "Lohan ... is a good reactive young actress, and London, Ont., native Rachel McAdams is excellently evil.", "is_fresh": 1, "author": ["Liam Lacey"]},
{"text": "It's good for some laughs. And that's all it intends to be.", "is_fresh": 1, "author": ["Tom Long"]},
{"text": "The funniest, most unassumingly subversive teen movie since 2000's Bring It On.", "is_fresh": 1, "author": ["Terry Lawson"]},
{"text": "The film comes as a refreshing breath of air from its star, Lindsay Lohan.", "is_fresh": 1, "author": ["Jeff Vice"]},
{"text": "Fey may be going for wickedly funny, but alas, she stops at wicked.", "is_fresh": 0, "author": ["Michael Booth"]},
{"text": "In a wasteland of dumb movies about teenagers, Mean Girls is a smart and funny one.", "is_fresh": 1, "author": ["Roger Ebert"]},
{"text": "Waters' pacing is off and the revenge never builds a satisfying momentum.", "is_fresh": 0, "author": ["Christine James"]},
{"text": "The movie is always entertaining and frequently smart about the new ground one girl will break to humiliate another.", "is_fresh": 1, "author": ["Wesley Morris"]},
{"text": "Mean Girls is Heathers sanitized for your middle-schooler's protection.", "is_fresh": 1, "author": ["Jeffrey Westhoff"]},
{"text": "Benefits immensely from screenwriter Tina Fey's unique insight.", "is_fresh": 1, "author": ["Sean O'Connell"]},
{"text": "These girls make the animals in Africa look like the belong in a petting zoo - props to Tina Fey for writing a script that's smarter than your usual teenage fare.", "is_fresh": 1, "author": ["Cherryl Dawson and Leigh Ann Palone"]},
{"text": "Fey balances cartoonish gags with plenty of cleverness ... which makes the trauma and laughs ring true.", "is_fresh": 1, "author": []},
{"text": "Fey's screenplay pulses with authenticity and satirical juice.", "is_fresh": 1, "author": ["Phil Villarreal"]},
{"text": "A very welcome departure from the vapid, market-tested product that normally acts as Teen Fodder, and it's absolutely one of this year's biggest surprises.", "is_fresh": 1, "author": ["Scott Weinberg"]},
{"text": "High school's cruel combats make for a funny, smart-stupid comedy from the poison pen of Saturday Night Live genius Tina Fey.", "is_fresh": 1, "author": ["James Rocchi"]},
{"text": "Fitting that one of the themes is finding your individuality because this is the film where Lohan will begin to separate herself from the Hilary Duffs & Mandy Moores.", "is_fresh": 1, "author": ["Erik Childress"]},
{"text": "There are some big laughs, but it lacks that final burst of inspiration to send it over the fences.", "is_fresh": 0, "author": ["Peter Sobczynski"]},
{"text": "It's what would happen if you took a John Hughes film, removed the sap, heightened the laughs, and pitched everything just a wee bit darker.", "is_fresh": 1, "author": ["Eric D. Snider"]},
{"text": "This is definitely a cut above the rest of the growing teen-girl subgenre.", "is_fresh": 1, "author": ["Sue Pierman"]},
{"text": "Originality is never the point of an entertainment like this; the point is that director Mark Waters, who capably guided Lohan through last year's Freaky Friday, has specific marks to hit in Mean Girls, and he hits them with confidence.", "is_fresh": 1, "author": ["Manohla Dargis"]},
{"text": "If it didn't cop out with a sappy ending, people might be talking about it as if it were Heathers or Election.", "is_fresh": 1, "author": ["Jon Popick"]},
{"text": "Sadly, much like an SNL sketch, Mean Girls starts off sharp and juicy, then runs out of gas halfway through.", "is_fresh": 0, "author": ["Ellen Kim"]},
{"text": "This tart and often charming new comedy is a version of the heart-of-darkness teen social comedy Heathers for the tweener audience.", "is_fresh": 1, "author": ["Elvis Mitchell"]},
{"text": "Mean Girls is a spiffy morality play set in a Midwestern high school about the sharp edges of gossip and the cruelty of cliques. ", "is_fresh": 1, "author": ["Frederic and Mary Ann Brussat"]},
{"text": "SNL alumnus Tina Fey adapts author Rosalind Wiseman's popular guide...and hits one out of the park", "is_fresh": 1, "author": ["Robin Clifford"]},
{"text": "Ruthlessly on target. ", "is_fresh": 1, "author": ["Victoria Alexander"]},
{"text": "This deliciously twisted teen comedy crosses the cliques and makeovers of Clueless with the politics of Heathers. ", "is_fresh": 1, "author": ["Laura Clifford"]},
{"text": "Lohan, who intrepidly filled Hayley Mills' sneakers in the remake of The Parent Trap and butted heads with Jamie Lee Curtis in Freaky Friday, has grown into an accomplished and beautiful actress.", "is_fresh": 1, "author": ["Eleanor Ringel Cater"]},
{"text": "Mean Girls is the kind of film that teens actually should see, one which treats them with respect while being wickedly entertaining.", "is_fresh": 1, "author": ["Josh Bell"]},
{"text": "Often clever and insightful.", "is_fresh": 1, "author": ["Philip Wuntch"]},
{"text": "Displaying a rare mix of humor and heart, Mean Girls deserves mention along with such coming-of-age favorites as Girls Just Want to Have Fun and Sixteen Candles.", "is_fresh": 1, "author": ["Bill Muller"]},
{"text": "Even at its squarest, the movie's mixture of parody and therapy feels kind of... hip.", "is_fresh": 1, "author": ["David Edelstein"]},
{"text": "A trenchantly observed, bitingly witty comedy about just how mean girls can be.", "is_fresh": 1, "author": ["Phoebe Flowers"]},
{"text": "Mean Girls does the 'wicked teen girl movie' subgenre justice.", "is_fresh": 1, "author": ["Rebecca Murray"]},
{"text": "Not every barb hits the bull's-eye, but there's a higher ratio of gags to laughs than I've found in almost any comedy this year.", "is_fresh": 1, "author": ["David Sterritt"]},
{"text": "While I'm not sure Fey's script ever totally transcends the Clueless-like genre into which it dips, it gives great belly laughs on the sly.", "is_fresh": 1, "author": ["Joshua Tyler"]},
{"text": "While Mean Girls never loses its sarcastic edge, it does...beat into the ground (its) central themes of open communication and self-esteem.", "is_fresh": 1, "author": ["Rob Blackwelder"]},
{"text": "A very original, funny and highly accurate dissection of the teen girl world.", "is_fresh": 1, "author": ["Jeff Otto"]},
{"text": "There is much that is fresh and sharp in this movie. But it has an uncertain hold on its plot and ends up pulling some of its punches.", "is_fresh": 1, "author": ["Nell Minow"]},
{"text": "Fey's script balances acid humor and a sweet understanding that the viciousness of high school is good preparation for life.", "is_fresh": 1, "author": ["Chris Hewitt (St. Paul)"]},
{"text": "What it lacks in freshness ... Mean Girls makes up for with its shrewd insights into the female adolescent psyche and all its accompanying neuroses.", "is_fresh": 1, "author": ["Rene Rodriguez"]},
{"text": "Beyond the philosophizing, Mean Girls is a standard collection of low comic jokes ... and a vindication / revenge fantasy directed at moviegoers who are still sad the popular kids didn't like them back in the day.", "is_fresh": 0, "author": ["Lawrence Toppman"]},
{"text": "This is a witty little movie, but a kind coda can't erase its withering bite.", "is_fresh": 0, "author": ["Karen Heller"]},
{"text": "Proves to be less than the sum of its parts, but when it rocks, it rocks you silly.", "is_fresh": 1, "author": ["Jan Stuart"]},
{"text": "It's hard to find something nice to say about Mean Girls.", "is_fresh": 0, "author": ["Jeff Strickler"]},
{"text": "...dissects contemporary adolescence with a withering precision.", "is_fresh": 1, "author": ["Josh Larsen"]},
{"text": "It's as if Waters assembled a bunch of performers ... who were born to be thorns in the flesh of the status quo, and instructed them to remain calm at all times and pursue the happy, morally uplifting ending.", "is_fresh": 0, "author": ["Ella Taylor"]},
{"text": "Though not a perfect comedy, it manages to be quite often laugh-out-loud funny.", "is_fresh": 1, "author": ["Robert K. Elder"]},
{"text": "Looking out over her new environment, Cady wonders whether she will ever fit in. Looking with her, you can only hope she doesn't. ", "is_fresh": 1, "author": ["Cynthia Fuchs"]},
{"text": "A slightly above-average teen comedy.", "is_fresh": 1, "author": ["JoBlo"]},
{"text": "Genuinely spiky and amusing...much sharper and funnier than most movies of its ilk.", "is_fresh": 1, "author": ["Frank Swietek"]},
{"text": "Mean Girls is hilarious, brilliant and amazing. See it this weekend. Twice.", "is_fresh": 1, "author": ["Willie Waffle"]},
{"text": "falls into the category of teen fare that's better than you'd expect", "is_fresh": 1, "author": ["David Thomas"]},
{"text": "You gotta love a film that poses the vital question: 'Is butter a carb?'", "is_fresh": 1, "author": ["Gregory Weinkauf"]},
{"text": "A harbinger of hope not only for future feminist comedies of any grit but also for SNL-staffed feature films that don't disproportionately suck.", "is_fresh": 1, "author": ["Lisa Schwarzbaum"]},
{"text": "Tina Fey's script never quite manages to rise above teen-comedy cliches, but Fey injects the familiar story with wit and some surprising insight.", "is_fresh": 1, "author": ["Jim Lane"]},
{"text": "a smart film masquerading as just another brainless teen flick. Don't be fooled.", "is_fresh": 1, "author": ["Andrea Chase"]},
{"text": "image has trumped intelligence, friendships and even health as a teenager's top priority", "is_fresh": 0, "author": ["Steven Snyder"]},
{"text": "A teen comedy for anybody who loves comedy.", "is_fresh": 1, "author": ["Eugene Novikov"]},
{"text": "Mean Girls is the dork giving up its uniqueness and disguising its intelligence in the quest to be utterly, tragically ordinary--and that's like so ironic or something.", "is_fresh": 0, "author": ["Walter Chaw"]},
{"text": "As she did in Freaky Friday, Lohan displays plenty of charm, verve and deft comic timing as she switches between innocence and craftiness.", "is_fresh": 1, "author": ["David Rooney"]},
{"text": "Director Waters and screenwriter Tina Fey ... aim less for the usual high-gloss caricature than acutely hilarious sociology.", "is_fresh": 1, "author": ["Jessica Winter"]},
{"text": "In the end, Mean Girls isn't mean enough.", "is_fresh": 0, "author": ["James Berardinelli"]},
{"text": "It has a little bit of National Lampoon sensibility, kinda funny; I can't quite recommend it.", "is_fresh": 0, "author": ["Richard Roeper"]},
{"text": "One of the movie's achievements is persuading the audience to stay firmly in Cady's camp during her odyssey of self-discovery.", "is_fresh": 1, "author": ["Kirk Honeycutt"]},
{"text": "Lohan dazzles us once more. ... The smartly written script is a perfect match for her intelligent brand of comedy.", "is_fresh": 1, "author": ["Steve Rhodes"]},
{"text": "An incisive and brutally hilarious orientation to American high school culture", "is_fresh": 1, "author": ["Rich Cline"]},
{"text": "Lohan has star power in spades, and enough going on behind the eyes to at least suggest the inner life and back story absent from the script.", "is_fresh": 1, "author": ["Gregory Freitas"]},
{"text": "Mean Girls is slim pickings compared to Heathers and Donnie Darko, but it makes mincemeat out of 13 Going on 30.", "is_fresh": 1, "author": ["Ed Gonzalez"]},
{"text": "", "is_fresh": 0, "author": ["Garth Franklin"]},
{"text": "", "is_fresh": 1, "author": []}
]