[
{"reviews_count": "85", "title": "Men in black", "avg_audience_rating": "3.5", "rotten_count": "7", "tomatometer": "92", "audience_score": "79", "avg_critic_rating": "7.4", "fresh_count": "78", "user_ratings_count": "1,048,740"},
{"text": "Men in Black is the wryest, sharpest, most entertaining special effects film in recent memory, a simultaneous participant and mocking parody of the more-bang-for-your-buck behemoth genre.", "is_fresh": 1, "author": ["Paul Tatara"]},
{"text": "[Director Barry Sonnenfeld] establishes the premise in the wildly entertaining first 45 minutes and then glides along for the rest of the film on the strength of a poker-faced comic sensibility.", "is_fresh": 1, "author": ["Michael Ollove"]},
{"text": "What makes this wildly imaginative setup so much fun is the contrast between the deadpan gruffness of Jones and Torn, and the spectacularly strange environment in which they work.", "is_fresh": 1, "author": ["Rod Dreher"]},
{"text": "Men In Black deserves credit for supplementing its special effects with a breezy script and genuinely charismatic performances by Will Smith and Tommy Lee Jones.", "is_fresh": 1, "author": ["Stephen Thompson"]},
{"text": "Men in Black, running a breezy 98 minutes, is a showpiece of laconic economy. It's quick, eccentric and deadly funny and for many young movie-goers it's likely to be a close encounter they'll want to see a second and third time.", "is_fresh": 1, "author": ["Dennis King"]},
{"text": "A lean, punchy, fast paced, and extremely endearing sci-fi action comedy.", "is_fresh": 1, "author": []},
{"text": "Its attitude is poised somewhere between the deadpan ghoulishness of the Coen brothers and a Letterman-like sense of the absurdity of life in New York's rich ethnic stew.", "is_fresh": 1, "author": ["Dave Kehr"]},
{"text": "Men in Black is moderately amusing, well-constructed and mercifully short, but it fails to deliver on the zaniness of its first half.", "is_fresh": 0, "author": ["John Hartl"]},
{"text": "Great special effects, inventive alien designs and Smith and Jones's hip, hilarious double act make director Barry Sonnenfeld's Lethal Weapon-style buddy picture a fast-paced pleasure.", "is_fresh": 1, "author": ["Alan Jones"]},
{"text": "The plot, trifling as it is, doesn't much matter. What makes the movie such a hoot are the clever gags, imaginative special effects, and the snappy byplay between the well-matched Jones and Smith.", "is_fresh": 1, "author": ["Leah Rozen"]},
{"text": "There's a playfulness, here, that you don't often find in a special-effect flick.", "is_fresh": 1, "author": ["Jay Boyar"]},
{"text": "[A] hilarious comedy, directed with boisterous wit by Barry Sonnenfeld.", "is_fresh": 1, "author": ["David Sterritt"]},
{"text": "A smart, funny and hip adventure film in a summer of car wrecks and explosions.", "is_fresh": 1, "author": ["Gene Siskel"]},
{"text": "Offensively bad? No. But it's never been anything more than a promising wasted opportunity.", "is_fresh": 0, "author": ["Dustin Putman"]},
{"text": "...an affable (yet somewhat forgettable) bit of escapist entertainment.", "is_fresh": 1, "author": ["David Nusair"]},
{"text": "\"Men in Black\" still holds up after 15 years. It's as fun, funky, and edgy now as it was in 1997, and HD breathes even more life into it.", "is_fresh": 1, "author": ["James Plath"]},
{"text": "Lots of fun, but too scary for some kids.", "is_fresh": 1, "author": ["Randy White"]},
{"text": "Every time the film makes you chuckle, you may also feel it's zapped you with a neuralizer.", "is_fresh": 0, "author": ["Owen Gleiberman"]},
{"text": "What is it about the black suit/black tie/white shirt get-up in movies?", "is_fresh": 1, "author": ["Rob Nelson"]},
{"text": "What [it] lacks in depth, it makes up for with an infectious childlike enthusiasm for its zany premise.", "is_fresh": 1, "author": ["Jason Zingale"]},
{"text": "Ultimately, this film isn't quite as screamingly funny as its coming attractions trailer suggested, but it is an amiable enough piece of entertainment.", "is_fresh": 1, "author": ["Steve Biodrowski"]},
{"text": "Combines the talents of Will Smith, Tommy Lee Jones and director Barry Sonnenfeld to hilarious, endearing effect.", "is_fresh": 1, "author": []},
{"text": "A wild knuckleball of a movie that keeps dancing in and out of the strike zone.", "is_fresh": 1, "author": ["Todd McCarthy"]},
{"text": "Just a collection of sketches in which Jones and Smith run into farcical E.T.s.", "is_fresh": 1, "author": ["Rob Gonsalves"]},
{"text": "The smartest, funniest, and best-looking sci-fi comedy since the movies learned to morph.", "is_fresh": 1, "author": ["David Edelstein"]},
{"text": "It's just the best yuk of the week.", "is_fresh": 1, "author": ["Desson Thomson"]},
{"text": "Cool hot-weather fun -- this will be the one to beat right through the dog days of summer.", "is_fresh": 1, "author": ["Maitland McDonagh"]},
{"text": "Will Smith, the only spark of life in Independence Day, now is allowed to shine in brighter, smarter material.", "is_fresh": 1, "author": ["Jeffrey M. Anderson"]},
{"text": "It's so much fun, in fact, that it's almost over before you realise that you've been watching a great idea for a movie in desperate search of a plot.", "is_fresh": 1, "author": ["Tom Charity"]},
{"text": "A solid, entertaining, intelligent, and funny entry into the annals of this summer's moviegoing selection.", "is_fresh": 1, "author": ["Robin Clifford"]},
{"text": "A fun movie.", "is_fresh": 1, "author": ["Dennis Schwartz"]},
{"text": "The plot is paper-thin, characters are one-dimensional and even the protagonists' one-liners are forgettable.", "is_fresh": 1, "author": ["Dragan Antulov"]},
{"text": "Fortunately, the cast's one-dimensional performances and deadpan delivery of funny dialogue actually enhance the humor.", "is_fresh": 1, "author": ["Susan Tavernetti"]},
{"text": "As ragged as the humor is, there still are more hits than misses.", "is_fresh": 1, "author": ["Jeff Strickler"]},
{"text": "Though the story is pure cartoon, the movie is exceptionally smart and exceptionally well-paced.", "is_fresh": 1, "author": ["Margaret A. McGurk"]},
{"text": "This movie is a lot of fun, except that it has a little too much slime.", "is_fresh": 1, "author": ["Robert Roten"]},
{"text": "Good old alien fun", "is_fresh": 1, "author": ["Stefan Birgir Stefansson"]},
{"text": "It's no big deal. It's more fun, anyway, to just kick back and watch the casual comic work of the MiB stars, particularly Jones.", "is_fresh": 1, "author": ["Matt Soergel"]},
{"text": "Smarter, leaner, funnier, and more human than most entries in the genre, relying less on spectacle than on the chemistry of the two leads and the wit of the script for its appeal.", "is_fresh": 1, "author": ["Steven D. Greydanus"]},
{"text": "At times, it may succeed at manipulating you, but you won't like it.", "is_fresh": 0, "author": ["Mick LaSalle"]},
{"text": "Jones is dryly hilarious and Smith comically exuberant as the elite duo who are out to save the world.", "is_fresh": 1, "author": ["Christine James"]},
{"text": "At last, someone remembered how to make a good summer movie!", "is_fresh": 1, "author": ["Christopher Null"]},
{"text": "The result is a rich picture with a winning personality, as modest in theme as it is in style.", "is_fresh": 1, "author": ["Rick Groen"]},
{"text": "Director Barry Sonnenfeld loads the bases with action, fantasy and laughs, and hits a grand slam.", "is_fresh": 1, "author": ["Peter Travers"]},
{"text": "One of the most enjoyable films of the summer.", "is_fresh": 1, "author": ["James Kendrick"]},
{"text": "Though its charm is in its attitude and premise (and Danny Elfman's rousing score), Men in Black does have a serviceable plot that kicks in when a rusty flying saucer crash-lands in a rural area.", "is_fresh": 1, "author": ["Kenneth Turan"]},
{"text": "The film's technical team reflects exceptional stylistic harmony.", "is_fresh": 1, "author": ["Janet Maslin"]},
{"text": "Those accepting Men in Black for what it is will likely agree that this is one of 1997's more satisfying big-budget offerings.", "is_fresh": 1, "author": ["James Berardinelli"]},
{"text": "The cool wit and fun (derived partly from the premise that the cheap tabloids are the only newspapers telling the truth) are deftly maintained, and Sonnenfeld provides a bountiful supply of both fanciful beasties and ingenious visuals.", "is_fresh": 1, "author": ["Jonathan Rosenbaum"]},
{"text": "For a picture being sold as a big-budget special-effects comedy, Men in Black is surprisingly, pleasingly modest.", "is_fresh": 1, "author": ["Charles Taylor"]},
{"text": "Men in Black continues this summer's tradition, already established by Con Air and Batman and Robin, of big-budget action pictures that at least have the wit to know how silly they are.", "is_fresh": 1, "author": ["Roger Ebert"]},
{"text": "Based on an obscure comic book series by Lowell Cunningham, this cheerfully perverse movie could just as easily have come directly from the text of a supermarket tabloid.", "is_fresh": 1, "author": ["Rita Kempley"]},
{"text": "The movie is fun. It's hard not to like it, because Smith and Jones have so much charm and charisma.", "is_fresh": 1, "author": ["Eric D. Snider"]},
{"text": "For once, the summer formula works like a charm: two superstars, a couple of quirky sidekicks, a slew of special effects, a mess o' smart-alecky remarks--yet there's still room for semi-believable characters and a sturdy story.", "is_fresh": 1, "author": []},
{"text": "Men in Black touches on that spirit of inconsequential and profound play that is the essence of the perfect summer movie.", "is_fresh": 1, "author": ["Peter Keough"]},
{"text": "Fiendishly clever and visually nuts, MIB is what you'd get hybridizing Independence Day with The Addams Family.", "is_fresh": 1, "author": ["Bruce Kirkland"]},
{"text": "I often feel like I see jokes coming a mile away in things purported to be comedies. In Men in Black, they snuck up behind me and tickled me.", "is_fresh": 1, "author": ["MaryAnn Johanson"]},
{"text": "This is a style-heavy, action-laden, wise-crack loaded 98-minutes of pretty decent fun. Men in Black is silly, simplistic and lightweight, but only the most uptight of viewers will hate it.", "is_fresh": 1, "author": ["Brian Webster"]},
{"text": "From here, the next step is easy: extraterrestrials are living among us.", "is_fresh": 1, "author": ["Cynthia Fuchs"]},
{"text": "Sonnenfeld keeps it all bubbling along with a vibrant, comic book buzz.", "is_fresh": 1, "author": ["Ian Nathan"]},
{"text": "The casting is inspired; they complement each other as yin and yang of the film.", "is_fresh": 1, "author": ["Jack Garner"]},
{"text": "The film never takes itself that seriously, but manages to deliver consistent, but never huge, laughs.", "is_fresh": 1, "author": ["Madeleine Williams"]},
{"text": "Forget the crappy music video, forget the Raybans commercial tie-ins, forget all the crappy hype that the studio felt compelled to spew forth, just go rent this film, stock up on popcorn and have a fun night.", "is_fresh": 1, "author": ["Oz"]},
{"text": "Most of the humour is a clever and sometimes neo-black blend of situation, character and fantasy.", "is_fresh": 1, "author": ["Urban Cinefile Critics"]},
{"text": "It is a light and refreshing diversion, a perfect way to spend a few hours of your summer.", "is_fresh": 1, "author": ["Marty Mapes"]},
{"text": "A reasonably intelligent and fun comedy.", "is_fresh": 1, "author": ["James O'Ehley"]},
{"text": "Ed Solomon's script has a stream of gags, most of which work, thanks to Barry Sonnenfeld's direction.", "is_fresh": 1, "author": ["Steve Rhodes"]},
{"text": "Like the inky void of space, there's really not much here, but what there is, is certainly entertaining", "is_fresh": 1, "author": ["Marc Savlov"]},
{"text": "Like the Fiorentino character, you may not remember much. But you'll remember having fun.", "is_fresh": 1, "author": ["Joe Baltake"]},
{"text": "The bottom line is that MiB is an absolute hoot, a fully realized sci-fi detective comedy with a sublime sense of cool.", "is_fresh": 1, "author": ["Edward Johnson-Ott"]},
{"text": "Helping, obviously, is a great cast, led by Jones, who actually gets some of the biggest laughs with his deadpan delivery.", "is_fresh": 1, "author": ["Jeff Vice"]},
{"text": "Independence Day for smart people.", "is_fresh": 1, "author": ["Susan Wloszczyna"]},
{"text": "...while every big movie has its gasp-inducing moments, this film concentrates on inventive and quirky.", "is_fresh": 1, "author": ["Almar Haflidason"]},
{"text": "It's smart, it looks sensational and it's funny -- sneaky-funny.", "is_fresh": 1, "author": ["Jeff Millar"]},
{"text": "Men in Black has the right attitude toward movie technology: Get the most sophisticated special effects money can buy, and treat 'em like one of Ed Wood's paper-plate UFOs.", "is_fresh": 1, "author": ["Jim Ridley"]},
{"text": "The script by Ed Solomon is tight, well-paced and lighthearted.", "is_fresh": 1, "author": ["Barbara Shulgasser"]},
{"text": "Moments that should be hilarious muster only a chuckle and action scenes that should tingle -- like the final showdown with the unmasked giant roach -- are just not that exciting.", "is_fresh": 0, "author": ["Rob Blackwelder"]},
{"text": "Overall, the film is easy enough to watch, short enough not to have you care about the lame 1-2-3 plot, and funny enough to make you smile if you're feeling blue.", "is_fresh": 1, "author": ["JoBlo"]},
{"text": "The real stand-out is D'Onofrio as Edgar, the cockroach on crack wearing a human skin, doing a splendid, hilarious job of auditioning for Evil Dead 4.", "is_fresh": 1, "author": ["Widgett Walls"]},
{"text": "There was never any doubt that Will Smith would be funny... What comes as a pleasant surprise is how funny Tommy Lee Jones is.", "is_fresh": 1, "author": ["John J. Puccio"]},
{"text": "Smith's natural, infectious ebullience plays off well against the stoic Jones, who's at his deadpan best, engaging in some ridiculous situations with the straightest of faces.", "is_fresh": 1, "author": ["Michael Dequina"]},
{"text": "More to the point, it functions best as a set-up for -- oh bitter irony -- yet another big-budget summer sequel.", "is_fresh": 1, "author": ["Scott Renshaw"]},
{"text": "Ed Solomon's script, based on the comic book by Lowell Cunningham, is a barrage of funny lines and scenes of just how strange things can be dealing with aliens.", "is_fresh": 1, "author": ["Mark R. Leeper"]},
{"text": "", "is_fresh": 0, "author": ["Marshall Fine"]},
{"text": "", "is_fresh": 0, "author": ["Susan Stark"]}
]