[
{"reviews_count": "110", "title": "Mission To Mars", "avg_audience_rating": "2.6", "rotten_count": "83", "tomatometer": "25", "audience_score": "30", "avg_critic_rating": "4.1", "fresh_count": "27", "user_ratings_count": "53,529"},
{"text": "So-so sci-fi; may be too intense for some kids.", "is_fresh": 1, "author": ["Nell Minow"]},
{"text": "Whatever's shoddy or limp about Mission to Mars, however conspicuous while the film unfolds, all becomes admirably pale as the full viewing experience recedes and the good stuff emerges in proud bas-relief.", "is_fresh": 1, "author": ["Nick Davis"]},
{"text": "Mission to Mars' redemptive coda opened the door for the subsequent film's continuing figurative and literal sanguinity.", "is_fresh": 1, "author": ["Eric Henderson"]},
{"text": "The race for the worst movie of the year is on!", "is_fresh": 0, "author": ["Jeffrey M. Anderson"]},
{"text": "Typically, while a good screenplay only requires a single author, this unimaginative, derivative dreck required at least four, even with the massive cribbing from 2001: A Space Odyssey.", "is_fresh": 0, "author": ["Ron Wells"]},
{"text": "There's some throwaway fancy camerawork at the beginning and a repeat of his shock-shot trick from Raising Cain, but otherwise De Palma's own ride appears to be largely on autopilot.", "is_fresh": 0, "author": ["Philip Strick"]},
{"text": "The too-many-cooks rule applies to this script, which borrows wantonly from sci-fi classics of the past.", "is_fresh": 0, "author": ["Margaret A. McGurk"]},
{"text": "If Brian DePalma's Mission to Mars were a book, it would have a yellow cover and the title '2001 for Dummies.'", "is_fresh": 0, "author": ["Jeffrey Westhoff"]},
{"text": "It's the waste of the impressive ensemble cast on cheap, pedestrian dialogue and a tabloid-style hypothesis of Martian civilization that makes this Mission impossible to watch.", "is_fresh": 0, "author": ["Francesca Dinglasan"]},
{"text": "Despite a few breathtaking snapshots en route, it can't quite figure out the aesthetic itinerary -- where it's heading and why.", "is_fresh": 0, "author": ["Rick Groen"]},
{"text": "Bears the distinct imprint of helmer De Palma, still one of the best visualists to work in the action/adventure genre.", "is_fresh": 1, "author": ["Chuck Rudolph"]},
{"text": "The film just doesn't offer anything new to the genre, so why bother making it?", "is_fresh": 0, "author": ["Michael W. Phillips, Jr."]},
{"text": "Silly, turgid and devoid of even the hints of original thinking, Mission to Mars is a testament to shameless creative theft.", "is_fresh": 0, "author": ["Rob Vaux"]},
{"text": "All I can really say for the film is this: they meant well.", "is_fresh": 0, "author": ["Widgett Walls"]},
{"text": "Avoid at all costs.", "is_fresh": 0, "author": ["Andrew Howe"]},
{"text": "I gave up on this barren mission before it ever left earth.", "is_fresh": 0, "author": ["Jim Chastain"]},
{"text": "There doesn't seem to be an original moment in the entire movie.", "is_fresh": 0, "author": ["Elvis Mitchell"]},
{"text": "The film is worthwhile only to those who are in desperate need of a nap.", "is_fresh": 0, "author": ["James Berardinelli"]},
{"text": "Mission to Mars establishes a new gold standard for embarrassing alien encounters.", "is_fresh": 0, "author": ["Andrew O'Hehir"]},
{"text": "It's as if the director, the gifted Brian De Palma, rises to the occasions but the screenplay gives him nothing much to do in between them.", "is_fresh": 0, "author": ["Roger Ebert"]},
{"text": "Mission to Mars is neither commercial nor intriguingly indulgent.", "is_fresh": 0, "author": ["Tom Keogh"]},
{"text": "It gets worse before it gets better.", "is_fresh": 0, "author": ["Robert Horton"]},
{"text": "The special effects are terrific, but as the dialog and plot veer into 2001 and Close Encounters territory, Mission misses.", "is_fresh": 0, "author": []},
{"text": "In the presence of profound questions, the filmmaker goes profoundly shallow.", "is_fresh": 0, "author": ["Lisa Schwarzbaum"]},
{"text": "The script offers no help; it's so poor that you'll pray it's all a dream sequence.", "is_fresh": 0, "author": ["Marcus Sakey"]},
{"text": "Mission To Mars is one of those films that looks as if something bad happened in the editing room.", "is_fresh": 0, "author": ["Liz Braun"]},
{"text": "De Palma has nothing new to say and no new way of saying it.", "is_fresh": 0, "author": ["Carlo Cavagna"]},
{"text": "A very long voyage to nowhere -- a dull, overly sentimental and derivative film that accomplishes little other than remind us that science fiction can be a whole lot better than this.", "is_fresh": 0, "author": ["Brian Webster"]},
{"text": "Mainly coarsens 2001 in its mix of cosmic consciousness and 'naturalistic' product placement.", "is_fresh": 0, "author": ["J. Hoberman"]},
{"text": "The ensemble's performances are adequate.", "is_fresh": 1, "author": ["Jack Garner"]},
{"text": "God only knows where they put all the money, because I can't seem to find it on the screen.", "is_fresh": 0, "author": ["Mark Ramsey"]},
{"text": "It may not make you ponder the meaning of Man's existence, but you should still be entertained.", "is_fresh": 1, "author": ["Jon Popick"]},
{"text": "[Brian De Palma] has taken an intelligent cast and decent premise and yet made a movie so bad that it might one day become a cult camp-classic.", "is_fresh": 0, "author": ["J. Robert Parks"]},
{"text": "Mission to Mars succeeds in luring the viewer into accepting the cinematic world it portrays. However, Mission to Mars ultimately fails to support this 'realism' because it lacks an equally 'realistic' denouement.", "is_fresh": 0, "author": ["Yazmin Ghonaim"]},
{"text": "De Palma's picture brings neither the wit nor the emotional derring-do of the subsequent movies to its account of not one but two tragedy-plagued flights to Mars.", "is_fresh": 0, "author": ["Susan Stark"]},
{"text": "Nothing in this lackluster set piece is particularly novel or interesting.", "is_fresh": 0, "author": ["Mike Clark"]},
{"text": "De Palma has reached out to embrace a larger audience and seemingly sacrificed those traits that drew us to him in the first place: his singular vision, his clinical stylistics, and the palpable sense of dread that his best films engender.", "is_fresh": 0, "author": ["Marc Savlov"]},
{"text": "A film about space exploration that really knocks your eyes out.", "is_fresh": 1, "author": ["Michael Wilmington"]},
{"text": "It's as if even De Palma tired of the cliched material and couldn't be bothered to put in much of an effort.", "is_fresh": 0, "author": ["Jeff Vice"]},
{"text": "The script is so awful I have trouble believing it was not written by actual Martians.", "is_fresh": 0, "author": ["Christopher Null"]},
{"text": "It's hardly an original movie ... But its cinematography is literally dizzying at times, proving that De Palma can still put on a good show even when his material isn't the freshest he might have found.", "is_fresh": 1, "author": ["David Sterritt"]},
{"text": "Brian De Palma's sci-fi venture is a a sickening waste of money and talent.", "is_fresh": 0, "author": ["Jonathan Foreman"]},
{"text": "Fourth-graders may appreciate this, but more learned viewers will have their intelligence insulted.", "is_fresh": 0, "author": ["Shay Casey"]},
{"text": "The thin, underplotted story takes a long time to reach nothing more than one dopey, utterly inconsequential revisionist history lesson.", "is_fresh": 0, "author": ["David Luty"]},
{"text": "Mission to Mars gets lost in mystical mumbo jumbo.", "is_fresh": 0, "author": ["Bob Graham"]},
{"text": "There's nothing that poignant here, just De Palma pretending he's Carl Sagan.", "is_fresh": 0, "author": ["Wesley Morris"]},
{"text": "For an adventure film, M2Mis shockingly slack in the tension department.", "is_fresh": 0, "author": ["Michael O'Sullivan"]},
{"text": "Utterly devoid not just of inspiration but energy, too.", "is_fresh": 0, "author": ["Jason Anderson"]},
{"text": "The film is a montage of showy effects, blatant product placement and ideas lifted wholesale from much better films.", "is_fresh": 0, "author": ["Rob Blackwelder"]},
{"text": "An exceptionally tasteful and erudite popcorn spectacle, thanks in large part to a great cast and to director De Palma, who is in top form.", "is_fresh": 1, "author": ["Ray Greene"]},
{"text": "De Palma corrige el rumbo en la \u00faltima parte de la cinta, pero 30 minutos no hacen una buena pel\u00edcula", "is_fresh": 0, "author": ["Jorge Avila Andrade"]},
{"text": "An instant popcorn classic.", "is_fresh": 1, "author": ["Mac Verstandig"]},
{"text": "a rather B-script with some G-force actors. ", "is_fresh": 0, "author": ["Ross Anthony"]},
{"text": "gives us the best it has to offer in its first 30 minutes. That's happy news for people who tend to doze off halfway through a movie, but not for those who like a last-minute jolt on their way out of the theater.", "is_fresh": 0, "author": ["James Sanford"]},
{"text": "An imaginative and magical film.", "is_fresh": 1, "author": ["Steve Rhodes"]},
{"text": "The story disintegrates faster than a meteor in the upper atmosphere but isn't as fun to watch.", "is_fresh": 0, "author": ["Tony Toscano"]},
{"text": "De Palma's touch is wrong at the most crucial moments.", "is_fresh": 0, "author": ["Louis B. Parks"]},
{"text": "It'll give you an enjoyable tour of the Red Planet, complete with some thrills and sharp computer effects.", "is_fresh": 1, "author": ["Steve Murray"]},
{"text": "Trying to make sense of this shaggy dog story is like climbing a mountain.", "is_fresh": 0, "author": ["Lawrence Toppman"]},
{"text": "Like milk or a musical chord, a movie script is most noticeable when it is spoiled.", "is_fresh": 0, "author": ["Chris Hewitt (St. Paul)"]},
{"text": "An A-list cast and director, a huge budget and endless special effects are employed in the service of what is essentially a B movie.", "is_fresh": 0, "author": ["Robert W. Butler"]},
{"text": "They don't waste words in the space program, and I won't waste any more here. Let's call this one mission: improbable.", "is_fresh": 0, "author": ["Karen Hershenson"]},
{"text": "A $100 million production of a 10-cent script.", "is_fresh": 0, "author": ["Rene Rodriguez"]},
{"text": "It falls short, in ways both silly and touching.", "is_fresh": 0, "author": ["David Elliott"]},
{"text": "Mission to Mars reveals nothing we haven't seen in other space movies.", "is_fresh": 0, "author": ["Todd Anthony"]},
{"text": "The sci-fi elements, in both imagination and visual execution, are excellent and occasionally awe-inspiring.", "is_fresh": 1, "author": ["Jeffrey Huston"]},
{"text": "This movie's special effects, set design, actionsequence staging and swirling cinematography offset the weak story.", "is_fresh": 1, "author": ["Steven Rosen"]},
{"text": "Mo matter how well Cheadle and Sinise tackle the material, they still come off woodenly.", "is_fresh": 0, "author": ["Shawn Levy"]},
{"text": "At its best, Mission to Mars is a visually inspiring motion picture that takes you to another world and shows off the amazing sights.", "is_fresh": 0, "author": ["Jay Boyar"]},
{"text": "Mission to Mars is blandly directed by Brian De Palma.", "is_fresh": 0, "author": ["Philip Wuntch"]},
{"text": "It easily could be dismissed as a clumsy B-movie rehash of 2001: A Space Odyssey and Close Encounters of the Third Kind.", "is_fresh": 0, "author": ["William Arnold"]},
{"text": "Mission to Mars merits neither rage nor enthusiasm.", "is_fresh": 0, "author": ["Duane Dudek"]},
{"text": "The performances distanced and uncharismatic.", "is_fresh": 0, "author": ["Dave Kehr"]},
{"text": "Mission to Mars is what happens when a film junkie gets hold of millions of dollars' worth of Tinkertoys and a script written by a video-store clerk.", "is_fresh": 0, "author": ["Robert Wilonsky"]},
{"text": "It's disappointing that the filmmaker didn't place greater emphasis on storytelling or character development.", "is_fresh": 0, "author": ["Philip Booth"]},
{"text": "De Palma can still use a camera, but he no longer seems to be using his head.", "is_fresh": 0, "author": ["Terry Lawson"]},
{"text": "Mission to Mars is sentimental, corny, and at times irredeemably campy.", "is_fresh": 0, "author": ["Jay Carr"]},
{"text": "A movie as cold and distant as the Red Planet itself.", "is_fresh": 0, "author": ["Kenneth Turan"]},
{"text": "This film is mind boggling and stupid, a derivative piece of doo-doo that's an embarrassment for all involved.", "is_fresh": 0, "author": ["Paul Clinton (CNN.com)"]},
{"text": "Though unapologetically old-fashioned and corny, Mission still has its share of nail-biter moments.", "is_fresh": 1, "author": ["Glenn Lovell"]},
{"text": "Mission to Mars hasn't a single moment of real suspense.", "is_fresh": 0, "author": ["Kevin Maynard"]},
{"text": "On so many levels, a risibly bad movie.", "is_fresh": 0, "author": ["David Ansen"]},
{"text": "An instant popcorn classic.", "is_fresh": 1, "author": ["Mac Verstandig"]},
{"text": "Who would have guessed that Mars would be so damn BORING?", "is_fresh": 0, "author": ["Scott Weinberg"]},
{"text": "Isn't exactly a dull experience, but it is a monotonous one, because the capabilities it so obviously holds is put to zero good use.", "is_fresh": 0, "author": ["Dustin Putman"]},
{"text": "Shockingly cornball.", "is_fresh": 0, "author": ["Michael Dequina"]},
{"text": "The pluses easily outweigh the minuses", "is_fresh": 1, "author": ["Shane Burridge"]},
{"text": "", "is_fresh": 0, "author": ["Mark Halverson"]},
{"text": "", "is_fresh": 0, "author": []},
{"text": "", "is_fresh": 0, "author": ["Frank Swietek"]},
{"text": "", "is_fresh": 0, "author": []},
{"text": "", "is_fresh": 0, "author": ["Chuck Walton"]},
{"text": "", "is_fresh": 1, "author": ["Leonard Schwarz"]},
{"text": "", "is_fresh": 1, "author": ["John R. McEwen"]},
{"text": "", "is_fresh": 0, "author": ["Garth Franklin"]},
{"text": "", "is_fresh": 0, "author": ["James Kendrick"]},
{"text": "", "is_fresh": 1, "author": ["Robert Roten"]},
{"text": "", "is_fresh": 0, "author": ["Eric D. Snider"]},
{"text": "", "is_fresh": 1, "author": ["Nell Minow"]},
{"text": "", "is_fresh": 1, "author": ["Cornell & Petricelli"]},
{"text": "", "is_fresh": 1, "author": ["MaryAnn Johanson"]},
{"text": "", "is_fresh": 0, "author": ["Madeleine Williams"]},
{"text": "", "is_fresh": 1, "author": ["Marty Mapes"]},
{"text": "", "is_fresh": 0, "author": ["Ian Waldron-Mantgani"]},
{"text": "", "is_fresh": 1, "author": ["Scott A. Mantz"]},
{"text": "", "is_fresh": 0, "author": ["David Keyes"]},
{"text": "", "is_fresh": 0, "author": ["JoBlo"]},
{"text": "", "is_fresh": 1, "author": ["Scott Von Doviak"]},
{"text": "", "is_fresh": 0, "author": ["Scott Renshaw"]},
{"text": "", "is_fresh": 1, "author": ["Mark R. Leeper"]}
]