[
{"reviews_count": "33", "title": "Monty Python's The Meaning of Life", "avg_audience_rating": "3.7", "rotten_count": "5", "tomatometer": "85", "audience_score": "83", "avg_critic_rating": "7.3", "fresh_count": "28", "user_ratings_count": "201,970"},
{"text": "Some of the sketches are inspired... Some of the sketches are merely loud and boring the Pythons are at their unfunniest in drag. Even devout Pythonians might question some of the items.", "is_fresh": 0, "author": ["Bob Thomas"]},
{"text": "Does the attack work? Only occasionally.", "is_fresh": 0, "author": ["Roger Ebert"]},
{"text": "If The Meaning of Life is undeniably tasteless, it is also imaginative and played with a soft edge that never reads as bitter, only mischievous.", "is_fresh": 1, "author": ["Robert Osborne"]},
{"text": "Despite its obvious shortcomings, The Meaning of Life also happens to be devastatingly funny at times, hitting a few beats of silliness with traditional Python precision.", "is_fresh": 1, "author": ["Brian Orndorf"]},
{"text": "The skits range from hilarious to humdrum.", "is_fresh": 1, "author": ["Matt Brunson"]},
{"text": "It's a weird kind of fun. ", "is_fresh": 1, "author": ["Paul Chambers"]},
{"text": "Edgy Python schtick better for older viewers.", "is_fresh": 1, "author": ["Afsheen Nomai"]},
{"text": "Perfect Python!", "is_fresh": 1, "author": ["Kevin Carr"]},
{"text": "Prime Monty Python, primo laughs.", "is_fresh": 1, "author": ["Steve Crum"]},
{"text": "Mostly dead-on and characteristically Pythonesque.", "is_fresh": 1, "author": ["Jake Euker"]},
{"text": "Spotty and fitfully very funny. Lacks the structure of the other Python big screen films.", "is_fresh": 1, "author": ["Ken Hanke"]},
{"text": "MP, always funny...", "is_fresh": 1, "author": ["Stefan Birgir Stefansson"]},
{"text": "Com sua irrever\u00eancia habitual, o Monty Python cria um filme que diverte o espectador com seus enlouquecidos esquetes e seu humor sem concess\u00f5es.", "is_fresh": 1, "author": ["Pablo Villa\u00e7a"]},
{"text": "Strictly for people with dark senses of humor, any Python film should be avoided by anyone that thinks Jay Leno is funny", "is_fresh": 1, "author": ["John A. Nesbit"]},
{"text": "A zany and outrageous comedy about the wrong-headedness of many serious people.", "is_fresh": 1, "author": ["Frederic and Mary Ann Brussat"]},
{"text": "An okay comedy. More jokes fall flat than bring out a laugh.", "is_fresh": 0, "author": ["Alex Sandell"]},
{"text": "Classic Python", "is_fresh": 1, "author": ["Kevin Fiddler"]},
{"text": "The vomiting scene is one of the funniest moments ever filmed.", "is_fresh": 1, "author": ["Jeffrey M. Anderson"]},
{"text": "Python's curtain call, a random grab-bag of sketches ranging from the sublime to the forgettable to the appallingly hysterical. But always, the troupe's iconoclastic spirit shines through.", "is_fresh": 1, "author": ["Rob Vaux"]},
{"text": "Some of the troupe's finest moments ever are here.", "is_fresh": 1, "author": ["James Sanford"]},
{"text": "Most every scene in the film employs humor as its function, yet retains the offshoot depth associated with its philosophic ambition.", "is_fresh": 1, "author": ["Rumsey Taylor"]},
{"text": "Not the sextet's finest effort, but still drop-dead funny.", "is_fresh": 1, "author": ["Scott Weinberg"]},
{"text": "", "is_fresh": 1, "author": ["Cole Smithey"]},
{"text": "", "is_fresh": 1, "author": ["Emanuel Levy"]},
{"text": "", "is_fresh": 1, "author": ["Rebecca Murray"]},
{"text": "", "is_fresh": 1, "author": ["Jonathan R. Perry"]},
{"text": "", "is_fresh": 1, "author": ["Brian Gibson"]},
{"text": "", "is_fresh": 0, "author": ["Robert Roten"]},
{"text": "", "is_fresh": 1, "author": ["Ryan Cracknell"]},
{"text": "", "is_fresh": 1, "author": ["Jon Niccum"]},
{"text": "", "is_fresh": 0, "author": ["Jeffrey Westhoff"]},
{"text": "", "is_fresh": 1, "author": ["Philip Martin"]},
{"text": "", "is_fresh": 1, "author": ["Christopher Null"]},
{"text": "Some of the sketches are inspired... Some of the sketches are merely loud and boring the Pythons are at their unfunniest in drag. Even devout Pythonians might question some of the items.", "is_fresh": 0, "author": ["Bob Thomas"]},
{"text": "Does the attack work? Only occasionally.", "is_fresh": 0, "author": ["Roger Ebert"]},
{"text": "If The Meaning of Life is undeniably tasteless, it is also imaginative and played with a soft edge that never reads as bitter, only mischievous.", "is_fresh": 1, "author": ["Robert Osborne"]},
{"text": "Despite its obvious shortcomings, The Meaning of Life also happens to be devastatingly funny at times, hitting a few beats of silliness with traditional Python precision.", "is_fresh": 1, "author": ["Brian Orndorf"]},
{"text": "The skits range from hilarious to humdrum.", "is_fresh": 1, "author": ["Matt Brunson"]},
{"text": "It's a weird kind of fun. ", "is_fresh": 1, "author": ["Paul Chambers"]},
{"text": "Edgy Python schtick better for older viewers.", "is_fresh": 1, "author": ["Afsheen Nomai"]},
{"text": "Perfect Python!", "is_fresh": 1, "author": ["Kevin Carr"]},
{"text": "Prime Monty Python, primo laughs.", "is_fresh": 1, "author": ["Steve Crum"]},
{"text": "Mostly dead-on and characteristically Pythonesque.", "is_fresh": 1, "author": ["Jake Euker"]},
{"text": "Spotty and fitfully very funny. Lacks the structure of the other Python big screen films.", "is_fresh": 1, "author": ["Ken Hanke"]},
{"text": "MP, always funny...", "is_fresh": 1, "author": ["Stefan Birgir Stefansson"]},
{"text": "Com sua irrever\u00eancia habitual, o Monty Python cria um filme que diverte o espectador com seus enlouquecidos esquetes e seu humor sem concess\u00f5es.", "is_fresh": 1, "author": ["Pablo Villa\u00e7a"]},
{"text": "Strictly for people with dark senses of humor, any Python film should be avoided by anyone that thinks Jay Leno is funny", "is_fresh": 1, "author": ["John A. Nesbit"]},
{"text": "A zany and outrageous comedy about the wrong-headedness of many serious people.", "is_fresh": 1, "author": ["Frederic and Mary Ann Brussat"]},
{"text": "An okay comedy. More jokes fall flat than bring out a laugh.", "is_fresh": 0, "author": ["Alex Sandell"]},
{"text": "Classic Python", "is_fresh": 1, "author": ["Kevin Fiddler"]},
{"text": "The vomiting scene is one of the funniest moments ever filmed.", "is_fresh": 1, "author": ["Jeffrey M. Anderson"]},
{"text": "Python's curtain call, a random grab-bag of sketches ranging from the sublime to the forgettable to the appallingly hysterical. But always, the troupe's iconoclastic spirit shines through.", "is_fresh": 1, "author": ["Rob Vaux"]},
{"text": "Some of the troupe's finest moments ever are here.", "is_fresh": 1, "author": ["James Sanford"]}
]