[
{"reviews_count": "98", "title": "Notting Hill", "avg_audience_rating": "3.3", "rotten_count": "17", "tomatometer": "83", "audience_score": "79", "avg_critic_rating": "7.1", "fresh_count": "81", "user_ratings_count": "508,228"},
{"text": "Not deep, but definitely funny--teens will enjoy.", "is_fresh": 1, "author": ["Randy White"]},
{"text": "It's a crowd-pleaser, all right (so were public hangings, once), but with all the emotional resonance of a tap on the knee with a rubber hammer.", "is_fresh": 0, "author": ["Jim Lane"]},
{"text": "The ending is happy and ironic in equal measure, but most of the fun is just getting there with the right chemistry and compatibility.", "is_fresh": 1, "author": ["Andrew Sarris"]},
{"text": "Hugh Grant teams up with writer Richard Curtis for the second time, and we've got a winner.", "is_fresh": 1, "author": ["Jeffrey M. Anderson"]},
{"text": "t's an agreeably slick affair, with decent support performances, elegant camerawork, and several impressive set pieces.", "is_fresh": 1, "author": ["Geoff Andrew"]},
{"text": "An exceptionally guy-friendly chick flick.", "is_fresh": 1, "author": ["Jeff Millar"]},
{"text": "The blatant self-piracy and marketing greed on display here suck the soul out of this almost likeable romantic comedy.", "is_fresh": 0, "author": ["Robin Clifford"]},
{"text": "The most enjoyable way to read this movie is as an elaborate -- though good-natured -- practical joke on Julia Roberts.", "is_fresh": 1, "author": ["Philip Martin"]},
{"text": "Make no mistake: Even those who've previously managed to resist the Julia Juggernaut are likely to cave in after seeing 'Notting Hill.'", "is_fresh": 1, "author": ["James Sanford"]},
{"text": "Curtis and Michell rely on America's love for those nutty Brits to sell the film, and they will not be disappointed.", "is_fresh": 1, "author": ["John R. McEwen"]},
{"text": "It endears and entertains, with genuine warmth and grace.", "is_fresh": 1, "author": ["Nick Davis"]},
{"text": "A thoroughly pleasurable emotional thrill ride that is, in its own way, as satisfying as watching Arnold hang from the wing of a speeding jet.", "is_fresh": 1, "author": ["Margaret A. McGurk"]},
{"text": "While we never doubt the outcome, Notting Hill offers an enjoyable narrative journey.", "is_fresh": 1, "author": ["Ed Kelleher"]},
{"text": "Exuding a self-deprecating charm that's hard to resist, Grant captivates the audience immediately as the film's narrator.", "is_fresh": 1, "author": ["Betty Jo Tucker"]},
{"text": "Esta \u00e9 uma daquelas hist\u00f3rias que todos sabem como ir\u00e1 terminar - o divertido \u00e9 o trajeto at\u00e9 o desfecho.", "is_fresh": 1, "author": ["Pablo Villa\u00e7a"]},
{"text": "Lately, romance comedies have expanded in running time, doubtless to compensate for their shrinkage in charm, and this is no exception -- it's way too long for something far too slight.", "is_fresh": 0, "author": ["Rick Groen"]},
{"text": "[Grant] makes the romantic yearning palatable and moving in each scene he's in, and the result is both funny and poignant.", "is_fresh": 1, "author": ["Chuck Rudolph"]},
{"text": "A charming and polished romantic comedy,", "is_fresh": 1, "author": ["Frederic and Mary Ann Brussat"]},
{"text": "Whoopsidaisies!, muy divertida.", "is_fresh": 1, "author": ["Alex Ramirez"]},
{"text": "The movie is a fairy tale, and writer Richard Curtis (Four Weddings and a Funeral) knows how much the public loves a fairy tale.", "is_fresh": 1, "author": ["John J. Puccio"]},
{"text": "Sometimes, the movie says in its naive but wonderfully affable manner, gods need mortals.", "is_fresh": 1, "author": ["James Kendrick"]},
{"text": "The film's romantic core is impervious to problems.", "is_fresh": 1, "author": ["Kenneth Turan"]},
{"text": "A very enjoyable adult romantic comedy because of fine performances and some clever dialogue.", "is_fresh": 1, "author": ["Robert Roten"]},
{"text": "The movie has lots of glossy charm!", "is_fresh": 1, "author": ["Janet Maslin"]},
{"text": "The romance is tepid.", "is_fresh": 0, "author": ["James Berardinelli"]},
{"text": "With lead actors like that, Notting Hill doesn't need a cast of annoying supporting characters, but it's got them.", "is_fresh": 0, "author": ["Stephanie Zacharek"]},
{"text": "The movie is bright, the dialogue has wit and intelligence, and Roberts and Grant are very easy to like.", "is_fresh": 1, "author": ["Roger Ebert"]},
{"text": "Sometimes it's the simple, unfussy entertainment that comes off best.", "is_fresh": 1, "author": ["Caroline Westbrook"]},
{"text": "Attempts at pathos fall with a resounding dud!", "is_fresh": 0, "author": ["Ernest Hardy"]},
{"text": "Plenty of warmly waggish yocks!", "is_fresh": 1, "author": ["Christine James"]},
{"text": "Quite simply the sharpest romantic comedy to come along in a long, long time!", "is_fresh": 1, "author": []},
{"text": "Blithe and exhilarating!", "is_fresh": 1, "author": ["Lisa Schwarzbaum"]},
{"text": "Surprisingly light and fun overall, \"Notting Hill\" is good solid entertainment. ", "is_fresh": 1, "author": ["Ross Anthony"]},
{"text": "A perfect date movie and one of the most delightful films in years!", "is_fresh": 1, "author": ["Susan Granger"]},
{"text": "As exquisitely directed by Roger Michell and smartly scripted by Richard Curtis, the movie easily transcends its highly contrived setup.", "is_fresh": 1, "author": ["Steve Rhodes"]},
{"text": "I have to give Roberts credit for being willing to poke fun at herself.", "is_fresh": 1, "author": ["MaryAnn Johanson"]},
{"text": "Sweet and mostly winning!", "is_fresh": 1, "author": ["Jim Judy"]},
{"text": "This is one of the best romantic comedies I've seen in a long time.", "is_fresh": 1, "author": ["Guy MacPherson"]},
{"text": "Notting Hill cynically merges Hollywood gloss and smarminess with an overwrought but highly exportable English taste for quirk.", "is_fresh": 0, "author": ["Dennis Lim"]},
{"text": "Clearly, Roberts can play the version of herself with which you're familiar and happy. Where that leaves you on the real-unreal continuum is a little less clear.", "is_fresh": 0, "author": ["Cynthia Fuchs"]},
{"text": "Thanks to Roberts and Grant, Notting Hill is a neighborhood worth visiting.", "is_fresh": 1, "author": ["Jack Garner"]},
{"text": "The movie is very funny and that humor truly overcomes most of the quibbles I have with the screenplay.", "is_fresh": 1, "author": ["Erik Childress"]},
{"text": "Greatly entertaining.", "is_fresh": 1, "author": ["Urban Cinefile Critics"]},
{"text": "This flick is ten times the movie that Phantom Menace is!", "is_fresh": 1, "author": ["Mark Ramsey"]},
{"text": "Notting Hill is whimsical and light, fresh and quirky. Quite engaging and quietly appealing.", "is_fresh": 1, "author": ["Elias Savada"]},
{"text": "I recommend the movie because it is so beautifully written and performed.", "is_fresh": 1, "author": ["Mike McGranaghan"]},
{"text": "With Notting Hill, you've got a romantic comedy that makes falling in love with a movie easy as pie!", "is_fresh": 1, "author": ["Susan Stark"]},
{"text": "We should be pleased enough to see a star-vehicle romantic comedy which actually does contain star quality, romance and comedy.", "is_fresh": 1, "author": ["Ian Waldron-Mantgani"]},
{"text": "No smoky Darjeeling or perfumey Earl Grey here, just the plain black brew, hot and light and sweet.", "is_fresh": 1, "author": ["Hollis Chacona"]},
{"text": "The same old romantic comedy formula story that has become a Hollywood trademark is revived here.", "is_fresh": 0, "author": ["Dennis Schwartz"]},
{"text": "All the other supporting players are British television stars and all rise to the occasion of this big-budget feature film.", "is_fresh": 1, "author": ["Paul Clinton (CNN.com)"]},
{"text": "One reason the film succeeds is that it so deftly combines elements from sappy U.S. romantic comedies and the much more caustic British satires. And when that experiment works here, it works well.", "is_fresh": 1, "author": ["Jeff Vice"]},
{"text": "Quite possibly not since Hepburn and Grant or Hepburn and Tracy or Funicello and Avalon have we seen this much on-screen chemistry.", "is_fresh": 1, "author": ["Brandon Judell"]},
{"text": "If you like lighthearted romances, Notting Hill is for you.", "is_fresh": 1, "author": ["Christopher Null"]},
{"text": "The movie-star-playing-a-movie-star-who-wants-to-be-a-real-person conceit also has an odd, chilling effect on Julia Roberts, whose appeal, overwhelmingly, is based on her seeming just like the rest of us.", "is_fresh": 0, "author": ["Peter Rainer"]},
{"text": "The film is surprisingly charming summer entertainment.", "is_fresh": 1, "author": ["Bryant Frazer"]},
{"text": "What distinguishes the film is its oft-forlorn, last-day-of-summer-camp quality.", "is_fresh": 1, "author": ["Noel Murray"]},
{"text": "Director Roger Michell uses technical flourishes sparingly but to lovely effect.", "is_fresh": 1, "author": ["Bob Graham"]},
{"text": "Director Roger Michell isn't content to rest on his stars' slapstick laurels, mining instead the more sophisticated, if subversive, socio-romantic pratfalls in Curtis' script.", "is_fresh": 1, "author": ["Wesley Morris"]},
{"text": "Every time it starts to get really good, every time it reaches a romantic or emotional high, the soundtrack chimes in and ruins the scene with invariably intrusively and often downright awful songs.", "is_fresh": 0, "author": ["Rob Blackwelder"]},
{"text": "An unconvincing romance, languid pacing and a lot of empty scenes played out specifically for laughs, to the detriment of plot.", "is_fresh": 0, "author": ["JoBlo"]},
{"text": "Cumple el cometido que se traz\u00f3 desde el principio, que es el de entretener por un poco m\u00e1s de dos horas a la audiencia", "is_fresh": 1, "author": ["Jorge Avila Andrade"]},
{"text": "Roberts and Grant interact beautifully!", "is_fresh": 1, "author": ["Edward Johnson-Ott"]},
{"text": "The winning romantic comedy every summer not only awaits, but counts on!", "is_fresh": 1, "author": ["Jay Carr"]},
{"text": "Very funny!", "is_fresh": 1, "author": ["Steven Rosen"]},
{"text": "Julia Roberts flashes her megawatt smile, Hugh Grant does his patented dithering English fellow bit and they're just as cute as two buttons in this winning romantic comedy.", "is_fresh": 1, "author": ["Maitland McDonagh"]},
{"text": "Grant's sly, boyish, infallibly halting charm makes him, if not the new Cary Grant, unbeatably the new David Niven.", "is_fresh": 1, "author": ["David Elliott"]},
{"text": "It's funny, sympathetic, mostly smart, and it boasts a likable cast of characters led by two performers who have star power and know how to use it.", "is_fresh": 1, "author": ["Mark Caro"]},
{"text": "Grant and Roberts build an exciting fire between them!", "is_fresh": 1, "author": ["Desson Thomson"]},
{"text": "Witty, sweet and genuine!", "is_fresh": 1, "author": ["Bob Fenster"]},
{"text": "Smart, sometimes pissingly funny!", "is_fresh": 1, "author": []},
{"text": "Notting Hill is clever, funny, romantic - and oh, yes, reminiscent of Four Weddings and a Funeral.", "is_fresh": 1, "author": ["Sue Pierman"]},
{"text": "Good hair, great chemistry, and a close-up of her at the finale that would make a dentist weep for joy!", "is_fresh": 1, "author": ["Julie Hinds"]},
{"text": "Grant is unfailingly funny!", "is_fresh": 1, "author": ["Gary Thompson"]},
{"text": "A romantic-comedy charmer in which you genuinely care about the partners-in-romance.", "is_fresh": 1, "author": ["Philip Wuntch"]},
{"text": "Notting Hill is a harmless, well-intentioned romantic comedy with several solid laughs.", "is_fresh": 1, "author": ["Christy Lemire"]},
{"text": "Not only repetitive but plain unfunny!", "is_fresh": 0, "author": ["Harvey S. Karten"]},
{"text": "Notting Hill is Four Weddings And A Funeral with inferior character actors, no Simon Callow, and fewer jokes.", "is_fresh": 0, "author": ["Amy Douthett"]},
{"text": "Cunningly crafted!", "is_fresh": 1, "author": ["Lawrence Toppman"]},
{"text": "Notting Hill is about as enchanting as movies get these days!", "is_fresh": 1, "author": ["Rod Dreher"]},
{"text": "Nothing new. And nothing much.", "is_fresh": 0, "author": ["John Anderson"]},
{"text": "Slick look, a bit of experimental camera work, and clever montages.", "is_fresh": 1, "author": ["Jeanne Aufmuth"]},
{"text": "Funny, poignant and delightful in just the right measure!", "is_fresh": 1, "author": ["Eric Lurio"]},
{"text": "[Notting Hill] has buckets to spare of that rarest screen commodity -- genuine, engaging charm -- plus a cast and production values that fully deliver when the chips are down.", "is_fresh": 1, "author": ["Derek Elley"]},
{"text": "The humor of the film saves it from a completely trite and unsatisfying (nay, shall I say enraging) ending.", "is_fresh": 1, "author": ["Widgett Walls"]},
{"text": "What remains true throughout is the enrapturing spell this sparkling entertainment casts upon the audience.", "is_fresh": 1, "author": ["Michael Dequina"]},
{"text": "Roberts is beautiful, Grant is charming, London is picturesque. What more can you ask for?", "is_fresh": 1, "author": ["Bob Bloom"]},
{"text": "This is romantic comedy in an old-fashioned sense, where the pleasures come more from a zestful staging than from foolish details like whether the relationship is 'realistic.'", "is_fresh": 1, "author": ["Scott Renshaw"]},
{"text": "The rare, quintessential Hollywood romance\u0097smart, affectionate, realistic, and thoroughly likable.", "is_fresh": 1, "author": ["Dustin Putman"]},
{"text": "This is a perfect example of how good 'mainstream' movies can be.", "is_fresh": 1, "author": ["Eugene Novikov"]},
{"text": "Perhaps the two leads seem just too charming and empty.", "is_fresh": 0, "author": ["Mark R. Leeper"]},
{"text": "", "is_fresh": 1, "author": ["William Arnold"]},
{"text": "", "is_fresh": 1, "author": ["Madeleine Williams"]},
{"text": "", "is_fresh": 1, "author": []},
{"text": "", "is_fresh": 1, "author": ["Greg Dean Schmitz"]},
{"text": "", "is_fresh": 1, "author": ["Matt Easterbrook"]},
{"text": "", "is_fresh": 1, "author": ["Bill Chambers"]},
{"text": "", "is_fresh": 0, "author": []}
]