[
{"reviews_count": "88", "title": "Papillon", "avg_audience_rating": "3.7", "rotten_count": "42", "tomatometer": "52", "audience_score": "67", "avg_critic_rating": "  6", "fresh_count": "46", "user_ratings_count": "904"},
{"text": "[Hunnam and Malek] aren't bad -- they turn in human-scaled, naturalistic performances, which would be fine in another kind of movie. But it's not enough to carry a movie for two hours and thirteen minutes or to engage us for that long. ", "is_fresh": 0, "author": ["Rob Gonsalves"]},
{"text": "A new spin on the horrifying story of prisoners held at the infamous Saint Laurent prison on a remote island in French Guyana", "is_fresh": 1, "author": ["Anne Brodie"]},
{"text": "There's a reason studios rarely attempt to remake a Steve McQueen movie.", "is_fresh": 0, "author": ["Benjamin Freed"]},
{"text": "By trying to remain indebted to a movie which already worked quite well on its own, and not trying to modernize or otherwise change the events therein, the film becomes overshadowed by its predecessor. ", "is_fresh": 0, "author": ["David Fontana"]},
{"text": "Malek makes a fine, low-key effort as the buddy who turns Papillon into a better man, but Hoffman is an impossible act to follow.", "is_fresh": 0, "author": ["John Lui"]},
{"text": "Unrelentingly grim throughout its 130-minute runtime, Papillon is an exhausting experience.", "is_fresh": 0, "author": ["Rashid Irani"]},
{"text": "While you do feel the pathos, it doesn't quite give you the intended catharsis. It's still a cracking adventure yarn and those who haven't seen the 1973 original should definitely go for it.", "is_fresh": 1, "author": ["Devesh Sharma"]},
{"text": "A few minutes longer than the original yet feels shorter, more efficient, more engaging, with a screenplay that brings out the relationship at the story's heart.", "is_fresh": 1, "author": ["Eric D. Snider"]},
{"text": "Papillon has the scale and most of the technical details to make for a compelling prestige drama, but it's ultimately sunk by the numerous holes it has in its structure.", "is_fresh": 0, "author": ["Jon Winkler"]},
{"text": "Brutal violence, strong language in prison remake. ", "is_fresh": 1, "author": ["Michael Ordo\u00f1a"]},
{"text": "Paraphrasing the great director John Huston, it is folly to remake great films; only good stories badly made should be tackled.", "is_fresh": 0, "author": ["Diane Carson"]},
{"text": "An inescapable aroma of redundancy limits this credible but exhausting edition.", "is_fresh": 0, "author": ["Robert Denerstein"]},
{"text": "...remake is overall more satisfying than original ... less movie start charismatic, Hunnam plays squire to McQueen's Cooler King ... 'Les Miz' meets 'Escape from Alcatraz'", "is_fresh": 1, "author": ["Glenn Lovell"]},
{"text": "It might not be perfect, but this \"Papillon\" definitely has wings.", "is_fresh": 1, "author": ["Al Alexander"]},
{"text": "Lacking charismatic leads, this tepid remake falls flat - for real drama, see the original.", "is_fresh": 0, "author": ["Susan Granger"]},
{"text": "This adaptation of Papillon is fine. The performances are fine, the direction is fine. But was a remake really necessary if there isn't anything spectacular about it?", "is_fresh": 1, "author": ["Roxana Hadadi"]},
{"text": "Papillon is not a bad movie, but more like a work of unfulfilled promise.", "is_fresh": 1, "author": ["Alci Rengifo"]},
{"text": "Sadly, Noer's Papillon is a grittier but largely generic addition to the popular prison drama subgenre.", "is_fresh": 0, "author": ["Brandy McDonnell"]},
{"text": "Things look darker, the palette is muted and the horrors become an ambient track in this trance dance of death. The drama, however, feels a lot lighter. Not in terms of tone, but in substance.", "is_fresh": 1, "author": ["Katherine Monk"]},
{"text": "They plot, escape and are caught...over and over...to the point where you find yourself indifferent to whether or not these two make it or don't make off the island. ", "is_fresh": 0, "author": ["Tom Santilli"]},
{"text": "A great escape drama and a worthy remake of the 1970s original, Malek and Hunnam have solid buddy chemistry.", "is_fresh": 1, "author": ["James Verniere"]},
{"text": "Rated it higher than this in my review. The more I think, the less I like the movie. Proof though that movie-makers are totally out of ideas. ", "is_fresh": 0, "author": ["Gary Wolcott"]},
{"text": "While this new version doesn't have the epic classicism of Schaffner's version, it has a visceral, ragged energy all its own.", "is_fresh": 1, "author": ["Rob Thomas"]},
{"text": "A clumsy adaptation that essentially defines the gulf between \"things happening\" and \"story.\"", "is_fresh": 0, "author": ["Vincent Mancini"]},
{"text": "What's present works okay enough to earn a slight recommendation. (Full Content Review for Parents - Violence, Profanity, Nudity, etc. - also Available)", "is_fresh": 1, "author": ["Jim Judy"]},
{"text": "This remake seems mostly unnecessary, a well-crafted epic that ultimately feels more exhausting than exciting.", "is_fresh": 0, "author": ["Todd Jorgenson"]},
{"text": "Even though there is always something going on, the film feels far too long at its over two-hour runtime. ", "is_fresh": 0, "author": ["Staci Layne Wilson"]},
{"text": "A powerful metaphor for our troubled times.", "is_fresh": 1, "author": ["Charles Koplinski"]},
{"text": "I could never quite figure out why this story was being told again, and I drifted away from its action way too often.", "is_fresh": 0, "author": ["Brian Tallerico"]},
{"text": "Papillon segues into a padded-out and leisurely-paced midsection that slowly-but-surely begins to test the viewer's patience...", "is_fresh": 0, "author": ["David Nusair"]},
{"text": "Many dramatic events play out before our eyes, but virtually none of it has any emotional impact.", "is_fresh": 0, "author": ["Sarah Boslaugh"]},
{"text": "As director Michael Noer struggles to tease a theme out of a string of exploits, Papillon remains as entertaining as ever.", "is_fresh": 1, "author": ["Kate Taylor"]},
{"text": "Papillon isn't a particularly original film, but it far from a prison sentence.", "is_fresh": 1, "author": ["Jordan Hoffman"]},
{"text": "[T]he central question is whether or not the filmmakers and actors have brought anything new, noteworthy, or unique to this version. To a degree, they have.", "is_fresh": 1, "author": ["Mark Dujsik"]},
{"text": "There was really no need for a remake of 'Papillon,'...but if we must have one, Michael Noer's dutiful, slightly stolid retelling is probably as good as one has any right to expect.", "is_fresh": 0, "author": ["Frank Swietek"]},
{"text": "The end result feels routinely anonymous.", "is_fresh": 0, "author": ["Michael Rechtshaffen"]},
{"text": "It's only as strong as its overstuffed and overexaggerated source material, and you get the sense the film would have been improved with even more diversion from the book. After all, it's not exactly a case of adapting a true story.", "is_fresh": 1, "author": ["Andrew Todd"]},
{"text": "It is an impressively staged and appropriately rain-soaked, mud-splattered, bone-crunching tale, more violent and filled with rougher language than its predecessor, if not quite as powerful or moving.", "is_fresh": 1, "author": ["Richard Roeper"]},
{"text": "Noer's Papillon -- a remake of Franklin J. Schaffner's 1973 feature starring Steve McQueen and Dustin Hoffman -- lacks the emotional resonance necessary to carry us through an already lengthy 136-minute running time without it feeling even longer.", "is_fresh": 0, "author": ["Dann Gire"]},
{"text": "Compelling throughout...Hunnam continuing to be charming despite his ceaselessly dour presence.", "is_fresh": 1, "author": ["Dom Sinacola"]},
{"text": "Why even remake \"Papillon\" to begin with? This new version doesn't answer that question.", "is_fresh": 0, "author": ["Jordan Ruimy"]},
{"text": "Director Michael Noer falls short in a number of ways, leaving a sense of missed opportunity.", "is_fresh": 0, "author": ["Bruce DeMara"]},
{"text": "['Papillon'] feels for a time like it might not lift itself above this level of audience engagement, but the turning point comes about halfway through the film..when Papillon...has just weathered two years in solitary confinement.", "is_fresh": 1, "author": ["Chris Knight"]},
{"text": "Mr. Hunnam plays Papillon with a certain fierceness and swagger, but his psyche is largely impenetrable.", "is_fresh": 0, "author": ["John Anderson"]},
{"text": "Whether you're looking to this as a prison-break film, a psychological study, or a platonic romance, Papillon turns into a well-meaning slog.", "is_fresh": 0, "author": ["Kristian M. Lin"]},
{"text": "What Charriere endured, and finally left behind, has already proven irresistible to a global audience. This retelling - prettily assembled, a little dull - gives that audience little that's truly new.", "is_fresh": 0, "author": ["Michael Phillips"]},
{"text": "It was filmed with impressive care and the performances are good, if you're in the mood for starvation, madness and harsh physical cruelty.", "is_fresh": 1, "author": ["Colin Covert"]},
{"text": "[Papillon is] a potent, well-executed version of Charri\u00e8re's amazing story.", "is_fresh": 1, "author": ["Sean P. Means"]},
{"text": "Though Charlie Hunnam and Rami Malek give everything they've got to this true-life prison escape, they're denied the chance to make their characters as indelible as Steve McQueen and Dustin Hoffman did in the 1973 original.", "is_fresh": 1, "author": ["Peter Travers"]},
{"text": "Ambitious but emotionally hollow.", "is_fresh": 0, "author": ["Doris Toumarkine"]},
{"text": "If you're a fan of the two leads, it is worth your time, but if you're a fan of the original film, it becomes more of a curio, an interesting comparison of filmmaking in the Seventies to what contemporary cinema gives us today.", "is_fresh": 1, "author": ["Josh Kupecki"]},
{"text": "There is no way a competent director could tell this story without its compelling events shining through. It's no slight to Hunnam and Malek to say they don't carry the wattage of McQueen and Hoffman, but they carry the story.", "is_fresh": 1, "author": ["Jim Slotek"]},
{"text": "The film is mostly sedate, without tension and with too much smolder.", "is_fresh": 0, "author": ["Johnny Oleksinski"]},
{"text": "Working from a script by Aaron Guzikowski, the director Michael Noer generally puts the camera where it should go and adds a sterile Parisian interlude but nothing much else of note.", "is_fresh": 0, "author": ["Manohla Dargis"]},
{"text": "... it's lead actors are competent, but like the movie itself, they fail to soar or offer anything new that will set the movie apart from its predecessor.", "is_fresh": 1, "author": ["Bob Bloom"]},
{"text": "It is the non-Hollywood, less glossy version of Charri\u00e8re's story and it packs its own kind of punch.", "is_fresh": 1, "author": ["Laura Clifford"]},
{"text": "Charri\u00e8re's 1969 book became a popular, controversial memoir in France. So why has it inspired not just one but two so-so prison escape films?", "is_fresh": 0, "author": ["Robert Abele"]},
{"text": "Amazingly, the remake -- by Danish director Michael Noer -- is nearly as long and equally as depressing. But he's made a slightly more exciting movie.", "is_fresh": 0, "author": ["Joshua Rothkopf"]},
{"text": "Papillon is an effectively stark prison escape (and survival) adventure with solid performances, but only digs so deep into its themes and characters.", "is_fresh": 1, "author": ["Sandy Schaefer"]},
{"text": "On its own, this new Papillon is a perfectly decent movie that tells a fascinating, suspenseful story with clarity and emotion. But in almost every aspect, it's inferior to the 1973 version.", "is_fresh": 0, "author": ["Ned Lannamann"]},
{"text": "[It's] a sumptuous-looking but slow-moving prison drama that at times will have you dreaming about an escape of your own.", "is_fresh": 0, "author": ["Lindsey Bahr"]},
{"text": "Despite running just over two hours, the new \"Papillon\" doesn't overstay its welcome. If anything, it should have been longer, so viewers could truly feel the passage of time", "is_fresh": 1, "author": ["Ruben Rosario"]},
{"text": "Going in, I had my doubts about this remake of a favorite classic. But the filmmakers, cast and crew do a solid job in telling a well-crafted true-life tale of one man's quest for freedom.", "is_fresh": 1, "author": ["Robin Clifford"]},
{"text": "The result is a film with much of the same appeal as \"The Lost City of Z.\" Let's hope it doesn't have the same fate.", "is_fresh": 1, "author": ["Cary Darling"]},
{"text": "Pretend you're watching McQueen and Hoffman.", "is_fresh": 0, "author": ["Kelly Vance"]},
{"text": "There's a truth to Rami Malek and Charlie Hunnam's take on these characters, and Hunnam in particular delivers an engaging performance, bringing an underlying vulnerability to Papi that makes him accessible to the audience.", "is_fresh": 1, "author": ["Rebecca Murray"]},
{"text": "It wisely doubles down on high adventure, but it's still as lifeless as its predecessor. Just in different ways.", "is_fresh": 0, "author": ["Chris Nashawaty"]},
{"text": "Papillon drags on a half hour longer than necessary...", "is_fresh": 0, "author": ["Danielle Solzman"]},
{"text": "Michael Noer's remake takes a more character-driven approach, a tactic that works well in favor of its stars Charlie Hunnam and Rami Malek. ", "is_fresh": 1, "author": ["Travis Hopson"]},
{"text": "Why on earth would anyone try to improve on - let alone equal - the rousingly entertaining, if melodramatic, original?", "is_fresh": 0, "author": ["Michael O'Sullivan"]},
{"text": "Hunnam and Malek acquit themselves finely, neither trying to imitate his predecessor.", "is_fresh": 1, "author": ["Barbara VanDenburgh"]},
{"text": "Without answering the question as to whether this film is better or worse than the one that came before it, \"Papillon\" 2018 is exciting, informative, and never boring, featuring solid performances and excellent production values.", "is_fresh": 1, "author": ["Jonathan W. Hickman"]},
{"text": "This new version, directed by Danish filmmaker Michael Noer, brings to the story a refreshing intensity and sweep, and even a sense of adventure.", "is_fresh": 1, "author": ["Bilge Ebiri"]},
{"text": "Charlie Hunnam, who wastes away to a near skeleton before our eyes, continues to prove his mettle as an actor. Rami Malek's performance isn't nearly as physical, but just as affecting. ", "is_fresh": 1, "author": ["Julian Roman"]},
{"text": "Papillon registers as enjoyable disposable entertainment for having two modern-day staples of outstanding television joining forces, but it's difficult to not feel that the filmmakers should have leaned even further into the psychological aspects", "is_fresh": 1, "author": ["Robert Kojder"]},
{"text": "Respectable sequel to the 1973 road-and-buddy prison drama.", "is_fresh": 1, "author": ["Harvey S. Karten"]},
{"text": "To contrast Franklin J. Schaffner's 1973 Papillon with its remake is to underscore certain differences between commercial films of two distinct generations.", "is_fresh": 0, "author": ["Chuck Bowen"]},
{"text": "The film's tagline tells us that this is the greatest escape adventure ever told. While that may indeed be true, the movie that tells the story certainly never achieves the same heights.", "is_fresh": 0, "author": ["Frank Wilkins"]},
{"text": "Arguments remain as to whether this survival story needed a retelling, but there is a case to be made for Noer's take being less bloated and more true to Charri\u00e8re's book.", "is_fresh": 1, "author": ["Eddie Harrison"]},
{"text": "Perfecting casting with phenomenal performances. ", "is_fresh": 1, "author": ["Ashley Menzel"]},
{"text": "While still heavily mirroring the other film's story beats, Danish director Michael Noer establishes his own rhythm. It's one of constant action and near-cartoonish brutality.", "is_fresh": 1, "author": ["Jordan Hoffman"]},
{"text": "Hunnam and Malek both hold up their end of the deal. Noer, for his part, meets them halfway ...", "is_fresh": 1, "author": ["Charles Bramesco"]},
{"text": "A strong remake that improves upon the original in some (but definitely not all) ways.", "is_fresh": 1, "author": ["Chris Bumbray"]},
{"text": "No, it's not. That's the answer to the obvious question that will be asked about whether or not Michael Noer's remake of Steve McQueen and Dustin Hoffman's classic \"Papillon\" is as good as the original.", "is_fresh": 0, "author": ["Kevin Jagernauth"]},
{"text": "Shows the difference between a 1970s Hollywood vehicle starring Steve McQueen as a badass adonis and a 2017 cinematic landscape able to embrace nuance and compassion.", "is_fresh": 1, "author": ["Jared Mobarak"]},
{"text": "... this brutal, bruising film never quite connects with its deeper themes, resulting in a story full of suffering but not enough transcendence.", "is_fresh": 0, "author": ["Tim Grierson"]},
{"text": "There's no real voice in the storytelling, nothing distinctive about the imagery, if it's not a doubling up on the violence and gore, and the result doesn't remotely resonate in the same way.", "is_fresh": 0, "author": ["Jordan Mintzer"]},
{"text": "What matters most is that the principally unchanged story of survival in colonial French Guiana remains a compelling one ...", "is_fresh": 1, "author": ["Dennis Harvey"]}
]