[
{"reviews_count": "49", "title": "Purple Rain", "avg_audience_rating": "3.4", "rotten_count": "16", "tomatometer": "67", "audience_score": "78", "avg_critic_rating": "6.2", "fresh_count": "33", "user_ratings_count": "47,061"},
{"text": "Even those who aren't Prince fans are likely to be captivated by its energy, enamored with its simple, often poignant storyline.", "is_fresh": 1, "author": ["Duane Byrge"]},
{"text": "Catharsis on the cheap; there's no reason to accept the pretense that the hero has suffered much and changed for the better unless you're predisposed to get swoony over Prince himself.", "is_fresh": 0, "author": ["Gary Arnold"]},
{"text": "The film is a love letter to collaboration, to passion, and to the power of music: this is Prince's legacy, brought to life nowhere more memorably than in Purple Rain.", "is_fresh": 1, "author": ["Alexandra Heller-Nicholas"]},
{"text": "As a debut and a savvy statement of personal enterprise, Purple Rain is quite an accomplishment. As a film, moreover, it is precisely the sort of vehicle one would have wished for Elvis in his Hollywood heyday.", "is_fresh": 1, "author": ["Cynthia Rose"]},
{"text": "The drama is clunky, the acting is awful more often than not, and the casual sexism simmers throughout. But whenever Prince takes the stage to perform one of his sizzling songs, the picture irresistibly exudes sex, sweat and swagger in equal measure.", "is_fresh": 1, "author": ["Matt Brunson"]},
{"text": "Prince's rock musical-drama has lots of sex, profanity.", "is_fresh": 0, "author": ["Barbara Shulgasser"]},
{"text": "A viewer's response to the movie will probably relate directly to how much the viewer likes Prince to begin with.", "is_fresh": 0, "author": ["Roger Catlin"]},
{"text": "The music is lively, loud, often powerful, sometimes raunchy, yet full of unexpected subtleties and nuances. The staging is frenetic but as perfect as the machines of the art can produce. This is first class music video.", "is_fresh": 1, "author": ["Ted Mahar"]},
{"text": "Rock star Prince makes an impressive feature film debut in Purple Rain, a rousing contemporary addition to the classic backstage musical genre.", "is_fresh": 1, "author": ["Cynthia Kirk"]},
{"text": "The less said about the lead performances the better, although Morris Day eclipses the star with a charismatic turn, but Prince and the Revolution were at the height of their powers.", "is_fresh": 1, "author": ["John Ferguson"]},
{"text": "For Prince fans, this movie will be a must for videocassette purchase, but even they will have to deal with the sexist way women are treated by all the film's male characters.", "is_fresh": 0, "author": []},
{"text": "Simplistic, superficial and surprisingly sentimental, Purple Rain is everything Prince's music is not.", "is_fresh": 0, "author": ["Ralph Novak"]},
{"text": "Prince's 1984 movie debut seems more like his deification, with an aggressively stupid plot line that serves only to set him up as a paragon of artistic integrity, sexual prowess, and superhuman sensitivity.", "is_fresh": 0, "author": ["Dave Kehr"]},
{"text": "A hokey but mesmerizing rock-video psychodrama.", "is_fresh": 1, "author": ["Owen Gleiberman"]},
{"text": "worth a rental for the curious and is a keeper for his fans", "is_fresh": 0, "author": ["John A. Nesbit"]},
{"text": "Dearly beloved, we are gathered here today to get through this thing called Purple Rain--the Citizen Kane of Minnesota movies and a worldwide showcase for the ascendance of its then-26-year-old star into rock 'n' roll eternity.", "is_fresh": 1, "author": ["Rob Nelson"]},
{"text": "It's probably best to think of the film as an extended music video, a watershed moment for movie sound tracks, and not much more.", "is_fresh": 0, "author": ["Bill Goodykoontz"]},
{"text": "...there is so much good music involved...it easily distracts one's mind from the clunky histrionics.", "is_fresh": 1, "author": ["John J. Puccio"]},
{"text": "Who cares if Purple Rain is silly?", "is_fresh": 1, "author": ["Josef Braun"]},
{"text": "[The plot] is all no more than fancy padding around the film's heart, which only starts to really pump when Prince is up on stage: a teasing, hot amalgam of Marc Bolan, Nijinsky and the Scarlet Pimpernel, as electric as his guitar.", "is_fresh": 1, "author": ["Frances Dickinson"]},
{"text": "The musical performances are memorable, everything else is forgettable", "is_fresh": 0, "author": ["Rob Thomas"]},
{"text": "Bland Prince vehicle that takes itself far too seriously.", "is_fresh": 0, "author": ["Steve Crum"]},
{"text": "intriguingly well-told story", "is_fresh": 1, "author": ["Rich Cline"]},
{"text": "Those who are looking for a two-hour music video with a coherent story will not be disappointed.", "is_fresh": 0, "author": ["Douglas Pratt"]},
{"text": "[Prince] just comes across as a petulant brat, rather than the symbolically tortured artist. The music, however, is divine.", "is_fresh": 0, "author": ["Ian Nathan"]},
{"text": "The performers have a bit of a wink behind their performances, and so the artificiality meshes together neatly.", "is_fresh": 1, "author": ["Jeffrey M. Anderson"]},
{"text": "[Purple Rain] is probably the flashiest album cover ever to be released as a movie. However, like many album covers, Purple Rain, though sometimes arresting to look at, is a cardboard come-on to the record it contains.", "is_fresh": 0, "author": ["Vincent Canby"]},
{"text": "Purple Rain shares a trump card--its set list--with casual Prince fans, who are advised to reach for the soundtrack album instead.", "is_fresh": 0, "author": ["Bill Chambers"]},
{"text": "Purple Rain's gazillion-selling soundtrack album has more or less eclipsed the film in pop culture history books.", "is_fresh": 1, "author": ["Eric Henderson"]},
{"text": "Short people of Hollywood...DANCE!", "is_fresh": 1, "author": ["Kevin A. Ranson"]},
{"text": "it isn't much of a movie, but it's one hell of a show", "is_fresh": 1, "author": ["Don Willmott"]},
{"text": "Awesome musical performances and an enthusiastic if largely amateur cast make this more than just rock history.", "is_fresh": 1, "author": ["Matthew De Abaitua"]},
{"text": "A classic '80s rock movie, whose soundtrack was perhaps the best album of the decade.", "is_fresh": 1, "author": ["Luke Y. Thompson"]},
{"text": "Prince is one of the most talented musicians of our time. His movie doesn't quite reflect that, but it's in Minneapolis, so it's cool.", "is_fresh": 1, "author": ["Alex Sandell"]},
{"text": "So-so picture that is most notable for the terrific musical sequences featuring Prince and his band.", "is_fresh": 1, "author": ["Forrest Hartman"]},
{"text": "You'll have a rockin' good time!", "is_fresh": 1, "author": ["Clint Morris"]},
{"text": "Where are all those people who called this \"the Citizen Kane of rock movies\" hiding?", "is_fresh": 0, "author": ["Ken Hanke"]},
{"text": "It does what musicals are supposed to do: It rides the underlying currents of its moment and renders them glorious.", "is_fresh": 1, "author": ["Mick LaSalle"]},
{"text": "", "is_fresh": 1, "author": ["Cole Smithey"]},
{"text": "", "is_fresh": 1, "author": ["Michael W. Phillips, Jr."]},
{"text": "", "is_fresh": 1, "author": ["Michael Dequina"]},
{"text": "", "is_fresh": 1, "author": ["Emanuel Levy"]},
{"text": "", "is_fresh": 1, "author": ["Jurgen Fauth"]},
{"text": "", "is_fresh": 1, "author": ["Spence D."]},
{"text": "", "is_fresh": 1, "author": ["Christopher Smith"]},
{"text": "", "is_fresh": 1, "author": ["Nicolas Lacroix"]},
{"text": "", "is_fresh": 1, "author": ["Philip Martin"]},
{"text": "", "is_fresh": 1, "author": ["Jeffrey Westhoff"]},
{"text": "", "is_fresh": 0, "author": ["Scott Weinberg"]}
]