[
{"reviews_count": "246", "title": "Ratatouille", "avg_audience_rating": "3.9", "rotten_count": "11", "tomatometer": "96", "audience_score": "87", "avg_critic_rating": "8.5", "fresh_count": "235", "user_ratings_count": "1,071,434"},
{"text": "The studio's latest effort offers beautiful and strikingly realistic animation, but the flawed concept should have been scrapped...", "is_fresh": 0, "author": ["Brandy McDonnell"]},
{"text": "I won't spoil the broth, but suffice to say Ratatouille is a bursting with bright flavors, some spice, and deep warmth that settles in your belly and satisfies body and soul.", "is_fresh": 1, "author": ["Dorothy Woodend"]},
{"text": "There is so much to enjoy and celebrate here, Ratatouille deserves more than a review: it could (and probably will) inspire books about creativity and good taste. ", "is_fresh": 1, "author": ["Jeffrey Overstreet"]},
{"text": "Ratatouille was written and directed by Brad Bird, the guy behind The Incredibles, and while his new movie isn't as brainy as that one, it has lots of lovely touches to appeal to parents as well as kids.", "is_fresh": 1, "author": ["Deirdre Swain"]},
{"text": "Ratatouille is a triumph that not only pays tribute to the spirit of discovery, but revels in the fun of making a few of its own.", "is_fresh": 1, "author": ["Todd Gilchrist"]},
{"text": "And there's Remy himself, voiced by irreverent comic Patton Oswalt. Yes, he's a rat, and a pantless one at that, but he's a charming rat.", "is_fresh": 1, "author": ["Mike Scott"]},
{"text": "The latest from Pixar and Oscar winning writer-director Brad Bird is a fabulously enjoyable parable about the pursuit of excellence and rising above the preconceptions of others.", "is_fresh": 1, "author": ["Mike Davies"]},
{"text": "It's not just the best animated film this year, it's the best animated film to come out of the U.S. since Bird's last effort, The Incredibles.", "is_fresh": 1, "author": ["AP Kryza"]},
{"text": "Like the snooty restaurant critic Anton Ego (voiced by Peter O'Toole), we enter Ratatouille thinking we've tasted it all, and we leave hoping for seconds.", "is_fresh": 1, "author": ["Kim Brown"]},
{"text": "It's a great programme for all the family.", "is_fresh": 1, "author": ["David Stratton"]},
{"text": "It's not my favourite Pixar film.", "is_fresh": 0, "author": ["Margaret Pomeranz"]},
{"text": "No restaurant has ever benefited from placing rats in a recipe, but the digital wizards in Pixar's kitchen have cooked up a winning peasant dish in Ratatouille.", "is_fresh": 1, "author": ["Katherine Monk"]},
{"text": "Ratatouille is a wonderful, wistful comedy, and a sparkling return to form for the computer animation studio Pixar after last year's lacklustre Cars.", "is_fresh": 1, "author": ["Ryan Gilbey"]},
{"text": "As in his previous films, Bird offers up a story with substance.", "is_fresh": 1, "author": ["Tim Basham"]},
{"text": "It's one of the strange ironies of Hollywood that adult audiences are usually treated like imbeciles while children receive much greater respect.", "is_fresh": 1, "author": ["Henry Fitzherbert"]},
{"text": "Pixar has become a brand name you can trust.", "is_fresh": 1, "author": ["Michael Adams"]},
{"text": "Yes, better than Big Night. Yes, smarter than Babette's Feast.", "is_fresh": 1, "author": ["Christopher Borrelli"]},
{"text": "Ratatouille isn't a bad movie, just one that doesn't do enough of what it does well.", "is_fresh": 0, "author": ["Steve Persall"]},
{"text": "Ratatouille is a delicious delight, brimming with colorful characters, lush animation and, as Remy rises at a chic Parisian restaurant, useful culinary advice. ", "is_fresh": 1, "author": ["Leah Rozen"]},
{"text": "The breathtaking reveal of Paris, the legendary city of lights, is only one of the many delights of this exquisitely designed movie.", "is_fresh": 1, "author": ["Pauline Adamek"]},
{"text": "Ratatouille manages to simultaneously provide everything we love about Pixar movies while forging a new path.", "is_fresh": 1, "author": ["Kevin Carr"]},
{"text": "Ratatouille seems more charming in concept than in execution. Bogged down by too many climaxes, it's a little overcooked.", "is_fresh": 0, "author": ["Ben Kenigsberg"]},
{"text": "Working with a tight, well-judged script and sensational animation that makes you want to go home and cook -- as well as be nicer to rodents -- director Brad Bird delivered the best family comedy of that year.", "is_fresh": 1, "author": ["Karen Krizanovich"]},
{"text": "Thankfully, Ratatouille never relies on pop-culture references or crass satire to get laughs. It creates comedy on its own terms.", "is_fresh": 1, "author": ["Jeff Meyers"]},
{"text": "The Academy might as well hand over the animated feature Oscar to Brad Bird right now, since it is hard to imagine any other film coming close to his glorious new film Ratatouille in this or any year.", "is_fresh": 1, "author": ["Mike Goodridge"]},
{"text": "Ratatouille follows the pattern of dazzling entertainment set long before by the first Toy Story picture, but elevates it to something more resounding than just a routine cartoon adventure with colorful characters or sight gags.", "is_fresh": 1, "author": ["David Keyes"]},
{"text": "Up there with Finding Nemo and Monsters Inc. as one of Pixar's best creature features. ", "is_fresh": 1, "author": ["Ali Gray"]},
{"text": "As classically as \"Babe,\" \"Ratatouille\" turns animal-kingdom expectations on their ear for a unique, generous and gleeful gastronomic masterpiece that knows it's not much fun to look out, or cook, only for yourself.", "is_fresh": 1, "author": ["Nick Rogers"]},
{"text": "It's a m\u00e9lange of top notch production quality, great performances, amazing animation, and a universal story of friendship.", "is_fresh": 1, "author": ["Felix Vasquez Jr."]},
{"text": "To borrow a line from the film, which includes an insightful look at the art of criticism: my compliments to the chef.", "is_fresh": 1, "author": ["Brett Michel"]},
{"text": "Genuine enchantment", "is_fresh": 1, "author": ["Fernando F. Croce"]},
{"text": "Ratatouille lacks the nutritional value of a truly satisfying meal. Only near the end does it serve up something meatier.", "is_fresh": 1, "author": ["Steve Biodrowski"]},
{"text": "When is a rat a lark? When he's created by Brad Bird. Brad Bird, the animation maestro from Pixar, invents a spunky, gourmet rodent in the lively, spicy romp Ratatouille.", "is_fresh": 1, "author": ["Tony Macklin"]},
{"text": "Kids are gonna gobble Ratatouille up; adults will relish its wit, and everyone will want to go out to eat after.", "is_fresh": 1, "author": ["Bob Mondello"]},
{"text": "A long run time (110 minutes) plus sly humor might make for restless kiddos. But take them anyway. Pixar is brain power.", "is_fresh": 1, "author": ["David Medsker"]},
{"text": "Ratatouille can expect to rake in the accolades.", "is_fresh": 1, "author": ["Heather Huntington"]},
{"text": "Journey to the Center of the Broth", "is_fresh": 1, "author": ["Thomas Peyser"]},
{"text": "Most of the discussions of food come off like an animated Frasier episode, which shouldn't have broad enough appeal.", "is_fresh": 1, "author": ["Jeff Bayer"]},
{"text": "Ratatouille is a delicious, delightful stew of a film, a classical fairy tale told with the language of 21st-century technology", "is_fresh": 1, "author": ["Brandon Fibbs"]},
{"text": "One of the few Pixar films which, for me, seemed more geared toward just kids, as opposed to their usual balance of kid/adult themes.", "is_fresh": 0, "author": ["JoBlo"]},
{"text": "One might have wished for a hero type more acceptable in terms of food preparation. Otherwise, delicious.", "is_fresh": 1, "author": ["Jules Brenner"]},
{"text": "arguably the finest film in Pixar's distinguished canon", "is_fresh": 1, "author": ["Marlow Stern"]},
{"text": "Ratatouille is never anything less than a joy to watch.", "is_fresh": 1, "author": ["Scott Townsend"]},
{"text": "Ratatouille is an instant classic.", "is_fresh": 1, "author": ["Geoff Berkshire"]},
{"text": "Complex in its simplicity. It can be summed up quickly by saying it's about a rat who helps a clumsy oaf achieve greatness in a French restaurant. But the rich themes that it covers in the process are universal and inspiring.", "is_fresh": 1, "author": ["Ryan Cracknell"]},
{"text": "Brad Bird is still on top of his game... if you think you can't make your dreams come true, try being a rat who wants to cook in a five-star restaurant.", "is_fresh": 1, "author": ["Kevin A. Ranson"]},
{"text": "Not only funny, engaging and entertaining from beginning to end, but a picture which delivers an abundance of heartwarming messages.", "is_fresh": 1, "author": ["Kam Williams"]},
{"text": "Dig into Pixar's delicious, well-crafted rat tale.", "is_fresh": 1, "author": ["Sandie Angulo Chen"]},
{"text": "The filmmakers at Pixar keep topping themselves with each new release.", "is_fresh": 1, "author": ["John J. Puccio"]},
{"text": "Another yummy concoction from Pixar.", "is_fresh": 1, "author": ["Bruce Bennett"]},
{"text": "This little gem puts you in the right mood.", "is_fresh": 1, "author": ["Philip French"]},
{"text": "Combining vivid characters with a fresh story, this is one of Pixar's best films yet.", "is_fresh": 1, "author": ["Rich Cline"]},
{"text": "A comedy that relates realistically to life, fashioned not with dozens of hilarious jokes but with due regard for proper storytelling.", "is_fresh": 1, "author": ["Derek Malcolm"]},
{"text": "Sure, you may not love rats. You may hate them. But you really do have to love Pixar.", "is_fresh": 1, "author": ["Stuart McGurk"]},
{"text": "Clever, certainly; ingenious, occasionally; enjoyable - hardly ever.", "is_fresh": 1, "author": ["Anthony Quinn"]},
{"text": "Purveys huge charm, enough to make you fall in love with the rat species and enough, with its array of screen dishes, to make America forgive France, re-dub freedom fries as French fries, and fall sobbing on the country's cordon bleu shoulders.", "is_fresh": 1, "author": ["Nigel Andrews"]},
{"text": "The animation lives up to Pixar's high standards, with the food looking mouth-wateringly realistic.", "is_fresh": 1, "author": []},
{"text": "Director Brad Bird has created a Pixar movie that's a joy to behold.", "is_fresh": 1, "author": ["Sukhdev Sandhu"]},
{"text": "Amazingly, Pixar just got better, raising the bar into the ether with Ratatouille.", "is_fresh": 1, "author": []},
{"text": "I loved Ratatouille. I was even tempted to drop the odd bit of popcorn, like tipping the waiter after a particularly good meal.", "is_fresh": 1, "author": ["Xan Brooks"]},
{"text": "In terms of visual panache and confident story-telling, it's second to none.", "is_fresh": 1, "author": ["Christopher Tookey"]},
{"text": "Anton Ego, the restaurant critic of The Grim Eater, is one of the greatest performances of Peter O'Toole's career.", "is_fresh": 1, "author": ["James Christopher"]},
{"text": "A delicious delight from start to finish, with a terrific script, great performances, sumptuous animation and a non-stop barrage of wonderful gags, both verbal and visual.", "is_fresh": 1, "author": ["Matthew Turner"]},
{"text": "The animation is superb, the vocal work flawless, the script witty, the central conflict between family ties and the pursuit of excellence subtly handled.", "is_fresh": 1, "author": ["Paul Arendt"]},
{"text": "Novel in concept, exquisite in execution, another family feast from Pixar suitable for all palates. Not a studio chef d'oeuvre, perhaps, but still the richest of this year's animations. Don't miss the starter course, hilarious space short Lifted.", "is_fresh": 1, "author": ["Matthew Leyland"]},
{"text": "Probably won't get the Oscar accolades of earlier, more inspired, idiosyncratic projects from the CGI masters. It's still good quality fare for the kids -- although whether they really need the same old homilies again is debatable.", "is_fresh": 1, "author": ["Daniel Etherington"]},
{"text": "All the ingredients come together to make a richly rewarding main course, seasoned with wit and wisdom yet never half-baked.", "is_fresh": 1, "author": ["Tim Evans"]},
{"text": "That feeling you have as you leave the cinema - that buzzing in the fingers and lightness in the heart - is called joy.", "is_fresh": 1, "author": ["Ian Nathan"]},
{"text": "Occasionally inspired, but mostly trivial and pointless.", "is_fresh": 0, "author": ["Matt Bochenski"]},
{"text": "Simultaneously 2007's best adventure movie and its most moving coming-of-age story.", "is_fresh": 1, "author": ["Tim Brayton"]},
{"text": "It's always been Pixar's boast that it keeps its computers in their place -- at the service of the story -- and with Ratatouille, it has proved it yet again.", "is_fresh": 1, "author": ["Sandra Hall"]},
{"text": "A lot of animated movies have inspired sequels, notably Shrek, but Brad Bird's Ratatouille is the first one that made me positively desire one.", "is_fresh": 1, "author": ["Roger Ebert"]},
{"text": "Every delicious situation is finger-licking good as the shy, clumsy Linguini becomes Remy's puppet, the rat-puppeteer holding onto large tufts of the novice-chef's hair and tugging them decisively, manipulating his every move.", "is_fresh": 1, "author": ["Urban Cinefile Critics"]},
{"text": "Would that these culinary rats could have put a little spice into \"No Reservations\"! Ratatouille is an animated love letter to the art of fine cuisine, creating it, enjoying it, and even critiquing it. It's almost too mature in its devotion to its subject", "is_fresh": 1, "author": ["Neil Cohen"]},
{"text": "An engaging enough premise, but does not really have a good story to tell. It pulls in too many directions.", "is_fresh": 1, "author": ["Mark R. Leeper"]},
{"text": "A sheer masterpiece. Sustains tension throughout between disgust and affection for the most repulsive of animals.", "is_fresh": 1, "author": ["Louis Proyect"]},
{"text": "I would have loved to have been present during the pitch meeting for \"Ratatouille.\" \"It's, um, a little bit 'Willard,' a little bit 'Like Water for Chocolate'\"!...The greatest rat movie and the greatest food movie ever made.", "is_fresh": 1, "author": ["Kyle Smith"]},
{"text": "With some terrific comedy and action sequences, an entertaining story, and engaging characters, the result is a sumptuous offering that both kids and adults alike will probably devour with hearty abandon", "is_fresh": 1, "author": ["Jim Judy"]},
{"text": "... while Bird's great wit and impressively wide-ranging imagination are again on tap in Ratatouille, I found it hard to suspend my disbelief ...", "is_fresh": 1, "author": ["Lori Hoffman"]},
{"text": "One of these days, Pixar is going to release a stinker. But that day isn't today.", "is_fresh": 1, "author": ["Eric Lurio"]},
{"text": "\"Ratatouille\" may just be the most fully expressed animated family movie to come around since \"101 Dalmatians\" (1961).", "is_fresh": 1, "author": ["Cole Smithey"]},
{"text": "Part of the surprise of Ratatouille is the unexpected way in which it unfolds. Brad Bird's script has some of the expected dramatic turns but it also holds a number of surprises.", "is_fresh": 1, "author": ["James Kendrick"]},
{"text": "Ratatouille is a veritable feast for the eye and the ear. Don't miss it.", "is_fresh": 1, "author": ["Andrew Sarris"]},
{"text": "But how would the rat match up against Iron Chef Morimoto?", "is_fresh": 1, "author": ["Stephen Himes"]},
{"text": "In Ratatouille, the level of moment-by-moment craftsmanship is a wonder.", "is_fresh": 1, "author": ["David Denby"]},
{"text": "Un entretenimento de primer nivel, con extraordinaria animaci\u00f3n pero sobre todo con entra\u00f1ables personajes y una historia original, divertida y hasta raramente emotiva.", "is_fresh": 1, "author": ["Enrique Buchichio"]},
{"text": "Ratatouille has imaginative animation, creative characters, but the use of a gray rat and his garbage-eating family is questionable.", "is_fresh": 0, "author": ["Marie Asner"]},
{"text": "R\u00e9my realizes where he is when he climbs to a rooftop and views the city's skyline, in a shot that's beautiful enough to bring tears to your eyes and make you forget that what you're seeing is all generated by binary code.", "is_fresh": 1, "author": ["Kristian M. Lin"]},
{"text": "Well I'm happy to report that it's not just very good, but Ratatouille is in fact great.", "is_fresh": 1, "author": ["Vic Holtreman"]},
{"text": "There are some ingredients that could have been left on the shelf, but overall, it's a treat for any taste.", "is_fresh": 1, "author": ["Cherryl Dawson and Leigh Ann Palone"]},
{"text": "It's getting a bit anticlimactic to announce that Pixar Films has another animated winner in theaters.", "is_fresh": 1, "author": ["Sean McBride"]},
{"text": "Tiene la magia de las viejas pel\u00edculas cl\u00e1sicas de Disney con todo y su mensaje de luchar por los sue\u00f1os y as\u00ed lograr lo imposible. Una verdadera delicia.", "is_fresh": 1, "author": ["Jorge Avila Andrade"]},
{"text": "...delicious in every sense of the word.", "is_fresh": 1, "author": ["Jim Lane"]},
{"text": "A tantalizing smorgasbord that will delight the palettes of audiences of all ages with its simple moral tale about pushing beyond your social boundaries to achieve success.", "is_fresh": 1, "author": ["Wesley Lovell"]},
{"text": "In food-critic speak, Ratatouille is highly seasoned and layered with complex flavors and has considerable sweetness on the finish.", "is_fresh": 1, "author": ["Susan Tavernetti"]},
{"text": "I think Brad Bird is working on another level than most animated writer/directors.", "is_fresh": 1, "author": ["Richard Roeper"]},
{"text": "A masterpiece that HAS to be the front-runner for this year's animated Oscar. It's actually the rare 'toon that even deserves consideration for Best Picture.", "is_fresh": 1, "author": ["Pete Hammond"]},
{"text": "Representa n\u00e3o apenas uma divers\u00e3o imperd\u00edvel (suas seq\u00fc\u00eancias de a\u00e7\u00e3o s\u00e3o sensacionais e seu senso de humor \u00e9 invej\u00e1vel) como tamb\u00e9m pode dar origem a discuss\u00f5es estimulantes sobre a natureza da Arte, do artista e do estudioso.", "is_fresh": 1, "author": ["Pablo Villa\u00e7a"]},
{"text": "Pixar/Disney's latest animated movie Ratatouille could be a trap, as it ensnares viewers from start to finish with its adorable animation, non-stop humor and lovable characters.", "is_fresh": 1, "author": ["Diana Saenger"]},
{"text": "Though it took a while, 'Ratatouille' won me over with its superior visuals and sophisticated direction.", "is_fresh": 1, "author": ["John P. McCarthy"]},
{"text": "Ratatouille is a welcome, delicate return to the Pixar gold standard, and, as I noted to myself, \"wowzers and lovely.\"", "is_fresh": 1, "author": ["Karina Montgomery"]},
{"text": "Ratatouille is fast-moving and fun and makes me wish I gave more thought to my meals. But if I laughed out loud, it wasn't more than once and the most emotional moment came from Anton Ego, the snobby British critic.", "is_fresh": 1, "author": ["Gina Carbone"]},
{"text": "In a sense, Ratatouille is a story about fulfilling one's dreams, about going beyond preconceived boundaries and following your heart.", "is_fresh": 1, "author": ["Bob Bloom"]},
{"text": "Brad Bird is officially my favorite animation director. Another masterpiece.", "is_fresh": 1, "author": ["Bob Grimm"]},
{"text": "Brilliant in every conceivable way.", "is_fresh": 1, "author": ["David Cornelius"]},
{"text": "Rarely do Pixar films fall short of excellence, and Ratatouille is no exception.", "is_fresh": 1, "author": ["Forrest Hartman"]},
{"text": "A love letter to Paris, a valentine to the fine art of cooking, and a gift to summer moviegoers.", "is_fresh": 1, "author": ["Matt Brunson"]},
{"text": "Constantly pushing beyond its narrative and visual capacities, Ratatouille ends up one frighteningly effortless entertainment.", "is_fresh": 1, "author": ["Bill Gibron"]},
{"text": "My compliments to the chef Brad Bird. This writer/director has one of the best young filmographies in the world.", "is_fresh": 1, "author": ["Nathaniel Rogers"]},
{"text": "In an already stellar year for animation, Ratatouille - dare I say it? - takes the cake.", "is_fresh": 1, "author": ["Rob Humanick"]},
{"text": "Ratatouille is stunningly animated, cleverly scripted, and genuinely humorous. Bird and Pixar have another winner on their hands.", "is_fresh": 1, "author": ["Pete Vonder Haar"]},
{"text": "Ratatouille represents another step forward for Pixar - not just on a technical level, but on an artistic one as well. Every location and character is vividly conceived and realized.", "is_fresh": 1, "author": ["Mike McGranaghan"]},
{"text": "The scene in which Ego samples Remy's ratatouille is the single best moment in the film and it rivals the moment when the Grinch's heart grows...", "is_fresh": 1, "author": ["Beth Accomando"]},
{"text": "While others in the computer-animation field are obsessed with making backgrounds appear real, Pixar knows it is more vital to make the characters real.", "is_fresh": 1, "author": ["Jeffrey Westhoff"]},
{"text": "Not only is it as light and airy as a souffl\u00e9, it's also as complex as the precise physics and flavorings that makes it a miracle", "is_fresh": 1, "author": ["Andrea Chase"]},
{"text": "Once again, Pixar has crafted a quality story to go with its dazzling visualizations.", "is_fresh": 1, "author": ["Robert Roten"]},
{"text": "Not quite the comedic animated masterpiece, rather a cute quaint film that drags a bit at the second act, but offers up an unexpectedly warm plate of climax in the wind up.", "is_fresh": 1, "author": ["Ross Anthony"]},
{"text": "The original writer and director of Ratatouille, Jan Pinkava, was replaced in midproduction and, for all the exquisite detail, the movie is missing a dash of heart.", "is_fresh": 1, "author": ["Joe Williams"]},
{"text": "Like other Pixar films, Ratatouille makes your eyes tear with laughter and emotion. But, from the opening sequence...this movie also makes your mouth water, and the headlong narrative zips you through the sensual atmosphere.", "is_fresh": 1, "author": ["Michael Sragow"]},
{"text": "Ratatouille is a delight -- with explosions of delicious humor and a gorgeous look that will have you rethinking what animation can accomplish.", "is_fresh": 1, "author": ["Robert W. Butler"]},
{"text": "Disney is back in prime form and lovers of quality can rejoice.", "is_fresh": 1, "author": ["Scott Mendelson"]},
{"text": "This delicious tale of a rat who cooks is pure joy, a grand achievement -- one of the most beautiful animated pictures ever made.", "is_fresh": 1, "author": ["Stephanie Zacharek"]},
{"text": "If you like food, rats, animation or a good laugh, Ratatouille is just what the doctor ordered.", "is_fresh": 1, "author": ["Jean Lowerison"]},
{"text": "Dramatizing a very unexpected story of the gulf between adequacy and excellence may be the most difficult narrative trick of all.", "is_fresh": 1, "author": ["Bryant Frazer"]},
{"text": "Kids will giggle at Remy's antics, while the grown-ups will find in Ratatouille a feast of inventive animation with a generous portion of culinary inspiration.", "is_fresh": 1, "author": ["Sean P. Means"]},
{"text": "By spitting out 30 minutes of unnecessary middle, Ratatouille could have come out of the oven a magnificent feast instead of a pedestrian meal for the masses.", "is_fresh": 1, "author": ["Larry Ratliff"]},
{"text": "There are moments of laugh aloud comedy sprinkled throughout and I had a smile firmly planted on my face from beginning to end...", "is_fresh": 1, "author": ["Robin Clifford"]},
{"text": "Oh, but there is joy in this movie... It fills you up... with just the simple yet profound connection it's possible to make with another creature, even it that creature is merely a cartoon rat.", "is_fresh": 1, "author": ["MaryAnn Johanson"]},
{"text": "Remy discovers he can control Linguini's movements using his hair like a puppeteer's strings...And while that last idea never really works and proves the film's imaginative failing, Ratatouille has other ideas that do...", "is_fresh": 1, "author": ["Laura Clifford"]},
{"text": "Ratatouille doesn't center on the over-familiar surfaces of contemporary life. It harks back to Disney's older era, when cartoons seemed part of a more elegant world with less edgy characters.", "is_fresh": 1, "author": ["Desson Thomson"]},
{"text": "A clever, ingeniously animated film filled with many shining moments.", "is_fresh": 1, "author": ["Ken Fox"]},
{"text": "Had Bird gone the safe route, he would have robbed us of a great new cartoon figure in Remy, who like the rest of the film is rendered with animation that is at once fanciful and life-like. It's also my pick for Pixar's best.", "is_fresh": 1, "author": ["Peter Howell"]},
{"text": "From the moment Remy enters, crashing, to the final happy fadeout, Ratatouille parades the brio and depth that set Pixar apart from and above other animation studios.", "is_fresh": 1, "author": ["Richard Corliss"]},
{"text": "How good, and how much fun, is Ratatouille? So good that when it was over, all I wanted to do was watch it again.", "is_fresh": 1, "author": ["Moira MacDonald"]},
{"text": "This is an animated movie that's been made for adults, although kids probably will enjoy it, too.", "is_fresh": 1, "author": ["Bruce Newman"]},
{"text": "Ratatouille never overwhelms, even though it's stocked with action, romance, historical content, family drama and serious statements about the creation of art.", "is_fresh": 1, "author": ["Peter Hartlaub"]},
{"text": "If a bit long for a cartoon feature -- probably a sign that its makers fell in love with it -- Ratatouille is the eighth and one of the best Pixar features.", "is_fresh": 1, "author": ["David Elliott"]},
{"text": "Ratatouille might be that rare G-rated film that adults enjoy even more than children. In other words, some scenes cater to folks who prefer truffles over goldfish crackers.", "is_fresh": 1, "author": ["Carla Meyer"]},
{"text": "A scrumptious and savory entr\u00e9e, delivered with wit and aplomb. It is the most delicious offering yet from those wizards at Pixar.", "is_fresh": 1, "author": ["Pam Grady"]},
{"text": "At its core, Ratatouille is really the story of the artist and the creative impulse, of the artist's obligation to follow that impulse in the face of what friends, family, society may say.", "is_fresh": 1, "author": ["Gary Thompson"]},
{"text": "It should be no surprise that the best American studio film of the year should come from the only American studio never to have made a bad film.", "is_fresh": 1, "author": ["Shawn Levy"]},
{"text": "A film as rich as a sauce b\u00e9arnaise, as refreshing as a raspberry sorbet, and a lot less predictable than the damn food metaphors and adjectives all us critics will churn out to describe it. OK, one more and then I'll be done: it's yummy.", "is_fresh": 1, "author": ["David Ansen"]},
{"text": "Fresh family fun. Although there are those slightly noxious images of rodents scampering around a kitchen, the movie doesn't stoop to kid-pandering jokes based on back talk and bodily gases.", "is_fresh": 1, "author": ["Stephen Whitty"]},
{"text": "Displaying the usual meticulousness associated with the Pixar brand, Ratatouille is a nearly flawless piece of popular art.", "is_fresh": 1, "author": ["A.O. Scott"]},
{"text": "Arguably the finest 'toon in the Pixar canon.", "is_fresh": 1, "author": ["Lou Lumenick"]},
{"text": "The Pixar magic continues with Brad Bird's Ratatouille, a gorgeous, wonderfully inventive computer-animated comedy.", "is_fresh": 1, "author": ["Jack Mathews"]},
{"text": "Ratatouille is the most straightforward and formulaic picture to date from Pixar Animation Studios, but it is also among the most enchanting and touching.", "is_fresh": 1, "author": ["Rene Rodriguez"]},
{"text": "The script, which doesn't play cheap or obvious to children or adults, and the film's fluid animation and luxurious palette make Ratatouille one of this summer's high-water marks for viewers of any age.", "is_fresh": 1, "author": ["John Wirt"]},
{"text": "Ratatouille is not merely the smartest, funniest, most joyous, most lovingly crafted film of the summer thus far, but it ranks among Pixar's finest.", "is_fresh": 1, "author": ["Kevin Williamson"]},
{"text": "No sketchy backgrounds here -- Ratatouille's scenes feels like deep-focus camera shots. The textures, from the gleam of copper pans to the cobblestone streets, are almost palpable.", "is_fresh": 1, "author": ["Liam Lacey"]},
{"text": "Will Pixar ever make a bad movie? Ever?", "is_fresh": 1, "author": ["Dezhda Gaubert"]},
{"text": "Ratatouille has the technical genius, emotional core and storytelling audacity to lift it into the ranks of [the best] Pixar films, the cr\u00e8me de la cr\u00e8me of modern animation.", "is_fresh": 1, "author": ["Tom Long"]},
{"text": "Ratatouille has its heart, and its head, in this effort to serve up something unique and satisfying.", "is_fresh": 1, "author": ["Terry Lawson"]},
{"text": "Writer and director Brad Bird keeps Ratatouille moving without resorting to the cute animal jokes or pop-culture wisecracking that ruined so many other recent animated films.", "is_fresh": 1, "author": ["Michael Booth"]},
{"text": "Pixar, the undisputed heavyweight champion of the animation world, retains the title with this winning tale.", "is_fresh": 1, "author": ["Stephen Becker"]},
{"text": "Ranks up there with the best of Pixar's best, joining Nemo, Monsters, Inc. and Toy Story (1 and 2) in the ranks of instant classics. It's a reminder of how good 'kids' entertainment can be.", "is_fresh": 1, "author": ["Mary F. Pols"]},
{"text": "Ratatouille will make you wonder why animation needs to hide behind the mantle of 'it's for children, but grownups will like it, too.' This one's for Mom and Dad, and yep, the kids will like it, too.", "is_fresh": 1, "author": ["Miriam Di Nunzio"]},
{"text": "Brad Bird's second collaboration with Pixar is more ambitious and meditative than his Oscar-winning The Incredibles.", "is_fresh": 1, "author": ["Andrea Gronvall"]},
{"text": "Pixar has a habit of finding voice talent in unexpected places, and she's just part of the shrewd casting. Oswalt and Romano make an ideal team, assertive and nervous, while the almost unrecognizable Holm spits out disgust with glee.", "is_fresh": 1, "author": ["Lawrence Toppman"]},
{"text": "Little rats and big utensils is comedy gold.", "is_fresh": 1, "author": ["Fred Topel"]},
{"text": "The movie doesn't have to strain for liftoff the way Pixar's Cars did (that movie had a Volvo's boxiness). Ratatouille keeps inventing surprises.", "is_fresh": 1, "author": ["Wesley Morris"]},
{"text": "Brad Bird makes cartoons, yet I don't think there's a filmmaker anywhere with more respect for his audience.", "is_fresh": 1, "author": ["John Beifuss"]},
{"text": "An oasis in the middle of summer-movie mediocrity.", "is_fresh": 1, "author": ["Jette Kernion"]},
{"text": "\"Ratatouille\" is so fresh and fun and original and wonderful that the very least I could do is get through this review without any lame cooking metaphors.", "is_fresh": 1, "author": ["Rob Thomas"]},
{"text": "Ratatouille is a Pixar tour de force.", "is_fresh": 1, "author": ["Kit Bowen"]},
{"text": "What a delicious concoction of French sophistication coupled with a dollop of slapstick humour and a sprinkling of visual marvel. Pixar's \"Ratatouille\" is the perfect recipe for an adult/child offering.", "is_fresh": 1, "author": ["Angela Baldassarre"]},
{"text": "Bird's movies so far have been aimed at children, but the craftsmanship in them can leave an adult spellbound.", "is_fresh": 1, "author": ["Dan Lybarger"]},
{"text": "...ultimately one of the most uneven and least compelling efforts from Disney's Pixar Animation Studios to date...", "is_fresh": 1, "author": ["David Nusair"]},
{"text": "Bewitching... Bird's movies don't have the same rush-rush rhythms or the lowbrow humor that have become the hallmark of too many animated films. Instead, he puts the emphasis on characters and cleverness...", "is_fresh": 1, "author": ["James Sanford"]},
{"text": "The best way to put it about Pixar's triumphant new animated film Ratatouille is this: all is forgiven for Cars.", "is_fresh": 1, "author": ["Daniel M. Kimmel"]},
{"text": "Too bad Julia Child isn't here to see it, but I've channeled a message from her: She ratifies Ratatouille from beyond.", "is_fresh": 1, "author": ["Barry Paris"]},
{"text": "Delicious family entertainment.", "is_fresh": 1, "author": ["Jonathan W. Hickman"]},
{"text": "A breathlessly scampering slapstick delight.", "is_fresh": 1, "author": ["Bob Strauss"]},
{"text": "Linguini gives the best physical \"performance\" from a CGI character to date, virtually (so to speak) rivaling the likes of Steve Martin in All of Me and Vincent D'Onofrio in Men in Black.", "is_fresh": 1, "author": ["Steven D. Greydanus"]},
{"text": "I'm really hoping this makes a ton of money and sparks a trend of mainstream animated features that rely more on plot and character than on by-the-numbers cartoonisms.", "is_fresh": 1, "author": ["Dave White"]},
{"text": "Ratatouille is touching and moving and very funny. Bon Appetit!", "is_fresh": 1, "author": ["Coco Forsythe"]},
{"text": "Animation shouldn't be just for kids -- animation should be used to tell good stories ... And, with its many strengths, Ratatouille is a great story, and a great movie.", "is_fresh": 1, "author": ["Jeffrey Chen"]},
{"text": "The man behind The Iron Giant and The Incredibles, Bird has crafted another wondrously original and emotionally magnificent cinematic adventure the likes of which simply must be seen to be believed.", "is_fresh": 1, "author": ["Sara Michelle Fetters"]},
{"text": "Its pleasures are mostly small.", "is_fresh": 1, "author": ["Josh Bell"]},
{"text": "There's a brilliant 75-minute film here, and truthfully, I could watch the cooking scenes with Remy all day. But Pixar being Pixar, simplicity just isn't in the cards.", "is_fresh": 1, "author": ["Brian Orndorf"]},
{"text": "There's enough to enjoy in the artistry and its final hope for new discoveries to applaud the outcome even if its just a polite applause until the flame goes out.", "is_fresh": 1, "author": ["Erik Childress"]},
{"text": "A furry, pink-tailed, and utterly irresistible affirmation of mainstream animation at its best.", "is_fresh": 1, "author": ["Rob Vaux"]},
{"text": "Takes the most vile, hated, disease-ridden vermin in the history of the world, then makes them cuddly and lovable. It's madness! Complete, ingenious madness!", "is_fresh": 1, "author": ["Willie Waffle"]},
{"text": "Ratatouille is just the delicacy the customer ordered -- and one of the best films of the year.", "is_fresh": 1, "author": ["Bill Clark"]},
{"text": "Pixar's latest release is brilliantly animated, and a lot of fun. But it does not have a clear sense of who its audience is, and families with children who are looking for the next Finding Nemo may find themselves puzzled.", "is_fresh": 1, "author": ["Nell Minow"]},
{"text": "It's a character-driven story that lets the humor flow naturally from the story's details. Also, the handsome, colorful backgrounds here have a mind-blowing, photorealistic quality.", "is_fresh": 1, "author": ["Jeff Vice"]},
{"text": "Ratatouille is delicious fun sure to be savored by audiences of all ages for its sumptuous visuals, clever wit and irresistibly inspiring tale.", "is_fresh": 1, "author": ["Claudia Puig"]},
{"text": "Like the burbling soup that plays a key part in Ratatouille, the movie is a delectable blend of ingredients that tickles the palette and leaves you hungry for more.", "is_fresh": 1, "author": ["Bill Muller"]},
{"text": "Brad Bird's Ratatouille is so audacious you have to fall in love with its unlikely hero.", "is_fresh": 1, "author": ["Kenneth Turan"]},
{"text": "One of the most beautiful and complex digital films yet, layered with detail and atmosphere and dimensionally rich and fluid.", "is_fresh": 1, "author": ["Duane Dudek"]},
{"text": "Easily the best Pixar creation next to The Incredibles; arguably it's even better.", "is_fresh": 1, "author": ["David Levine"]},
{"text": "Ratatouille is Brad Bird's best movie yet, and from the writer-director who made two of the best American animated features of the past decade, The Incredibles and the sadly neglected Iron Giant, that's something.", "is_fresh": 1, "author": ["Dana Stevens"]},
{"text": "The characters are irresistible, the animation is astonishing and the film, a fantasy version of a foodie rhapsody, sustains a level of joyous invention that hasn't been seen in family entertainment since The Incredibles.", "is_fresh": 1, "author": ["Joe Morgenstern"]},
{"text": "... hearty and tasty, created from fresh ingredients and cooked up with unexpected flavors and dashes of spice, and it leaves a satisfying and inspiring warmth when it's done.", "is_fresh": 1, "author": ["Sean Axmaker"]},
{"text": "Almost as funny, joyful, and heartfelt as anything that Pixar's merry band of genius-nerds has ever done.", "is_fresh": 1, "author": ["Eric D. Snider"]},
{"text": "Peter O'Toole's performance as the critic Anton Ego is worthy of another Oscar nomination.", "is_fresh": 1, "author": ["Jeffrey M. Anderson"]},
{"text": "The best comedy of the summer, animated or not, and perceptive parents may enjoy it even more than their offspring.", "is_fresh": 1, "author": ["Frank Swietek"]},
{"text": "The Ratatouille concept could be off-putting -- a rat who dreams of using his bubonic paws to cook for humans at a ritzy Parisian restaurant -- but it's so funny and lovable that the ick factor vanishes almost immediately.", "is_fresh": 1, "author": ["Chris Hewitt (St. Paul)"]},
{"text": "With Ratatouille, Bird once again delivers not just a great, witty story, but dazzling visuals as well.", "is_fresh": 1, "author": ["Steven Rea"]},
{"text": "It's not just the computer animation that is vibrantly three-dimensional. It's also the well-rounded characters... I defy you to name another animated film so overflowing with superfluous beauty.", "is_fresh": 1, "author": ["Colin Covert"]},
{"text": "In sequence after sequence, we are presented with visual set pieces that far exceed the imaginativeness of most live-action dramatic fare.", "is_fresh": 1, "author": ["Peter Rainer"]},
{"text": "The best animated movie in well over a year, and one of the most magical, enjoyable movie experiences you'll have at the theater this summer or any time else this year.", "is_fresh": 1, "author": ["Brian Tallerico"]},
{"text": "Pixar's weakest film in almost a decade.", "is_fresh": 0, "author": ["Dustin Putman"]},
{"text": "Bird has a rare cinematic gift: the ability to stage slam-bang action sequences without neglecting the rich emotional resonance that makes for a great story.", "is_fresh": 1, "author": ["Tasha Robinson"]},
{"text": "Bird has taken the raw ingredients of an anthropomorphic-animal kiddie matinee and whipped them into a heady brew about nothing less than the principles of artistic creation.", "is_fresh": 1, "author": ["Scott Foundas"]},
{"text": "Pixar's animation is simply flawless; colorful, deeply realized, and ably conveying both the chaos of the kitchen, and the sensual allure of food well prepared.", "is_fresh": 1, "author": ["Marc Savlov"]},
{"text": "Has Pixar lost its magic recipe? Ratatouille is filled with fairly generic animated imagery, a few modest chases, a couple of good gags, not a lot of laughs.", "is_fresh": 0, "author": ["Roger Moore"]},
{"text": "So many computer-animated movies are brash, loud and popping with pop-culture comedy, but Ratatouille has the warm glow of a favorite book. The characters are more than the sum of their gigabyte-consuming parts -- they feel handcrafted.", "is_fresh": 1, "author": ["Rafer Guzman"]},
{"text": "The film may be animated, and largely taken up with rats, but its pulse is gratifyingly human. And you have never seen a computer-animated feature with this sort of visual panache and detail.", "is_fresh": 1, "author": ["Michael Phillips"]},
{"text": "Even more fun to watch than it is to say.", "is_fresh": 1, "author": ["Matt Pais"]},
{"text": "When Remy starts driving Linguini around like a puppet, it feels like something lifted from an episode of Pinky & the Brain.", "is_fresh": 1, "author": ["Joshua Tyler"]},
{"text": "A boisterous ode to culinary delights, artistic inspiration, egalitarianism, camaraderie, family, and Paris.", "is_fresh": 1, "author": ["Nick Schager"]},
{"text": "...Oswalt babbles away with the mania of a true obsessive. He's like Julia Child after too much wine.", "is_fresh": 1, "author": ["Josh Larsen"]},
{"text": "Beyond the stunning animation (they finally got hair right!), there's little to recommend besides the fact that it's a touch better than Shrek the Third.", "is_fresh": 0, "author": ["Jason Ferguson"]},
{"text": "A test for tiny tots, a mite nostalgic and as male-dominated as a modern kitchen it may be, but these are mere quibbles about this delightful addition to the Pixar pantheon.", "is_fresh": 1, "author": ["Wally Hammond"]},
{"text": "At first glance, this is Bird's lightest film; upon further reflection, it deepens into perhaps his most substantive.", "is_fresh": 1, "author": ["Walter Chaw"]},
{"text": "Ratatouille's one of the few must see movies of the summer of 2007.", "is_fresh": 1, "author": ["Rebecca Murray"]},
{"text": "Don't be surprised if people start called Brad Bird the Spielberg of animation", "is_fresh": 1, "author": ["Mike Sage"]},
{"text": "The wild, devoted praise afforded Bird's solid yet tepid films puzzles me. It's as though society is playing a joke that everyone but me and a few others are in on. I smell a Ratatouille.", "is_fresh": 0, "author": ["Phil Villarreal"]},
{"text": "This is a summer animated film aimed at your 15-year-old youngster, not your toddler. [While] younger fans will enjoy the sight of these furry heroes in a man's world, they will easily lose track of the intricate story, smart dialogue and complex themes.", "is_fresh": 1, "author": ["Steven Snyder"]},
{"text": "Ratatouille is the best of the eight movies that Pixar has offered to date. It has color, glorious music, a fast pace, a clever and witty script, a credible villain or two, and the one thing everyone in the audience loves: lots of delicious food.", "is_fresh": 1, "author": ["Harvey S. Karten"]},
{"text": "A visually astounding comedy that's missing the emotional significance and thematic complexity of the computer animation studio's best work.", "is_fresh": 1, "author": ["Mark Dujsik"]},
{"text": "Ratatouille's narrative shortcuts only serve to make room for the fun, of which there are generous servings.", "is_fresh": 1, "author": ["Annlee Ellingson"]},
{"text": "Ratatouille is free of the kind of gratuitous pop-culture references that plague so many movies of the genre; it tells a story, it's very much of our world but it never goes for the cheap, easy gag.", "is_fresh": 1, "author": ["Christy Lemire"]},
{"text": "An irresistible feast of comedy, imagination, intelligence and heart, Ratatouille will have audiences clamoring for seconds.", "is_fresh": 1, "author": ["Kevin Lally"]},
{"text": "Catch this rat!", "is_fresh": 1, "author": ["Staci Layne Wilson"]},
{"text": "Pixar has packed so much fun and entertainment into their latest that you'll probably want to see it again as soon as it's over.", "is_fresh": 1, "author": ["Edward Douglas"]},
{"text": "For parents looking to spend time in a theater with their kids or adults who want something lighter and less testosterone-oriented than the usual summer fare, Ratatouille offers a savory main course.", "is_fresh": 1, "author": ["James Berardinelli"]},
{"text": "What makes Ratatouille such a hilarious and heartfelt wonder is the way Bird contrives to let it sneak up on you. And get a load of that score from Michael Giacchino, a perfect compliment to a delicious meal.", "is_fresh": 1, "author": ["Peter Travers"]},
{"text": "It's a variation of Cyrano De Bergerac with its own comic sensibility.", "is_fresh": 1, "author": ["Mark Palermo"]},
{"text": "Easily the best Pixar film since A Bug's Life, Ratatouille is deliciously delightful, wonderfully sweet and drop-dead gorgeous.", "is_fresh": 1, "author": ["Steve Rhodes"]},
{"text": "Brad Bird wrote and directed Ratatouille and tops his previous work. Since his work includes The Iron Giant and The Incredibles, this puts him somewhere between Chuck Jones and Michelangelo.", "is_fresh": 1, "author": ["David Edelstein"]},
{"text": "Captivating, inventive and souffle-light...family audiences will eat it up!", "is_fresh": 1, "author": ["Susan Granger"]},
{"text": "Remy, the rodent hero of Ratatouille, may not be as cute as Mickey Mouse, but he grows on you -- blue fur and all.", "is_fresh": 1, "author": ["Betty Jo Tucker"]},
{"text": "If rival studios ever adopted Pixar's story process for their films, there would be no need for critics due to the exceptional quality of the movies being made.", "is_fresh": 1, "author": ["Danny Minton"]},
{"text": "To watch Ratatouille is to recognize we're living in another golden age of American animation.", "is_fresh": 1, "author": ["Peter Canavese"]},
{"text": "Ratatouille has the Pixar technical magic without, somehow, the full Pixar flavor. It's Brad Bird's genial dessert, not so much incredible as merely sweetly edible.", "is_fresh": 1, "author": ["Owen Gleiberman"]},
{"text": "Brad Bird and Pixar Animation Studios are proving to be an unbeatable combination.", "is_fresh": 1, "author": ["Kirk Honeycutt"]},
{"text": "Ratatouille is a major revelation. It is the first great American animation for adults first.", "is_fresh": 1, "author": ["David Poland"]},
{"text": "Ratatouille is a delightful treat. As the French would say, C'est magnifique.", "is_fresh": 1, "author": ["Gary Brown"]},
{"text": "What pushes this movie over the top is how it combines cartoon fun with rich evocations of the beauty and romance of Paris, the value of family, and the wonders of food.", "is_fresh": 1, "author": ["Brian Webster"]},
{"text": "Delectable! Ratatouille should be savored by every age of movie goer.", "is_fresh": 1, "author": ["Linda Cook"]},
{"text": "A simple, enjoyable dish.", "is_fresh": 1, "author": ["Rafe Telsch"]},
{"text": "A terrific movie -- and an early contender for the Academy Award. With Ratatouille, Disney and Pixar not only capture the culinary heart of Paris -- itself a feat -- but also the hearts of audiences through one adorable little rat.", "is_fresh": 1, "author": ["Christopher Smith"]},
{"text": "The master chefs at Pixar have blended all the right ingredients -- abundant verbal and visual wit, genius slapstick timing, a soupcon of Gallic sophistication -- to produce a warm and irresistible concoction.", "is_fresh": 1, "author": ["Justin Chang"]},
{"text": "", "is_fresh": 1, "author": ["Daniel Kasman"]}
]