[
{"reviews_count": "402", "title": "Rogue One: A Star Wars Story", "avg_audience_rating": "4.2", "rotten_count": "63", "tomatometer": "84", "audience_score": "86", "avg_critic_rating": "7.5", "fresh_count": "339", "user_ratings_count": "100,769"},
{"text": "I enjoyed every minute of it.", "is_fresh": 1, "author": ["Sharronda Williams"]},
{"text": "As a piece of fan fiction, Rogue One neatly ties into the original movie in an impressive way. But as a piece of cinema, it is entirely inconsequential and no amount of impressive special effects can hide the fact that it is soul crushingly dull.", "is_fresh": 0, "author": ["Alistair Ryder"]},
{"text": "What Rogue One does differently than its predecessors is turn the black-and-white dichotomy of the Empire and the Rebellion on its axis. ", "is_fresh": 1, "author": ["Matt Oakes"]},
{"text": "When Rogue One is following the \"cool and different\" edict, that's when it's awesome", "is_fresh": 1, "author": ["Bob Chipman"]},
{"text": "The nadir of this film's cynical, marketed traipse through the iconography of its franchise is in the preposterously pantomime mythologisation of Darth Vader.", "is_fresh": 0, "author": ["PJ Nabarro"]},
{"text": "Anyone worried that the Mouse House might take the edge off the franchise should take comfort in Rogue One being probably the grittiest entry since The Empire Strikes Back in 1980.", "is_fresh": 1, "author": ["Zaki Hasan"]},
{"text": "It really puts the 'wars' of this franchise front-and-centre like never before, and what it lacks in depth and polish it more than makes up for with spectacle and grit.", "is_fresh": 1, "author": ["Jennifer Heaton"]},
{"text": "It's a mixed bag of a Star Wars movie, so it's basically par for the course.", "is_fresh": 1, "author": ["Sean Mulvihill"]},
{"text": "Its loyal to the franchise without ever being slavish, and it bends the established story at just the right angle, giving the saga's central conflict a new kind of life.", "is_fresh": 1, "author": ["Johnny Gayzmonic"]},
{"text": "Rogue One: A Star Wars Story is the worst theatrically released Star Wars yet. I know that many will lambast the work that George Lucas did in this prequel trilogy, but I have a soft spot for his vision with those films. ", "is_fresh": 0, "author": ["Niall Browne"]},
{"text": "For those who grew up loving Star Wars, but have wanted the film series to grow up and become more nuanced and dangerous along with them, Rogue One does this, while still squarely existing within the design and narrative parameters of the universe.", "is_fresh": 1, "author": ["Abbie Bernstein"]},
{"text": "This film brings something slightly different to the Star Wars universe while at the same time giving us a lot more of what we already know and love.", "is_fresh": 1, "author": ["Benjamin Gummery"]},
{"text": "Great battle scenes, heartfelt characters, and the knowledge that there can only ever be one make this a real gem amongst stones that have, at times, struggled to shine.", "is_fresh": 1, "author": ["Joelle Monique"]},
{"text": "A surprisingly dark yet brilliantly action packed and fun anthology film", "is_fresh": 1, "author": ["Rendy Jones"]},
{"text": "When the action pivots on the exciting plot point of data transfer rates ... this mundane crisis doesn't seem elevated to a planetary level of urgency.", "is_fresh": 0, "author": ["Pat Padua"]},
{"text": "As the Rogue One draws to its utterly stunning space-battle close, it seems to feel it needs to hold hands with A New Hope - when it really just needs to pass the baton.", "is_fresh": 1, "author": ["Molly Templeton"]},
{"text": "Edwards has a keen sense of awe and little regard for the humans underfoot.", "is_fresh": 0, "author": ["Jacob Oller"]},
{"text": "I wanted to feel more in the trenches with these guys...but the action that was there was really good...I liked it more than the Force Awakens, and if you are a Star Wars fan, I'd say go see this right away.", "is_fresh": 1, "author": ["Jaby Koay"]},
{"text": "It has everything hard core Star Wars fans want -- a feisty heroine, comic relief, quirky and unlikely heroes, incredible sets, and a soaring score.", "is_fresh": 1, "author": ["Glynis Costin"]},
{"text": "There is zero depth here. You keep hoping for a transgressive moment that will make the cringe-inducing dialogue and gratuitous fan service worthwhile, but it never comes.", "is_fresh": 0, "author": ["Ruben Rosario"]},
{"text": "If you miss this point, the sacrifices of a revolution, then you will not understand the greatness of Rogue One.", "is_fresh": 1, "author": ["Charles Mudede"]},
{"text": "This is the plot-driven space opera (with delightful elements of a space western) that I wanted/needed.", "is_fresh": 1, "author": ["Nicole Homer"]},
{"text": "Rogue One is an enjoyable addition to the franchise and Jones's Jyn is a compelling lead.", "is_fresh": 1, "author": ["Stassa Edwards"]},
{"text": "Rogue One: A Star Wars Story is a reminder of your dreams, of the barriers you'd break to create a better world, one full of hope and liberty where the word sacrifice takes on a whole new meaning... [Full Review in Spanish]", "is_fresh": 1, "author": ["Ruben Peralta Rigaud"]},
{"text": "While we don't have the same nostalgic attachment to Cassian, Bodhi and Jyn, that's what unburdens Rogue One, giving it a freedom to tell a story on its own terms.", "is_fresh": 1, "author": ["Eli Glasner"]},
{"text": "It was nice to see something that was set in the Star Wars universe, but had a different tone to it.", "is_fresh": 1, "author": ["Andre Meadows"]},
{"text": "By shifting to a higher power characters actually cry out to, Edwards achieves a rousing tale of honor and sacrifice that both deepens and broadens the rest of the Star Wars world.", "is_fresh": 1, "author": ["Megan Basham"]},
{"text": "When the film slows down enough for the dialogue to sink in, we realize that the story, such as it is, has been cobbled together from all previousStar Wars films combined.", "is_fresh": 0, "author": ["Christopher Llewellyn Reed"]},
{"text": "... the flaws in the film are in that first hour of build up the rest of the movie is really good if not great...", "is_fresh": 1, "author": ["Jeremy Jahns"]},
{"text": "While I loved The Force Awakens, it relied a lot on the nostalgia...But this movie? It could stand on its own and still be amazing. ", "is_fresh": 1, "author": ["Steph Cozza"]},
{"text": "Can I just say that I liked Rogue One: A Star Wars Story better than the last four Star Wars stories--even The Force Awakens, which was the top grossing film of 2015?", "is_fresh": 1, "author": ["James Plath"]},
{"text": "The action in \"Rogue One\" is extremely well-staged and exciting, and it's fun to see its small connections to the larger \"Star Wars\" universe...", "is_fresh": 1, "author": ["Carl Kozlowski"]},
{"text": "... the directing is heavy-handed and uninspired, the plot with its many turns - lots of action that includes more fight scenes than the saga's other movies - develops predictably, even if it's not always easy to follow.", "is_fresh": 0, "author": ["Uri Klein"]},
{"text": "[Rogue One] is thrilling, at times dark, but also extremely entertaining regardless of your Star Wars knowledge.", "is_fresh": 1, "author": ["Jason Guerrasio"]},
{"text": "The ending is filled with both a bittersweet tragedy and hard-fought victory; ' a new hope' is earned, and so is this film's place in the upper echelon of Star Wars lore.", "is_fresh": 1, "author": ["Robert Kojder"]},
{"text": "There are Suicide Squad-level moments of confusion, weak characters and regressive storytelling that left me downright angry.", "is_fresh": 0, "author": ["Kristen Lopez"]},
{"text": "...this is a film that gives us another strong independent woman such as Jyn in the Star Wars universe and we need more of them.", "is_fresh": 1, "author": ["Danielle Solzman"]},
{"text": "It is now a great starting point for someone new to this franchise. To quote one of the familiar lines from this space opera - \"the Force is strong with this one\"!", "is_fresh": 1, "author": ["Neil Soans"]},
{"text": "This is Star Wars for adults. Well-loved characters die, the violence is gory by and large and the atmosphere is more on the lines of the French Resistance during World War II than the light-hearted thrillers that George Lucas films were.", "is_fresh": 1, "author": ["Devesh Sharma"]},
{"text": "Rogue One certainly doesn't hit all its marks. But it surely hits enough to keep holiday audiences happy, particularly as its story begins to merge with the one we discovered all those years ago.", "is_fresh": 1, "author": ["Matthew Bond"]},
{"text": "It works more than it doesn't, and the story itself feels fresher than Force Awakens because it isn't a repeat of a previous Star Wars movie.", "is_fresh": 1, "author": ["Sarah Marrs"]},
{"text": "This is meant to be a standalone spin-off from the Star Wars movie universe, but it feels like Episode 3.5.", "is_fresh": 1, "author": ["Joanne Soh"]},
{"text": "... a reason to hit theaters this holiday season.", "is_fresh": 1, "author": ["George Thomas"]},
{"text": "... the film is mostly a triumph - heavy on the action, light on the romance, and one of the best heroines to come out of the big screen in 2016.", "is_fresh": 1, "author": ["Rebecca Lewis"]},
{"text": "Rogue One: A Star Wars Story sets the benchmark of how a good standalone film can be made without ruining a tight story with unnecessary sequels.", "is_fresh": 1, "author": ["Shyama Krishna Kumar"]},
{"text": "While Rogue One: A Star Wars Story does not bring the excitement of the surprising, original 1977 Star Wars (almost 40 years ago!), it does offer many similar pleasures.", "is_fresh": 1, "author": ["Diane Carson"]},
{"text": "Rogue One captures and develops the epic yearning and philosophical difficulty of the original series' DNA.", "is_fresh": 1, "author": ["Lili Loofbourow"]},
{"text": "Ultimately, Rogue One is a movie for Star Wars fans. ", "is_fresh": 1, "author": ["Bruce Cinnamon"]},
{"text": "What ought to be a raging call for rebellion sputters and coughs and then finally lapses into stupefied incoherence.", "is_fresh": 0, "author": ["Dorothy Woodend"]},
{"text": "Luckily, this is a film so rooted in the archetypal heroic quest that everyone can enjoy in varying degrees: hardcore fans, newcomers and young children alike can appreciate the rebels and their fight against the Leviathan", "is_fresh": 1, "author": ["Brooke Corso"]},
{"text": "A truly stand-alone Star Wars film is worth waiting for. But a prequel this good is a first for Star Wars, too.", "is_fresh": 1, "author": ["Ben Lindbergh"]},
{"text": "There's a certain weight here that hasn't necessarily been present in most of the other films. And that, plus the film's talented, diverse cast, makes Rogue One a truly unique twist on the familiar format.", "is_fresh": 1, "author": ["Abby Olcese"]},
{"text": "Rogue One is not about people who get a medal and a kiss from the princess. Rogue One is a war film. And it's very, very good.", "is_fresh": 1, "author": ["Susana Polo"]},
{"text": "Rogue One starts wearing out its welcome at about the hour mark, and there's another 75 minutes to go; the movie, lumbering like those AT-ATs, feels like it stomps along forever.", "is_fresh": 0, "author": ["Rob Gonsalves"]},
{"text": "This is a slightly darker shade of Star Wars adventure, for better and for worse. But it's also a refreshingly diverse collection of heroes this time, a multi-cultural crew against a white supremacist dictatorship. ", "is_fresh": 1, "author": ["Sean Axmaker"]},
{"text": "Hopping from planet to planet, battle to battle, the fast-paced narrative means there's little time to flesh out everyone involved. Yet even if their characters remain sketchy, several make vivid impressions... [Tudyk's K-2SO] is a scene-stealing delight.", "is_fresh": 1, "author": ["Jason Best"]},
{"text": "It emphasizes the necessity of sacrifice for victory, and celebrates the anonymous, forgotten fighters who put it all on the line before that Skywalker kid even got up to bat. ", "is_fresh": 1, "author": ["Rob Vaux"]},
{"text": "Rogue One: A Star Wars Story has gorgeous visuals, including an excellent production design and great special effects, but when it comes to the narrative, there's a lot left to be desired thanks to a screenplay that refuses to develop the characters.", "is_fresh": 0, "author": ["Jeff Beck"]},
{"text": "More proof that diverse casts can actually lead to big box office numbers. ", "is_fresh": 1, "author": ["Candice Frederick"]},
{"text": "Not all Star Wars fans will embrace Rogue One. In so many ways, though, it does fit the tenor of our time.", "is_fresh": 1, "author": ["Dan Webster"]},
{"text": "Did I love it? Not really. But I liked it just fine. It needed it to be much better than those best-forgotten Episodes I-III, and it does just that.", "is_fresh": 1, "author": ["Diane Pershing"]},
{"text": "It's a movie that nails what it means to be Star Wars in seemingly every way, and it's not afraid to scare the bejeezus out of a few kids to get there.", "is_fresh": 1, "author": ["Germain Lussier"]},
{"text": "An origin story that stays true to its predecessors while crafting its own unique identity.", "is_fresh": 1, "author": ["John Hanlon"]},
{"text": "Everyone gasped, shouted, and laughed throughout the film, culminating in a well-deserved, thunderous applause to one of the best films of this franchise and 2016. [Full review in Spanish]", "is_fresh": 1, "author": ["Jorge Rivera Rubio"]},
{"text": "A hugely entertaining film in which all of the elements fall into place so seamlessly that it can't help but make the vast majority of recent would-be blockbusters look even lamer than they already do.", "is_fresh": 1, "author": ["Peter Sobczynski"]},
{"text": "Disney brilliantly executed another film in the Star Wars franchise, easing the doubts of fans and furthering our expectations on what we can expect from the films to follow.", "is_fresh": 1, "author": ["Stephanie Archer"]},
{"text": "Edwards reminds us of the real reasons we love these movies. Rogue One gives us hope in Star Wars. [Full review in Spanish]", "is_fresh": 1, "author": ["Alejandro Alem\u00e1n"]},
{"text": "In the first 'Star Wars' film, in 1977, heroism is rewarded (literally, in the form of a medal); but here, heroism requires extreme sacrifice. That (ultimately lethal) distinction is a key to the difference between previous chapters and this sidebar...", "is_fresh": 1, "author": ["John Beifuss"]},
{"text": "As the lost piece of an intricate puzzle, Rogue One satisfyingly presses into its rightful place in the series' universe. Filling in that blank space might never have seemed necessary, but, once you've seen it, there's no denying the richness added.", "is_fresh": 1, "author": ["Cindy Davis"]},
{"text": "Though it's certainly worth a look, \"Rogue One\" is a minor \"Star Wars\" story. ", "is_fresh": 1, "author": ["Jeffrey M. Anderson"]},
{"text": "A deep cut for Star Wars fanatics,", "is_fresh": 1, "author": ["Walter Chaw"]},
{"text": "This latest \"origin story\" features no storytelling development but simply repeats Star Wars formulae...Rogue One, a huckster's tale, confirms the Disney Corporation's routine indoctrination of its captive audience.", "is_fresh": 0, "author": ["Armond White"]},
{"text": "Fans of the Star Wars films--and don't be ashamed to admit it if you are one-- will see a more complete expansion of the mainline story and a lot of visual excitement.", "is_fresh": 1, "author": ["Mark R. Leeper"]},
{"text": "Since Rogue One slides neatly into the preexisting plot of the original Star Wars trilogy, it doesn't feel glaringly imitative of it, as The Force Awakens did.", "is_fresh": 1, "author": ["Margot Harrison"]},
{"text": "Rogue One is mostly sparing and on-the-nose, in that sense it's reliable but don't expect it to surprise you in any meaningful way.", "is_fresh": 1, "author": ["Gary Shannon"]},
{"text": "Rogue One is fine (if you're a Star Wars fan).", "is_fresh": 1, "author": ["Camilla Long"]},
{"text": "Technically sophisticated and emotionally engaging.", "is_fresh": 1, "author": ["Rashid Irani"]},
{"text": "It's all action, hopping from planet to planet and blasting all the way. That makes it faster and more serious than anything in the series.", "is_fresh": 1, "author": ["Richard von Busack"]},
{"text": "For a sublime third act, Rogue One is a resounding success. For the perversity of slavish desire for performers to be as interchangeable as video game characters, this Star Wars dude does not abide. ", "is_fresh": 1, "author": ["Blake Howard"]},
{"text": "This is a Star Wars film for fans, not casual observers. It has plenty of nice touches that bring back fond memories of the original and may well be the best Star Wars films since the original trilogy.", "is_fresh": 1, "author": ["Wesley Lovell"]},
{"text": "The first act is the frenetic embodiment of the Hollywood machine, but the final 30 minutes is a rousing climactic battle on the empire's home turf.", "is_fresh": 1, "author": ["David Keyes"]},
{"text": "It's already apparent that Disney's plans for Star Wars are cause for excitement.", "is_fresh": 1, "author": ["Brad Keefe"]},
{"text": "Rogue One isn't taking any chances: It's desperate to ensure a seamless transition with Episode IV, as if this constitutes a meaningful end in itself.", "is_fresh": 0, "author": ["James Hadfield"]},
{"text": "Yes!!!", "is_fresh": 1, "author": ["Bob Grimm"]},
{"text": "Apart from Ben Mendelsohn's weaselly Orson Krennic [and perhaps Donnie Yen]... the faces are unmemorable and the characters unexceptional, their meaningful glances unearned.", "is_fresh": 0, "author": ["Tim Hayes"]},
{"text": "There's weight to this world, no longer defined by clashes between politicians and spiritual warriors; instead, there's a sense of the desperation of the people and creatures that have always existed just outside the margins of the series' frame.", "is_fresh": 1, "author": ["Luke Goodsell"]},
{"text": "Starts off slow, but boasts a fantastic third act and a very satisfying ending. A worthy addition to the Star Wars canon (Splice Today) ", "is_fresh": 1, "author": ["Stephen Silver"]},
{"text": "An exciting film full of heroism and redemption, that has great action scenes and political intrigues and achieves several touching moments. [Full review in Spanish]", "is_fresh": 1, "author": ["Fausto Ponce"]},
{"text": "It's pretty routine, but Star Wars faithful should find it plenty good enough; director Gareth Edwards keeps things moving well enough for the modest needs of the script.", "is_fresh": 1, "author": ["Jim Lane"]},
{"text": "When Rogue One is good, it is VERY good. When it is bad, it is... well not prequel trilogy-bad, at least.", "is_fresh": 1, "author": ["Tim Brayton"]},
{"text": "An original story about \"ordinary beings achieving extraordinary things\" that only exists in science fiction, without jedis and Skywalker. [Full review in Spanish]", "is_fresh": 1, "author": ["Pilar Ayuso"]},
{"text": "A film that is embedded throughout the saga as a beautiful appendix, at times awkward, but finally satisfying. [Full review in Spanish]", "is_fresh": 1, "author": ["Nicol\u00e1s Ruiz"]},
{"text": "The Star Wars expanded universe kicks off with this entertaining yet far from flawless prequel to A New Hope...", "is_fresh": 1, "author": ["David Nusair"]},
{"text": "While there is some humor in the movie, I would have liked more of that and less of the several scenes featuring characters stoically waiting to die. I can't really blame them for their fatalistic outlook since the Empire is indestructible.", "is_fresh": 1, "author": ["Robert Roten"]},
{"text": "The first 'Star Wars Story' is a success.", "is_fresh": 1, "author": ["Sonny Bunch"]},
{"text": "Those with patience will find that its second half is fully rewarding, with its epic battles and grand conflicts between good and evil bearing most of the weight of the astronomical expectations that are now part and parcel of the franchise.", "is_fresh": 1, "author": ["James Kendrick"]},
{"text": "Earns its intergalactic stripes as a Star Wars spin-off of visual gumption and gritty action filmmaking, securing its place as the glue between trilogies in this ever-expanding space saga.", "is_fresh": 1, "author": ["Matthew Pejkovic"]},
{"text": "... makes many of the other Star Wars films feel inferior - can we postpone the numbered movies and just tell these little big stories for a while?", "is_fresh": 1, "author": ["Kevin A. Ranson"]},
{"text": "Really, this is the prequel that should have been made 10 years ago instead of that dreck that George Lucas defecated into the world.", "is_fresh": 1, "author": ["Tim Martain"]},
{"text": "Rogue One slots satisfyingly into the canon, pushing the franchise in a slightly more edgy, contemporary direction without causing a disturbance in the Force.", "is_fresh": 1, "author": ["Keva York"]},
{"text": "While Rogue One isn't as grand or consequential as The Force Awakens, it finds space in the margins to leave a mark all its own.", "is_fresh": 1, "author": ["Michael Nordine"]},
{"text": "A unique and superb \"Star Wars\" adventure...", "is_fresh": 1, "author": ["Felix Vasquez Jr."]},
{"text": "[Rogue One] might not be as grand a space opera as its predecessors, but certainly holds its own.", "is_fresh": 1, "author": ["Marija Djurovic"]},
{"text": "A film that is only worth if you're a big fan of the universe created by George Lucas. [Full review in Spanish]", "is_fresh": 1, "author": ["Ernesto Diezmartinez"]},
{"text": "Jones, Mendelsohn and Forest Whitaker (as a militia leader) stand out in a strong cast.", "is_fresh": 1, "author": ["Hilary A White"]},
{"text": "A routine CGI extravaganza primarily interested in creating a Pavlovian response every time someone or something familiar appears.", "is_fresh": 0, "author": ["J. Olson"]},
{"text": "A film that gives a new value to the term \"prequel\" in this universe, in addition to \"fanservice\", which is done in favor of a solid and exciting script. [Full review in Spanish]", "is_fresh": 1, "author": ["Emmanuel B\u00e1ez"]},
{"text": "Disney may be squeezing the franchise to the fullest, but as long as it continues to produce Star Wars movies of this quality, I doubt many people will complain. [Full review in Spanish]", "is_fresh": 1, "author": ["Sebastian Zavala Kahn"]},
{"text": "Rogue One is largely free of the weight of myth and expectation that were borne by The Force Awakens, and this turns out to be both a good and a bad thing.", "is_fresh": 1, "author": ["Christopher Orr"]},
{"text": "You never knew Donnie Yen whomping stormtroopers was something you needed in your life until you saw it happening.", "is_fresh": 1, "author": ["Pete Vonder Haar"]},
{"text": "These Star Wars movies are pretty much the same story each time nowadays. This one has new names for basically the same characters, played by different actors...the same bad guys. How many times can they make the same movie and get people to pay?", "is_fresh": 0, "author": ["Tony Medley"]},
{"text": "While Rogue One never comes close to matching the heights of the series at its most dazzling (basically, Episodes IV and V, with honorable mention to Episode VII), it's still a worthy addition to the canon.", "is_fresh": 1, "author": ["Matt Brunson"]},
{"text": "Not just a dull but an oppressive experience, being force-fed a corporate product: a film that never comes alive, with none of the characters properly developed, none of the relationships gelling, the very adventure formulaic.", "is_fresh": 0, "author": ["David Sexton"]},
{"text": "A cleverly conceived one-off that forges its own identity with a new set of characters, a contained storyline and a kind of stripped-down tone and visual approach free of the grandiosity of the series.", "is_fresh": 1, "author": ["Henry Fitzherbert"]},
{"text": "Edwards appears to have elevated what could have been simply a cash-in into something that feels essential, even magical. It has the distinct smell of victory.", "is_fresh": 1, "author": ["Mark Kermode"]},
{"text": "It's most distinctive as a stylistic departure from the original Star Wars template.", "is_fresh": 1, "author": ["Jesse Hassenger"]},
{"text": "Rousing \"Rogue One\" a worthy entry in the \"Star Wars\" saga.", "is_fresh": 1, "author": ["Charles Koplinski"]},
{"text": "A well-crafted and thoughtful story drives Rogue One - in a sandbox that provides a perfect blend of modern action and classic Star Wars style.", "is_fresh": 1, "author": ["Ben Kendrick"]},
{"text": "A shot in the arm of apathy, a timely Christmas fantasy, proof of a fully-rejuvenated franchise.", "is_fresh": 1, "author": ["Christopher Machell"]},
{"text": "This Star Wars film is functional, has strength and in one way or another contributes to the cause. [Full review in Spanish]", "is_fresh": 1, "author": ["Adri\u00e1n Ruiz"]},
{"text": "Rogue One: A Star Wars Story meets expectations, the fears of thousands of fans can dissipate, this is a worthy product. [Full review in Spanish]", "is_fresh": 1, "author": ["Rafael Rosales Santos"]},
{"text": "In addition to giving us exactly what we should expect from our blockbuster event-movies, \"Rogue One\" means we've only just begun to explore this galaxy far, far away. ", "is_fresh": 1, "author": ["Mathew DeKinder"]},
{"text": "The stars are gone, much of the spirit has been lost, leaving only a lot more wars. So this is a space-faring, big-screen computer game with hoards of Stormtroopers.", "is_fresh": 1, "author": ["Susan Granger"]},
{"text": "Even if it's not great, it is a quality sci-fi film that won't disappoint its fan base.", "is_fresh": 1, "author": ["Dennis Schwartz"]},
{"text": "It's a giant universe out there, but in these movies it just keeps getting smaller.", "is_fresh": 0, "author": ["Sean Burns"]},
{"text": "Explosive action, interesting characters and a compelling story make this stand-alone movie in the Star Wars universe a winner all the way. ", "is_fresh": 1, "author": ["Roger Tennis"]},
{"text": "Fans will be happy.", "is_fresh": 1, "author": ["Marie Asner"]},
{"text": "Rogue One is at its best when it explores the relationship between the characters at ground level. They are a scrappy lot with a lot of heart.", "is_fresh": 1, "author": ["Tony Norman"]},
{"text": "These disparate elements do not come together to make a cohesive whole. At times, Rogue One feels like a rehash of previous Star Wars films, only with newer faces.", "is_fresh": 0, "author": ["Aakash Karkare"]},
{"text": "Jyn represents a new breed of (almost gender-neutral) hero: dogged, tenacious, resolute. And in a world as bleak as this one, that's what amounts to hope.", "is_fresh": 1, "author": ["Vicky Roach"]},
{"text": "Its characters are largely new, which means the movie can do with them as it wants. It isn't hemmed in the way most prequels are.", "is_fresh": 1, "author": ["Sam Adams"]},
{"text": "Rogue One does a brilliant job capturing the look and feel of Star Wars, but narratively, it's a footnote, and some of the creative choices are baffling. ", "is_fresh": 0, "author": ["Vincent Mancini"]},
{"text": "Much of Rogue One is a push-me pull-you with George Lucas' original films.", "is_fresh": 1, "author": ["Michael Bonner"]},
{"text": "Rogue One feels more like a movie with Star Wars stuff in it than an actual Star Wars movie.", "is_fresh": 0, "author": ["Mike McGranaghan"]},
{"text": "Rogue One is set a long time ago in a galaxy far, far away, yet feels more immediate, even prescient, than any Hollywood film in recent memory.", "is_fresh": 1, "author": ["Simon Foster"]},
{"text": "Rogue one is the Star Wars film, that as an adult (who grew up with the originals), I've always wanted to see. [Full review in Spanish]", "is_fresh": 1, "author": ["Fico Cangiano"]},
{"text": "Rogue One: A Star Wars Story is a film that remains fun thanks to its rich universe, spectacular set pieces and superb supporting cast, while still being held back from achieving the same excellence as its predecessor.", "is_fresh": 1, "author": ["Kanin Srimaneekulroj"]},
{"text": "Rogue One sure pulls no punches and it is a gritty war picture that perfectly captures a galaxy ruled and impoverished by the tyranny of the cold and clinical Empire.", "is_fresh": 1, "author": ["Jack Bottomley"]},
{"text": "Let's get this out of the way -- Rogue One is the best Star Wars film since The Empire Strikes Back.", "is_fresh": 1, "author": ["Tom Brennan"]},
{"text": "With all the aerial dogfights, armored combat vehicles, grenades, flame-throwers and snipers, Rogue One feels like a film for those who think that most Star Wars movies are insufficiently like World War II flicks.", "is_fresh": 1, "author": ["Bob Mondello"]},
{"text": "Ben Mendelsohn is satisfyingly nasty as the film's principal villain, and while I'd like to have seen a little more of Mads Mikkelsen, an ensemble cast of proper actors gives the film authenticity, and grit.", "is_fresh": 1, "author": ["Paul Whitington"]},
{"text": "...an attempt to squeeze one more movie out of a used MacGuffin.", "is_fresh": 0, "author": ["Violet LeVoit"]},
{"text": "I believe devoted Star Wars fans will be thrilled with the intense Rogue One. I liked it okay.", "is_fresh": 1, "author": ["Edward Johnson-Ott"]},
{"text": "The studios announced that Rogue One will be a stand-alone affair without any sequels or spin-offs, which is just as well. There's nothing here that's worth carrying into future movies.", "is_fresh": 0, "author": ["Kristian M. Lin"]},
{"text": "It ranks among the series' best -- just below A New Hope and The Empire Strikes Back (Episodes IV and V), and just above The Force Awakens.", "is_fresh": 1, "author": ["Kirk Baird"]},
{"text": "From a visual standpoint it's stunning, as the production values are a real knockout. Plus the battle scenes are really well executed. That said the plot is not always that engaging.", "is_fresh": 1, "author": ["Neil Rosen"]},
{"text": "This off-shoot is a heck of a fun science-fiction film, and the last third of the movie is a wild, epic battle.", "is_fresh": 1, "author": ["Robbie-Ann McPherson"]},
{"text": "Suffice it to say, if the filmmakers had actually put up this tangle of a screenplay to K-2SO to rate his opinion, it wouldn't have been encouraging.", "is_fresh": 0, "author": ["Piers Marchant"]},
{"text": "As rousing as it is respectful, carving out its own path while playing within the boundaries of the previous blockbusters, this is one of the best Star Wars stories ever put to film", "is_fresh": 1, "author": ["Bill Gibron"]},
{"text": "Maybe its modesty is the key to the success of \"Rogue One,\" that it doesn't seek to build on the mythology of the other seven films, but simply fill in a gap.", "is_fresh": 1, "author": ["Rob Thomas"]},
{"text": "Epic but violent adventure offers diversity, role models. ", "is_fresh": 1, "author": ["Sandie Angulo Chen"]},
{"text": "The 2:13 length and cookie cutter characters and events suck the life out of an underwhelming story. Great effects but the Force just isn't with this one. ", "is_fresh": 0, "author": ["Gary Wolcott"]},
{"text": "This standalone prequel/sequel takes a few beats to get going but once it does, Star Wars fans are taken on an intense, thrilling ride.", "is_fresh": 1, "author": ["Rebecca Murray"]},
{"text": "Trading emotion and depth for sci-fi magic and bombast, Rogue One is the start of a darker, more grown-up direction for the saga, and I applaud it. ", "is_fresh": 1, "author": ["Diva Velez"]},
{"text": "There's genuine fun here, but the humor is cynical, the heroics are tinged with regret, and it's all delivered with a cold smack of - yes - political relevance.", "is_fresh": 1, "author": ["MaryAnn Johanson"]},
{"text": "Rogue One: A Star Wars Story is thrilling, harrowing, and slightly rushed, a beautifully shot film that could have given its characters more time to develop.", "is_fresh": 1, "author": ["Roxana Hadadi"]},
{"text": "If you've ever wondered where Princess Leia got those Death Star plans from, well, here you go. Hope I'm not spoiling anything.", "is_fresh": 0, "author": ["Kurt Loder"]},
{"text": "The best Star Wars movie ever by a longshot.", "is_fresh": 1, "author": ["Phil Villarreal"]},
{"text": "I had a bad feeling about this, but Rogue One proves it belongs in the Star Wars universe.", "is_fresh": 1, "author": ["Willie Waffle"]},
{"text": "Stylistic touches and new characters make 'Rogue One' seem fresh, which also invigorates the ongoing franchise.", "is_fresh": 1, "author": ["Steve Crum"]},
{"text": "We must trust this series, a series that made us fall in love with scruffy-looking nerf herders, trigger happy fuzzballs and pessimistic droids. We must trust the Force.", "is_fresh": 1, "author": ["Rohan Naahar"]},
{"text": "By the note-perfect closing moments, \"Rogue One\" has transformed into a richly rewarding experience.", "is_fresh": 1, "author": ["Dustin Putman"]},
{"text": "As we rebels prepare to fight the empire of Trump, the film is more pertinent than ever.", "is_fresh": 1, "author": ["Clay Cane"]},
{"text": "The Force is with \"Rogue One\" because by looking back, it helps carry the \"Star Wars\" saga forward.", "is_fresh": 1, "author": ["Bob Bloom"]},
{"text": "Rogue One is technically a spin-off but it is a rip-roaring, do-or-die adventure yarn in the best tradition of the space-age saga.", "is_fresh": 1, "author": ["Allan Hunter"]},
{"text": "Gareth Edwards has expanded his story to its maximum while keeping it lean, raw and morally murky, outdoing The Force Awakens in the most satisfying installment since The Empire Strikes Back.", "is_fresh": 1, "author": ["Nick Hasted"]},
{"text": "A seriously rousing action film with a riveting cast of characters and a surprising willingness to embrace even the darkest elements of storytelling.", "is_fresh": 1, "author": ["Rich Cline"]},
{"text": "With strong work from Jones, Luna, Mikkelsen and Mendelsohn, a handful of exciting set-pieces... and plenty of expensive CG (surprise, surprise), this still doesn't quite work as the epic it so wants to be.", "is_fresh": 0, "author": ["David 'Mad Dog' Bradley"]},
{"text": "There's a sense of familiarity and a refreshing sense of being offered something we haven't quite seen before, and that Rogue One is actually entertaining about it makes the experience all the sweeter.", "is_fresh": 1, "author": ["Alex Doenau"]},
{"text": "The film isn't as excting as Episode VII, but there are a few reasons to get excited about it: the incredible stages, Death troopers and a pair of cameos that serve as anchor to this universe. [Full review in Spanish]", "is_fresh": 1, "author": ["Oswaldo Betancourt Lozano"]},
{"text": "With amazing battles that live up to the original saga, this film is more than a close relative worthy of Star Wars. [Full review in Spanish]", "is_fresh": 1, "author": ["Pablo A. Scholz"]},
{"text": "The good news is that Edwards' effort to make a storm-the-beach war film produces a tense third act that earns most of its big moments and also justifies much of what's come before.", "is_fresh": 1, "author": ["Matthew Lickona"]},
{"text": "As a prequel, it brings depth and strength to the existing canon, and Rogue One: A Star Wars Story will probably leave fans wishing it could have spun off into a franchise of its own.", "is_fresh": 1, "author": ["Josh Terry"]},
{"text": "It's a film that should further the genuine sense of excitement surrounding this particular franchise revival, while standing as something of a classic in its own right.", "is_fresh": 1, "author": ["Rob Carnevale"]},
{"text": "The Force is strong in this spin-off.", "is_fresh": 1, "author": ["Linda Cook"]},
{"text": "A a tense, well-made spacefaring war movie about a desperate and demoralized band of insurgents standing up against a rising authoritarian regime.", "is_fresh": 1, "author": ["Chris Klimek"]},
{"text": "Rogue Ones establishes its own identity while fitting perfectly in the Star Wars universe. [Full review in Portuguese.]", "is_fresh": 1, "author": ["Pablo Villa\u00e7a"]},
{"text": "We're used to the characters in this series existing primarily as archetypes. The characters here, though, barely qualify as archetypes.", "is_fresh": 0, "author": ["Mark Dujsik"]},
{"text": "This is the Star Wars film to be excited for since a galaxy far, far away has never looked as promising as it does now. Rogue One: A Star Wars Story is everything The Force Awakens should have been and then some. ", "is_fresh": 1, "author": ["Chris Sawin"]},
{"text": "Certainly there is pleasure in revisiting a favorite place you've been many times before. But it's not an 'event' film. For the first time, it really does just feel like an episode.", "is_fresh": 1, "author": ["Eric D. Snider"]},
{"text": "Audiences once packed theaters to gawk at the future; now, it's to soak in the past. The emphasis is on packing in as much nostalgia as possible and tersely editing it together to resemble a film.", "is_fresh": 0, "author": ["Amy Nicholson"]},
{"text": "Rogue One finds a way to forge its own path.", "is_fresh": 1, "author": ["Sarah Ward"]},
{"text": "A film with amazing performances and an absolutely memorable ending, where action, emotion, joy and sadness embrace in a totemic spectacle. [Full review in Spanish]", "is_fresh": 1, "author": ["Alejandro G. Calvo"]},
{"text": "[Gareth Edwards'] technical vision shines through in the battle scenes, but his work with actors leaves something to be desired", "is_fresh": 1, "author": ["Gavia Baker-Whitelaw"]},
{"text": "[A]n eye-popping heart-stopping joyride that leaves you breathless... a grand and operatic vision...", "is_fresh": 1, "author": ["Mark Hughes"]},
{"text": "Edwards pushes the saga out of its comfort zone to offer a complex look at the universe created by George Lucas, making it truly feel diverse and complicated. [Full review in Spanish]", "is_fresh": 1, "author": ["Luis Fernando Galv\u00e1n"]},
{"text": "Sadly, that Felicity Jones isn't a standout as Rogue One's lead speaks to how more effort seems to have been spent on fan service than character development...", "is_fresh": 1, "author": ["Steve Newall"]},
{"text": "A fun ride that repeats the Star Wars legacy without really adding to it.", "is_fresh": 1, "author": ["Lauren Chval"]},
{"text": "It's an enthralling go, with little pops of surprise and revelation that should please, nostalgically so.", "is_fresh": 1, "author": ["Tom Meek"]},
{"text": "An energetic and very surprising film from the galactic saga with the very successful and simple resource of telling the same story. [Full review in Spanish]", "is_fresh": 1, "author": ["Luis Mart\u00ednez"]},
{"text": "Rogue One may be more intense than fun, but it's the best Star Wars prequel film by a long shot.", "is_fresh": 1, "author": ["Sherilyn Connelly"]},
{"text": "Rogue One: A Star Wars Story is what the fans expected and more. [Full review in Spanish]", "is_fresh": 1, "author": ["Erick Estrada"]},
{"text": "A serious and occasionally spectacular addition to the Star Wars universe that only suffers in comparison to the original saga when measured by the charisma and likability of its characters.", "is_fresh": 1, "author": ["Ed Whitfield"]},
{"text": "Action-packed and glorious in its engaging and often times, exotic dimensions of storytelling is absolutely stirring. ", "is_fresh": 1, "author": ["Clayton Davis"]},
{"text": "This is a movie made for fans.", "is_fresh": 1, "author": ["Jordan Hoffman"]},
{"text": "Tudyk's K-2S0 has in miniature what Edwards's movie lacks overall: the soul of a new machine.", "is_fresh": 0, "author": ["Michael Sragow"]},
{"text": "\"Rogue One\" spins \"Star Wars\" into a whole new orbit.", "is_fresh": 1, "author": ["Calvin Wilson"]},
{"text": "Star Wars Wars is such an immersive world heavy in lore and esoteric facts that being able to balance fan service without scaring off the casual moviegoer is no easy feat. Rogue One: A Star Wars Story manages to do exactly that.", "is_fresh": 1, "author": ["Wenlei Ma"]},
{"text": "It's a real shame the character side of things is so weak, because otherwise this is a strong addition to the franchise. ", "is_fresh": 1, "author": ["Anthony Morris"]},
{"text": "Some sci-fi/fantasy fans may wonder if every last drop has already been milked out of the Star Wars franchise. But, judging from this energetic standalone tangent/prequel, more can be exploited for many years to come.", "is_fresh": 1, "author": ["Dwight Brown"]},
{"text": "[K-2SO] has all the good lines. I'm not sure if it's such a good thing that the best character in a sci-fi movie is a robot. But then again, the best character in 2001: A Space Odyssey was HAL, and that film wasn't half-bad.", "is_fresh": 1, "author": ["Peter Rainer"]},
{"text": "Except for a few jocose, fan-serving moments, the movie is a dour affair, lacking the charm and chills of J.J. Abrams's spirited Star Wars: The Force Awakens, not to mention George Lucas's founding trilogy.", "is_fresh": 0, "author": ["Leah Pickett"]},
{"text": "Like an Imperial Star Destroyer, it starts off slow and somewhat clunky, but by the time the mind-blowing third act arrives, it's all a fan can do not to stand up and cheer.", "is_fresh": 1, "author": ["Marc Savlov"]},
{"text": "Often it looks dingy and cheap. Speed of action ought to compensate. But when the action is standardised chases-through-space, turgid and repetitive, that doesn't compensate for anything.", "is_fresh": 0, "author": ["Nigel Andrews"]},
{"text": "[Rogue One] is sometimes as admirable as it is enjoyable, but it also has some glaring problems that are clearly holding the movie back from reaching its full potential.", "is_fresh": 1, "author": ["Jack Giroux"]},
{"text": "This prequel delivers more levels than the Death Star's elevator.", "is_fresh": 1, "author": ["Ryan Kisiel"]},
{"text": "One of the most exhilarating in the series, a film with a real sense of how to tell a story - and tell it well.", "is_fresh": 1, "author": ["Alistair Harkness"]},
{"text": "Familiar Star Wars action scenarios are revisited, revamped and revitalised courtesy of bleeding edge effects and genuine love for the material.", "is_fresh": 1, "author": ["Rob Daniel"]},
{"text": "Rogue One does a great job of walking the fine line between being a Star Wars film and not feeling like any other Star Wars film. ", "is_fresh": 1, "author": ["Matt Neal"]},
{"text": "A highly entertaining mess...the kind of loopy, stumblebum spectacle you get when state-of-the-art visual effects collide head-on with the erratic sensibilities of a resolutely mediocre director and the crushing need for a studio to meet a release date.", "is_fresh": 1, "author": ["Jim Schembri"]},
{"text": "The rebel yell is a little croaky.", "is_fresh": 1, "author": ["Cameron Williams"]},
{"text": "It also works as its own stand-alone film. One which, despite some lumpy pacing in its first half, turns out to be possibly the best Star Wars war film of the bunch.", "is_fresh": 1, "author": ["Russell Baillie"]},
{"text": "Rogue One works best because its story is so narrowly focused.", "is_fresh": 1, "author": ["Tufayel Ahmed"]},
{"text": "Rogue One is an explosive, brilliant entry into the Star Wars universe. It's a bracing slap in the face, but a bloody fun one to watch.", "is_fresh": 1, "author": ["Paul Verhoeven"]},
{"text": "The good news is that it's something genuinely fresh, a Star Wars story unlike any big screen adventure yet.", "is_fresh": 1, "author": ["Helen O'Hara"]},
{"text": "In short, this movie is what the Star Wars prequels should have been, and that's meant as high praise indeed.", "is_fresh": 1, "author": ["Daniel M. Kimmel"]},
{"text": "The resonant and entertaining Rogue One is about the persistence of hope and faith in the darkest of hours. As we stagger to the end of this epically turbulent year, the movie is all but guaranteed to strike a chord.", "is_fresh": 1, "author": ["Stephen Rebello"]},
{"text": "Efficiently made...but it comes across as an assembly-line product, an elaborate but fairly conventional action-adventure movie too dependent for its effect on references to earlier entries in the series.", "is_fresh": 0, "author": ["Frank Swietek"]},
{"text": "That's what people love about these Star Wars movies, right? We get older, they stay the same.", "is_fresh": 1, "author": ["Simon Miraudo"]},
{"text": "Rogue One packs an emotional punch and shows much promise for stories to come from a rich universe with an astonishing cultural impact.", "is_fresh": 1, "author": ["Jonathan Victory"]},
{"text": "Dark, gritty and heavy on the nostalgia, what Rogue One lacks in dialogue it makes up for in action. ", "is_fresh": 1, "author": ["Tom Glasson"]},
{"text": "a boots-on-the-ground war story about flawed and forgotten heroes", "is_fresh": 1, "author": ["Travis Johnson"]},
{"text": "The performances in this film are among the best the franchise has seen. This isn't a film of supermen. It's one of everyday people trying to justify, morally and practically, their roles in the struggles against an overwhelming, evil adversary.", "is_fresh": 1, "author": ["Walker MacMurdo"]},
{"text": "The film comes home strong, with large-scale warfare, feats of great daring and sacrifice, and acres of dead storm-troopers.", "is_fresh": 1, "author": ["Paul Byrnes"]},
{"text": "I enjoyed the film that nicely balances being its own standalone offering and one that pays homage to and serves as an important thread in the sci-fi series. (Full Content Review for Parents - Violence, Scary Stuff, etc. - also Available)", "is_fresh": 1, "author": ["Jim Judy"]},
{"text": "Rogue One is entertaining enough, but there is not much surprise as to how things turn out.", "is_fresh": 1, "author": ["Boon Chan"]},
{"text": "Hemmed in by a script that assigns truly theatrical sinisterness to pre-existing creations (i.e. Darth Vader) Ben Mendelsohn doesn't get to go 'the full Mendo', filled with pure, baleful, blackhearted menace, but hot damn - it's good to have him on board.", "is_fresh": 1, "author": ["Luke Buckmaster"]},
{"text": "Rogue One: A Star Wars Story is what the fans were waiting for. Ideal for the ones that aren't passionate about the saga because they will find reasons to fall in love with this universe. [Full review in Spanish]", "is_fresh": 1, "author": ["Mario P. Sz\u00e9kely"]},
{"text": "Above all else, it is on a technical level that Rogue One truly excels, allowing Edwards to conjure a sizeable number of intergalactic spectacles that are as stirring as they are stylish.", "is_fresh": 1, "author": ["Leigh Paatsch"]},
{"text": "Imitation, they say, is the highest form of flattery. If so, the makers of \"Rogue One\" flatter the heck out of its predecessors.", "is_fresh": 1, "author": ["Robin Clifford"]},
{"text": "Gareth Edwards tries to generate suspense by using well-worn movie cliches that display a lack of imagination and point to the flaws of telling this tale in the first place.", "is_fresh": 1, "author": ["Randy Shulman"]},
{"text": "Rogue One is still an achievement. Every other Star Wars movie has only ever had the responsibility of telling part of a story - this manages the whole thing in one go.", "is_fresh": 1, "author": ["Steve Wright"]},
{"text": "A fun outing, if also a derivative one. Donnie Yen and the droid steal the film from the leads...", "is_fresh": 1, "author": ["James Verniere"]},
{"text": "There's a comfort in being in the Star Wars Universe and you immediately feel a renewed affection for it upon re-entry. But a Star Wars film shouldn't rely on its Star Wars-yness.", "is_fresh": 0, "author": ["Christopher Hooton"]},
{"text": "Rogue One does not extend the Star Wars story but there are times when it deepens it.", "is_fresh": 1, "author": ["Stephen Romei"]},
{"text": "The story clicks nicely into place with the events of Star Wars but that narrative is really just a blank sky in which the film's other elements can sparkle like stars.", "is_fresh": 1, "author": ["Ryan Gilbey"]},
{"text": "Rogue One might not necessarily be a film that was needed but once the credits roll, you realise how much you desperately wanted it regardless.", "is_fresh": 1, "author": ["Amy West"]},
{"text": "Nothing is exultant, dramatic, epic, heroic, complex or just entertaining to me. The film is overwhelmingly empty, and lacks minimal grace and rhythm. [Full review in Spanish]", "is_fresh": 0, "author": ["Carlos Boyero"]},
{"text": "Rogue One is one of the best films of our favorite space saga and will undoubtedly delight the fans, even on the verge of a nostalgic and involuntary tear of emotion. [Full review in Spanish]", "is_fresh": 1, "author": ["Carlos Del R\u00edo"]},
{"text": "Rogue One is like its heroes. It is flawed in some ways, but it's still well worth the wait.", "is_fresh": 1, "author": ["Kevin Carr"]},
{"text": "It suffers, like many blockbusters, from too much spectacle and not enough truth, but its greatest sin is that it feels dull, insipid and underwhelming despite a plethora of loud action scenes and dazzling visual effects. ", "is_fresh": 0, "author": ["Avi Offer"]},
{"text": "enhances as well as annotates the Star Wars mythos, making the story we thought we knew in A NEW HOPE richer and more urgent. ", "is_fresh": 1, "author": ["Andrea Chase"]},
{"text": "In previous Star Wars movies, one side wore black hats and the other wore white...Here that's not the case. For some, this is a selling point. For me, it's close to a deal-breaker.", "is_fresh": 0, "author": ["Steven D. Greydanus"]},
{"text": "There's nothing to sink our teeth into, especially when we already know how it ends. There's no suspense. ", "is_fresh": 0, "author": ["Dana Barbuto"]},
{"text": "Rogue One is at its best when it's at war .", "is_fresh": 1, "author": ["Alison Willmore"]},
{"text": "Admittedly, this can be viewed as simply another rehash of old stories and themes, but hash is rarely this tasty.", "is_fresh": 1, "author": ["Cameron Meier"]},
{"text": "A Star Wars story for the ages.", "is_fresh": 1, "author": ["Adam Woodward"]},
{"text": "The movie the prequels should have been. Perfectly captures the spirit of the original trilogy and delivers a genuinely thrilling Star Wars film. ", "is_fresh": 1, "author": ["Matthew Turner"]},
{"text": "Rogue One is Star Wars for hard core fans who felt left behind by the prequels, but it's got little to offer casual viewers beyond competent, uninspired thrills.", "is_fresh": 1, "author": ["Joshua Starnes"]},
{"text": "Of space dust, Joni Mitchell and the Force: a visually splendid, dramatically stirring journey spanning both yesteryear and tomorrow.", "is_fresh": 1, "author": ["Neil Pond"]},
{"text": "The Force is not only well and truly with us again, it seems as if it's never been gone.", "is_fresh": 1, "author": ["Brian Viner"]},
{"text": "An almighty triumph, the best-constructed and most fun Star Wars flick since The Empire Strikes Back. The force is truly strong with this one.", "is_fresh": 1, "author": ["Terry Staunton"]},
{"text": "It was always one of 2016's most anticipated films and it doesn't let down the legions who have been waiting for it.", "is_fresh": 1, "author": ["James Berardinelli"]},
{"text": "Gareth Edwards has crafted the most satisfying Star Wars film since The Empire Strikes Back.", "is_fresh": 1, "author": ["Joseph Walsh"]},
{"text": "The movie didn't rekindle the thrill of seeing, say, The Empire Strikes Back, but Rogue One will loom pretty large in the Star Wars galaxy - if only because there's so little competition.", "is_fresh": 1, "author": ["David Edelstein"]},
{"text": "While the principal characters are new, Edwards ensures there are enough significant nods to the Star Wars universe to enchant fans.", "is_fresh": 1, "author": ["James Mottram"]},
{"text": "A movie experience that is supremely captivating.", "is_fresh": 1, "author": ["Jeanne Kaplan"]},
{"text": "Jones' portrayal is quite different from what we have come to expect from the Oscar nominee, and she proves she can handle the role of an action heroine with surprising ferocity. ", "is_fresh": 1, "author": ["David Kaplan"]},
{"text": "\"...has the urgency and battlefield heroism that great war movies are made of. It's incredible stuff all around.\"", "is_fresh": 1, "author": ["Travis Hopson"]},
{"text": "\"Rogue One: A Star Wars Story\" is a fine stand-alone film and one that will have you anticipating \"Episode VIII,\" which is just a short 367 days away!", "is_fresh": 1, "author": ["Michael A. Smith"]},
{"text": "ROGUE ONE begins as an inspired concept, only to conclude with a soulless stare.", "is_fresh": 0, "author": ["Rubin Safaya"]},
{"text": "Coming from someone who is not really a Star Wars freak, I have to say I was impressed. This could be the best one yet.", "is_fresh": 1, "author": ["Pete Hammond"]},
{"text": "There is always the danger with a film of this high profile to expect or want it to over-deliver. Sadly - though understandably - Rogue One just doesn't do that. ", "is_fresh": 1, "author": ["Matt Looker"]},
{"text": "Rogue One accomplishes what fans have wanted to see for a few decades now: making Darth Vader scary again. ", "is_fresh": 1, "author": ["Matt Goldberg"]},
{"text": "It's the trio of Tudyk, Wen and especially Yen who steal the show, each bringing to life characters that will likely go down as three of the best ever to grace a story set in the Star Wars universe.", "is_fresh": 1, "author": ["Sara Michelle Fetters"]},
{"text": "This is a gorgeous and immersive film. ", "is_fresh": 1, "author": ["Pauline Adamek"]},
{"text": "Though not meant to be an episode in the great intergalactic narrative of the series of trilogies, Edwards' Rogue One is an enthralling companion piece that fully embodies the Star Wars spirit and delivers the rousing pleasures.", "is_fresh": 1, "author": ["Kara Warner"]},
{"text": "Technically brilliant, Rogue One delivers the spectacle and the aerial combat that are such signatures of the Star Wars ethos, with some eye pleasing vistas of a hectic part of the stunningly beautiful universe", "is_fresh": 1, "author": ["Andrew L. Urban"]},
{"text": "New diverse actors from around our world breathe new life into prequel that just entertainingly barely satisfactorily, repeats the tried and true themes and expensive action.", "is_fresh": 1, "author": ["Nora Lee Mandel"]},
{"text": "This spin-off/prequel has the same primitive, lived-in, emotional, loopy, let's-put-on-a-show spirit that made us fall in love with the original trilogy.", "is_fresh": 1, "author": ["Peter Travers"]},
{"text": "Of the three sidekicks, Yen's rueful but deadly martial artist leaves the best action impression.", "is_fresh": 1, "author": ["Steve Persall"]},
{"text": "Rogue One somehow delivers on almost all of its weighty pre-release promises whilst at the same time besting The Force Awakens for sheer spectacle.", "is_fresh": 1, "author": ["Daniel Green"]},
{"text": "A hugely enjoyable film, and an impressive sign of things to come. This is the perfect film for a Star Wars fan.", "is_fresh": 1, "author": ["Jon Lyus"]},
{"text": "It's an experiment that mostly works, but there are moments when it's clear that the task of finding new areas of \"Star Wars\" to play with is a bit too much for director Gareth Edwards to handle. ", "is_fresh": 1, "author": ["Brian Orndorf"]},
{"text": "We already knew this was going to be a thrilling epic, but I had no idea of the emotional punch it would pack.", "is_fresh": 1, "author": ["Stefan Kyriazis"]},
{"text": "I enjoyed this scrappy little movie, the second consecutive one to feature a female heroine.", "is_fresh": 1, "author": ["Max Weiss"]},
{"text": "Rogue One left me feeling giddy with joy at seeing the Star Wars franchise expanded with such a genuine sense of affection and understanding for what made us fall in love with a galaxy far, far away.", "is_fresh": 1, "author": ["Beth Accomando"]},
{"text": "It offers more details of interoffice politics among the squabbling factions of both the Empire and the Rebel Alliance than probably anyone but a mid-level manager cares for. Yet you generally feel you're in good hands.", "is_fresh": 1, "author": ["Ty Burr"]},
{"text": "Star Wars movies have been dazzling, infuriating, heartbreaking, silly, witty, convoluted, gripping and overblown. But until Rogue One: A Star Wars story, I don't think \"dull\" was the most appropriate adjective.", "is_fresh": 0, "author": ["Lawrence Toppman"]},
{"text": "[Rogue One has] well-placed humor, inside jokes, aliens, droids and creepy CGI renderings of two key Star Wars characters, all set against the backdrops of mind-bending production designs and hypnotic visual effects.", "is_fresh": 1, "author": ["Dann Gire"]},
{"text": "It's a downer. It's morally tangled. The characters are as depressed as the scenario, and Michael Giacchino's music can't make it better.", "is_fresh": 0, "author": ["Mick LaSalle"]},
{"text": "Disney refuses to waver from what makes 'Star Wars' matter - the battle between good and evil. Where can we send the 'thank you' notes?", "is_fresh": 1, "author": ["Christian Toto"]},
{"text": "If you're not a fan, Rogue One may not be the revelation that The Force Awakens turned out to be. But it won't have you wishing for your own personal Death Star either. ", "is_fresh": 1, "author": ["Cary Darling"]},
{"text": "...while it's great to see Danish actor Mads Mikkelsen placed into Star Wars lore as a catalyst for the Rebel Alliance the British Jones lacks the fire Daisy Ridley brought to Chapter VII.", "is_fresh": 1, "author": ["Laura Clifford"]},
{"text": "Lucasfilm has outdone themselves. They've delivered a thrilling installment that embodies the best of Star Wars. Rogue One surpasses every expectation.", "is_fresh": 1, "author": ["Julian Roman"]},
{"text": "The most thrilling Star Wars experience yet.", "is_fresh": 1, "author": ["Neil Miller"]},
{"text": "What results is a poignant, powerful paean to the Star Wars Universe, set in a world where the best thing you can hope for is hope itself. It's a perfect and complete standalone, but it changes everything.", "is_fresh": 1, "author": ["Rosie Fletcher"]},
{"text": "If The Force Awakens was an exercise in giving Star Wars fans exactly what they want, Rogue One does its best to show them what else there is in the galaxy.", "is_fresh": 1, "author": ["Josh Bell"]},
{"text": "Credit to Jones, then, for imbuing the character with a steely melancholy. Moreover, her chemistry with bad-boy Andor visibly sizzles, so that you feel genuine investment in their story.", "is_fresh": 1, "author": ["Ed Power"]},
{"text": "The new characters are nicely fleshed out, particularly Jones's Jyn, whose initial cynicism gradually morphs into a steely resolve, its seed planted by the memory of her father, but watered by the idealism of the Rebellion.", "is_fresh": 1, "author": ["Chris Knight"]},
{"text": "A classic adventure story and worthy spin off of one of the most popular sagas of contemporary cinema. [Full review in Spanish]", "is_fresh": 1, "author": ["N\u00e9stor Burtone"]},
{"text": "At its best, Rogue One is scrappy and epic in equal measure, aware of the potential to be glorified fan fiction and using exactly what it needs from the Star Wars mythology to create a vibrant, stand-alone adventure.", "is_fresh": 1, "author": ["Joe Gross"]},
{"text": "\"Rogue One\" is definitive proof: \"Star Wars\" is back, baby.", "is_fresh": 1, "author": ["Sara Stewart"]},
{"text": "When you realize where it's all been heading -- ending on a moment that's as transcendent as anything in 40 years of the franchise -- you'll be so, so happy.", "is_fresh": 1, "author": ["Norman Wilner"]},
{"text": "Rogue One is one of the best Star Wars flicks to date -- as well as the grittiest, darkest, and most grounded.", "is_fresh": 1, "author": ["Gary Dowell"]},
{"text": "Rogue One features stirring action scenes, vivid characterisation and one or two truly eye-popping explosions. Nonetheless, what it lacks is any real originality.", "is_fresh": 1, "author": ["Geoffrey Macnab"]},
{"text": "Doesn't break the mold in terms of franchise formula, and it's an enjoyable installment in the \"Star Wars\" canon. However, it's not much more than that.", "is_fresh": 1, "author": ["Katie Walsh"]},
{"text": "'Because it's awesome' is enough reason for Rogue One, and it is awesome. The final space battle is the best space battle of any Star Wars movie.", "is_fresh": 1, "author": ["Fred Topel"]},
{"text": "Much more than a mere sideshow in the Star Wars saga, these rebels build on a brilliant legacy.", "is_fresh": 1, "author": ["Peter Howell"]},
{"text": "Star Wars has been filled with political commentary since the first in 1977, and this film is no different. [...] I enjoyed this more than The Force Awakens.", "is_fresh": 1, "author": ["Keisha Hatchett"]},
{"text": "As the kickoff of a new phase of \"Star Wars\" on the big screen, \"Rogue One\" is a smashing success, showing there is a lot more to this galaxy than lightsabers and Skywalkers.", "is_fresh": 1, "author": ["Greg Maki"]},
{"text": "A perfectly satisfying summer fun film. Untidy and a little clich\u00e9 at first, but eventually ends up standing out because of its humor and its subversive energy. [Full review in Spanish]", "is_fresh": 1, "author": ["Benjam\u00edn Harguindey"]},
{"text": "\"Rogue One\" is pure, unbridled \"Star Wars.\" ", "is_fresh": 1, "author": ["Justin Craig"]},
{"text": "For all that feels uninspired and unnecessary in Rogue One, it's no disaster. ", "is_fresh": 1, "author": ["Rob Hunter"]},
{"text": "Gareth Edwards' venture into a galaxy far, far away is the Star Wars film we never knew we needed. It's a triumphantly thrilling, serious-minded war movie that is incalculably stronger for the fact that it's NOT the first chapter in a new franchise.", "is_fresh": 1, "author": ["Jim Vorel"]},
{"text": "Rogue One is a bright light in the Star Wars canon.", "is_fresh": 1, "author": ["Richard Roeper"]},
{"text": "Edwards has created the rare Star Wars property that can be appreciated as a film. And it is about as violent and downbeat as Star Wars gets on the big screen-more downbeat than The Empire Strikes Back, in fact.", "is_fresh": 1, "author": ["Ignatiy Vishnevetsky"]},
{"text": "Let's face it: Rogue One is the best Star Wars movie in a long, long time. [Full review in Spanish]", "is_fresh": 1, "author": ["Yago Garc\u00eda"]},
{"text": "Towering like a stick-man over the rest of the cast, K-2SO provides most of the laughs in this portentous voyage into that same old galaxy far, far away.", "is_fresh": 1, "author": ["Kate Muir"]},
{"text": "Rogue One, directed by Gareth Edwards with a sharp script by Tony Gilroy and Chris Weitz, is a bracing and dizzying marvel, propulsively pitched and even, I dare say, moving.", "is_fresh": 1, "author": ["Richard Lawson"]},
{"text": "In the end, this hardening of the franchise seems likely to alienate both the fans and the uninitiated.", "is_fresh": 0, "author": ["Kate Taylor"]},
{"text": "A more than worthy adventure but lacks the brilliance of the original trilogy. It makes us have a good time, but not a memorable one. [Full review in Spanish]", "is_fresh": 0, "author": ["Mikel Zorrilla"]},
{"text": "\"Rogue One: A Star Wars Story\" shows that the \"Star Wars\" universe can produce authentic adult entertainment without losing a bit of its frenetic energy.", "is_fresh": 1, "author": ["Colin Covert"]},
{"text": "In between all the crash bang and wallop, there are also some truly odious villains, with Vader as sinister as he's ever been and Australia's Ben Mendelsohn clearly relishing his role as the human-cyborg's psychotic chief enforcer.", "is_fresh": 1, "author": ["David Edwards"]},
{"text": "The movie works even if you only have a passing knowledge of the Star Wars universe or haven't seen the original in years. But there are several enjoyable callbacks and some eye-popping surprises for die-hard fans.", "is_fresh": 1, "author": ["Christopher Lawrence"]},
{"text": "The Force is strong with this film -- a perfect fit as a prequel to A New Hope.", "is_fresh": 1, "author": ["Rick Bentley"]},
{"text": "\"Rogue One\" represents an unobjectionable exercise in franchise extension. It's fine. It'll do. For now.", "is_fresh": 1, "author": ["Ann Hornaday"]},
{"text": "Even though the film is much grungier and more realistic than all the previous chapters, this corner of the \"Star Wars\" universe still is a thrilling place to visit.", "is_fresh": 1, "author": ["David Frese"]},
{"text": "The movie has a completely different, more sophisticated feel than most recent special effects-driven entries, including last year's so-so \"The Force Awakens.\"", "is_fresh": 1, "author": ["Kyle Smith"]},
{"text": "It's too grimy and relentlessly bleak to be any fun, and lacks the substance and drama to be taken seriously.", "is_fresh": 0, "author": ["J.R. Kinnard"]},
{"text": "It tries so hard to be an epic masterpiece - with self-important speeches and an insanely outsize orchestral score - that it ends up a laughable parody of itself.", "is_fresh": 0, "author": ["Tirdad Derakhshani"]},
{"text": "Rogue One: A Star Wars Story is the best Star Wars movie since 1980's The Empire Strikes Back.", "is_fresh": 1, "author": ["Julie Washington"]},
{"text": "A solid film with its own vision and tone, yet undeniably still a part of that wonderful galaxy far, far away.", "is_fresh": 1, "author": ["Rob Vaux"]},
{"text": "If the franchise can continually pull off blockbusters with the same level of creative energy and the proper amount of reverence as Rogue One does, there's every reason to expect greatness for years to come.", "is_fresh": 1, "author": ["Eric Eisenberg"]},
{"text": "If only the two-hour plus runtime made time to dig into its heroes like the original trilogy or The Force Awakens did, Rogue One could have been as sensational and satisfying.", "is_fresh": 0, "author": ["Kristy Puchko"]},
{"text": "For this lived-in universe, Rogue One features some distinctly CGI distractions: revisiting classic characters and resuscitating them 2016-style. It's crude and unnecessary in a film that's otherwise fairly sturdy, if unremarkable.", "is_fresh": 1, "author": ["Eric Melin"]},
{"text": "This is exactly what Edwards always said he was going to make - a STAR WARS war film. People die, and tears will be shed. Anyone who thought it would be watered-down should think again.", "is_fresh": 1, "author": ["Chris Bumbray"]},
{"text": "\"Rogue One\" stands on its own, an entry that is at once part of the \"Star Wars\" franchise (obviously) but also separate - a tougher, grittier film.", "is_fresh": 1, "author": ["Bill Goodykoontz"]},
{"text": "Almost pedantic in its inoffensiveness.", "is_fresh": 0, "author": ["Stephanie Zacharek"]},
{"text": "All the pieces are there ... like Lego figures in a box. The problem is that the filmmakers haven't really bothered to think of anything very interesting to do with them.", "is_fresh": 0, "author": ["A.O. Scott"]},
{"text": "The action sequences, both on the ground and in space, are rousingly staged. But the losses incurred in those sequences are sobering. The stakes in the \"Star Wars\" rebellion are high indeed.", "is_fresh": 1, "author": ["Soren Andersen"]},
{"text": "When the universe \"expands\" in this way, it actually makes it seem so much smaller.", "is_fresh": 0, "author": ["Dan Schindel"]},
{"text": "It is a brave attempt at making a new kind of Star Wars movie but seems all too eager to express its fealty to the source material without thinking up any ideas of its own.", "is_fresh": 0, "author": ["Alan Corr"]},
{"text": "Intriguing and richly diverse characters, a suspenseful plot, an amusing sidekick, and a very satisfying answer to one of the most persistent questions from \"New Hope.\" ", "is_fresh": 1, "author": ["Nell Minow"]},
{"text": "Rogue One: A Star Wars Story succeeds far more than it doesn't, and has some rich characters and terrific performances (specifically Tudyk and Yen) to go along with the beautiful visuals and intense action.", "is_fresh": 1, "author": ["Kyle Anderson"]},
{"text": "Rogue One isn't so much a movie as a feature-length promotional film for itself; it's a movie that is still waiting to be made.", "is_fresh": 0, "author": ["Richard Brody"]},
{"text": "Rogue One is a bold and stirring adventure film that will have both fans and casual observers spellbound.", "is_fresh": 1, "author": ["Lindsey Bahr"]},
{"text": "It's constant blowing stuff up. Jyn Erso is STAR WARS \"Joan of Arc\" without a zealot's fervor or dynamic leadership presence. She is the only female fighter and all the nomad soldiers blindly follow her. What happened to Mendelsohn's face?", "is_fresh": 0, "author": ["Victoria Alexander"]},
{"text": "Rogue One: A Star Wars Story does exactly what it is supposed to do by incrementally expanding the Star Wars universe that we already know.", "is_fresh": 1, "author": ["Bruce Kirkland"]},
{"text": "Hard-core fans who thought Episode VII was a dumbed-down rehash will bask in an action-packed film that refuses to spoon-feed information. Mind you, that's the same reason why the casual fan will be disengaged.", "is_fresh": 1, "author": ["Mara Reinstein"]},
{"text": "This is a whole new stable of characters operating on the fringes of the world we know by heart. When you think about it, that's pretty exciting. And it opens up a world of cinematic possibilities moving forward.", "is_fresh": 1, "author": ["Chris Nashawaty"]},
{"text": "Aside from [K-2SO's] killer lines, wonderfully voiced by the indispensable Alan Tudyk, most big satisfactions in this big, big movie come from references to Star Wars adventures you've loved before.", "is_fresh": 1, "author": ["Bob Strauss"]},
{"text": "It stands alone as the best Star Wars entry since 1980's The Empire Strikes Back. Yes, it's that good.", "is_fresh": 1, "author": ["Ethan Sacks"]},
{"text": "Just once I'd like to see a Star Wars film and be wowed by seeing something completely new and fresh. I didn't hate it, however it commits the crime of being underwhelming and unoriginal.", "is_fresh": 0, "author": ["Michelle Alexandria"]},
{"text": "Rogue One is groundbreaking for the Star Wars franchise, a rousing side story that blows the doors wide open for future installments of the series. That it stands on its own as a slam-bam action thrill ride is a bonus.", "is_fresh": 1, "author": ["Adam Graham"]},
{"text": "As pure retcon-meets-thought experiment, Rogue One scratches an itch that has been tickling since that initial screening in '77.", "is_fresh": 1, "author": ["Jason Gorber"]},
{"text": "Rogue One is worthy of standing alongside the original trilogy. Not only in terms of quality, but in creativity, imagination, and inspiration.", "is_fresh": 1, "author": ["Shawn Hazelett"]},
{"text": "Rogue One: A Star Wars Story answers the question of whether that galaxy far, far away is big enough to sustain multiple offshoots with an emphatic yes.", "is_fresh": 1, "author": ["Brian Lowry"]},
{"text": "Contained yet expansive, nostalgic yet new, Rogue One introduces striking heroes and villains and fills its two hours and 13 minutes with a narrative that fits snugly into canon. ", "is_fresh": 1, "author": ["Jen Yamato"]},
{"text": "Rogue One is a more-than-worthy prequel. Which is a first in the Star Wars universe.", "is_fresh": 1, "author": ["Tony Hicks"]},
{"text": "Rogue One is better than [the prequels] by a long shot, but after the high bar set by last year's Episode VII - The Force Awakens, simply being better than the prequels isn't good enough anymore.", "is_fresh": 1, "author": ["John Wenzel"]},
{"text": "The chaps are heroic. The villains are dastardly. All that's missing is Burton and \"Broadsword calling Danny Boy\".", "is_fresh": 1, "author": ["Donald Clarke"]},
{"text": "The Force Awakens may have reanimated the once-dormant franchise, but it's Rogue One that will give Star Wars fans a new hope.", "is_fresh": 1, "author": ["Forrest Wickman"]},
{"text": "K-2S0 contributes sorely needed humor, but nowhere near enough.", "is_fresh": 0, "author": ["Joe Morgenstern"]},
{"text": "The good news is that Star Wars fans will never want again... but the movies themselves may have gotten a little less special as a result.", "is_fresh": 1, "author": ["Bryan Bishop"]},
{"text": "Despite its darker tone, Rogue One feels cosily at home in the Star Wars universe, and is crowded with the kind of imagination-tickling details the franchise thrives on.", "is_fresh": 1, "author": ["Robbie Collin"]},
{"text": "Rogue One shouldn't work - from everything from the reshoots to just the fact Star Wars is breaking from centering its story around the Skywalkers - but, yet, it does work. Mostly.", "is_fresh": 1, "author": ["Mike Ryan"]},
{"text": "Technically deft but emotionally cold.", "is_fresh": 1, "author": ["Matt Singer"]},
{"text": "Even an underwhelming Star Wars is a pretty decent Star Wars, but Rogue One misses a real chance to turn the familiar into something remarkable.", "is_fresh": 1, "author": ["Brian Truitt"]},
{"text": "Star wars, indeed: The thrilling \"Rogue One\" brings a gritty combat-movie aesthetic to George Lucas's beloved space opera, but not at the expense of a thoughtful, emotional story about the foot soldiers who make sacrifices in the name of a movement. ", "is_fresh": 1, "author": ["Tim Grierson"]},
{"text": "A little bit \"Guardians of the Galaxy,\" a little bit \"Dirty Dozen\" in its mass wartime slaughter, and a pretty good time once it gets going.", "is_fresh": 1, "author": ["Michael Phillips"]},
{"text": "A more-than-worthy addition to the galaxy far far away.", "is_fresh": 1, "author": ["Rebecca Pahle"]},
{"text": "...doesn't move the bar on what it means to be a Star Wars movie in any significant way.", "is_fresh": 0, "author": ["Josh Larsen"]},
{"text": "A much bolder addition to the franchise that makes risky deviations from the winning formula. That those bold decisions pay off is impressive, most ...well, you know the rest.", "is_fresh": 1, "author": ["Jeffrey Lyles"]},
{"text": "For all its vivid visual imagination, the film left me almost totally cold. And I say that as a man who has cried actual tears at more than one Star Wars movie.", "is_fresh": 0, "author": ["Bilge Ebiri"]},
{"text": "Rogue One is a movie crammed with fan service, but when fan service is done this well, there's little to complain about and much to adore.", "is_fresh": 1, "author": ["Eric Goldman"]},
{"text": "Very good, and often great... A true cockle-tickler for fans hoping to stoke the excitement of their inner nine-year-olds.", "is_fresh": 1, "author": ["John Serba"]},
{"text": "A movie that pushes boundaries and takes the kinds of risks this series needs to take in order to evolve to a point where it can tell completely new Star Wars stories featuring characters we've never seen before.", "is_fresh": 1, "author": ["Erik Davis"]},
{"text": "Rogue One: A Star Wars Story upends Lucas' familiar saga by zeroing in on the compelling lives outside the orbit of the Skywalkers. There's one word that accurately conveys what this movie does to the Star Wars universe: Rebellion.", "is_fresh": 1, "author": ["Sean P. Means"]},
{"text": "A swiftly paced, rough-and-ready entertainment that, in anticipating the canonical events of \"A New Hope,\" manages the tricky feat of seeming at once casually diverting and hugely consequential.", "is_fresh": 1, "author": ["Justin Chang"]},
{"text": "The ultimate Star Wars fan film, it's short on whimsy but when it gets going there's enough risk-taking and spectacle to bode well for future standalones.", "is_fresh": 1, "author": ["James Dyer"]},
{"text": "In a series of by-the-bible films, this is the iconoclastic one. And that's its charm.", "is_fresh": 1, "author": ["Stephen Whitty"]},
{"text": "Rogue One manages to succeed as both super-nerdy fan service and the first entry since the 1977 original that will satisfy people who have never seen a Star Wars film.", "is_fresh": 1, "author": ["Matt Zoller Seitz"]},
{"text": "This story isn't going to be like any Star Wars movie you've ever seen.", "is_fresh": 1, "author": ["Joelle Smith"]},
{"text": "For the original generation of \"Star Wars\" fans who weren't sure what to make of episodes one, two, and three, \"Rogue One\" is the prequel they've always wanted.", "is_fresh": 1, "author": ["Peter Debruge"]},
{"text": "It's a flawed movie, but a good one, sometimes more interesting as a concept than a story. But, oh, what a concept!", "is_fresh": 1, "author": ["Todd VanDerWerff"]},
{"text": "Rogue One is the best Star Wars film since The Empire Strikes Back.", "is_fresh": 1, "author": ["Alan Cerny"]},
{"text": "Rogue One might trade heavily in nostalgia but it's bold enough to take risks, and will leave you stirred, fired up and raring for more.", "is_fresh": 1, "author": ["Matt Maytum"]},
{"text": "Rogue One is a big, crazy video game movie -- but even big, crazy video game movies are allowed to say something.", "is_fresh": 1, "author": ["Matt Patches"]},
{"text": "This movie is about the journey, not the destination. And the journey is about as exciting as a long drive down the Florida Turnpike. ", "is_fresh": 0, "author": ["Rene Rodriguez"]},
{"text": "Rogue One is a return to form and the Star Wars movie fans have been waiting for since the '80s.", "is_fresh": 1, "author": ["Scott Chitwood"]},
{"text": "Despite a galaxy of potential and a number of killer moments, Gareth Edwards' Star Wars spinoff feels painfully forced.", "is_fresh": 1, "author": ["David Ehrlich"]},
{"text": "I'm recommending it, if only as a three-star action movie. But I think it's important to consider how the original Star Wars movies transcended their pulpy influences and how Rogue One gets mired in them.", "is_fresh": 1, "author": ["William Bibbiani"]},
{"text": "If nothing else, Gareth Edwards' combative, hard-working installment answers why the Death Star was so easy to destroy in the first place.", "is_fresh": 1, "author": ["Chris Barsanti"]},
{"text": "Its variations on a theme are muscular and adroit. This is another really entertaining fantasy with fan-fiction energy and attack.", "is_fresh": 1, "author": ["Peter Bradshaw"]},
{"text": "A punchy standalone action tale about a spunky Rebel Alliance resistance group.", "is_fresh": 1, "author": ["Dave Calhoun"]},
{"text": "This instalment isn't about looking backwards. In essence, it's a war movie and director Gareth Edwards keeps the momentum going with a string of stunning set pieces. ", "is_fresh": 1, "author": ["Andy Lea"]},
{"text": "Still too reliant on nostalgic fan-service, but a clear step in the right direction for these newfangled 'Star Wars' movies. ", "is_fresh": 1, "author": ["Scott Mendelson"]},
{"text": "The Force should have been stronger with this one.", "is_fresh": 0, "author": ["Michael Roffman"]},
{"text": "The Star Wars franchise has built up a massive amount of cachet over the last several decades; Rogue One is going to need every bit of it.", "is_fresh": 0, "author": ["Will Leitch"]},
{"text": "Yes, it's part of a series that is now eight movies strong, but it also works alone as a movie about war, oppression, a dangerous heist, a daring rebellion and a spark of hope that ignites the final stages of a revolution.", "is_fresh": 1, "author": ["Britton Peele"]},
{"text": "Loaded with more battle action than any of its seven predecessors, Rogue One: A Star Wars Story plays like a set-up for the events in the 1977 original and, for the most part, does so quite entertainingly.", "is_fresh": 1, "author": ["Todd McCarthy"]},
{"text": "Rogue One is less the fetish object that The Force Awakens is because it at least has the ambitions to create its own character dynamics and plot routes rather than coast on existing ones. ", "is_fresh": 0, "author": ["Sam C. Mac"]},
{"text": "Will give die-hard Star Wars fans multiple orgasms...runneth over with Star Wars spectacle.", "is_fresh": 1, "author": ["Peter Canavese"]},
{"text": "A thrilling, but flawed drama that considers the cost of fighting for one's beliefs. ", "is_fresh": 1, "author": ["Rodrigo Perez"]},
{"text": "This is more like it...the 'Star Wars' movie J.J. Abrams SHOULD have made. ", "is_fresh": 1, "author": ["Roger Moore"]},
{"text": "This \"Star Wars\" spinoff doesn't spin very far off from the franchise, but it's a serviceable stopgap between chapters.", "is_fresh": 1, "author": ["Rafer Guzman"]},
{"text": "Seems to want nothing more than for the audience to pat itself on the back because they know what Yavin 4 is: It's a fun game to play at Comic-Con, but it doesn't make for much of a movie.", "is_fresh": 0, "author": ["Alonso Duralde"]},
{"text": "Boasts thin characters played by great actors scampering about far too many planets with names that sound like obscure venereal diseases. It's a \"Star Wars\" knockoff that happens to look a lot like a \"Star Wars\" movie.", "is_fresh": 0, "author": ["Matt Prigge"]},
{"text": "Rogue One builds to one of the best third acts in the entire franchise.", "is_fresh": 1, "author": ["Don Kaye"]},
{"text": "Rogue One makes up for a shaky first act by punching into overdrive for an outstanding third act battle sequence that overwhelms in scale and intensity.", "is_fresh": 1, "author": ["Matt Donato"]},
{"text": "A darker, grittier Star Wars than we've seen before that suggests, as much as one can, what it was like to discover George Lucas' space opera in the first place.", "is_fresh": 1, "author": ["Annlee Ellingson"]}
]