[
{"reviews_count": "217", "title": "Sausage Party", "avg_audience_rating": "3.1", "rotten_count": "38", "tomatometer": "82", "audience_score": "50", "avg_critic_rating": "6.8", "fresh_count": "179", "user_ratings_count": "64,421"},
{"text": "Its foul and raunchy, pearl-clutching humor slaps you in the face every single second of the movie, and while some of it is silly (even stupid) for the most part the jokes stick the landing.", "is_fresh": 1, "author": ["Michelle Kisner"]},
{"text": "This was an absolute genius idea to create a rated-R animated film, and I hope there are more to come. ", "is_fresh": 1, "author": ["Sharronda Williams"]},
{"text": "Sausage Party appears to be written by a group of 11 year olds who have just heard curse words for the first time, but have never heard a single joke in their lives. ", "is_fresh": 0, "author": ["Alistair Ryder"]},
{"text": "It is, simply stated, piss-your-pants funny - both in that I laughed almost hard enough to do that and in that it's the sort of humor where \"pissing your pants\" would be an actual punchline.", "is_fresh": 1, "author": ["Bob Chipman"]},
{"text": "Sausage Party is a fun time at the movies, but with its thought-provoking plot and its gloriously excessive attitude towards political incorrectness, it's bound to be elevated to cult status alongside the South Park film and Team America: World Police. ", "is_fresh": 1, "author": ["Harris Dang"]},
{"text": "For all of its questionable content, Sausage Party is 90 minutes of unabashed hilarity that may very well be Seth Rogen and Evan Goldberg's finest work to date. I've never seen anything like it.", "is_fresh": 1, "author": ["Sean Mulvihill"]},
{"text": "Sausage Party is the perfect antidote to what has honestly been one of the weakest summer movie seasons in recent years.", "is_fresh": 1, "author": ["Jennifer Heaton"]},
{"text": "Sausage Party has moments of delicious flavor, unfortunately, as a meal it will leave you famished.", "is_fresh": 0, "author": ["Aaron Peterson"]},
{"text": "When this picture reaches it's audience, there won't be any stopping it. Fans of American animation and lowbrow humor are in for a real treat.", "is_fresh": 1, "author": ["Joelle Monique"]},
{"text": "Not only its a hysterically raunchy and jaw dropping comedy, but manages to have food for thought with a risky theme that you don't see in many films.", "is_fresh": 1, "author": ["Rendy Jones"]},
{"text": "When it finds the Party, the movie brings down the house with a final half-hour bacchanal that's the definition of stoner sublime.", "is_fresh": 1, "author": ["Jacob Oller"]},
{"text": "As a religious satire, Sausage Party is about as subtle as crucifixion and it goes way too far, but the odd line is a zinger.", "is_fresh": 1, "author": ["Alison Rowat"]},
{"text": "The film surprises you because apart from being hysterically jaw dropping funny, its' ideologies and themes throughout are somehow inexplicably meaningful.", "is_fresh": 1, "author": ["Leah Sydney"]},
{"text": "A hilarious, vulgar, crude, smutty film that will have you snickering at jokes you'd like to think that you're above.", "is_fresh": 1, "author": ["Andrew Pollard"]},
{"text": "I feel dirty because I saw this and I feel dirty because I want to see it again. ", "is_fresh": 1, "author": ["Andre Meadows"]},
{"text": "Sausage party is hilarious. I have never laughed so hard for so long. ", "is_fresh": 1, "author": ["Steph Cozza"]},
{"text": "If you've seen a trailer for this animated film directed by Greg Tiernan and Conrad Vernon, you likely know what you're in for.", "is_fresh": 1, "author": ["Rebecca Addison"]},
{"text": "Three words kept ringing over and over in my head after viewing Sausage Party: \"What the f***\". I mean that as a compliment of the highest order", "is_fresh": 1, "author": ["Robert Kojder"]},
{"text": "There is some unexpectedly subversive fun to be had at the expense of the world's major religions, but the pace is slow and the point laboured.", "is_fresh": 0, "author": ["Matthew Bond"]},
{"text": "My ribs actually hurt by the end of Sausage Party. That's the highest praise I can give it-Sausage Party is a rib-sprainer.", "is_fresh": 1, "author": ["Sarah Marrs"]},
{"text": "If it takes a film about an animated sausage and a bun, laced with toilet humour and extreme sexual puns, to provide a modern-day existential critique of the lunacy of human nature and modern racial and religious discourse, then I'm all for it.", "is_fresh": 1, "author": ["Keeva Stratton"]},
{"text": "Candor that has no substance beyond easy stereotypes is just depressing.", "is_fresh": 0, "author": ["Julia Raban"]},
{"text": "To be fair, there are hints of an interesting perspective shift, and at the heart of it all, a curious darkness. . .But the writing never really develops much further than the laziest of tropes.", "is_fresh": 0, "author": ["Dorothy Woodend"]},
{"text": "The surprising thing about Sausage Party is that its desire to swerve from the norm with dirty humor is evened out by an equally strong impulse to bolster those norms.", "is_fresh": 1, "author": ["K. Austin Collins"]},
{"text": "The teenager who lives inside your head will giggle, while the more highly evolved parts of your brain might wonder if it is a Trojan horse for parodying xenophobia, extremism, and sexual repression.", "is_fresh": 1, "author": ["Elizabeth Kiefer"]},
{"text": "How much fun you have will depend on your tolerance for a diet of non-stop swearing and filthy innuendo. The voice cast don't just rain down f-bombs. They lob in a good few c-grenades for good measure too.", "is_fresh": 0, "author": ["Jason Best"]},
{"text": "Although is not for everyone, Sausage Party is an irreverent animated comedy with a surprising depth and social criticism. [Full review in Spanish]", "is_fresh": 1, "author": ["Javier Perez"]},
{"text": "From sly, not-so-sly innuendo to unfiltered climaxes, there's not a moment in this movie that isn't packed with jokes. And the thing is, it works. ", "is_fresh": 1, "author": ["Kristen Yoonsoo Kim"]},
{"text": "Some ingredients are missing, although there's a lively musical number and some clever sight gags and food puns along the way.", "is_fresh": 0, "author": ["Todd Jorgenson"]},
{"text": "So painfully, irredeemably awful...", "is_fresh": 0, "author": ["Felix Vasquez Jr."]},
{"text": "You'll never look at your neighborhood supermarket the same way again.", "is_fresh": 1, "author": ["Rick Kisonak"]},
{"text": "Fans of American animation and lowbrow humor are in for a real treat.", "is_fresh": 1, "author": ["Joelle Smith"]},
{"text": "Sausage Party has a crowded composition that'll look better on the smaller screen, and the background jokes aren't worth much.", "is_fresh": 0, "author": ["Richard von Busack"]},
{"text": "It may be off its trolley but it also feels fresh out of the packet.", "is_fresh": 1, "author": ["Andy Lea"]},
{"text": "It may be unnecessarily raunchy at times, but there are plenty of strong moments and the heavy-handed political commentary is potent if obvious.", "is_fresh": 1, "author": ["Wesley Lovell"]},
{"text": "Good news: The feel-good hit of the summer for fans of sexualized anthropomorphic foodstuffs has arrived!", "is_fresh": 1, "author": ["Brad Keefe"]},
{"text": "It's funny, non-stop inventive and heroically heretical.", "is_fresh": 1, "author": ["Nigel Andrews"]},
{"text": "Most gags are cooked on the raw side.", "is_fresh": 1, "author": ["Dennis Schwartz"]},
{"text": "An hilarious anti-Pixar parody with a filthy mind and a dirty mouth...A near-brilliant exercise in bad taste.", "is_fresh": 1, "author": ["Jim Schembri"]},
{"text": "A mad cartoon comedy short stretched into a horrifyingly murderous 90-minute swearathon.", "is_fresh": 1, "author": ["Camilla Long"]},
{"text": "If you... have nightmares about anthropomorphic food screaming as they're being consumed (or) are repulsed your groceries might be humping in the cupboard when you're not looking... this movie is not for you.", "is_fresh": 1, "author": ["Kevin A. Ranson"]},
{"text": "With some very funny moments, and a few crazy setups, this is a good film. It's just not a great film, and ends up being more of a Sausage Soiree than a Sausage Party.", "is_fresh": 1, "author": ["Sarah Griffin"]},
{"text": "...a novel idea that gets stretched way too thin.", "is_fresh": 1, "author": ["Josh Larsen"]},
{"text": "At the very least, it's better for American film culture that this exists than if it didn't. ", "is_fresh": 1, "author": ["Tim Brayton"]},
{"text": "I did not expect much of this movie, but it turned out better than I expected. It is very funny, with lots of jokes from movies and popular culture.", "is_fresh": 1, "author": ["Robert Roten"]},
{"text": "... the junk foodie fantasy that stirs American Pie, Toy Story, Logan's Run, and every torture porn horror of the last decade into a raunchy paean to hedonism with more food puns than a Catskills grocer. ", "is_fresh": 1, "author": ["Sean Axmaker"]},
{"text": "Without the proper comic nutrients, Sausage Party leaves viewers with a feeling of indigestion.", "is_fresh": 0, "author": ["Dan Lybarger"]},
{"text": "The risqu\u00e9 nature of the chat doesn't mask the fact that directors Greg Tiernan and Conrad Vernon, bizarrely, do intend to convey a message, and have put across their point well.", "is_fresh": 1, "author": ["Richard James Havis"]},
{"text": "An absurd and hallucinatory comedy full of scatological humor and vulgar language, and with a cast composed of notable comedians. [Full review in Spanish]", "is_fresh": 1, "author": ["Diego Batlle"]},
{"text": "An efficient laughing machine and a visually appealing film. [Full review in Spanish]", "is_fresh": 1, "author": ["Jos\u00e9 Mart\u00edn"]},
{"text": "A rowdy and original movie; if you're in the right mood, you'll enjoy it. [Full review in Spanish]", "is_fresh": 1, "author": ["Luis Caviaro"]},
{"text": "Well, surprisingly nuanced for a movie in which Nick Kroll plays a literal douche, anyway.", "is_fresh": 1, "author": ["Pete Vonder Haar"]},
{"text": "A movie so bizarre, so profane and so quietly virtuous that it works.", "is_fresh": 1, "author": ["Kevin Maher"]},
{"text": "An honest movie full of well sculpted and playful rudeness. [Full review in Spanish]", "is_fresh": 1, "author": ["Jordi Costa"]},
{"text": "Who could imagine an all-out bloody massacre to be this hilarious?", "is_fresh": 1, "author": ["Tay Yek Keak"]},
{"text": "An absolutely bizarre film that has a crescendo of naughty humor with one of the most outrageous endings of recent cinema. [Full review in Spanish]", "is_fresh": 1, "author": ["Xavi S\u00e1nchez Pons"]},
{"text": "Despite the predictable narrative, it never fails to make you laugh because playing with food is vulgar and messy, but always fun. [Full review in Spanish]", "is_fresh": 1, "author": ["Daniel de Partearroyo"]},
{"text": "A very unusual movie that some love for the same reasons that others hate. Even though I really enjoyed it, I would have to know very well the other person before recommend this film. [Full review in Spanish]", "is_fresh": 1, "author": ["Mikel Zorrilla"]},
{"text": "Less a talking-wieners 'toon than a post-modern snack-mix of high-concept and lowbrow humour, socio-political parables and animation-spoofery-plus food-sex, injected bath salts, and Meatloaf's rock 'n' roll-this is a fairly bangin' bangers mash-up.", "is_fresh": 1, "author": ["Brian Gibson"]},
{"text": "The first half-hour of \"Sausage Party\" is a comedy masterpiece. With great jokes and an amazing musical number, the film delivers on all cylinders. (Then) it becomes a hit or miss comedy. And a filthy one.", "is_fresh": 1, "author": ["Michael A. Smith"]},
{"text": "The South Park movie made the same point nearly 20 years ago, but nothing's changed, so why not say it again?", "is_fresh": 1, "author": ["Ed Whitfield"]},
{"text": "I found this adult animated mockery most unpalatable.", "is_fresh": 0, "author": ["Debashine Thangevelo"]},
{"text": "The jokes come thick and fast and hit and miss just as frequently.", "is_fresh": 1, "author": ["Jack Bottomley"]},
{"text": "A tasty diversion.", "is_fresh": 1, "author": ["Henry Fitzherbert"]},
{"text": "It may not be suitable for kids, but that's not to say that this strenuously profane cartoon is not unapologetically juvenile in its approach to comedy.", "is_fresh": 1, "author": ["Wendy Ide"]},
{"text": "Dirty vegetables.", "is_fresh": 1, "author": ["Bob Grimm"]},
{"text": "Let it be said, Sausage Party is very rude. Very, very rude but even if someone told you this 100 times before you walk into the cinema, you'll never be ready for all that the film throws your way.", "is_fresh": 1, "author": ["Amy West"]},
{"text": "Sausage Party isn't high art, more a snack best washed down with a jumbo cola.", "is_fresh": 1, "author": ["Mike McCahill"]},
{"text": "Seth Rogen is a genius. Lucky, really, that I never liked hot dogs anyway.", "is_fresh": 1, "author": ["David Sexton"]},
{"text": "If you like your jokes raw and saucy, Sausage Part hits the spot.", "is_fresh": 1, "author": ["Stella Papamichael"]},
{"text": "I got a lot of pleasure from Sausage Party, though not as much pleasure as the foodstuffs derive from the frenzied concluding orgy ...", "is_fresh": 1, "author": ["Brian Viner"]},
{"text": "The film... very quickly passes its sell by date. ", "is_fresh": 0, "author": ["Geoffrey Macnab"]},
{"text": "This is clearly a film set out to shock, offend and, above all else, make you laugh.", "is_fresh": 1, "author": ["Jamie East"]},
{"text": "Bon appetit!", "is_fresh": 1, "author": ["Tim Evans"]},
{"text": "A crude, lewd, food-themed riff on Toy Story that basically functions as an animated parable about organised religion.", "is_fresh": 1, "author": ["Alistair Harkness"]},
{"text": "It is this summer's gutsiest offering, worthy of its must-see status even if you may not be able to easily shake some of its more revolting images from your head in a hurry!", "is_fresh": 1, "author": ["Rob Carnevale"]},
{"text": "Smart ideas and political satire battle it out with relentless smut in a decidedly uneven affair.", "is_fresh": 1, "author": ["Allan Hunter"]},
{"text": "What should have been a shamelessly filthy stoner movie has been watered down with ill-judged, undergraduate musings on religion, philosophy and race.", "is_fresh": 0, "author": ["Rupert Hawksley"]},
{"text": "About 20 per cent less anarchy. 30 per cent more jokes, and 40 per cent more story would have made for better viewing.", "is_fresh": 1, "author": ["Tara Brady"]},
{"text": "It sounded like the dumbest movie of all time, but it's actually smart, subversive and packed with famous voices saying wonderfully unspeakable things. In fact, it's a banger.", "is_fresh": 1, "author": ["Nick De Semlyen"]},
{"text": "Re-watch value is extremely low with this one.", "is_fresh": 0, "author": ["Adam Woodward"]},
{"text": "If Sausage Party had been a twenty minute short it could have been a highlight of 2016. However, stretched to feature-length it's just another mildly funny stoner comedy.", "is_fresh": 1, "author": ["Alex Leadbeater"]},
{"text": "As laugh-out-loud funny as it is jaw-droppingly offensive, this is hugely enjoyable comedy that actually has something to say.", "is_fresh": 1, "author": ["Matthew Turner"]},
{"text": "Consistently funny, frequently hilarious. Just don't order one of those jumbo hotdogs before you take your seat - never mind the guilt, you'll choke laughing.", "is_fresh": 1, "author": ["Jamie Graham"]},
{"text": "Sausage Party is rude, funny and unexpectedly profound in places, with the juvenile humour leavened by some thoughtful commentary on modern life.", "is_fresh": 1, "author": ["Eddie Harrison"]},
{"text": "Existential howl of despair meets stoner belly laugh in the latest project from Rogen and collaborators, who follow 'This Is the End' with another high-concept comedy that, like a horror movie, reduces its characters to meat.", "is_fresh": 1, "author": ["John Beifuss"]},
{"text": "This animated comedy is decidedly not for kids; it's rambunctiously filthy in more ways than one. And while it's not exactly hilarious, it's at least consistently amusing and has a positive attitude. ", "is_fresh": 1, "author": ["Jeffrey M. Anderson"]},
{"text": "Even without the hullabaloo of discontent expressed by an army of animators (who worked for this film's Vancouver-based Nitrogen Studios), \"Sausage Party\" is a comedy whose ribald humor can't mask its weaknesses. ", "is_fresh": 0, "author": ["Cole Smithey"]},
{"text": "Shamelessly pun-filled, sexually explicit, socio-political animation - for an adult audience.", "is_fresh": 1, "author": ["Susan Granger"]},
{"text": "Reviewers who cynically boast that Sausage Party \"isn't kids' stuff\" have it wrong...[P]roducer Seth Rogen... continues his self-amusement with self-congratulatory political satire.", "is_fresh": 0, "author": ["Armond White"]},
{"text": "The final half hour or so is an exhilarating action sequence beautifully done, ending in a rather excellent sausage party indeed.", "is_fresh": 1, "author": ["CJ Johnson"]},
{"text": "One of the most effective parables about religion ever filmed.", "is_fresh": 1, "author": ["Gary Dowell"]},
{"text": "Groceries aren't an obvious fit for the bawdy comedy of Rogen and his Superbad, Pineapple Express screenwriting partner-in-crime Evan Goldberg. That's a large part of Sausage Party's appeal.", "is_fresh": 1, "author": ["Vicky Roach"]},
{"text": "Sausage Party won't fill you up with laughs, but there are some amusing dishes being served, thought up by Rogen and friends likely while getting baked good.", "is_fresh": 1, "author": ["Michael Smith"]},
{"text": "It's definitely a tender and insightful comedy, but it's also as crude as they come.", "is_fresh": 1, "author": ["Sam Watermeier"]},
{"text": "Rogan and company frequently mistake an overabundance of four-letter words for genuine humor.", "is_fresh": 1, "author": ["Randy Shulman"]},
{"text": "Sausage Party glints of greatness, but this is half-cocked comedy at best.", "is_fresh": 0, "author": ["Kimberley Jones"]},
{"text": "Sausage Party will likely be remembered more for what it says than how it says it, but that's not the worst thing you can say about a movie.", "is_fresh": 1, "author": ["Norman Wilner"]},
{"text": "Sausage Party is a delicious treat covered in a filthy wrapper. For some, that will be a deal breaker, but for plenty of others, it will be a selling point.", "is_fresh": 1, "author": ["Ross Bonaime"]},
{"text": "It's content to remain in sub-lowbrow land for the duration, except when it feels like imparting a lofty message it never earns.", "is_fresh": 0, "author": ["J. Olson"]},
{"text": "Forget famous atheists Stephen Hawking, Richard Dawkins and Bill Maher. SAUSAGE PARTY is the movement's Mein Kampf. ", "is_fresh": 1, "author": ["Victoria Alexander"]},
{"text": "... the most fun I've had with food since I was a child recreating the extinction of the dinosaurs with dino-shaped nuggets, my mouth, and a giant pool of ketchup.", "is_fresh": 1, "author": ["Jon Espino"]},
{"text": "An outrageous undertaking that's only slightly more kid-friendly than Rob Zombie's House of 1000 Corpses.", "is_fresh": 1, "author": ["Matt Brunson"]},
{"text": "'Sausage Party' is a filthy feast - and that's a good thing. ", "is_fresh": 1, "author": ["Dana Barbuto"]},
{"text": "When Sausage Party is funny, it's very funny. Just leave the kids at home (Splice Today) ", "is_fresh": 1, "author": ["Stephen Silver"]},
{"text": "Its half-baked political ideas take away from the wholly satisfying and surreal Pixar riff it could have been.", "is_fresh": 0, "author": ["Charlie Schmidlin"]},
{"text": "One of the more clever conceits is how it plays with the central conundrum of Pixar: How do you connect all these animals or toys or robots-beings that, to humans, have no emotions or thoughts or even faces-to the human world that they walk around in?", "is_fresh": 1, "author": ["Will Leitch"]},
{"text": "Puerile and self-indulgent without a real laugh to be found. I have no idea how this gets released by a major studio, while Ralph Bakshi has to go to Kickstarter for a Vimeo release. Just say no. ", "is_fresh": 0, "author": ["Diva Velez"]},
{"text": "Like the sex, drugs, and politics that are fodder for the script, the question of what happens when we leave this world is addressed directly, and with the same fulsome sense of mischief. ", "is_fresh": 1, "author": ["Andrea Chase"]},
{"text": "Sausage Party is definitely not for everyone, but it offers an amusing blend of humor and substance, providing viewers with heady food for thought.", "is_fresh": 1, "author": ["Chris Agar"]},
{"text": "Some of the gags are more cringy than others -- like Craig Robinson's cracka-hating box of grits -- but don't call it empty calories.", "is_fresh": 1, "author": ["Joshua Rothkopf"]},
{"text": "Explore[s] ideology the way Emril Lagasse seasons soup.", "is_fresh": 0, "author": ["Matt Patches"]},
{"text": "Rogen and his frequent collaborator Evan Goldberg dreamed up the story with actor Jonah Hill, and though it might sound like a critique of religion, they opt instead for a lowbrow, sporadically funny celebration of hedonism.", "is_fresh": 1, "author": ["Tal Rosenberg"]},
{"text": "Sausage Party is like a Pixar movie that's gotten hopped up on crystal meth and Viagra.", "is_fresh": 1, "author": ["Mike McGranaghan"]},
{"text": "Sausage Party is a gleeful ode to anarchy that transcends both stoner comedy and Pixar spoof.", "is_fresh": 1, "author": ["J.R. Kinnard"]},
{"text": "You're getting what's advertised on the menu, for the better, and never the worse.", "is_fresh": 1, "author": ["Matt Donato"]},
{"text": "Sausage Party is a full-on assault on civility and social mores. Yes, that's the point, and yes, it's quite funny on occasion. Maybe it's just too much.", "is_fresh": 0, "author": ["Mark Dujsik"]},
{"text": "An audacious idea in need of a more adventurous script, taking this madness to the next level of brain-bleeding humor and commentary, securing itself as both an inspired farce and a Samurai-sharp inspection of sheeple culture.", "is_fresh": 1, "author": ["Brian Orndorf"]},
{"text": "This smack in the face of good manners is surprising and strange, often delightfully so.", "is_fresh": 1, "author": ["Katie Walsh"]},
{"text": "Despite a few pokes at the folks from Pixar, nobody will lose any sleep over it. Obviously, these R-rated cinematic tricks from Rogen, et al. are not for kids.", "is_fresh": 1, "author": ["John Urbancich"]},
{"text": "You can see the obvious social-political jokes being made, but it's so juvenile.", "is_fresh": 0, "author": ["Stephen Romei"]},
{"text": "Come for more F-bombs than a season of \"Deadwood.\" Stay for the aggressive religion bashing!", "is_fresh": 1, "author": ["Christian Toto"]},
{"text": "This unique fantasy is crude and vulgar, politically and racially charged, as well as sexually ambivalent. In other words, it's flat-out terrific! ", "is_fresh": 1, "author": ["Jonathan W. Hickman"]},
{"text": "If you like ribald humor, there are some belly laughs here & more than a few instances where the audience almost chants in unison \"Oh that.. is...SO wrong!\"(Full Content Review for Parents - Violence, Sexual Content, Profanity, etc. - also Available)", "is_fresh": 1, "author": ["Teddy Durgin"]},
{"text": "It is, without a doubt, the most delirious movie to come out of a major studio in decades, perhaps ever.", "is_fresh": 1, "author": ["Barry Hertz"]},
{"text": "I know Sausage Party is not made for kids, but they don't have to try so hard to prove it.", "is_fresh": 1, "author": ["Willie Waffle"]},
{"text": "\"Sausage Party\" is smarter than it looks at the same time as it is overly taken with its juvenile humor.", "is_fresh": 0, "author": ["Adam Graham"]},
{"text": "You might find yourself alone one night imagining your dinner screaming with every bite you take, and then wonder: Is that half-eaten slice of pizza plotting cheesy vengeance upon me... or am I the half-eaten slice of pizza?", "is_fresh": 1, "author": ["Jen Yamato"]},
{"text": "So many different shades of wrong all wrapped up in one movie that, even as I sit to write this, I'm unsure whether I was howling with laughter or begging for it to stop.", "is_fresh": 1, "author": ["Tim Martain"]},
{"text": "A bold, visually exuberant fusion of provocative adult content with an art form too often chalked up as being strictly for kids, \"Sausage Party\" is something special.", "is_fresh": 1, "author": ["Dustin Putman"]},
{"text": "Consistently sophomoric, periodically hilarious, and peppered with minor stoner insights.", "is_fresh": 1, "author": ["Eric D. Snider"]},
{"text": "The novelty of a raunchy adults-only cartoon has a naughty charge. That's good for about 15 minutes, then all this food reaches its sell-by date and grows stale.", "is_fresh": 0, "author": ["Jim Lane"]},
{"text": "There is no one out there making comedies quite like Rogen and Goldberg. They are putting their definitive stamp on the modern American comedy one decency-smashing double entendre at a time.", "is_fresh": 1, "author": ["Lindsey Bahr"]},
{"text": "It's the kind of foodie filth one dreams up while chomping on Doritos and Twinkies during a psychedelic haze.", "is_fresh": 1, "author": ["Travis Hopson"]},
{"text": "It packs a number of laughs, from shocked yelps to knowing chuckles, into its 89 minutes. As parties go, it's sillier and tastier than most.", "is_fresh": 1, "author": ["Abbey Bender"]},
{"text": "What is there to say about Sausage Party? A surprising amount.", "is_fresh": 1, "author": ["Alissa Wilkinson"]},
{"text": "There's the problem with Sausage Party. It's essentially a one-joke movie, and while it gets great mileage (and calories!) from the gag, it ultimately comes down to variations on the theme.", "is_fresh": 1, "author": ["Chris Knight"]},
{"text": "The 20 minutes of smart humor here is nearly lost amid the bad puns and juvenile sex humor, including a finale that takes the phrase \"food porn\" to ridiculously literal extremes.", "is_fresh": 0, "author": ["Sean P. Means"]},
{"text": "This is a film that tackles some big themes: religion, sex, ethnic conflict, the meaning of life and death. It's also a crude burlesque about talking food items who swear a lot more than they really need to.", "is_fresh": 1, "author": ["Jake Wilson"]},
{"text": "Sausage Party is so wrong, so go-for-broke insane, existing words aren't enough to describe it. Shockrageous comes close. As does horristurbing.", "is_fresh": 1, "author": ["Christopher Lawrence"]},
{"text": "It's wild and funny. Also disturbing. Also borderline insane. ", "is_fresh": 1, "author": ["Tom Gliatto"]},
{"text": "At its best, the movie offers in-your-face raunch in the spirit of the superior \"Team America: World Police\" and \"South Park: Bigger, Longer & Uncut.\" At its worst, it comes across like stoners playing with their groceries in between bong hits.", "is_fresh": 0, "author": ["Jon Niccum"]},
{"text": "This is a film that starts out funny and ratchets up the insanity.", "is_fresh": 1, "author": ["AP Kryza"]},
{"text": "Not only does the film effortlessly mock the sense of wonder and the emotional roller-coasters we've all felt watching Pixar's big-eyed sentient objects, but, in its own messed-up way, it provokes some new feelings, too: shock and awe ...", "is_fresh": 1, "author": ["Andrew Lapin"]},
{"text": "An effed-up funhouse. Rogen, a livewire satirist, dishes out an R-rated cartoon treat that tackles the crisis in the Middle East, the nonexistence of God and the sex lives of supermarket products.", "is_fresh": 1, "author": ["Peter Travers"]},
{"text": "At a moment when news from our actual world so often seems a nightmare parody of itself ... there is sweet balm in seeing a bagel and a lavash overcome their differences to find mutual pleasure in one another.", "is_fresh": 1, "author": ["Mark Olsen"]},
{"text": "Almost never pushes the boundaries far enough, seemingly patting itself on the back for peppering the f-word into a cartoon with such frequency.", "is_fresh": 0, "author": ["Alonso Duralde"]},
{"text": "Cranks the absurdity of the narrative and the anxieties in frightening, analogous real-world neuroses we cling to long past sell-by dates. Sounds like a harshed mellow, but the whole thing is stoned immaculate. Your body will hurt from laughing.", "is_fresh": 1, "author": ["Nick Rogers"]},
{"text": "Sausage Party has plenty of funny moments, especially for fans of lowbrow humor.", "is_fresh": 1, "author": ["Rick Bentley"]},
{"text": "Those who enjoy the Rogen/Goldberg humor will undoubtedly be laughing for much of it, and even those with more sophisticated senses of humor will find a few things to chuckle about.", "is_fresh": 1, "author": ["Lauren Chval"]},
{"text": "'Sausage Party' is an unrelenting whirlwind of lowbrow and objectionable jokes and situations that will make it difficult for you to catch your breath.", "is_fresh": 1, "author": ["Bob Bloom"]},
{"text": "Even with all the four-letter words, this still feels like immature kids' stuff.", "is_fresh": 0, "author": ["David Crow"]},
{"text": "Sausage Party may be the most un-PC mainstream movie to hit cinemas in yonks and it may outrage, shock and even repulse you at times, but it is undeniably ridiculously funny.", "is_fresh": 1, "author": ["Wenlei Ma"]},
{"text": "This ended up being one meal that left me hungering for something more substantive, constantly hoping for a second course that sadly hadn't been prepared for me to taste.", "is_fresh": 0, "author": ["Sara Michelle Fetters"]},
{"text": "Unquestionably dumb and distasteful, but stakes its claim as the funniest film of the season.", "is_fresh": 1, "author": ["Daniel Gelb"]},
{"text": "uncompromising with its philosophy and its vulgarity", "is_fresh": 1, "author": ["Blake Crane"]},
{"text": "I like that it's willing to engage in a controversial statement even if it doesn't have all the ammunition it needs to back up its stance.", "is_fresh": 1, "author": ["Matt Goldberg"]},
{"text": "We know that everyone involved in this movie has made superior material, so it's a shame to see Rogen and company slumming in their own filth.", "is_fresh": 0, "author": ["Alex Doenau"]},
{"text": "For sheer audacity, Sausage Party is impressive.", "is_fresh": 1, "author": ["Liz Braun"]},
{"text": "Just when you think this surreal world can't surprise you any longer, it comes up with something else that may make you gasp or wince but will most likely make you laugh. ", "is_fresh": 1, "author": ["Daniel M. Kimmel"]},
{"text": "Sausage Party is one of the funniest and most deeply offensive movies of the year (it's obscenely funny), which lambastes America's most sacred of sacred cows: religion.", "is_fresh": 1, "author": ["Tirdad Derakhshani"]},
{"text": "A movie that's clearly not for everyone, but those at whom it's targeted-whether allowed to enter according to the R rating or not-will find it a hoot.", "is_fresh": 1, "author": ["Frank Swietek"]},
{"text": "It looks like Pixar, but plays like Monty Python.", "is_fresh": 1, "author": ["Peter Howell"]},
{"text": "Sausage Party takes racism and prejudice and throws them into its existential meat-grinder to explore identity, tolerance and religion in surprisingly intelligent fashion.", "is_fresh": 1, "author": ["Brian Truitt"]},
{"text": "Sausage Party is, by turns, a subversive religious allegory, a hilarious sendup of horror and adventure clich\u00e9s, a wicked commentary on real-world politics, a jab at racial and religious stereotypes, and a rude and lewd comedy.", "is_fresh": 1, "author": ["Dann Gire"]},
{"text": "Despite all the cursing and envelope-pushing and bat-bleep crazy sexual stuff, Sausage Party isn't mean-spirited. It's just... stupid. But also pretty smart. And funny as hell.", "is_fresh": 1, "author": ["Richard Roeper"]},
{"text": "Sausage Party is a nasty, crass, and unique movie that only Rogen and Goldberg could concoct.", "is_fresh": 1, "author": ["Max Covill"]},
{"text": "Relentlessly filthy and often jaw-droppingly funny, this creation bearing the prolific imprint of Seth Rogen and Evan Goldberg is one of the most transgressive animated films to emerge from Hollywood in recent memory.", "is_fresh": 1, "author": ["Preston Jones"]},
{"text": "Directors Greg Tiernan and Conrad Vernon are working with a first-rate cast, running wild with stereotypes and daring you to be offended.", "is_fresh": 1, "author": ["Sara Stewart"]},
{"text": "In a dominant era for family-friendly animation, Sausage Party is a bold rebuttal needing more than shock laughs.", "is_fresh": 1, "author": ["Steve Persall"]},
{"text": "By the time it reaches its, heh, climax with a storewide food fuck fest, any attempt at a serious critique of its interpretation of the Israeli-Palestinian conflict feels a little ridiculous.", "is_fresh": 1, "author": ["Lara Zarum"]},
{"text": "Sausage Party isn't as profound as it pretends to want to be, but it's brilliant at being stupid. ", "is_fresh": 1, "author": ["Vincent Mancini"]},
{"text": "A gleefully vulgar and very funny spoof of the Pixar formula.", "is_fresh": 1, "author": ["Rafer Guzman"]},
{"text": "As ridiculous as \"Sausage Party\" sounds, it actually manages to humanize the items we so violently slice, dice and devour. You may never look at a potato or bag of baby carrots the same way again.", "is_fresh": 1, "author": ["Gabe Hartwig"]},
{"text": "The comedy hits more than it misses; this is a really funny movie. And it's thoughtful, in its @$*# way.", "is_fresh": 1, "author": ["Bill Goodykoontz"]},
{"text": "Literally bananas. And also nuts.", "is_fresh": 1, "author": ["Leah Greenblatt"]},
{"text": "A really funny, crass and often thoughtful comedy that doesn't overstay its welcome.", "is_fresh": 1, "author": ["Jack Giroux"]},
{"text": "Created as the movie your perverted older brother made in high school but you can't help but love him for it, the definitely offensive but enthusiastically rapturous romp is the surprise hit of the summer.", "is_fresh": 1, "author": ["Clayton Davis"]},
{"text": "Your mileage may vary, as they say. Also, hugs not drugs.", "is_fresh": 0, "author": ["Glenn Kenny"]},
{"text": "If watching cartoon characters spout four-letter words is your thing, this might well be the greatest movie ever made. ", "is_fresh": 0, "author": ["Rene Rodriguez"]},
{"text": "A cult classic, preferably (to be) watched in a double feature with Pineapple Express in a very hazy loungeroom that rarely has its curtains opened.", "is_fresh": 1, "author": ["Matt Neal"]},
{"text": "Rogen and Goldberg start with spoofery and work their way into something bolder and stranger; it's as if playing in the Pixar sandbox, or a reasonable approximation thereof, can't help but inspire creativity.", "is_fresh": 1, "author": ["Jesse Hassenger"]},
{"text": "You will come for the kind of humor promised in the title and the well-earned R rating, but stay for the nuanced meditations on theology and faith.", "is_fresh": 1, "author": ["A.O. Scott"]},
{"text": "Demented. And deep. ", "is_fresh": 1, "author": ["Roger Moore"]},
{"text": "Hey - what if food could talk, and it said funny stuff while cursing like a sailor? That, plus the sex scene (really), make \"Sausage Party\" one you probably want to attend.", "is_fresh": 1, "author": ["Bethany Jean Clement"]},
{"text": "The atheist equivalent of a VeggieTales movie.", "is_fresh": 0, "author": ["Josh Bell"]},
{"text": "Imagine that the Pixar writers room dosed themselves with psychedelic drugs and went to their local supermarket to quench their munchies; the result is the perverse hilarity of Sausage Party.", "is_fresh": 1, "author": ["Blake Howard"]},
{"text": "Its observation that life is full of cruelty and there is probably no afterlife and we waste most of our lives consuming images of a reality we cannot fully apprehend is pretty much true, but neither novel nor amusing.", "is_fresh": 0, "author": ["Andrew O'Hehir"]},
{"text": "The script by Seth Rogen, Evan Goldberg, Kyle Hunter and Ariel Shaffir has an inspired stupid idea, and boundless nerve, as well as a legitimate interest in theological debate. Truly, it does.", "is_fresh": 1, "author": ["Michael Phillips"]},
{"text": "Sausage Party is an equal opportunity offender, but if you can stomach that you'll find a movie with a lot of heart and big ideas to ponder.", "is_fresh": 1, "author": ["Jim Vejvoda"]},
{"text": "Maybe if the movie employed a bit more subtlety on all fronts, it'd be a far more successful outing. But subtlety seems like it was one of Sausage Party's chief adversaries from the ground shelf up.", "is_fresh": 1, "author": ["Michael Arbeiter"]},
{"text": "Though Sausage Party is above all else a carnally inclined cartoon, there is more to the movie than just being Pixar with a potty mouth.", "is_fresh": 1, "author": ["Leigh Paatsch"]},
{"text": "Mix \"A People's History of the United States\" with \"Caligula,\" a stoner comedy and a slasher flick - then animate the results - and you've got the essence of the thing.", "is_fresh": 1, "author": ["Michael Ordo\u00f1a"]},
{"text": "Ballsy and dumb and brilliant all in one bite. You can gobble it up like empty calories, or over-chew each joke.", "is_fresh": 1, "author": ["Amy Nicholson"]},
{"text": "This \"secret life of groceries\", like so many other Seth Rogen movies, is a congenial mess of the outrageously funny and the bong-induced lazy drags. ", "is_fresh": 1, "author": ["Joanna Langfield"]},
{"text": "The film isn't willing to completely face the bleakness of its allegory faith versus skepticism. ", "is_fresh": 0, "author": ["Kenji Fujishima"]},
{"text": "Sausage Party, for better or worse, is a movie that actually exists. And, at some point along the way, that fact will actually shock you.", "is_fresh": 1, "author": ["David Ehrlich"]},
{"text": "The entire ensemble saves the best for last, joining in a finale that one might describe as orgasmic. Like the rest of \"Sausage Party,\" it's absolutely filthy, which would be objectionable if it also weren't so funny.", "is_fresh": 1, "author": ["Tim Grierson"]},
{"text": "...consistently funny, occasionally clever and undoubtedly unmissable if you're a baked potato. ", "is_fresh": 1, "author": ["Anthony O'Connor"]},
{"text": "Even if you're offended - and perhaps rightfully so - there's another joke coming around the corner to change the subject. And some terrifically wild characters to keep you laughing.", "is_fresh": 1, "author": ["Stephen Whitty"]},
{"text": "The whole thing is so tasty, you may just want seconds.", "is_fresh": 1, "author": ["Jordan Hoffman"]},
{"text": "An animated adventure that boasts the visual prowess of the best mainstream releases in the medium, yet the storytelling sensibility of a stoner nodding furiously mid toke at the Zeitgeist documentary playing on the TV.", "is_fresh": 0, "author": ["Matthew Pejkovic"]},
{"text": "Won't be for everyone, but if nothing else, you'll never look at your groceries the same way again.", "is_fresh": 1, "author": ["Edward Douglas"]},
{"text": "As Sausage Party breaks out of its Pixar-inspired packaging, so to speak, its repetitiveness evolves into a delirious cacophony of obscenities.", "is_fresh": 1, "author": ["Jordan Raup"]},
{"text": "Sausage Party is obviously the product of diseased minds, and I love it.", "is_fresh": 1, "author": ["Drew McWeeny"]},
{"text": "Consistently hilarious, even borderline genius, and the most fun you'll have in a cinema this year.", "is_fresh": 1, "author": ["Gregory Wakeman"]},
{"text": "[D]oesn't amount to more than its central conceit and the incessant cultural gags and profanities it uses as tiresome embellishments.", "is_fresh": 0, "author": ["Nick Schager"]},
{"text": "I'm not really sure there's any age where you're ready to see Sausage Party's epic, virtuoso climax: a graphic bacchanal conducted entirely by the contents of your fridge. Let's call it an acquired taste.", "is_fresh": 1, "author": ["Simon Miraudo"]},
{"text": "Most reminiscent of a couple of other equally-outrageous animated adventures, namely Team America (2004) and South Park (1997), this is a take no prisoners comedy which will undoubtedly resonate with fans of such politically-incorrect shock-fare.", "is_fresh": 1, "author": ["Kam Williams"]},
{"text": "SAUSAGE PARTY is what would happen if everyone at Pixar had syphilis.", "is_fresh": 1, "author": ["Devin Faraci"]},
{"text": "Some of it is, admittedly, funny and/or transgressive; some of it is one joke stretched thin. But when it works, it really works.", "is_fresh": 1, "author": ["Jason Bailey"]},
{"text": "Try to imagine the most disgusting, foul-mouthed, and disturbing Pixar film ever put to celluloid, and you'll probably land somewhere near Sausage Party. But not too close. It's unlike anything else.", "is_fresh": 1, "author": ["Michael Roffman"]},
{"text": "The laughs barely let up after that first scene, in fact, in a film that proves to be not just more than a boundary-stretching exercise but one of the funniest arguments for the non-existence of God in some time.", "is_fresh": 1, "author": ["John DeFore"]},
{"text": "There is nothing redeemable about SAUSAGE PARTY, other than how hard it made me laugh. ", "is_fresh": 1, "author": ["Meredith Borders"]},
{"text": "Sausage Party is quintessential Rogen, offering no more and no less than we have come to expect.", "is_fresh": 1, "author": ["Joshua Starnes"]},
{"text": "Every minute of Sausage Party is brimming with wildly inappropriate jokes and situations. No spoilers here of course, but brace yourself for something unprecedented that will undoubtedly have your jaw hit the floor.", "is_fresh": 1, "author": ["Perri Nemiroff"]},
{"text": "A raunchy and witty animated comedy that definitely isn't kids' stuff.", "is_fresh": 1, "author": ["Joe Leydon"]}
]