[
{"reviews_count": "91", "title": "Schindler's List", "avg_audience_rating": "4.3", "rotten_count": "3", "tomatometer": "97", "audience_score": "97", "avg_critic_rating": "  9", "fresh_count": "88", "user_ratings_count": "410,692"},
{"text": "The film is an outstanding achievement.", "is_fresh": 1, "author": ["John Gross"]},
{"text": "It's a stunning achievement, a film that re-creates the Holocaust not as something abstract, but as felt knowledge.", "is_fresh": 1, "author": ["Jay Carr"]},
{"text": "...a most credible and realistic film. [Full Review in Spnaish] ", "is_fresh": 1, "author": ["Fernando Morales"]},
{"text": "Enough to give you hope for the future of American movies.", "is_fresh": 1, "author": ["Jeff Simon"]},
{"text": "Schindler's List is bearable when the characters keep the tension, but the film lapses when its epic drama and sentimentality take over. [Full Review in Spanish]", "is_fresh": 1, "author": ["Eul\u00e0lia Iglesias"]},
{"text": "Schindler's List, with its grave documentary thoroughness and moral complexity, rewrites film history. It is one of the cinema's finest achievements.", "is_fresh": 1, "author": ["Quentin Curtis"]},
{"text": "It was (and remains) irreducibly [Spielberg's] masterpiece.", "is_fresh": 1, "author": ["Ian Nathan"]},
{"text": "Spielberg understands that that tension is a problem not just of filming the subject, but of the subject itself: that the tale of any one individual has to struggle to avoid being swamped by the sheer scale of horror.", "is_fresh": 1, "author": ["Mark Steyn"]},
{"text": "With seemingly effortless grace and skill, Schindler's List balances fear and exaltation, humor and horror, love and death. It evokes, superbly, a time of savagery and grief, and the inexplicable, stunning compassion that rises within and against it.", "is_fresh": 1, "author": ["Michael Wilmington"]},
{"text": "It's an extraordinary work of vision and passion that raises even the gifted Spielberg to a new level of artistry. And like all great works, it elevates everyone who views it.", "is_fresh": 1, "author": ["Dennis King"]},
{"text": "Spielberg ultimately remains Spielberg, finding his enduring themes within Thomas Keneally's novel and giving them the full Spielberg treatment.", "is_fresh": 1, "author": ["Dave Kehr"]},
{"text": "For this film Spielberg has done the best directing of his career. Much of his previous work has been clever and some of it better than that, but Schindler's List is masterly.", "is_fresh": 1, "author": ["Stanley Kauffmann"]},
{"text": "Despite admirable intentions and the undeniable splendor of his craft, ultimately what Spielberg has told is the story of the list; he has not told the story of Schindler.", "is_fresh": 0, "author": ["Joanne Kaufman"]},
{"text": "Spielberg uses stark, brutal realism to put over his powerful points about racism and ethnic cleansing, and the use of stunning black-and-white photography and gritty hand-held camera footage give the film a potent documentary style.", "is_fresh": 1, "author": ["Alan Jones"]},
{"text": "Not so important socially as it thinks it is, perhaps, but even more important aesthetically and thematically.", "is_fresh": 1, "author": ["Tim Brayton"]},
{"text": "More than any previous non-documentary Holocaust movie, this one convinces through the accumulation of such detail.", "is_fresh": 1, "author": ["John Hartl"]},
{"text": "Schindler's List is filmed in black and white, but the triumph of Neeson's portrait and Steven Zaillian's screenplay is that Oskar Schindler remains gray and enigmatic.", "is_fresh": 1, "author": ["Desmond Ryan"]},
{"text": "Spielberg never solves the Schindler riddle, which keeps this from being a truly great picture. He does bring to Schindler's List the technical skill and dazzling smoothness of a movie-making natural.", "is_fresh": 1, "author": ["Gary Thompson"]},
{"text": "The movie exudes an inescapable realism. Unlike a pastiche of newsreel footage, however, Spielberg craftily imbues Steven Zaillian's masterful screenplay with an emotionally charged examination of calculated brutality.", "is_fresh": 1, "author": ["Roger Hurlburt"]},
{"text": "What the visual immediacy of Schindler's List does is to prod each of us to fill in the gaps of emotion for ourselves. To put this another way, the more you are able to invest in this superb, demanding film, the more you are likely to get back.", "is_fresh": 1, "author": ["Jay Boyar"]},
{"text": "It looks, without ever averting its gaze, at the darkest of the dark.", "is_fresh": 1, "author": ["Stephen Hunter"]},
{"text": "Schindler's List is one of Steven Spielberg's most powerful films, capturing the tragedy and horror while still finding room to inspire and move generations.", "is_fresh": 1, "author": ["Jeremy Lebens"]},
{"text": "The moving film may be arduous to watch, but brilliantly acting and painstaking accuracy make it a must-see.", "is_fresh": 1, "author": ["Phil Villarreal"]},
{"text": "Authentic intensity, emotionalism and botch: the first two marry unexpectedly well, and the third element is by far the smallest, but it is there, and it means that the film is less than the touted breakthrough for the cinema.", "is_fresh": 1, "author": ["Adam Mars-Jones"]},
{"text": "Profoundly moving, profoundly shocking, profoundly important.", "is_fresh": 1, "author": ["Emma Dibdin"]},
{"text": "Few American movies since the silent era have had anything approaching this picture's narrative boldness, visual audacity, and emotional directness.", "is_fresh": 1, "author": ["Terrence Rafferty"]},
{"text": "Ultimately, the film is memorable as much for simple testimony as for the cinematic art it displays.", "is_fresh": 1, "author": ["Derek Malcolm"]},
{"text": "Schindler's List serves up three full hours of brilliant storytelling that's as humane and compassionate as it is gripping and provocative.", "is_fresh": 1, "author": ["David Sterritt"]},
{"text": "What Spielberg has done in this Holocaust story is simply and forcefully place us there.", "is_fresh": 1, "author": ["Gene Siskel"]},
{"text": "There are a few moments -- a handful, out of a three-hour film -- in which Spielberg does push the story into melodrama. As for the rest, though, Schindler's List has a real and unexpected integrity.", "is_fresh": 1, "author": ["Stuart Klawans"]},
{"text": "Accurate, heartbreaking masterpiece about the Holocaust.", "is_fresh": 1, "author": ["Heather Boerner"]},
{"text": "Schindler's List, because it is so finely crafted and authentic, truly allows one to experience the devastating, calculated breakdown of a Polish Jew in 1939 through the end of the war.", "is_fresh": 1, "author": ["Jordan Hiller"]},
{"text": "Schindler's List is a film whose meanings are to be found less in its uplifting outline than in its harrowing flow of images -- images of fear, hope, horror, compassion, degradation, chaos, and death.", "is_fresh": 1, "author": ["Owen Gleiberman"]},
{"text": "In a film that is mostly black and white, small touches of color -- a candle flame; a child's coat, bright red -- bring the enormity of the tragedy into excruciating focus.", "is_fresh": 1, "author": ["Steven D. Greydanus"]},
{"text": "a beautiful masterpiece... even though it's the hardest movie ever to watch", "is_fresh": 1, "author": ["Stefan Birgir Stefansson"]},
{"text": "See website for more details.", "is_fresh": 1, "author": ["Rory L. Aronsky"]},
{"text": "Accessible ... .", "is_fresh": 1, "author": ["Dennis Schwartz"]},
{"text": "This is the film to win over Spielberg skeptics.", "is_fresh": 1, "author": ["Todd McCarthy"]},
{"text": "This is a beautifully crafted, hopeful movie.", "is_fresh": 1, "author": ["Colin Kennedy"]},
{"text": "A heart-rending and redemptive Holocaust story, this Oscar-grabbing epic added to Spielberg's directorial credibility, showing he could handle controversial, sophisticated stories with real sensitivity.", "is_fresh": 1, "author": []},
{"text": "Spielberg made the picture with sufficient professional gravitas to signal that he understood the line he was walking. But it is ultimately just a movie, and we all know that in a black-and-white film, chocolate syrup can be read as blood.", "is_fresh": 1, "author": ["Philip Martin"]},
{"text": "Spielberg has painted his masterpiece with his own blood.", "is_fresh": 1, "author": ["Rob Gonsalves"]},
{"text": "Not only is the subject matter different for Spielberg, the way it is treated is a departure both for him and for the business as usual standards of major studio releases.", "is_fresh": 1, "author": ["Kenneth Turan"]},
{"text": "The [film succeeds] at conveying some of the enormity of the Holocaust, as well as some of its banal details, in a fully accessible manner, at a time when much of our collective memory and understanding of it is rapidly slipping away.", "is_fresh": 1, "author": ["Jonathan Rosenbaum"]},
{"text": "The movie is raw and unexpected and it vividly depicts the Holocaust in all its monstrousness.", "is_fresh": 1, "author": ["Andy Kurtz"]},
{"text": "Spielberg's tribute to the Holocaust reps Hollywood cinema at its best. Looking at the phenom from Schindler's narrow POV, the film is sharply-written and anchored by three great actors, Liam Neeson, Ben Kingsley and Ralph Fiennes.", "is_fresh": 1, "author": ["Emanuel Levy"]},
{"text": "It's a noble achievement, and essential viewing.", "is_fresh": 1, "author": ["Geoff Andrew"]},
{"text": "Schindler's List s'inscrit parmis les meilleurs films de Steven Spielberg et se veut un portrait tr\u00e8s r\u00e9ussi de l'holocauste et de l'horreur qui en d\u00e9coule.", "is_fresh": 1, "author": ["Louis-J\u00e9r\u00f4me Cloutier"]},
{"text": "Dirigido com uma discri\u00e7\u00e3o pouco comum em Spielberg, o filme emociona por sua crueldade e conquista gra\u00e7as \u00e0 complexidade do car\u00e1ter de Schindler.", "is_fresh": 1, "author": ["Pablo Villa\u00e7a"]},
{"text": "There's no trust here from the director that the audience might be able to fathom the horrors of the Holocaust if the lines between good and bad aren't distinctly drawn.", "is_fresh": 0, "author": ["Jeremy Heilman"]},
{"text": "The film is as historically important as it is dramatic, and every high school student should see it.", "is_fresh": 1, "author": ["Forrest Hartman"]},
{"text": "Many of the images, like the invasion of the Krakow ghetto, unfold like a collective nightmare of unspeakable brutality and dread.", "is_fresh": 1, "author": ["Thomas Delapa"]},
{"text": "Spielberg is enough of a master showman to break up the horror with small rewards.", "is_fresh": 1, "author": ["Jeffrey M. Anderson"]},
{"text": "A film for the ages.", "is_fresh": 1, "author": ["Dan Webster"]},
{"text": "Spielberg is such a filmmaking savant that it's hard to tell where the cinema ends and the protection of his sanity begins in Schindler's List", "is_fresh": 1, "author": ["Bill Chambers"]},
{"text": "Many (including me) might argue that, for all its excellence, Schindler's List isn't Spielberg's best movie, but it's certain to retain its standing as his most important.", "is_fresh": 1, "author": ["Matt Brunson"]},
{"text": "A classic that stays with the audience long after the closing credits conclude.", "is_fresh": 1, "author": ["Michael Dequina"]},
{"text": "A theme park ride masquerading as master's thesis.", "is_fresh": 0, "author": ["Luke Y. Thompson"]},
{"text": "A masterpiece of epic proportions. Nothing captures all the different sides of the terror of the Holocaust as well as this gripping story.", "is_fresh": 1, "author": ["Michael Szymanski"]},
{"text": "Rising brilliantly to the challenge of this material and displaying an electrifying creative intelligence, Mr. Spielberg has made sure that neither he nor the Holocaust will ever be thought of in the same way again.", "is_fresh": 1, "author": ["Janet Maslin"]},
{"text": "Because Schindler's List is a movie of such power, scope and intelligence, it will eventually take its place alongside masterpieces like Battleship Potemkin, Grand Illusion and The Great Dictator.", "is_fresh": 1, "author": ["D. S."]},
{"text": "Solid holocaust drama that confuses the importance of the subject with the importance of itself.", "is_fresh": 1, "author": ["Ken Hanke"]},
{"text": "Who would have thought that it would be a master of fantasy like Steven Spielberg who would direct what might be the most wrenching film ever made?", "is_fresh": 1, "author": ["Kevin N. Laforest"]},
{"text": "Explores the mystery of goodness in this astonishing drama of a scoundrel's amazing acts of bravery and selflessness.", "is_fresh": 1, "author": ["Frederic and Mary Ann Brussat"]},
{"text": "For a movie -- or more accurately, a Hollywood-approved art movie -- this often-stunning work puts the Holocaust into bracing perspective.", "is_fresh": 1, "author": ["Desson Thomson"]},
{"text": "Schindler's List, despite blatant compromises, is a rending historical document.", "is_fresh": 1, "author": ["Peter Travers"]},
{"text": "The documentary style allows Spielberg to deliver his message without preaching. The clever use of light and shade also makes it visually stunning.", "is_fresh": 1, "author": ["Carmel Gallagher"]},
{"text": "one of the most devastatingly emotional films ever made", "is_fresh": 1, "author": ["James Kendrick"]},
{"text": "Because this film touches us so deeply, the catharsis has a power that few -- if any -- other moments in film history can match.", "is_fresh": 1, "author": ["James Berardinelli"]},
{"text": "What is most amazing about this film is how completely Spielberg serves his story. The movie is brilliantly acted, written, directed and seen.", "is_fresh": 1, "author": ["Roger Ebert"]},
{"text": "Schindler's List is a ruthlessly unsentimental portrait of a German war profiteer's epiphany that inspires neither sorrow nor pity, but a kind of emotional numbness.", "is_fresh": 1, "author": ["Rita Kempley"]},
{"text": "While SCHINDLER'S LIST is the least Spielberg-ian and least showy of the director's work, it demonstrates an artistry that is at times highly stylized.", "is_fresh": 1, "author": ["MaryAnn Johanson"]},
{"text": "What is most memorable is not the tragedy of the lives lost or even the number of people Schindler saved, but how such an imperfect man could have done something so perfect", "is_fresh": 1, "author": ["Carlo Cavagna"]},
{"text": "The acting is excellent. Liam Neeson is super, as is Ben Kingsley. I thought Ralph Fiennes was especially good; chilling!", "is_fresh": 1, "author": ["Steve Rhodes"]},
{"text": "An intensely personal meditation on the nature of heroism and moral choice, rendered on the kind of rich, dreamlike cinematic canvas that only Hollywood can realize.", "is_fresh": 1, "author": []},
{"text": "Schindler's List (1993) is Steven Spielberg's award-winning masterpiece - a profoundly shocking, unsparing, three-hour long epic of the Holocaust.", "is_fresh": 1, "author": ["Tim Dirks"]},
{"text": "Spielberg marshals all his formidable storytelling talents and puts them at the service of an epic human drama.", "is_fresh": 1, "author": ["Marjorie Baumgarten"]},
{"text": "The result is unquestionably his most important work, his most fully realized work, his most rewarding work.", "is_fresh": 1, "author": ["Chris Hicks"]},
{"text": "Schindler's List is a true dramatic classic, capable of making anyone cry.", "is_fresh": 1, "author": ["James Brundage"]},
{"text": "[Schindler's List] is a very good piece of cinema and those who are ready to spend three hours in front of the screen would be rewarded with a powerful, thought-provoking piece of seventh art.", "is_fresh": 1, "author": ["Dragan Antulov"]},
{"text": "Spielberg has crafted a nearly perfect film, a gripping and brilliantly acted epic .", "is_fresh": 1, "author": ["Scott Renshaw"]},
{"text": "This is a supremely powerful depiction of the banality of evil and -- for once on film -- the seductiveness of good.", "is_fresh": 1, "author": ["Mark R. Leeper"]},
{"text": "", "is_fresh": 1, "author": ["Austin O'Connor"]},
{"text": "", "is_fresh": 1, "author": ["Michelle Alexandria"]},
{"text": "", "is_fresh": 1, "author": ["Michael Drakulich"]},
{"text": "", "is_fresh": 1, "author": ["Nell Minow"]},
{"text": "", "is_fresh": 1, "author": ["Rich Cline"]},
{"text": "", "is_fresh": 1, "author": ["Matt Bailey"]},
{"text": "", "is_fresh": 1, "author": ["Christopher Smith"]},
{"text": "", "is_fresh": 1, "author": ["Linda Cook"]},
{"text": "", "is_fresh": 1, "author": ["Rob Vaux"]}
]