[
{"reviews_count": "148", "title": "Secretariat", "avg_audience_rating": "3.8", "rotten_count": "55", "tomatometer": "63", "audience_score": "76", "avg_critic_rating": "6.1", "fresh_count": "93", "user_ratings_count": "49,911"},
{"text": "It's hopeful, it's cheerful, it's funny, and there's nothing in it to keep you from seeing it with either your 88-year-old grandmother or your 8-year-old daughter. Even better, both are likely to enjoy it.", "is_fresh": 1, "author": ["Megan Basham"]},
{"text": "If you want to see a horseracing movie with your family about the triumph of spirit through sport and the unique bond between a horse and its rider, just stay home and rent The Black Stallion.", "is_fresh": 0, "author": ["Sarah Marrs"]},
{"text": "The race scenes are impressively kinetic as Wallace uses slow-motion shots, low camera angles and archived footage to imbue the races with excitement, but it's not enough to lift this Hallmark snooze-fest.", "is_fresh": 0, "author": ["Roe McDermott"]},
{"text": "a safe, enjoyable movie that can be watched by yourself, on a date or at your mother's house after Sunday dinner", "is_fresh": 1, "author": ["Kevin Carr"]},
{"text": "It teeters between pleasantly generic film biography and rank manipulation.", "is_fresh": 0, "author": ["Roger Moore"]},
{"text": "You could go see this just to enjoy the production design.", "is_fresh": 1, "author": ["Dave White"]},
{"text": "Diane Lane delivers one of the finest performances of her career.", "is_fresh": 1, "author": ["Roger Tennis"]},
{"text": "Secretariat is cliched, unrealistic and predictable, but it will make you feel good", "is_fresh": 1, "author": ["Mike Edwards"]},
{"text": "This horse-sports-opera boasts all the ingredients for a successful run.", "is_fresh": 1, "author": ["James Croot"]},
{"text": "Celebrates greatness on four legs with a decent--if not record-breaking--amount of light entertainment. What're the odds?", "is_fresh": 1, "author": ["Jules Brenner"]},
{"text": "Easily as good of a film as \"Seabiscuit,\" and family-friendly. ", "is_fresh": 1, "author": ["James Plath"]},
{"text": "Let down by a shallow, bland treatment and characters that feign depth and go nowhere. In this category, it is still 'Seabiscuit' by a mile. ", "is_fresh": 0, "author": ["Bruce Bennett"]},
{"text": "A heavily contrived and overlong account of the greatest US horse in racing history, Disney's Secretariat still has a lot going for it as an old-fashioned family drama.", "is_fresh": 1, "author": ["Graham Young"]},
{"text": "Secretariat is a good-natured but thunderingly clich\u00e9d triumph-against-the-odds tale, almost every line a cornball aphorism about following your heart.", "is_fresh": 0, "author": ["Henry Fitzherbert"]},
{"text": "Like Secretariat himself, the film is a glossy, big-hearted slow- starter, but lacks his ability to power home ahead of the competition.", "is_fresh": 0, "author": ["Kate Stables"]},
{"text": "I'm sick of the simpering American morons who lap up this rubbish.", "is_fresh": 0, "author": ["Robbie Collin"]},
{"text": "With its linear structure, nostalgic glow and distinct lack of surprises, Secretariat seems to have wandered into cinemas after leaving its TV movie hitching post.", "is_fresh": 1, "author": ["David Edwards"]},
{"text": "Just when we thought John Malkovich didn't have another semi-intentionally deranged performance left in him, he has come storming back with another uproarious turn...", "is_fresh": 0, "author": ["Peter Bradshaw"]},
{"text": "I think this is one of the year's most enjoyable family films.", "is_fresh": 1, "author": ["Christopher Tookey"]},
{"text": "Despite a decent performance from Lane as the homespun trainer, Secretariat is more blind alley than Blind Side.", "is_fresh": 0, "author": ["Eve Barlow"]},
{"text": "This tale of wealth, horse-breeding and good old Christian faith is just about as hammy as a study of commodified horse sex can be.", "is_fresh": 0, "author": ["Nell Frizzell"]},
{"text": "Secretariat's story still feels untold.", "is_fresh": 0, "author": ["Karen Krizanovich"]},
{"text": "Don't put money on it.", "is_fresh": 0, "author": ["Elliott Noble"]},
{"text": "Bum-numbingly long bore that has a worrying number of talented actors seemingly involved for a cheque. Watch a film about dinosaurs instead; much more fun.", "is_fresh": 0, "author": ["Limara Salt"]},
{"text": "This horsey, 1970s-set Disney film doesn't boast the most imaginative script and is too long and businesslike for youngsters -- yet it still produces a lump in the throat.", "is_fresh": 1, "author": ["Derek Adams"]},
{"text": "Disappointing, frequently dull racehorse drama that's let down by poorly written characters, a thinly stretched plot, a painful lack of dramatic tension and a clich\u00e9-heavy script.", "is_fresh": 0, "author": ["Matthew Turner"]},
{"text": "The old-fashioned Secretariat is surely one of the feel-good movies of the year.", "is_fresh": 1, "author": ["Richard Knight"]},
{"text": "Never convinces that this was a horse or owner who epitomized a time and so captivated an era. The against-all-odds clich\u00e9s get slathered on, the races stumble, and the flick's further hobbled by all its pure emotions and heartstring-plucking.", "is_fresh": 0, "author": ["Brian Gibson"]},
{"text": "Yes, it's a good, solid movie about a horse that no one expected to win.", "is_fresh": 1, "author": ["Linda Cook"]},
{"text": "Penny Chenery's story is good stuff. It's just that watching it, one can't escape the nagging feeling that it's not the most compelling part of the (Secretariat) story.", "is_fresh": 0, "author": ["Mike Scott"]},
{"text": "Secretariat is as sturdy and dependable as the stud it's named after. Plus, the ever-lovely Diane Lane!", "is_fresh": 1, "author": ["Corey Hall"]},
{"text": "Screenwriter Mike Rich and director Randall Wallace somehow whip this fruit salad of tragedy and triumph and predictability and profound corniness into something wonderful and amazing and the best kind of Hollywood feel-good.", "is_fresh": 1, "author": ["MaryAnn Johanson"]},
{"text": "... you will believe a horse can act.", "is_fresh": 1, "author": ["Jim Lane"]},
{"text": "Secretariat is basically an amiable crowd pleaser. It's a good film about a great horse.", "is_fresh": 1, "author": ["Elias Savada"]},
{"text": "This powerful film grabbed me from the beginning and carried me through to the end and wrung me out emotionally along the way.", "is_fresh": 1, "author": ["Robert Roten"]},
{"text": "If you like sweet, safe tales of triumph, Secretariat is a sure bet. But if you like films with a bit more tension and complexity, this romp doesn't completely satisfy.", "is_fresh": 1, "author": ["Camerin Courtney"]},
{"text": "...oldstyle Hollywood, family entertainment done at a very high level. It doesn't lay out all the facts and complications, but it's a very honest movie.", "is_fresh": 1, "author": ["Philip Martin"]},
{"text": "Despite the Disney-fied, sentimental side of the story, 'Secretariat' hits the finish line as an effective tale about an amazing equine athlete", "is_fresh": 1, "author": ["Lori Hoffman"]},
{"text": "Well-crafted, shamelessly -- and obviously -- manipulative fantasyland stuff, passing itself off as a 'true story,' when, in fact, it's what we call 'fact-based.", "is_fresh": 0, "author": ["Ken Hanke"]},
{"text": "Watching Secretariat is an experience as antithetical to watching an actual horse race as it gets.", "is_fresh": 0, "author": ["Simon Abrams"]},
{"text": "Schmaltzy, uneven and contrived [despite] thrilling horse-racing scenes and John Malkovich's hilarious performance as an eccentric trainer who walked right out of a Christopher Guest movie. ", "is_fresh": 0, "author": ["Avi Offer"]},
{"text": "The horse's story entertains but it would have been nice to have more of the owner's personal life explored", "is_fresh": 1, "author": ["Jackie K. Cooper"]},
{"text": "Crushingly unexceptional.", "is_fresh": 0, "author": ["Tim Brayton"]},
{"text": "It's not about a horse, it's jockey, or it's trainer. It's about a horse owner. Instead of honoring the greatest race horse ever, they try to find an underdog story with Diane Lane's help. ", "is_fresh": 0, "author": ["Jeff Bayer"]},
{"text": "The horse racing in the film is wonderful. It was shown from the horse's perspective...but I'm not sure the Oscar buzz is appropriate here.", "is_fresh": 1, "author": ["Jenna Busch"]},
{"text": "Secretariat rides to the Winner's Circle.", "is_fresh": 1, "author": ["Charles Koplinski"]},
{"text": "Strictly a movie for those who bet chalk.", "is_fresh": 1, "author": ["Dennis Schwartz"]},
{"text": "Like most Disney features, it is an inspirational event that will touch everyone.", "is_fresh": 1, "author": ["Frank Wilkins"]},
{"text": "Excitement mounts with every hoof beat in 'Secretariat,' a real crowd pleaser.", "is_fresh": 1, "author": ["Betty Jo Tucker"]},
{"text": "A weak mediocrity that inspires no strong feelings one way or the other. ", "is_fresh": 0, "author": ["Eric D. Snider"]},
{"text": "A throwback to an era where Disney churned these things out by the dozen, you?ll cheer, you?ll laugh, and wish you?d brought a hanky. There is, however, no photo finish.", "is_fresh": 1, "author": ["Gary Wolcott"]},
{"text": "An inspirational true story that oozes with so much inspiration, its overwhelming optimism becomes annoying and embarrassing.", "is_fresh": 0, "author": ["Christopher Smith"]},
{"text": "Until the Sports Illustrated subscription runs out at the Walt Disney Studios offices, I expect audiences will continue to be privy to cookie-cutter yarns centered around notable achievements in the sports world.", "is_fresh": 0, "author": ["Matt Brunson"]},
{"text": "My advice: If you're looking for a nostalgic, inspirational horse-race biopic that doesn't isolate itself completely from economic, historical, and racial reality, go rent Seabiscuit.", "is_fresh": 0, "author": ["Dana Stevens"]},
{"text": "Director Randall Wallace and writer Mike Rich steep the story in sappy sentimentality and some hamfisted nods to the era?s turbulent politics.", "is_fresh": 0, "author": ["Sean P. Means"]},
{"text": "Lane + Malkovich + Secretariat is 2010's triple crown.", "is_fresh": 1, "author": ["Tony Medley"]},
{"text": "Very much a rousing, indomitable-human-spirit kind of story, except that by some miracle, most of the saccharine was left out of the recipe. The end result is a movie everyone will enjoy.", "is_fresh": 1, "author": ["Liz Braun"]},
{"text": "Just how much you enjoy Secretariat, Disney's glossy-coated biopic of the celebrated racehorse, depends in large part on how much you know of his career. If you know zilch, you'll be thrilled.", "is_fresh": 1, "author": ["Amy Biancolli"]},
{"text": "For those looking to, or through, Secretariat for a deeper, more sinister meaning, all I can say is, there are worse places to look for God than in the nostril of a great horse.", "is_fresh": 1, "author": ["Stephanie Zacharek"]},
{"text": "Secretariat is a winner, but only by a few lengths.", "is_fresh": 1, "author": ["Tom Long"]},
{"text": "The film's formulaic nature was ultimately saved by Randall Wallace's stunning horse racing sequences. Even though we know the ending, I still found myself cheering. ", "is_fresh": 1, "author": ["Kevin McCarthy"]},
{"text": "Secretariat earns its best accolades for asking even larger questions as it highlights the story not just of a terrific horse but of his greatest champion, owner Penny Chenery, portrayed with grace, edge and a growing sense of self by Diane Lane.", "is_fresh": 1, "author": ["Lisa Kennedy"]},
{"text": "The great John Malkovich is a hoot as Secretariat's trainer. How did he ever get into a Disney movie?", "is_fresh": 1, "author": ["Clint O'Connor"]},
{"text": "The racing scenes, easily the best thing in this otherwise uninspired piece of inspirationalism, come as a distinct relief.", "is_fresh": 0, "author": ["Peter Rainer"]},
{"text": "This is a rousingly entertaining and robustly acted movie with electrifying horse-racing sequences filmed from the jockey's perspective. Now, how cool is that?", "is_fresh": 1, "author": ["Randy Myers"]},
{"text": "Chenery is the main character, and as hard as Lane works (and as lovely as she looks in her '70s separates), Chenery just isn't a very interesting person.", "is_fresh": 0, "author": ["Chris Hewitt (St. Paul)"]},
{"text": "Predictable but thoroughly entertaining and largely accurate story of the greatest racehorse of all time.", "is_fresh": 1, "author": ["Richard Roeper"]},
{"text": "Inspiring true story about an amazing woman and her horse.", "is_fresh": 1, "author": ["Sandie Angulo Chen"]},
{"text": "Neither winner nor loser, Secretariat settles for a polished mediocrity. ", "is_fresh": 0, "author": ["John Wirt"]},
{"text": "The film seeks to honor the memory of the great racehorse, and it largely succeeds.", "is_fresh": 1, "author": ["Laremy Legel"]},
{"text": "A solid, old-fashioned movie, at least until the overkill reprise of 'Oh Happy Day': I don't think the Edwin Hawkins Singers proclaiming that Jesus has washed their sins away has much to do with one horse beating the hooves off several others.", "is_fresh": 1, "author": ["John Beifuss"]},
{"text": "Even with the wooden acting and a horsepucky script that stops short of the finish line, once the horses take the reins, it's a thrilling ride.", "is_fresh": 1, "author": ["Kimberly Gadette"]},
{"text": "(To the tune of \"Mister Ed\":) We?ve had us a film about a horse./Seabiscuit got Oscar nods, of course./So another race horse on us they?ll force: Secretariat!", "is_fresh": 1, "author": ["Peter Canavese"]},
{"text": "The close-ups of the jockeys and horses in the starting gates, with the nervous pawing of the hooves, is thrilling enough to get even the most jaded moviegoer's attention. ", "is_fresh": 1, "author": ["Jeanne Kaplan"]},
{"text": "There are two groups of moviegoers that will appreciate the dramatics of this great equine athlete: the over 50 crowd who lived through those exciting times, and those under 50 for whom this movie is an historical piece. ", "is_fresh": 1, "author": ["David Kaplan"]},
{"text": "When the movie climactically reproduces that exhilarating Belmont, the fiction is just a pale shadow of the fact, and the realized myth that lives in our memory dies on the screen.", "is_fresh": 0, "author": ["Rick Groen"]},
{"text": "It's a pleasurable, seductive fantasy partly because, as we have known from the start of cinema, the sight of a running horse is a beautiful thing.", "is_fresh": 1, "author": ["Manohla Dargis"]},
{"text": "It may not break any new ground in the well-worn, horse racing movie genre, but this thrilling and inspiring entertainment about the legendary, 1973 Triple Crown winning horse should have audiences standing up and cheering.", "is_fresh": 1, "author": ["Pete Hammond"]},
{"text": "If you're a fan of horse racing or if you're a fan of Diane Lane and John Malkovich, this Secretariat is required viewing for you.", "is_fresh": 1, "author": ["Scott Chitwood"]},
{"text": "A finely constructed feel-good movie, gorgeous to look at, suspenseful when it's supposed to be and firmly in control of the sports movie archetypes and tropes that it wields like an experienced jockey using a riding crop. ", "is_fresh": 1, "author": ["Chris Vognar"]},
{"text": "If ever a film recreated the experience of visiting an OTB ? where you watch races on TV from far away, people are dressed poorly and it?s quite stinky ? then Secretariat is a resounding success.", "is_fresh": 0, "author": ["Erik Childress"]},
{"text": "So intent on being inspiring that it forgets nearly everything else, including story and character.", "is_fresh": 0, "author": ["Eric D. Snider"]},
{"text": "Director Randall Wallace manages to bring in enough winning moments to make it worth an afternoon's viewing. ", "is_fresh": 1, "author": ["Jeffrey M. Anderson"]},
{"text": "Scarcely a scene goes by where Penny's savvy, grace, and generosity aren't explicitly cited by some character or another, often in the process of apologizing for not recognizing her visionary brilliance in the first place.", "is_fresh": 0, "author": ["Adam Nayman"]},
{"text": "Diane Lane borrows Sandra Bullock's blond wigs and can-do attitude for Secretariat, a horse movie that feels like a lazy workout rather than a high-stakes race. Secretariat is a strenuously feel-good flick that could be subtitled The Blinders Side.", "is_fresh": 0, "author": ["Steve Persall"]},
{"text": "You'll cry like a baby, even though you know how it ends. ", "is_fresh": 1, "author": ["Willie Waffle"]},
{"text": "This is an undeniably well-crafted genre piece.", "is_fresh": 1, "author": ["Mary F. Pols"]},
{"text": "Secretariat\" ultimately delivers where it matters, in the home stretch.", "is_fresh": 1, "author": ["Lou Lumenick"]},
{"text": "Director Randall Wallace has achieved the next to impossible, injecting genuine tension and suspense into a narrative we all know the ending to.", "is_fresh": 1, "author": ["Ann Hornaday"]},
{"text": "Even though the outcomes of the races run by Secretariat are history, you still will cheer this magnificent animal and his extraordinary owner.", "is_fresh": 1, "author": ["Bob Bloom"]},
{"text": "The real Secretariat had a heart twice as big as a normal horse's, and Secretariat the film has a lot more heart and soul to it than most 'feel-good' family films. ", "is_fresh": 1, "author": ["Rebecca Murray"]},
{"text": "It shorts its audience on the rich and vibrant experience it continually hints at, and for a horse that is rightly regarded as one of the greatest pure athletes who ever lived this is one race Secretariat doesn?t win.", "is_fresh": 0, "author": ["Sara Michelle Fetters"]},
{"text": "An okay but rather obvious and, natch, predictable period sports drama. (Parental Review also Available)", "is_fresh": 1, "author": ["Jim Judy"]},
{"text": "Don't fret when the film gets stuck in stodgy mud. Just bask in the glory that was Secretariat, and watch that horse ride.", "is_fresh": 1, "author": ["Peter Travers"]},
{"text": "The true-life account of the \"world's greatest racehorse\" deserves better than this bland adaptation from the Disney factory.", "is_fresh": 0, "author": ["Matt Stevens"]},
{"text": "The true story of the recordbreaking Secretariat is pretty stupendous as is. It didn't need schmaltzing up.", "is_fresh": 0, "author": []},
{"text": "\"Secretariat\" is a glorious throwback to the days when inspiring family fare often came from such studios as \"Secretariat\" source Disney.", "is_fresh": 1, "author": ["James Verniere"]},
{"text": "Proves all the more insane that it equates Secretariat to a Jesus Christ-like messiah.", "is_fresh": 0, "author": ["Dustin Putman"]},
{"text": "A family film about one of the fastest racehorses in history, Secretariat stumbles along beneath the weight of leaden life lessons.", "is_fresh": 0, "author": ["Joe Morgenstern"]},
{"text": "With a film like this, moments of emotion-run-amok excessiveness are inevitable, but a trio of interlocking factors keep the winces at a minimum and stop the film from going too far off the rails.", "is_fresh": 1, "author": ["Kenneth Turan"]},
{"text": "Unimaginatively directed by Randall Wallace, Secretariat often visibly strains to avoid painful or messy reality...", "is_fresh": 0, "author": ["Kathleen Murphy"]},
{"text": "This one's all about the horse -- and he's a winner.", "is_fresh": 1, "author": ["Moira MacDonald"]},
{"text": "An unabashed crowd-pleaser of the old school...calculated and manipulative. But it does its job skillfully.", "is_fresh": 1, "author": ["Frank Swietek"]},
{"text": "What a pleasure to see the exquisite Diane Lane in a role worthy of her talent and beauty. In this movie, she is the champion who gets to run the race she was born for. ", "is_fresh": 1, "author": ["Nell Minow"]},
{"text": "The actors and the film's genial nature help it go down fairly easy. The racing scenes are well-shot and surprisingly thrilling, given the preordained outcome.", "is_fresh": 1, "author": ["Mike Russell"]},
{"text": "Too often bludgeons us over the head with its inspirational quotables, burying the story?s organic goodwill under a pile of Hollywood horse manure. ", "is_fresh": 0, "author": ["Sean O'Connell"]},
{"text": "The welcoming glow that imbues every corner of this nostalgic horse-racing yarn with rich, lambent color comes from within, as if the movie itself is ablaze with its own crazy sense of purpose.", "is_fresh": 1, "author": ["Andrew O'Hehir"]},
{"text": "a 2010 Disney tent-pole release that feels more like a 1965 Disney tent-pole release, but within its very specific trappings, it is a crowd-pleasing success.", "is_fresh": 1, "author": ["Jason McKiernan"]},
{"text": "It?s not a particularly great film, but by recognizing its own limits, Secretariat never tries to be more than a feel-good movie, and it's better because of it.", "is_fresh": 1, "author": ["Jason Zingale"]},
{"text": "The Disney feel that makes it safe for the whole family also probably robs it of some of the more complex shading ... But considering how rare intelligent family-friendly movies are, it's a worthy sacrifice.", "is_fresh": 1, "author": ["Cathy Jakicic"]},
{"text": "\"It?s like trying to make a football movie set in the 1970s about this plucky little underdog team called the Dallas Cowboys.\"", "is_fresh": 0, "author": ["Rob Thomas"]},
{"text": "Randall Wallace's Secretariat knows which beats to hit: come-from-behind winner, historical setting, colorful characters -- check, check, check.", "is_fresh": 1, "author": ["Joe Neumaier"]},
{"text": "The achievement of both the movie and what Lane does with the part is that it's all bait to write her off as a sufferer, a role that Lane, due to bad movies and the bad men in them, knows too well. Not this time.", "is_fresh": 1, "author": ["Wesley Morris"]},
{"text": "I looked forward to it because I like Diane Lane, but about halfway through Secretariat, I realized that as much as I like her, I really don't like watching her run a horse farm.", "is_fresh": 0, "author": ["Gary Thompson"]},
{"text": "Wallace is a director of moments, not of cohesive wholes. His movie is a parade of confrontations punctuated by a thrilling race.", "is_fresh": 1, "author": ["Carrie Rickey"]},
{"text": "There's adversity, triumph, and lessons learned on the way to a happy ending. And upbeat scenes set to stirring, era-appropriate songs? Do you even have to ask?", "is_fresh": 0, "author": ["Keith Phipps"]},
{"text": "Aside from the inherent thrill of the races themselves, the new equine biopic Secretariat is dull stuff.", "is_fresh": 0, "author": ["Robert W. Butler"]},
{"text": "Secretariat is a traditional, by-the-numbers feel-good movie that's likely to leave you cheering in the end anyway, even though you know what's coming.", "is_fresh": 1, "author": ["Bill Goodykoontz"]},
{"text": "Terrific supporting performances bolster Lane's star turn, and some audiences will cheer in their theatre seats as though they were at the track, but Secretariat is ultimately a conventional story, conventionally told.", "is_fresh": 1, "author": ["Marjorie Baumgarten"]},
{"text": "Diane Lane inhabits roles with the naturalness of someone who's spent nearly a lifetime in front of the camera, and she's the bedrock of this inspirational sports story.", "is_fresh": 1, "author": ["Andrea Gronvall"]},
{"text": "Secretariat isn't bad but it's precisely what you'd expect.", "is_fresh": 0, "author": ["Michael Phillips"]},
{"text": "Lined with fetid chunks of Oscar bait like so many droppings in an untended stable", "is_fresh": 0, "author": ["Thomas Leupp"]},
{"text": "When the movie?s over, it?s hard not to be more amazed that Secretariat fathered 600 foals. That?s stamina!", "is_fresh": 0, "author": ["Matt Pais"]},
{"text": "Far from substantial, spending far too much time playing up the horse?s mystique (cue slow motion and thunderclaps), and not enough on the gritty particulars of the human characters. It?s rarely dull, but consistently baffling.", "is_fresh": 0, "author": ["Brian Orndorf"]},
{"text": "I should know better. But it got to me, mostly because of the way the races are shot ? and because of the heartfelt and mostly underplayed performances by the film?s stars.", "is_fresh": 1, "author": ["Marshall Fine"]},
{"text": "The racing sequences are effectively done and Secretariat's quest for horse racing's Triple Crown concludes with one of those stand-up-and-cheer moments, but the story as a whole seems stale and overly familiar.", "is_fresh": 0, "author": ["James Berardinelli"]},
{"text": "It is a great film about greatness, the story of the horse and the no less brave woman who had faith in him.", "is_fresh": 1, "author": ["Roger Ebert"]},
{"text": "Instead of feeling good, it just feels hollow.", "is_fresh": 0, "author": ["Josh Bell"]},
{"text": "Not exactly a beast biopic about sex and DNA or a National Geographic reproductive romance, but certainly about studs, Secretariat doesn't horse around when inferring that mares matter most, whether of the steed or human variety. ", "is_fresh": 0, "author": ["Prairie Miller"]},
{"text": "A rousing and heartwarming film, Diane Lane may get Disney the Best Actress Oscar.", "is_fresh": 1, "author": ["Julian Roman"]},
{"text": "A movie that?s just a little bit too slick for its own good, where all the pieces fit together with premanufactured precision. Still, when that horse starts to run, we can?t help cheering.", "is_fresh": 1, "author": ["Christopher Lloyd"]},
{"text": "Anyone remotely familiar with the story of Secretariat knows the outcome before the movie begins, but that Belmont climax still is intoxicating to watch.", "is_fresh": 1, "author": ["David Germain"]},
{"text": "Secretariat isn't as gritty as it should have been, but it sure is happy.", "is_fresh": 1, "author": ["Jeffrey Gantz"]},
{"text": "Secretariat, a benignly inspirational Disney sports drama about the legendary racehorse who won the Triple Crown in 1973, offers a fascinating test case for how much spoilers sometimes don't matter.", "is_fresh": 1, "author": ["Owen Gleiberman"]},
{"text": "A cheesy, square, emotional button-pusher that often feels like a Disney movie from the era it's set in -- and that old-fashioned appeal actually works in its favor.", "is_fresh": 1, "author": ["Geoff Berkshire"]},
{"text": "I'm a sucker for this kind of stuff, and there is plenty of it in Secretariat. This is one terrific movie about one terrific horse.", "is_fresh": 1, "author": ["Rex Reed"]},
{"text": "A family entertainment that the Brady Bunch would have enjoyed (if not actually starred in), Disney's real-life horse story, about the 1973 Triple Crown winner, is a solid shot straight up the middle.", "is_fresh": 1, "author": ["Joshua Rothkopf"]},
{"text": "The formulaic race footage itself is vigorous; the schmaltzy mythmaking script, on the other hand, deserves a one-way trip to the glue factory. ", "is_fresh": 0, "author": ["Nick Schager"]},
{"text": "Secretariat all but ignores the horse it?s named after in favor of telling the tedious, mostly irrelevant story of his owner.", "is_fresh": 0, "author": ["Joshua Tyler"]},
{"text": "This conventional but rousingly effective picture pulls through its occasional faltering stretches by focusing on the essentials of its incredible real-life saga, even if the details have been massaged for maximum uplift.", "is_fresh": 1, "author": ["Justin Chang"]},
{"text": "A wonderful family film about the greatest race horse who ever lived that gets out of the gate quickly and impresses with its big heart and idiosyncratic characters. ", "is_fresh": 1, "author": ["Frederic and Mary Ann Brussat"]},
{"text": "As satisfying as it is stimulating, 'Secretariat' will make you stand up and cheer.", "is_fresh": 1, "author": ["Susan Granger"]},
{"text": "An engaging sports movie about the greatest racehorse ever and his female owner who literally bets the farm on his supremacy.", "is_fresh": 1, "author": ["Kirk Honeycutt"]},
{"text": "Diane Lane shines as the horse's owner.", "is_fresh": 1, "author": ["Harvey S. Karten"]},
{"text": "As formulaic as it is, solid family films like \"Secretariat\" are few and far between.", "is_fresh": 1, "author": ["Cole Smithey"]},
{"text": "Based on the true story of a stubbornly committed housewife and her race horse, Secretariat is an overly explicit, extremely old-fashioned inspirational tale, elevated from the routine by Diane Lane's compelling lead and Malkovich's eccentric turn.", "is_fresh": 1, "author": ["Emanuel Levy"]},
{"text": "A bland horse tale enlivened only by Diane Lane's committed star turn and a wily supporting performance by John Malkovich.", "is_fresh": 0, "author": ["Ethan Alter"]},
{"text": "", "is_fresh": 1, "author": ["Paul Younger"]}
]