[
{"reviews_count": "205", "title": "Shaun of the Dead", "avg_audience_rating": "3.9", "rotten_count": "17", "tomatometer": "92", "audience_score": "93", "avg_critic_rating": "7.8", "fresh_count": "188", "user_ratings_count": "497,740"},
{"text": "Wright's style is pure, cartoon aesthetic: all quick cuts, sharp points of focus, the precise merging of sound with a cut or pan and the crowd-pleasing use of pop tunes.", "is_fresh": 1, "author": ["PJ Nabarro"]},
{"text": "Shaun of the Dead is a cute, successful zombie spoof built on a central joke: if the undead actually came to London, supposedly turned-on town of nattering youth, no one would really notice.", "is_fresh": 1, "author": ["Antonia Quirke"]},
{"text": "It's nice to see a film where the writing is so immediately brilliant that a certain part of you relaxes.", "is_fresh": 1, "author": ["Dorothy Woodend"]},
{"text": "It may only be April, but what we have here is pretty likely to be the British comedy of the year, its knockout final punchline planting a silly grin on your face that takes some while to fade.", "is_fresh": 1, "author": ["Tim Robey"]},
{"text": "Despite the emphasis on humour, Shaun shows its zombie movie credentials with some impressively gory special effects makeup and a willingness to despatch cast members in an exceptionally gruesome fashion.", "is_fresh": 1, "author": ["Wendy Ide"]},
{"text": "Some scenes are too talky, too much like a sitcom, but whenever that threatens to sink the film, the zombies appear and save the day (if you see what I mean).", "is_fresh": 1, "author": ["Paul Byrnes"]},
{"text": "For everyone who likes good acting and great writing, it's a bloody fun time and a wonderful display of how parody should be done.", "is_fresh": 1, "author": ["Chad Nelson"]},
{"text": "If you like Pegg and director Edgar Wright's cult Channel 4 series Spaced, you'll enjoy this deadpan blend of undergraduate humour and hardcore horror, which ransacks George A Romero's Dead saga and virtually every Italian zombie flick for inspiration.", "is_fresh": 1, "author": ["Alan Jones"]},
{"text": "Pegg, who cowrote Shaun with director Edgar Wright, shows off expert timing, whacking punchlines and zombies with equal panache.", "is_fresh": 1, "author": ["Leah Rozen"]},
{"text": "Mixing horror and humor is no mean feat, but Shaun Of The Dead tightens throats in fear without making the laughs stick there in the process.", "is_fresh": 1, "author": ["Keith Phipps"]},
{"text": "The pasty, scruffy Pegg shows a surprising amount of range for the unlikely hero of a zombie flick.", "is_fresh": 1, "author": ["Christy Lemire"]},
{"text": "The movie bogs down and the humor seems to dry up, though the blood continues to well, spurt and spew.", "is_fresh": 0, "author": ["Claudia Puig"]},
{"text": "Enough of a pointed study of character that it's more than just a collection of some of the best and most ridiculous jokes in a generation.", "is_fresh": 1, "author": ["Tim Brayton"]},
{"text": "Like Romero's best efforts, the movie is motored by a keen observational reality, cleverly twisting the characters' mundane world inch by inch until the real nightmare dawns on them.", "is_fresh": 1, "author": []},
{"text": "Some funny moments, but for adults only.", "is_fresh": 1, "author": ["Common Sense Media Editors"]},
{"text": "Pedestrian direction and script sap what anarchic fun this movie could've been", "is_fresh": 0, "author": ["Jay Antani"]},
{"text": "Shaun of the Dead is not only one of the single best zombie movies ever made, but it's also as close to perfect as a film can get.", "is_fresh": 1, "author": ["Steve \"Uncle Creepy\" Barton"]},
{"text": "A modern masterpiece, this is probably altogether the funniest and scariest film I've seen in years...", "is_fresh": 1, "author": ["Felix Vasquez Jr."]},
{"text": "Comedy and horror are real life partners, of course, and who better to bring all this to life in a zombie movie than the Brits?", "is_fresh": 1, "author": ["Urban Cinefile Critics"]},
{"text": "Extremely well made but only sporadically engaging...", "is_fresh": 1, "author": ["David Nusair"]},
{"text": "I think the movie is one of the most hilarious I've ever seen ... But the symbolism and depth of the movie make me appreciate it as a masterpiece.", "is_fresh": 1, "author": ["Christopher Campbell"]},
{"text": "In this most apocalyptic of genres, Shaun of the Dead is not unlike a ray of unexpected sunshine - even if it has a little red on it.", "is_fresh": 1, "author": ["Rob Humanick"]},
{"text": "...not only a loving, teasing homage to the Romero Dead films. It's also a superb zombie film in its own right...", "is_fresh": 1, "author": ["Rob Gonsalves"]},
{"text": "A romantic zombie comedy that tips its hat to George Romero and mines one very funny spoof that doesn't ignore the rules of the zombie horror genre--though it does tamper with them.", "is_fresh": 1, "author": ["Christopher Smith"]},
{"text": "Shaun is able to balance the comedy and the gore in a way that will satisfy both zombie genre fans and less bloodthirsty viewers.", "is_fresh": 1, "author": ["Joe Lozito"]},
{"text": "The cast make a cosy fit, the patter is still sitcom snappy, but Wright also has the visual snap to carry this saga of backyard apocalypse.", "is_fresh": 1, "author": ["Nick Bradshaw"]},
{"text": "Even when in danger of self-destructing, it cadges laughs with smart lines, silly observations or blokish inside jokes about zombie movies, video games and pub nibbles.", "is_fresh": 1, "author": ["Kim Newman"]},
{"text": "The Office meets Annie Hall meets Night of the Living Dead.", "is_fresh": 1, "author": ["Alex Sandell"]},
{"text": "Silly drop-dead sight gags that don't seem to work as well as intended but, nevertheless, offer some humor.", "is_fresh": 0, "author": ["Dennis Schwartz"]},
{"text": "Co-written by director Edgar Wright and star Simon Pegg, this gory zombie satire is filled to the brim with charming English wit.", "is_fresh": 1, "author": ["Jason Zingale"]},
{"text": "Writer-director Edgar Wright and co-writer and star Simon Pegg have terrific fun riffing on zombie lore.", "is_fresh": 1, "author": ["Mark Pfeiffer"]},
{"text": "What a sheer delight that we now have a romantic comedy that puts false hope where it belongs: in the face of the annihilation of the entire human race.", "is_fresh": 1, "author": ["Brian Juergens"]},
{"text": "This is played for laughs, but director Edgar Wright also builds up suspense and dread better than a lot of straight horror flicks", "is_fresh": 1, "author": ["Kevin N. Laforest"]},
{"text": "For a comedy, the material is awfully bloody. But it's good, silly fun nonetheless.", "is_fresh": 1, "author": ["Forrest Hartman"]},
{"text": "A more complex film with a lot more plot and character depth than you would expect of a lowly horror genre film.", "is_fresh": 1, "author": ["Robert Roten"]},
{"text": "The film has gruesome effects that won't disappoint zombie lovers.", "is_fresh": 1, "author": ["Kelly Glover"]},
{"text": "Delightfully silly, slathered with gore and yes, even touching at times, Shaun Of The Dead should at the very least highlight Wright and Pegg as the British comedic force to watch for the future.", "is_fresh": 1, "author": ["Ali Gray"]},
{"text": "... who better to trust with your life than someone you wouldn't trust with anything else?", "is_fresh": 1, "author": ["Kevin A. Ranson"]},
{"text": "A well executed one-joke movie. But, even it's a good joke, it's only one joke.", "is_fresh": 0, "author": ["Steve Rhodes"]},
{"text": "A singularity among the clones it so deftly and ingeniously parodies.", "is_fresh": 1, "author": ["Randy Shulman"]},
{"text": "a terrific horror movie send-up... even filmgoers who normally shy away from shockers will probably have a good time...", "is_fresh": 1, "author": ["James Sanford"]},
{"text": "Shaun Of The Dead is quite simply a film you should not miss. A deserved hit in the UK, this hopefully marks a return to form for British cinema.", "is_fresh": 1, "author": ["Anthony O'Connor"]},
{"text": "works hard to find a delicate balancing act between generating tension and humorously subverting it, often in the blink of an eye", "is_fresh": 1, "author": ["James Kendrick"]},
{"text": "It's a funny take on zombie movies that's also an enjoyable social commentary.", "is_fresh": 1, "author": ["Linda Cook"]},
{"text": "It's like The Office except with flesh-eating zombies.", "is_fresh": 1, "author": ["Jimmy O"]},
{"text": "If ever a movie screamed \"wait for the video\" this is it!", "is_fresh": 0, "author": ["Jackie K. Cooper"]},
{"text": "surprisingly endearing...", "is_fresh": 1, "author": ["Tony Toscano"]},
{"text": "Shaun of the Dead is either a zombie flick masking as a comedy, or a comedy masking as a zombie flick, or Beautiful Girls masking as a zombie comedy.", "is_fresh": 0, "author": ["Nick Davis"]},
{"text": "The zombie-movie genre already has some wink-wink funny entries, but this U.K. smash hit, written by Pegg and Wright, takes the prize. It's a bloody hoot.", "is_fresh": 1, "author": ["Devin Gordon"]},
{"text": "It's more enjoyable than most zombie movies or romantic comedies are in their own rights.", "is_fresh": 1, "author": ["Steven Snyder"]},
{"text": "The most original comedy from either side of the pond in years.", "is_fresh": 1, "author": ["Marc Savlov"]},
{"text": "It works best when it treats [the zombies] more as an impediment to be overcome by the sheer Britishness of the characters.", "is_fresh": 1, "author": ["Michael W. Phillips, Jr."]},
{"text": "It's a comedy. It's a horror film. It's a head-crackin' good time. ", "is_fresh": 1, "author": ["Jeffrey Bruner"]},
{"text": "The whole outlandish situation is treated with typical English stoicism, leading to some wonderfully funny moments.", "is_fresh": 1, "author": ["Sean McBride"]},
{"text": "Watching this slacker store clerk turn into a master zombie hunter to win the woman he loves is a refreshing way to approach the genre.", "is_fresh": 1, "author": ["Mike McGranaghan"]},
{"text": "[T]the inevitable switch to romance taints the irony that came before like backwash.", "is_fresh": 0, "author": ["Alan Dale"]},
{"text": "... The best comedy and the best horror movie of the first nine months of 2004.", "is_fresh": 1, "author": ["Greg Maki"]},
{"text": "Proves that uplifting romance doesn't have to take a back-seat to gory disembowelments but rather they can happily co-exist. ", "is_fresh": 1, "author": ["Mike Sage"]},
{"text": "For those who don't mind a little laughter with their zombies (or perhaps it should be the other way around), this is an unusual source of entertainment.", "is_fresh": 1, "author": ["James Berardinelli"]},
{"text": "The success has much to do with director Edgar Wright, who co-wrote the film with comic Pegg, but Pegg is who brings the film to life -- along with Nick Frost as Ed, the dimmest best friend a guy can have.", "is_fresh": 1, "author": ["Dan Webster"]},
{"text": "Successfully blends comedy, horror, suspense, a killer soundtrack, and social commentary into ninety-nine minutes of cinematic sweetness.", "is_fresh": 1, "author": ["Stina Chyn"]},
{"text": "Dr. Strangelove, Evil Dead 2, Shaun of the Dead", "is_fresh": 1, "author": ["Marty Mapes"]},
{"text": "Much of the film is very funny as it explores the eccentricities and daily routines of these Londoners.", "is_fresh": 1, "author": ["David Stratton"]},
{"text": "By going over the top on horror and below the belt on humor, this clever British import hits an uproarious cinematic chord.", "is_fresh": 1, "author": ["Tyler Hanley"]},
{"text": "The comedy quotient makes this more accessible to general audiences than most movies centering on the undead.", "is_fresh": 1, "author": ["Matt Brunson"]},
{"text": "A colorful British genre mash-up that crossbreeds the zombified existence of late twentysomething interpersonal ennui with a literal attack of the undead.", "is_fresh": 1, "author": ["Brent Simon"]},
{"text": "Au-del\u00e0 de la qualit\u00e9 de jeu des acteurs et des textes, les nombreuses r\u00e9f\u00e9rences et les divers hommages pr\u00e9sents dans le film en font un incontournable.", "is_fresh": 1, "author": ["Louis-J\u00e9r\u00f4me Cloutier"]},
{"text": "Shaun of the Dead aims for the head and the funny bone, and scores a major hit with both.", "is_fresh": 1, "author": ["Beth Accomando"]},
{"text": "Ineffective as satire, comedy, and horror.", "is_fresh": 0, "author": ["Harvey S. Karten"]},
{"text": "For the satirically inclined, many chuckles are found in the run-up to the survivors' late-in-the-film, unfunny desperation. ", "is_fresh": 1, "author": ["John Wirt"]},
{"text": "This film is like a crossbreeding of George Romero and Mike Leigh. This satire laughs at the tropes of the zombie movie, but even more at the foibles of English life today.", "is_fresh": 1, "author": ["Mark R. Leeper"]},
{"text": "The scares are played with efficiency and sincerity, eliciting laughs because of how far director Edgar Wright is willing to take them.", "is_fresh": 1, "author": ["Mark Palermo"]},
{"text": "[Who] said you couldn't have a zombie romantic comedy? Why can't the male lead express his undying devotion for his ladylove by bashing dead people in the head...?", "is_fresh": 1, "author": ["MaryAnn Johanson"]},
{"text": "...the second half of the film is just a standard horror movie showdown with a few mildly amusing gags.", "is_fresh": 0, "author": ["Richard Roeper"]},
{"text": "Shaun of the Dead isn't as funny as it's purporting to be.", "is_fresh": 0, "author": ["Guylaine Cadorette"]},
{"text": "At last a Zombie film hits the big screen with humor and romance.", "is_fresh": 1, "author": ["Vince Koehler"]},
{"text": "Un classique du film d'horreur moderne.", "is_fresh": 1, "author": ["Nicolas Lacroix"]},
{"text": "Shows not only respect for the zombie genre but respect for the audience...", "is_fresh": 1, "author": ["John Beifuss"]},
{"text": "a fun and exuberant tribute to our favorite zombie movies, and one that deserves to be ranked alongside of them on its own merits.", "is_fresh": 1, "author": ["Brian Mckay"]},
{"text": "There's nothing like the end of civilization as we know it to rouse a rudderless slacker into action.", "is_fresh": 1, "author": ["Sean Axmaker"]},
{"text": "Shaun of the Dead stands up as a horror movie as well as a comedy.", "is_fresh": 1, "author": ["Kevin Carr"]},
{"text": "Amid all the blood and gore -- and laughs -- Shaun also has something to say.", "is_fresh": 1, "author": ["John Wooley"]},
{"text": "As a zombie flick, Shaun is more entertaining than most, with chills, a certain quota of the usual gnawed entrails, and a band of survivors fighting off wave after wave of assault from the undead.", "is_fresh": 1, "author": ["Christopher Borrelli"]},
{"text": "Although genuine frights are in short supply, there's plenty of gory goodness to compensate.", "is_fresh": 1, "author": ["Mike Usinger"]},
{"text": "The best male bonding film since Last Orders and the best romantic comedy since Love Actually. Oh, and it's a great zombie flick, too.", "is_fresh": 1, "author": ["Collin Souter"]},
{"text": "We faithful of the Church of Blood and Ultra-gore have been waiting a long, long time for a movie like Shaun of the Dead, at the very least since 1993.", "is_fresh": 1, "author": ["Pete Kavadlo"]},
{"text": "...[a] devilishly dandy flesh-eating farce...uniquely hilarious and horrifying...Shaun and his cannibalistic cohorts will truly get under your skin.", "is_fresh": 1, "author": ["Frank Ochieng"]},
{"text": "If you like your romance with a few entrails on the side, this was made for you! More emotion and more laughs than you get from most horror movies - best use of zombies ever.", "is_fresh": 1, "author": ["Cherryl Dawson and Leigh Ann Palone"]},
{"text": "Not only the best zombie film since Romero's earlier work, but also one of the funniest comedies in a long time.", "is_fresh": 1, "author": ["Edward Douglas"]},
{"text": "Good-natured enough to recommend it to fans of the genre.", "is_fresh": 1, "author": ["Jean Lowerison"]},
{"text": "Bill Nighy adds a spark as the detested stepdad, the ghoul make-up is George Romero-worthy, and the final zinger makes it all worthwhile.", "is_fresh": 1, "author": ["Tom Meek"]},
{"text": "Gleefully funny -- and gruesomely gory.", "is_fresh": 1, "author": []},
{"text": "With zombie movies suddenly all the rage, it is refreshing to see at least one of them not drown in earnestness, throwing the entire genre on its head in ways I haven't seen since Jackson did it with Dead Alive over a decade ago.", "is_fresh": 1, "author": ["Sara Michelle Fetters"]},
{"text": "isn't the sure-fire smash cult flick its advance buzz suggested, but in its own way, it may be a first - a 'cute' zombie flick which employs subtlety in its humor", "is_fresh": 1, "author": ["Laura Clifford"]},
{"text": "It's being billed as a zombie romantic comedy, but it's not Rotting Hill - it's definitely a zombie adventure movie first. And it's a hoot and a half!", "is_fresh": 1, "author": ["Karina Montgomery"]},
{"text": "This is that rare, lucky film that gets to have its brains and eat them, too.", "is_fresh": 1, "author": ["Eric D. Snider"]},
{"text": "The main problem is that Shaun feels like a high-budget, season-ending, extended-length TV episode. Once the situation itself is milked for laughs, the film falls flat.", "is_fresh": 0, "author": ["Matt Kelemen"]},
{"text": "'Shaun of the Dead' has that most vital ingredient of any good zombie film, an underlying layer of social commentary that gives the script a brain.", "is_fresh": 1, "author": ["Pamela Troy"]},
{"text": "George Romero's zombie trilogy has generated an endless parade of remakes and rip-offs, but this clever British spoof comes closer than many to the bitter satire that makes his movies so distinctive.", "is_fresh": 0, "author": ["J. R. Jones"]},
{"text": "It's a knowing look at a perennial pop-movie genre and an ingenious variation on the romantic-comedy theme featuring an appealing and talented cast.", "is_fresh": 1, "author": ["James Verniere"]},
{"text": "Shaun of the Dead offers a welcome riff on a well-worn horror standard.", "is_fresh": 1, "author": ["Chris Kaltenbach"]},
{"text": "Wonderfully original, fast-moving and funny.", "is_fresh": 1, "author": ["Desson Thomson"]},
{"text": "If the zombie genre steadfastly refuses to die, we can be grateful to Shaun of the Dead for breathing fresh, diverting life into the form, with subtle visual humor and a smart, impish sense of fun.", "is_fresh": 1, "author": ["Ann Hornaday"]},
{"text": "Both genuinely funny and authentically horrifying, it puts the average horror comedy to shame.", "is_fresh": 1, "author": ["Maitland McDonagh"]},
{"text": "Plays brilliantly with our familiarity with zombie genre (yes, I actually said that) convention.", "is_fresh": 1, "author": ["Geoff Pevere"]},
{"text": "A wonderfully funny spoof of zombie movies ... and of the kind of life that can turn a man into the walking dead.", "is_fresh": 1, "author": ["Moira MacDonald"]},
{"text": "Transforms the unintentional camp of the zombie subgenre into full-on, hilarious comedy.", "is_fresh": 1, "author": ["Carla Meyer"]},
{"text": "Enough originality, clever set-ups and witty humor to keep anyone entertained.", "is_fresh": 1, "author": ["Jeff Otto"]},
{"text": "A very loving, intelligent addition to the zombie genre.", "is_fresh": 1, "author": ["Rebecca Murray"]},
{"text": "It's exuberantly, consistently funny.", "is_fresh": 1, "author": ["Gary Thompson"]},
{"text": "Zombies or no zombies, this is the funniest film of the year.", "is_fresh": 1, "author": ["Jay Boyar"]},
{"text": "Enjoys the weird distinction of being one of the year's funniest comedies and one of the best zombie movies ever made.", "is_fresh": 1, "author": ["M.E. Russell"]},
{"text": "It's a dead man's party driven by inspired sight gags, witty repartee and likable, dare we say, cuddly characters.", "is_fresh": 1, "author": ["Lisa Rose"]},
{"text": "A drop-dead-funny comedy.", "is_fresh": 1, "author": ["V.A. Musetto"]},
{"text": "The movie's great joke never wears out its welcome: Many of the living are virtually indistinguishable from the undead.", "is_fresh": 1, "author": ["Jami Bernard"]},
{"text": "It's a grisly but sweet ode to friendship, love and the George Romero zombie trilogy.", "is_fresh": 1, "author": ["Carina Chocano"]},
{"text": "It's intelligent, funny and utterly disgusting all at once.", "is_fresh": 1, "author": ["Leah McLaren"]},
{"text": "Cheeky and unexpectedly charming.", "is_fresh": 1, "author": ["Lisa Kennedy"]},
{"text": "The fact that Shaun of the Dead, a cross between 28 Days Later and Wayne's World, succeeds at all is probably the result of a special alchemy accessible only by its co-writers, Simon Pegg and Edgar Wright (who also directed).", "is_fresh": 1, "author": ["Mary F. Pols"]},
{"text": "Has its pleasures, which are mild but real.", "is_fresh": 1, "author": ["Roger Ebert"]},
{"text": "A British zombie flick that works not because of the crowds of undead, but because the guy trying to exterminate them was himself running out of reasons to live.", "is_fresh": 1, "author": ["Wesley Morris"]},
{"text": "...so endlessly clever and bloody hilarious (make that bloody and hilarious)...that it sets a frighteningly high bar for any zombie flicks that lie in its wake.", "is_fresh": 1, "author": ["Aaron Hillis"]},
{"text": "A zombie movie with a heart and a funny bone - as well as a good many other internal organs. ", "is_fresh": 1, "author": ["Sean P. Means"]},
{"text": "Right from the clever title... your expectations are up for something different. You won't be disappointed. ", "is_fresh": 1, "author": ["Daniel M. Kimmel"]},
{"text": "Never has the 'silent-but-deadly' [or SBD] been used with such care.", "is_fresh": 1, "author": ["John Venable"]},
{"text": "Finally, a good zombie movie with some decent fart jokes.", "is_fresh": 1, "author": ["Boo Allen"]},
{"text": "a bizarre mix of genuine romance, flagrant gore, riotous comedy, and somber drama, opens this weekend as one of the most startlingly successful and odd movies all year", "is_fresh": 1, "author": ["Audrey Rock-Richardson"]},
{"text": "It may want to be, as the British might say, a bloody riot, but in fact it seems to suffer from a case of comedic anemia.", "is_fresh": 0, "author": ["Frank Swietek"]},
{"text": "Those witty Brits. They may have lost the overseas colony that became the U.S. of A., but they sure know how to spice up a zombie flick with bloody humor. ", "is_fresh": 1, "author": ["Larry Ratliff"]},
{"text": "Shaun's dry wit, and humor is why it succeeds where most Zombie film's fail. It's the funniest movie of the year.", "is_fresh": 1, "author": ["Michelle Alexandria"]},
{"text": "Who knew pint-glass realism and splatter satire could make for such frighteningly smart fun?", "is_fresh": 1, "author": ["Bob Strauss"]},
{"text": "Don't be surprised if this clever entry finds favor with a crossover crowd that couldn't care less about a guilty-pleasure genre but appreciates the cheeky humor on display here.", "is_fresh": 1, "author": ["Robert W. Butler"]},
{"text": "A diverting little horror romp worth catching.", "is_fresh": 1, "author": ["Louis B. Hobson"]},
{"text": "A cool, savvy zombie romance, replete with witty, dryly sarcastic dialogue under fire.", "is_fresh": 1, "author": ["Jim Slotek"]},
{"text": "Witty, energetic and appropriately self-mocking, cheesy fun.", "is_fresh": 1, "author": ["Tom Long"]},
{"text": "It's frequently laugh-out-loud funny and surprisingly scary.", "is_fresh": 1, "author": ["Jeff Vice"]},
{"text": "Spiced with a healthy supply of jokes and enough gross-out gags to keep youthful audiences gagging happily.", "is_fresh": 1, "author": ["Robert Denerstein"]},
{"text": "'Shaun of the Dead' is that rarest of birds-a film that not only lives up to its considerable hype, it actually exceeds it.", "is_fresh": 1, "author": ["Peter Sobczynski"]},
{"text": "Finally, a great zombie movie! Disguised as a romantic comedy!", "is_fresh": 1, "author": ["Matt Caracappa"]},
{"text": "It's Dude, Where's My Car? meets 28 Days Later... Perhaps Dude, Where's My Zombie? would be more appropriate.", "is_fresh": 1, "author": ["Fred Topel"]},
{"text": "Ridiculous and heartfelt, it's both the funniest zombie movie and the scariest romantic comedy you're likely to ever see.", "is_fresh": 1, "author": ["Josh Bell"]},
{"text": "British-import \"Rom-Zom-Com\" has a little undead life to it, but it's definitely a zombie-come-lately.", "is_fresh": 1, "author": ["James Rocchi"]},
{"text": "Like all self-respecting zombie flicks, the oft-funny Shaun of the Dead deals as much with wicked social commentary as it does with gruesome murder and maniacal mayhem.", "is_fresh": 1, "author": ["Dan Jardine"]},
{"text": "It not only functions as a parody of the genre, it works as a straight-up entry, and ends up being a loving homage.", "is_fresh": 1, "author": ["Jeffrey Chen"]},
{"text": "The most entertaining horror movie set in the British Isles since An American Werewolf in London.", "is_fresh": 1, "author": ["Mark Halverson"]},
{"text": "There's something delicious about seeing a bunch of post-Thatcher North Londoners slowly learn to distinguish between their customarily low-yield environment and an epidemic of grave-defying cannibalism.", "is_fresh": 1, "author": ["Steve Schneider"]},
{"text": "with the exception of Romero's trilogy -- the Godfather of zombie movies -- this is the best zombie movie ever made.", "is_fresh": 1, "author": ["Jeffrey M. Anderson"]},
{"text": "You're aware the filmmakers have paid attention over the years and even if you haven't, Shaun of the Dead is still a bloody blast.", "is_fresh": 1, "author": ["Erik Childress"]},
{"text": "While there are laughs and inspired moments, the comedic aspect almost disappears at the height of the movie, in favour of the goriest events I can remember in recent cinema.", "is_fresh": 0, "author": ["Mike DeWolfe"]},
{"text": "Casting Bill Nighy as a zombie -- or more accurately, a zombie to be -- may not be precisely innovative, but it's clever and wholly enjoyable.", "is_fresh": 1, "author": ["Cynthia Fuchs"]},
{"text": "By treating the genre as a joke, this satire, whose title plays off George A. Romero's 1979 golden oldie, Dawn of the Dead, yields ironic dramatic dividends.", "is_fresh": 1, "author": ["Stephen Holden"]},
{"text": "Arguably the most intelligent, hilarious sendup of the horror genre seen in decades.", "is_fresh": 1, "author": ["Jackie Loohauis"]},
{"text": "This movie is destined for cult greatness. See it now and you can say -- honestly, for once -- that you were there in the beginning.", "is_fresh": 1, "author": ["Tom Maurstad"]},
{"text": "Zombie movies have been spoofed before, but this one lurches to the top of the list on the strength of its twisted British wit and oh-so-clever mix of laughs and horror.", "is_fresh": 1, "author": ["Bill Muller"]},
{"text": "I love George Romero's zombie pictures, and I love deadpan English humor, but I had no idea that the two would mesh as happily as they (mostly) do in Shaun of the Dead.", "is_fresh": 1, "author": ["David Edelstein"]},
{"text": "An exuberant, fresh and funny romantic comedy that just kind of happens to feature the living dead.", "is_fresh": 1, "author": ["Phoebe Flowers"]},
{"text": "Sure, there are rotting, gory corpses in Shaun of the Dead, but they are the wittiest rotting, gory corpses you'll ever see.", "is_fresh": 1, "author": ["Chris Hewitt (St. Paul)"]},
{"text": "Its secret is the same one that keeps us interested in the better examples of the movies it pillories: The writers, director and actors make us care about Shaun and his friends.", "is_fresh": 1, "author": ["Terry Lawson"]},
{"text": "Members of the cast, most of whom hail from British TV sitcoms, have crackerjack comedic timing, and their characters have been written so well you'd watch them with or without zombies.", "is_fresh": 1, "author": ["Rene Rodriguez"]},
{"text": "Screamingly funny.", "is_fresh": 1, "author": ["Steven Rea"]},
{"text": "There is gore aplenty for those who like to look at it, and a bounty of winking jokes for those who would prefer to laugh at it.", "is_fresh": 1, "author": ["Jan Stuart"]},
{"text": "Makes the best use of zombies since Michael Jackson's 'Thriller' video.", "is_fresh": 1, "author": ["Jeff Strickler"]},
{"text": "The filmmakers, clearly fans of the genre, have got the zom and the com parts down cold.", "is_fresh": 1, "author": ["Lisa Schwarzbaum"]},
{"text": "Playing the stereotypical twentysomething everyman, Pegg has a disarming fragility that evokes a bit of empathy from anyone ever stuck in a rut.", "is_fresh": 1, "author": ["Robert K. Elder"]},
{"text": "...at once a splatterfest and a satiric generational statement.", "is_fresh": 1, "author": ["Josh Larsen"]},
{"text": "Shaun of the Dead is good, goofy fun, but given the attendant hype...there may be a danger of excessively high expectations from horror fans.", "is_fresh": 1, "author": ["Luke Y. Thompson"]},
{"text": "Pegg e Frost formam uma dupla c\u00f4mica brilhante e o roteiro oferece in\u00fameras piadas que, apesar de n\u00e3o exatamente brilhantes, s\u00e3o inspiradas o bastante para provocar o riso.", "is_fresh": 1, "author": ["Pablo Villa\u00e7a"]},
{"text": "the film is brilliantly subversive and funny with great reactions from Pegg and Frost as they portray the two most idiotic zombie fighters ever seen on film.", "is_fresh": 1, "author": ["Willie Waffle"]},
{"text": "The biggest surprise (and asset) here is Pegg, who imbues the slightly daft Shaun with a good nature and bigger heart, providing the film with a central figure you actually care about.", "is_fresh": 1, "author": ["Ernest Hardy"]},
{"text": "A traditional zombie film introduced as a romantic-comedy and infected with a sly British-cum-\"The Simpsons\" intelligence and sensibility.", "is_fresh": 1, "author": ["Walter Chaw"]},
{"text": "Laudable inventiveness and satirical daggers that stick it to the aimless, video game addicted slacker generation.", "is_fresh": 1, "author": ["Phil Villarreal"]},
{"text": "...a film in which all the sad compromises of adulthood are symbolized by a pressing need to lop off your undead neighbor's rotting head with a cricket bat. Nicely done.", "is_fresh": 1, "author": ["Sean Burns"]},
{"text": "A film geek's dream come true... Shaun is a delightful romp through bloody entrails and pints of beer. ", "is_fresh": 1, "author": ["Brian Orndorf"]},
{"text": "A guaranteed gut-buster for anyone even vaguely familiar with the fundamentals of zombiedom.", "is_fresh": 1, "author": ["Rob Blackwelder"]},
{"text": "A fun outing that somehow never really quite takes off . . .", "is_fresh": 1, "author": ["James O'Ehley"]},
{"text": "A smart, cultish, semi-disgusting homage to the fine British art of not bothering.", "is_fresh": 1, "author": ["Anthony Lane"]},
{"text": "rife with finely observed lunacy as our dim-witted hero attempts to save the day armed with little more than a cricket bat and . . . the body language of an agitated gerbil", "is_fresh": 1, "author": ["Andrea Chase"]},
{"text": "Taken on its own shaky legs it's a wittier genre coda than Abbott and Costello Meet Frankenstein.", "is_fresh": 1, "author": ["Michael Atkinson"]},
{"text": "Impeccable performances...crack timing...Horror plaudits aside, Shaun of the Dead is out in front as the funniest comedy of the year.", "is_fresh": 1, "author": ["Peter Canavese"]},
{"text": "Shaun of the Dead is by far one of the most entertaining horror movies (and comedies!) I've seen all year!", "is_fresh": 1, "author": ["Staci Layne Wilson"]},
{"text": "This is a zombie movie with brains. Or, as the zombies themselves would put it, with braainnnnssss.", "is_fresh": 1, "author": ["Ethan Alter"]},
{"text": "Shaun of the Dead's splattering of scatological jokes and goofy gruesomeness never fully congeals.", "is_fresh": 0, "author": ["Nick Schager"]},
{"text": "Though I prefer the hard-core zombie scares of Danny Boyle's 28 Days Later, Pegg and Wright -- who are rumored to resemble a real-life Shaun and Ed -- keep the blood and the laughs gushing.", "is_fresh": 1, "author": ["Peter Travers"]},
{"text": "Shaun of the Dead is an unexpected double joy: an unmissable English movie about the undead which is far from braindead and, simultaneously, a beautifully observed, very funny comedy.", "is_fresh": 1, "author": ["Philip Horne"]},
{"text": "One of the funniest movies of the year!", "is_fresh": 1, "author": ["Scott Nash"]},
{"text": "The amusing but inconsistent Shaun of the Dead is a marriage made in hell.", "is_fresh": 0, "author": ["Jeremiah Kipp"]},
{"text": "Not only is Shaun of the Dead one of the funniest movies you'll see all year, but, as the ads helpfully point out, it's also a terrific romantic comedy... with zombies.", "is_fresh": 1, "author": ["Matt Soergel"]},
{"text": "Intelligently wicked and bloodily appealing in an agile sort of way.", "is_fresh": 1, "author": ["Dustin Putman"]},
{"text": "Shaun of the Dead will appeal to audiences of all ages and tastes, and is a fine example of British comedy done well.", "is_fresh": 1, "author": ["Joe Utichi"]},
{"text": "One of the best romantic zombie comedies ever!", "is_fresh": 1, "author": ["Stefan Birgir Stefansson"]},
{"text": "A clever spoof film that's actually well-written, witty, dynamically shot and edited, thankfully lacking the mentality of expelled phlegm.", "is_fresh": 1, "author": ["Jovanka Vuckovic"]},
{"text": "There are certainly touches that only the homegrown crowd will get, but there's sufficient energy and scattershot horror movie references that it should please fans of gross-out humor everywhere.", "is_fresh": 1, "author": ["Ray Bennett"]},
{"text": "It is, in terms of pacing, comic references and home furnishings, an undeniably British production, and hugely enjoyable for it.", "is_fresh": 1, "author": ["Wendy Ide"]},
{"text": "Desperate, dull and enough to have Romero's zombies spinning in their graves. Well, more than usual, anyway.", "is_fresh": 0, "author": ["Harry Guerin"]},
{"text": "What separates Shaun of the Dead from the likes of Scary Movie and makes it twice as effective is the fact that it never resorts to cheap parody.", "is_fresh": 1, "author": ["Stuart Wood"]},
{"text": "A tale of terror set in leafy London suburbs, Shaun Of The Dead is not only the funniest zombie movie for years but also, without a doubt, the best.", "is_fresh": 1, "author": ["Jennie Kermode"]},
{"text": "Highly recommended.", "is_fresh": 1, "author": ["Matthew Turner"]},
{"text": "'a raging success at pretty much everything it does.'", "is_fresh": 1, "author": ["Paul Arendt"]},
{"text": "The film offers homage to zombie films with a Pythonesque lilt.", "is_fresh": 1, "author": ["J. Johnson"]},
{"text": "Nightmarish for all the right reasons.", "is_fresh": 1, "author": ["Anton Bitel"]},
{"text": "British comedy that is actually funny. Not only that, but it's clever, funny, anarchic, funny and refreshing. And it's funny too.", "is_fresh": 1, "author": ["Adrian MacKinder"]},
{"text": "A side-splitting, head-smashing, gloriously gory horror comedy.", "is_fresh": 1, "author": ["Nev Pierce"]},
{"text": "Pegg and Wright brilliantly send up both the zombie genre and British society by showing how mindless everyday life is--there are zombies all around us!", "is_fresh": 1, "author": ["Rich Cline"]},
{"text": "Co-scripters Pegg and Wright structure it as a classic three-acter (set-up, journey, finale) with enough twists, character development and small set pieces to keep the comedy boiling.", "is_fresh": 1, "author": ["Derek Elley"]},
{"text": "Idiosyncratic and strangely sweet.", "is_fresh": 1, "author": ["Daniel Etherington"]}
]