[
{"reviews_count": "248", "title": "Shutter Island", "avg_audience_rating": "3.3", "rotten_count": "79", "tomatometer": "68", "audience_score": "76", "avg_critic_rating": "6.6", "fresh_count": "169", "user_ratings_count": "2,373,486"},
{"text": "What happened to Martin Scorsese? Has Scorsese taken a trip to the lighthouse? Did somebody tell him that he too could be an Oscar-winning studio hack if he'd just let somebody cut a hole in his brain?", "is_fresh": 0, "author": ["Eileen Jones"]},
{"text": "If [Scorsese] wanted to make great art, he needed to start with much better source material.", "is_fresh": 0, "author": ["Megan Basham"]},
{"text": "Yes, [it's] built on pulp landfill, but purposefully so, with Scorsese using the twist ending to riff on the very power of elaborate fantasy. ", "is_fresh": 1, "author": ["Troy Patterson"]},
{"text": "It's not a serious film and it's not even an especially suspenseful film but it is fun, in a Dr Caligari sort of way.", "is_fresh": 1, "author": ["Deborah Ross"]},
{"text": "Scorsese utilizes his audience's awareness of cinematic conventions to shorthand his way through a film, slipping past and through the details of mystery, shock, horror, and psychoanalysis...", "is_fresh": 1, "author": ["Daniel Kasman"]},
{"text": "A twisted psychological thriller that leaves you guessing until the very end, Shutter Island is yet another fantastic collaboration between DiCaprio (giving another pitch-perfect and near heartbreaking performance) and director Martin Scorsese.", "is_fresh": 1, "author": ["Candice Frederick"]},
{"text": "Scorsese keeps the tension at a pitch of near-constant hysteria. Yet when the solution to the mystery is finally revealed, you're left with a sense of disappointment", "is_fresh": 0, "author": ["Jason Best"]},
{"text": "Story quibbling aside, Shutter Island is high on atmosphere, in large part due to the visuals, and the collaboration between Scorsese and (Cinematographer) Robert Richardson actually feels like the two men having a blast with their craft.", "is_fresh": 1, "author": ["John Gholson"]},
{"text": "... Shutter Island, the fourth collaboration between Scorsese and DiCaprio, is the best work they have done together.", "is_fresh": 1, "author": ["Greg Maki"]},
{"text": "It's a strong and at times gripping offering from Hollywood's cosiest A-list filmmaker/star pairing.", "is_fresh": 1, "author": ["Simon Reynolds"]},
{"text": "A brilliantly constructed mystery.", "is_fresh": 1, "author": ["C. Robert Cargill"]},
{"text": "Every detail of the production design is on point for maximum dread and psychic confusion.", "is_fresh": 1, "author": ["Dave White"]},
{"text": "As hard as Shutter Island works to convince you that is a dumb but flashy thriller when it is actually a fairly smart one, it may well be as hollow as any magic trick.", "is_fresh": 1, "author": ["Joshua Starnes"]},
{"text": "Scorsese and DiCaprio, in their fourth film together, again create an intense, provocative film-going experience, where the ride, accommodations, and destination are all first class. ", "is_fresh": 1, "author": ["Jordan Hiller"]},
{"text": "Not the masterpiece I was hoping for...", "is_fresh": 1, "author": ["Felix Vasquez Jr."]},
{"text": "Fortunately, the music chosen to underscore the ever-increasing sense of unease and mystery (artfully selected by Robbie Robertson) is a constant pleasure.", "is_fresh": 1, "author": ["S. James Wegg"]},
{"text": "Shutter Island, is even less 'important' than The Departed. But Scorsese is clearly enjoying himself with this old-school throwback to thrillers past. And it's hard not to revel in it with him.", "is_fresh": 1, "author": ["Simon Miraudo"]},
{"text": "When the big reveal hits, it's the first big yawn of the film, and the tension dies a sudden death as we wait impatiently for the film to tie up all of its loose ends.", "is_fresh": 0, "author": ["Ian Buckwalter"]},
{"text": "Shutter Island, after an involving and entertaining beginning, settles for a victory by judges' decision rather than a final knockout.", "is_fresh": 1, "author": ["Jeffrey Chen"]},
{"text": "Multiplex entertainment this distinctive and provocative doesn't come along every day: it's a head trip well worth taking. [Blu-ray]", "is_fresh": 1, "author": ["Peter Canavese"]},
{"text": "...a creepy psychological thriller...short on psychology, characterization, suspense, tension, or thrills.", "is_fresh": 0, "author": ["John J. Puccio"]},
{"text": "A basically just kidding Boston offshore yarn featuring fleeing assorted lost and found psychos, born again Nazis, and Red Scare gulag rehab for unrepentant communists on the loose that, well, doesn't amount to a hill of baked beans.", "is_fresh": 0, "author": ["Prairie Miller"]},
{"text": "Ilha do Medo \u00e9 O Iluminado de Martin Scorsese.", "is_fresh": 1, "author": ["Pablo Villa\u00e7a"]},
{"text": "Por momentos excesiva y algo decepcionante, resulta de todos modos un inquietante ejercicio sobre la locura servido con gran habilidad por Martin Scorsese.", "is_fresh": 1, "author": ["Enrique Buchichio"]},
{"text": "As psychological horror thrillers go, it might be flawed, but it's a technically masterful piece of work.", "is_fresh": 1, "author": []},
{"text": "Shutter Island is second-tier Scorsese, but not one of his misfires. It does the gothic horror genre proud, but fails to transcend it.", "is_fresh": 1, "author": ["Jeffrey Westhoff"]},
{"text": "Scorsesejeva stilska vje%u017Eba koja zaslu%u017Euje daleko vi%u0161e preporuke nego mnogi razvikani naslovi na na%u0161em kino-repertoaru", "is_fresh": 1, "author": ["Dragan Antulov"]},
{"text": "An enticing, engaging piece of work, worthy of a second viewing, which is never a bad thing.", "is_fresh": 1, "author": ["Bruce Bennett"]},
{"text": "click to read full review", "is_fresh": 1, "author": ["Joseph Proimakis"]},
{"text": "Much will be made of the movie's Sixth Sense-like twist ending, but a second viewing will reveal carefully constructed plot, characterization and performances.", "is_fresh": 1, "author": ["Annlee Ellingson"]},
{"text": "They don't call him Martin Scorsese for nothing you know!", "is_fresh": 1, "author": ["James O'Ehley"]},
{"text": "The problem, then, arrives in the film's hurried final act, where a hitherto steady narrative gives way to an engorged twist that, whilst believable, insults the audience's comprehension of everything that has come before.", "is_fresh": 0, "author": ["Adam Woodward"]},
{"text": "Scorsese packs the film with so many thrilling details, surreal asides and masterful set-ups ... that we can't help but enjoy the ride.", "is_fresh": 1, "author": ["Rich Cline"]},
{"text": "Neither Scorsese nor Di Caprio is at the top of their game in Shutter Island, but like all successful teams they know how to win when they're playing badly. Good not great.", "is_fresh": 1, "author": ["Tom Howard"]},
{"text": "Some may find it emotionally distant and cold to the touch, yet that's no slight on its superb construction and fine ensemble cast.", "is_fresh": 1, "author": ["Neil Smith"]},
{"text": "So jump on that ferry and prepare for a stomach-churning crossing. Just don't blame me if you end up marooned.", "is_fresh": 1, "author": ["Robbie Collin"]},
{"text": "Luridly entertaining.", "is_fresh": 1, "author": ["Alistair Harkness"]},
{"text": "Ruffalo is underused, some interior scenes resemble a bad sci-fi thriller and with little emotional engagement on offer, Shutter Island just doesn't have the legs to sustain its running time.", "is_fresh": 0, "author": []},
{"text": "Shutter Island is too long and its increasingly surreal tone provides an ending that's a bit of a cheat. But, since it is a Scorsese picture, there's a lot to intrigue on the way.", "is_fresh": 1, "author": ["Derek Malcolm"]},
{"text": "It is not Scorsese's finest offering by a long way, leaving us disoriented but ultimately unfulfilled as the cops get their answers.", "is_fresh": 0, "author": ["Catherine Jones"]},
{"text": "It's just not exciting.", "is_fresh": 0, "author": ["Anthony Quinn"]},
{"text": "Since Scorsese is a stylist, the film is enjoyable. It would be more so if you could take out your brain and experience it only with eyes and ears.", "is_fresh": 0, "author": ["Nigel Andrews"]},
{"text": "Shutter Island could have been an entertainingly hysterical trainwreck, but the train doesn't even leave the station.", "is_fresh": 0, "author": ["Sukhdev Sandhu"]},
{"text": "This is one the year's must-see movies.", "is_fresh": 1, "author": ["Alex Zane"]},
{"text": "There's no doubt that Marty's still got it.", "is_fresh": 1, "author": ["David Edwards"]},
{"text": "Shutter Island is impressively acted, superbly designed by Dante Ferretti, atmospherically lit by Robert Richardson, and has costumes by Sandy Powell (who won her third Oscar last week) that are almost surreally of the 1950s.", "is_fresh": 1, "author": ["Philip French"]},
{"text": "At the end of it, I got a whiff of shaggy dog.", "is_fresh": 0, "author": ["Peter Bradshaw"]},
{"text": "It's a wonderfully inventive, visceral horror film, one of Scorsese's most enjoyable pictures.", "is_fresh": 1, "author": ["Christopher Tookey"]},
{"text": "As an exercise in pure style over clich\u00e9d content Shutter Island weaves an impressive and gripping spell.", "is_fresh": 1, "author": ["Alan Jones"]},
{"text": "Crucially, what Scorsese understands about horror movies is that the right location is everything.", "is_fresh": 1, "author": ["Michael Bonner"]},
{"text": "Scorsese is capable of making a fascinating psychological thriller, but this effort is sub-Tarantino, without the irony.", "is_fresh": 0, "author": ["Kate Muir"]},
{"text": "Unsuccessful but fascinating and often entertaining attempt from Martin Scorsese to wrangle with baroque pulp fiction - by turns compelling, hysterical and silly.", "is_fresh": 0, "author": ["Catherine Bray"]},
{"text": "At well over two hours, it could have done with some judicious pruning but Scorsese still manages to keep the story rattling along with a wry sleight of hand and a masterful manipulation of the narrative.", "is_fresh": 1, "author": ["Tim Evans"]},
{"text": "As senseless, perverse and unwieldy as it undoubtedly is, Shutter Island might be Scorsese's most enjoyable film in a decade.", "is_fresh": 1, "author": ["Tom Huddleston"]},
{"text": "Shutter Island offers sumptuous, enthralling, shivery gothic filmmaking with a hardboiled heart and a sly line in asylum humour.", "is_fresh": 1, "author": ["Kim Newman"]},
{"text": "...there inevitably reaches a point wherein Scorsese's expectedly self-indulgent sensibilities hinder one's efforts at wholeheartedly embracing the increasingly convoluted narrative...", "is_fresh": 1, "author": ["David Nusair"]},
{"text": "Shutter Island is all about the visceral, head-scratching embodiment of questions. Who is crazy? Am I crazy? Or are they crazy?", "is_fresh": 1, "author": ["Brett McCracken"]},
{"text": "Great director, lousy material. Scorsese shoots a creepy film, but the twist ending wasn't that big a surprise to me. The story doesn't cut it. Paul Chambers, CNN.", "is_fresh": 1, "author": ["Paul Chambers"]},
{"text": "The film's audio-video barrage ultimately just puffs up corny B-movie material to the point of distension.", "is_fresh": 0, "author": ["Nick Schager"]},
{"text": "An exercise in style so overheated that the controlled burn reignites the gothic's tropes. Slips out of its genre shackles by suggesting we're eager to drug ourselves on the thriller formula.", "is_fresh": 1, "author": ["Brian Gibson"]},
{"text": "Scorsese drops the wiseguys and goodfellas for a creep-filled island.", "is_fresh": 1, "author": ["Boo Allen"]},
{"text": "Things that go bump in the mind are so much scarier than things that go bump in the night.", "is_fresh": 1, "author": ["Lori Hoffman"]},
{"text": "It's almost as if the big reveal is actually a foregone conclusion and Scorsese knows it. When it finally comes, it allows you to catch your breath. It feels real. It makes sense because you knew it deep down all along.", "is_fresh": 1, "author": ["Eric Melin"]},
{"text": "Offers very little emotional punch to go along with the visual pizzazz, seeming more a genre exercise than a deeply felt drama. It dazzles the eye but leaves the heart cold.", "is_fresh": 0, "author": ["Frank Swietek"]},
{"text": "Behind the feverish mood there's only fumbled surrealism and Psychiatry 101", "is_fresh": 0, "author": ["Fernando F. Croce"]},
{"text": "The dazzling camera work by master director Martin Scorsese makes 'Shutter Island' all the more creepy ... not unlike the director's 'Cape Fear' from years back.", "is_fresh": 1, "author": ["Linda Cook"]},
{"text": "About halfway through writing a review of Shutter Island, I was caught by an undertow. I originally thought that the movie was stylistic nonsense. But then I realized that beneath the nonsense were intriguing swirls and tides.", "is_fresh": 1, "author": ["Tony Macklin"]},
{"text": "For those who like their movies wrapped in a tight bow, you're not going to get it here.", "is_fresh": 1, "author": ["Christopher Smith"]},
{"text": "It comes on strong, but in its bloody heart of hearts it's no more resonant than one of those old Vincent Price-Edgar Allan Poe contraptions - and less entertaining, too.", "is_fresh": 0, "author": ["Peter Rainer"]},
{"text": "An empty-headed, grotesquely dissatisfying cinematic journey.", "is_fresh": 0, "author": ["Brandon Judell"]},
{"text": "If Inglourious Basterds is what you get when a moviemaker gets his movie geek on, Shutter Island is what you get when a master filmmaker gets his movie geek on.", "is_fresh": 1, "author": ["Ken Hanke"]},
{"text": "Everything here is a lie, plain and simple, and without giving anything away instead of horrifying devastation all this movie made me feel was anger that I had just sat through the darn thing.", "is_fresh": 0, "author": ["Sara Michelle Fetters"]},
{"text": "...a dark, moody film that zips through its 138 minute running time but takes us to a place where some viewers, in the end, may not want to go.", "is_fresh": 1, "author": ["Daniel M. Kimmel"]},
{"text": "An intense, beautiful looking film from Scorsese and DiCaprio.", "is_fresh": 1, "author": ["Bob Grimm"]},
{"text": "If Scorsese is working within a prescribed genre, he is also presenting us with something that approaches its Platonic form.", "is_fresh": 1, "author": ["Anton Bitel"]},
{"text": "Stranded on Scorsese's Island.", "is_fresh": 0, "author": ["Charles Koplinski"]},
{"text": "I didn't love it. I didn't hate it. But the more I think about it, the more I want to see it again ... if only to dissect it more.", "is_fresh": 1, "author": ["Gina Carbone"]},
{"text": "I tried to get lost on Shutter Island, but am sad to say even with its ominous tone and dreary setting I found myself dreading its predictable tale.", "is_fresh": 0, "author": ["Jolene Mendez"]},
{"text": "Scorsese elevates what could have been a rote bit of narrative trickery into something not quite profound, but intensely engaging and quite moving", "is_fresh": 1, "author": ["James Kendrick"]},
{"text": "A visually handsome movie that lacks any stakes, emotional or intellectual.", "is_fresh": 0, "author": ["Tim Brayton"]},
{"text": "Mr. Scorsese is like Buddy Rich, dynamically gunning out more tonality, depth and rhythm from a four piece kit than James Cameron's ham-fisted, three-hour solo on his latest twenty-piece contraption.", "is_fresh": 1, "author": ["Rubin Safaya"]},
{"text": "DiCaprio and Scorcese are a dynamic movie duo but when you add in the brilliant storytelling of Lehane you get movie magic.", "is_fresh": 1, "author": ["Jackie K. Cooper"]},
{"text": "A bleak and disturbing psychological puzzler that's liberally sprinkled with flashbacks.", "is_fresh": 1, "author": ["Dennis Schwartz"]},
{"text": "Scorsese has more up his sleeve than a dead director's trademarked bag of tricks and with the unique challenges presented by the material he needed them.", "is_fresh": 1, "author": ["Brian Holcomb"]},
{"text": "Narrative rug-pulling has become so commonplace that the revelations of 'Shutter Island' are more old-hat than snap-brim...", "is_fresh": 0, "author": ["John Beifuss"]},
{"text": "Sadly, a horrible case of reverse-proportion mandates that the actors with the largest parts give the weakest performances, including yet another limp outing from DiCaprio.", "is_fresh": 0, "author": ["Nick Davis"]},
{"text": "Umberto Eco wrote, \"Two clich\u00e9s make us laugh but a hundred clich\u00e9s move us, because we sense dimly that the clich\u00e9s are talking among themselves, celebrating a reunion.\" Shutter Island is that reunion, and that shrine.", "is_fresh": 1, "author": ["Anthony Lane"]},
{"text": "A thrilling exercise in Grand Guignol -- so operatic in tone one can almost hear the arias during the flurry of memorable set pieces.", "is_fresh": 1, "author": ["Richard Knight"]},
{"text": "Reveals a man who, at 67, still has film in his blood and bones. Scorsese throws himself a real party here, complete with the hurricane of 1954 as an apocalyptic backdrop.", "is_fresh": 1, "author": ["Rob Gonsalves"]},
{"text": "For over two hours, Shutter Island coasts by on creepy atmosphere alone.", "is_fresh": 1, "author": ["Dan Lybarger"]},
{"text": "Shutter Island is a surface movie without even much surface; it's awash in stale ideas and character actors like Patricia Clarkson and Jackie Earle Haley who show up every 20 minutes to give us some handy exposition, and then leave.", "is_fresh": 0, "author": ["Adam Lippe"]},
{"text": "Director Martin Scorsese channels his inner M. Night Shyamalan.", "is_fresh": 0, "author": ["Kevin A. Ranson"]},
{"text": "'I don't know who #67 is,' said Leo, 'but more than one Sports Illustrated cover model has closed my case-file on #69.'", "is_fresh": 1, "author": ["Mark Ramsey"]},
{"text": "Unfortunately, despite clever writing and all of Scorcese's cinematic tricks, this film is not engrossing, compelling or entertaining. It is a slick, but hollow exercise in genre filmmaking.", "is_fresh": 1, "author": ["Robert Roten"]},
{"text": "Scorsese expends some much time and effort creating atmosphere and setting up situations, that when the big revelation finally arrives, expectations are so high that the pay off is a letdown.", "is_fresh": 0, "author": ["Bob Bloom"]},
{"text": "I really need more time to roll it around the brain before I can definitively recommend -- or not. Today, it's a not.", "is_fresh": 0, "author": ["Gary Wolcott"]},
{"text": "The cinematic equivalent of a bait and switch scam.", "is_fresh": 0, "author": ["Kam Williams"]},
{"text": "For his forty-fifth film Martin Scorsese crafts a gorgeously stylized psychological thriller full of darkly lush horror that torments its obsessed protagonist.", "is_fresh": 1, "author": ["Cole Smithey"]},
{"text": "Fans of psychological horror may have seen the material before, but rarely so much of it and rarely is the tone so perfectly presented.", "is_fresh": 1, "author": ["Mark R. Leeper"]},
{"text": "It is great to be in Scorsese's hands after almost two months of average films.", "is_fresh": 1, "author": ["Jeff Bayer"]},
{"text": "An overlong, nauseating thriller lacking palpable suspense and clever twists which can't be saved by its exquisite production values and solid performances.", "is_fresh": 0, "author": ["Avi Offer"]},
{"text": "Martin Scorsese's atmospheric thriller deserves high marks for its fine performances and outstanding production values.", "is_fresh": 1, "author": ["Betty Jo Tucker"]},
{"text": "Shutter Island is a hypnotic and disturbing thriller. A near-masterpiece.", "is_fresh": 1, "author": ["Mike McGranaghan"]},
{"text": "This is a soul crushing bore that I desperately wanted to walk out on. Would have been better if it was called Arkham Asylum.", "is_fresh": 0, "author": ["Michelle Alexandria"]},
{"text": "[I]t's hardly a spoiler to know that this pseudo-reality is really an overblown fantasy, Scotch-taped together into a storyline.", "is_fresh": 0, "author": ["Matthew Sorrento"]},
{"text": "You can almost feel Martin Scorsese straining to create some magic, given the pounding music, ominous cinematography, jaw-clenching close-up performances and overblown gothic flashbacks.", "is_fresh": 0, "author": ["Simon Weaving"]},
{"text": "Scorsese is clearly having fun in this one: it's part police procedural, part gothic thriller, part sociological drama...from a director who knows how to get into your head.", "is_fresh": 1, "author": ["Sarah Boslaugh"]},
{"text": "Shutter Island pays homage to film noir thrillers without giving us any new thrills.", "is_fresh": 0, "author": ["Christian Toto"]},
{"text": "A mixed bag from Martin Scorsese is still better than most other filmmakers' best efforts.", "is_fresh": 1, "author": ["Jim Vejvoda"]},
{"text": "Like it or not, director Martin Scorsese uses his Shutter Island to mess with your brain, on all levels, and mostly succeeds in his endeavor.", "is_fresh": 1, "author": ["Kit Bowen"]},
{"text": "Scorsese delivers the tension from first frame to last with a deliberately low-key mood that amps up the eeriness. It imbues even the most benign actions with a sinister ambiguity.", "is_fresh": 1, "author": ["Andrea Chase"]},
{"text": "The last third...takes too long to wrap things up, making this a good, not great, mystery thriller.", "is_fresh": 1, "author": ["Robin Clifford"]},
{"text": "An adult, insightful, tense, complicated psychological thriller.", "is_fresh": 1, "author": ["Ben Mankiewicz"]},
{"text": "Scorsese is known for bouncing between commercial pictures and artistic expression, and Shutter Island falls somewhere in between, for better or for worse.", "is_fresh": 1, "author": ["Kevin Carr"]},
{"text": "for a Scorsese film, it's missing that touch of greatness that's become synonymous with his name.", "is_fresh": 0, "author": ["Jeffrey Lyles"]},
{"text": "Pure and palpable evidence of a master filmmaker who's having some real fun with some very old-fashioned genre material.", "is_fresh": 1, "author": ["Scott Weinberg"]},
{"text": "Scorsese's in pulp fiction mode here, which essentially means that this is one of those pleasing instances when \"B\"-movie material is given the \"A\"-list treatment.", "is_fresh": 1, "author": ["Matt Brunson"]},
{"text": "One of the better psychological thrillers of its genre.", "is_fresh": 1, "author": ["Fred Topel"]},
{"text": "There're more things Scorsese's dreamt of in his heaven and earth than in Shutter Island's philosophies, I fear.", "is_fresh": 0, "author": ["Walter Chaw"]},
{"text": "Martin Scorsese has been making good movies for so long that according to the law of averages he was overdue for a turkey.", "is_fresh": 0, "author": ["Robert W. Butler"]},
{"text": "it doesn't seem destined to earn a place among top-tier Scorsese movies, but it does qualify as an essential work, because it demonstrates how craftsmanship can create art.", "is_fresh": 1, "author": ["Todd Gilchrist"]},
{"text": "So while Shutter Island may be flawed, when you consider the lobotomized state of most Hollywood thrillers, it's tough to complain too much about the work of a master -- no matter how schizophrenic it is.", "is_fresh": 1, "author": ["Kevin Williamson"]},
{"text": "Shutter Island might not be one of Scorsese's great movies, but you can tell he certainly had a lot of fun putting it together.", "is_fresh": 1, "author": ["Donald Munro"]},
{"text": "By the time this twisty mystery unfolds its ideas of how the past haunts people, how guilt consumes and how memories shape our mind's machinery, the result is elegant, creepy, fantastic cinema.", "is_fresh": 1, "author": ["Michael Smith"]},
{"text": "Individual moments and the performances of an excellent cast can take your breath away, regardless of the whole.", "is_fresh": 1, "author": ["Jeffrey M. Anderson"]},
{"text": "Sorry, but the late reward hardly justifies all that punishment.", "is_fresh": 0, "author": ["Rick Groen"]},
{"text": "A movie that keeps you guessing to the end and then -- miraculously -- makes the guessing pay off.", "is_fresh": 1, "author": ["Tom Long"]},
{"text": "What is real? What is delusion? What is montrous? What is decent? Shutter Island may not shatter the heart but these are gnawing achievements for a movie about madness and paranoia.", "is_fresh": 1, "author": ["Lisa Kennedy"]},
{"text": "A dizzying trip through a cinematic funhouse managed by one of the best filmmakers of all time fully employing his most talented collaborators.", "is_fresh": 1, "author": ["Brian Tallerico"]},
{"text": "This is among Scorsese's many gifts: Even when he's not crafting a masterpiece, he reminds you that the movies possess visceral and uncanny powers.", "is_fresh": 1, "author": ["Chris Vognar"]},
{"text": "Every detail points to a master filmmaker working at maximum overdrive.", "is_fresh": 1, "author": ["Randy Myers"]},
{"text": "...this is the first great movie of 2010, a pristine example of cinema at its most sly and seductive.", "is_fresh": 1, "author": ["Bill Gibron"]},
{"text": "\"Shutter Island\" isn't a perfect piece of work, but there are sequences in it that soar and burn.", "is_fresh": 1, "author": ["Kurt Loder"]},
{"text": "The script is only barely held together by a combination of Scorsese's formidable command and the sheer, clothespin force of that magnificent furrow in DiCaprio's brow.", "is_fresh": 1, "author": ["Michelle Orange"]},
{"text": "It never shakes the sense that it's tap dancing across quicksand.", "is_fresh": 0, "author": ["Rob Vaux"]},
{"text": "Haunting and hypnotic, Shutter Island is part fever-dream and surrealist art mixed with an ace potboiler; like a Mickey Spillane novel directed by William Wellman and photographed by Salvador Dali.", "is_fresh": 1, "author": ["Diva Velez"]},
{"text": "Acting more Kubrickian than ever, Scorsese uses the promise of horror to subvert expectations as thoroughly as did The Shining, which offers nothing terribly supernatural besides the twin horrors of parenthood and writer's block.", "is_fresh": 1, "author": ["Rob Nelson"]},
{"text": "Disturbingly, deliberately deceptive, it's layered with labyrinthine medical, legal, historical and political issues.", "is_fresh": 1, "author": ["Susan Granger"]},
{"text": "... a big, boiling MacGuffin stew of a movie, a Hitchcockian experiment in audience manipulation that slaps its artificiality in your face like a gold G-man's shield.", "is_fresh": 0, "author": ["Philip Martin"]},
{"text": "More psychological than horrifying, with an intense DiCaprio and Scorsese channeling Hitchcock and Serling.", "is_fresh": 1, "author": ["Willie Waffle"]},
{"text": "\"Shutter Island\" starts with a great deal of promise, but doesn't deliver.", "is_fresh": 0, "author": ["Jeanne Kaplan"]},
{"text": "I really wanted to like this film. It just lacks the suspense it should have provided, given the circumstances in which the protagonist finds himself.", "is_fresh": 0, "author": ["David Kaplan"]},
{"text": "Amid all the confusion, Shutter Island sort of invites you to see through Teddy's eyes: peering at uncooperative staff members, frustrated by the doctors' obfuscations and delays, his rising anger seems righteous.", "is_fresh": 0, "author": ["Cynthia Fuchs"]},
{"text": "Scorsese gets stylish, witty performances from his stellar bunch. No one overacts, but they slide as close to it as they can, and the result is vivid, memorable and just plain fun to watch.", "is_fresh": 1, "author": ["Chris Hewitt (St. Paul)"]},
{"text": "Not since Raging Bull has Mr. Scorsese so brazenly married brutality to beauty. Not since Kundun has one of his films felt so aspirational.", "is_fresh": 1, "author": ["John Anderson"]},
{"text": "A supremely well-crafted thriller from an elder statesman whose love of cinema still burns through every frame.", "is_fresh": 1, "author": ["Scott Von Doviak"]},
{"text": "Martin Scorsese's elephantine exercise in B-movie badness.", "is_fresh": 0, "author": ["Peter Howell"]},
{"text": "Showing an explosive temper and a wounded psyche, DiCaprio eerily channels the great Richard Widmark, a film noir giant, as Teddy, a shaky World War II veteran still at war with his memories.", "is_fresh": 1, "author": ["Randy Myers"]},
{"text": "Of course a flat Scorsese film is still deeper and more textured than almost everything else out there, so this still ranks up there among the must sees.", "is_fresh": 1, "author": ["Matthew Razak"]},
{"text": "An exquisitely crafted potboiler offering up two and a quarter hours of thrills, chills and Leonardo DiCaprio freaking out in a nuthouse during a hurricane.", "is_fresh": 1, "author": ["Lou Lumenick"]},
{"text": "To say this is Hitchcock-esque is an understatement. I wish the whole thing had been shot in black and white.", "is_fresh": 1, "author": ["Bill Clark"]},
{"text": "A haunted-house spooker mixed with an obsessed-detective noir, \"Shutter Island\" is not a great film. But that doesn't mean it isn't one of Scorsese's best, and one to be remembered.", "is_fresh": 1, "author": ["Chris Barsanti"]},
{"text": "Even lesser Scorsese is better than 85% of what you'll find at the multiplex on any given weekend. Still, it's hard not to be disappointed that such promise went unfulfilled.", "is_fresh": 1, "author": ["Sonny Bunch"]},
{"text": "As Shutter Island proceeds -- mostly as a series of speeches and set pieces -- what is meant to be mysterious and unsettling becomes just plain incomprehensible.", "is_fresh": 0, "author": ["Ann Hornaday"]},
{"text": "From every note of music to every frame of film and each performance, this picture brings a terrifying tale to screen that will stick in your mind for days.", "is_fresh": 1, "author": ["Kevin McCarthy"]},
{"text": "Scorsese feverishly works over the script with his typical widescreen gusto, only to end up with a flaccid central mystery barely worth the exertion.", "is_fresh": 0, "author": ["Brian Orndorf"]},
{"text": "Scorsese, and Paramount, appear to have simply thrown as much money at each scene as possible, which makes for some fancy sets, but delivers almost no atmosphere of the sort one would hope.", "is_fresh": 0, "author": ["Luke Y. Thompson"]},
{"text": "If you've combined Ambien and a braille Choose Your Own Adventure book, toked to Teletubbies in HD, or taken psychotropic drugs after hot-gluing kaleidoscopes to your eyes, then you've experienced something similar to Shutter Island.", "is_fresh": 1, "author": ["Mike Ward"]},
{"text": "Scorsese's technical proficiency and overall mastery of the cinematic language are virtually unrivaled, even when the project is 'only' a goose-bumpy B-movie.", "is_fresh": 1, "author": ["Eric D. Snider"]},
{"text": "Shutter Island feels disappointingly like a minor work. But hey, who says every film has to be a masterpiece?", "is_fresh": 1, "author": ["Jen Yamato"]},
{"text": "A serviceable mystery/thriller that nevertheless feels emotionally scattered and for some, predictable.", "is_fresh": 0, "author": ["David Foucher"]},
{"text": "An incidental nod of surrender and a devastating final line should haunt you on your way out of the film and as painful as it might be, you will want to go back to Shutter Island as soon as possible just to clear your head.", "is_fresh": 1, "author": ["Erik Childress"]},
{"text": "DiCaprio memorably transcends Scorsese.", "is_fresh": 1, "author": ["Victoria Alexander"]},
{"text": "If what I think is happening here, is happening here, it better not be...", "is_fresh": 0, "author": ["MaryAnn Johanson"]},
{"text": "A film that brilliantly balances artistic and commercial considerations in ways that are sure to impress both cineastes and people simply looking for something entertaining to see at the local multiplex on a Saturday night.", "is_fresh": 1, "author": ["Peter Sobczynski"]},
{"text": "Scorsese ... is very much a director who understands how to use the medium to first and foremost tell a story, examine character, and very precisely create a world in which both live.", "is_fresh": 1, "author": ["Mark Dujsik"]},
{"text": "Parental Content Review", "is_fresh": 1, "author": ["Jim Judy"]},
{"text": "Plenty of chills and jumps and goosebumps but finally it is the questions it raises about our ability to trust the characters and our own conclusions that will haunt us.", "is_fresh": 1, "author": ["Nell Minow"]},
{"text": "Could very well be the weakest motion picture of Martin Scorsese's career. Just because it looks and sounds good doesn't make it any less junky.", "is_fresh": 0, "author": ["Dustin Putman"]},
{"text": "Shutter Island is, infantile as it sounds, akin to the sensation of settling onto a toilet seat that is shockingly, unexpectedly and uncomfortably frigid.", "is_fresh": 1, "author": ["Brandon Fibbs"]},
{"text": "Scorsese is pushing, I guess, for something that combines a '40s horror-thriller with a contemporary psychological tragedy. What he ends up with is more like a Hardy Boys mystery directed by David Lynch.", "is_fresh": 0, "author": ["Andrew O'Hehir"]},
{"text": "The strength of the film, like the book, is that it never allows the viewer to feel comfortable with what he is watching.", "is_fresh": 1, "author": ["James Berardinelli"]},
{"text": "If it only tangentially seems like a Scorsese film, that's because we've incorrectly pigeonholed a director who has almost always pursued a career of shifts and gambits and new paths.", "is_fresh": 1, "author": ["Shawn Levy"]},
{"text": "If Martin Scorsese weren't aware of himself as a great filmmaker, he could never have made a movie as bad as Shutter Island.", "is_fresh": 0, "author": ["Mick LaSalle"]},
{"text": "Despite its flaws, Shutter Island is worth seeing for the palpably nightmarish and gothic world conceived by Scorsese.", "is_fresh": 1, "author": ["Claudia Puig"]},
{"text": "...(DiCaprio) gives the performance of his career, fighting himself and others in an attempt to stay sane in a truly insane world.", "is_fresh": 1, "author": ["Michael A. Smith"]},
{"text": "In Shutter Island, director Martin Scorsese has created a divinely dark and devious brain tease of a movie in the best noir tradition.", "is_fresh": 1, "author": ["Betsy Sharkey"]},
{"text": "It's only a matter of time before Daniels cracks under the pressure of Shutter Island, a dark and uninviting rock that makes Alcatraz look like Disneyland by comparison.", "is_fresh": 1, "author": ["Scott A. Mantz"]},
{"text": "Its overripe atmospherics put it in that rare class of failures that can only be made by talented people falling on their face while reaching for the moon.", "is_fresh": 0, "author": ["Colin Covert"]},
{"text": "Apparently not even Scorsese's artistry can reanimate a thing that is dead on arrival.", "is_fresh": 0, "author": ["Duane Dudek"]},
{"text": "...Scorcese's \"Spellbound\" by way of classic locked door murder mysteries and every Gothic mansion lashed by rain and shadowy tree branches.", "is_fresh": 1, "author": ["Laura Clifford"]},
{"text": "A luridly effective thrill ride of a movie that leaves no old-dark-house stone unturned, including a host of rats, a series of flashbacks involving doomed children, and water, water everywhere.", "is_fresh": 1, "author": ["Moira MacDonald"]},
{"text": "\"Shutter Island\" is not from the Scorsese who stands astride film like a colossus; instead, it's a giddy, gory gift from the Scorsese who sits beside us in the theater, elbowing us at the good bits and taking in the sinister spectacle up on screen.", "is_fresh": 1, "author": ["James Rocchi"]},
{"text": "The movie is inert, despite the fact that it bombards us with lurid imagery and high-intensity stimuli: frozen Dachau victims, dying Nazis, beautiful child murderesses, abandoned graveyards besieged by hurricanes.", "is_fresh": 0, "author": ["Dana Stevens"]},
{"text": "Overall, it's mostly effective version of a work that almost seemed unadaptable on the surface.", "is_fresh": 1, "author": ["Jeff Vice"]},
{"text": "Martin Scorsese's latest is a puff of smoke, the type of classic Hollywood mystery hailed as art when done by auteurs and dismissed as ham when done by anyone less esteemed.", "is_fresh": 0, "author": ["Amy Nicholson"]},
{"text": "It's as startling a change of pace for this director as The Shining was for Stanley Kubrick, and often just as unnerving.", "is_fresh": 1, "author": ["Stephen Whitty"]},
{"text": "This is a long, heavy film, in which Scorsese's aerobic moviemaking turns mannered and uncharacteristically passive.", "is_fresh": 0, "author": ["Wesley Morris"]},
{"text": "An unapologetically derivative film full of visual nods that appeal mostly to movie geeks.", "is_fresh": 1, "author": ["Carrie Rickey"]},
{"text": "Believe it or not, toward the end of the film, Leo gets down on his knees, looks up at the heavens and a craning camera and shouts \"Nooooooooooo!\" Just like Principal Skinner.", "is_fresh": 0, "author": ["Jordan Hoffman"]},
{"text": "Using every tool at his disposal, Scorsese honors Lehane's pulp intensity by amplifying the story to the fevered Grand Guignol of a Park Chan-wook movie, or Sam Fuller's asylum classic Shock Corridor.", "is_fresh": 1, "author": ["Scott Tobias"]},
{"text": "Mr. Scorsese's camera sense effectively fills every scene with creepiness, but sustained, gripping suspense seems beyond his grasp.", "is_fresh": 0, "author": ["A.O. Scott"]},
{"text": "Thought-provoking and surprising at every turn, Shutter Island isn't to be missed.", "is_fresh": 1, "author": ["Joshua Tyler"]},
{"text": "Shutter Island is a bear hug to cinema while it's also an occasionally tart valentine to genre. Its affections aren't ironic but isn't there something ironic about a love letter to film that takes place in an asylum?", "is_fresh": 1, "author": ["Sara Maria Vizcarrondo"]},
{"text": "an ominous, claustrophobic and, at times, confusing endurance test that audiences no doubt will want to take.", "is_fresh": 1, "author": ["Sean O'Connell"]},
{"text": "One of the best movies of 2009 that was inexplicably orphaned to 2010 no man's land.", "is_fresh": 1, "author": ["Phil Villarreal"]},
{"text": "There are no loose ends or false notes in any of it.", "is_fresh": 1, "author": ["Lawrence Toppman"]},
{"text": "What Scorsese brings to the table, having created more than his share of rascally villains, is a renewed sense of horror and despair at the power of evil.", "is_fresh": 1, "author": ["J. R. Jones"]},
{"text": "The plot doesn't so much thicken as curdle with every heebie-jeebie encounter -- we've taken a U-turn at the terrific Cape Fear and wound up at Cape Folly.", "is_fresh": 0, "author": ["Tim Robey"]},
{"text": "I'm of the opinion that DiCaprio is still far too lightweight a performer to carry the grizzled, haunted character that Scorsese is asking him to portray here.", "is_fresh": 0, "author": ["Andrew Pulver"]},
{"text": "[Scorsese] finds smart, lucid ways to preserve Lehane's intricate foreshadowing, the story's layered narrative and visuals (take note of fire, water, bandages).", "is_fresh": 1, "author": ["Gary Thompson"]},
{"text": "The movie does have a payoff, though. And it works, shiveringly well.", "is_fresh": 1, "author": ["Owen Gleiberman"]},
{"text": "Despite its pacing problems and 'I see dead people' denouement, Scorsese's latest is a brain-scrambling good time", "is_fresh": 1, "author": ["Thomas Leupp"]},
{"text": "For all the trickiness and bluster, Shutter Island is dead inside.", "is_fresh": 0, "author": ["Joe Neumaier"]},
{"text": "This quasi-horror film has the great director's usual craftsmanship and a stellar cast, but ultimately it's an infuriating trick that makes its most provocative ideas disappear.", "is_fresh": 0, "author": ["Joe Williams"]},
{"text": "Frantic psychological thriller is beautifully crafted but suffers from a surfeit of plot ingredients.", "is_fresh": 0, "author": ["Kevin Lally"]},
{"text": "Not top-tier Scorsese, but still a nicely atmospheric thriller.", "is_fresh": 1, "author": ["Chris Bumbray"]},
{"text": "Having Martin Scorsese direct a silly psychological thriller like this is like inviting a famous chef over to boil some hot dogs and open a can of baked beans.", "is_fresh": 0, "author": ["Kelly Vance"]},
{"text": "Scorsese pays stylish homage to classic noir and psycho-dramas, but Shutter Island is a mostly sluggish endeavor, even after the dark secrets are exposed.", "is_fresh": 0, "author": ["Clint O'Connor"]},
{"text": "A tense psychological thriller that recalls fare of similar genres from The Snake Pit to The Shining.", "is_fresh": 1, "author": ["Harvey S. Karten"]},
{"text": "One of DiCaprio's best performances in an unforgettable psychological jigsaw puzzle.", "is_fresh": 1, "author": ["Richard Roeper"]},
{"text": "Too predictable to love, too tragically beautiful not to appreciate.", "is_fresh": 1, "author": ["Matt Pais"]},
{"text": "...mostly enjoyable along the way...until the final 15 minutes or so pulls the rug out from under us and retroactively soils much of that enjoyment.", "is_fresh": 0, "author": ["Andy Klein"]},
{"text": "Shutter Island is hysterical, in the clinical and cinematic senses, followed by plodding, just when a potboiling contraption cannot afford to be.", "is_fresh": 0, "author": ["Michael Phillips"]},
{"text": "Shutter Island is popcorn entertainment polished to an unusually high sheen. Yes, you could argue the movie is simply a mood piece. But what a mood.", "is_fresh": 1, "author": ["Rene Rodriguez"]},
{"text": "The film's primary effect is on the senses. Everything is brought together into a disturbing foreshadow of dreadful secrets.", "is_fresh": 1, "author": ["Roger Ebert"]},
{"text": "Scorsese still knows how to put on one hell of a show.", "is_fresh": 1, "author": ["Anders Wotzke"]},
{"text": "absolutely fascinating, at times frustrating, too long by half an hour, has pacing issues - and is worth seeing twice.", "is_fresh": 1, "author": ["Rebecca Murray"]},
{"text": "...begins as a fun and crazily creepy popcorn thriller, but the movie eventually turns into something far more disturbing.", "is_fresh": 1, "author": ["Josh Larsen"]},
{"text": "A gripping, suspenseful mystery whose plot doesn't so much twist, as writhe as the viewer attempts to grasp it... compelling and captivating, a revitalised gothic mystery that is both terrific and thrilling to the last.", "is_fresh": 1, "author": ["Giles Hardie"]},
{"text": "Shutter Island is one of Scorsese's most uneven films to date.", "is_fresh": 0, "author": ["Staci Layne Wilson"]},
{"text": "It's not bad, but as Scorsese, America's greatest living filmmaker and film history buff should know, even Hitchcock came up short on occasion.", "is_fresh": 0, "author": ["Roger Moore"]},
{"text": "If a film is going to pile on the doom and foreboding this thickly, the payoff better be worth the hard road viewers have to slog.", "is_fresh": 0, "author": ["David Germain"]},
{"text": "It may not have any of the technological bells and whistles of the latest 3-D offerings, but no movie in recent memory immerses the audience so deeply in its look and feel as the old-fashioned, two-dimensional Shutter Island.", "is_fresh": 1, "author": ["Bill Goodykoontz"]},
{"text": "I read Dennis Lehane's Shutter Island, a 336-page throat-grabbing mystery thriller, in two nearly sleepless nights. Martin Scorsese's adaptation barely kept me awake for 138 minutes.", "is_fresh": 0, "author": ["Peter Keough"]},
{"text": "Shutter Island is a perfect example of Hollywood excess: It demonstrates a once significant filmmaker decaying into a big budget, poorly-motivated hack.", "is_fresh": 0, "author": ["Armond White"]},
{"text": "How could this many talented people get so utterly, confoundingly messed up? How could a director considered such an icon make so much money and demonstrate so little control?", "is_fresh": 0, "author": ["Rex Reed"]},
{"text": "Up for having a master filmmaker mess with your head? Then this is the movie for you.", "is_fresh": 1, "author": ["Joanna Langfield"]},
{"text": "Martin Scorsese's Shutter Island walks a fine line between institutional thriller and what-is-reality? inquest.", "is_fresh": 0, "author": ["Andrew Schenker"]},
{"text": "Since more attention has gone into filigreeing details into each scene than worrying about the way they'll fit together, the rattletrap engages you moment-to-moment, even as the overall pacing stops and lurches alarmingly.", "is_fresh": 1, "author": ["Nick Pinkerton"]},
{"text": "Martin Scorsese makes movies as if his life depends on it, never skimping on ferocity and feeling.", "is_fresh": 1, "author": ["Peter Travers"]},
{"text": "The spirit of Alfred Hitchcock is clearly alive and well, and is currently residing in Martin Scorsese's latest film, Shutter Island.", "is_fresh": 1, "author": ["Wendy Ide"]},
{"text": "A remarkable high-wire act, performed without a net and exploiting all the accumulated skills of a consummate artist. It dazzles and provokes. But since when did Scorsese become a circus performer?", "is_fresh": 1, "author": ["Kirk Honeycutt"]},
{"text": "Clearly flawed but entirely involving, Shutter Island is a superb genre thriller elevated by director Martin Scorsese's consummate skill.", "is_fresh": 1, "author": ["Tim Grierson"]},
{"text": "Expert, screw-turning narrative filmmaking put at the service of old-dark-madhouse claptrap.", "is_fresh": 1, "author": ["Todd McCarthy"]},
{"text": "Although bogged down with its denouement, this is still Scorsese, which means genre cinema at its visionary best.", "is_fresh": 1, "author": ["Erin Free"]},
{"text": "You'll enjoy it casually -- as a career curio, maybe -- but as it stands, it's a far cry from his best. Put simply, Scorsese missed the mark on this one.", "is_fresh": 0, "author": ["Patrick Kolan"]},
{"text": "While Scorsese overcooks the final stages of explanation and recollecting critical events, it doesn't alter how grand a job he has done of covering tracks. Excellent.", "is_fresh": 1, "author": ["Ben McEachen"]},
{"text": "Shutter Island is the work of a true master who is completely accomplished in the art of filmmaking. An hour later you will be making plans to see it again.", "is_fresh": 1, "author": ["Thomas Caldwell"]},
{"text": "Like a lunatic's trip to Wonderland, it builds suspense with only brief respites, reaching a climax that is truly shattering. Hang on tight.", "is_fresh": 1, "author": ["Marshall Fine"]},
{"text": "Shutter Island is a long slog. The sad thing is that Scorsese could have connected emotionally with Lehane's narrative.", "is_fresh": 0, "author": ["David Edelstein"]},
{"text": "Martin Scorsese's sure hand directs this thriller with the precision of a brain surgeon and the grace of an artist", "is_fresh": 1, "author": ["Andrew L. Urban"]},
{"text": "The plot is as dizzying and steep as the circular steps that lead us to the top of the island's solitary lighthouse... a breathtaking journey", "is_fresh": 1, "author": ["Louise Keller"]},
{"text": "Shutter Island sets a tone straight out of the gate with dark, shadowy imagery, a muted color palette, and a splash of noir-esque style peppered across the top.", "is_fresh": 1, "author": ["Steve \"Uncle Creepy\" Barton"]},
{"text": "Scorsese's Gothic horror noir is B level and sharply uneven, with good set-up and closure but weak, draggy middle. Dense in image and unsettling in tone, the film is nonetheless thematically lugubrious and visually overwrought, even more than Cape Fear!", "is_fresh": 1, "author": ["Emanuel Levy"]},
{"text": "Scorsese's in Cape Fear mode here, making his own version of the sort of thing that rocked his world when he was younger... [a] horror film, but with a haunted house that travels on two legs.", "is_fresh": 1, "author": ["Drew McWeeny"]},
{"text": "The work of a master at his height. This is Scorsese flexing his muscles and cracking his knuckles and making a movie that's intense and thrilling and engrossing and beautiful and dense.", "is_fresh": 1, "author": ["Devin Faraci"]},
{"text": "", "is_fresh": 1, "author": ["Joshua Rothkopf"]}
]