[
{"reviews_count": "81", "title": "Taxi Driver", "avg_audience_rating": "4.1", "rotten_count": "2", "tomatometer": "98", "audience_score": "93", "avg_critic_rating": "  9", "fresh_count": "79", "user_ratings_count": "259,362"},
{"text": "No other film has ever dramatized urban indifference so powerfully; at first, here, it's horrifyingly funny, and then just horrifying.", "is_fresh": 1, "author": ["Pauline Kael"]},
{"text": "Travis Bickle's trouble was that he couldn't get close to anyone, but Robert De Niro's trouble is that he can't get past the audio-visual pandemonium to show you Bickle's torment from inside.", "is_fresh": 0, "author": ["Robert Hatch"]},
{"text": "\"Herrmann's score moves like Bickle's eyeballs do: scanning, searching...left, center, right...searching...searching...for something it will never find.\"", "is_fresh": 1, "author": ["Chris Alexander"]},
{"text": "if Travis is a contradiction, then so is the Vietnam-era United States in which he walks and drives - a schizophrenic environment where violence is always bubbling beneath the surface of dignity, decency and democracy.", "is_fresh": 1, "author": ["Anton Bitel"]},
{"text": "... a primal portrait and uncompromising vision carved out of the New York night, the summer heat, and the garbage of the Times Square cesspool.", "is_fresh": 1, "author": ["Sean Axmaker"]},
{"text": "As with John Wayne's Ethan Edwards (Travis's spiritual forefather), his thwarted patriarchal possessiveness is not tempered by anything like genuine concern, yet it is enough... to make him a peculiarly American folk hero.", "is_fresh": 1, "author": ["Tara Brady"]},
{"text": "Taxi Driver's undiminished power owes partially to Scorsese's harnessing of Michael Johnson's restless camerawork.", "is_fresh": 1, "author": ["Graham Fuller"]},
{"text": "A remarkable, disturbing film with an unforgettable musical score from the great Bernard Herrmann.", "is_fresh": 1, "author": ["Allan Hunter"]},
{"text": "It's a spiritual film, tracking Robert De Niro's 'Nam vet as he takes the wrong path towards cleaning New York's streets, minds and souls.", "is_fresh": 1, "author": ["Jamie Graham"]},
{"text": "Martin Scorsese's unflinching plunge into the darkest recesses of the human soul feels painfully relevant.", "is_fresh": 1, "author": ["Tom Huddleston"]},
{"text": "A bloated yet sporadically electrifying drama...", "is_fresh": 1, "author": ["David Nusair"]},
{"text": "A masterpiece, perhaps the masterpiece, of American loner-ness, a portrait of a psycho as a young man. Scorsese's interest in raging bulls and New York City wolves would return, but his fifth fiction-feature remains his magnum opus.", "is_fresh": 1, "author": ["Brian Gibson"]},
{"text": "A frightening psychological journey of a troubled man towards total collapse. [Full review in Portuguese.]", "is_fresh": 1, "author": ["Pablo Villa\u00e7a"]},
{"text": "This is a wholly remarkable film, flaws and all. In fact, even the flaws are significant.", "is_fresh": 1, "author": ["Derek Malcolm"]},
{"text": "De Niro ... manages to be as sad as he is frightening. From his general discomfort with others and his feeble attempts at communication, it's possible to recognize the root cause of Travis' inner distress as a terrible longing for approval.", "is_fresh": 1, "author": ["Kathleen Carroll"]},
{"text": "The classic cinematic thunderstorm - Paul Schrader's cool, sexually repressed formalism drifting into the humidity of Martin Scorsese's lurid, urban expressionism.", "is_fresh": 1, "author": ["Rob Gonsalves"]},
{"text": "Taxi Driver is grounded in its socio-political context, yet it also touches on something more universal... how one finds purpose and identity in a collapsing capitalistic society.", "is_fresh": 1, "author": ["Josh Cabrita"]},
{"text": "[VIDEO ESSAY] So much of American popular culture, and modern Cinema's urban aesthetic, owes a debt to Martin Scorsese's groundbreaking fourth feature film that it is impossible to imagine a world without \"Taxi Driver.\"", "is_fresh": 1, "author": ["Cole Smithey"]},
{"text": "even more unnerving than his own psychotic behaviour is the easy way in which [Travis Bickle] is assimilated and integrated into the very society that he endangers. ", "is_fresh": 1, "author": ["Anton Bitel"]},
{"text": "What strikes you aren't just the iconic moments, but the little ones.", "is_fresh": 1, "author": ["A.A. Dowd"]},
{"text": "It's a powerful film and a terrific showcase for the versatility of star Robert De Niro.", "is_fresh": 1, "author": ["A.D. Murphy"]},
{"text": "Taxi Driver is a brilliant study of alienation, obsession, paranoia and perverse desire. There's an undeniable power and grittiness that very few films have come close to capturing since. ", "is_fresh": 1, "author": ["Thomas Caldwell"]},
{"text": "Scorsese's masterpiece of urban alienation...", "is_fresh": 1, "author": ["Matt Glasby"]},
{"text": "A haunting, visceral trip through the mind of a man on the edge of his own sanity.", "is_fresh": 1, "author": ["R.L. Shaffer"]},
{"text": "This is an extraordinary film. De Niro in the central role delivers one of those powerhouse performances that simply blows the audience away.", "is_fresh": 1, "author": ["Jennie Kermode"]},
{"text": "Melodramatic as it often is, the film is a riveting watch and De Niro provides a character study it is impossible to forget.", "is_fresh": 1, "author": ["Derek Malcolm"]},
{"text": "The bustling helter-skelter of Scorsese's Mean Streets gives way to a measured, chilly calm, and cinematographer Michael Chapman ensures the Big Apple glistens with barely concealed menace.", "is_fresh": 1, "author": ["John Ferguson"]},
{"text": "Bickle is complex, intriguing and never one-note.", "is_fresh": 1, "author": ["Dave Calhoun"]},
{"text": "Scorsese generates plenty of atmosphere. There's a gritty look and feel to the story that perfectly captures 1970s New York City.", "is_fresh": 1, "author": ["Scott Nash"]},
{"text": "Hitchcockian unease permeates the film, but so too does a Godardian use of space and a Bressonian focus on obsession heighten the mounting sense of dread. ", "is_fresh": 1, "author": ["Rob Humanick"]},
{"text": "Like Werner Herzog's Aguirre or Coppola's Apocalypse Now, Taxi Driver is auteurist psychodrama.", "is_fresh": 1, "author": ["J. Hoberman"]},
{"text": "Portrait of a very disturbed man; NOT for kids.", "is_fresh": 1, "author": ["David Gurney"]},
{"text": "... a portrait in psychosis and dislocation with a protagonist whose racism and intolerance becomes his excuse to unleash his anger in a violent spree under the guise of heroism.", "is_fresh": 1, "author": ["Sean Axmaker"]},
{"text": "Writer Paul Schrader and director Martin Scorsese made names for themselves with this exquisitely crafted window into the contemporary male psyche. Taxi Driver seems aimless, taking as many u-turns and detours as a cabby does in the night. But it's", "is_fresh": 1, "author": ["Radheyan Simonpillai"]},
{"text": "[Scorsese] seems to need scripts with well-designed humor and performers with the spirit of Ellen Burstyn to compensate for what seems to be a fundamentally depressed view of life and the belief that sobriety is the equivalent of seriousness.", "is_fresh": 0, "author": ["Richard Schickel"]},
{"text": "Martin Scorsese's masterly Taxi Driver both encapsulates and transcends its times.", "is_fresh": 1, "author": ["Philip French"]},
{"text": "If you haven't seen Taxi Driver, your education in film hasn't even begun.", "is_fresh": 1, "author": ["Richard Luck"]},
{"text": "Get in and take a nightmare ride on perhaps Scorsese's best picture, the story of Vietnam vet Travis Bickle's fight to win the woman of his dreams in the seedy Big Apple.", "is_fresh": 1, "author": ["Thomas Delapa"]},
{"text": "Acclaimed for its gritty realism, but it has an equal amount of cinematic reverie.", "is_fresh": 1, "author": ["Jeffrey M. Anderson"]},
{"text": "The blend of Schrader's script, Scorsese's direction and De Niro's performance is both riveting and unnerving. A film that will stay with you forever.", "is_fresh": 1, "author": []},
{"text": "A grimy film that perfectly reflects its grimy subject matter. Travis Bickle [is] one of film's most complex characters. When you talk about super heroes, he truly is one minus the tights and powers.", "is_fresh": 1, "author": ["Ryan Cracknell"]},
{"text": "Is Travis a hero or a monster? The question is never answered to any satisfying degree, and Herrmann's score makes sure of that by always playing up the counterpoint of a scene.", "is_fresh": 1, "author": ["Shay Casey"]},
{"text": "What a mad and brilliant film it is: 1,000-degree proof Seventies cinema.", "is_fresh": 1, "author": ["Peter Bradshaw"]},
{"text": "New York may have changed, but Taxi Driver is as powerful and painful as ever.", "is_fresh": 1, "author": ["Ben Walters"]},
{"text": "An utter masterwork of shifting tones and flowering angst.", "is_fresh": 1, "author": ["Phil Villarreal"]},
{"text": "Jarring urban psychological drama.", "is_fresh": 1, "author": ["Dennis Schwartz"]},
{"text": "Martin Scorsese's history-making scald is truly a phenomenon from another day and age. Which is to say, imagine a like-minded film of this decade killing at the box office and getting nommed for Best Picture.", "is_fresh": 1, "author": ["Michael Atkinson"]},
{"text": "A compelling and unsettling film exploring many of the fears, aches and dislocations of contemporary urban life", "is_fresh": 1, "author": ["Frederic and Mary Ann Brussat"]},
{"text": "Powerful drama and portrait of insanity.", "is_fresh": 1, "author": ["Fred Topel"]},
{"text": "A movie to educate us about life on darker sides of the soul, or steer us away from living that life. It draws us in with a conviction that makes us feel like we're living it.", "is_fresh": 1, "author": ["Ian Waldron-Mantgani"]},
{"text": "Scorcese's first masterpiece.", "is_fresh": 1, "author": ["Shannon J. Harvey"]},
{"text": "You may want to argue with Taxi Driver at the end, and with good reason, but it won't be a waste of time.", "is_fresh": 1, "author": ["Vincent Canby"]},
{"text": "Don't let the endless barrage of morons imitating the \"You talkin' to me?\" bit put you off.", "is_fresh": 1, "author": ["Luke Y. Thompson"]},
{"text": "De Niro is brilliant, but the film as a whole is less successful than its formidable reputation suggests", "is_fresh": 1, "author": ["Rob Vaux"]},
{"text": "Director Martin Scorsese's nightmare vision of Manhattan is important, impulsive work.", "is_fresh": 1, "author": ["James Rocchi"]},
{"text": "Taxi Driver is one of the best films ever made. Movies don't get any better than this.", "is_fresh": 1, "author": ["Kevin N. Laforest"]},
{"text": "Centering on De Niro, the Michael and Julia Phillips production mixes politics, prostitution and philosophy as a complex man attempts to combat the corruption he can no longer tolerate.", "is_fresh": 1, "author": []},
{"text": "There have been few films that have created and sustained the sense of constant, underlying dread that pervades every frame of Martin Scorsese's scorching urban masterpiece", "is_fresh": 1, "author": ["James Kendrick"]},
{"text": "A masterful psychological study, the depth of which can only fully be appreciated on repeat viewings.", "is_fresh": 1, "author": ["James Berardinelli"]},
{"text": "Perhaps the most formally ravishing-as well as the most morally and ideologically problematic-film ever directed by Martin Scorsese, the 1976 Taxi Driver remains a disturbing landmark for the kind of voluptuous doublethink it helped ratify.", "is_fresh": 1, "author": ["Jonathan Rosenbaum"]},
{"text": "Taxi Driver is a brilliant nightmare and like all nightmares it doesn't tell us half of what we want to know. ", "is_fresh": 1, "author": ["Roger Ebert"]},
{"text": "Since the mid-1970s, the movie has become presciently emblematic of our emotionally diseased, violence-prone culture.", "is_fresh": 1, "author": ["Desson Thomson"]},
{"text": "The thing I'm never sure about is whether Travis is actually psychotic, and Paul Schrader's script, Scorsese's direction, and De Niro's performance don't give us any easy answers.", "is_fresh": 1, "author": ["MaryAnn Johanson"]},
{"text": "Its themes of urban decay, anomie and violence which infuse the impending sense of doom at the heart of this film still hang like black clouds over many cities today.", "is_fresh": 1, "author": ["Dan Jardine"]},
{"text": "So much of this study of evil is brilliant.", "is_fresh": 1, "author": ["Steve Rhodes"]},
{"text": "An undeniably brilliant, nightmarish portrait of one man's personal hell.", "is_fresh": 1, "author": []},
{"text": "Taxi Driver (1976) is director Martin Scorsese's and screenwriter Paul Schrader's gritty, disturbing, nightmarish modern film classic that examines alienation", "is_fresh": 1, "author": ["Tim Dirks"]},
{"text": "One of the great ones", "is_fresh": 1, "author": ["John A. Nesbit"]},
{"text": "Its brilliant performances and haunting final Bernard Herrmann score assist in making this classic about as perfect as a movie can be.", "is_fresh": 1, "author": ["Marjorie Baumgarten"]},
{"text": "It is a brilliant, bloody movie with a haunting portrayal of urban life, and is arguably one of the top 10 movies ever made.", "is_fresh": 1, "author": ["Matt Easterbrook"]},
{"text": "For film buffs and those wondering what all the fuss is about, Taxi Driver remains a singular experience.", "is_fresh": 1, "author": ["Chris Hicks"]},
{"text": "Probably did for cab drivers what Psycho did for showers.", "is_fresh": 1, "author": ["Christopher Null"]},
{"text": "The heart and soul of Taxi Driver are twisted in a way that can't be faked or copied.", "is_fresh": 1, "author": ["Mick LaSalle"]},
{"text": "In a brilliant touch, Scorsese uses Bickle's voice-over narration, his continual talking to himself, as a symptom of emotional isolation and mental deterioration rather than for the usual exposition of or commentary on a story.", "is_fresh": 1, "author": ["Bob Stephens"]},
{"text": "The symbolism used by Scorsese, the extremely effective acting by Robert DeNiro, and the superb writing by Paul Schrader, turn this movie into a cinematic adventure of many layers.", "is_fresh": 1, "author": ["JoBlo"]},
{"text": "But despite anything, [the] average viewer at the end actually cheers for Travis.", "is_fresh": 1, "author": ["Dragan Antulov"]},
{"text": "", "is_fresh": 1, "author": ["Philip Martin"]},
{"text": "", "is_fresh": 1, "author": ["Andy Klein"]},
{"text": "", "is_fresh": 1, "author": ["Rebecca Murray"]},
{"text": "", "is_fresh": 1, "author": ["Jeffrey Westhoff"]},
{"text": "", "is_fresh": 1, "author": ["Scott Weinberg"]}
]