[
{"reviews_count": "108", "title": "The Replacements", "avg_audience_rating": "3.1", "rotten_count": "64", "tomatometer": "41", "audience_score": "66", "avg_critic_rating": "  5", "fresh_count": "44", "user_ratings_count": "159,708"},
{"text": "There isn't a football cliche \"The Replacements\" doesn't tackle, but its all-star cast and easygoing approach make it one of the more enjoyable recent sports comedies. ", "is_fresh": 1, "author": ["Jeffrey Lyles"]},
{"text": "average lighthearted entertainment ... to be queued up more than normal in the coming months with a potential NFL lockout and strike looming", "is_fresh": 0, "author": ["John A. Nesbit"]},
{"text": "Lightweight but likeable football story.", "is_fresh": 1, "author": ["Nell Minow"]},
{"text": "At least the ending doesn't cop out. There is no big happy ending where everyone gets a pro football gig or a big Nike ad campaign.", "is_fresh": 0, "author": ["Brian Mckay"]},
{"text": "Football flick has a great lineup, but fumbles the ball.", "is_fresh": 0, "author": ["James Rocchi"]},
{"text": "The Replacements is a bad movie, but a likable one.", "is_fresh": 1, "author": ["Jeffrey Westhoff"]},
{"text": "Wearing the same blank expression that's become his trademark, Reeves proves that after 15 years in movies he still can't deliver a joke.", "is_fresh": 0, "author": ["James Sanford"]},
{"text": "...what we have here is your basic feelgood comedy about scabs..", "is_fresh": 0, "author": ["Prairie Miller"]},
{"text": "There isn't a single bone of originality in its entire 110-minute running time, yet it just almost works out of sheer force of will.", "is_fresh": 0, "author": ["James Kendrick"]},
{"text": "This negligible comedy might as well come with a bouncing ball so members of the audience can recite the dialogue along with the actors.", "is_fresh": 0, "author": ["Elvis Mitchell"]},
{"text": "There are good sports movies, indifferent sports movies, and bad sports movies. The Replacements in nestled somewhere between the latter two.", "is_fresh": 0, "author": ["James Berardinelli"]},
{"text": "It's like a standard sports movie, but with every point made twice or three times -- as if we'd never seen one before.", "is_fresh": 0, "author": ["Roger Ebert"]},
{"text": "The Replacements, as with just about everything else coming out of Hollywood, merely reconfigures the same predictable gross-out jokes, sentimental platitudes, and decorative sex that figure into half the screenplays in circulation.", "is_fresh": 0, "author": ["Tom Keogh"]},
{"text": "It's a puppy-dog of a movie: not worth much, but at times quite amusing and always trying its darnedest to please you.", "is_fresh": 0, "author": ["Eric D. Snider"]},
{"text": "Plenty of smartly-choreographed gridiron drama, as well locker-room laughs.", "is_fresh": 1, "author": []},
{"text": "The incisive, close up photography by The Sixth Sense's Tak Fujimoto outclasses the story by yards.", "is_fresh": 0, "author": ["Lisa Schwarzbaum"]},
{"text": "The football games are a hoot.", "is_fresh": 1, "author": ["Nell Minow"]},
{"text": "I could've sworn I'd seen Keanu Reeves running around in a football helmet before, but I couldn't find the film on his resume.", "is_fresh": 0, "author": ["David N. Butterworth"]},
{"text": "For a movie as predictable as The Replacements, it offers an astonishingly funny, well crafted story line capturing the visceral pounding of football.", "is_fresh": 1, "author": ["Cornell & Petricelli"]},
{"text": "A deep sea of clich\u00e9s and stereotypes.", "is_fresh": 0, "author": ["Cynthia Fuchs"]},
{"text": "A good, solid field goal of a film.", "is_fresh": 1, "author": ["Frank Swietek"]},
{"text": "Comes off like an amateur production.", "is_fresh": 0, "author": ["Jim Judy"]},
{"text": "Despite a cliched set-up, a politically incorrect position on a labor dispute and predictable action on the playing field, it comes out a winner.", "is_fresh": 1, "author": ["Jack Garner"]},
{"text": "Reeves shows as much emotion as a baked potato.", "is_fresh": 0, "author": ["Jon Popick"]},
{"text": "The Replacements tries to set some kind of record for regurgitating sports movie cliches faster than any film that's run before.", "is_fresh": 0, "author": ["Bob Strauss"]},
{"text": "Better-than-average.", "is_fresh": 1, "author": ["Susan Stark"]},
{"text": "You won't take much home with you, but it's fun while it lasts.", "is_fresh": 1, "author": ["Robert W. Butler"]},
{"text": "Plenty of red meat here but also so much script rot that both ought to be recalled by the FDA.", "is_fresh": 0, "author": ["Mike Clark"]},
{"text": "A soggy comedy.", "is_fresh": 0, "author": ["Mark Caro"]},
{"text": "A barely coherent comedy.", "is_fresh": 0, "author": ["Paul Tatara"]},
{"text": "A hokey mistake of a football film.", "is_fresh": 0, "author": ["Max Messier"]},
{"text": "The Replacements deserves replacement as quickly as possible.", "is_fresh": 0, "author": ["David Sterritt"]},
{"text": "It is a giggle here at the testosterone posturing, and a chuckle there at the goofy cheerleader tryouts.", "is_fresh": 0, "author": ["Jonathan Lewis"]},
{"text": "A winner in its self-proclaimed minor league.", "is_fresh": 1, "author": ["Doris Toumarkine"]},
{"text": "The jokes are fusty and/or unpleasant.", "is_fresh": 0, "author": ["Bill Chambers"]},
{"text": "Just like a low-budget football comedy, only with money.", "is_fresh": 0, "author": ["Mick LaSalle"]},
{"text": "How do you respect a film whose idea of Jock Jam is I Will Survive?", "is_fresh": 0, "author": ["Wesley Morris"]},
{"text": "Entirely predictable but utterly entertaining.", "is_fresh": 1, "author": ["Rob Blackwelder"]},
{"text": "Director Howard Deutch drops the ball, trying to pass off a derivative hodgepodge of clich\u00e9s as escapist entertainment.", "is_fresh": 0, "author": ["Tor Thorsen"]},
{"text": "This film works.", "is_fresh": 1, "author": ["JoBlo"]},
{"text": "A shabby patchwork of a film, one that lip-synchs it's way through an old and timeworn situation without any attempt to add something new or interesting.", "is_fresh": 0, "author": ["Bob Aulert"]},
{"text": "The replacement players are having a blast with their brief moment on the stage, and we are vicariously enjoying it with them.", "is_fresh": 1, "author": ["Steve Rhodes"]},
{"text": "Settles for mere fluff when a solid sports film could feature all the bone-crushing body crunches while still investigating real issues.", "is_fresh": 0, "author": ["Harvey S. Karten"]},
{"text": "The film is a smooth and polished product.", "is_fresh": 1, "author": ["Kirk Honeycutt"]},
{"text": "A frankly formulaic but agreeably funny comedy.", "is_fresh": 1, "author": ["Joe Leydon"]},
{"text": "It's as American as apple pie.", "is_fresh": 1, "author": ["Chuck Rudolph"]},
{"text": "A pretty anemic piece of work.", "is_fresh": 0, "author": ["Edward Johnson-Ott"]},
{"text": "It's just plain good fun, good solid dialogue peppered with plenty of grins, and a lot of football action.", "is_fresh": 1, "author": ["Ross Anthony"]},
{"text": "While there's plenty in this movie that's mildly funny, The Replacements is nothing more than a high school romp.", "is_fresh": 0, "author": ["Bob Longino"]},
{"text": "Has no real surprises, but the audience has fun.", "is_fresh": 1, "author": ["Philip Wuntch"]},
{"text": "A haphazard film about half as sophisticated as the average beer commercial.", "is_fresh": 0, "author": ["Kenneth Turan"]},
{"text": "An agreeably and unapologetically lightweight late-summer blockbuster.", "is_fresh": 1, "author": ["Lawrence Terenzi"]},
{"text": "You will watch this movie and find it so familiar, you'll think you wrote it.", "is_fresh": 0, "author": ["Robert Wilonsky"]},
{"text": "Hardly a landmark in the annals of pigskin cinema. But for sports fans seeking relief from a lackluster summer of baseball, even this sloppy exercise can evoke a needed chuckle or two.", "is_fresh": 1, "author": ["George Meyer"]},
{"text": "Recycled humor -- and recycled heart -- from a host of former sports dramedies dating back to The Bad News Bears.", "is_fresh": 0, "author": ["Laura Kelly"]},
{"text": "A field goal, not a touchdown.", "is_fresh": 0, "author": ["Michael O'Sullivan"]},
{"text": "The setting of The Replacements is professional football but its intellectual context is high school.", "is_fresh": 0, "author": ["Jeffrey Huston"]},
{"text": "What could have been a good football comedy doesn't even meet the level of personal fave 'Wildcats', or even the more recent 'Varsity Blues'.", "is_fresh": 0, "author": ["Widgett Walls"]},
{"text": "For a movie with no surprises in it, The Replacements manages to be a fun experience.", "is_fresh": 1, "author": ["Gary Dowell"]},
{"text": "So thick with cliches that it's almost suffocating.", "is_fresh": 0, "author": ["Dave Kehr"]},
{"text": "The game scenes have little coherence or momentum.", "is_fresh": 0, "author": ["Duane Dudek"]},
{"text": "Achieving the dull veneer of your standard TV movie shot on the backlots of Burbank, The Replacements lets Hackman work at about one-fourth his talent level. That still gives him a big lead over Reeves.", "is_fresh": 0, "author": ["David Elliott"]},
{"text": "Mind-achingly mediocre in every regard.", "is_fresh": 0, "author": ["J. Rentilly"]},
{"text": "There isn't a Rocky-esque clich\u00e9 the film doesn't tackle, throw gasping to the ground and flog to death.", "is_fresh": 0, "author": ["Steve Simels"]},
{"text": "It's kind of predictable, but the acting is good and McKewin's script is a hoot.", "is_fresh": 1, "author": ["Eric Lurio"]},
{"text": "A new low in the career of director Howard Deutch.", "is_fresh": 0, "author": ["Andrew O'Hehir"]},
{"text": "One of the most enjoyable entertainments of the summer.", "is_fresh": 1, "author": ["Jonathan Foreman"]},
{"text": "Often entertaining despite itself, thanks mostly to a screenful of surprisingly engaging performances.", "is_fresh": 1, "author": ["Jay Carr"]},
{"text": "Seems longer than a rainy Super Bowl.", "is_fresh": 0, "author": ["Lawrence Toppman"]},
{"text": "I dare you not to enjoy it.", "is_fresh": 1, "author": ["Terry Lawson"]},
{"text": "The games, while plenty rowdy and profane, aren't very realistic.", "is_fresh": 0, "author": ["Glenn Lovell"]},
{"text": "The Replacements doesn't amount to much, but it's hard not to feel rather fond of it.", "is_fresh": 1, "author": ["Mary F. Pols"]},
{"text": "Silly, diverting.", "is_fresh": 1, "author": ["Carrie Rickey"]},
{"text": "The Replacements does have its moments. There just aren't enough of them.", "is_fresh": 0, "author": ["Rene Rodriguez"]},
{"text": "The joke about the cheerleaders recruited from a strip club is funny at first but gets musty the ninth time it's repeated.", "is_fresh": 0, "author": ["Chris Hewitt (St. Paul)"]},
{"text": "An engaging cast makes the the comic scenes work.", "is_fresh": 1, "author": ["Gary Thompson"]},
{"text": "Relentlessly mediocre.", "is_fresh": 0, "author": ["Robert Koehler"]},
{"text": "Utilizing state-of-the-art methods in the science of statistics, I have determined there will be virtually no audience for The Replacements.", "is_fresh": 0, "author": ["Randall King"]},
{"text": "Don't be fooled. The movie is bad -- very, very bad.", "is_fresh": 0, "author": ["Eric Harrison"]},
{"text": "You can write the script yourself, just think nursery school. Then simplify.", "is_fresh": 0, "author": ["Jan Stuart"]},
{"text": "An entertaining game, but strictly minor league.", "is_fresh": 0, "author": ["Sean Axmaker"]},
{"text": "The epitome of predictable.", "is_fresh": 0, "author": ["Chris Cobb"]},
{"text": "It's hard not to cheer for a film so confident it can win the day with a third-rate script and The Matrix's fascinatingly untalented Keanu Reeves leading the team.", "is_fresh": 1, "author": ["Michael Tunison"]},
{"text": "The Replacements is pretty good when it sticks to comedy. Unfortunately, it doesn't.", "is_fresh": 0, "author": ["Steven Rosen"]},
{"text": "A retread of an oft-used Hollywood plot.", "is_fresh": 0, "author": ["Nekesa Mumbi Moody"]},
{"text": "Is dang near the worst picture in Hackman's lengthy -- and fairly spotty -- resume.", "is_fresh": 0, "author": ["Shawn Levy"]},
{"text": "Surprisingly likable.", "is_fresh": 1, "author": ["Jay Boyar"]},
{"text": "A real crowd pleaser in spite of being as predictable as a modern-day national political convention.", "is_fresh": 1, "author": ["Donald Munro"]},
{"text": "It's almost entirely indistinguishable from every other sports movie ever made.", "is_fresh": 0, "author": ["Shay Casey"]},
{"text": "Howard Deutch keeps this archetypal Hollywood movie humming along with predictable comic bits and the antics of its colorful characters.", "is_fresh": 1, "author": ["Frederic and Mary Ann Brussat"]},
{"text": "There's nothing to distinguish it from the pack of sports comedies and feel-good underdog stories.", "is_fresh": 0, "author": ["Michael Dequina"]},
{"text": "", "is_fresh": 1, "author": []},
{"text": "", "is_fresh": 0, "author": ["Bob Grimm"]},
{"text": "", "is_fresh": 1, "author": []},
{"text": "", "is_fresh": 1, "author": ["Jeanne Aufmuth"]},
{"text": "", "is_fresh": 1, "author": ["Kimberley Jones"]},
{"text": "", "is_fresh": 1, "author": ["John R. McEwen"]},
{"text": "", "is_fresh": 1, "author": []},
{"text": "", "is_fresh": 0, "author": []},
{"text": "", "is_fresh": 1, "author": ["Peter Travers"]},
{"text": "", "is_fresh": 0, "author": ["Joel Siegel"]},
{"text": "", "is_fresh": 1, "author": ["Robert Roten"]},
{"text": "", "is_fresh": 1, "author": ["Ryan Cracknell"]},
{"text": "", "is_fresh": 1, "author": ["Matt Easterbrook"]},
{"text": "", "is_fresh": 1, "author": ["James Verniere"]},
{"text": "", "is_fresh": 0, "author": ["Robert Denerstein"]},
{"text": "", "is_fresh": 0, "author": ["Scott Renshaw"]},
{"text": "", "is_fresh": 0, "author": ["Bob Bloom"]}
]