[
{"reviews_count": "213", "title": "The Curse Of The Black Pearl", "avg_audience_rating": "3.9", "rotten_count": "45", "tomatometer": "79", "audience_score": "86", "avg_critic_rating": "7.1", "fresh_count": "168", "user_ratings_count": "33,125,449"},
{"text": "It plays long but it all works because everyone has so much fun. ", "is_fresh": 1, "author": ["Joel Siegel"]},
{"text": "Less Douglas Fairbanks than an aquatic Artful Dodger gone to seed, he's a high seas con man with a heart of tarnished stolen gold.", "is_fresh": 1, "author": ["Sean Axmaker"]},
{"text": "One of a handful of legitimately bold, original summer tentpoles of the 2000s.", "is_fresh": 1, "author": ["Tim Brayton"]},
{"text": "Rip-roaring fun for kids who don't mind skeletons.", "is_fresh": 1, "author": ["Nell Minow"]},
{"text": "Entertaining, exciting, and engrossing with a genuine feel of adventure along with excellent performances...", "is_fresh": 1, "author": ["Felix Vasquez Jr."]},
{"text": "Were it not for Johnny Depp's crassly reassured character creation of scoundrel pirate Captain Jack Sparrow, there would be nothing to relish in this overlong and witless waste of celluloid based on a Disneyland ride.", "is_fresh": 0, "author": ["Cole Smithey"]},
{"text": "It's just a lot of fun.", "is_fresh": 1, "author": ["Urban Cinefile Critics"]},
{"text": "one of the all time greatest adventure flicks", "is_fresh": 1, "author": ["Stefan Birgir Stefansson"]},
{"text": "Here -- in a Jerry Bruckheimer-produced high-seas adventure that incorporates roaring cannons, oddball comedy, a love story and more than a touch of the supernatural -- Depp unleashes his theatrical bravado. He's hilarious.", "is_fresh": 1, "author": ["David Ansen"]},
{"text": "Oops, there I go again talking about Johnny Depp. Get used to that. He's all you'll remember from the movie.", "is_fresh": 0, "author": ["Joe Lozito"]},
{"text": "The whole feature film is one giant ride -- which considering its origins is perhaps to be expected. ... Depp gives his loosest and looniest performance yet -- and it is spectacular.", "is_fresh": 1, "author": ["Ted Murphy"]},
{"text": "Depp invests this overfed, action-tractioned swashbuckler with a voluptuous wit and spry spontaneity it surely doesn't deserve.", "is_fresh": 1, "author": []},
{"text": "Pirates of the Caribbean is exactly what you look for in a summer blockbuster, all while delivering a much-needed overhaul to the classic pirate flicks of the golden years.", "is_fresh": 1, "author": ["Jason Zingale"]},
{"text": "Depp's highly strange, oddly magnetic, and irresistibly entertaining performance energizes the overextended, two-hour-plus proceedings.", "is_fresh": 1, "author": ["Michael Dequina"]},
{"text": "It echoes the ambition, mischief, boyish glee, and whimsical wit of 80s adventure films like Raiders of the Lost Ark, Gremlins, The Goonies, and The Princess Bride....", "is_fresh": 1, "author": ["Jeffrey Overstreet"]},
{"text": "If you think the title is long, wait until you see the movie.", "is_fresh": 0, "author": ["Tony Medley"]},
{"text": "Tthe real surprise here is how strong the writing holds up.", "is_fresh": 1, "author": ["Mark Sells"]},
{"text": "Comes close to recreating some of the bigger-than-life wonder that we experience at the movies in our childhood. Depp is a fey, hilarious wonder.", "is_fresh": 1, "author": ["Jake Euker"]},
{"text": "May cause you to sing \"Yo, ho-ho and a bottle of rum\" and shout phrases such as \"Tie the scurvy dogs to the yardarm\" just for the fun of it.", "is_fresh": 1, "author": ["Judith Egerton"]},
{"text": "It's a rare thing when I come out of a movie theater these days saying the words, 'Geez, I hope they do a sequel to this thing.'", "is_fresh": 1, "author": ["Oz"]},
{"text": "Depp is wonderful here, and Sparrrow is the best creation of the movie year.", "is_fresh": 1, "author": ["Austin O'Connor"]},
{"text": "...Full of colorful visuals, amazing special effects, and plenty of silly fun for the whole family.", "is_fresh": 1, "author": ["John R. McEwen"]},
{"text": "Both kids and adults will thoroughly enjoy this movie. It's a lot of fun and well worth checking out. I highly recommend checking it out on the big screen.", "is_fresh": 1, "author": ["Scott Chitwood"]},
{"text": "And so we leave the cinema happy, our heads full of Gareth and gangsters-at-sea. Context, of course, is all.", "is_fresh": 1, "author": ["Charlotte O'Sullivan"]},
{"text": "Johnny Depp takes a big chance in an over the top performance that could just as easily have turned into a bad joke as a larger than life character.", "is_fresh": 1, "author": ["Daniel M. Kimmel"]},
{"text": "More fun than a tankard of grog and a flashpacket sittin' on yer lap.", "is_fresh": 1, "author": ["Terri Clark"]},
{"text": "Villains, heroes, scalawags, and ghosts, skeletons, daring rescues, audacious escapes, and treasure aplenty.", "is_fresh": 1, "author": ["John J. Puccio"]},
{"text": "Pirates of the Caribbean is an entertaining, swashbuckling adventure that will leave audiences wanting a sequel.", "is_fresh": 1, "author": ["Wesley Lovell"]},
{"text": "Johnny Depp's roguish Jack Sparrow is every bit as unforgettable as his squeamish Ichabod Crane in 'Sleepy Hollow.'", "is_fresh": 1, "author": ["Betty Jo Tucker"]},
{"text": "This rousing adventure starring Johnny Depp, Geoffrey Rush and Orlando Bloom gets off to a slow start, but for summer entertainment this year you won't find a better film.", "is_fresh": 1, "author": ["David Foucher"]},
{"text": "I was transported back to my childhood watching this movie. I honestly felt like a kid again.", "is_fresh": 1, "author": ["Matt Easterbrook"]},
{"text": "'Es la m\u00e1s grata sorpresa de un verano f\u00edlmico lleno de secuelas bastante mediocres'", "is_fresh": 1, "author": ["Jorge Avila Andrade"]},
{"text": "Johnny, the kids and the pirates have a number-one hit on their hands. They raise the Jolly Roger and make other summer blockbusters walk the plank.", "is_fresh": 1, "author": ["Alan Morrison"]},
{"text": ". A giddily goofy bit of old-fashioned nonsense that literally puts the curse back on the pirates themselves. You'll have a barrel of fun. .", "is_fresh": 1, "author": ["Shannon J. Harvey"]},
{"text": "It epitomizes exactly the sort of empty professionalism that Spielberg gets wrongly accused of.", "is_fresh": 0, "author": ["Mark Palermo"]},
{"text": "It turns out to be slow and somewhat dull, as if it's trying to be something other than a good ride.", "is_fresh": 0, "author": ["Paul Byrnes"]},
{"text": "...a jolly roger rollercoaster of fun.", "is_fresh": 1, "author": ["Elias Savada"]},
{"text": "Depp merece ser indicado ao Oscar por sua performance - afinal, interpretar um matem\u00e1tico esquizofr\u00eanico ou um policial corrupto dificilmente envolve tantos riscos quanto o de viver um pirata como Jack Sparrow.", "is_fresh": 1, "author": ["Pablo Villa\u00e7a"]},
{"text": "It's just plain insulting to the whole art of creativity to work backwards from a theme park ride to a movie.", "is_fresh": 1, "author": ["Luanne Brown"]},
{"text": "... a superior concept that incorporated all the key elements that made the attraction successful... a new franchise for Disney for sequels that won't have to be direct-to-video.", "is_fresh": 1, "author": ["Kevin A. Ranson"]},
{"text": "without Depp, this film could easily have been called 'The Curse of the Black Pearl Harbor'", "is_fresh": 1, "author": ["Jim Chastain"]},
{"text": "Flynn and Fairbanks would be very, very proud.", "is_fresh": 1, "author": ["Harry Guerin"]},
{"text": "Clocking in at a shockingly long two and a half hours, this campy Evil Dead homage from director Gore Verbinski is nonetheless giddy fun.", "is_fresh": 1, "author": ["Rachel Deahl"]},
{"text": "Yo ho ho-hum, the ride was better, and shorter. The two main stars of the film are some fantastic visuals and Johnny Depp's performance (which is the saving grace many times over).", "is_fresh": 0, "author": ["Brian Mckay"]},
{"text": "And shiver me timbers, it works. Not just Depp's crazy voice and Keith Richard-inspired ponce-foonery, but the whole shenanigan.", "is_fresh": 1, "author": ["Annette Dasey"]},
{"text": "Before becoming a standard exercise in wearing out welcomes, Gore Verbinski's adventure comedy brings good spirits and narrative vigor to its chore of refurbishing the pirate genre.", "is_fresh": 1, "author": ["Chris Fujiwara"]},
{"text": "Although too good to toss aside, Pirates is as formulaic a movie as you're likely to see this year.", "is_fresh": 1, "author": ["Forrest Hartman"]},
{"text": "Buries its treasures -- mainly Johnny Depp in eye shadow and dreads as Captain Jack Sparrow -- in briny clich\u00e9s.", "is_fresh": 0, "author": ["Peter Travers"]},
{"text": "the best corporate-produced blockbuster to emerge this summer", "is_fresh": 1, "author": ["James Kendrick"]},
{"text": "Not a sunken wreck by any means. At the same time, not quite summer movie treasure.", "is_fresh": 0, "author": ["Rick Kisonak"]},
{"text": "It's never a good sign when source material is based off of something as flimsy as a theme park thrill ride, but Pirates of the Caribbean works on many cylinders.", "is_fresh": 1, "author": ["David Keyes"]},
{"text": "[Pirates] might not have a single defining moment of wonderment...[but] it does as a whole tap into the same sensibilities that make you wish you were there.", "is_fresh": 1, "author": ["Ryan Cracknell"]},
{"text": "Johnny Depp rules the roost, and the mainsails, the masts, the bilge, the seas and all challenges on land. ...rascally good fun and an entertainment level Disney can bank on.", "is_fresh": 1, "author": ["Jules Brenner"]},
{"text": "There is a grand, old-fashioned sense of matinee serial wonderment in their writing that is quite invigorating, the movie coming alive time and time again thanks to their rich and hearty dialogue.", "is_fresh": 1, "author": ["Sara Michelle Fetters"]},
{"text": "Although aside from the sheer novelty of the pirates, the movie is mediocre.", "is_fresh": 0, "author": ["Jean Lowerison"]},
{"text": "Wonderful swashbuckling adventure that delivers everything you could possibly want from a pirate movie, plus a little more besides -- jaw-dropping special effects, a superb script and a show-stealing performance from Johnny Depp.", "is_fresh": 1, "author": ["Matthew Turner"]},
{"text": "Pirates reminds me of a vintage MGM musical, a movie that is more choreographed than directed, and one that serves up good clean fun of the PG-13 variety.", "is_fresh": 1, "author": ["Andrew Sarris"]},
{"text": "Johnny Depp plays Jack Sparrow as if Errol Flynn were pretending to be Keith Richards.", "is_fresh": 1, "author": ["Stephen Himes"]},
{"text": "Disney's \"Pirates of the Caribbean\" is a rousing action/adventure yarn highlighted by another truly eccentric performance by Johnny Depp.", "is_fresh": 1, "author": ["David N. Butterworth"]},
{"text": "The result is something that, to use an analogy here, is like the more outgoing but less thoughtful younger brother of 1998's swashbuckler The Mask of Zorro.", "is_fresh": 1, "author": ["Garth Franklin"]},
{"text": "The most remarkable thing about Pirates of the Caribbean is neither Johnny Depp's mesmerizing performance, nor ILM's literally eye-popping skeletal ghost-ship crew, but the sheer fact that the movie works at all.", "is_fresh": 1, "author": ["Steven D. Greydanus"]},
{"text": "With prissy swagger and loveable bravado, Depp's a pirate captain who steals your heart.", "is_fresh": 1, "author": ["Steve Rhodes"]},
{"text": "Isn't it about time us adults had our own big, explosively dumb, blustery adventure? If I ain't hearing \"Aye, matey, I'm on-board,\" than stay home and re-watch your arty Citizen Kane, ya boring spoilsport!", "is_fresh": 1, "author": ["Mike Sage"]},
{"text": "Buckles swashes, shivers timbers and battens down hatches the way summertime adventures ought to, and its interminable storyline is made up for by its juicy performances.", "is_fresh": 1, "author": ["Eric D. Snider"]},
{"text": "At, say, 85 minutes, this would have been a jolly little swashbuckler, but at 143 it turns into an unholy trial.", "is_fresh": 0, "author": ["David Edelstein"]},
{"text": "An awkward pirate epic that's jampacked with energy, ambition and spectacular effects.", "is_fresh": 1, "author": ["Stephanie Zacharek"]},
{"text": "This is a superb swashbuckler -- rousing, funny and spectacular.", "is_fresh": 1, "author": ["Nev Pierce"]},
{"text": "Who says they don't make full-on swashbucklers anymore?", "is_fresh": 1, "author": ["Rich Cline"]},
{"text": "This film has enough wit, action scenes, horror moments, and dazzling special effects and fight scenes that would place it amongst the best Pirate films ever. Not to mention one of funniest performances given by Johnny Depp. ", "is_fresh": 1, "author": ["Wilson Morales"]},
{"text": "An exciting time at the movies.", "is_fresh": 1, "author": ["Rory L. Aronsky"]},
{"text": "Pirates of the Caribbean is a return to the high seas a la the great adventures of Errol Flynn and Douglas Fairbanks.", "is_fresh": 1, "author": ["Mark Sells"]},
{"text": "Had Pirates of the Caribbean: The Curse of the Black Pearl no other attributes, the sheer spectacle of Depp would be worth the cost of admission, but shockingly, his cheeky performance is just one bit of a booty bursting with goodies.", "is_fresh": 1, "author": ["Kimberley Jones"]},
{"text": "Pirates of the Caribbean blends its 18th-century look with impressive 21st-century visual effects.", "is_fresh": 1, "author": ["Kevin Lally"]},
{"text": "If you've often seen this type of summer fare, you might find this movie tedious", "is_fresh": 0, "author": ["Marty Mapes"]},
{"text": "Pirate adventure is a ridiculously entertaining romp thanks to Johnny Depp's scene-stealing scallywag and Gore Verbinski's directorial hand.", "is_fresh": 1, "author": ["James Rocchi"]},
{"text": "Pirates packs great sword fights, incredible stunts, piratical doings, a curse, romance, a parrot and a cunningly evil monkey. I can't think of any reason not to see this movie.", "is_fresh": 1, "author": ["Ken Hanke"]},
{"text": "It feels like a cross between Errol Flynn and Monty Python.", "is_fresh": 1, "author": ["Josh Gilchrist"]},
{"text": "Johnny Depp puts the \"swish\" back into swishbuckler", "is_fresh": 1, "author": ["Dan Jardine"]},
{"text": "Gore Verbinski's ship is full of great fun and terrific images even if Jerry tries to make it into a Pearl Harbor mess with a way-over lenght and goofy side characters.", "is_fresh": 1, "author": ["Jimmy O"]},
{"text": "Same old, same old", "is_fresh": 0, "author": ["Boo Allen"]},
{"text": "Pirates is one of the most outrageous, goofy, giddy, hilarious juggling acts I've witnessed in a movie theater in a long, long time. Plus? It's smart.", "is_fresh": 1, "author": ["Ray Pride"]},
{"text": "This movie is far too long.", "is_fresh": 0, "author": ["Richard Roeper"]},
{"text": "Depp's scoundrel Jack Sparrow exudes a grungy, flippantly kooked-out pansexuality, making Pirates the most flat-out fun summer movie of its ilk.", "is_fresh": 1, "author": ["Brent Simon"]},
{"text": "[Depp has] the air of someone who's decided reality is just a bit too much of a chore, he verges on camp and sometimes blithely surrenders to it altogether.", "is_fresh": 1, "author": ["Andrea Chase"]},
{"text": "Although most of the film feels flat, Johnny Depp's performance is the most spectacular special effect I've seen on a movie screen this summer.", "is_fresh": 1, "author": ["Blake Davis"]},
{"text": "\"If a movie based on a ride can be this great, I can't wait for Log Flume: The Movie or Motion Simulator WITH A VENGEANCE.\"", "is_fresh": 1, "author": ["Fred Topel"]},
{"text": "A bit overlong and quite bloody for a brainless action movie, but it is generally fun to watch.", "is_fresh": 1, "author": ["Robert Roten"]},
{"text": "It's not so much the minor flaws as it is the fact that Pirates of the Caribbean just wasn't enough fun for me.", "is_fresh": 0, "author": ["Mike McGranaghan"]},
{"text": "AAaarrrghh-uably one of the summer's best!", "is_fresh": 1, "author": ["Linda Cook"]},
{"text": "Fun -- pure and simple.", "is_fresh": 1, "author": ["Mark Dujsik"]},
{"text": "The last time a Hollywood leading man wore this much mascara, it resulted in an Academy Award for Best Actor.", "is_fresh": 1, "author": ["Richard Horgan"]},
{"text": "Surprisingly enjoyable swashbuckling, rope-swinging, plank-walking, yard-arm-spinning, rum-drinking, double-crossing, colorful sidekicks, and all-around yo-ho-ho-ing.", "is_fresh": 1, "author": ["Nell Minow"]},
{"text": "It's something we've been lacking at the cinema for a while now: pure fun.", "is_fresh": 1, "author": ["Widgett Walls"]},
{"text": "Gore Verbinski's direction seems to sway whichever possible way will get the most reaction at any given moment. It's a movie of whim,...[a] hit-or-miss dartboard variety of whatever goes, goes.", "is_fresh": 0, "author": ["Greg Muskewitz"]},
{"text": "Pirates steams ahead on a mirthless course of script beats and busy action sequences, coldly steered by director Gore Verbinski to the boom-blast-blare coordinates of producing commodore Jerry Bruckheimer.", "is_fresh": 0, "author": ["Lisa Schwarzbaum"]},
{"text": "Isn't so much a pirate movie as it is the idea of a pirate movie.", "is_fresh": 0, "author": ["Michael O'Sullivan"]},
{"text": "The only special effect Pirates of the Caribbean needed was the eyeliner beneath the unsteady eyes of Johnny Depp.", "is_fresh": 1, "author": ["Arthur Salm"]},
{"text": "While certainly not a bad film, Pirates of the Caribbean: The Curse of the Black Pearl nonetheless rates as somewhat of a disappointment, given the talent involved.", "is_fresh": 0, "author": ["Timothy Knight"]},
{"text": "A film that dares to be smart, reasonably complicated and scary while swashing its buckles.", "is_fresh": 1, "author": ["Lawrence Toppman"]},
{"text": "Depp casts a spell every bit as powerful as any demonic bullion.", "is_fresh": 1, "author": ["Christine James"]},
{"text": "Certainly, Pirates has its moments. But it's definitely no 'E' ticket.", "is_fresh": 0, "author": ["Bill Muller"]},
{"text": "'The Haunted Mansion' with Eddie Murphy is scheduled for Thanksgiving. No word yet about possible movies based on the Enchanted Tiki Room or the spinnning teacups...", "is_fresh": 0, "author": ["John Beifuss"]},
{"text": "I enjoyed Pirates of the Caribbean enough to recommend it but there are a couple of serious flaws with it that should be addressed.", "is_fresh": 1, "author": ["Peter Sobczynski"]},
{"text": "We find a few unexpected treasures mildewing away in Jerry Bruckheimer's chest of slimy old clich\u00e9s: a script that occasionally borders on cleverness, a winningly sleazy performance by Johnny Depp and a considerable sense of style from Gore Verbinski.", "is_fresh": 1, "author": ["Jonathan R. Perry"]},
{"text": "has the feel of a great Saturday matinee: It's almost all 'good parts,' with very few opportunities for expeditions to the concession stand.", "is_fresh": 1, "author": ["James Sanford"]},
{"text": "Spooky, atmospheric direction and a colorful turn by Depp clash with the dumbed-down storyline and veritable booty of pirate cliches.", "is_fresh": 0, "author": ["Tyler Hanley"]},
{"text": "An overstated, unashamedly silly summer adventure.", "is_fresh": 0, "author": ["Robert Denerstein"]},
{"text": "An overly long adventure that, with some tinkering and editing, could have been more akin to such classics as The Crimson Pirate rather than just a reminder that they exist.", "is_fresh": 0, "author": ["Mark Halverson"]},
{"text": "Not only wildly surpasses its poor expectations, but also stands tall as one of the very best summer movies of all time.", "is_fresh": 1, "author": ["Jeffrey M. Anderson"]},
{"text": "The movie is marvelously filmed with visual touches recalling fantasy specialists Terry Gilliam and Ray Harryhausen, among others.", "is_fresh": 1, "author": ["David Sterritt"]},
{"text": "Pirates of the Caribbean is surprisingly good but it probably would not have been half as entertaining if it were not for Johnny Depp's commanding performance as Captain Jack Sparrow.", "is_fresh": 1, "author": ["Guylaine Cadorette"]},
{"text": "Depp...is `Pirates'' loose cannon, and the real reason to see the film.", "is_fresh": 1, "author": ["Josh Larsen"]},
{"text": "Ultimately makes for an enjoyable evening back in the time of pirates, treasures, wenches and Natalie Portman lookalikes in distress.", "is_fresh": 1, "author": ["JoBlo"]},
{"text": "\"Pirates of the Caribbean can now officially take it's place at the top of your summer movie 'to see' list.\"", "is_fresh": 1, "author": ["Audrey Rock-Richardson"]},
{"text": "Brisk, exciting and, at times, wildly funny, Pirates wisely channels blockbusters of old that didn't have the benefit of more-more-more effects or angst-filled, Daddy-didn't-love-me plotlines.", "is_fresh": 1, "author": ["Nick Rogers"]},
{"text": "It's not that 'Pirates of the endless title: and subtitle' is a bad movie, it's just unremarkable.", "is_fresh": 0, "author": ["Kevin N. Laforest"]},
{"text": "By the end, the film has gone from being a cheesy delight to an aimless, tired smorgasbord of empty action scenes.", "is_fresh": 0, "author": ["Dustin Putman"]},
{"text": "The booty here is 100 percent fool's gold.", "is_fresh": 0, "author": ["Scott Foundas"]},
{"text": "A joy to watch - an adventure, funny, sexy boys, fantastic effects, great story. What do you want, an engraved invitation?", "is_fresh": 1, "author": ["Karina Montgomery"]},
{"text": "Depp's odd performance should probably make this film live on as a cult classic.", "is_fresh": 0, "author": ["Dennis Schwartz"]},
{"text": "Pirates is Indiana Jones on the high seas, complete with serial B-movie concept, wall-to-wall action, and fantastic myths come true.", "is_fresh": 1, "author": ["Scott Warren"]},
{"text": "[Johnny] Depp is the single best reason to see Pirates of the Caribbean if you're past the age of 10.", "is_fresh": 1, "author": ["Ann Hornaday"]},
{"text": "Pirates will enthrall kids and amuse adults. Its only failing is that at 2 hours and 15 minutes, it's about 20 minutes too long.", "is_fresh": 1, "author": ["Claudia Puig"]},
{"text": "A cleverly nostalgic, high-tech copy of the real deal.", "is_fresh": 0, "author": ["Ken Fox"]},
{"text": "There is much by way of noise, computer-generated action, big sets and breezy laughs, and practically nothing to intrude on your thought processes afterwards.", "is_fresh": 0, "author": ["Geoff Pevere"]},
{"text": "At nearly 2 1/2 hours, Pirates of the Caribbean: The Curse of the Black Pearl is as ridiculously overlong as its title, but it is also scary fun.", "is_fresh": 1, "author": ["Chris Hewitt (St. Paul)"]},
{"text": "A fun Disney ride.", "is_fresh": 1, "author": ["Peter Bernard"]},
{"text": "Who knew Johnny Depp was a theme park all by himself?", "is_fresh": 1, "author": ["Moira MacDonald"]},
{"text": "Pirates of the Caribbean is a movie that you ride around in circles for 2 hours and 23 minutes, until at last it brings you back where you began, exhausted and a lot dizzier.", "is_fresh": 0, "author": ["Bruce Newman"]},
{"text": "A monotonous, repetitive spectacle of endless shipboard sword fights and pirate ghosts in the moonlight.", "is_fresh": 0, "author": ["Mick LaSalle"]},
{"text": "Just imagine spending two hours-plus on a Pirates of the Caribbean ride and you'll get some idea of the approximate sensations that this movie creates.", "is_fresh": 1, "author": ["Joe Baltake"]},
{"text": "Given the movie's dark, dense and overly long nature, I'm not sure it was inspired enough.", "is_fresh": 0, "author": ["Jack Garner"]},
{"text": "An improbably entertaining, if overlong, adventure that brings new meaning to the term 'summer camp.'", "is_fresh": 1, "author": ["Carrie Rickey"]},
{"text": "Rarely serious yet not expressly a comedy, Pirates successfully replicates the hammy cinematics of a Disney theme-park ride.", "is_fresh": 1, "author": ["Steve Schneider"]},
{"text": "A theme park ride has been successfully transferred to the screen.", "is_fresh": 1, "author": ["Roger Moore"]},
{"text": "Flawed though it may be, it's frequently an unaffected pleasure.", "is_fresh": 1, "author": ["Shawn Levy"]},
{"text": "Pirates of the Caribbean tends to overstay its welcome.", "is_fresh": 0, "author": ["Lou Lumenick"]},
{"text": "While the plot and action are all deliberately familiar, director Gore Verbinski steers a continual course for sheer, mindless, rope-swinging, crow's-nest-hollering summer fun.", "is_fresh": 1, "author": ["Jami Bernard"]},
{"text": "A pretty fun ride all by itself.", "is_fresh": 1, "author": ["Jeff Strickler"]},
{"text": "The summer's oddest, most unexpected blockbuster has arrived.", "is_fresh": 1, "author": ["Rene Rodriguez"]},
{"text": "Depp hijacks -- no, commandeers -- the staginess and special effects, turning Pirates of the Caribbean: The Curse of the Black Pearl into a giddy adventure.", "is_fresh": 1, "author": ["Sean P. Means"]},
{"text": "The film is never quite funny enough to make us forget that dramatically it's pretty slim stuff.", "is_fresh": 0, "author": ["Robert W. Butler"]},
{"text": "From stem to stern this rousing adventure shines ship-shape and Bristol fashion.", "is_fresh": 1, "author": ["Tony Toscano"]},
{"text": "Long title. Waaay too long a movie. Other than that, it's flawless entertainment.", "is_fresh": 1, "author": ["Liz Braun"]},
{"text": "An affectionate, tongue-in-cheek homage to the famous ride and it's just as irreverent and wild as the ride ever was.", "is_fresh": 1, "author": ["Louis B. Hobson"]},
{"text": "Forget the film and check out [Depp], because there's a superlative to be witnessed here: This has gotta rank among the weirdest performances in the zany annals of the silver screen.", "is_fresh": 1, "author": ["Rick Groen"]},
{"text": "An entertaining flick, but not for the full 2 hours and 20 minutes...seems a bit long.", "is_fresh": 1, "author": ["John Venable"]},
{"text": "This is one of the few summer movies this year that actually feels like a summer movie.", "is_fresh": 1, "author": ["Jeff Vice"]},
{"text": "Given the film's origins, it seems fitting that by the time the movie is two hours old, Pirates becomes a ride one desperately wants to get off.", "is_fresh": 0, "author": ["Mary F. Pols"]},
{"text": "Black eyeliner, gold teeth and all, Depp's one of the very few actors of his generation who could have pulled this off and not ended up looking like a complete idiot.", "is_fresh": 1, "author": ["Rebecca Murray"]},
{"text": "A movie that charms the audience and then outstays its welcome.", "is_fresh": 1, "author": ["Roger Ebert"]},
{"text": "An exhilaratingly funny movie ride.", "is_fresh": 1, "author": ["Ty Burr"]},
{"text": "...the fun, adventure, romance and swashbuckling action make [\"Pirates of the Caribbean\"] worth the effort.", "is_fresh": 1, "author": ["Robin Clifford"]},
{"text": "Boasts the season's best production values, first-rate computer-animated special effects and a strong ensemble cast ready to toss your low expectations overboard.", "is_fresh": 1, "author": ["Sean O'Connell"]},
{"text": "May not blow you out of the water as the trailer promised, but it delivers enough fun to shiver anyone's timbers.", "is_fresh": 1, "author": ["Jeffrey Westhoff"]},
{"text": "... Pirates is a fantasy excursion that will bring out the Peter Pan in you.", "is_fresh": 1, "author": ["Bob Bloom"]},
{"text": "Yo ho, yo ho! A full refund for me!", "is_fresh": 0, "author": ["Phil Villarreal"]},
{"text": "Having no expectations, or even low expectations, works like charm here as \"Pirates\" successfully sneaks up on you and catches you digging all the swashbuckling, wisecracking and walking skeletons.", "is_fresh": 1, "author": ["James Hill"]},
{"text": "You may need a shot of rum to get through the first 30 minutes, but after that it's rather entertaining.", "is_fresh": 1, "author": ["Cherryl Dawson and Leigh Ann Palone"]},
{"text": "Frankly, I thought the film was boring.", "is_fresh": 0, "author": ["Alex Sandell"]},
{"text": "The movie is better than it deserves to be, given its origins: a ride at Disneyland and Disney World.", "is_fresh": 1, "author": ["Elvis Mitchell"]},
{"text": "A fast-moving, wickedly funny and vividly mounted distraction that brings to mind adventure romps like The Mummy, The Princess Bride and Disney's The Mask of Zorro, with Antonio Banderas.", "is_fresh": 1, "author": ["Duane Dudek"]},
{"text": "As forgettable as a bad day in the Disneyland parking lot.", "is_fresh": 0, "author": ["Kenneth Turan"]},
{"text": "Bruckheimer and pals have cobbled together all of the pirate genre's tropes -- the cannonballs, the sword fights, the glittering treasure -- and freshened them up, throwing in a couple of nods to the Disneyland ride for good measure.", "is_fresh": 1, "author": ["Glenn Whipp"]},
{"text": "This flick may just be the buried treasure of the summer-blockbuster season.", "is_fresh": 1, "author": []},
{"text": "Surprisingly dull.", "is_fresh": 0, "author": ["Tom Long"]},
{"text": "The most entertaining amusement of a summer divided between spectacles that force you to exercise your brain and spectacles that seem to suck the brain right out of your head.", "is_fresh": 1, "author": ["Terry Lawson"]},
{"text": "Pirates of the Caribbean may have taken its nutso inspiration from a theme-park ride. But it has become, without a doubt, its own wild ride.", "is_fresh": 1, "author": ["Lisa Kennedy"]},
{"text": "If you're weary of summer movies that play like extended MTV videos, you'll luxuriate in Mr. Verbinski's purely cinematic technique.", "is_fresh": 1, "author": ["Philip Wuntch"]},
{"text": "Depp keeps the film delightfully off balance with his unpredictable comic weave, bobbing and swaying like a punch-drunk fighter...", "is_fresh": 1, "author": ["Sean Axmaker"]},
{"text": "Orlando Bloom is the greatest actor who ever lived. The mortal cast members are also enjoyable...and indeed, Captain Jack will get you high tonight.", "is_fresh": 1, "author": ["Gregory Weinkauf"]},
{"text": "[Tackled] in a way that shows they were interested in putting together a solid piece of entertainment, not just a string of action sequences connected by a bad plot.", "is_fresh": 1, "author": ["Jeffrey Chen"]},
{"text": "Depp easily steals the show, delivering a quirky performance that has him teetering around like a flamboyant dandy with cerebral palsy...", "is_fresh": 1, "author": ["Spence D."]},
{"text": "Awesome! And Johnny Depp's swashbuckling gay pirate mesmerizes!", "is_fresh": 1, "author": ["Victoria Alexander"]},
{"text": "High adventure, high comedy and high camp.", "is_fresh": 1, "author": ["Eugene Novikov"]},
{"text": "Never before have I been so thrilled about being so wrong: despite all my early skepticism, Pirates ends up one of the most entertaining movies of the past few years.", "is_fresh": 1, "author": ["Scott Weinberg"]},
{"text": "It's a marvelous day for corporate synergy. Somebody either deserves a raise or should be shot at sunrise.", "is_fresh": 0, "author": ["Sean Burns"]},
{"text": "Peg-legs, parrots, hidden treasure, plank-walking, and plunging necklines... Now, that's what a pirate movie is about!", "is_fresh": 1, "author": ["Staci Layne Wilson"]},
{"text": "This is a helluva enjoyable flick that (dare I say it) doesn't require the knowledge of a trip down that old boat ride since it creates its own ride all by itself.", "is_fresh": 1, "author": ["Erik Childress"]},
{"text": "This movie is a lot more entertaining than the Disney ride itself, and will perhaps stand the test of time -- and repeat viewings -- even more.", "is_fresh": 1, "author": ["Michael Szymanski"]},
{"text": "One foot of the film is in Terry Gilliam's ethics of the stratum surreal, with the other in Spielbergian theme park attraction.", "is_fresh": 1, "author": ["Walter Chaw"]},
{"text": "Convoluted but diverting.", "is_fresh": 1, "author": ["Ed Park"]},
{"text": "The picture's constant forward movement and breezy sense of amusement about itself provide a certain mild sort of diversion.", "is_fresh": 1, "author": ["Todd McCarthy"]},
{"text": "Pirates of the Caribbean has a smart script, an attractive cast, some very creative violence and romance to boot.", "is_fresh": 1, "author": ["John Anderson"]},
{"text": "Swashbuckling adventures are few and far between these days, so it's a pleasant surprise to see one that is competently made.", "is_fresh": 1, "author": ["James Berardinelli"]},
{"text": "Bristling with brash leaps and thrilling spills, Pirates is a stunt fan's heaven.", "is_fresh": 1, "author": ["Bruce Westbrook"]},
{"text": "One of the few must-see films of this summer.", "is_fresh": 1, "author": ["Paul Clinton (CNN.com)"]},
{"text": "This rollicking adventure is everything a pirate movie should be -- witty dialogue, double-crosses, swordfights, skeletons and gold coins aplenty.", "is_fresh": 1, "author": ["Dan Fazio"]},
{"text": "I'm now here to eat every bad word I said in anticipation of this movie...it may well be one of the most enjoyable pirate escapades of all time.", "is_fresh": 1, "author": ["Rob Blackwelder"]},
{"text": "Pirates of the Caribbean is fun -- but only as long as you don't expect much.", "is_fresh": 1, "author": ["Michael Wilmington"]},
{"text": "A consistently rousing, funny and thoroughly entertaining summer action movie.", "is_fresh": 1, "author": ["Bob Longino"]},
{"text": "Depp's swishy, slurry performance gives Sparrow an air of impetus, of constant, undulating motion when he isn't flopped on his back. Without Depp, these pirates would be a lot more pedestrian.", "is_fresh": 1, "author": ["Laura Clifford"]},
{"text": "A pirate movie made with a pirate's sensibility for filmmaking.", "is_fresh": 1, "author": ["Joshua Tyler"]},
{"text": "Before it becomes redundant, the action is truly fun and classically swashbuckling.", "is_fresh": 1, "author": ["Ross Anthony"]},
{"text": "Undead in the water.", "is_fresh": 0, "author": ["Harvey S. Karten"]},
{"text": "The hands-down best flat-out, full-blooded, guns-ablazin' adventure movie to come out of Hollywood since... Raiders of the Lost Ark.", "is_fresh": 1, "author": ["MaryAnn Johanson"]},
{"text": "Would have been a complete nightmare if it weren't for Depp, whose character is an unholy melange of Captain Morgan, Dudley Moore, Keith Richards and Andy Dick.", "is_fresh": 0, "author": ["Jon Popick"]},
{"text": "POTC: Legend of the Black Pearl is an immediate Disney(TM) Classic. It's a frolicking ten ton treasure chest of swashbuckling summer fun! Watch:Red Carpet Coverage", "is_fresh": 1, "author": ["Emily Blunt"]},
{"text": "Pirates of the Caribbean makes us appreciate the absurd joys of a sadly underused genre, and demonstrates that Walt Disney hasn't entirely forgotten how to show us a good time.", "is_fresh": 1, "author": ["Rob Vaux"]},
{"text": "A giddily goofy bit of old-fashioned nonsense, a swashbuckler with supernatural overtones and a jolly sense of fun that keeps it surprisingly light on its feet.", "is_fresh": 1, "author": ["Frank Swietek"]},
{"text": "This is one time when a cartoon approach in live action is exactly right: The movie's flamboyant personalities and tongue-in-cheek action push the envelope of high camp without ever succumbing to sheer silliness.", "is_fresh": 1, "author": ["Kirk Honeycutt"]},
{"text": "Shiver me timbers, the only hex that burdens Disney's Pirates of the Caribbean: The Curse of the Black Pearl is its unwieldy title.", "is_fresh": 1, "author": ["Nick Schager"]},
{"text": "The picture moves so swiftly in its first hour that one wonders if the energy can be sustained. But the crew has more surprises in store.", "is_fresh": 1, "author": ["Richard Corliss"]},
{"text": "", "is_fresh": 1, "author": ["Jennie Kermode"]},
{"text": "", "is_fresh": 0, "author": ["James Verniere"]},
{"text": "", "is_fresh": 1, "author": ["Ethan Alter"]},
{"text": "", "is_fresh": 0, "author": ["Daniel Kasman"]},
{"text": "", "is_fresh": 1, "author": ["Geoffrey Kleinman"]},
{"text": "", "is_fresh": 1, "author": []},
{"text": "", "is_fresh": 0, "author": []},
{"text": "", "is_fresh": 1, "author": ["Brian Orndorf"]},
{"text": "", "is_fresh": 1, "author": ["Mark R. Leeper"]},
{"text": "", "is_fresh": 1, "author": ["Susan Granger"]}
]