[
{"reviews_count": "125", "title": "The Truman Show", "avg_audience_rating": "3.5", "rotten_count": "7", "tomatometer": "94", "audience_score": "89", "avg_critic_rating": "8.5", "fresh_count": "118", "user_ratings_count": "582,777"},
{"text": "One of the greatest American films of the 1990s.", "is_fresh": 1, "author": ["Tim Brayton"]},
{"text": "One of the smartest, most inventive movies in memory, it manages to be as endearing as it is provocative.", "is_fresh": 1, "author": ["Rita Kempley"]},
{"text": "The premise of Peter Weir's The Truman Show is both reasonable and ludicrous, its execution sublime.", "is_fresh": 1, "author": ["Jami Bernard"]},
{"text": "Most movies are lucky to have one idea rattling around inside. The unusually resonant Truman positively vibrates with themes.", "is_fresh": 1, "author": ["Carrie Rickey"]},
{"text": "A disturbing, spooky but eventually uplifting drama/satire/horror film starring Jim Carrey.", "is_fresh": 1, "author": ["Tom Sander"]},
{"text": "The Truman Show finds a near-miraculous balance of humor and feeling in the keen intelligence of the script by Andrew Niccol and the prodigal inventiveness of Dead Poets Society director Peter Weir at his very best.", "is_fresh": 1, "author": ["Peter Travers"]},
{"text": "To be sure, the movie has plenty of laughs, but like sunlight on the deceptively calm surface of the sea, its light humor dances fitfully over dark and dangerous undercurrents.", "is_fresh": 1, "author": ["Michael O'Sullivan"]},
{"text": "Peter Weir's film is so cleverly conceived and brilliantly executed that it almost seems like a fresh thought. And even if it doesn't, it nevertheless forms the basis of a very witty exercise.", "is_fresh": 1, "author": ["Richard Williams"]},
{"text": "Director Peter Weir has created a strikingly subversive piece of information-age paranoia as visionary as anything Hollywood might manufacture this summer, or this decade.", "is_fresh": 1, "author": ["Philip Booth"]},
{"text": "The Truman Show will probably be the most thought-provoking \"big\" movie to come out this summer, and that says a whole lot more about other movies than it does about this one. You should, however, see it for Carrey's newly unveiled charms.", "is_fresh": 1, "author": ["Paul Tatara"]},
{"text": "In the end, Weir's movie is more a capitulation than a challenge to television, and a vulgar one at that. Truman turns out to be more Burbank than he is True-man.", "is_fresh": 0, "author": ["Ella Taylor"]},
{"text": "As inventive and creative as Weir's staging is, The Truman Show wouldn't work without credible Truman. And Carrey carries off the tricky role with a chipperness that belies a deep-seeded longing for more in life than surface perfection.", "is_fresh": 1, "author": ["Dennis King"]},
{"text": "Under a cheerfully sunny sky that only heightens the paranoia, it's brilliant in conception and execution, with dozens of bright touches -- verbal jokes, visual jokes, spooky looks.", "is_fresh": 1, "author": ["Matt Soergel"]},
{"text": "Weir's touch is light and effortless, the film's pleasures falling as gently as the Mozart music piped from Seahaven's sky.", "is_fresh": 1, "author": ["Evan Williams"]},
{"text": "By trying too hard to be profound about the evils of television, this implausible sci-fi morality tale stretches this theme beyond the breaking point.", "is_fresh": 0, "author": ["Betty Jo Tucker"]},
{"text": "Excellently cast, immaculately designed and imaginatively filmed, The Truman Show casts the hypnotic blue glow of the television screen in a whole new light.", "is_fresh": 1, "author": ["Serena Donadoni"]},
{"text": "Tthis ingenious satirical comedy drama about media omnipotence is both dazzling and sophisticated from audacious start to poignant finale.", "is_fresh": 1, "author": ["Alan Jones"]},
{"text": "The Truman Show is a provocative, daring drama, and Carrey, heretofore the Silly Putty-limbed star of such lowbrow joy buzzers as Dumb and Dumber and Liar Liar, pulls off the movie's tricky leading role with aplomb.", "is_fresh": 1, "author": ["Tom Gliatto"]},
{"text": "Jim Carrey proves he has more than one acting dimension in this original, clever tale of junk-culture excess.", "is_fresh": 1, "author": []},
{"text": "An unexpectedly satisfying, imaginative movie during a season of silliness and spectacle.", "is_fresh": 1, "author": ["Gary Thompson"]},
{"text": "The Truman Show is a movie and the name of a television show within the movie, both of which star Jim Carrey. This tidy little metaphysic is superbly maintained throughout Peter Weir's flawlessly executed film.", "is_fresh": 1, "author": ["Ann Hornaday"]},
{"text": "The important thing is that Carrey and the filmmakers have taken pains to give Truman that soul -- which, in itself, provides a kind of depth. In any case, it gets you to care about how it's going to end.", "is_fresh": 1, "author": ["Jay Boyar"]},
{"text": "The movie might have been a soulless exercise without [Carrey]. With him, it has an authentic tremulousness, and also a dread, as if Pinocchio needed to take on Gepetto and Jiminy Crickett to become a real boy.", "is_fresh": 1, "author": ["David Edelstein"]},
{"text": "It's a satire/comedy/fantasy about the future of television and the people caught in its omnipresent electronic net: a supremely intelligent jape about a man named Truman Burbank.", "is_fresh": 1, "author": ["Michael Wilmington"]},
{"text": "Weir keeps things fairly entertaining, and is admirably not afraid to veer more toward drama than comedy, but his film, like the world it portrays, is all surface.", "is_fresh": 0, "author": ["Keith Phipps"]},
{"text": "Carrey is on his mettle, but you wonder why thirty years of close observation have made Truman so funny; shouldn't he be a regular guy gone mad?", "is_fresh": 1, "author": ["Anthony Lane"]},
{"text": "Its essential strengths are more dramatic and emotional than topical or satirical. Truman is a touchingly gallant creation, the hero of someone else's existential burlesque.", "is_fresh": 1, "author": ["Joe Morgenstern"]},
{"text": "Thought-provoking story; outstanding performances.", "is_fresh": 1, "author": ["Nell Minow"]},
{"text": "The issues it tackles are just as relevant now (if not more so) than they were when the film was first released theatrically back in 1997.", "is_fresh": 1, "author": ["Ryan Cracknell"]},
{"text": "...benefits substantially from Jim Carrey's unexpectedly layered (and flat-out moving) performance.", "is_fresh": 1, "author": ["David Nusair"]},
{"text": "A hilarious and breathtakingly conceived satire which also allows Carrey to edge away from broad comedy.", "is_fresh": 1, "author": []},
{"text": "Some of us may go out wishing for something meatier, edgier.", "is_fresh": 0, "author": ["Rob Gonsalves"]},
{"text": "A good, intelligent, insightful movie...", "is_fresh": 1, "author": ["Andrew Sarris"]},
{"text": "One movie you can pronounce a modern classic with absolute confidence.", "is_fresh": 1, "author": ["Tom Charity"]},
{"text": "Isn't it amazing what you can do if you take the time to FINISH your script?", "is_fresh": 1, "author": ["Ron Wells"]},
{"text": "Carrey doesn't break off into outrageous physical comedy bits as fans might hope, and the film does take a while to find its legs, but there is something rewarding in its quirky demeanor.", "is_fresh": 0, "author": ["Tom Meek"]},
{"text": "A deceptively simple fairy tale; a hilariously subversive satire\u2026 and finally an elegant parable about truth and happiness with evocative religious resonances.", "is_fresh": 1, "author": ["Steven D. Greydanus"]},
{"text": "The movie and its themes have held up. For better or worse, we're a nation consumed by television, a country roped in by spectacle. Weir sees through it. ", "is_fresh": 1, "author": ["Christopher Smith"]},
{"text": "With the reality TV boom, it brings forth more thoughts as to whether our society could ever be this extreme, and with each viewing, its themes deepen.", "is_fresh": 1, "author": ["Rory L. Aronsky"]},
{"text": "The intimations of profundity, of reality perceived, mediated, and processed, are milked for heavy irony rather than enlarging complexit.", "is_fresh": 0, "author": ["Fernando F. Croce"]},
{"text": "[A] hugely entertaining dramatization of Plato's \"Allegory of the Cave\"...a fable that would be relevant 50 years earlier and no doubt will remain relevant 50 years hence.", "is_fresh": 1, "author": ["Peter Canavese"]},
{"text": "Jim Carrey gets in touch with his Jimmy Stewart side. There's a humanity here... that we haven't seen before.", "is_fresh": 1, "author": ["Moriarty"]},
{"text": "A brilliant flick with a remarkable performance by Carrey coupled to a fascinating story, a first-class cast and top-notch technical credits.", "is_fresh": 1, "author": ["Robin Clifford"]},
{"text": "This is clearly one of the decade's cleverest, most original pictures.", "is_fresh": 1, "author": ["Ross Anthony"]},
{"text": "Truman has been wronged, and it is thrilling to see him strive to escape a machine built by a compassionless and egomaniacal creator.", "is_fresh": 1, "author": ["Jeffrey Overstreet"]},
{"text": "This is a profound movie for people who don't like to think, or perhaps for people who are in the media and of the media, and can't imagine any life outside it.", "is_fresh": 0, "author": ["Peter Rainer"]},
{"text": "If you expect and want to see the hyper-wacky Carrey...you'll hate it. If you expect and don't want to see the creepy Carrey as in the The Cable Guy, you'll be happier.", "is_fresh": 1, "author": ["Judith Egerton"]},
{"text": "Las secuencias de sincron\u00eda de eventos para que Truman crea todo son perfectas.", "is_fresh": 1, "author": ["Alex Ramirez"]},
{"text": "A little miracle of 1990s Hollywood that deserves more praise and more audience today than it had a few years ago.", "is_fresh": 1, "author": ["Dragan Antulov"]},
{"text": "Just a little too pleased with its own abrupt resolution to be completely satisfying.", "is_fresh": 1, "author": ["Bryant Frazer"]},
{"text": "although there are flashes of humor throughout, the film is more often funny-weird than it is uproarious.", "is_fresh": 1, "author": ["James Sanford"]},
{"text": "Although it doesn't merit the superlatives being thrown at its feet, The Truman Show is a rewarding experience.", "is_fresh": 1, "author": ["Jeffrey Westhoff"]},
{"text": "What this film proves is that it is still possible to make a completely original movie in modern Hollywood. Perhaps this brilliant fable will encourage others to try.", "is_fresh": 1, "author": ["Eugene Novikov"]},
{"text": "Unlike most summer releases and Jim Carrey movies, there's nothing dumb or dumber about director Peter Weir's astonishing social satire.", "is_fresh": 1, "author": ["Susan Tavernetti"]},
{"text": "There aren't many original ideas coming out of Hollywood these days, but The Truman Show is one of them.", "is_fresh": 1, "author": ["Robert Roten"]},
{"text": "The Truman Show is not perfect, but it's interesting, and has its funny moments.", "is_fresh": 1, "author": ["John R. McEwen"]},
{"text": "It is quite rewarding to see Weir's gifts as a craftsman attached to a script that mostly fulfills its own ideological ambitions.", "is_fresh": 1, "author": ["Nick Davis"]},
{"text": "Funny, moving, imaginative and wickedly smart about the addictive power of comfy illusion.", "is_fresh": 1, "author": ["Margaret A. McGurk"]},
{"text": "The film is very funny, but also touching and thought provoking.", "is_fresh": 1, "author": ["Kevin N. Laforest"]},
{"text": "The result is a rarity on any screen: intelligent fun.", "is_fresh": 1, "author": ["Rick Groen"]},
{"text": "With genius, audacity, and compassion, and only rarely missing the mark, Peter Weir's The Truman Show poises a pin over this bubble of significance.", "is_fresh": 1, "author": ["Peter Keough"]},
{"text": "Tailor-made for our era of celebrity spectacles, theme parks, and the incursion of pop culture into all aspects of our lives.", "is_fresh": 1, "author": ["Frederic and Mary Ann Brussat"]},
{"text": "This is an astonishingly rich and provocative movie that finds one of our few authentically visionary directors still testing himself and daring his audiences to keep up.", "is_fresh": 1, "author": ["Stephen Farber"]},
{"text": "Adventurous, provocative, even daring.", "is_fresh": 1, "author": ["Kenneth Turan"]},
{"text": "A gemlike picture crafted with rare and immaculate precision...", "is_fresh": 1, "author": ["Todd McCarthy"]},
{"text": "The latter part of the film, depicting Truman's rebellion and providing him with a perfect final line, is much more conventionally conceived than its splendid start.", "is_fresh": 1, "author": ["Janet Maslin"]},
{"text": "An appealing, offbeat, one-hundred minute diversion for those who really are tired of monsters tearing down buildings and action heroes saving the world.", "is_fresh": 1, "author": ["James Berardinelli"]},
{"text": "In short, this pretends to be daring while parroting what much of the TV industry already thinks about itself and its audience. But it's still pretty much fun to watch.", "is_fresh": 1, "author": ["Jonathan Rosenbaum"]},
{"text": "It keeps striking home ferociously.", "is_fresh": 1, "author": ["Stanley Kauffmann"]},
{"text": "The conception is so audacious and inventive that the movie winds up doing something genuinely radical: it bores through the boundaries of our entire media-saturated culture.", "is_fresh": 1, "author": ["Charles Taylor"]},
{"text": "The underlying ideas made the movie more than just entertainment. Like Gattaca, the previous film written by Niccol, it brings into focus the new values that technology is forcing on humanity.", "is_fresh": 1, "author": ["Roger Ebert"]},
{"text": "This is a smart, engaging movie.", "is_fresh": 1, "author": ["Robert Horton"]},
{"text": "This is a film that can stay with one for a very long time after a viewing, and even slightly change the way one looks at life and the world.", "is_fresh": 1, "author": ["Tom Keogh"]},
{"text": "A brilliant and daring film that blends charming comedy, affecting drama, thought-provoking satire and even a touch of biblical parable.", "is_fresh": 1, "author": ["Sean P. Means"]},
{"text": "For all of its intelligence and speculative power, the film is still about a real human being with real emotions.", "is_fresh": 1, "author": ["Wade Major"]},
{"text": "The biggest star here is director Weir in this bold and beautiful tour de force.", "is_fresh": 1, "author": []},
{"text": "Carrey turns Truman into a postmodern Capra hero.", "is_fresh": 1, "author": ["Owen Gleiberman"]},
{"text": "In real life, most of us agree the Truman Burbank reality would never be allowed. Yet we probably wouldn't deny that some day, the way things are going, a variation on it just might occur.", "is_fresh": 1, "author": ["Bob Thompson"]},
{"text": "A stunningly original, deeply disturbing, surrealistic nightmare of a film the likes of which I haven't seen in a long time. [SPOILER!]", "is_fresh": 1, "author": ["MaryAnn Johanson"]},
{"text": "Weir presents The Truman Show as a fairy tale, not an Orwellian nightmare", "is_fresh": 1, "author": ["Carlo Cavagna"]},
{"text": "A deliciously vicious and intelligent satire. Jim Carrey is great as the man caught in the middle and Ed Harris is suitably evil as his tormentor.", "is_fresh": 1, "author": ["Dan Jardine"]},
{"text": "Witty and manipulative, the movie doesn't answer the questions it poses. But it does let you leave feeling all right...", "is_fresh": 1, "author": ["Cynthia Fuchs"]},
{"text": "A movie with wit as well as ideas, it's an all out attack on the media's need to control, package and present real life. ", "is_fresh": 1, "author": ["Adam Smith"]},
{"text": "Weir guides his diverse cast members to the most artful and effective performances of their lives.", "is_fresh": 1, "author": ["Jack Garner"]},
{"text": "Fans expecting Carrey's usual shtick will be disappointed here...but few else will be, for this intelligent and invigorating film is a fascinating look at the struggle between individual spirit and the media culture.", "is_fresh": 1, "author": ["Madeleine Williams"]},
{"text": "It's pleasant, funny without being obviously so, and non-pushy.", "is_fresh": 1, "author": ["Oz"]},
{"text": "A brilliant, unique, unforgettable film.", "is_fresh": 1, "author": ["Urban Cinefile Critics"]},
{"text": "One of the most pleasantly original and darkly audacious stories in years.", "is_fresh": 1, "author": ["Jon Popick"]},
{"text": "Perhaps it's not fair to criticize a movie for what it isn't, but it seems like there were some missed opportunities here.", "is_fresh": 1, "author": ["Marty Mapes"]},
{"text": "Here is a provocative and profound film that deserves your undivided attention. Don't change the channel.", "is_fresh": 1, "author": ["Elias Savada"]},
{"text": "When it was over, I wanted to stand up and cheer.", "is_fresh": 1, "author": ["Mike McGranaghan"]},
{"text": "The Truman Show must count as very clever entertainment.", "is_fresh": 1, "author": ["James O'Ehley"]},
{"text": "A bracingly intelligent, provocative and witty mix of entertainment values and long thoughts.", "is_fresh": 1, "author": ["Susan Stark"]},
{"text": "The key to this film is an incredibly complex yet simple script by Andrew Niccol.", "is_fresh": 1, "author": ["Ted Prigge"]},
{"text": "A whale of a good movie, a rich, entertaining, thoughtful work that is at once lyrical and ominous.", "is_fresh": 1, "author": ["Edward Johnson-Ott"]},
{"text": "One of the choicest recent examples of imaginative fiction.", "is_fresh": 1, "author": ["Harvey S. Karten"]},
{"text": "It's unusually provocative and challenging for a Hollywood movie and, surprisingly, allows the audience to piece things together without too much external direction.", "is_fresh": 1, "author": ["Marjorie Baumgarten"]},
{"text": "Not even the more risk-taking alternative cinema, the Independent Film, has been so ruthless in its umbrella indictment of movies, television, music, advertising, commercials and infomercials.", "is_fresh": 1, "author": ["Joe Baltake"]},
{"text": "Its theme -- to what degree will we eventually allow television to outpower us? -- is clear, poignant, and relevant.", "is_fresh": 1, "author": ["Jeffrey M. Anderson"]},
{"text": "The absolutely riveting story has both (television and movie) audiences on the edge of their seats wondering.", "is_fresh": 1, "author": ["Steve Rhodes"]},
{"text": "This is one of the sharpest, bitingest satires I've seen, on a par with classic Preston Sturges.", "is_fresh": 1, "author": ["Matt Easterbrook"]},
{"text": "A thoughtful, and thought-provoking, satire that deftly combines comedy with drama, science-fiction and paranoid-conspiracy.", "is_fresh": 1, "author": ["Jeff Vice"]},
{"text": "If Truman becomes a classic it'll be as a witty film of ideas that's graced with a mesmerizing visual dimension.", "is_fresh": 1, "author": ["Mike Clark"]},
{"text": "As it stands, it's still good, but it just doesn't live up to its own hype.", "is_fresh": 1, "author": ["Christopher Null"]},
{"text": "The smartest, funniest, most original Hollywood movie in ages.", "is_fresh": 1, "author": ["David Sterritt"]},
{"text": "Weir and Niccol have come up with a bracingly original cinematic experience.", "is_fresh": 1, "author": ["Kevin Lally"]},
{"text": "This inspired movie is possibly the best - and most layered - summer picture in years.", "is_fresh": 1, "author": ["Bill Chambers"]},
{"text": "I had that rare feeling of elation - of wanting to share a wonderful discovery - that comes with seeing an original, inspired piece of work.", "is_fresh": 1, "author": ["Edward Guthmann"]},
{"text": "A crowd pleaser that caters to our horror of totalitarianism, our love of personal freedom, our belief - justified or deluded - that knowledge is a powerful tool and that access to information is a God-given right.", "is_fresh": 1, "author": ["Barbara Shulgasser"]},
{"text": "For the first time in years, we are confronted with a movie that is so original and so intriguing that you wonder why no one had thought it up before.", "is_fresh": 1, "author": ["David Keyes"]},
{"text": "A film that leaves you stunned and debating its message as the credits roll. I've never seen anything like it", "is_fresh": 1, "author": ["Rob Blackwelder"]},
{"text": "A performance of profound charm, innocence, vulnerability and pain.", "is_fresh": 1, "author": ["Richard Corliss"]},
{"text": "Extremely original, well-written piece that ultimately left me emotionally detached, and feeling bored at certain times.", "is_fresh": 1, "author": ["JoBlo"]},
{"text": "A deliciously vicious and intelligent satire on the media who manipulate us, and the audience who encourages it.", "is_fresh": 1, "author": ["Elspeth Haughton"]},
{"text": "It is one of the best films ever made about the dangers of mass-media...", "is_fresh": 1, "author": ["Ian Waldron-Mantgani"]},
{"text": "The kind of film that people want to see again and again, for many reasons.", "is_fresh": 1, "author": ["Greg Dean Schmitz"]},
{"text": "As plot it's a little thin, especially when you already know the premise ... The performances are uniformly pitch-perfect.", "is_fresh": 1, "author": ["Maitland McDonagh"]},
{"text": "What could have been a comedy content to ride on the fame of its star turns instead into a disturbingly funny statement on modern life in the shadow of mass media.", "is_fresh": 1, "author": ["Widgett Walls"]},
{"text": "A thought-provoking, original movie that works on many levels.", "is_fresh": 1, "author": ["Bob Bloom"]},
{"text": "Everything studio filmmaking should be but almost never is.", "is_fresh": 1, "author": ["Scott Renshaw"]},
{"text": "A subtly layered, perceptive, and pointedly truthful commentary on the media and its and our own voyeuristic tendencies.", "is_fresh": 1, "author": ["Michael Dequina"]},
{"text": "Weir looks at the media and what it is doing to both the viewer and the person under media scrutiny. The film also takes a playful look at the relationship between humanity and God.", "is_fresh": 1, "author": ["Mark R. Leeper"]},
{"text": "A surreal and immensely likable fable that straddles the line between comedy and drama.", "is_fresh": 1, "author": ["Wallace Baine"]},
{"text": "", "is_fresh": 1, "author": ["James Rocchi"]},
{"text": "", "is_fresh": 1, "author": ["Garth Franklin"]}
]