[
{"reviews_count": "66", "title": "The Shawshank Redemption", "avg_audience_rating": "4.4", "rotten_count": "6", "tomatometer": "91", "audience_score": "98", "avg_critic_rating": "8.2", "fresh_count": "60", "user_ratings_count": "884,696"},
{"text": "In the lead roles, both Robbins and Freeman are outstanding, layering their performances with snippets of individuality: Their small, daily sustenances and minor triumphs are wonderfully inspiring.", "is_fresh": 1, "author": ["Duane Byrge"]},
{"text": "This is an engagingly simple, good-hearted film, with just enough darkness around the edges to give contrast and relief to its glowingly benign view of human nature.", "is_fresh": 1, "author": ["Dave Kehr"]},
{"text": "Top-notch performances, exceptional cinematography, and masterful direction combine to make this film something special indeed. ", "is_fresh": 1, "author": ["Betty Jo Tucker"]},
{"text": "Simply marvelous entertainment.", "is_fresh": 1, "author": ["Gene Siskel"]},
{"text": "Freeman, who is simply a great actor, a man who has never struck a false note in his career, both narrates this tale and anchors it with his authoritative playing.", "is_fresh": 1, "author": ["Richard Schickel"]},
{"text": "Powerful, poignant, thought-provoking and finally irresistibly uplifting.", "is_fresh": 1, "author": []},
{"text": "If you don't love Shawshank, chances are you're beyond redemption.", "is_fresh": 1, "author": ["Ian Nathan"]},
{"text": "Spiritually moving old-fashioned prison pic.", "is_fresh": 1, "author": ["Dennis Schwartz"]},
{"text": "Gritty but comforting story of friendship.", "is_fresh": 1, "author": ["Heather Boerner"]},
{"text": "I love this film. It's a story about hope and dreams and one whose emotional impact is as great as the Pacific Ocean is blue.", "is_fresh": 1, "author": ["Louise Keller"]},
{"text": "Darabont explores the range of human kindness and cruelty as he lovingly and patiently sculpts his large cast of characters against magnificent scenery.", "is_fresh": 1, "author": []},
{"text": "...itself a testament to overcoming odds. It is sentimental and stereotyped, yet we are able not only to suspend our disbelief but to root for it all the way.", "is_fresh": 1, "author": ["John J. Puccio"]},
{"text": "...has certainly earned its reputation as one of the most effective prison movies in cinematic history...", "is_fresh": 1, "author": ["David Nusair"]},
{"text": "It's an old-school melodrama at heart, sturdy and forthright and upstanding, but without a whisper of complexity or wit.", "is_fresh": 1, "author": ["Rob Gonsalves"]},
{"text": "A testament to the human spirit...", "is_fresh": 1, "author": ["Leonard Klady"]},
{"text": "A 'life-affirming' tale about life imprisonment, The Shawshank Redemption is the kind of old-fashioned entertainment that is easily overvalued in an era of diminishing expectations.", "is_fresh": 1, "author": []},
{"text": "A passing reference to 'The Count of Monte Cristo' offers a partial clue to what makes this movie compelling.", "is_fresh": 1, "author": ["Jonathan Rosenbaum"]},
{"text": "I have not read Stephen King's novella (his first non-horror), but some of the movie's deficiencies, such as the old-fashioned morality tale and portentous messge about camarderie and redemption--must have been in the source material.", "is_fresh": 1, "author": ["Emanuel Levy"]},
{"text": "An amazing movie. Easily one of the best movies made during the 90s and definitely one of the top 'prison' movies of all-time. Pretty much everything about this movie works and works extremely well!", "is_fresh": 1, "author": ["JoBlo"]},
{"text": "...a throwback to the kind of serious, literate drama Hollywood used to make.", "is_fresh": 1, "author": ["Derek Adams"]},
{"text": "An unhurried, engulfing prison drama.", "is_fresh": 1, "author": ["Phil Villarreal"]},
{"text": "Why are these men in jail?", "is_fresh": 0, "author": ["Jake Euker"]},
{"text": "The Shawshank Redemption works not only as an excellent prison drama, but as a metaphor for overcoming our own private prisons.", "is_fresh": 1, "author": ["Chuck O'Leary"]},
{"text": "Drawn in straight, brutal lines.", "is_fresh": 0, "author": ["Walter Chaw"]},
{"text": "The Shawshank Redemption is one of those films that is a true work of both art and magic.", "is_fresh": 1, "author": ["James Brundage"]},
{"text": "One of the few movies that has come out in my lifetime that I consider a \"classic film\".", "is_fresh": 1, "author": ["Rafe Telsch"]},
{"text": "Beaches for straight men.", "is_fresh": 0, "author": ["Ed Gonzalez"]},
{"text": "The Shawshank Redemption sprawls out over a leisurely 142 minutes, operating with the same unflagging patience of its protagonist.", "is_fresh": 1, "author": ["Jeffrey M. Anderson"]},
{"text": "It's a simple story elegantly, cleverly told, not to mention expertly acted.", "is_fresh": 1, "author": []},
{"text": "Freeman, in particular, is exceptional. His performance is so unshowy it can easily go unnoticed, but it's the soul of Shawshank.", "is_fresh": 1, "author": ["Nev Pierce"]},
{"text": "Flawlessly acted and directed, this film packed the strongest emotional wallop out of any film [in 1994].", "is_fresh": 1, "author": ["Michael Dequina"]},
{"text": "Without a single riot scene or horrific effect, it tells a slow, gentle story of camaraderie and growth, with an ending that abruptly finds poetic justice in what has come before.", "is_fresh": 1, "author": ["Janet Maslin"]},
{"text": "The Shawshank Redemption continually abandons plausibility in order to celebrate the triumph of hope over despair, of decency over cruelty, of justice over injustice.", "is_fresh": 0, "author": ["Leonard Schwarz"]},
{"text": "Manages to be sentimental without sugar-coating.", "is_fresh": 1, "author": ["Jeffrey M. Anderson"]},
{"text": "Indubitavelmente, a melhor adapta\u00e7\u00e3o j\u00e1 feita de um trabalho de Stephen King.", "is_fresh": 1, "author": ["Pablo Villa\u00e7a"]},
{"text": "Characters worth caring about and who actually learn something about themselves as the film progresses.", "is_fresh": 1, "author": ["Robert Roten"]},
{"text": "The Shawshank Redemption is most memorable thanks to its ingenious surprises.", "is_fresh": 1, "author": ["Steven Snyder"]},
{"text": "Thank goodness this has become a classic!", "is_fresh": 1, "author": ["Mike McGranaghan"]},
{"text": "It's good, but not nearly so good as it thinks.", "is_fresh": 1, "author": ["Ken Hanke"]},
{"text": "One of the late 90s best - and most popular - films, this tale of enduring hope can be enjoyed in repeated viewings. Beautifully scripted, superbly shot, and sumptuously scored. Morgan Freeman's words (as narrator) will stay with you forever. One of the m", "is_fresh": 1, "author": ["Shannon J. Harvey"]},
{"text": "By blanketing the prison experience with a sepia-tone haze of nostalgia and placing it in a time that's part history, part Normal Rockwell, the film provides a trip through the belly of the beast that isn't too icky...", "is_fresh": 1, "author": ["James Rocchi"]},
{"text": "The Shawshank Redemption will instantly become a favorite of anyone who watches it.", "is_fresh": 1, "author": ["Kevin N. Laforest"]},
{"text": "Powerful drama that reminds us that hope is a precious and buoyant emotion that can give our lives substance and meaning.", "is_fresh": 1, "author": ["Frederic and Mary Ann Brussat"]},
{"text": "despite occasional lapses into familiar formulas and stereotypes, this is a first-rate prison drama", "is_fresh": 1, "author": ["Dan Jardine"]},
{"text": "In truth it's the purest Hollywood hoakum--a sunny, heart-tugging hymn to that old chestnut, the indomitability of the human spirit.", "is_fresh": 0, "author": []},
{"text": "It's the no-bull performances that hold back the flood of banalities.", "is_fresh": 1, "author": ["Peter Travers"]},
{"text": "One of the greatest films ever committed to celluloid.", "is_fresh": 1, "author": ["Andrew Howe"]},
{"text": "The Shawshank Redemption is all about hope and, because of that, watching it is both uplifting and cathartic.", "is_fresh": 1, "author": ["James Berardinelli"]},
{"text": "If the film is perhaps a little slow in its middle passages, maybe that is part of the idea, too, to give us a sense of the leaden passage of time, before the glory of the final redemption.", "is_fresh": 1, "author": ["Roger Ebert"]},
{"text": "It wanders down subplots at every opportunity and ignores an abundance of narrative exit points before settling on the aforementioned finale.", "is_fresh": 0, "author": ["Desson Thomson"]},
{"text": "It's a devoutly old-fashioned, spiritually uplifting prison drama about two lifers who must break their emotional shackles before they can finally become free men.", "is_fresh": 1, "author": ["Rita Kempley"]},
{"text": "When the film's conclusion starts to unfold, you suddenly realize that this is one of the more inspiring films you've seen in a long time - yet you don't feel the least bit manipulated.", "is_fresh": 1, "author": ["Brian Webster"]},
{"text": "The Shawshank Redemption (1994) is an impressive, engrossing piece of film-making from director/screenwriter Frank Darabont...", "is_fresh": 1, "author": ["Tim Dirks"]},
{"text": "At times poignant, joyful, and terrifying, Shawshank Redemption is an altogether brilliant movie and the debut of an equally brilliant director.", "is_fresh": 1, "author": ["Marc Savlov"]},
{"text": "Shawshank is what might be described as an ethereal prison picture, if that's not an oxymoron.", "is_fresh": 1, "author": ["Chris Hicks"]},
{"text": "It is able to sustain itself throughout its duration and to keep you enraptured with its remarkably hopeful story.", "is_fresh": 1, "author": ["Christopher Null"]},
{"text": "Thanks to fine performances and beautiful photography, you get that inspirational jump-start frame after frame.", "is_fresh": 1, "author": ["Peter Stack"]},
{"text": "This is a film with excellent production values almost without exception.", "is_fresh": 1, "author": ["Mark R. Leeper"]},
{"text": "Terribly overrated, but its pluses nevertheless outweigh minuses.", "is_fresh": 1, "author": ["Dragan Antulov"]},
{"text": "With his gift for rapt pauses, for caressing just the right syllable, Freeman can make a speech like that sound like one of the philosophical nuggets of the ages.", "is_fresh": 1, "author": ["Owen Gleiberman"]},
{"text": "", "is_fresh": 1, "author": ["James O'Ehley"]},
{"text": "", "is_fresh": 1, "author": ["Ryan Cracknell"]},
{"text": "", "is_fresh": 1, "author": ["Rumsey Taylor"]},
{"text": "", "is_fresh": 1, "author": ["Audrey Rock-Richardson"]},
{"text": "", "is_fresh": 1, "author": ["Brian J. Arthurs"]},
{"text": "", "is_fresh": 1, "author": ["Scott Weinberg"]}
]