[
{"reviews_count": "65", "title": "The Fifth Element", "avg_audience_rating": "3.7", "rotten_count": "19", "tomatometer": "71", "audience_score": "86", "avg_critic_rating": "6.4", "fresh_count": "46", "user_ratings_count": "586,858"},
{"text": "The Fifth Element is a bold, bright, loud, rowdy, lush, extravagant science fiction space opera that wears its heart on its garish sleeve.", "is_fresh": 1, "author": ["Ed Travis"]},
{"text": "Aside from Besson's impressive directorial panache, always providing something eye-catching and original to look at...there is little else about The Fifth Element that is particularly noteworthy.", "is_fresh": 0, "author": ["Zaki Hasan"]},
{"text": "It fuses slapstick with screwball comedy in brilliant ways, and appreciates the necessity of levity when considering heavy themes.", "is_fresh": 1, "author": ["Glenn Heath Jr."]},
{"text": "Narratively challenged, visually monotonous and aurally overpowering, The Fifth Element is a staggering accretion of all the wrong elements and some rather dopey ones as well.", "is_fresh": 0, "author": ["Duane Byrge"]},
{"text": "Even 20 years on, The Fifth Element hasn't lost very much of its ability to thoroughly confound and dazzle.", "is_fresh": 1, "author": ["Tim Brayton"]},
{"text": "The Fifth Element has enough eye-appeal for two good movies.", "is_fresh": 1, "author": ["Gene Siskel"]},
{"text": "Luc Besson's The Fifth Element is a dazzling, funny, and exciting sci-fi actioner that features unforgettable characters and a thrilling story, making this one of the most underrated science-fiction classics around.", "is_fresh": 1, "author": ["Jeff Beck"]},
{"text": "A jaw-dropping, mind-blowing pop epic that gives you everything from the slam-bang sci-fi fantasy of Star Wars to the inspired slapstick lunacy of The Marx Brothers", "is_fresh": 1, "author": ["Joe Leydon"]},
{"text": "In this movie and many like it, the only elements that count are impact, impact, impact and impact. The fifth element is gibberish.", "is_fresh": 0, "author": ["Joe Morgenstern"]},
{"text": "Loud, long, and overwhelming...", "is_fresh": 0, "author": ["David Nusair"]},
{"text": "Stylish and very violent sci-fi action flick.", "is_fresh": 1, "author": ["Carly Kocurek"]},
{"text": "Pure eye-candy and a rollicking good-time.", "is_fresh": 1, "author": ["Scott Nash"]},
{"text": "A hodgepodge of elements that don't comfortably coalesce.", "is_fresh": 0, "author": ["Todd McCarthy"]},
{"text": "It's a triumph of form over content, but it's a stunning triumph.", "is_fresh": 1, "author": ["Rob Gonsalves"]},
{"text": "I knew where it was going at all times, but the ride was excellent.", "is_fresh": 1, "author": ["Jeffrey M. Anderson"]},
{"text": "Besson's futuristic fable is flawed by a messy narrative which strains to incorporate far too many grotesque and eccentric characters.", "is_fresh": 0, "author": ["Geoff Andrew"]},
{"text": "The story is such a cut-rate kid's sci-fi fairy tale that at one point Evil actually calls Gary Oldman on the phone (and it isn't played for laughs).", "is_fresh": 0, "author": ["Jimmy Chertkow"]},
{"text": "Besson has done a solid, if not outstanding, job in bringing his story, written as a teenager, to the big screen.", "is_fresh": 1, "author": ["Robin Clifford"]},
{"text": "This gonzo sci-fi outing proves to be a messy amalgam -- a motion picture with the body of a mainstream blockbuster but the spirit of a trendy cult flick. And yet, for all its narrative incoherencies, visual excesses and shifting moods, the movie works.", "is_fresh": 1, "author": ["Matt Brunson"]},
{"text": "The special effects provided Besson with the tools to provide the movie with the spectacular images, displaying the eagerness of a child in a candy store.", "is_fresh": 1, "author": ["Dragan Antulov"]},
{"text": "It's cyberpunk!", "is_fresh": 1, "author": ["Dennis Schwartz"]},
{"text": "Everything from the visual effects to the costume design seems to shout out like a precocious child: \"Look at me!\"", "is_fresh": 1, "author": ["Brian Mckay"]},
{"text": "The best-looking science fiction movie to come out in years, with fabulous sets, costumes and special effects, but its plot doesn't quite measure up to its appearance.", "is_fresh": 1, "author": ["Robert Roten"]},
{"text": "Fifth Element doesn't reach the level of great sci-fi to which it clearly aspires because it has too many characters doing too many things for too few reasons. Still, it's a lot of fun.", "is_fresh": 1, "author": ["Margaret A. McGurk"]},
{"text": "don't mind the one-dimensional characters and the sci-fi nonsense, but I really could have done without the unfunny, very French humor.", "is_fresh": 1, "author": ["Kevin N. Laforest"]},
{"text": "Slam-dunk sci-fi extravaganza.", "is_fresh": 1, "author": ["Frederic and Mary Ann Brussat"]},
{"text": "The Fifth Element has to be the most creative visualization since Tim Burton's first Batman in 1989. On top of that, it's a whole lot of fun.", "is_fresh": 1, "author": ["Mick LaSalle"]},
{"text": "The film's most basic conceit -- that there is an anti-life that, despite its nature, can have a desire and can operate physically in this universe, using its elements -- is not only never explained, it can't be.", "is_fresh": 1, "author": ["Kim Williamson"]},
{"text": "The pace is perfect, the combination of international casting superb and the cinematography sublime.", "is_fresh": 1, "author": ["Leslie Rigoulot"]},
{"text": "Boring and idiotic", "is_fresh": 0, "author": ["Christopher Null"]},
{"text": "(In Sony's new Superbit DVD format) picture and sound unite to create a unique three-dimensional fantasy world.", "is_fresh": 1, "author": ["John J. Puccio"]},
{"text": "Bruce Willis is good in an average role, Milla Jovovich is acceptable in a terrible role, but as ever Gary Oldman is terrific in how he seems to find just the right note for the film and threatens to take it over.", "is_fresh": 1, "author": ["William Gallagher"]},
{"text": "What an exhilarating, visual feast is Luc Besson's The Fifth Element. And what a mess.", "is_fresh": 0, "author": ["James Kendrick"]},
{"text": "There's no doubt about it, when it comes to saving the world, Bruce Willis is your man. He does it with smarts and style, humor and courage.", "is_fresh": 1, "author": ["Kevin Thomas"]},
{"text": "Mr. Besson directs with ceaseless flamboyance and with an obvious enthusiasm for his film's comic book conceits. But the tone of The Fifth Element is often terribly shrill, especially when attention shifts to grating minor characters.", "is_fresh": 0, "author": ["Janet Maslin"]},
{"text": "A lot of money was spent on this film, but $100 million doesn't guarantee a good product. Maybe someone should have thought of spending a few more dollars on a better script.", "is_fresh": 0, "author": ["James Berardinelli"]},
{"text": "As you sit through the interminable two-hours-plus that constitute The Fifth Element -- a colossally stupid, overbearingly pompous new movie by Luc Besson -- you can expect to become acquainted with boredom on the most elemental level.", "is_fresh": 0, "author": ["Scott Rosenberg"]},
{"text": "One of the great goofy movies -- a film so preposterous I wasn't surprised to discover it was written by a teenage boy.", "is_fresh": 1, "author": ["Roger Ebert"]},
{"text": "After doing much to reduce French cinema to a second-rate clone of bad Hollywood, Besson is seeking to expand to America.", "is_fresh": 0, "author": ["Peter Keough"]},
{"text": "These kinds of attitude are really getting old. If you're gonna be a pig, at least be original about it.", "is_fresh": 0, "author": ["MaryAnn Johanson"]},
{"text": "Besson surrounds his colorful characters and eccentric myths with a world of incredibly detailed richness. He fills every inch of every frame with imagination.", "is_fresh": 1, "author": ["Jack Garner"]},
{"text": "The world that director Luc Besson has created is original and breathtaking. In fact, it is almost worth the admission for the eye-candy alone.", "is_fresh": 1, "author": ["Madeleine Williams"]},
{"text": "Willis shines in these roles, as the unlikely hero, who saves the day, or as in this case, saves the world.", "is_fresh": 1, "author": ["Urban Cinefile Critics"]},
{"text": "It sounds like a big confused jumble, but actually it has its own internal consistency and look. It is almost immediately engaging and engrossing.", "is_fresh": 1, "author": ["Marty Mapes"]},
{"text": "A highly involving and mesmerizing film.", "is_fresh": 1, "author": ["Steve Rhodes"]},
{"text": "Director Besson keeps the action moving fast enough to satisfy any action movie junkie.", "is_fresh": 1, "author": ["James O'Ehley"]},
{"text": "The Fifth Element actually feels like it was scripted by a daydreaming teenager, but in a good way; that is to say, there's a certain \"gosh, wow\" sense of wonder to the whole thing that echoes the completely unique universes of George Lucas and company.", "is_fresh": 1, "author": ["Marc Savlov"]},
{"text": "Don't read the rest of this review until after you've seen the film and don't let your friends tell you about the movie. Just go and enjoy the most spectacular piece of mindless eye candy to come along in years.", "is_fresh": 1, "author": ["Edward Johnson-Ott"]},
{"text": "An overblown cosmic comic book.", "is_fresh": 0, "author": ["Susan Wloszczyna"]},
{"text": "I hate to suggest that viewers should check their brains at the door to enjoy a movie, but I'm afraid that sentiment serves both as a warning and a recommendation where The Fifth Element is concerned.", "is_fresh": 1, "author": ["Bryant Frazer"]},
{"text": "This is a prodigious something. It's just difficult to say whether that something is good or evil.", "is_fresh": 0, "author": ["Barbara Shulgasser"]},
{"text": "An eye-popping, exciting, comic bookish, sensory overload experience.", "is_fresh": 1, "author": ["Rob Blackwelder"]},
{"text": "For the most part, it's a nice goofy E-Ticket ride.", "is_fresh": 1, "author": ["Widgett Walls"]},
{"text": "Rarely does a filmmaker's original vision come to the screen in all its audacious, undiluted glory.", "is_fresh": 1, "author": ["Michael Dequina"]},
{"text": "Things happen for the sake of a momentary laugh or gasp rather than for the creation of the film's internal universe. It's not a specific future; it's The Future, impressive but generic.", "is_fresh": 1, "author": ["Scott Renshaw"]},
{"text": "His enthusiasm for this project is so pervasive that you can't help share his sense of enjoyment", "is_fresh": 1, "author": ["Shane Burridge"]},
{"text": "While the logic of the storyline leaves a lot to be desired, \"The Fifth Element\" satisfies as sheer spectacle.", "is_fresh": 1, "author": ["David N. Butterworth"]},
{"text": "The film just takes off from the first slow frame and by the end, you're going \"Wow!\"", "is_fresh": 1, "author": ["Ted Prigge"]},
{"text": "", "is_fresh": 1, "author": ["Owen Gleiberman"]},
{"text": "", "is_fresh": 1, "author": ["Ed Colley"]},
{"text": "", "is_fresh": 1, "author": ["Garth Franklin"]},
{"text": "", "is_fresh": 0, "author": []},
{"text": "", "is_fresh": 0, "author": ["Mark R. Leeper"]},
{"text": "", "is_fresh": 1, "author": []},
{"text": "", "is_fresh": 0, "author": ["Leonard Schwarz"]}
]