[
{"reviews_count": "23", "title": "The New Romantic", "avg_audience_rating": "3.9", "rotten_count": "8", "tomatometer": "65", "audience_score": "75", "avg_critic_rating": "5.9", "fresh_count": "15", "user_ratings_count": "81"},
{"text": "The New Romantic suggests, how ever you package it, there's a possibility all our wanderings might still come back to love. Maybe it speaks to some of the deepest longings of our heart.", "is_fresh": 1, "author": ["Tynan Yanaga"]},
{"text": "The New Romantic follows a very familiar arc, but the path is certainly a pleasant one, thanks to Barden's naturally ebullient performance.", "is_fresh": 1, "author": ["Kevin Crust"]},
{"text": "The New Romantic is, in many aspects, an old romantic in that capital-R way. A glorification of a past age thought to be lost... Neither she nor the plot quite reach the sublime, but the film is enjoyable nonetheless.", "is_fresh": 1, "author": ["Charline Jao"]},
{"text": "Hinting at contemporary relationship insight without offering any meaningful substance, this breezy romantic comedy is only sporadically engaging.", "is_fresh": 0, "author": ["Todd Jorgenson"]},
{"text": "It's trying to be a romcom without actually being a rom-com and this prevents it from fully developing any of its characters, the attempted romance between Blake and Jacob, and fleshing out what it's trying to say with more certainty. ", "is_fresh": 0, "author": ["Mae Abdulbaki"]},
{"text": "A somewhat palatable quasi-rom-com that declares the death of contemporary romance from the get-go, only to try and resurrect it later.", "is_fresh": 0, "author": ["Tomris Laffly"]},
{"text": "Mirroring its green protagonist, \"The New Romantic\" presents an image of sophistication while playing with ideas that are out of its depth.", "is_fresh": 0, "author": ["Teo Bugbee"]},
{"text": "A marginal \"sugar baby\" rom-com hobbled by the ridiculously under-age looking leading lady. ", "is_fresh": 0, "author": ["Roger Moore"]},
{"text": "... an absolutely refreshing take on a rom-com/coming-of-age story ...", "is_fresh": 1, "author": ["Douglas Davidson"]},
{"text": "This Canadian Nora Ephron-like rom-com aspires to explore the meaning of love but misses the target because it's not on point about carrying through on its cynicism.", "is_fresh": 1, "author": ["Dennis Schwartz"]},
{"text": "Clever writing and a solid lead actor will only take you so far, but that might just be far enough for this lighthearted feature. ", "is_fresh": 1, "author": ["Chris Knight"]},
{"text": "The New Romantic mixes prickly comedy with incisive character moments, fully aware of the disconnect between Blake's impossible expectations and the lives of everyone else around her.", "is_fresh": 1, "author": ["Norman Wilner"]},
{"text": "The waif-like Barden is splendid in the central role, using her expressive eyes in the subtlest of ways to convey emotions.", "is_fresh": 1, "author": ["Bruce DeMara"]},
{"text": "Perhaps more egregious than its familiar plot and waste of up-and-comer Jessica Barden is that despite its title, there is nothing \"new\" or \"romantic\" about The New Romantic.", "is_fresh": 0, "author": ["Derek Deskins"]},
{"text": "A clever script and a star-making performance from Jessica Barden elevates The New Romantic, echoing an early 80's John Hughes.", "is_fresh": 1, "author": ["Aaron Peterson"]},
{"text": "Setting the bar for the film impossibly high with repetitious references to Nora Ephron classics like Sleepless in Seattle, Stone shows she's got spirit, but maybe not the best judgment, much like her protagonist.", "is_fresh": 0, "author": ["Justin Lowe"]},
{"text": "The New Romantic is the rare film presents these relationships without judgment offering up the good, bad, painful, and confusing as a matter of fact.", "is_fresh": 1, "author": ["John Fink"]},
{"text": "More tragic than funny, but Stone is hoping for laughs - or really, swoons - or maybe just whatever will make audiences happy, an eagerness to please that makes the tone wobble from scene to scene. ", "is_fresh": 0, "author": ["Amy Nicholson"]},
{"text": "It's a solid feature debut for director/screenwriter Carly Stone. ", "is_fresh": 1, "author": ["Danielle Solzman"]},
{"text": "The New Romantic is charming and funny, a very overt nod to Nora Ephron. ", "is_fresh": 1, "author": ["Meredith Borders"]},
{"text": "At its best, it's a sweet coming of age story with some keen observations to make about the way women's value is measured and female sexuality perceived.", "is_fresh": 1, "author": ["Jennie Kermode"]},
{"text": "This may be a quick and dirty debut, but there's something ineffably pure about how it portrays someone learning the give-and-take of getting what she wants... a comforting reminder that we're ultimately all just dealing with ourselves.", "is_fresh": 1, "author": ["David Ehrlich"]},
{"text": "Blake navigates the morally vague world of being a sugar baby with complete control over her body and needs, which is what makes The New Romantic utterly genuine.", "is_fresh": 1, "author": ["Jenny Nulf"]},
{"text": "The New Romantic suggests, how ever you package it, there's a possibility all our wanderings might still come back to love. Maybe it speaks to some of the deepest longings of our heart.", "is_fresh": 1, "author": ["Tynan Yanaga"]},
{"text": "The New Romantic follows a very familiar arc, but the path is certainly a pleasant one, thanks to Barden's naturally ebullient performance.", "is_fresh": 1, "author": ["Kevin Crust"]},
{"text": "The New Romantic is, in many aspects, an old romantic in that capital-R way. A glorification of a past age thought to be lost... Neither she nor the plot quite reach the sublime, but the film is enjoyable nonetheless.", "is_fresh": 1, "author": ["Charline Jao"]},
{"text": "Hinting at contemporary relationship insight without offering any meaningful substance, this breezy romantic comedy is only sporadically engaging.", "is_fresh": 0, "author": ["Todd Jorgenson"]},
{"text": "It's trying to be a romcom without actually being a rom-com and this prevents it from fully developing any of its characters, the attempted romance between Blake and Jacob, and fleshing out what it's trying to say with more certainty. ", "is_fresh": 0, "author": ["Mae Abdulbaki"]},
{"text": "A somewhat palatable quasi-rom-com that declares the death of contemporary romance from the get-go, only to try and resurrect it later.", "is_fresh": 0, "author": ["Tomris Laffly"]},
{"text": "Mirroring its green protagonist, \"The New Romantic\" presents an image of sophistication while playing with ideas that are out of its depth.", "is_fresh": 0, "author": ["Teo Bugbee"]},
{"text": "A marginal \"sugar baby\" rom-com hobbled by the ridiculously under-age looking leading lady. ", "is_fresh": 0, "author": ["Roger Moore"]},
{"text": "... an absolutely refreshing take on a rom-com/coming-of-age story ...", "is_fresh": 1, "author": ["Douglas Davidson"]},
{"text": "This Canadian Nora Ephron-like rom-com aspires to explore the meaning of love but misses the target because it's not on point about carrying through on its cynicism.", "is_fresh": 1, "author": ["Dennis Schwartz"]},
{"text": "Clever writing and a solid lead actor will only take you so far, but that might just be far enough for this lighthearted feature. ", "is_fresh": 1, "author": ["Chris Knight"]},
{"text": "The New Romantic mixes prickly comedy with incisive character moments, fully aware of the disconnect between Blake's impossible expectations and the lives of everyone else around her.", "is_fresh": 1, "author": ["Norman Wilner"]},
{"text": "The waif-like Barden is splendid in the central role, using her expressive eyes in the subtlest of ways to convey emotions.", "is_fresh": 1, "author": ["Bruce DeMara"]},
{"text": "Perhaps more egregious than its familiar plot and waste of up-and-comer Jessica Barden is that despite its title, there is nothing \"new\" or \"romantic\" about The New Romantic.", "is_fresh": 0, "author": ["Derek Deskins"]},
{"text": "A clever script and a star-making performance from Jessica Barden elevates The New Romantic, echoing an early 80's John Hughes.", "is_fresh": 1, "author": ["Aaron Peterson"]},
{"text": "Setting the bar for the film impossibly high with repetitious references to Nora Ephron classics like Sleepless in Seattle, Stone shows she's got spirit, but maybe not the best judgment, much like her protagonist.", "is_fresh": 0, "author": ["Justin Lowe"]},
{"text": "The New Romantic is the rare film presents these relationships without judgment offering up the good, bad, painful, and confusing as a matter of fact.", "is_fresh": 1, "author": ["John Fink"]},
{"text": "More tragic than funny, but Stone is hoping for laughs - or really, swoons - or maybe just whatever will make audiences happy, an eagerness to please that makes the tone wobble from scene to scene. ", "is_fresh": 0, "author": ["Amy Nicholson"]},
{"text": "It's a solid feature debut for director/screenwriter Carly Stone. ", "is_fresh": 1, "author": ["Danielle Solzman"]},
{"text": "The New Romantic is charming and funny, a very overt nod to Nora Ephron. ", "is_fresh": 1, "author": ["Meredith Borders"]}
]