[
{"reviews_count": "5", "title": "The Price of Free", "avg_audience_rating": "4.9", "rotten_count": "1", "tomatometer": "80", "audience_score": "94", "avg_critic_rating": "  8", "fresh_count": "4", "user_ratings_count": "54"},
{"text": "[Kailash] benefits from a potent mix of compassionate heroism and hard-won hopefulness.", "is_fresh": 1, "author": ["Robert Abele"]},
{"text": "Even an extraordinary person doesn't necessarily make for a dynamic movie subject.", "is_fresh": 0, "author": ["Ben Kenigsberg"]},
{"text": "Although Satyarthi's dedication and achievements speak for themselves, this is not a glossy hagiography, largely because he himself is acutely aware of the sacrifices made by his own family for the greater good.", "is_fresh": 1, "author": ["Amber Wilkinson"]},
{"text": "An interesting advantage of this snapshot approach, though, is that it prevents closure, which sounds like a weird thing to be pleased with, but I truly appreciated that Kailash doesn't always have answers or happy endings or pat resolutions.", "is_fresh": 1, "author": ["Dan Fienberg"]},
{"text": "The film's edge, if not its worthiness, is slightly dulled by an over-slick approach that in the end makes it feel less like reportage than a first-class fundraising video.", "is_fresh": 1, "author": ["Dennis Harvey"]}
]