[
{"reviews_count": "366", "title": "The Revenants", "avg_audience_rating": "4.1", "rotten_count": "79", "tomatometer": "78", "audience_score": "84", "avg_critic_rating": "7.9", "fresh_count": "287", "user_ratings_count": "104,330"},
{"text": "Purveys an air of faux spiritualism, and, ironically on a similar bent to Twelve Years A Slave, it confuses epic with meaningful, and sadism with attrition. ", "is_fresh": 0, "author": ["PJ Nabarro"]},
{"text": "With all of its technical virtuosity, The Revenant nevertheless has little soul. DiCaprio's performance is a tortured master class in method re-acting, but all of the prolonged suffering turns gratuitous.", "is_fresh": 0, "author": ["Glenn Heath Jr."]},
{"text": "The film is emotionally and thematically empty, using the gorgeous cinematography as a means of distraction from how detached the film is from the characters and their extraordinary circumstances.", "is_fresh": 1, "author": ["Alistair Ryder"]},
{"text": "The Revenant was heralded as one of the best films of the year before a frame was ever viewed, but this film does not deserve to be in that conversation. ", "is_fresh": 0, "author": ["Aaron Peterson"]},
{"text": "Hardy has been a superb screen villain over time, perhaps never more so than in this brutal revenge drama.", "is_fresh": 1, "author": ["Leigh Paatsch"]},
{"text": "I\u00f1\u00e1rritu's powerfully visceral masterpiece seems impossibly real. Take a wrap; it feels like drowning in heavy ice and breathing glass shards.", "is_fresh": 1, "author": ["Anne Brodie"]},
{"text": "Inspired by a true story that one suspects is more intriguing than this retelling. ", "is_fresh": 0, "author": ["Pat Padua"]},
{"text": "What is The Revenant if not mythologizing?", "is_fresh": 0, "author": ["Molly Templeton"]},
{"text": "It's powerful and compassionate right to the very last shot.", "is_fresh": 1, "author": ["Erik Anderson"]},
{"text": "This is not only a visually stunning movie but a performance not to miss.", "is_fresh": 1, "author": ["Glynis Costin"]},
{"text": "Every shot is stunning, calling to mind no less a poet of the landscape than Ansel Adams.", "is_fresh": 1, "author": ["Alison Rowat"]},
{"text": "Becomes more and more ridiculous as the minutes tick by.", "is_fresh": 0, "author": ["Grethe Kemp"]},
{"text": "\"The Revenant\" is a harsh and violent film questioning the validity of life and vengeance during a long-gone era. It's visual eloquence beautifully tells a story of loyalty and love as it pushes the boundaries of morality with brutality.", "is_fresh": 1, "author": ["Pamela Powell"]},
{"text": "I applaud the endurance that actors undertook to get into the role and the cinematography is outstanding but for me the film lacked the poetic and almost lyrical style of The Last Of The Mohicans or Dances With Wolves.", "is_fresh": 0, "author": ["Rosalynn Try-Hane"]},
{"text": "One thing is certain: I\u00f1\u00e1rittu has finally solved the problem of how to film a realistic bear fight. The next cinematic problem he should tackle is screenwriting.", "is_fresh": 0, "author": ["A.S. Hamrah"]},
{"text": "Just dropped off into the realm of blandness far too often, but that's not to say that others won't gush plentiful over Inarritu's latest movie.", "is_fresh": 1, "author": ["Andrew Pollard"]},
{"text": "The Revenant is visually stunning, but the story is simplistic...all that agony makes the movie something to endure rather than inspire.", "is_fresh": 0, "author": ["Eli Glasner"]},
{"text": "Takes a harrowing tale of survival and revenge and gives Leonardo DiCaprio the most physically demanding role of his career, which he effortlessly disappears into.", "is_fresh": 1, "author": ["Kiko Martinez"]},
{"text": "[Leonardo DiCaprio] barely says any words in this film, yet he's amazing. ", "is_fresh": 1, "author": ["Steph Cozza"]},
{"text": "Alejandro Gonz\u00e1lez I\u00f1\u00e1rritu tries to stun us with the full power movies have to document landscapes, the journeys conducted through them, and the stamina required to survive them. ", "is_fresh": 1, "author": ["Uri Klein"]},
{"text": "It's a triumph of the human spirit's will to keep fighting in the face of insurmountable odds, with engrossing elements of revenge", "is_fresh": 1, "author": ["Robert Kojder"]},
{"text": "The Revenant is a highly polished film about grand themes: greed, justice and the dispossession of indigenous lands. ", "is_fresh": 1, "author": ["Jason Di Rosso"]},
{"text": "From the first frame, you know you're in for something special and it's pretty clear that Leonardo has given his everything to this film.", "is_fresh": 1, "author": ["Reagan Gavin Rasquinha"]},
{"text": "Overall, The Revenant may not be the most compact film but it is an impactful one. ", "is_fresh": 1, "author": ["Aakriti Anand"]},
{"text": "This is film-making of the very highest order, brilliantly combining all the heritage and history of the epic adventure picture with the very latest in movie-making technology.", "is_fresh": 1, "author": ["Matthew Bond"]},
{"text": "I'm going to make more jokes about The Revenant, because this is basically a live action Road Runner cartoon, and DiCaprio is Wile E. Coyote. ", "is_fresh": 0, "author": ["Sarah Marrs"]},
{"text": "The Revenant is awash with Herzog's perception of the natural world's indifference (at best) to man. If only they could have got him to direct this.", "is_fresh": 0, "author": ["M. Faust"]},
{"text": "The Revenant is breathtakingly serene, yet does not forget that the great outdoors can be immensely savage and unforgiving.", "is_fresh": 1, "author": ["Joanne Soh"]},
{"text": "It's more like a post-morality play in which greed, commerce, violence, and villainy are so deeply entrenched that no one emerges with his soul unscathed.", "is_fresh": 0, "author": ["Lisa Jensen"]},
{"text": "I\u00f1\u00e1rritu continues move away from his earlier work, which I still prefer, to bring a more Hollywood-digestible tale like this one that blends themes of spirituality, primal instinct and humanity.", "is_fresh": 1, "author": ["Candice Frederick"]},
{"text": "As every step of Glass' journey is laid out in painstaking detail, where it is leading is rarely in doubt, and how long it takes to get there makes this a feat of endurance for both the participants and the audience.", "is_fresh": 1, "author": ["Melissa Starker"]},
{"text": "What the human characters are up to-in confusing, ever-on-the-move cohorts of French, Americans, and Indians-doesn't feel like it amounts to much.", "is_fresh": 0, "author": ["Christopher Benfey"]},
{"text": "It's impossible to deny the visceral, visual power of what [Alejandro Gonz\u00e1lez I\u00f1\u00e1rritu] has put on the screen - a power that feels more like you've been pulled directly into the screen instead of merely sitting in front of it.", "is_fresh": 1, "author": ["Dan Webster"]},
{"text": "This is a movie that must be endured, in the same way that an interminable lecture from a particularly boring mansplainer about the Swedish banking system must be stood.", "is_fresh": 0, "author": ["Dorothy Woodend"]},
{"text": "\"The Revenant\" is a film of contrasts as much as it is connections. Memories collide with nightmares, death can be as savage as it can be benevolent and living versus life is a Sisyphean effort.", "is_fresh": 1, "author": ["Brooke Corso"]},
{"text": "There are nine circles of hell in Dante's Inferno, and the ninth is sheer ice. The Revenant is death, purgatory and hell, and each of Dante's circle of hell is somehow represented in the film. ", "is_fresh": 0, "author": ["Sr. Rose Pacatte"]},
{"text": "The Revenant's primitive beauty is overwhelming (a tip of the hat to celebrated cinematographer Emmanuel Lubezki). However, the lack of any human connection - to Glass or anyone else - keeps us from being drawn into the story as we should be.", "is_fresh": 0, "author": ["Eleanor Ringel Cater"]},
{"text": "I wouldn't call the viewing experience...enjoyable. But it's impressive, very beautiful, and, at times, undeniably exciting.", "is_fresh": 1, "author": ["Rain Jokinen"]},
{"text": "While parts of it are thrilling, this is a bloated film by a director who is full of himself, and it shows.", "is_fresh": 0, "author": ["Alan Zilberman"]},
{"text": "A tall, brutal tale, thrillingly told.", "is_fresh": 1, "author": ["Camilla Long"]},
{"text": "The Revenant provides I\u00f1arritu with an opportunity to present a view of the frontier as a place of nearly unrelieved brutality and looming death, all augmented by Lubezki's brilliant cinematography.", "is_fresh": 1, "author": ["Robert Denerstein"]},
{"text": "The Revenant is a wide and large film about intimate life experiences, and the result is one that is thrilling and contemplative.", "is_fresh": 1, "author": ["Mike Daringer"]},
{"text": "Every scene in The Revenant may be remarkably staged, but feels rigorously planned. ", "is_fresh": 0, "author": ["Josh Spiegel"]},
{"text": "The Revenant is a harsh, outrageous and significant film. [Full review in Spanish]", "is_fresh": 1, "author": ["Fico Cangiano"]},
{"text": "As a feat of filmmaking chutzpah, it's one of 2015's most intriguing offerings.", "is_fresh": 1, "author": ["Sara Michelle Fetters"]},
{"text": "The Revenant is epic, atmospheric and visceral. It is also a great old-fashioned yarn.", "is_fresh": 1, "author": ["Alan Corr"]},
{"text": "The Revenant is a muddled and lumpy affair, one whose occasionally brilliant flourishes are buried in an overlong movie in love with its own sense of grandiose suffering.", "is_fresh": 0, "author": ["Sonny Bunch"]},
{"text": "It's a wallop of spectacle and soul-searching that director Alejandro G I\u00f1\u00e1rritu serves up in his follow-up to last year's Birdman - a revenge-propelled must-see epic, master-crafted to leave you breathless.", "is_fresh": 1, "author": ["Stella Papamichael"]},
{"text": "As an experience, it's thrilling, terrifying and sobering. But there's nothing to The Revenant except what darkness lies in the hearts of men, and who on the earth needs to know any more about that.", "is_fresh": 0, "author": ["Tara Thorne"]},
{"text": "For all that The Revenant is aggressively dour to the point of self-parody, it's exquisitely made.", "is_fresh": 1, "author": ["Tim Brayton"]},
{"text": "A movie that is about a near-death experience throbs with alertness to the tiny details of life.", "is_fresh": 1, "author": ["Nandini Ramnath"]},
{"text": "This is, in my opinion, the best film of 2015", "is_fresh": 1, "author": ["Michael A. Smith"]},
{"text": "Both the CGI bear and Leonardo DiCaprio's Oscar-winning performance were perfectly well done.", "is_fresh": 1, "author": ["David N. Butterworth"]},
{"text": "The Revenant survives and has the staying power to stand up to multiple viewings. If you loved the film in the theater, the experience is hardly lessened by its viewing on Blu Ray. The ghost still walks.", "is_fresh": 1, "author": ["J.C. Ma\u00e7ek III"]},
{"text": "[A] grueling but engrossing tale of survival and revenge in the American frontier.", "is_fresh": 1, "author": ["Max Weiss"]},
{"text": "It mostly works, but Inarritu piles on so many mishaps for poor Glass that it borders on comedy.", "is_fresh": 1, "author": ["Giovanni Fazio"]},
{"text": "DiCaprio has a Best Actor Oscar nomination for the role... But the absolute winner here is the cinematography, by Inarritu's frequent collaborator, Emmanuel Lubezki.", "is_fresh": 1, "author": ["John Lui"]},
{"text": "A deep dark survival thriller and a film that serves revenge as a very cold dish indeed.", "is_fresh": 1, "author": ["Russell Baillie"]},
{"text": "An extraordinary achievement.", "is_fresh": 1, "author": ["Vicky Roach"]},
{"text": "The Revenant demonstrates, definitively, why seeking enlightenment and never having to reincarnate on earth again-is a fabulous idea! It's also one of the year's best films.", "is_fresh": 1, "author": ["Mark Jackson"]},
{"text": "That's why The Revenant is best appreciated at its face value -- as a shell, a beautiful, windswept shell that contains less than it promises.", "is_fresh": 0, "author": ["Kong Rithdee"]},
{"text": "A curious mix of genres that has something for everybody. [Full review in Spanish]", "is_fresh": 1, "author": ["Fernando Moreno"]},
{"text": "Making 'The Revenant' was an ordeal, you see, in which people froze and suffered and came to blows, and they'd like to pass the ordeal on to you, the viewer.", "is_fresh": 0, "author": ["Jason Bailey"]},
{"text": "Vengeance makes for a primal motivation but The Revenant is really a tale of survival: the settling of America as an odyssey of mythic dimensions in an untamed wilderness determined to kill all who fail to respect it.", "is_fresh": 1, "author": ["Sean Axmaker"]},
{"text": "The sixth film by Alejandro Gonz\u00e1lez I\u00f1\u00e1rritu is an authentic wild ride: off the rails, epic, powerful, violent, and thrilling. [Full review in Spanish]", "is_fresh": 1, "author": ["Salvador Franco Reyes"]},
{"text": "An empty, pretty thing... little more than a string of breathtaking vistas best suited for months of playback in the home theater section of your local Best Buy.", "is_fresh": 0, "author": ["J. Olson"]},
{"text": "The Revenant's often breathtaking technical accomplishment hides quite a conventional tale. The result is a greater cinematic achievement than it is a film-viewing experience.", "is_fresh": 1, "author": ["Matt Glasby"]},
{"text": "The Revenant is beautifully envisioned story of revenge which, thanks to wonderful cinematography and a couple of powerhouse performances, has resulted into one of the most captivating viewing experiences of the year.", "is_fresh": 1, "author": ["Marija Djurovic"]},
{"text": "Nothing very complicated here, just richly textured suffering by men with very little to lose. ", "is_fresh": 1, "author": ["Kelly Vance"]},
{"text": "[VIDEO ESSAY] Not since Kevin Macdonald's \"Touching the Void\" has a film made its audience feel so cold and desperate. Dress warmly.", "is_fresh": 1, "author": ["Cole Smithey"]},
{"text": "DiCaprio offers what is probably the most physically demanding role of his carreer, almost completely lacking in dialog - although no less powerful for that - even though it isn't his best. [Full Review in Spanish]", "is_fresh": 1, "author": ["Iv\u00e1n Belmont"]},
{"text": "I\u00f1\u00e1rritu's film has a few brief moments of promise, revelation and sheer visceral gratification, but it's ultimately bloated with artless mimicry.", "is_fresh": 0, "author": ["Jaymes Durante"]},
{"text": "The Revenant is a powerhouse of a film, with an admirable cinematic brilliance achieved by creating an enthralling universe of harsh men and harsh wildlife.", "is_fresh": 1, "author": ["Emine Yildirim"]},
{"text": "Every event in the story ... seemed staged more to give I\u00f1\u00e1rritu a chance to show off technical virtuosity, to beat his own chest the way these characters beat their own.", "is_fresh": 0, "author": ["Jeffrey Overstreet"]},
{"text": "The Revenant promised to be a wow of a revenge film, but in trying so hard to be complex and meaningful in his patented overeager way, I\u00f1\u00e1rritu dilutes its impact.", "is_fresh": 0, "author": ["Eileen Jones"]},
{"text": "As it is, you're bound to be impressed by what the actors went through, but you won't be so bothered about the characters they play.", "is_fresh": 1, "author": ["Nicholas Barber"]},
{"text": "I\u00f1\u00e1rritu may be at his best when he isn't aspiring to lofty spiritual 'subtext' but instead getting his hands dirty in some good ol' fashioned action beats. ", "is_fresh": 1, "author": ["Tommy Cook"]},
{"text": "An immaculately lensed, large-scale, and defiantly heartless endurance test.", "is_fresh": 1, "author": ["Jordan Raup"]},
{"text": "It is a visceral experience, starring actors at its best, and filmed in a very spectacular way. [Full review in Spanish]", "is_fresh": 1, "author": ["Sebastian Zavala Kahn"]},
{"text": "It's thrilling; if exhausting.", "is_fresh": 1, "author": ["Michael Bonner"]},
{"text": "The Revenant is a story that takes its sweet time unraveling itself, and that is great, but it also might feel too slow for some spectators. [Full review in spanish]", "is_fresh": 1, "author": ["Asaf L\u00f3pez"]},
{"text": "Equal parts beautiful and brutal, it's easily one of the most unsettling films of the past few years. It's also one of the best.", "is_fresh": 1, "author": ["Gary Dowell"]},
{"text": "An inadequate script is superbly executed in The Revenant, turning half a movie's worth of material into an exhausting, if occasionally transcendent, trek that congratulates the viewer for having survived its icy blasts of testosterone.", "is_fresh": 1, "author": ["Ken Eisner"]},
{"text": "\"The Revenant\" is beautifully photographed, but its greatest impact is hampered by an incredibly long runtime (two hours, 36 minutes) and the high improbability of the narrative. ", "is_fresh": 0, "author": ["Paul Chambers"]},
{"text": "Inarritu's new film is a visceral journey into the bowels of one of the most recurrent themes of his films: human suffering. [Full Review in Spanish]", "is_fresh": 1, "author": ["Carlos D\u00edaz Reyes"]},
{"text": "During his very long footage I am only focused on the beauty of the images, in the prodigious natural light that Emmanuel Lubezki captures. [Full Review in Spanish]", "is_fresh": 1, "author": ["Carlos Boyero"]},
{"text": "A common revenge story with nothing new to offer, and a survival tale just worthy for a reality show. [Full Review in Spanish]", "is_fresh": 0, "author": ["Jorge Ayala Blanco"]},
{"text": "With The Revenant, Gonz\u00e1lez I\u00f1\u00e1rritu gives us a film that is balanced between the intentions of Winding Refn and Scorsese but remains undecided. [Full Review in Spanish]", "is_fresh": 0, "author": ["Alonso D\u00edaz de la Vega"]},
{"text": "In every aspect, a technically impressive film. [Full review in Portuguese.]", "is_fresh": 1, "author": ["Pablo Villa\u00e7a"]},
{"text": "This is the film that DiCaprio has been waiting for and one that is sure to finally win him that elusive Oscar. ", "is_fresh": 1, "author": ["Amy West"]},
{"text": "Although the film works as a visceral experience, on the whole it's a frustrating mess. ", "is_fresh": 1, "author": ["Daniel Barnes"]},
{"text": "The Revenant runs for a shade over two and a half hours, yet nary a minute feels wasted... Such beauty almost beggars belief, even as it reminds us what cinema-as-storyteller does best.", "is_fresh": 1, "author": ["Chris Knight"]},
{"text": "It's probably time to admit that I\u00f1\u00e1rritu has a loud voice but not much to say with it.", "is_fresh": 0, "author": ["Rob Gonsalves"]},
{"text": "While the visuals of The Revenant are amazing from any angle, the argument is soft and ends up feeling like a pretext to justify the succession of beautiful frames. [Full review in Spanish]", "is_fresh": 1, "author": ["Uriel Barco"]},
{"text": "A tale about violence and survival that didn't need so much visual aid to be told, all that spectacle adds little to nothing to the story. [Full review in Spanish]", "is_fresh": 0, "author": ["Sergio Ben\u00edtez"]},
{"text": "The Revenant was enough to be the great adventure movie it is, but its director always wants more. [Full Review in Spanish]", "is_fresh": 1, "author": ["Carlos Mara\u00f1\u00f3n"]},
{"text": "The physicality of DiCaprio's performance is certainly impressive, as is the technical effort that clearly went into the making of the film. But as a whole, the movie arcs toward tedium; we become less involved in Glass' ordeal as he goes on.", "is_fresh": 0, "author": ["Bilge Ebiri"]},
{"text": "Covered in animal fur, a long beard, and snow, and uttering desperate grunts in lieu of words, he gives the film a crucial dramatic trust and the mythic tinge that the title - a French word for a person who reappears after a long absences - suggests.", "is_fresh": 1, "author": ["Anita Katz"]},
{"text": "The culmination doesn't deliver any burning revelation, but the long, bloody crawl through frozen hell ultimately becomes a contemplation on man and morality outside the confines of a law-bound society.", "is_fresh": 1, "author": ["Tom Meek"]},
{"text": "This film is sure to be noticed at Oscar nomination time.", "is_fresh": 1, "author": ["Marie Asner"]},
{"text": "Is it realistic? Sure. But does that make it something you want to see? I say no.", "is_fresh": 0, "author": ["Neil Rosen"]},
{"text": "THREE words best sum up Alejandro Gonz\u00e1lez I\u00f1\u00e1rritu's survival thriller The Revenant: brutal, breath-taking, astonishing.", "is_fresh": 1, "author": ["Rob Carnevale"]},
{"text": "Whittled down to its essence, The Revenant is a hell of a campfire story.", "is_fresh": 1, "author": ["Josef Braun"]},
{"text": "A riveting and absolutely hypnotic revenge drama...", "is_fresh": 1, "author": ["Felix Vasquez Jr."]},
{"text": "I\u00f1arritu can have the luxury of being a perfectionist megalomaniac with his producers and collaborators. The end result justifies it. [Full review in Spanish]", "is_fresh": 1, "author": ["Leonardo Garcia Tsao"]},
{"text": "A film that awakens all your senses. [Full review in Spanish]", "is_fresh": 1, "author": ["Adri\u00e1n Ruiz"]},
{"text": "A movie about vengeance or redemption, it's easy to distinguish one from one another in this film. [Full review in Spanish]", "is_fresh": 1, "author": ["Benjam\u00edn Harguindey"]},
{"text": "A superb story about, horror, beauty and vengeance. [Full review in Spanish]", "is_fresh": 1, "author": ["Daniel Krauze"]},
{"text": "More than a celebration of man over nature, this is an epic tale of human survival and the triumph of the human spirit. [Full review in Spanish]", "is_fresh": 1, "author": ["Nicol\u00e1s Ruiz"]},
{"text": "Might not be a classic, but it's the most interesting film in a visual aspect in modern day Hollywood. [Full review in Spanish]", "is_fresh": 1, "author": ["Pablo A. Scholz"]},
{"text": "Revenge, it's said, is a dish best served cold. In Alejandro Gonz\u00e1lez I\u00f1\u00e1rritu's symphony of savagery, The Revenant, it's served frozen, bloody and without mercy. ", "is_fresh": 1, "author": ["Rick Kisonak"]},
{"text": "Impressive on a technical aspect but with a very simple story. [Full review in Spanish]", "is_fresh": 1, "author": ["Edgardo Res\u00e9ndiz"]},
{"text": "A technical masterpiece, where every single detail was taken care of and a wonderful cinematogrphy by Emmanuel Lubezki. [Full review in Spanish]", "is_fresh": 1, "author": ["Eduardo Molina"]},
{"text": "You could be eating cake now, Leo. But instead, because of your pointless principles, you're chowing down on raw, bloody animal tissue.", "is_fresh": 1, "author": ["Matt Looker"]},
{"text": "An exciting cinematic experience that's hard to resist. [Full review in Spanish]", "is_fresh": 1, "author": ["Ernesto Diezmartinez"]},
{"text": "One of the most memorable cinematic experiences I've had in many years. [Full review in Spanish]", "is_fresh": 1, "author": ["Cuauht\u00e9moc Ruelas"]},
{"text": "Very few times have hell, desperation and death have been captured with the beauty and horror of Emmanuel Lubezki and his camera. [Full review in Spanish]", "is_fresh": 1, "author": ["Alejandro Alem\u00e1n"]},
{"text": "This is no walk in the park, this is an intense film in every single way. [Full review in Spanish] ", "is_fresh": 1, "author": ["Lucero Sol\u00f3rzano"]},
{"text": "If The Revenant was marketed as a superhero film it would be phenomenal, but it's not, so it pretty far fetched and hard to believe. [Full review in Spanish]", "is_fresh": 0, "author": ["Fausto Ponce"]},
{"text": "Alejandro Gonz\u00e1lez I\u00f1\u00e1rritu's latet film is not shy about it's goal. It aims to amaze and it does. [Full review in Spanish]", "is_fresh": 1, "author": ["Fernanda Sol\u00f3rzano"]},
{"text": "A cinematic experience that offers something atractive and new for any kind of cinephile. [Full review in Spanish]", "is_fresh": 1, "author": ["Arturo Aguilar"]},
{"text": "Film aesthetic has never worked so well to express the loss of hope of something people consider sacred. This film is testament of that. [Full review in Spanish]", "is_fresh": 1, "author": ["Erick Estrada"]},
{"text": "Visually extraordinary while being dour, bleak, slow at times, and not really about very much ... If it had been tighter - and had a bit more dramatic weight to go along with its visual virtuosity - it could have been a classic.", "is_fresh": 1, "author": ["CJ Johnson"]},
{"text": "Much more of a survival film than a revenge one--and a spectacular one at that. Like \"All is Lost\", another in this genre, there's not much dialog. None is needed.", "is_fresh": 1, "author": ["Louis Proyect"]},
{"text": "As much as it's a tale of elemental violence and barbarity, it's also about the powerful motivating forces of love and loyalty.", "is_fresh": 1, "author": ["Adam Sweeting"]},
{"text": "The result is a gripping blend of psychological drama and epic adventure, brutal and bloody but underpinned with a delicate lyricism. Barely saying a word, DiCaprio is extraordinary.", "is_fresh": 1, "author": ["Edward Lawrenson"]},
{"text": "Remarkable raw performances by Leonardo DiCaprio and Tom Hardy. Leaves you with feelings of isolation and determination and new found respect for all who settled America and braved the frontier. Stunning! ", "is_fresh": 1, "author": ["Jeffrey K. Howard"]},
{"text": "An adventure for all the senses that is only posible due to the poetic and refined technical work. [Full review in Spanish]", "is_fresh": 1, "author": ["Sof\u00eda Ochoa Rodr\u00edguez"]},
{"text": "A strange film, you can't deny its tremendous qualities, but it's not a film you would watch again and again, especially for a massive audience. [Full review in Spanish]", "is_fresh": 1, "author": ["Juan Carlos Berner"]},
{"text": "A work of art from a filmmaker that strikes to hit perfection. [Full review in Spanish]", "is_fresh": 1, "author": ["Luis Gamboa"]},
{"text": "Maybe I\u00f1\u00e1rritu's method is a little extravagant, but his artistic vision prevails and in the end the result is nothing short from spectacular. [Full review in Spanish]", "is_fresh": 1, "author": ["Ira Franco"]},
{"text": "Violent? Crude? Of course, but it's completely justified. [Full review in Spanish]", "is_fresh": 1, "author": ["Oscar Uriel"]},
{"text": "It's three hours of muddy, gruesome machismo dialled up to eleven and drowning in indecipherable grunts and growls, without anything to justify its existence beyond winning Leonardo DiCaprio an Academy Award.", "is_fresh": 0, "author": ["Glenn Dunks"]},
{"text": "It's art worthy of respect, and just as much fear. Technically, it could be better, and could have benefitted from tighter editing and a more cohesive yarn.", "is_fresh": 0, "author": ["Phil Villarreal"]},
{"text": "Either a flawed masterpiece or a director losing his mind and disappearing up his own butt while he makes his cast and crew suffer on the journey.", "is_fresh": 1, "author": ["Matt Neal"]},
{"text": "I\u00f1arritu invites the audience to let themselves be shaken and taken on a life of death journey. [Full review in Spanihs]", "is_fresh": 1, "author": ["Mario P. Sz\u00e9kely"]},
{"text": "Like 'The Hateful Eight,' 'The Revenant' identifies racism as the white man's mortal sin, but here this poison subverts not just the legitimacy of the United States but the entire enterprise of European expansion into the New World.", "is_fresh": 1, "author": ["John Beifuss"]},
{"text": "\"Its revenge tale, for all its grimaces, is no greater than one found in ordinary B westerns.", "is_fresh": 1, "author": ["Dennis Schwartz"]},
{"text": "Baron Munchausen meets Liver Eating Johnson in this silly but entertaining sage of survival and revenge.", "is_fresh": 1, "author": ["Ron Wilkinson"]},
{"text": "Leonardo DiCaprio isn't even the best thing in this.", "is_fresh": 1, "author": ["Alex Leadbeater"]},
{"text": "This is a frontier story made as no other has been before. It's immense.", "is_fresh": 1, "author": ["David Sexton"]},
{"text": "This is the crucible in which modern America was formed, the film seems to be saying: that it frequently resembles an apocalypse is its own tragic indictment.", "is_fresh": 1, "author": ["Alistair Harkness"]},
{"text": "The film is such an immersive experience that you can almost feel the mud under your feet, sense the chill on your skin and the danger that lurks around every corner of an untamed wilderness in the 1820s.", "is_fresh": 1, "author": ["Allan Hunter"]},
{"text": "The insights are not especially original (the human spirit is strong!) but the execution is astounding.", "is_fresh": 1, "author": ["Henry Fitzherbert"]},
{"text": "Leonardo DiCaprio delivers a barnstorming performance as the embattled Glass, whose quest for survival takes him on a Herzogian odyssey to the very borders of life and death.", "is_fresh": 1, "author": ["Mark Kermode"]},
{"text": "A masterpiece. Should take Best Picture, Best Director, Best Actor, Best Supporting Actor and Best Cinematography this year, next year and the year after that. ", "is_fresh": 1, "author": ["Victoria Alexander"]},
{"text": "I\u00f1\u00e1rritu's camera floats around, God-like, recording the mauled man's plight dispassionately. The effect is meditative but more pronounced in the movie's moments of harsh reality.", "is_fresh": 1, "author": ["Ed Whitfield"]},
{"text": "The Revenant is proof that cinema can stop being just art and becomes an experience. [Full review in Spanish]", "is_fresh": 1, "author": ["V\u00edctor L\u00f3pez Velarde Santib\u00e1\u00f1ez"]},
{"text": "Opening and closing with striking images of blood-soaked ground - first animal blood, then human - The Revenant suggests a circle of death rather than a circle of life.", "is_fresh": 1, "author": ["Jason Best"]},
{"text": "I think I\u00f1\u00e1rritu has something more on his mind than revenge, but the potential complexity of his ending is lost in DiCaprio's hands.", "is_fresh": 0, "author": ["Beth Accomando"]},
{"text": "It looks amazing and has much else to recommend it besides. Still, it's a movie by Alejandro Gonz\u00e1lez I\u00f1\u00e1rritu, who hasn't been content merely to tell a story since he did Amores Perros... He's always reaching for cosmic significance in his material.", "is_fresh": 1, "author": ["Kristian M. Lin"]},
{"text": "It is overwhelming but unmoving, a rush of brute force that leaves the nagging afterthought, \"Is that all there is?\"", "is_fresh": 0, "author": ["Nick Pinkerton"]},
{"text": "Frontier epic takes cine-suffering to new levels of agony and - most importantly - veracity. ", "is_fresh": 1, "author": ["Kate Muir"]},
{"text": "This film is a testosterone flick, the opposite of a chick flick. That is not to say that no women will enjoy it, only that many will not. Its purpose is grit, gore, strength, and endurance. It is simple and elegant in its simplicity.", "is_fresh": 1, "author": ["Rebecca Cusey"]},
{"text": "The Revenant is accomplished, but it is not entertainment.", "is_fresh": 0, "author": ["Alex Doenau"]},
{"text": "if you can stomach a little raw bison liver and ignore a deluge of irrelevant Oscar hype, this is a wilderness expedition worth taking.", "is_fresh": 1, "author": ["Helen O'Hara"]},
{"text": "I admired its ambition, but also found it an endurance test. I was longing for it to be over, and so relieved when it was.", "is_fresh": 0, "author": ["Deborah Ross"]},
{"text": "Inarritu cements his place as one of the world's visionary directors with a film that is bold, beautiful and breathtaking.", "is_fresh": 1, "author": ["Alex Zane"]},
{"text": "Judged on its own merits - as it should be - The Revenant is a thrilling adventure that pits the audience at the heart of a long, painful journey about survival and redemption.", "is_fresh": 1, "author": ["Rich Phippen"]},
{"text": "Here's a movie where the elements ooze from the screen, and DiCaprio matches the experience by baring his wounds and his soul in a performance of agonising honesty and emotion.", "is_fresh": 1, "author": ["Jeremy Aspinall"]},
{"text": "Inarritu's work on \"The Revenant\" is vigorous and cinematic, his reverence applying not just to nature but the art of filmmaking, emphasis on the art.", "is_fresh": 1, "author": ["John Serba"]},
{"text": "The locations and cinematography are wow-inducing.", "is_fresh": 1, "author": ["Nigel Andrews"]},
{"text": "Brutal and beautiful, this is a superbly made, brilliantly acted tale of survival and revenge that exerts a powerful grip and leaves you gasping for breath.", "is_fresh": 1, "author": ["Matthew Turner"]},
{"text": "a singular cinematic experience of profound visceral impact", "is_fresh": 1, "author": ["James Kendrick"]},
{"text": "Beautifully filmed but the movie is one long slog through the blood and snow.", "is_fresh": 0, "author": ["Jackie K. Cooper"]},
{"text": "Without characters to latch on to, or much in the way of deeper thematic content, the novelty of Inarritu's formal work eventually begins to wear off.", "is_fresh": 0, "author": ["Tom Clift"]},
{"text": "A 2 1/2-hour trek through a chilling wilderness of violence, fear, hatred, eviscerations, elemental beauty, and the most brutal bear attack since the 1940 NFL championship (Chicago 73, Washington 0).", "is_fresh": 1, "author": ["Jay Stone"]},
{"text": "I\u00f1\u00e1rritu, presumably spurred by the difficulty of the frosty conditions, has realised the need for narrative discipline, using the images exclusively rather than dialogue to enhance its universal ideas such as self-preservation.", "is_fresh": 1, "author": ["Damien Straker"]},
{"text": "If suffering on screen gets you an Oscar, Leonardo Di Caprio certainly deserves one. He spends almost his entire time on screen as Hugh Glass, in pain: badly mauled by a grizzly bear in Canada's remote frontier, buried alive...", "is_fresh": 1, "author": ["Andrew L. Urban"]},
{"text": "Inarritu's film is cinematic, powerful and raw", "is_fresh": 1, "author": ["Louise Keller"]},
{"text": "An incredible cinematic experience that is both shocking in its violence and awe-inspiring in its depiction of one's man struggle to survive in the brutal wilderness.", "is_fresh": 1, "author": ["John Hanlon"]},
{"text": "... an action blockbuster with an art house soul, a headlong rush of motion with meaning. Pure cinema from I\u00f1\u00e1rritu and Lubezki, two undisputed masters working at their peaks.", "is_fresh": 1, "author": ["Steve Persall"]},
{"text": "A masterclass of filmmaking from I\u00f1\u00e1rritu.", "is_fresh": 1, "author": ["Stefan Pape"]},
{"text": "We learn just as much about ourselves watching it as we do about those enduring the details firsthand.", "is_fresh": 1, "author": ["David Keyes"]},
{"text": "This is an amazing-looking film with a couple of how-in-the-world-did-they-do-that scenes. It works as a tale of survival, adventure yarn, revenge saga and spiritual journey.", "is_fresh": 1, "author": ["Robert Roten"]},
{"text": "The screen swells with earth, air, sky and water. You don't just watch it, you feel it---the cold, the wet, the pain, and the primal emotions that drive the characters.", "is_fresh": 1, "author": ["Neil Pond"]},
{"text": "To describe The Revenant as epic hardly seems enough; magnificent is more like it.", "is_fresh": 1, "author": ["Emma Simmonds"]},
{"text": "The first few minutes will leave you in absolutely no doubt as to the type of visceral, vivid, immersive, armrest-clutching movie experience you're in for...Think of the opening battle sequence in Saving Private Ryan, but with muskets and arrows.", "is_fresh": 1, "author": ["Jim Schembri"]},
{"text": "Thanks to a committed performance by DiCaprio and extraordinary cinematography by Emmanuel Lubezki, this revenge Western isn't terrible, but its grandiose treatment belies a rather dull, flat story. ", "is_fresh": 1, "author": ["Jeffrey M. Anderson"]},
{"text": "If you absolutely have to watch a film about an incredibly inventive man surviving in the absolute worst conditions imaginable, can I recommend The Grey instead?", "is_fresh": 1, "author": ["Simon Miraudo"]},
{"text": "Although 'The Revenant' tells a tale of violence and hardship, gorgeous vistas and cinematic artistry fill the screen -- thanks to Oscar-winning cinematographer Emmanuel Lubezki. ", "is_fresh": 1, "author": ["Betty Jo Tucker"]},
{"text": "Makes exquisite use of silence, with minimal musical score and many scenes where the only sound you hear is clumps of snow falling off trees or ice cracking.", "is_fresh": 1, "author": ["Tim Martain"]},
{"text": "I\u00f1\u00e1rritu has constructed an epic fable of uncommon grace and resonance--a film that, like its hero, achieves a kind of transcendence. ", "is_fresh": 1, "author": ["Christopher Orr"]},
{"text": "... a feast for the senses that's both difficult to watch and impossible from which to turn away.", "is_fresh": 1, "author": ["Todd Jorgenson"]},
{"text": "... a movie people are going to write books about.", "is_fresh": 1, "author": ["Philip Martin"]},
{"text": "This is 2015's best film. ", "is_fresh": 1, "author": ["Bob Grimm"]},
{"text": "The Revenant is an ambitious directorial and performance experiment that yields interesting, if not flawed, results.", "is_fresh": 1, "author": ["Kofi Outlaw"]},
{"text": "Alejandro Gonz\u00e1lez I\u00f1\u00e1rritu's best movie since Babel...", "is_fresh": 1, "author": ["David Nusair"]},
{"text": "A simple story built around the ancient motivation of revenge conveyed in a style that is so harrowing and raw it speaks to our animal instincts.", "is_fresh": 1, "author": ["Annlee Ellingson"]},
{"text": "As an action movie with a grisly exploitation edge, The Revenant could have been a triumph. But Inarritu can't seem to stop lunging after greatness: some of his symbolic touches reach new heights of kitsch.", "is_fresh": 0, "author": ["Jake Wilson"]},
{"text": "The film, never less than visually magnificent, is almost entirely pointless: a shaggy-bear story at best.", "is_fresh": 0, "author": ["Ryan Gilbey"]},
{"text": "If there's anything worth praising about The Revenant, it's that, hollow or no, it sure looks pretty. ", "is_fresh": 1, "author": ["Andy Crump"]},
{"text": "Simply exhausting.", "is_fresh": 0, "author": ["Scott Renshaw"]},
{"text": "A maddening meditation on vengeance: its high toll and the fleeting satisfaction it yields.", "is_fresh": 1, "author": ["Kirk Baird"]},
{"text": "The journey is long and painstaking, the better to give you a sense of just what is being opposed to what.", "is_fresh": 1, "author": ["Matthew Lickona"]},
{"text": "The Revenant is a revenge in a dish definitely served cold. ", "is_fresh": 1, "author": ["Gary Wolcott"]},
{"text": "Spectacular, mind-boggling imagery. DiCaprio is towering. A triumph of cinema art.", "is_fresh": 1, "author": ["James Verniere"]},
{"text": "... A challenging, exhaustive experience.", "is_fresh": 1, "author": ["Greg Maki"]},
{"text": "When Inarritu tries to sketch larger themes, the movie descends into what they called in \"Blazing Saddles\" \"authentic frontier gibberish.\" But when it stays simple and elemental, it's an enthralling experience.", "is_fresh": 1, "author": ["Rob Thomas"]},
{"text": "A wrenching saga of survival and revenge, Alejandro G. Inarritu's new epic is just as technically astounding as his Oscar-winning previous film Birdman. ", "is_fresh": 1, "author": ["Rich Cline"]},
{"text": "A coonskin-cap \"Saving Private Ryan\" opening suggests a compelling confluence of Michael Mann and John McTiernan. Instead, this becomes a long - insufferably long - day's journey into night, indulging I\u00f1\u00e1rritu's intrusive filmmaking more than usual. ", "is_fresh": 0, "author": ["Nick Rogers"]},
{"text": "The pairing of DiCaprio and Hardy, two of the most intense actors working today, is entertaining mainly on a visceral level-bleeding, spitting, chewing, screaming, crying, snorting, and always suffering, quite a human range is on display.", "is_fresh": 1, "author": ["Jonathan W. Hickman"]},
{"text": "A brutal movie, but a great one. You don't even need to know the definition of revenant to enjoy it!", "is_fresh": 1, "author": ["Willie Waffle"]},
{"text": "Don't expect a passionate love story or even Leonardo batting a passing eye at some lady of the trail. This is a man's man movie.", "is_fresh": 1, "author": ["Steve Crum"]},
{"text": "Without the spectacular cinematography, this two and a half hour survival epic might have been an insurmountable challenge to the endurance of its audience.", "is_fresh": 1, "author": ["Kurt Loder"]},
{"text": "DiCaprio is called on to depict the man's desperation, grief and searing anger almost entirely through his eyes and he does it with remarkable depth, turning Glass's endurance into a steadfastness both physical and emotional.", "is_fresh": 1, "author": ["Kate Taylor"]},
{"text": "It's not a flawless film, but the heights I\u00f1\u00e1rritu reaches in tackling such an ambitious project make it easier to appreciate in spite of its deficiencies.", "is_fresh": 1, "author": ["Jeffrey Lyles"]},
{"text": "One of the most beautifully shot films you might ever see thanks to the brilliant work of cinematographer Emmanuel Lubezki. (Full Content Review for Parents - Sex, Nudity, Violence, Profanity, etc. - Also Available)", "is_fresh": 1, "author": ["Jim Judy"]},
{"text": "This is the action-adventure film as arthouse epic, where a tighter script and more clearly defined characters might have made it more engaging. ", "is_fresh": 0, "author": ["Daniel M. Kimmel"]},
{"text": "A hauntingly beautiful film in so many ways.", "is_fresh": 1, "author": ["Michael Smith"]},
{"text": "A classic story told in a very brutal and beautiful way.", "is_fresh": 1, "author": ["Sherilyn Connelly"]},
{"text": "In terms of pure spectacle and cinematic beauty, Alejandro Gonz\u00e1lez I\u00f1\u00e1rritu's The Revenant approaches masterpiece status.", "is_fresh": 1, "author": ["AP Kryza"]},
{"text": "This is a film of simple ideas and overwhelming images-but at the movies, for better or worse, images win.", "is_fresh": 1, "author": ["Robert Horton"]},
{"text": "The story is straightforward enough, but I\u00f1\u00e1rritu and Lubezki have the utmost respect for the land around them.", "is_fresh": 1, "author": ["Anders Wright"]},
{"text": "The characters become symbols; the narrative an allegory; the film a masterpiece. A brutal masterpiece.", "is_fresh": 1, "author": ["Andrea Chase"]},
{"text": "The first hour of the film is stunning. After that, it's a whole lot of showing off.", "is_fresh": 0, "author": ["Edward Johnson-Ott"]},
{"text": "How do you decide who is in charge and what to do? The film's most fascinating moments are the ones where we see characters across the continuum on those questions.", "is_fresh": 1, "author": ["Nell Minow"]},
{"text": "This is The Passion of the Christ with all of the suffering, but without the mystery of faith and redemption.", "is_fresh": 0, "author": ["Joanna Connors"]},
{"text": "Award-time musings for DiCaprio notwithstanding, 'The Revenant' remains adrift in the snow...", "is_fresh": 1, "author": ["Leonard Maltin"]},
{"text": "A picture of both astonishing beauty and grueling agony.", "is_fresh": 1, "author": ["Daniel Gelb"]},
{"text": "DiCaprio may get put through bloody hell, but on a big screen \"The Revenant\" is heaven, with Lubezki's camera painting the American West as a rapturous primeval proving ground.", "is_fresh": 1, "author": ["Ty Burr"]},
{"text": "There is so much to like and admire and study closely, including DiCaprio's mature, committed, ruthless and yet empathetic performance.", "is_fresh": 1, "author": ["Bruce Kirkland"]},
{"text": "Inarritu's gutsy, risky drama with its hard-boiled characters and vividly explicit acts of violence combines a classic Western revenge tale with the best camera work of the year.", "is_fresh": 1, "author": ["Dann Gire"]},
{"text": "The film may leave you as near-speechless and mono-minded as its battered returnee from the dead.", "is_fresh": 1, "author": ["Marjorie Baumgarten"]},
{"text": "The enormously talented Alejandro G. I\u00f1\u00e1rritu (\"Amores Perros,\" \"21 Grams,\" \"Birdman\") strikes again with this 19th century American fable, one of the most brutally beautiful movies I've ever seen.", "is_fresh": 1, "author": ["Richard Roeper"]},
{"text": "I\u00f1\u00e1rritu's real achievement is how he captures the monumental force of the untamed land.", "is_fresh": 1, "author": ["J. R. Jones"]},
{"text": "Alejandro I\u00f1\u00e1rritu's \"The Revenant\" is a gnarly, pitiless ode to a time and place in America when was life was nasty, brutish and often short.", "is_fresh": 1, "author": ["Joe Gross"]},
{"text": "The Revenant seeps into the soul, like the coldest chill ever experienced.", "is_fresh": 1, "author": ["Peter Howell"]},
{"text": "One the most transcending films you'll see in a theater in your lifetime.", "is_fresh": 1, "author": ["Chase Whale"]},
{"text": "Even though we're pretty sure we know where \"Revenant\" is going, it's gripping every step of the way.", "is_fresh": 1, "author": ["Chris Hewitt (St. Paul)"]},
{"text": "A brooding western on an epic scale, it surely will be ranked as one of the great films of this decade.", "is_fresh": 1, "author": ["Colin Covert"]},
{"text": "Boldly original, \"The Revenant\" puts everything else playing at the multiplexes in the shade.", "is_fresh": 1, "author": ["Calvin Wilson"]},
{"text": "Director and co-writer I\u00f1\u00e1rritu is aiming high with this film, based on a true story - and he never lets you forget it.", "is_fresh": 1, "author": ["Bill Goodykoontz"]},
{"text": "Rebirth, Revenge Propel Gorgeous \"Revenant.\"", "is_fresh": 1, "author": ["Charles Koplinski"]},
{"text": "The movie isn't called \"Go Home and Forget About It,\" so we know the revenge plot stands, but what that means for the characters is stranger and less straightforward than you might imagine. This is one of 2015's best films.", "is_fresh": 1, "author": ["Molly Laich"]},
{"text": "A 156-minute western with 30 minutes of plot, a gorgeous and well-acted series of grueling battles between man and man or man and nature that amount emotionally to nothing at all.", "is_fresh": 0, "author": ["Lawrence Toppman"]},
{"text": "The ravenously beautiful revenge saga from Alejandro Gonz\u00e1lez I\u00f1\u00e1rritu plays like the meanest Jack London short story imaginable. Its thrills chill to the bone.", "is_fresh": 1, "author": ["Chris Vognar"]},
{"text": "Despite the literal and figurative pains it takes to persuade viewers of its own importance, \"The Revenant\" can't escape the clutches of crippling self-regard.", "is_fresh": 0, "author": ["Ann Hornaday"]},
{"text": "The Revenant is a caramel-coated macadamia nut, beautiful but difficult to chew. Be prepared, or you'll likely lose a tooth.", "is_fresh": 1, "author": ["Cameron Meier"]},
{"text": "\"The Revenant\" is a director's movie, a showcase for a filmmaker's vision and innovation. Inarritu employs long, complicated shots that make full use of the wide screen.", "is_fresh": 1, "author": ["Mick LaSalle"]},
{"text": "Words matter little in a movie that favors seeing and feeling above all else. It's a work of pure, furious sensation.", "is_fresh": 1, "author": ["Rene Rodriguez"]},
{"text": "A grueling portrait of nature and man at their most unrelenting and unforgiving.", "is_fresh": 1, "author": ["Cary Darling"]},
{"text": "Overburdened by flashbacks and symbolic inserts, The Revenant becomes a real slog in its second hour.", "is_fresh": 0, "author": ["Philip Concannon"]},
{"text": "The Revenant is exhilarating cinema.", "is_fresh": 1, "author": ["Steven Rea"]},
{"text": "The Revenant isn't beautiful to look at because I\u00f1\u00e1rritu wants you take in the sights; it's beautiful because he wants you to know that there's nothing man can't ruin - or be ruined by.", "is_fresh": 0, "author": ["Michael Nordine"]},
{"text": "The heavenly visuals, which would look lovely mounted over a fireplace, ultimately serve filmmaking ego more than the grim, early 19th-century revenge tale they are telling.", "is_fresh": 0, "author": ["Radheyan Simonpillai"]},
{"text": "Within the extremities and occasional nonsense in The Revenant is a superb blood-and-guts Western, positively bubbling over with shock and sweeping visual scope.", "is_fresh": 1, "author": ["Richard von Busack"]},
{"text": "I\u00f1\u00e1rritu dives deep into the savagery of the setting and characters, exploring the insanity from all angles while maintaining a remarkably steady directorial hand.", "is_fresh": 1, "author": ["Dominic Corry"]},
{"text": "With a committed turn from Leonardo DiCaprio and beautiful technical elements, Inarritu gives us a film that is harsh, cruel and positively riveting.", "is_fresh": 1, "author": ["Mike Scott"]},
{"text": "It is as if In\u00e1rritu and Lubezki need affirmation of their talents by jumping and waving their arms in the background cinematically shouting, 'Look at us! Look at us!' ", "is_fresh": 0, "author": ["Bob Bloom"]},
{"text": "Playground machismo.", "is_fresh": 0, "author": ["Cameron Williams"]},
{"text": "Each shot means to shock with elemental beauty: the simmering immanence of Tarkovsky in a frosted glade, mist materializing... The warring fury and irrational tumult of Klimov. The dark-on-darker screen of Philippe Grandrieux. I\u00f1\u00e1rritu has watched well.", "is_fresh": 1, "author": ["Ray Pride"]},
{"text": "The sheer mad bravura on display makes it impossible to dismiss. After all, how many times do you get to see someone attempt to best Malick and Herzog and Apocalypse-era Coppola with one go?", "is_fresh": 1, "author": ["Andrew Wright"]},
{"text": "It is a unique journey that tells a timeless parable about greed, redemption and the dawning realization that man might be even more dangerous than nature.", "is_fresh": 1, "author": ["Randy Myers"]},
{"text": "I\u00f1\u00e1rritu's insistently flashy cinematographic staging...ultimately plays less as lyricism and more as poetry slam.", "is_fresh": 0, "author": ["Peter Canavese"]},
{"text": "A film that's far easier to admire than to love. Indeed, one takes leave of it commiserating more with the actors and crew who obviously endured much making it than with the characters whose story they're telling. ", "is_fresh": 0, "author": ["Frank Swietek"]},
{"text": "The Revenant is as gripping as film can get.", "is_fresh": 1, "author": ["Stephen Danay"]},
{"text": "More likely to be remembered for DiCaprio's performance than its slow-paced, grim narrative, The Revenant is an endurance test for both its leading character and the audience.", "is_fresh": 1, "author": ["Matthew Toomey"]},
{"text": "This is a visual and sensory experience rather than a literary one, and on that level it succeeds admirably.", "is_fresh": 1, "author": ["David Stratton"]},
{"text": "It might be an endurance test, but the rewards of The Revenant are plentiful.", "is_fresh": 1, "author": ["Erin Free"]},
{"text": "Themes so uncomplicated you wonder why I\u00f1\u00e1rritu needed two and a half hours to convey them. What a ride those two and a half hours are, though.", "is_fresh": 1, "author": ["Eric D. Snider"]},
{"text": "The Revenant is not for the weak of will (or stomach), but it's as beautiful as it is bracing.", "is_fresh": 1, "author": ["Alynda Wheat"]},
{"text": "The toil, the penetrating profundity, the dark power of vengeance and love with a pulsating reanimating quality; The Revenant left me utterly stunned, stalking out of the cinema in a state of disbelief.", "is_fresh": 1, "author": ["Blake Howard"]},
{"text": "Alejandro G. I\u00f1\u00e1rritu feels comfortable showing us the darkest side of the human soul. [Full Review in Spanish]", "is_fresh": 1, "author": ["Alejandro G. Calvo"]},
{"text": "I\u00f1\u00e1rritu famously went for realism here, putting his cast and crew through all kinds of misery, but the end result is simply spectacular, something like the gorgeous naturalism of Malick's \"The New World\" crossed with \"Jeremiah Johnson.\"", "is_fresh": 1, "author": ["Laura Clifford"]},
{"text": "It's hard to shake the thought that The Revenant is very, very good at being one thing, yet wants desperately to be another and never quite gets there.", "is_fresh": 1, "author": ["Todd VanDerWerff"]},
{"text": "In a rare performance that intertwines the character with an appreciation of what the actor had to do to achieve it, DiCaprio sets a new standard of physical sacrifice for the realization of a role.", "is_fresh": 1, "author": ["Jules Brenner"]},
{"text": "After a while, \"The Revenant\" turns into a slog. Make no mistake, it's a very beautiful slog.", "is_fresh": 0, "author": ["Anthony Lane"]},
{"text": "High-toned body horror that emotionally and tonally starts on one note and never deviates from it, which becomes rather exhaustingly dull.", "is_fresh": 1, "author": ["MaryAnn Johanson"]},
{"text": "Hugh Glass is like the Dirty Steve in a Dogme 95 Young Guns. ", "is_fresh": 0, "author": ["Pete Vonder Haar"]},
{"text": "What elevates this standard, if relentless, plot line is that The Revenant feels like high-wire work without a net.", "is_fresh": 1, "author": ["Bob Mondello"]},
{"text": "It's a grand adventure that delivers on its tale of survival and revenge, and though it might be a little too intense for some, it's ultimately well-worth the two and a half hours to experience one of the most breathtaking films of the year.", "is_fresh": 1, "author": ["Jeff Beck"]},
{"text": "The movie is such a grueling experience that it's easy to feel a little betrayed by the contrived simplicity of its ultimate goal.", "is_fresh": 0, "author": ["Mark Dujsik"]},
{"text": "\"The Revenant\" is both draining and rewarding, and its power lingers long after its last gasp.", "is_fresh": 1, "author": ["Tom Long"]},
{"text": "It features a battalion of very fine, hardworking actors, none more diligently committed than Mr. DiCaprio, and some of the most beautiful natural tableaus you're likely to see in a movie this year.", "is_fresh": 1, "author": ["Manohla Dargis"]},
{"text": "Defenders of this movie will talk about its \"sense of place.\" But this film has only a sense of things framed in a world of wonders, like the patched-up keelboat of the trappers, or even Glass's banged-up anatomy itself.", "is_fresh": 0, "author": ["Michael Sragow"]},
{"text": "...this is a fascinating, tense tale with terrific performances by DiCaprio and especially Hardy as the bad guy...the screen really brightens up when he appears...one of the best films of the year despite the counterfactual ending", "is_fresh": 1, "author": ["Tony Medley"]},
{"text": "The major accomplishments of The Revenant are its extraordinary cinematography and its ability to try our patience. ", "is_fresh": 0, "author": ["Blake Crane"]},
{"text": "\"The Revenant\" is a classic B picture fortified with all manner of Grade A resources.", "is_fresh": 1, "author": ["Kenneth Turan"]},
{"text": "DiCaprio's performance is what drives The Revenant and makes this R-rated violent Western not only one of the year's best films but also one of the best Westerns in decades.", "is_fresh": 1, "author": ["Rebecca Murray"]},
{"text": "The Revenant isn't for everyone - it asks more from its audience than the average motion picture - but for those to whom the subject matter appeals, it will be among 2015's most memorable theatrical options.", "is_fresh": 1, "author": ["James Berardinelli"]},
{"text": "As wondrous to behold as it is punishing to endure, \"The Revenant\" is Inarritu staking his claim to the most unique movie of the year. ", "is_fresh": 1, "author": ["Travis Hopson"]},
{"text": "A powerful, unforgettable motion picture that packs a wallop you'll need some time to recover from.", "is_fresh": 1, "author": ["Mike McGranaghan"]},
{"text": "The Revenant is the epitome of primal, visceral cinema.", "is_fresh": 1, "author": ["Brett McCracken"]},
{"text": "The point of the whole thing - the reason this movie was made, and the reason we're watching it - gets drowned beneath a series of memorable but disconnected images and moments.", "is_fresh": 0, "author": ["Andrew O'Hehir"]},
{"text": "I came out of this would-be epic feeling physically exhausted, psychically mauled and none the better for wear.", "is_fresh": 0, "author": ["Joe Morgenstern"]},
{"text": "[The Revenant] demonstrates once more that I\u00f1\u00e1rritu is one of the most fascinating, unpredictable and demanding filmmakers working today.", "is_fresh": 1, "author": ["David 'Mad Dog' Bradley"]},
{"text": "Unlike many productions that gift themselves importance, \"The Revenant\" simply becomes a viewing event.", "is_fresh": 1, "author": ["Brian Orndorf"]},
{"text": "If filmmaking can be macho, here it is at its man-manliest.", "is_fresh": 0, "author": ["Matt Prigge"]},
{"text": "As an actor, DiCaprio has made crawling his forte.", "is_fresh": 1, "author": ["Tony Macklin"]},
{"text": "Gorgeous to look at, this romantic survivalist revenger has the heart of an ice pick. ", "is_fresh": 0, "author": ["Joanna Langfield"]},
{"text": "A stunning visual tone poem about frontier survival.", "is_fresh": 1, "author": ["Anne Thompson"]},
{"text": "The Revenant was famously hard to shoot, but the filmmaking has a rare and confident vigor - you are always aware you're seeing the real world, even as I\u00f1\u00e1rritu's camera bounds through it like it's Skyrim.", "is_fresh": 1, "author": ["Alan Scherstuhl"]},
{"text": "No one is more in rhapsody over the manliness of the mission than Inarritu. His bleak and beautiful movie is overwrought, but it's also soaked through with the brutality of the frontier and the tragedy of its indigenous people.", "is_fresh": 1, "author": ["Jake Coyle"]},
{"text": "I\u00f1\u00e1rritu may have fashioned The Revenant as the ultimate endurance test, but as Glass, DiCaprio simply endures. He gives the movie a beating heart, offering it up, figuratively speaking, alive and bloody on a platter", "is_fresh": 1, "author": ["Stephanie Zacharek"]},
{"text": "The Revenant is a throwback look at a wild time in American history, and the team-up of I\u00f1\u00e1rritu and DiCaprio gives this era a deserving epic.", "is_fresh": 1, "author": ["Brian Truitt"]},
{"text": "Come for the bear scene ... stay for a survival saga worth all of Leo's suffering.", "is_fresh": 1, "author": ["Christian Toto"]},
{"text": "It's intoxicating, even as long stretches separate plot developments. \"McCabe and Mrs. Miller\" and the impressionistic rambles of Terrence Malick films such as \"Days of Heaven\" come to mind.", "is_fresh": 1, "author": ["Kyle Smith"]},
{"text": "Alejandro Gonz\u00e1lez I\u00f1\u00e1rritu's stunning, brutal western tackles elemental themes through an uncompromised and non-didactic vision.", "is_fresh": 1, "author": ["Tomris Laffly"]},
{"text": "It's one brutal, badass epic. Hang on for the power of cinema unleashed and DiCaprio stretching his acting muscles, testing himself, eager for challenge. That you do not want to miss. ", "is_fresh": 1, "author": ["Peter Travers"]},
{"text": "As gorgeous as the landscapes are, the men who march across them are small and mean and violent. But, then again, this is not \"How the West Was Won.\" This is mostly, perhaps, how it was.", "is_fresh": 1, "author": ["Stephen Whitty"]},
{"text": "A virtuoso display of pure, awe-inspiring cinema.", "is_fresh": 1, "author": ["Dustin Putman"]},
{"text": "The Revenant is Alejandro Gonzalez Inarritu in a nutshell: he makes a bloody 19th century revenge film, and throws in a Star Wars reference. God love him. ", "is_fresh": 1, "author": ["David Medsker"]},
{"text": "A relentlessly-gruesome, gritty and grim adventure reminiscent of how the West was won.", "is_fresh": 1, "author": ["Kam Williams"]},
{"text": "The story is a little absurd if you step back and think about it, but it feels so visceral and immediate that you never really need to.", "is_fresh": 1, "author": ["Vincent Mancini"]},
{"text": "You don't just watch \"The Revenant,\" you experience it. You walk out of it exhausted, impressed with the overall quality of the filmmaking and a little more grateful for the creature comforts of your life.", "is_fresh": 1, "author": ["Brian Tallerico"]},
{"text": "An epic poem written in blood...one of the best pictures of the year. ", "is_fresh": 1, "author": ["Roger Moore"]},
{"text": "The American frontier on display in Alejandro G. I\u00f1\u00e1rritu's The Revenant' is a feral land without mercy or God", "is_fresh": 1, "author": ["Kirk Honeycutt"]},
{"text": "Apocalyptic filigree and bravura filmmaking aside, The Revenant keeps coming back to an old, bloody story: good man chases bad man for doing bad things to good man.", "is_fresh": 1, "author": ["Chris Barsanti"]},
{"text": "An eerie, elemental and exhausting epic adventure, making 'Deliverance' look like a walk in the park.", "is_fresh": 1, "author": ["Susan Granger"]},
{"text": "How many great scenes does it take to make a great movie? The Revenant, a ravishingly violent Western survival yarn from Alejandro Gonz\u00e1lez I\u00f1\u00e1rritu, has a healthy few, scattered like acorns across its two-and-a-half-hour canvas.", "is_fresh": 1, "author": ["A.A. Dowd"]},
{"text": "Simply put, it's boring to watch something so pompously pretentious that stays so resolutely on beat.", "is_fresh": 0, "author": ["Adam Nayman"]},
{"text": "The Revenant is so prettily constructed that it's painful to admit how ridiculous it actually is.", "is_fresh": 0, "author": ["Alison Willmore"]},
{"text": "In The Revenant, there is never so much as a twig or a smear of mud out of place. It looks beautiful, certainly, but not real. ", "is_fresh": 1, "author": ["Amber Wilkinson"]},
{"text": "DiCaprio's performance is an astonishing testament to his commitment to a role.", "is_fresh": 1, "author": ["Soren Andersen"]},
{"text": "The type of film that can only get better on multiple viewings.", "is_fresh": 1, "author": ["Edward Douglas"]},
{"text": "I think The Revenant is, on the whole, pain without gain, but it's certainly a tour \u200bde force - literally, a feat of strength.", "is_fresh": 0, "author": ["David Edelstein"]},
{"text": "The Revanent is among the truly great films of 2015, and is Alejandro Gonz\u00e1lez I\u00f1\u00e1rritu's greatest film... by the end you share in the characters' exhaustion of heart and soul, and perhaps in their glimpse at something infinite, beautiful, and terrifying.", "is_fresh": 1, "author": ["Mark Hughes"]},
{"text": "DiCaprio is outstanding in a role that has him silent for extended periods of time and hurls his body around like a leaf in a tornado.", "is_fresh": 1, "author": ["Luke Buckmaster"]},
{"text": "From the sound of it, The Revenant was an arduous chore to make. And as the final product proves, it was definitely worth the trouble.", "is_fresh": 1, "author": ["Nick Schager"]},
{"text": "The Revenant is just the latest gorgeous, hollow and largely pointless work from a director who has convinced so many that his stark nudity is actually a sumptuous set of clothes.", "is_fresh": 0, "author": ["Devin Faraci"]},
{"text": "The Revenant is a stunning, impeccably made, hauntingly poetic western. It's also long, immersive, demanding, spooky and metaphysical.", "is_fresh": 1, "author": ["Stephen Rebello"]},
{"text": "Leonardo DiCaprio is at his best battling against the elements in this brutal and beautiful snowy western. The grizzly bear attack is worth the price of admission alone.", "is_fresh": 1, "author": ["Pete Hammond"]},
{"text": "An extravagant \"dad\" speech: \"Back in my day, we walked eight miles barefoot in the snow to hunt down the men who left us for dead!\"", "is_fresh": 0, "author": ["Matt Patches"]},
{"text": "We can watch a man endure a lot to get to where he wants to go but when we don't feel a connection, it's hard to root for anything other than the film to be over.", "is_fresh": 0, "author": ["Terence Johnson"]},
{"text": "The Revenant is intensely disturbing and brutally mesmerizing with exquisite imagery and a beautifully bleak atmosphere. ", "is_fresh": 1, "author": ["Chris Sawin"]},
{"text": "Punishing, visceral, masculine, grisly and utterly captivating for its run time. Not for everyone, but it's a powerful trip, if your mind and spirit can endure it.", "is_fresh": 1, "author": ["Sean O'Connell"]},
{"text": "The Revenant is another sweeping accomplishment for I\u00f1\u00e1rritu and one of 2015's best films. Just make sure you know what you're in for.", "is_fresh": 1, "author": ["Bill Clark"]},
{"text": "One of the more indulgent and visual experiences I've had at the movies, with glorious landscapes, natural lighting, and picturesque majesty, but the film is more than a demo-reel of mountain ranges.", "is_fresh": 1, "author": ["Josh Cabrita"]},
{"text": "All the more incredible for not needing 3D glasses or a virtual reality helmet to let moviegoers feel fully dropped into the beautiful, cold, bloody thick of it.", "is_fresh": 1, "author": ["Robert Abele"]},
{"text": "In\u00e1rritu and DiCaprio have given us an adventure we will not forget --- and Leo should be accepting a Best Actor Oscar come February.", "is_fresh": 1, "author": ["Jeanne Kaplan"]},
{"text": "\"The Revenant\" should be seen for its exquisite scenery, its realistic portrayal of men living 200 years ago in an unforgiving environment, and for Leo.", "is_fresh": 1, "author": ["David Kaplan"]},
{"text": "In Alejandro Gonz\u00e1lez I\u00f1\u00e1rritu's astounding new film, DiCaprio puts himself through the wringer. In fact, scratch that: what he goes through in The Revenant makes the wringer look like an Ayurvedic shea butter rubdown.", "is_fresh": 1, "author": ["Robbie Collin"]},
{"text": "It is a mad, visionary and quite often preposterous survival tale, very bloody, very violent and full of murky religious symbolism. It is also often astounding in its flights of macabre lyricism.", "is_fresh": 1, "author": ["Geoffrey Macnab"]},
{"text": "Who needs clever dialogue when you can watch Leo DiCaprio groaning and grunting for a considerable part of the movie?", "is_fresh": 0, "author": ["Harvey S. Karten"]},
{"text": "I\u00f1\u00e1rritu captured The Revenant in the wilds of Canada, Argentina, and the United States, using a blend of raw footage and clever computer-generated effects to create a story of survival and adventure that would curdle Jack London's blood.", "is_fresh": 1, "author": ["Russ Fischer"]},
{"text": "Makes the guys in The Grey look like weenies, and those were some tough dudes!", "is_fresh": 1, "author": ["Fred Topel"]},
{"text": "Beautiful and... uh... well, it's beautiful anyway.", "is_fresh": 0, "author": ["Matt Singer"]},
{"text": "Let's just cut to the chase and say it - this is the western as Game of Thrones", "is_fresh": 1, "author": ["Luke Y. Thompson"]},
{"text": "It's a hairy true story, one ripe for the \u00fcber-masculine film treatment, which is exactly what director Alejandro Gonz\u00e1lez I\u00f1\u00e1rritu has given us in the grueling The Revenant, as much a survival story for the audience as it is for the hero.", "is_fresh": 0, "author": ["Richard Lawson"]},
{"text": "DiCaprio's raw performance helps elevate what could have been just another man-versus-nature drama, The Edge with furry hats, into a powerful ode to resilience. But this is I\u00f1\u00e1rritu's show.", "is_fresh": 1, "author": ["Nick De Semlyen"]},
{"text": "That bare outline doesn't even begin to capture the sheer wild ambition, beauty and savagery on show in The Revenant. Far more challenging than even I\u00f1\u00e1rritu's bravura Oscar-winner Birdman, this is his Fitzcarraldo or his Apocalypse Now.", "is_fresh": 1, "author": ["James Mottram"]},
{"text": "If you like Westerns, survival films, Leonardo DiCaprio, or Tom Hardy, then I think this is a film you're going to want to check out on the big screen.", "is_fresh": 1, "author": ["Scott Chitwood"]},
{"text": "I\u00f1\u00e1rritu and Lubezki are taking chances with their camera -- chances, no doubt, made even more difficult by working with only natural light in frigid conditions. But it pays off, giving the film a singularly strange and haunting beauty.", "is_fresh": 1, "author": ["Chris Nashawaty"]},
{"text": "While Leo crawls his way towards Oscar gold, The Revenant gets lost in a beautifully snow-blind bleakness that runs far longer than necessary.", "is_fresh": 1, "author": ["Matt Donato"]},
{"text": "The movie is as thrilling and painful as a sheet of ice held to the skin.", "is_fresh": 1, "author": ["Peter Bradshaw"]},
{"text": "A haunting, immersive and grizzly cinematic experience, The Revenant features Alejandro Gonzalez Innaritu at the height of his filmmaking prowess, while an all-in Leonardo DiCaprio delivers the performance of a lifetime.", "is_fresh": 1, "author": ["Matthew Pejkovic"]},
{"text": "A stunning-looking and daring filmmaking endeavor, The Revenant brings one of the Old West's greatest legends to cinematic life with utter ferocity and complete conviction from its cast.", "is_fresh": 1, "author": ["Jim Vejvoda"]},
{"text": "A violent and masterfully acted tale, beautifully filmed and handsomely produced. It has pacing issues, and that's a hindrance, but if you think about it the whole film is about hindrance.", "is_fresh": 1, "author": ["William Bibbiani"]},
{"text": "A cold, visceral, and overwhelming piece of cinema, The Revenant not only sets a new precedent for the survival genre but may be the strongest American film since Paul Thomas Anderson's There Will Be Blood.", "is_fresh": 1, "author": ["Michael Roffman"]},
{"text": "This may be frontier America, but it feels older, primordial - like a place humans aren't yet meant to be.", "is_fresh": 1, "author": ["Josh Larsen"]},
{"text": "This is nowhere near DiCaprio's best performance, but it is his most urgent, in a \"Do you not see how hard I'm working for you people?\" kind of way.", "is_fresh": 1, "author": ["Mike Ryan"]},
{"text": "Director/co-writer Alejandro G. Inarritu, cinematographer Emmanuel Lubezki and a vast team of visual effects wizards have created a sensationally vivid and visceral portrait of human endurance under very nearly intolerable conditions.", "is_fresh": 1, "author": ["Todd McCarthy"]},
{"text": "The Revenant gives no quarter, and in the absence of all goodwill it begs the viewer to confront the terrifying notion of an world without human decency.", "is_fresh": 1, "author": ["Rodrigo Perez"]},
{"text": "Playing a frontiersman left for dead who seeks vengeance, Leonardo DiCaprio gives a potently physical performance that, much like \"The Revenant\" itself, eschews nuance in the name of pitiless, cathartic drama.", "is_fresh": 1, "author": ["Tim Grierson"]},
{"text": "A bloody revenge tale that's self-serious and absurd at once, pitting top-notch craft with muddled ideas.", "is_fresh": 1, "author": ["Eric Kohn"]},
{"text": "There is plenty of amazement here, to be sure, but all too little in the way of grace.", "is_fresh": 0, "author": ["Justin Chang"]},
{"text": "With a career that is full of tremendous performances, five-time Academy Award nominee Leonardo DiCaprio offers an intense and moving testament to his legacy as one of modern cinema's most gifted actors. ", "is_fresh": 1, "author": ["Clayton Davis"]},
{"text": "\"This is our kind of event movie.\"", "is_fresh": 1, "author": ["Adam Woodward"]},
{"text": "While the style may outpace the substance, that doesn't make the style any less magnificent. And when it comes to sheer customer satisfaction, The Revenant checks nearly every box, up to and including the man vs. wild throwdown.", "is_fresh": 1, "author": ["Tasha Robinson"]},
{"text": "Inarritu's brand of intensity allows for zero emotional complexity. ... It's hard to respond completely to a filmmaker who hits every beat, every note, with the same bug-eyed determination.", "is_fresh": 0, "author": ["Michael Phillips"]},
{"text": "If the sum of its parts don't add up to much, the fact remains that the specific parts are often breathtaking. ", "is_fresh": 1, "author": ["Scott Mendelson"]},
{"text": "A bit simple in the revenge-focused story department but visually rich and rarely less than striking.", "is_fresh": 1, "author": ["Matt Pais"]},
{"text": "What pushes the film, at long last, into the icy river, is its very design, as a monument to slick, mercenary grandeur.", "is_fresh": 0, "author": ["Jaime N. Christley"]},
{"text": "No, it's not a happy tale. But what survives from 'Birdman' is a compelling, forward-moving, simple approach to storytelling that grips us through stretches of silence and misery.", "is_fresh": 1, "author": ["Dave Calhoun"]},
{"text": "With The Revenant, Alejandro Gonz\u00e1lez I\u00f1\u00e1rritu weaves a story both simple and complex, brutal and beautiful, and with a focused and impressive visual aesthetic.", "is_fresh": 1, "author": ["Valeriy Kolyadych"]}
]