[
{"reviews_count": "251", "title": "The Predator", "avg_audience_rating": "2.8", "rotten_count": "169", "tomatometer": "33", "audience_score": "42", "avg_critic_rating": "4.9", "fresh_count": "82", "user_ratings_count": "5,060"},
{"text": "There are a few entertaining and amusing moments to be had with this film, but overall it's a messy and overlong attempt at recapturing what made the franchise fun in the first place.", "is_fresh": 0, "author": ["Michelle Kisner"]},
{"text": "Is this a good movie? No. Is it silly? Yes. Exaggerated? Definitely. But is it fun? Oh yeah. [Full Review in Spanish]", "is_fresh": 1, "author": ["Carlos D\u00edaz Reyes"]},
{"text": "Everybody's favourite multi-jawed dreadlocked alien monster is back for a fun, throwaway action splurge. With a large dollop of humour, the film plays like the latest sequel in the Predator series rather than as any attempt to makeover the formula.", "is_fresh": 1, "author": ["Jim Schembri"]},
{"text": "The fourth film in the Predator franchise is also the fourth best Predator movie.", "is_fresh": 0, "author": ["Patrick Bromley"]},
{"text": "Even when The Predator isn't going out of its way to be unbelievably insensitive to seemingly anyone with a physical or intellectual disability, it is mind-numbingly stupid to the point of being incoherent. Shane Black might not be built for 2018. ", "is_fresh": 0, "author": ["Brian Gill"]},
{"text": "Black blows up the action movie stereotypes of yore with a Cheshire Cat grin. ", "is_fresh": 1, "author": ["Matt Oakes"]},
{"text": "Offensive in almost every way, it's the Billy Lynn's Long Halftime Walk of Predator movies.", "is_fresh": 0, "author": ["Kent Garrison"]},
{"text": "A goretastic, surprisingly funny sequel that plumps for easy CGI thrills and disappointing disability tropes all too often. ", "is_fresh": 0, "author": ["Cameron Frew"]},
{"text": "Has all the hallmarks of an ambitious, stuffed-to-the-gills \"big idea\" reboot that spooked the studio and got chopped down to a 95 minute bare-bones September dump.", "is_fresh": 0, "author": ["Bob Chipman"]},
{"text": "I really wanted to love The Predator, and I'm extremely relieved that I do. It's also clear that this final product is muddled and imperfect and probably a little generationally tone deaf.", "is_fresh": 1, "author": ["Ed Travis"]},
{"text": "While The Predator tries to lean on nostalgic reverence for that first movie, it also can't find a tonal mix that works.", "is_fresh": 0, "author": ["Zaki Hasan"]},
{"text": "The Predator is quite fun if you can appreciate the silliness since it doesn't take itself seriously, but unfortunately, the lack of seriousness is also its own detriment.", "is_fresh": 0, "author": ["Harris Dang"]},
{"text": "It's a film that features some of Black's trademark wit but it's far too inconsistent for anyone who isn't a die-hard fan of either Shane Black or the Predator films.", "is_fresh": 1, "author": ["Sean Mulvihill"]},
{"text": "You don't have to have a plot to have a good movie. But you do need decent editing, lighting, shot composition, and directorial vision. Shane Black's The Predator has none of the above.", "is_fresh": 0, "author": ["Joel Mayward"]},
{"text": "The Predator does everything it can to effectively kill off further interest in the franchise.", "is_fresh": 0, "author": ["Jake Tropila"]},
{"text": "We've known this franchise bleeds since the first Alien v. Predator, but Black has proven that we can kill it.", "is_fresh": 0, "author": ["Clint Worthington"]},
{"text": "As fun as it is to revisit one of Arnold Schwarzenegger's better films, this update never quite clicks despite trying to rebottle the vibe from the original.", "is_fresh": 0, "author": ["Micheal Compton"]},
{"text": "There's fun to be had viewing this movie, I can't deny that. But this predator is nowhere near apex.", "is_fresh": 0, "author": ["Khari J. Sampson"]},
{"text": "It kicks off with egregiously bad CGI: A plastic-toy spaceship rends a fake-looking hole in the space-time continuum. The score is egregious. The acting is egregious. The egregious storyline is egregiously hard to explain.", "is_fresh": 0, "author": ["Mark Jackson"]},
{"text": "A very messy endeavor that wants to live in the good ol' days of the 80s without being held to the improved standards of modern action movies. It's rushed, overstuffed and frequently loses its own focus.", "is_fresh": 0, "author": ["Jon Winkler"]},
{"text": "A catastrophe of incomprehensible nonsense, The Predator is a god-awful mess that's as loud and pointless as cinema gets.", "is_fresh": 0, "author": ["Doug Jamieson"]},
{"text": "The Predator ... feels less like a tight action gem and more like a substandard \"X-Files\" episode.", "is_fresh": 0, "author": ["Sean Collier"]},
{"text": "If you like Black's work, you'll enjoy The Predator, plain and simple. His jokey attitude, taste for violence, and overall tone are in full effect. He doesn't take things too seriously, which is key.", "is_fresh": 1, "author": ["Joey Magidson"]},
{"text": "[The Predator] doesn't explore new territory because the study needs to continue exploiting intellectual property. [Full review in Spanish]", "is_fresh": 0, "author": ["Rafael Paz"]},
{"text": "The insulting, or humorous, thing here is not that you've been lied to ... it's that Predator 2 is more engaging than this. Add Predators, too, while we're at it.", "is_fresh": 0, "author": ["Nguyen Le"]},
{"text": "When Black employs a tactic and sticks with his brains - like an evolving predator - he can't be stopped.", "is_fresh": 1, "author": ["Nate Adams"]},
{"text": "The absurdity takes away from nearly all possible mystery and suspense.", "is_fresh": 0, "author": ["Don Shanahan"]},
{"text": "\"The Predator\" is such an ungodly mess of clashing tones and chaotic action scenes.", "is_fresh": 0, "author": ["Matthew Passantino"]},
{"text": "Not as clever as it thinks it is.", "is_fresh": 0, "author": ["Stephen Rebello"]},
{"text": "How does that writer take a whack at that franchise, and come up with something as convoluted and puffy as this?", "is_fresh": 0, "author": ["Tim Brayton"]},
{"text": "A muddled effort that never hits the highs of the (admittedly perfect) original film, though a terrific cast and more than a few clever surprises are sure to keep audiences on their toes (and on the edge of their seats).", "is_fresh": 1, "author": ["Todd Gilchrist"]},
{"text": "Anyone looking for a \"serious\" movie featuring this creature will be disappointed. Approach The Predator for what it is -- a self-aware riff on classic B-movies -- and it's a reasonably enjoyable way to kill two hours.", "is_fresh": 1, "author": ["Mike McGranaghan"]},
{"text": "The class B movie cult that refuses to die. [Full Review in Spanish] ", "is_fresh": 0, "author": ["Diego Batlle"]},
{"text": "Adding to the sense this is a film that's been gathering dust on a shelf since 1991 is lead lunk Boyd Holbrook, a dead-ringer for that mainstay of cheap Canon action movies, Michael Dudikoff. ", "is_fresh": 0, "author": ["Ed Whitfield"]},
{"text": "Predator's original screenwriter is back, but not even he can recapture the thrill and surprise of the 1987 classic.", "is_fresh": 0, "author": ["Tom Glasson"]},
{"text": "This is a negative five. This is probably the worst movie of the year...it's so bad, halfway through the movie, I wondered if I was in a Jacob's Ladder scenario...", "is_fresh": 0, "author": ["Brandon Collins"]},
{"text": "I don't know why they did this.", "is_fresh": 0, "author": ["Justin Brown"]},
{"text": "Shane Black's weakest film as a director (by a mile)...", "is_fresh": 0, "author": ["David Nusair"]},
{"text": "An '80s-style B-movie, and it wants to look and feel like one.", "is_fresh": 0, "author": ["Sarah Ward"]},
{"text": "The frenetic pace plays in favor of the film... moving from one action sequence to another with small breaks for the required dose of plot that is needed only to generate some empathy with the protagonists. [Full review in Spanish]", "is_fresh": 1, "author": ["Emmanuel B\u00e1ez"]},
{"text": "A waist-high muck of studio meddling that contains some franchise high-points. Wade through and be rewarded accordingly.", "is_fresh": 1, "author": ["J. Olson"]},
{"text": "It had all the ingredients, but for whatever reason they had the quantities wrong, or it was baked at the wrong temperature...disappointing, that's all.", "is_fresh": 0, "author": ["Achara Kirk"]},
{"text": "I'm not sure if everyone is just phoning it in or if they're genuinely trying to make a good movie.", "is_fresh": 0, "author": ["Jaby Koay"]},
{"text": "The Predator has to be the last forgettable summer film. Please... [Full Review in Spanish]", "is_fresh": 0, "author": ["Hugo Hern\u00e1ndez Valdivia"]},
{"text": "This film was a mess, and easily the most disappointing film of the whole year.", "is_fresh": 0, "author": ["Chris Stuckmann"]},
{"text": "By the time we reach the second half of the film, it completely falls apart and it feels like a terrible amalgamation of different ideas. [Full Review in Spanish]", "is_fresh": 0, "author": ["Erick Estrada"]},
{"text": "The return of Shane Black to the world of The Predator is never defined as being the director's film or about the alien monster. [Full Review in Spanish]", "is_fresh": 0, "author": ["Sergio L\u00f3pez Aguirre"]},
{"text": "The film lands back in a similar place to the original film and as a result, the climax of the film runs on autopilot and the final scene that tries to create the platform for more sequels, is laughable. [Full Review in Spanish]", "is_fresh": 0, "author": ["Juanma Fern\u00e1ndez Par\u00eds"]},
{"text": "Black's latest addition to the franchise cashes in on high-octane action scenes, comedy, self-referential moments and pathological mapping that draws you into the Loonies' psychology, questions of ability and the mission at hand.", "is_fresh": 1, "author": ["Malik Ad\u00e1n"]},
{"text": "And as [Shane Black] mixes comedy and action... he manages to make The Predator a light and entertaining movie. Mission accomplished. [Full review in Spanish]", "is_fresh": 1, "author": ["Gaspar Zimerman"]},
{"text": "The film doesn't contain a single thirty-second stretch of coherence throughout its 107-minute running time, to the point that it feels like it was cobbled together from outtakes.", "is_fresh": 0, "author": ["Daniel Barnes"]},
{"text": "Logical holes also destroy everything that could somehow be taken seriously... But something is undeniable, the director demonstrates having a special ability to present abstract ideas and make them extremely interesting. [Full review in Spanish]", "is_fresh": 1, "author": ["Ruben Peralta Rigaud"]},
{"text": "[Black's] various homages to the first two Predator movies filled me with several moments of pure geek-tastic joy.", "is_fresh": 1, "author": ["Heather Wixson"]},
{"text": "But what bugs me most is how underused Olivia Munn is.", "is_fresh": 0, "author": ["Joanne Soh"]},
{"text": "What I did appreciate about this movie is that it's rated R...Don't hold back. Let's see the blood, let's see the guts...Rated-R it up! ", "is_fresh": 1, "author": ["Tony Baker"]},
{"text": "The Predator's presence is dismantled by a plot with no sense and it's hard to call it entertaining. [Full Review in Spanish]", "is_fresh": 0, "author": ["Benjam\u00edn Harguindey"]},
{"text": "Every Predator movie that worked took itself seriously. This one didn't, and it was a mess...over-the-top sci-fi.", "is_fresh": 0, "author": ["Kristian Harloff"]},
{"text": "That's the glory and the difficulty of The Predator. It's a perfect distillation of our moment--and it's an unfortunately perfect distillation of our moment... It's a sh---y Predator movie is what I'm trying to say; but it's a great film about predators. ", "is_fresh": 1, "author": ["Walter Chaw"]},
{"text": "Big, bold and brash, this latest addition to the Predator franchise boasts plenty of aliens amid a lot of noise, running, shooting and gore.But it is all rather silly: all noise without substance.", "is_fresh": 0, "author": ["Louise Keller"]},
{"text": "it's all a muddle of a script that seems to have been constructed from the cinematic equivalent of baling wire and chewing gum. The cut-rate, generic chewing gum. The kind that doesn't really hold its snap.", "is_fresh": 0, "author": ["Andrea Chase"]},
{"text": "The Cuckoo's Nest of sidekicks provide enough snappy patter to keep you giggling and take your mind off the excessive violence.", "is_fresh": 1, "author": ["Chris Knight"]},
{"text": "Audiences might [have] reasonably expected more from the seasoned action screenwriter.", "is_fresh": 0, "author": ["Vicky Roach"]},
{"text": "It has the odd moment but without the likes of Arnold Schwarzenegger, Danny Glover or Adrien Brody the cast feels distinctly under-powered.", "is_fresh": 0, "author": ["Matthew Bond"]},
{"text": "It's fine, and it's an improvement over the Alien vs. Predator spinoffs, but we can do better than this.", "is_fresh": 1, "author": ["Eric D. Snider"]},
{"text": "A huge let down - surprisingly coming from Shane Black. [Full review in Spanish]", "is_fresh": 0, "author": ["Fico Cangiano"]},
{"text": "It is a ridiculous, self-aware and entertaining film with mostly dudes, a high body count, lots of swearing and surprisingly bad CGI. And, somewhat incongruously, Alfie Allen doing a pretty good Dublin accent.", "is_fresh": 1, "author": ["Aine O'Connor"]},
{"text": "It may not be a great film and its story's originality suffers... but it's shot with a very good rhythm and it hits the right notes when recalling the strengths of the [original] Predator starring Schwarzenegger. [Full review in Spanish]", "is_fresh": 1, "author": ["Jos\u00e9 Mart\u00edn"]},
{"text": "The script might be the worst in the entire franchise, but a talented cast and some exciting interludes during the first half slightly compensate for the rampant idiocy.", "is_fresh": 0, "author": ["Matt Brunson"]},
{"text": "The film is entertaining in fits and starts, but it just never quite comes together as a whole.", "is_fresh": 0, "author": ["Chelsea Steiner"]},
{"text": "... delivers what it sets out to do even if the marketing failed to make that clear... works as long as you keep one idea in mind: humans make wild assumptions when it comes to their actual importance in anything.", "is_fresh": 1, "author": ["Kevin A. Ranson"]},
{"text": "The Predator is just too damn stupid to survive.", "is_fresh": 0, "author": ["James Marsh"]},
{"text": "Profanity-filled, tedious addition to the sci-fi/horror franchise...Where 's Arnold Schwarzenegger when you really need him?", "is_fresh": 0, "author": ["Susan Granger"]},
{"text": "A complete trainwreck from beginning to end. It spits on the Predator's franchise and plays like a comedy rather than a legit Predator follow-up with a story so convoluted and characters so weak to the point where the film was unbearable to watch.", "is_fresh": 0, "author": ["Tony Whatley II"]},
{"text": "Today's block buster wannabes can't tell a simple straight forward story anymore. Everything has to be about building a mythology for future films, instead of focusing on the film you are currently making.", "is_fresh": 0, "author": ["Michelle Alexandria"]},
{"text": "Aside from the laughs, it's not offering much in terms of thrills and originality.", "is_fresh": 0, "author": ["Matthew Toomey"]},
{"text": "Alien vs. Predator was a lot better.", "is_fresh": 0, "author": ["James Verniere"]},
{"text": "'Predators' > 'The Predator' Who could have seen that coming?", "is_fresh": 0, "author": ["Rob Hunter"]},
{"text": "While the violence is solid, the ludicrous science expositions that carry the plot along and unfortunate flat humor had me confused. Is this the Predator film or a joke? ", "is_fresh": 0, "author": ["Alachia Queen "]},
{"text": "The movie ultimately gets by on attitude, with Black's brash, wiseacre sensibility brightening up the mandatory franchise maintenance.", "is_fresh": 1, "author": ["Sean Burns"]},
{"text": "The umpteenth reboot, remake, rehash, reimagination of the Predator franchise is actually good old fashioned monster movie fun.", "is_fresh": 1, "author": ["Pete Hammond"]},
{"text": "Black is not afraid to have some major fun with the premise.", "is_fresh": 1, "author": ["Randall King"]},
{"text": "Under Shane Black's direction...The Predator races along pretty swiftly, with a few good quips and a lot of good actors along the way. The bad news is that this doesn't entirely make up for the central plot gimmick and some confusing transitions.", "is_fresh": 1, "author": ["Abbie Bernstein"]},
{"text": "The Predator is pure ultraviolent frivolity, as weightless and tasteless and frictionless as its five overachieving-B-movie predecessors. ", "is_fresh": 0, "author": ["Rob Harvilla"]},
{"text": "One of the significant issues with The Predator is its script.", "is_fresh": 0, "author": ["Liam Hanlon"]},
{"text": "The original had us glued to our sears with tension but here the drama doesn't induce any goosebumps. Also, the film is choppily edited and hence the narration looks disjointed.", "is_fresh": 0, "author": ["Devesh Sharma"]},
{"text": "Yet another reminder that the strange alchemy of the progenitor probably can't be replicated. Hawkins is spinning in his jungle grave.", "is_fresh": 0, "author": ["Abraham Riesman"]},
{"text": "In this instance, Black seems intent on catering to as many different types of nostalgia as possible.", "is_fresh": 1, "author": ["Jake Wilson"]},
{"text": "How could a movie with so many exciting elements be this boring? ", "is_fresh": 0, "author": ["Kevin Maher"]},
{"text": "Black adds a few twists to the mix of his own, including a familial aspect to the plot, which is unexpected given his often machismo style in the action film genre.", "is_fresh": 1, "author": ["Kirk Baird"]},
{"text": "There's a formula that works for these movies and they've put it aside for something too complex for its own good.", "is_fresh": 0, "author": ["Sarah Gopaul"]},
{"text": "Whether it's a sequel or a remake or a reimagining or whatever, this welcome attempt to introduce a more tongue-in-cheek approach to the material fails in part because it indulges in the same action clich\u00e9s it seeks to satirize.", "is_fresh": 0, "author": ["Todd Jorgenson"]},
{"text": "What's remarkable is that the results are so blockbuster-bland. It might've helped if Black had stuck to the band of misfits angle, pitting the Predator against a group of war-ravaged vets who have to find a way past their damage if they're gonna survive.", "is_fresh": 0, "author": ["Matthew Lickona"]},
{"text": "The original was blissfully simple: alien sadist messes with the wrong dude. Here, nothing adds up.", "is_fresh": 0, "author": ["Charlotte O'Sullivan"]},
{"text": "On the matter of action, Black knows the trade, and it shows: This is by far the best-looking and most pyrotechnic movie in the franchise, with an impressive array of vehicles and hacked-off limbs soaring lovingly through the frame.", "is_fresh": 1, "author": ["Jeffrey Bloomer"]},
{"text": "Whatever its weaknesses, The Predator gets its titular aliens right, offering a sampler of violent, extraterrestrial skirmishing that works more often than it doesn't.", "is_fresh": 1, "author": ["Andrew Whalen"]},
{"text": "Uncomfortably badly done.", "is_fresh": 0, "author": ["Mark Kermode"]},
{"text": "Ultimately, though, plot and character become collateral damage in this free-for-all mess of goofy jokes, blood-splattering violence, cluttered visual effects and preposterous stunts.", "is_fresh": 0, "author": ["Dann Gire"]},
{"text": "Someone decided to turn what could have been a fierce safari into a meager fairground. [Full review in Spanish]", "is_fresh": 0, "author": ["Daniel de Partearroyo"]},
{"text": "Set up as a new series. This is the usual, predators predictably predatiting or whatever you call it. Dull characters, too, but the flick is fun if it's your thing.", "is_fresh": 1, "author": ["Gary Wolcott"]},
{"text": "The Predator simply isn't worth your time or monetary investment, though it'd make a great pick for the folks over at Mystery Science Theater 3000.", "is_fresh": 0, "author": ["Akhil Arora"]},
{"text": "The Predator is a confused, sloppy mess of a film, overstuffed with zingy one-liners and lacking in coherence.", "is_fresh": 0, "author": ["David Sims"]},
{"text": "Instead of a franchise reboot, it's more of a rebirth, with quippy, quirky characters, cartoon/video game violence and a Swiss cheese plot that doesn't grate because the film is actually (dare I say it?) kind of fun.", "is_fresh": 1, "author": ["Lisa Johnson Mandell"]},
{"text": "The Predator dismisses itself as \"dumber than group one\", which, no argument.", "is_fresh": 0, "author": ["Sarah Marrs"]},
{"text": "One could not have imagined that this franchise would sink so low as to introduce dreadlocked Preda-dogs, but this film has two of them.", "is_fresh": 0, "author": ["Tom Santilli"]},
{"text": "This should be the perfect match of filmmaker and material. Somewhere along the way, something went wrong.", "is_fresh": 0, "author": ["Matt Singer"]},
{"text": "Ultimately it's a bit of a visually ugly clutter which leaves not so much with a bad taste in the mouth as a bland one. ", "is_fresh": 0, "author": ["Ross Miller"]},
{"text": "This brand refresh is woke and unwoke, deadly yet deeply unserious. You'll laugh ... and forget why before the end credits roll.", "is_fresh": 1, "author": ["Christian Toto"]},
{"text": "The machine-gun muzzle flashes might have been imported from 1987, Year Zero in the Predator universe.", "is_fresh": 0, "author": ["Kurt Loder"]},
{"text": "The script... plays as if it were written on bubblegum wrappers over the course of single boozy evening.", "is_fresh": 0, "author": ["Piers Marchant"]},
{"text": "Chaotic, loud and filled with too many coincidences to count. The best thing that can be said about The Predator is that the dialogue is engaging, and some gags are funny. ", "is_fresh": 0, "author": ["John Lui"]},
{"text": "From the opening moments of the film, \"The Predator\" maintains an engaging swashbuckling sci-fi energy and strikes a strong balance of humor and action that evokes the best of its genre", "is_fresh": 1, "author": ["Josh Terry"]},
{"text": "The Predator is a thorough grab bag of averageness, made worse by its distinct lack of distinction.", "is_fresh": 0, "author": ["Brandon Katz"]},
{"text": "Amid this cavalcade of slightly-above-mediocrity, there is the issue I mentioned earlier: The film's, um, interesting ideas about autism. (Full disclosure: I am autistic myself.)", "is_fresh": 0, "author": ["Matthew Rozsa"]},
{"text": "I dare say I loved it, mainly for its brisk pacing, and great sense of fun. ", "is_fresh": 1, "author": ["Felix Vasquez Jr."]},
{"text": "A lazy script - this incarnation uses disabilities for laughs - makes The Predator a bit of a soul-sucking experience to sit through.", "is_fresh": 0, "author": ["Rebecca Murray"]},
{"text": "The action is fun and sometimes imaginative, but the rest of the film is largely lacking in imagination.", "is_fresh": 1, "author": ["Hope Madden"]},
{"text": "Mixes together humdrum action scenes with tepid comedy and a collection of strikingly dull performances. Suddenly Arnold Schwarzenegger's leaden quips from the original movie don't sound so bad after all.", "is_fresh": 0, "author": ["Robert Horton"]},
{"text": "The Predator doesn't quite work because it's never quite clear what it wants to be and, when it finally does snap into focus, it's about the wrong things.", "is_fresh": 0, "author": ["Sonny Bunch"]},
{"text": "The action scenes are forgettable, the mythology is confusing and the bad taste comedy is hopelessly off-target.", "is_fresh": 0, "author": ["Andy Lea"]},
{"text": "Genre fans may enjoy this as a weekend time-filler, or in the future on an airplane. I regret that I devoted nearly two hours to a promising picture that wound up being so mediocre.", "is_fresh": 0, "author": ["Leonard Maltin"]},
{"text": "It's both impressive and sad that the 1987 original is still the high water mark of the series. The latest installment won't challenge for the throne and isn't a contender.", "is_fresh": 0, "author": ["Jeffrey Lyles"]},
{"text": "As you'd imagine, no one with more than one X chromosome is welcome to this party.", "is_fresh": 0, "author": ["Rohan Naahar"]},
{"text": "Interesting ways people are being dismembered is never going to be enough for me.", "is_fresh": 0, "author": ["Adam Kempenaar"]},
{"text": "Somewhere along the line, its copious shortcomings end up overwhelming its better elements.", "is_fresh": 0, "author": ["Rob Vaux"]},
{"text": "[Une] s\u00e9rie B de luxe joyeusement bord\u00e9lique et furieusement violente. [Full review in French]", "is_fresh": 1, "author": ["Kevin N. Laforest"]},
{"text": "The result, while enjoyable enough, also feels like a missed opportunity, especially given that its come from a veteran of the franchise.", "is_fresh": 1, "author": ["Rob Carnevale"]},
{"text": "Scenes are poorly knitted together, especially toward the end. Time and tempo break down, as if the film were snapping apart at the seams.", "is_fresh": 0, "author": ["Mark Kennedy"]},
{"text": "If anything, the release of \"The Predator\" is a great excuse to re-watch the original.", "is_fresh": 0, "author": ["Adam Graham"]},
{"text": "Whole swathes of the film make zero sense, scenes feel completely disconnected and whilst it's certainly not as bad as you expect, it's nowhere near as good as you'd hope.", "is_fresh": 0, "author": ["Jamie East"]},
{"text": "It feels like an entry designed to keep a franchise going by giving its fans the bare minimum until they can get to the next one. ", "is_fresh": 0, "author": ["Scott Nye"]},
{"text": "The Predator delivers a good time without demanding that we think too hard about anything. But the fallout just goes to show how some of us don't think things through well enough.", "is_fresh": 1, "author": ["Radheyan Simonpillai"]},
{"text": "What's wrong with The Predator goes deeper than a couple of bad cuts, but it still stinks that a promising movie was scuttled by a director's questionable decision-making - both on set and in post.", "is_fresh": 0, "author": ["Todd VanDerWerff"]},
{"text": "Far more damning than The Predator's shoddy appearance is the pervasive sense that its maker would rather be making something else.", "is_fresh": 0, "author": ["Chris Klimek"]},
{"text": "Garbage. A bad excuse for a movie, even for the pulpy disposable popcorn nonsense it wants to be. Incoherent and illogical, cheap and shoddy. Wannabe sci-fi action horror that can't pull off any of it.", "is_fresh": 0, "author": ["MaryAnn Johanson"]},
{"text": "It plays like a young filmmaker trying to approximate a stereotypical Shane Black movie. ", "is_fresh": 0, "author": ["Scott Mendelson"]},
{"text": "[The Predator] doesn't reach the heights it could have, but it's still a very entertaining time at the theater that will leave audiences smiling and laughing amidst the carnage.", "is_fresh": 1, "author": ["Rob Dean"]},
{"text": "It's sad that the overall script is so lacking because there are a few glimmers of brilliance. ", "is_fresh": 0, "author": ["Rick Bentley"]},
{"text": "Black could have easily gone for gratuitous violence - he didn't. The result is a ripping good yarn that blows the socks off the long list of comic book movies that are too dependent on computer-generated images.", "is_fresh": 1, "author": ["Mick O'Reilly"]},
{"text": "The Predator offers some cosmetic changes to the heroes and the aliens. In other words, it provides nothing that's really new.", "is_fresh": 0, "author": ["Mark Dujsik"]},
{"text": "The thrill of the hunt is long gone", "is_fresh": 0, "author": ["Blake Crane"]},
{"text": "While the script is, on the comedy front, the film's strongest suit, it's also its weakest, in terms of the simple fact that none of this makes any sense at all.", "is_fresh": 1, "author": ["Chris Newbould"]},
{"text": "The Predator is a lesson in exactly how to trash the memory of a risible, but loveable original.", "is_fresh": 0, "author": ["Graeme Tuckett"]},
{"text": "It's very fast, very funny, and, as with all Black works, gleefully embraces genre cliches and turns them sideways.", "is_fresh": 1, "author": ["Jeffrey M. Anderson"]},
{"text": "It's just a choppy, lackluster, thinly written monster action flick peppered with the kinds of gags you thought were funny in puberty.", "is_fresh": 0, "author": ["Kyle Smith"]},
{"text": "A big, loud, snarky, garish, testosterone-saturated, nearly incoherent cartoon...[but] that might be enough to satisfy a lot of viewers.", "is_fresh": 0, "author": ["Frank Swietek"]},
{"text": "\"If it bleeds, we can kill it\", Arnie said of the original monster. Perhaps it's finally time to finally put this bleeding, limping series out of its misery for good.", "is_fresh": 0, "author": ["Christopher Machell"]},
{"text": "Is The Predator a new low for the series? That's debatable. The fact that that's even a thought - y'know, considering how awful Alien vs. Predator: Requiem is - should tell you all you need to know.", "is_fresh": 0, "author": ["Andrew Pollard"]},
{"text": "It's undeniably fun, but also pretty chaotic and inconsistent. [Full review in Spanish]", "is_fresh": 1, "author": ["Sebastian Zavala Kahn"]},
{"text": "The movie is the latest iteration of this franchise, which began in 1987 with \"Predator.\" Several sequels and offshoots followed, until we've reached the point that we should have expected an \"Abbott and Costello Meet Predator\"-type of spinoff.", "is_fresh": 0, "author": ["Bob Bloom"]},
{"text": "The movie pays big-time homage to 1980s cinema, including an action score that sounds like something Spielberg would have thrown away.", "is_fresh": 0, "author": ["Peter Howell"]},
{"text": "The script for The Predator does approach the rampage of a crab-faced superalien from the Howard Hawks' point of view... But the problem is that it isn't always possible to go comic, and Black tries it anyway.", "is_fresh": 0, "author": ["Richard von Busack"]},
{"text": "Tremblay's work is so strong, so subtle, so natural, it's as if he's in another, much better movie.", "is_fresh": 0, "author": ["Richard Roeper"]},
{"text": "In a movie this overloaded with dudes, of course Munn is the stand-out. She proves herself a true action hero, battling with fists and brains, and getting her share of witticisms to deliver.", "is_fresh": 1, "author": ["Sean P. Means"]},
{"text": "Look, if you turn off your brain and just let the succession of images wash over you, the film can be dumb fun, just don't go looking for anything remotely resembling comprehensibility. That apparently does not exist in the Predator universe.", "is_fresh": 0, "author": ["Josh Kupecki"]},
{"text": "A barely serviceable update, The Predator is unlikely to succeed in creating a new generation of fans.", "is_fresh": 0, "author": ["Rashid Irani"]},
{"text": "The Predator still isn't able to quite recapture whatever magic in a bottle the original film created, but it is able to make for an entertaining enough sequel.", "is_fresh": 1, "author": ["Dirk Libbey"]},
{"text": "Seeking to relaunch the long-running franchise, this latest sequel crumbles underneath a wearisome mix of gore and broad comedy, yielding a laundry list of shortcomings from which it's possible to run, but not hide.", "is_fresh": 0, "author": ["Brian Lowry"]},
{"text": "Exemplifies the lackluster result of exhuming played-out franchises that are better left buried.", "is_fresh": 0, "author": ["James Berardinelli"]},
{"text": "The Predator pulls no punches and lays it all bare when the bullets and limbs go flying in quick succession.", "is_fresh": 1, "author": ["Neil Soans"]},
{"text": "The Predator is filled with visual and verbal callbacks to McTiernan's movie, but there's no Schwarzenegger and no subtext, and the movie suffers from the lack of both. ", "is_fresh": 0, "author": ["Adam Nayman"]},
{"text": "The film is loud, improbable, manufactured within an inch of its life, and takes absolutely no real risks with the franchise. If you want action movie comfort food, This might be your movie. Otherwise go watch Annihilation again.", "is_fresh": 0, "author": ["Norm Gidney"]},
{"text": "Occasional sparks of wit can't keep The Predator from being a muddled, befuddling mess.", "is_fresh": 0, "author": ["Rebecca Pahle"]},
{"text": "Shane Black brings a glib, often outright comic touch that turns the latest interaction between humans and dreads-wearing alien big-game hunters, into a bloody romp - as inappropriate as that sounds (and often is).", "is_fresh": 1, "author": ["Jim Slotek"]},
{"text": "Every insightful storytelling choice is met with a head-scratching one.", "is_fresh": 0, "author": ["Brian Truitt"]},
{"text": "The frat house atmosphere eventually gives way to tedious bloodletting. In that regard, \"The Predator\" hasn't evolved at all.", "is_fresh": 0, "author": ["Ben Kenigsberg"]},
{"text": "[It] doesn't sample an outdated clich\u00e9d aesthetic; it is that outdated clich\u00e9d aesthetic. This is a $100 million Golan-Globus movie-an incoherent cartoon full of slop and jank drowning out the brief sparks of charm thrown by actors who deserve better.", "is_fresh": 0, "author": ["Bobby Roberts"]},
{"text": "\"Can't seem to summon up that old Black magic.\"", "is_fresh": 0, "author": ["Pat Padua"]},
{"text": "Fitfully amusing but chaotically edited, visually ugly and ultimately quite charmless, The Predator is a crushing, troubling disappointment for fans of both the series and Shane Black.", "is_fresh": 0, "author": ["Shaun Munro"]},
{"text": "Saved by its \"Loonies\" and its laughs, The Predator is hoping to be the start of a whole new Predator saga (but) that's wishful thinking.", "is_fresh": 1, "author": ["Matt Neal"]},
{"text": "The first entry in the Predator franchise in almost a decade is a solid action romp that's even kind of ... goofy?", "is_fresh": 1, "author": ["Wenlei Ma"]},
{"text": "The simplicity of an implacable alien hunter tracking down its human prey gets lost under a whole lot of noisy chatter and incoherent action movie nonsense.", "is_fresh": 0, "author": ["Josh Bell"]},
{"text": "The Predator is a goofy, gory, muddy mess that makes less and less visual and narrative sense as it races to its nonsense conclusion. That Sterling K. Brown and Olivia Munn though.", "is_fresh": 0, "author": ["Simon Miraudo"]},
{"text": "An unwieldy, unexciting feature that doesn't top what's come before, with Black the unlikely architect of the brand name's demise.", "is_fresh": 0, "author": ["Brian Orndorf"]},
{"text": "If it actually were a relic of the late 80s sci-fi actioner direct-to-video boom, it'd be regarded as an absolute cult classic...", "is_fresh": 1, "author": ["Travis Johnson"]},
{"text": "The Predator... is an ode to the success of that first movie, to making movies simply because one can, not because one should.", "is_fresh": 1, "author": ["Dom Sinacola"]},
{"text": "It got sloppy... the very end that sets up the sequel... none of the writing in that part felt like the rest of the movie.", "is_fresh": 0, "author": ["Martin Thomas"]},
{"text": "Shane Black was not taking this seriously whatsoever... It's even lit like a Goosebumps movie.", "is_fresh": 0, "author": ["Korey Coleman"]},
{"text": "hrow in some snappy dialogue, a cute kid, a smart scientist and a tough-guy hero, and you've got the makings of a popcorn movie. That's what The Predator is, and what it aims to be.", "is_fresh": 1, "author": ["Charles Ealy"]},
{"text": "Racially offensive quips, flagrant sexism and Tourette syndrome gags all contribute to this witless, scare-free junk.", "is_fresh": 0, "author": ["Johnny Oleksinski"]},
{"text": "Not only is it utterly unnecessary, it's also surprisingly bad.", "is_fresh": 0, "author": ["Chris Nashawaty"]},
{"text": "The creature feature equivalent of white bread.", "is_fresh": 0, "author": ["Kristen Lopez"]},
{"text": "I must admit I actually enjoy Stephen Hopkins' Predator 2 more than I do this tired bit of unfocused pandemonium.", "is_fresh": 0, "author": ["Sara Michelle Fetters"]},
{"text": "The problem with The Predator (which Black co-scripted with Fred Dekker)is that we are watching three separate films, joined together like unwieldy pieces of lego.", "is_fresh": 0, "author": ["Geoffrey Macnab"]},
{"text": "Uneven, occasionally unsavoury and at times frustratingly muddled, but there's enough bloody, '80s-style fun in The Predator to give it a pass from long-term fans.", "is_fresh": 1, "author": ["Dan Jolin"]},
{"text": "Earth hath not anything to show more daft than The Predator.", "is_fresh": 0, "author": ["Nigel Andrews"]},
{"text": "...while I didn't mind the overabundance of humor and the ultra violent streak of the kills, it's far too clunky to fully recommend.", "is_fresh": 0, "author": ["JimmyO"]},
{"text": "There are simply too many moving parts in this story for Black to handle.", "is_fresh": 0, "author": ["Kristian M. Lin"]},
{"text": "Watching this movie is as close to what I imagine going insane is like. ", "is_fresh": 0, "author": ["Dan Murrell"]},
{"text": "It is so nonsensical, so chaotically structured. ", "is_fresh": 0, "author": ["Roth Cornet"]},
{"text": "If Shane Black's The Predator proves anything it's that you can, absolutely, turn what should have been an over-the-top action thrill ride about a bunch of screw-ups taking down a monster into a boring, and ultimately incomprehensible, mess.", "is_fresh": 0, "author": ["Meg Downey"]},
{"text": "Shane Black takes a crack at the bloodthirsty intergalactic hunter and the results are a shaggy blast.", "is_fresh": 1, "author": ["Jacob Knight"]},
{"text": "From time to time its mix of foul-mouthed bro camaraderie and in-your-face violence nods in the direction of modest entertainment value, but the net effect is a whiplash-inducing muddle.", "is_fresh": 0, "author": ["Justin Chang"]},
{"text": "The movie's storyline as a whole fits in really well with the rest of the series, and it does a great job of paying homage to the original \"Predator\" movie by starting out in a jungle-like setting.", "is_fresh": 1, "author": ["Samantha Incorvaia"]},
{"text": "It's both a lesser Shane Black movie and a lesser Predator movie, but it's still a Shane Black Predator movie. ", "is_fresh": 1, "author": ["Vincent Mancini"]},
{"text": "Similar to the scenario of the original picture, it's a band of grizzled soldier types who battle the alien menaces. Missing, however, is a formidable leading-man presence in the Schwarzenegger mold.", "is_fresh": 0, "author": ["Soren Andersen"]},
{"text": "Wilfully offensive and powered by a chest-thumping machismo, but it's good clean fun.", "is_fresh": 1, "author": ["David Jenkins"]},
{"text": "Just like the original Predator in 1987, co-writer/director Shane Black's franchise reboot succeeds on the slam-bang visceral level thanks to lashings of tough-guy machismo, spectacular stunts and gory dismemberment.", "is_fresh": 1, "author": ["Alan Jones"]},
{"text": "If you think \"Predator\" was a silly action movie then \"The Predator\" is an ever sillier film, if not just downright stupid. ", "is_fresh": 0, "author": ["Rendy Jones"]},
{"text": "This is a film that feels like it has made the mistake of attempting to give its audience everything it could possibly want, but the good news is that the ensuing messiness still has plenty to enjoy. ", "is_fresh": 1, "author": ["Steve Newall"]},
{"text": "It's unclear if Black and Dekker (heh heh) were aiming for 80s action movie nostalgia with their underwhelming dialogue and rah-rah machismo, but the vast majority of The Predator, unfortunately, lands uncomfortably close to dude-bro territory.", "is_fresh": 1, "author": ["Joe Lipsett"]},
{"text": "This may be the director's best attempt at an alien invasion, but no matter how many grenades he throws, nothing ever lands.", "is_fresh": 0, "author": ["Patrik Sandberg"]},
{"text": "While it's neat to see another addition to the Predator universe, the payoff here doesn't exactly feel like it was worth the decade-long wait.", "is_fresh": 0, "author": ["Nick Vadala"]},
{"text": "Best of all, Black understands the geography of an action sequence, and the advantage of an R rating.", "is_fresh": 1, "author": ["Peter Hartlaub"]},
{"text": "The Predator begins its new life merging Iron Man, comedy and the most essential puzzle piece - an \"on the spectrum\" kid. What's next? \"Xenomorph XX121\" speaking English with a British accent? Be afraid, be very afraid, it's coming.", "is_fresh": 0, "author": ["Victoria Alexander"]},
{"text": "It's as if a bunch of random and sometimes unrelated storylines, subplots, character arcs, mysteries, running jokes, and more were all thrown into a blender and frapp\u00e9d into a frenzy.", "is_fresh": 0, "author": ["Germain Lussier"]},
{"text": "...a curiously sloppy attempt to resuscitate the franchise.", "is_fresh": 0, "author": ["Josh Larsen"]},
{"text": "there are elements of his \"One Flew Over the Cuckoo's Nest\" by way of \"Terminator 2\" monster movie that are certainly entertaining...It works as one of those bad movies than can be enjoyed at a drive-in with mind altering substances.", "is_fresh": 0, "author": ["Laura Clifford"]},
{"text": "The Predator guts and slashes its way to gory sci-fi mediocrity, but is further failed by abysmal pacing that loses characters, subplots and interest along the way.", "is_fresh": 0, "author": ["Matt Donato"]},
{"text": "Tone-deaf, sloppily written, and indifferently directed.", "is_fresh": 0, "author": ["Don Kaye"]},
{"text": "Completely unbalanced. ", "is_fresh": 0, "author": ["Jeremy Jahns"]},
{"text": "It's hard to tell if super-fans of the original Predator will find this to be a suitable relaunch, but there are certainly enough entertaining elements to keep even the most casual fan invested.", "is_fresh": 1, "author": ["Edward Douglas"]},
{"text": "The Predator is a bloody, shotgun-paced actioner, loaded with expletives. The film entertains, but feels inordinately lighthearted.", "is_fresh": 1, "author": ["Julian Roman"]},
{"text": "Come for the brutal slaughter, stay for the comedy.", "is_fresh": 1, "author": ["Scott Chitwood"]},
{"text": "There isn't single reason I can think of to see \"The Predator\" other than to be reminded of how low Hollywood and American sensibilities have sunk. ", "is_fresh": 0, "author": ["Cole Smithey"]},
{"text": "The Predator aims to revitalize the sci-fi action franchise with fresh ideas, but succeeds at delivering mindless action more than cohesive mythology.", "is_fresh": 0, "author": ["Sandy Schaefer"]},
{"text": "Writer/director Shane Black gives viewers a goofy, violent, R-rated b-movie that plays more like a parody of the film that inspired it.", "is_fresh": 0, "author": ["Jonathan W. Hickman"]},
{"text": "\"The sequel to group one, only stupider\" is how one soldier describes the squad, in one of the rare self-referential jokes here that actually lands. But owning it doesn't excuse it.", "is_fresh": 0, "author": ["Robbie Collin"]},
{"text": "For the most part, Black's dialogue lacks its usual vim, and he directs with way too much abandon, rushing from one high-pitched set-piece to the next so breathlessly that there's no time to engage or get excited.", "is_fresh": 0, "author": ["Demetrios Matheou"]},
{"text": "Ultimately, none of this comes together in any coherent way, truly leaving audiences with an experience that lives and dies based on the craft of bloodshed and gore", "is_fresh": 0, "author": ["Robert Kojder"]},
{"text": "The Predatoris like somebody reached back into the '80s and brought the movies of that era into the now.", "is_fresh": 1, "author": ["Travis Hopson"]},
{"text": "This is the most Shane Black movie Shane Black has ever made.", "is_fresh": 1, "author": ["Michael Roffman"]},
{"text": "The \"smart ass\" Shane Black and the not \"smart\" ass Shane Black are equally represented here. ", "is_fresh": 0, "author": ["Roger Moore"]},
{"text": "This is not 'The Predator' we were promised, nor is it one we ever needed in the franchise.", "is_fresh": 0, "author": ["Jonita Davis"]},
{"text": "Several 'comic relief' scenes revolve around the boys making female characters uncomfortable. I know they're not supposed to be role models, but what is troubling is that the writers think this is funny.", "is_fresh": 0, "author": ["Fred Topel"]},
{"text": "As we learn over the course of the film why the Predators keep coming back to Earth, we also see that Black doesn't take the stories and themes that the previous Predator movies explored seriously either. ", "is_fresh": 0, "author": ["William Bibbiani"]},
{"text": "The film jumps around between so many characters that it's almost impossible to feel any real tension, much less emotional investment.", "is_fresh": 0, "author": ["Bryan Bishop"]},
{"text": "Devotees of the franchise will get exactly the kind of creative Predator action they've been craving... But the movie as a whole feels as though it's suffered a death of a thousand cuts, hamstrung by rewrites and edits into a shapeless, unfocused mess.", "is_fresh": 0, "author": ["Andrew Todd"]},
{"text": "If the Predator series had to be revisited, it could have ended up in far worse hands than Shane Black's.", "is_fresh": 1, "author": ["Barry Hertz"]},
{"text": "Black's new movie is less the goofy, garish sequel we were hoping for and more an act of universe-building. But, hey, at least there's a bigger, badder Predator on the scene, one that looks like he's been doing CrossFit.", "is_fresh": 0, "author": ["Esther Zuckerman"]},
{"text": "Black has captured the spirit of that bygone era of adrenaline-junkie junk without getting all retro-fussy about it.", "is_fresh": 1, "author": ["A.A. Dowd"]},
{"text": "The story also seems fairly vague and spread across several different narrative threads that never quite add up. No one has a clear motive, including the Predator himself, and this makes for confusing, tensionless viewing.", "is_fresh": 0, "author": ["Stephanie Watts"]},
{"text": "It's big and loud and busy and a whole lot of fun. ", "is_fresh": 1, "author": ["Norman Wilner"]},
{"text": "Shane Black has never seemed like someone who needed cheap tricks to earn an honest smile.", "is_fresh": 0, "author": ["Jared Mobarak"]},
{"text": "The excessive 2-hour-plus runtime, terrible treatment of female characters, unpolished CGI and overly complex story hinder the film from being great, but those who are in it for the gore, the action, and the \"your mom\" jokes will have a blast. ", "is_fresh": 1, "author": ["Rafael Motamayor"]},
{"text": "[Black's] script is irreverent one moment and cold-blooded the next.", "is_fresh": 1, "author": ["Victor Stiff"]},
{"text": "There are sparks of Shane Black's humor and style lining up with the brutality and bite of the 1987 original, but they are few and far between because the end product feels misguided, and like it's been sliced and diced to the point of semi-incoherence.", "is_fresh": 0, "author": ["Perri Nemiroff"]},
{"text": "Black may be a part of this franchise's origins, but as the messy, chaotic, and convoluted The Predator proves, he's not the right filmmaker to shepherd this property to its next evolution.", "is_fresh": 0, "author": ["Katie Walsh"]},
{"text": "Even an act of noble sacrifice late in the film has a faintly goofy tone to it, reflective of Shane Black's streak of puckish nihilism, and that attitude makes him a perfect fit for this franchise.", "is_fresh": 1, "author": ["Jake Cole"]},
{"text": "Black populates his film with recognisable tropes and character types as well a grand throwback score, and there's a certain charm in his ability to conjure up the past without resorting to pastiche.", "is_fresh": 1, "author": ["Benjamin Lee"]},
{"text": "The Predator feels like a haphazardly assembled and overflowing buffet plate, and how much you enjoy it will depend on your ability to deal with its whiplash-wild inconsistency in tone and missed opportunities.", "is_fresh": 0, "author": ["Jonathan Hatfull"]},
{"text": "It's aggressively pacey, overloaded with smug one-liners, gore-laden and unlikely to have much of a future.", "is_fresh": 0, "author": ["Joshua Rothkopf"]},
{"text": "With a fantastic cast and razor-sharp pacing, the fact is that this is what you want from a movie called The Predator.", "is_fresh": 1, "author": ["Brian Tallerico"]},
{"text": "A total blast as long as you're willing to go along for the ride. The ensemble cast is excellent.", "is_fresh": 1, "author": ["Chris Bumbray"]},
{"text": "Poor story choices and strange, if not outright silly, character decisions result in an experience that will ultimately leave audiences feeling a great amount of \"meh\".", "is_fresh": 0, "author": ["Jonathan Barkan"]},
{"text": "Thirty-one years after the original eviscerated its way through a Central American jungle, fans finally have a worthy successor with The Predator.", "is_fresh": 1, "author": ["Simon Abrams"]},
{"text": "With its bawdy sense of humor, disorderly cast of characters, and hardcore kills and action, The Predator does a lot right to reinvigorate the 31-year-old series.", "is_fresh": 1, "author": ["Jim Vejvoda"]},
{"text": "While you're watching the movie, it's hard not to get caught up in all the fun. Black and company are having a blast here, and it's infectious.", "is_fresh": 1, "author": ["Chris Evangelista"]},
{"text": "What Black's movie really has going for it is pace. It starts with a crash, followed swiftly by a bang and vast swathes of wallop. The relentlessness doesn't allow you any time to catch a yawn, but it's also not too conducive to tension or suspense.", "is_fresh": 1, "author": ["Matthew Leyland"]},
{"text": "Black's movie is so cleverly over-the-top that it's easy and pleasurable enough to watch, though never exactly scary or suspenseful.", "is_fresh": 1, "author": ["Jordan Mintzer"]},
{"text": "It's an exhaustingly energetic mess in which a coherent plot and credible characters aren't even on the cluttered menu.", "is_fresh": 0, "author": ["Dennis Harvey"]},
{"text": "The Predator is a flawed actioner, but a strong cast and some Shane Black magic give it a sparkle that has been lacking from recent attempts to revive the killer aliens.", "is_fresh": 1, "author": ["Hugh Armitage"]}
]