[
{"reviews_count": "143", "title": "The Matrix", "avg_audience_rating": "3.6", "rotten_count": "18", "tomatometer": "87", "audience_score": "85", "avg_critic_rating": "7.6", "fresh_count": "125", "user_ratings_count": "33,323,619"},
{"text": "The Matrix embedded itself in pop culture so thoroughly that it's easy to forget how different it was when it first arrived.", "is_fresh": 1, "author": ["Rob Vaux"]},
{"text": "The Matrix has become such a touchstone of American pop culture-referenced, copied, parodied, and parroted)-that it's hard to remember just how new and different and distinctive it was when it debuted in 1999.", "is_fresh": 1, "author": ["Sean Axmaker"]},
{"text": "A technologically stunning movie that furthers the genre and features crowd-pleasing performances to go with the frequent scenes of gunplay and violence. ", "is_fresh": 1, "author": ["David Hunter"]},
{"text": "Extremely violent, extremely preposterous, extremely entertaining, The Matrix succeeds at two extremely difficult tasks: as a vast, exciting virtual-reality movie and as a defibrillator for Keanu Reeves' big screen career.", "is_fresh": 1, "author": ["Keith Simanton"]},
{"text": "The effects are astonishing. It's funny, it's dark, it's smart and it's filled with guns, lots of guns. A landmark film and quite possibly the ultimate expression of cyberpunk.", "is_fresh": 1, "author": []},
{"text": "Hang on tight for a real mind-blower, with astonishing visual effects, frightening monsters and exciting stunt fights.", "is_fresh": 1, "author": ["Tom Sander"]},
{"text": "The Matrix is a movie experience like no other, and experience is what it's all about. It explodes with dazzling visuals and a transcendent sense of excitement.", "is_fresh": 1, "author": ["Chris Kridler"]},
{"text": "Thematically complex, yet intelligently integrating eastern philosophy, Lewis Carroll and ancient mysticism.", "is_fresh": 1, "author": ["Alan Jones"]},
{"text": "Writer/director siblings the Wachowskis have gone further with the action genre than you'd have ever thought possible.", "is_fresh": 1, "author": []},
{"text": "The Matrix is tough to explain, but then how much explaining does an amusement park ride require?", "is_fresh": 1, "author": ["Leah Rozen"]},
{"text": "The movie is nonsense, but it does achieve a brazenly chic high style -- black-on-black, airborne, spasmodic.", "is_fresh": 1, "author": ["David Denby"]},
{"text": "The Wachowskis and cinematographer Bill Pope take advantage of currently available technical trickery to create visually distinct levels of reality while setting high-speed cameras in motion to make the action sequences particularly dynamic and fluid.", "is_fresh": 1, "author": ["Mark Caro"]},
{"text": "Where other films are done in by the freedom offered by computer effects, The Matrix integrates them beautifully.", "is_fresh": 1, "author": ["Keith Phipps"]},
{"text": "Inspired by different sources (including Japanese anime), The Matrix is a new kind of movie, a visionary mixture of technology, philosophy and thrilling action.", "is_fresh": 1, "author": ["Emanuel Levy"]},
{"text": "It's that balance between blockbuster-style action sequences and in-depth philosophical undertones that I've always admired about The Matrix.", "is_fresh": 1, "author": ["Leo Goldsmith"]},
{"text": "Intense, but many teens will be able to handle it.", "is_fresh": 1, "author": ["Nell Minow"]},
{"text": "Exemplifies the idea that a sufficiently cool outcome justifies all of the tortured narrative it takes to get there.", "is_fresh": 1, "author": ["Tim Brayton"]},
{"text": "Other than some caveats, this is an innovative and original science fiction entry...", "is_fresh": 1, "author": ["Felix Vasquez Jr."]},
{"text": "The original Matrix stands perfectly well on its own, despite the fact that the filmmakers went on with second and third episodes.", "is_fresh": 1, "author": ["John J. Puccio"]},
{"text": "Dimension-hopping has never been so exhilarating and breathlessly lyrical as brilliant visuals and bracing Hong Kong action stunts punch through lengthy streams of technobabble.", "is_fresh": 1, "author": ["Mark Halverson"]},
{"text": "The surprise sleeper success of 1999, this ingenious science fiction thriller easily surpassed The Phantom Menace.", "is_fresh": 1, "author": ["Steve Biodrowski"]},
{"text": "The paranoid details of the premise are thoroughly worked out; the characters and motives, much less so.", "is_fresh": 1, "author": ["Rob Gonsalves"]},
{"text": "The Matrix is fun, and while it may confuse you first time around, a second viewing is really required to get the full 'entertainment' value out of it.", "is_fresh": 1, "author": ["Garth Franklin"]},
{"text": "With an arsenal of cool f/x at their disposal, they've come up with a dizzyingly enjoyable junk movie that has just enough on its mind to keep the pleasure from being a guilty one.", "is_fresh": 1, "author": ["David Ansen"]},
{"text": "There is no denying that fact that the Wachowski Brothers have amazing imagination and vision. They direct the film with non-stop style and imbue each scene with enough eye-candy to make you stop noticing the gaping plot holes and lapses in logic.", "is_fresh": 1, "author": ["Joe Lozito"]},
{"text": "A must-see among genre fans, especially guys in their teens and 20s, for whom the script's pretentious mumbo-jumbo of undergraduate mythology, religious mysticism and technobabble could even be a plus rather than a dramatic liability.", "is_fresh": 1, "author": ["Todd McCarthy"]},
{"text": "There's not much humor to keep it all life-size, and by the final stretch it's become bloated, mechanical, and tiresome.", "is_fresh": 0, "author": ["Jonathan Rosenbaum"]},
{"text": "An inventive science fiction idea that rivals the brilliant thinking behind such movies from last year as Dark City and The Truman Show.", "is_fresh": 1, "author": ["Jeffrey M. Anderson"]},
{"text": "Another slice of overlong, high concept hokum.", "is_fresh": 0, "author": ["Geoff Andrew"]},
{"text": "It's incredible.", "is_fresh": 1, "author": ["John Venable"]},
{"text": "If you're curious where the next generation of auteurs is coming from, look in the art houses and look in The Matrix.", "is_fresh": 1, "author": ["Ron Wells"]},
{"text": "As Morpheus says, \"The Matrix is everywhere.\"", "is_fresh": 1, "author": ["Phil Villarreal"]},
{"text": "All I can say is wow.", "is_fresh": 1, "author": []},
{"text": "A tighter, cleaner story could only have helped The Matrix become one of the greats of its genre. I still like it a bunch.", "is_fresh": 1, "author": ["Robin Clifford"]},
{"text": "'The Matrix grabs you by the eyeballs, hypnotizes you into a state of visual ecstasy, and doesn't much care if your brain is following or not.'", "is_fresh": 1, "author": ["Jeannette Catsoulis"]},
{"text": "A wild ride, and worth the ticket price if only for the first-rate special effects. There's enough visionary work here to hold your attention for all 130 minutes.", "is_fresh": 1, "author": ["Jeffrey Overstreet"]},
{"text": "A terrifically entertaining and satisfying production.", "is_fresh": 1, "author": ["Jesse Hassenger"]},
{"text": "This film is triumph of style over substance.", "is_fresh": 1, "author": ["Dragan Antulov"]},
{"text": "The problem with The Matrix is that the enormously talented Wachowski brothers think their playful premise has metaphysical implications.", "is_fresh": 0, "author": ["Leonard Schwarz"]},
{"text": "The most influential action movie since Star Wars.", "is_fresh": 1, "author": ["Steven D. Greydanus"]},
{"text": "The story is so smart and full of surprises, you may begin to wonder what the Super Mario Brothers would have been like if they had used their brains to save the day.", "is_fresh": 1, "author": ["Michael Brody"]},
{"text": "The Matrix is a super-dupper sci-fi thriller that reveals the human imagination as a saving force in the universe.", "is_fresh": 1, "author": ["Frederic and Mary Ann Brussat"]},
{"text": "For those who have been waiting for movies to catch up with the graphic possibilities of comic books, wait no longer: The Matrix is among us.", "is_fresh": 1, "author": ["Ray Conlogue"]},
{"text": "Almost untenably cool, but beneath the sheen there's substance.", "is_fresh": 1, "author": ["Nev Pierce"]},
{"text": "The imagery in the first hour of The Matrix is astounding.", "is_fresh": 1, "author": ["John R. McEwen"]},
{"text": "The least humane, least responsible, least pardonable movie I have ever seen.", "is_fresh": 0, "author": ["Nick Davis"]},
{"text": "Revolutionary sci-fi fable pits kung fu against evil robots.", "is_fresh": 1, "author": ["James Rocchi"]},
{"text": "If there has to be a quintessential film for the end of the millennium, this is it.", "is_fresh": 1, "author": ["Kevin N. Laforest"]},
{"text": "An ambitious, perception-bending metaphor for life at the end of the 20th century. It doesn't always make sense, but it seems to make sense, which is the key thing in science fiction.", "is_fresh": 1, "author": ["Jeffrey Westhoff"]},
{"text": "Una fotograf\u00eda interesante, un gui\u00f3n inteligente, actuaciones convincentes, una historia trepidante, un soundtrack fuerte y bien realizado", "is_fresh": 1, "author": ["Luis Martinez"]},
{"text": "Good performances, but the real stars here are the Wachowski brothers and their slick, gothic future world, where you can become an instant martial-arts expert simply by downloading a program to your cerebral cortex.", "is_fresh": 1, "author": []},
{"text": "If the Wachowskis claim no originality of message, they are startling innovators of method.", "is_fresh": 1, "author": ["Philip Strick"]},
{"text": "The Matrix soars with its feet in the air -- the rest crash-lands.", "is_fresh": 0, "author": ["Peter Travers"]},
{"text": "The Wachowskis are bold and daring appropriators--there's nothing they can't recycle.", "is_fresh": 1, "author": ["Chuck Rudolph"]},
{"text": "I must admit I kind of enjoyed The Matrix and all of its escapist fun.", "is_fresh": 1, "author": ["Jim Chastain"]},
{"text": "When the storyline finally comes into focus, the movie takes off and never looks back.", "is_fresh": 1, "author": ["James Kendrick"]},
{"text": "A wildly cinematic futuristic thriller that is determined to overpower the imagination, The Matrix combines traditional science-fiction premises with spanking new visual technology in a way that almost defies description.", "is_fresh": 1, "author": ["Kenneth Turan"]},
{"text": "I must be in The Matrix because \"the brotha\" rule was broken!", "is_fresh": 1, "author": ["Kamal 'The Diva' Larsuel"]},
{"text": "A great-looking action film.", "is_fresh": 1, "author": ["Robert Roten"]},
{"text": "The most salient things any prospective viewer need know is that Keanu Reeves makes a strikingly chic Prada model of an action hero.", "is_fresh": 1, "author": ["Janet Maslin"]},
{"text": "The action sequences in The Matrix are some of the best in a long time.", "is_fresh": 1, "author": ["Scott Renshaw"]},
{"text": "The movie is kinetic, atmospheric, visually stunning, and mind-bending.", "is_fresh": 1, "author": ["James Berardinelli"]},
{"text": "It may bore you to death or blow your mind -- and it's long and convoluted enough to do both -- but it holds nothing back!", "is_fresh": 1, "author": ["Andrew O'Hehir"]},
{"text": "The Matrix did not bore me. It interested me so much, indeed, that I wanted to be challenged even more.", "is_fresh": 1, "author": ["Roger Ebert"]},
{"text": "The deliciously inventive Wachowskis have delivered the syntax for a new kind of movie: technically mind-blowing, style merged perfectly with content and just so damn cool.", "is_fresh": 1, "author": ["Ian Nathan"]},
{"text": "The Matrix is mainly also an exercise in outrageous style over substance featuring flowing trenchcoats, sunglasses at night, and LOTS of guns.", "is_fresh": 1, "author": ["Gemma Files"]},
{"text": "The Matrix serves up so much visual wizardry and thought-provoking ideas that even the inevitable Silver touch -- a finale with more bullets than the opening of Saving Private Ryan -- can't destroy the magic.", "is_fresh": 1, "author": ["Sean P. Means"]},
{"text": "Hollywood has finally successfully captured the Asian city's action-filmmaking style in a star named Keanu Reeves and writer-directors called the brothers Wachowski!", "is_fresh": 1, "author": ["Annlee Ellingson"]},
{"text": "With its cool gadgets, natty outfits and smashing action-set pieces, Matrix kicks serious butt, virtual and otherwise.", "is_fresh": 1, "author": []},
{"text": "A blast of Holly-Kong glitz that never approaches the stylistic cohesiveness of, say, John Woo's Face/Off or the charisma of that film's propulsive star John Travolta.", "is_fresh": 0, "author": ["Lisa Schwarzbaum"]},
{"text": "The Matrix is to overblown silliness as Mount Rushmore is to big stone heads.", "is_fresh": 0, "author": ["Stuart Klawans"]},
{"text": "Buckle up!", "is_fresh": 1, "author": ["Ross Anthony"]},
{"text": "The Matrix is one dandy piece of eye candy, even if the taste is a little flat.", "is_fresh": 1, "author": ["Drew McAnulty"]},
{"text": "Keanu Reeves makes a lean, strikingly beautiful tabula rasa hero, twisting out of the way of bullets that elongate like silver beads of mercury, and he's partnered by the equally hard, blank, and androgynously gorgeous Carrie-Anne Moss.", "is_fresh": 1, "author": ["David Edelstein"]},
{"text": "Amazingly deep and cool!", "is_fresh": 1, "author": ["MaryAnn Johanson"]},
{"text": "A fun combination of cerebral sci-fi elements and stunningly impressive action sequences!", "is_fresh": 1, "author": ["Jim Judy"]},
{"text": "A reminder of how exhilirating it is when Hollywood hits a home run", "is_fresh": 1, "author": ["Carlo Cavagna"]},
{"text": "The Matrix is packed full of cutting-edge special effects and stunts.", "is_fresh": 1, "author": ["Brian Webster"]},
{"text": "Ultimately, The Matrix settles for technically dazzling comic-book shtick. Some might count this as a good thing, but I'm not a fan of the Wachowskis' more-is-more aesthetic.", "is_fresh": 0, "author": ["Dennis Lim"]},
{"text": "Fasten your seatbelts and put on your thinking caps because the Wachowski brothers are back.", "is_fresh": 1, "author": ["Steve Rhodes"]},
{"text": "The Matrix is propelled by a fascinating-enough concept.", "is_fresh": 1, "author": ["Harvey S. Karten"]},
{"text": "At least the Wachowski's attempted to do something different than what had been seen before, even if the finished product isn't quite the success they obviously yearned for.", "is_fresh": 0, "author": ["Dustin Putman"]},
{"text": "The film ends with Neo looking like Clark Kent, as he is stepping out of a telephone booth.", "is_fresh": 1, "author": ["Dennis Schwartz"]},
{"text": "Writer-directors Larry and Andy Wachowski have crafted a stunning fusion of a Hong Kong action film and a cyberpunk graphic novel.", "is_fresh": 1, "author": ["Madeleine Williams"]},
{"text": "It is escapist entertainment in the hottest, most illusion-driven, fastest, tumultuous action style, bridging genres with ease (one-against-the-system/sci fi/film noir/action/apocalyptic fable) and creating its own style in the process.", "is_fresh": 1, "author": ["Urban Cinefile Critics"]},
{"text": "The story? It's not bad, but it definitely takes a back seat to the astounding visuals.", "is_fresh": 1, "author": ["Jon Popick"]},
{"text": "The Matrix is a great piece of eye candy.", "is_fresh": 1, "author": ["Marty Mapes"]},
{"text": "An exercise in sheer and unadulterated coolness.", "is_fresh": 1, "author": ["James O'Ehley"]},
{"text": "The Matrix is the coolest -- a journey into a genuinely original vision of our cyberfuture that will have you checking your own reality by the time it's over.", "is_fresh": 1, "author": ["Susan Stark"]},
{"text": "Rarely have so many startlingly original images been thrown into a single storyline.", "is_fresh": 1, "author": ["Marc Savlov"]},
{"text": "Go see this and soon.", "is_fresh": 1, "author": ["Emily Blunt"]},
{"text": "The Matrix does indeed have a plot and sense of \"mythos\" that grounds it and makes it more than the sum of all of its special effects wizardry.", "is_fresh": 1, "author": ["Greg Dean Schmitz"]},
{"text": "Who would have thought that a Keanu Reeves movie could be intellectually as well as visually satisfying?", "is_fresh": 1, "author": ["Matt Easterbrook"]},
{"text": "One of the most visually stunning films of all time, and a welcome reminder as to why sci-fi fans, such as myself, became sci-fi fans in the first place.", "is_fresh": 1, "author": ["Alex Sandell"]},
{"text": "...a science-fiction/action film so alternately thrilling and frustrating that it almost defies description.", "is_fresh": 1, "author": ["Jeff Vice"]},
{"text": "It's probably the best looking movie I've ever seen.", "is_fresh": 1, "author": ["Matt Lawrence"]},
{"text": "With a better cast and a tighter script, this could have been a knockout.", "is_fresh": 1, "author": ["Bryant Frazer"]},
{"text": "What makes the film weirdly compelling is the sheer audacity of its screenplay.", "is_fresh": 1, "author": ["David Sterritt"]},
{"text": "A contradiction in terms, a big-budget action/science-fiction epic that's also riveting, ambitious and intelligent.", "is_fresh": 1, "author": ["David Luty"]},
{"text": "...worth plugging into.", "is_fresh": 1, "author": ["Bill Chambers"]},
{"text": "Also, almost every awkward performance is defensible, because many of the bad actors turn out to be software inventions.", "is_fresh": 1, "author": ["Gary Thompson"]},
{"text": "As Keanu says: Whoa!", "is_fresh": 1, "author": ["Steven Rea"]},
{"text": "It's astonishing that so much money, talent, technical expertise and visual imagination can be put in the service of something so stupid.", "is_fresh": 0, "author": ["Bob Graham"]},
{"text": "...every movement in front of the camera looks choreographed, right down to the blinking eyes and shimmering light.", "is_fresh": 1, "author": ["Wesley Morris"]},
{"text": "And just what is the Matrix? Well, that would be telling. And it would effectively cut out what little conceptual guts power this latest exercise in pure, crazy, graphic novel-inflected cool.", "is_fresh": 1, "author": ["Gemma Files"]},
{"text": "A movie so visually enthralling, so exciting and so elaborate that it deserves nothing short of universal acclaim. It's lavish, fascinating, beautiful, magnificently written, well directed, and effectively executed in every way.", "is_fresh": 1, "author": ["David Keyes"]},
{"text": "The special effects in The Matrix, the futuristic science fiction-thriller, are worth the price of a ticket. The confusing story leaves a bit to be desired, but overall, this is a solid movie that is fun to watch.", "is_fresh": 1, "author": ["Gary Brown"]},
{"text": "It's a handsome picture with extremely slick photography, computer-enhanced stunts and neo-goth atmosphere.", "is_fresh": 1, "author": ["Rob Blackwelder"]},
{"text": "...a combination of brooding drama and reality-bending spectacle on par with Akira or Ghost in the Shell.", "is_fresh": 1, "author": ["Tor Thorsen"]},
{"text": "Given a budget that encourages their kinesthetic skills, the filmmakers tend to go on a bit, but it's mostly a kind of quick, glancing hipness that's being indulged here.", "is_fresh": 1, "author": ["Richard Schickel"]},
{"text": "...combines special effects, with crazy fights featuring freaky Hong Kong action and unbelievable strengths, and a non-stop pace to a chase that seemed inevitable from the start.", "is_fresh": 1, "author": ["JoBlo"]},
{"text": "...peppered with good looking special effects, is designed in stylishly noir decor, and is generally well paced.", "is_fresh": 1, "author": ["Arthur Lazere"]},
{"text": "Ciencia ficci\u00f3n a su m\u00e1s puro y alto nivel. Verdaderamente recomendable", "is_fresh": 1, "author": ["Jorge Avila Andrade"]},
{"text": "You may get a headache trying to decipher the ponderous storyline, but the amazing imagery will likely soothe your pain.", "is_fresh": 1, "author": ["Edward Johnson-Ott"]},
{"text": "The Matrix flings around enough imaginative ideas and digitized bodies to make it a definite check-out-this-one for all science-fiction fans.", "is_fresh": 1, "author": ["Bob Fenster"]},
{"text": "If you haven't had such a reality-blurring experience, run -- don't walk -- to see this film!", "is_fresh": 1, "author": ["Matt Diehl"]},
{"text": "Silly and dense!", "is_fresh": 0, "author": ["Jay Carr"]},
{"text": "A lot of the fighting and shoot-out scenes are positively balletic and great fun to watch.", "is_fresh": 1, "author": ["Amy Taubin"]},
{"text": "Special kudos to the mysterious Wachowski tag team, who have created a lurid, splashy nightmare for the end of the millennium.", "is_fresh": 1, "author": ["Michael O'Sullivan"]},
{"text": "Wherever they tell their story they tell it too long and too loud.", "is_fresh": 0, "author": ["Arthur Salm"]},
{"text": "The Matrix not only is a failure as a science-fiction movie -- long on explanation, short on inspiration -- but it doesn't do anything interesting with the futuristic vision that it takes forever to explain.", "is_fresh": 0, "author": ["Steven Rosen"]},
{"text": "This dazzling pop allegory is steeped in a dark, pulpy sensibility that transcends nostalgic pastiche and stands firmly on its own merits.", "is_fresh": 1, "author": ["Maitland McDonagh"]},
{"text": "There's a kind of liberating, almost transforming energy in this film; it lights you up and sends you out all giddy with silliness.", "is_fresh": 1, "author": ["Stephen Hunter"]},
{"text": "The only things energetic about The Matrix are its special effects.", "is_fresh": 0, "author": ["Philip Wuntch"]},
{"text": "Not only is the film elaborately plotted, it's ingeniously realized.", "is_fresh": 1, "author": ["Duane Dudek"]},
{"text": "The Matrix is too much of an outer-limits head-trip to resist!", "is_fresh": 1, "author": ["Kevin Maynard"]},
{"text": "A more technically dazzling synthesis of action choreography and cutting-edge computer graphics has not been seen since James Cameron's T2.", "is_fresh": 1, "author": ["Rod Dreher"]},
{"text": "The Matrix is really about filmmaking style rather than context.", "is_fresh": 0, "author": ["John Anderson"]},
{"text": "There's a major film in the pipeline that's already widely presumed to be the best science-fiction adventure of the year, but The Matrix sets the bar pretty darned high.", "is_fresh": 1, "author": ["Shawn Levy"]},
{"text": "All style and no substance. So what?", "is_fresh": 1, "author": ["Sean Axmaker"]},
{"text": "Even on the level of gunplay, The Matrix is a wonderful film. The action is intensely involving, executed with technical wizardry, and at times evokes the rhythm of Star Wars.", "is_fresh": 1, "author": ["Ian Waldron-Mantgani"]},
{"text": "As a bonus, the soundtrack rocks as much as the movie.", "is_fresh": 1, "author": ["Andrew Manning"]},
{"text": "I must admit, for all its blatant flaws (and man are there some), I left feeling shockingly satisfied, almost wanting to get right back in line and see it again.", "is_fresh": 1, "author": ["Ted Prigge"]},
{"text": "The film's a ride. Granted, it's a ride with a decent and well-thought out story behind it, but a ride nonetheless.", "is_fresh": 1, "author": ["Widgett Walls"]},
{"text": "A surreal, icky, post-apocalyptic cyberpunk hacker mind-trip of a movie.", "is_fresh": 1, "author": ["David N. Butterworth"]},
{"text": "A feat of alchemy, blending modest parts into a stunning whole that really has no business working as brilliantly as it does.", "is_fresh": 1, "author": ["Michael Dequina"]},
{"text": "The Matrix is fun. It's thought-provoking, especially if you are touched with a pinch of paranoia. It's loud, explosive and a movie science fiction fans will appreciate.", "is_fresh": 1, "author": ["Bob Bloom"]},
{"text": "Something that must be seen to be believed; a visionary achievement in filmmaking that delights the eye and the mind alike.", "is_fresh": 1, "author": ["Eugene Novikov"]},
{"text": "Like 'Alice in Wonderland,' from which it takes an early cue, 'The Matrix' creates its own logic, setting up rules just to break them and making it clear that the one thing you can count on in this tale is that you can't count on anything.", "is_fresh": 1, "author": ["James Sanford"]},
{"text": "Aimed specifically at a young, male audience, this challenging sci-fi adventure is big on visuals and short on story.", "is_fresh": 0, "author": ["Susan Granger"]},
{"text": "When there was so much potential for an intelligent story here the Wachowski Brothers have opted to spend most of their screen time on mindless action.", "is_fresh": 0, "author": ["Mark R. Leeper"]},
{"text": "", "is_fresh": 0, "author": ["Robert Denerstein"]},
{"text": "", "is_fresh": 1, "author": ["Wesley Lovell"]}
]