[
{"reviews_count": "139", "title": "The Sisters Brothers", "avg_audience_rating": "3.5", "rotten_count": "21", "tomatometer": "85", "audience_score": "65", "avg_critic_rating": "7.2", "fresh_count": "118", "user_ratings_count": "1,021"},
{"text": "The Sisters Brothers might have some of the conventions of a typical western, but it surpasses them with a surprising touch of warmth and humanity. [Full Review in Spanish]", "is_fresh": 1, "author": ["Erick Ortiz"]},
{"text": "Surely not your typical Western...there were several times where it felt time to wrap it up...I didn't understand why the movie was still going, why were you still telling this story?", "is_fresh": 0, "author": ["Sharronda Williams"]},
{"text": "Audiard...charms the film with a sense of half-witted adventure, filling its pages with amusing and horrifying tableaus of accidental perils.", "is_fresh": 1, "author": ["Matt Oakes"]},
{"text": "There is much to admire about The Sisters Brothers; the powerful performances, the beautiful cinematography, and the statement on violence in the Old West.", "is_fresh": 1, "author": ["David Fontana"]},
{"text": "Withholding the basics we expect from a western - poetic violence, heroic or sinister tableaux of men on horseback - started to seem like the whole point.", "is_fresh": 1, "author": ["Margot Harrison"]},
{"text": "This is a very gritty and dirty western, not the romantic kind of story seen in traditional westerns, but it is also quirky and funny at times, despite all the violence.", "is_fresh": 1, "author": ["Robert Roten"]},
{"text": "\"The Sisters Brothers\" feels like a movie in search of a point.", "is_fresh": 0, "author": ["Dan Webster"]},
{"text": "Audiard's resulting egg dish might include a few wayward ingredients too many, but on the whole, it adequately fills your belly.", "is_fresh": 1, "author": ["Piers Marchant"]},
{"text": "Conveys most of the book's darkly comic charm while presenting a minor spin on the Western formula... A diverting lark. ", "is_fresh": 1, "author": ["Eric D. Snider"]},
{"text": "John C. Reilly rises to profound levels in this thinking man's western. At least that's what I think it is.", "is_fresh": 1, "author": ["John Urbancich"]},
{"text": "Siblings' Divide Drives \"Sisters Brothers.\"", "is_fresh": 1, "author": ["Charles Koplinski"]},
{"text": "His [Reilly's} emotion spills out of every corner of the film and he uses his odd kind of charm to hook you to his journey.", "is_fresh": 1, "author": ["Alan French"]},
{"text": "Don't expect happy endings because the best you'll get is bittersweet. This renders everything that much more authentic, though.", "is_fresh": 1, "author": ["Jared Mobarak"]},
{"text": "Alexandre Desplat's energetic, wistful score reverberates, like the film itself, with both hopeful optimism and resigned melancholy.", "is_fresh": 1, "author": ["Nikki Baughan"]},
{"text": "A well-cast picaresque Western with a little existential angst amid the shootouts. ", "is_fresh": 1, "author": ["Roger Moore"]},
{"text": "It's a Western. We're starved for a good one. This isn't it but - hey - it's a Western. BTW, John C. Reilly is REALLY good in this. ", "is_fresh": 1, "author": ["Gary Wolcott"]},
{"text": "Admittedly low-impact, but moviegoers willing to saddle up will be compensated with the company of one of the year's finest casts.", "is_fresh": 1, "author": ["J. Olson"]},
{"text": "Ultimately a story about brotherhood, friendship and the insecurity of life in a violent place, the film injects a sweetness and innocence into the genre, mostly through one stellar performance by John C. Reilly.", "is_fresh": 1, "author": ["April Wolfe"]},
{"text": "Rosencrantz & Gulidenstern Go West.", "is_fresh": 1, "author": ["Sean Burns"]},
{"text": "The Sisters Brothers has uncommon depth but routinely cheapens it with overeager or expository dialogue.", "is_fresh": 0, "author": ["Chance Solem-Pfeifer"]},
{"text": "Like an unfamiliar horse, the gait of \"The Sisters Brothers\" takes a little while to get used to, shifting between extreme violence and gentle character comedy. But it makes for a memorable ride.", "is_fresh": 1, "author": ["Rob Thomas"]},
{"text": "\"Drunken saloon fights, spider bites, brothels and a tutorial on teeth brushing... this flick has it all.\"", "is_fresh": 1, "author": ["Rosalie Kicks"]},
{"text": "It's not quite clear who this movie is for, what it is, or what it was even trying to be.", "is_fresh": 0, "author": ["Tom Santilli"]},
{"text": "Part anti-Western, part existentialist rumination on manhood, The Sisters Brothers feels like a bunch of eclectic pieces that work well together, for awhile.", "is_fresh": 1, "author": ["Christopher Lloyd"]},
{"text": "Not only is Reilly really great in the film, Audiard directs the hell out of it.", "is_fresh": 1, "author": ["Joey Magidson"]},
{"text": "The Sisters Brothers is a Western with all its cliches, but the film also presents the unpredictable.", "is_fresh": 1, "author": ["Martha K. Baker"]},
{"text": "Audiard's film embraces a genre without bending to expectations. ", "is_fresh": 1, "author": ["Hope Madden"]},
{"text": "\"The Sisters Brothers\" often feels like a journey in search of a destination.", "is_fresh": 0, "author": ["Adam Graham"]},
{"text": "It's hard to get a handle on what kind of Western The Sisters Brothers is trying to be - a revisionist take on frontier violence, an outsider's metaphor for American brutality, or just an old-school shoot-'em-up - and that's part of its charm.", "is_fresh": 1, "author": ["Sean P. Means"]},
{"text": "Phoenix is very good as the hot-tempered Charlie, but Reilly steals the show as the comparatively gentle Eli, providing this rough-edged film with a soulful center.", "is_fresh": 1, "author": ["Daniel Barnes"]},
{"text": "Phoenix has a way of drawing most of the camera's energy toward him, but Reilly, in his own mysterious and quiet way, can hold his own with anyone, be it Ricky Bobby or King Kong.", "is_fresh": 1, "author": ["Gary Thompson"]},
{"text": "[It's] an offbeat Western that doesn't force its characters into clearly defined categories of good and bad as the men at the centre of the tale walk that fine line with many missteps.", "is_fresh": 1, "author": ["Sarah Gopaul"]},
{"text": "The result is sharp, affecting, and fun story that climbs mountains, spans plains, and literally burns down barns. ", "is_fresh": 1, "author": ["Erik Henriksen"]},
{"text": "Call it a \"baguette,\" \"crepe,\" or \"foie gras\" western, but Audiard has genuflected to make a proper addition to this movie discipline.", "is_fresh": 1, "author": ["Don Shanahan"]},
{"text": "Violent but aimless, shuffling along with barely any tension in its heavy-handedly delivered 121 minute running time", "is_fresh": 0, "author": ["Jordan Ruimy"]},
{"text": "Audiard, whose previous films have made notable, if not sometimes hasty, remarks on the frail, bipolar nature of masculinity, is in firm command of the material despite the shift in language and milieus.", "is_fresh": 1, "author": ["Daniel Nava"]},
{"text": "It's not about twists in a strict sense, but a perfectly designed narrative structure. [Full review in Spanish]", "is_fresh": 1, "author": ["Ruben Peralta Rigaud"]},
{"text": "With all this talk of gold propelling the action, it's Reilly who has the Midas touch.", "is_fresh": 1, "author": ["Dana Barbuto"]},
{"text": "A great revisionist Western from acclaimed French filmmaker Jacques Audiard (A Prophet). Phoenix and Reilly make great gunslinging brothers. Gyllenhaal and Ahmed also fine.", "is_fresh": 1, "author": ["James Verniere"]},
{"text": "Amid this conundrum of a movie, the actors provide what the facile screenplay cannot: a human pulse, shrewdly underscored by composer Alexandre Desplat's time-traveling musical landscape.", "is_fresh": 1, "author": ["Barry Paris"]},
{"text": "As we all know, anything goes in the Wild West and so too here, as the boys toss around bon mots and sophisticated ideas as they shoot just about any living thing around them.", "is_fresh": 0, "author": ["Anne Brodie"]},
{"text": "For every revelation woven into the action, there's a bit of obvious philosophizing to remind you of the real point here. (It sure ain't the gunplay, though the way the six-guns spit sparks is fun to look at.) ", "is_fresh": 1, "author": ["Matthew Lickona"]},
{"text": "This is challenging, rugged stuff that trusts the audience to be patient and have an open mind.", "is_fresh": 1, "author": ["J.R. Kinnard"]},
{"text": "In a movie with four leading men, John C. Reilly is the standout, the star, and should be recognized for his work. \"The Sisters Brothers\" is one of the year's best films.", "is_fresh": 1, "author": ["Jonathan W. Hickman"]},
{"text": "What an odd film, a Western that begins with brutality and works its way towards light, a surreal take on \"The Treasure of the Sierra Madre,\" that is also a tale of brotherhood, often funny, but also tragic. ", "is_fresh": 1, "author": ["Laura Clifford"]},
{"text": "Bolstered by four strong central performances, the most surprising thing about \"The Sisters Brothers\" is how pleasant and raffishly likable it ultimately becomes.", "is_fresh": 1, "author": ["Ruben Rosario"]},
{"text": "I was engaged from start to finish thanks to the unique drawings and subsequent performances of the main characters. (Full Content Review for Parents - Violence, Profanity, Sex, etc. - also Available)", "is_fresh": 1, "author": ["Jim Judy"]},
{"text": "It's quite a violent film, but also one with great emotional depth - a rare accomplishment that makes it the best American western to hit the screen since The Assassination of Jesse James by the Coward Robert Ford.", "is_fresh": 1, "author": ["Tom Meek"]},
{"text": "Handsomely, Audiard finds salvation for the brothers via camaraderie and femininity (Carol Kane appears, as if from a half-remembered dream), which isn't so much subversive as it is refreshing.", "is_fresh": 1, "author": ["Dom Sinacola"]},
{"text": "Scene by scene, it's difficult to predict whether the proceedings will crackle with violence, swerve into farce, or both.", "is_fresh": 1, "author": ["Colin Covert"]},
{"text": "The Sisters Brothers is filled with plenty of silly, idiosyncratic touches, but all of them feel authentic and reasoned. ", "is_fresh": 1, "author": ["Andrew Parker"]},
{"text": "This is a more straight-up example of the form, but none the less enjoyable for it.", "is_fresh": 1, "author": ["Chris Knight"]},
{"text": "Equal parts comedy, drama, love story and horror story, the saga simply refuses to be easily lassoed.", "is_fresh": 1, "author": ["Peter Howell"]},
{"text": "Audiard shows a series of situation that pulls us out of the conventional western and places us near a light comedy or an intense drama about a search. [Full Review in Spanish]", "is_fresh": 1, "author": ["Erick Estrada"]},
{"text": "It's a winding but awesomely entertaining ride, even for western fans who've ridden them thar hills many times before.", "is_fresh": 1, "author": ["Janet Smith"]},
{"text": "The movie works, it well and truly works, because the four main characters come together in ways we could never have foreseen, and the actors themselves seem surprised at the twists the story takes and where their characters fall on the curve.", "is_fresh": 1, "author": ["Ty Burr"]},
{"text": "Audiard has made an atmospheric Western in which the four lead actors portray their characters with remarkable subtlety.", "is_fresh": 1, "author": ["Soren Andersen"]},
{"text": "Mish-mashes competing tones and energies to often-brilliant effect. ", "is_fresh": 1, "author": ["Glenn Heath Jr."]},
{"text": "It aerates what's already been well-trod, offering an alternately pitiless and tenderhearted lens on such hardy themes as character, filial loyalty and American progress at its most naive and voraciously destructive.", "is_fresh": 1, "author": ["Ann Hornaday"]},
{"text": "Though it can't escape a certain episodic, picaresque tone, it's held together by a strong cast and a propensity for finding amusing grace notes for them to play.", "is_fresh": 1, "author": ["Frank Swietek"]},
{"text": "...not precious about challenging tropes, and like so many Westerns, fundamentally about change ... How do men who make their living out of such brutality evolve - or not?", "is_fresh": 1, "author": ["Adam Kempenaar"]},
{"text": "The western is noticeably hampered by structural and tonal issues ... Solid performances by likable actors can't save this indie western being weighed by its script. ", "is_fresh": 0, "author": ["Kimberly Pierce"]},
{"text": "A cut above most westerns.", "is_fresh": 1, "author": ["Dennis Schwartz"]},
{"text": "The meticulously detailed film mostly sidesteps genre clich\u00e9s as it focuses on moral complexities and character dynamics rather than genre cliches.", "is_fresh": 1, "author": ["Todd Jorgenson"]},
{"text": "For the first three-quarters of The Sisters Brothers, the offbeat adventures and the fine performances are more than enough to carry the day - but then the wheels come off.", "is_fresh": 0, "author": ["Richard Roeper"]},
{"text": "[Jacques] Audiard finds gore and even a few grace notes in his American myth.", "is_fresh": 1, "author": ["Pat Padua"]},
{"text": "The tonal shifts in The Sisters Brothers seem more like the result of indecision than design... The cast is strong, though, and demonstrates yet again how good acting can carry audiences through movies that otherwise would not be worth the trip.", "is_fresh": 1, "author": ["Peter Rainer"]},
{"text": "Audiard is given the kind of material made to deepen archetypes and clich\u00e9s-an admirable intent-but every attempt for Audiard to deepen his western ends up working against the genre's every natural impulse and inclination. ", "is_fresh": 0, "author": ["Gary Shannon"]},
{"text": "While Phoenix delivers the reckless and playful goods as Charlie, the movie is Reilly's. His lead character is terrifically dangerous, forlorn and funny. The two actors sizzle together.", "is_fresh": 1, "author": ["Anita Katz"]},
{"text": "The plot is threadbare; the story, such as it is, relatively uninteresting. ... As an acting showcase, however, there is much to love.", "is_fresh": 1, "author": ["Sonny Bunch"]},
{"text": "I'll tell you that Audiard allows his movie to settle like a pot that has been taken off the fire and has begun to lose its boiling fury.", "is_fresh": 1, "author": ["Robert Denerstein"]},
{"text": "Reilly carries the movie with a performance rife with melancholy and weariness.", "is_fresh": 1, "author": ["Robert Levin"]},
{"text": "[B]y the end, we mostly understand why such characters are usually relegated to the backdrop of such stories.", "is_fresh": 0, "author": ["Mark Dujsik"]},
{"text": "The Sisters Brothers takes a bit of getting used to at the start, but the rewards are worth it.", "is_fresh": 1, "author": ["Lindsey Bahr"]},
{"text": "As a novel, The Sisters Brothers was shortlisted for the Man Booker prize. This is not the kind of movie that typically wins awards, but for me it is even better than the book.", "is_fresh": 1, "author": ["Michael Sragow"]},
{"text": ". At times funny and brutal, but always with an eye towards larger concerns, the film is a passionate look at the ties that bind brothers together, even if that bond is forged in blood.", "is_fresh": 1, "author": ["Travis Hopson"]},
{"text": "The film treats their growing intimacy, in all its permutations, like an objet d'art, to be turned over and examined, delicately, from every angle. When they're together, the film is electric.", "is_fresh": 1, "author": ["Kimberley Jones"]},
{"text": "A frequently aimless but ultimately rewarding take on brotherhood and bonding amid the itchy trigger fingers and lust for quick riches of the California gold rush.", "is_fresh": 1, "author": ["Cary Darling"]},
{"text": "More than anything, \"The Sisters Brothers\" is an exploration of how far you can take an anti-Western before it snaps out of the genre's orbit entirely.", "is_fresh": 1, "author": ["Kerry Lengel"]},
{"text": "It's not certain what a Western purist would think of this revisionist approach, but we still can't help but revel in it.", "is_fresh": 1, "author": ["David Lewis"]},
{"text": "There's a strangeness to certain passages of Sisters that bolsters it through its seedy saloons and cacophonous firefights.", "is_fresh": 1, "author": ["Dominick Suzanne-Mayer "]},
{"text": "...occupies its own strange, somber place in the Western genre.", "is_fresh": 1, "author": ["Josh Larsen"]},
{"text": "It has the painterly visuals of a classic film, but its lead characters are black-hatted villains whose road to redemption is mostly motivated by exhaustion rather than guilt. ", "is_fresh": 1, "author": ["David Sims"]},
{"text": "Surely there must be more here, right? No, there really isn't. ", "is_fresh": 0, "author": ["Kyle Smith"]},
{"text": "Alas, instead of a rip-snorting western, what we get is a pseudo-psychological study of two brothers who are cold-blooded killers but are treated with so much sympathy it makes one want to gag. ", "is_fresh": 0, "author": ["Tony Medley"]},
{"text": "The film never sticks the Western in quotation marks, never condescends to the genre with a wink.", "is_fresh": 1, "author": ["A.A. Dowd"]},
{"text": "A near-masterpiece-a simmering chase movie that gradually heats up to a searing family drama that wonders how to care for a loved one that's impossible to live with.", "is_fresh": 1, "author": ["Inkoo Kang"]},
{"text": "Witty, acute and unexpected, The Sisters Brothers is a striking portrait of brotherly love -- whether by blood or by circumstance.", "is_fresh": 1, "author": ["Annlee Ellingson"]},
{"text": "The Sisters Brothers transcends its genre roots to offer up something much more profound, as of course the best Westerns do.", "is_fresh": 1, "author": ["Rebecca Pahle"]},
{"text": "The term \"revisionist\" gets thrown around a lot in film criticism, especially when it comes to genres like the Western, but in the case of The Sisters Brothers, the description certainly applies.", "is_fresh": 1, "author": ["Don Kaye"]},
{"text": "This enjoyable revisionist Western based on Patrick DeWitt's novel focuses on male relationships. But it's also somewhat tonally uneven, swinging from scenes of brutal violence to scenes that could be described as \"cuddly.\" ", "is_fresh": 1, "author": ["Jeffrey M. Anderson"]},
{"text": "Of course it tries to be fresh and different, functioning more as a black-comedy character study than an action thriller. Mostly it's a misguided mess.", "is_fresh": 0, "author": ["Rex Reed"]},
{"text": "The Sisters Brothers retreats back from some interesting, adventurous territory to something all too familiar.", "is_fresh": 0, "author": ["Emily Yoshida"]},
{"text": "Jacques Audiard subverts plot expectations quite a few times, successfully managing to shy away from backstabbing and betrayal. The ending is just as unexpected but warmly fitting after everything the brothers go through", "is_fresh": 1, "author": ["Robert Kojder"]},
{"text": "Audiard plays to his past strengths as a poet of wounded masculinity; in its most touching moments, \"The Sisters Brothers\" is like a hangout movie on horseback.", "is_fresh": 1, "author": ["Justin Chang"]},
{"text": "The Sisters Brothers is easily the strangest, saddest, and sweetest Western you'll ever see.", "is_fresh": 1, "author": ["Karen Han"]},
{"text": "It feels fresh, like a Coen brothers western, only kindhearted.", "is_fresh": 1, "author": ["Tim Appelo"]},
{"text": "A great deal of the movie's enjoyment comes from its four principals, who work well when paired off but are particularly appealing in a group.", "is_fresh": 1, "author": ["Manohla Dargis"]},
{"text": "A knockout, one-of-a-kind western from French director Jacques Audiard in which odd-bird frontier hitmen are played by Joaquin Phoenix and a hot-damn he's great John C. Reilly. Saddle up. ", "is_fresh": 1, "author": ["Peter Travers"]},
{"text": "The cast is excellent across the board, but Reilly is truly the heart and soul of the movie.", "is_fresh": 1, "author": ["Kyle Anderson"]},
{"text": "Audiard's gift for showing how trauma shapes a person... elevates The Sisters Brothers from entertaining romp into a charming, warm-hearted ballad about camaraderie and communication.", "is_fresh": 1, "author": ["Hannah Woodhead"]},
{"text": "A plodding western interested more in a study of two brothers than in providing real adventure.", "is_fresh": 0, "author": ["Harvey S. Karten"]},
{"text": "Set during the height of the Gold Rush, The Sisters Brothers works largely on the heels of the four leading stars.", "is_fresh": 1, "author": ["Danielle Solzman"]},
{"text": "Phoenix and Reilly are the driving force of the movie and their vehement chemistry accelerates it all the way through.", "is_fresh": 1, "author": ["Rendy Jones"]},
{"text": "Through The Sisters Brothers, Audiard poses to his audience the question: What kind of man do you want to be? ", "is_fresh": 1, "author": ["Kristy Puchko"]},
{"text": "There's another reason for the lure of The Sisters Brothers. If the lives that it portrays are in transit, the world that encircles them is in even faster flux.", "is_fresh": 1, "author": ["Anthony Lane"]},
{"text": "Darkly funny and often deeply disorienting, with a marvel of an ending.", "is_fresh": 1, "author": ["Jason Bailey"]},
{"text": "As humanist and hopeful as it is violent, The Sisters Brothers presents a grim, dog-eat-dog world with a surprising amount of hope and tenderness.", "is_fresh": 1, "author": ["Kambole Campbell"]},
{"text": "Despite outstanding actors and a seemingly interesting premise, The Sisters Brothers fails to deliver.", "is_fresh": 0, "author": ["Ashley Menzel"]},
{"text": "The movie turns out, in the end, to have an idealized sense of closure in mind, one you both can and cannot see coming.", "is_fresh": 1, "author": ["K. Austin Collins"]},
{"text": "A dusty, squint-eyed Western ramble full of wry cowboy humor and sudden death.", "is_fresh": 1, "author": ["Leah Greenblatt"]},
{"text": "[It's] a traditional western, except when it's a revisionist tale. It's a my-brother's-keeper drama, except when it's a violent comedy. It's a tale of There Will Be Blood-levels of greed, except when it's a high-ho adventure.", "is_fresh": 1, "author": ["Barry Hertz"]},
{"text": "Audiard delivers an impersonal western, which aims to launch maxims on the corrosive nature of greed, but which is barely efficient and does not contain a single memorable shot or sequence. [Full Review in Spanish]", "is_fresh": 0, "author": ["Jorge (JJ) Negrete"]},
{"text": "The Sisters Brothers ultimately never quite manages to become more than the sum of its parts...", "is_fresh": 0, "author": ["David Nusair"]},
{"text": "It's a gorgeous, strange ride filled with gifted actors in curious combinations: Phoenix and Reilly are a great match as brothers, with a rhythm that speaks to decades of mutual irritation. ", "is_fresh": 1, "author": ["Norman Wilner"]},
{"text": "After its first episodic hour, I found myself struggling against a growing disappointment as I wondered if Audiard was going to take us anywhere particularly adventuresome or truly new.", "is_fresh": 0, "author": ["Mark Keizer"]},
{"text": "This alcohol-soaked Frontier road trip constantly reinvents itself at every turn in fun, witty and ultimately touching ways.", "is_fresh": 1, "author": ["Tomris Laffly"]},
{"text": "John C. Reilly is one of the most underappreciated national treasures we have. ", "is_fresh": 1, "author": ["Andy Howell"]},
{"text": "It's clear why [John C. Reilly] prized this story so much, as the role of Eli Sisters finally gives him something worthy of his sinfully underrated talents. ", "is_fresh": 1, "author": ["Kayleigh Donaldson"]},
{"text": "A French writer/director, co-adapting a great Canadian novel about the American West, what could go wrong? In the case of The Sisters Brothers, nothing as it turns out. ", "is_fresh": 1, "author": ["Karen Gordon"]},
{"text": "Jacques Audiard's The Sisters Brothers is an utterly strange, utterly lovely postmodern Western", "is_fresh": 1, "author": ["Chris Evangelista"]},
{"text": "A loose-limbed, mournfully comic western that gets better the further off-trail it goes.", "is_fresh": 1, "author": ["Jessica Kiang"]},
{"text": "John C. Reilly's work is Oscar-worthy.", "is_fresh": 1, "author": ["Chris Bumbray"]},
{"text": "For all its violent and drunken outbursts, it's the film's warmth that lingers like a gently throbbing hangover.", "is_fresh": 1, "author": ["Raphael Abraham"]},
{"text": "What may at first glance seem to be detours from the main narrative are in fact crucial, and update the genre while providing a bridge between the foundation of West(ern) culture and its contemporary repercussions.", "is_fresh": 1, "author": ["Clara Miranda Scherffig"]},
{"text": "The Sisters Brothers is sinfully enjoyable, and all the more so because a beloved character actor steals the movie from under the top-billed star. As good as the others are, this is John C Reilly's film.", "is_fresh": 1, "author": ["Baradwaj Rangan"]},
{"text": "The Sisters Brothers exhibits emotional depth, but can't figure out how to translate it, as if a crucial element has been missing all along.", "is_fresh": 1, "author": ["Vikram Murthi"]},
{"text": "Joaquin Phoenix and John C Reilly are the western double act you never knew you needed (until now) in this exhilarating cowboy romp.", "is_fresh": 1, "author": ["Kevin Maher"]},
{"text": "It's serving a reheated version of worn-to-the-bone male obsessions. And it made me wish, frankly, that I was seeing something bolder and newer.", "is_fresh": 0, "author": ["Owen Gleiberman"]},
{"text": "You don't need a deep love of westerns to get a kick out of Jacques Audiard's wry, surprising, and often plain hilarious frontier story.", "is_fresh": 1, "author": ["Philip De Semlyen"]},
{"text": "A compulsively watchable picture ... this is really Reilly's show.", "is_fresh": 1, "author": ["Glenn Kenny"]},
{"text": "[Riz] Ahmed brings depth and texture, plus a winning idealistic twinkle, to what could have been a bland straight-man role. ", "is_fresh": 1, "author": ["Robbie Collin"]},
{"text": "It's the stirring chemistry between Joaquin Phoenix and John C. Reilly as committed siblings that transforms these lively, violent circumstances into a sweet and intimate journey designed to catch acolytes of the genre off-guard.", "is_fresh": 1, "author": ["Eric Kohn"]},
{"text": "Audiard's storytelling has an easy swing to it, his dialogue is garrulous and unsentimental, and the narrative is exotically offbeat.", "is_fresh": 1, "author": ["Peter Bradshaw"]},
{"text": "At the heart of the film are two pitch perfect lead performances. Though Reilly and Phoenix don't look particularly like brothers, they certainly behave like them. ", "is_fresh": 1, "author": ["John Bleasdale"]},
{"text": "The Sisters Brothers doesn't have the same vibe as, say, Unforgiven, but it has the same quality of making us look at things from a different perspective.", "is_fresh": 1, "author": ["Mike Ryan"]},
{"text": "It's a sprawling Western that's also an intimate character piece; it has moments of wit but also devastating tragedy; it delves into larger themes, and yet it offers the hope of redemption.", "is_fresh": 1, "author": ["Alonso Duralde"]},
{"text": "A dark, comedic, idiosyncratic Western with the secret weapon of melancholic empathy hidden in its holster.", "is_fresh": 1, "author": ["Rodrigo Perez"]},
{"text": "A pleasing, lovingly crafted Western from a surprising source.", "is_fresh": 1, "author": ["Todd McCarthy"]}
]