[
{"reviews_count": "88", "title": "The Godfather", "avg_audience_rating": "4.4", "rotten_count": "2", "tomatometer": "98", "audience_score": "98", "avg_critic_rating": "9.3", "fresh_count": "86", "user_ratings_count": "732,022"},
{"text": "The movie is preposterously entertaining, telling Puzo's compendium of old-time Mafia anecdotes with all the gravity of Old Testament epic.", "is_fresh": 1, "author": ["Wilfrid Sheed"]},
{"text": "Francis Ford Coppola's adaptation of Mario Puzo's bestseller remains the great American epic of the immigrant dream turned family business. ", "is_fresh": 1, "author": ["Sean Axmaker"]},
{"text": "I found that flogging about for three hours in that quagmire was spiritually debilitating and a crazy waste of time.", "is_fresh": 0, "author": ["Robert Hatch"]},
{"text": "This is a curious film. One comes to understand, even to condone, the activities of the Godfather and his clan.", "is_fresh": 1, "author": ["Arthur Knight"]},
{"text": "It is a long (three hours), often exciting and always well-directed film about the struggle for survival of one of the five Mafia 'families,' the Corleones, in late 1940s New York.", "is_fresh": 1, "author": ["Christopher Hudson"]},
{"text": "Brando is the strong magnet that will draw fans to The Godfather. But behind-the-scenes creativity is of equal value to this film of towering proportions.", "is_fresh": 1, "author": ["Wanda Hale"]},
{"text": "I don't see how any gifted actor could have done less than Brando does here. His resident power, his sheer innate force, has rarely seemed weaker.", "is_fresh": 0, "author": ["Stanley Kauffmann"]},
{"text": "... its amber antique look, its misty-eyed, soft-hearted vision of honorable men battling for their shot at the American main chance as much a part of our collective iconography as ... Citizen Kane or ... The Great Gatsby. ", "is_fresh": 1, "author": ["Philip Martin"]},
{"text": "The Godfather is overflowing with life, rich with all the grand emotions and vital juices of existence, up to and including blood.", "is_fresh": 1, "author": ["Kenneth Turan"]},
{"text": "This elegiac organised-crime saga from the young Francis Ford Coppola is one of the all-time high watermarks of American cinema, rich with subtle acting and blessed with stunning cinematography from Gordon Willis.", "is_fresh": 1, "author": ["Andrew Collins"]},
{"text": "That lasting popularity isn't a fluke; the \"Godfather\" films stand the test of time because these aren't just movies, they're cultural touchstones.", "is_fresh": 1, "author": ["Colin Biggs"]},
{"text": "To permit us a glimpse at The Mob, with all of its ethnic insularity, is like giving a chronic gambler a chance to wander above the false mirrors that overlook every casino.", "is_fresh": 1, "author": ["Gene Siskel"]},
{"text": "Brando's triumph and fascination is less that of an actor of parts than of a star galaxy of myths. ", "is_fresh": 1, "author": ["Andrew Sarris"]},
{"text": "It's hard to find a moment in the film that isn't great. The Godfather lives up to the term masterpiece.", "is_fresh": 1, "author": ["Hank Sartin"]},
{"text": "A defining film in the history of cinema, The Godfather introduced a legendary filmmaker and several acting greats in the telling of an Italian American dynasty undone by the tragic circumstances of their criminal exploits.", "is_fresh": 1, "author": ["Matthew Pejkovic"]},
{"text": "This compeling movie of mafia and family life is superb in every department, writing, acting, directing, a highlight of Coppola's career as well as of New American Cinema.", "is_fresh": 1, "author": ["Emanuel Levy"]},
{"text": "Traces the arc of this doomed idealism with a beauty that is still fresh. ", "is_fresh": 1, "author": ["F.X. Feeney"]},
{"text": "Terrific performances and the perfect brooding atmosphere make it a truly outstanding work.", "is_fresh": 1, "author": ["Richard Kattan"]},
{"text": "Brando made Don Vito something we rarely see in movies: a tragicomic villain-hero, a vulnerable hood.", "is_fresh": 1, "author": ["Michael Wilmington"]},
{"text": "In its blending of new depth with an old genre, it becomes that rarity, a mass entertainment that is also great movie art.", "is_fresh": 1, "author": ["Jay Cocks"]},
{"text": "The Godfather films remain so powerful, so ubiquitous, because in the Corleones we see the American Dream -- and in turn, ourselves.", "is_fresh": 1, "author": ["Rumsey Taylor"]},
{"text": "The classic tale of a Mafia family. Not for kids.", "is_fresh": 1, "author": ["Elliot Panek"]},
{"text": "With all due respect to this 1972 classic, Vizzini was right: Never go in against a Sicilian when death is on the line.", "is_fresh": 1, "author": ["Kevin A. Ranson"]},
{"text": "As filmmaking and storytelling, 'The Godfather' remains a bravura piece of work, its set pieces, dialogue and performances entrenched cinematic icons.", "is_fresh": 1, "author": ["Ben Walters"]},
{"text": "A measured, deathly serious epic.", "is_fresh": 1, "author": ["Peter Bradshaw"]},
{"text": "The greatest gangster film ever made.", "is_fresh": 1, "author": []},
{"text": "Don't miss an opportunity to see a classic such as this on the big screen.", "is_fresh": 1, "author": []},
{"text": "Like a favored method of Mafia influence, \"The Godfather\" is an offer no audience can refuse.", "is_fresh": 1, "author": ["Cole Smithey"]},
{"text": "With the themes of family and loyalty, this film is a must see for any movie fan.", "is_fresh": 1, "author": ["Kevin Carr"]},
{"text": "Coppola offers a rich and layered look at family and does so with an incredible cast and a meticulous amount of detail.", "is_fresh": 1, "author": ["Ryan Cracknell"]},
{"text": "Francis Ford Coppola's 1972 classic, The Godfather, is to gangster films what Cecil B. DeMille's The Ten Commandments was to super spectaculars.", "is_fresh": 1, "author": ["John J. Puccio"]},
{"text": "...it's the stellar cast's career-best work that ultimately assures the viewer's interest even through the film's less-than-enthralling stretches.", "is_fresh": 1, "author": ["David Nusair"]},
{"text": "...a metaphor for creating and protecting your own business in this country - only with the added glamour of guns.", "is_fresh": 1, "author": ["Josh Larsen"]},
{"text": "A multi-generational epic that never leaves the audience less than enthralled, this is the godfather of all gangster films.", "is_fresh": 1, "author": []},
{"text": "There are volumes that could be written -- and have been -- about the movie's uniformly powerful performances; its precedent-setting editing by William Reynolds and Peter Zinner; Nino Rota's haunting score; and Dean Tavoularis's evocative set design.", "is_fresh": 1, "author": ["Desson Thomson"]},
{"text": "The biggest achievement here is the establishment of mood and time.", "is_fresh": 1, "author": ["A.D. Murphy"]},
{"text": "The ultimate family film.", "is_fresh": 1, "author": ["Dave Kehr"]},
{"text": "Not only one of the greatest mob films of all time, The Godfather is also one of the greatest overall pictures ever.", "is_fresh": 1, "author": ["Wesley Lovell"]},
{"text": "Like Citizen Kane, The Godfather doesn't age.", "is_fresh": 1, "author": ["Jeffrey M. Anderson"]},
{"text": "O primeiro ato da obra m\u00e1xima do Cinema.", "is_fresh": 1, "author": ["Pablo Villa\u00e7a"]},
{"text": "An everyday story of Mafia folk, incorporating a severed horse's head in the bed and a number of heartwarming family occasions, as well as pointers on how not to behave in your local trattoria.", "is_fresh": 1, "author": ["Geoff Andrew"]},
{"text": "How do you write a review about the greatest movie ever made?", "is_fresh": 1, "author": ["Scott Nash"]},
{"text": "Story-wise, there is so much going on that it would have been easy for a director to lose control, but Coppola (helped by a screenplay co-written by Puzo) keeps it all together beautifully.", "is_fresh": 1, "author": ["John Paulsen"]},
{"text": "Not only the best of crime film, but all that is possible with cinematic achievement.", "is_fresh": 1, "author": ["Phil Villarreal"]},
{"text": "It could be argued that Francis Ford Coppola's film of Mario Puzo's bestseller, at once an art movie and a commercial blockbuster, marked the dawn of the age of the mega-movie.", "is_fresh": 1, "author": ["Kim Newman"]},
{"text": "One of those sublimely rare movies in which every element-casting, acting, directing, script, cinematography, score-comes together.", "is_fresh": 1, "author": ["Thomas Delapa"]},
{"text": "The epic gangster film.", "is_fresh": 1, "author": ["Dennis Schwartz"]},
{"text": "Simply great, if not the greatest!", "is_fresh": 1, "author": ["John Urbancich"]},
{"text": "Is it really possible that this bears repeating? The Godfather is extraordinary.", "is_fresh": 1, "author": ["Nick Davis"]},
{"text": "Francis Ford Coppola has made one of the most brutal and moving chronicles of American life ever designed within the limits of popular entertainment.", "is_fresh": 1, "author": ["Vincent Canby"]},
{"text": "The original is back on the big screen and it looks great.", "is_fresh": 1, "author": ["Ron Wells"]},
{"text": "If you care for film at all, do yourself the great favor of getting out to that theater and immersing yourself in a genuine American classic.", "is_fresh": 1, "author": ["Margaret A. McGurk"]},
{"text": "From the \"I believe in America\" opening speech to the haunting final shot, this is near flawless film-making.", "is_fresh": 1, "author": ["Kevin N. Laforest"]},
{"text": "What more needs to be said? It's a grade-A, bona-fide Classic with a capital C.", "is_fresh": 1, "author": ["Scott Weinberg"]},
{"text": "Aquel que no ha visto El Padrino no puede decir que ama al cine", "is_fresh": 1, "author": ["Luis Martinez"]},
{"text": "Not to be missed.", "is_fresh": 1, "author": ["Leslie Rigoulot"]},
{"text": "Classic!", "is_fresh": 1, "author": ["JoBlo"]},
{"text": "It engulfs us in the lives of a lot of despicable people, but it fails to repulse us.", "is_fresh": 1, "author": ["Shay Casey"]},
{"text": "Heartbreakingly paradoxical: exquisite filmmaking, tragic self-annhiliation.", "is_fresh": 1, "author": ["Dan Jardine"]},
{"text": "The performances Coppola got out of these young actors are extraordinary. We understand their every glance, their every thought...", "is_fresh": 1, "author": ["Rob Blackwelder"]},
{"text": "Coppola's masterpiece reveals something new every time you watch it.", "is_fresh": 1, "author": ["Neil Smith"]},
{"text": "still a riveting piece of work, a true masterpiece of the American cinema", "is_fresh": 1, "author": ["James Kendrick"]},
{"text": "We come to The Godfather like Kay Adams -- outsiders uncertain in our expectations - but it doesn't take long for us to be captivated by this intricate, violent world.", "is_fresh": 1, "author": ["James Berardinelli"]},
{"text": "The story by Mario Puzo and Francis Ford Coppola is a brilliant conjuring act, inviting us to consider the Mafia entirely on its own terms.", "is_fresh": 1, "author": ["Roger Ebert"]},
{"text": "The years have been kind to this timeless Mafia epic, which seems particularly rich now that studio blockbusters no longer demonstrate this kind of care with character, atmosphere and storytelling.", "is_fresh": 1, "author": ["John Hartl"]},
{"text": "Corleone, the soft-spoken crimelord, is masterfully played by Brando in one of the most imitated performances of all time.", "is_fresh": 1, "author": ["Mary Brennan"]},
{"text": "While there have been changes from the novel, the film is both compelling and powerful.", "is_fresh": 1, "author": []},
{"text": "Over The Godfather's three-hour running time, the story of Michael's transformation from a 'civilian' in a mob family into its hard-nosed general never flags.", "is_fresh": 1, "author": ["MaryAnn Johanson"]},
{"text": "A classic in its own very right, Director Francis Ford Coppola brings us, the ultimate mob movie.", "is_fresh": 1, "author": ["Oz"]},
{"text": "Examining the meaning of family, violence, love, betrayal, and loyalty just to name a few, its quality set a standard that few films have matched.", "is_fresh": 1, "author": ["Steve Rhodes"]},
{"text": "One of the central American movies of the last 25 years, and one of very few to succed as both popular entertainment and high art.", "is_fresh": 1, "author": []},
{"text": "The three-part gangster saga from Italian-American director Francis Ford Coppola is a superb trilogy of films", "is_fresh": 1, "author": ["Tim Dirks"]},
{"text": "So many great roles and characters in this movie and then there's that eternally haunting Nino Rota score.", "is_fresh": 1, "author": ["Marjorie Baumgarten"]},
{"text": "With The Godfather, Coppola got everything right, balancing art with commerce -- and turning a big-studio project into something deeply personal and resonant.", "is_fresh": 1, "author": ["Joe Baltake"]},
{"text": "Coppola was signed to direct what was thought would be a pulp gangster film, but created one of the greatest epics ever.", "is_fresh": 1, "author": ["Matt Easterbrook"]},
{"text": "As scary as it is intelligent, as funny as it is touching, The Godfather is a prime example of the way cinema should be: excellent telling of complete stories.", "is_fresh": 1, "author": ["James Brundage"]},
{"text": "In scene after scene ... Coppola crafted an enduring, undisputed masterpiece.", "is_fresh": 1, "author": ["Edward Guthmann"]},
{"text": "Unlike many of its imitators made during the 25 years since its release, The Godfather is a handbook on cinematic lucidity.", "is_fresh": 1, "author": ["Barbara Shulgasser"]},
{"text": "All of the filmic arts - design, cinematography, editing, music - come together to forge what is, by any measure, one of the great movies of all time.", "is_fresh": 1, "author": ["Arthur Lazere"]},
{"text": "The story of this movie could have taken place everywhere in the world, and that explains why the people will associate with its characters for many decades to come.", "is_fresh": 1, "author": ["Dragan Antulov"]},
{"text": "", "is_fresh": 1, "author": ["Frank Swietek"]},
{"text": "", "is_fresh": 1, "author": ["Brian J. Arthurs"]},
{"text": "", "is_fresh": 1, "author": ["Brian Gibson"]},
{"text": "", "is_fresh": 1, "author": ["Michelle Alexandria"]},
{"text": "", "is_fresh": 1, "author": ["Carol Cling"]},
{"text": "", "is_fresh": 1, "author": ["Edward Havens"]},
{"text": "", "is_fresh": 1, "author": ["Audrey Rock-Richardson"]},
{"text": "", "is_fresh": 1, "author": ["Susan Stark"]}
]