[
{"reviews_count": "72", "title": "The Godfather: Part II", "avg_audience_rating": "4.3", "rotten_count": "2", "tomatometer": "97", "audience_score": "97", "avg_critic_rating": "9.6", "fresh_count": "70", "user_ratings_count": "410,462"},
{"text": "It goes much deeper than The Godfather in analyzing the twisted mentalities of these men who pervert the capitalist system for their own gain. The film is richer in texture and gives more evidence of social awareness.", "is_fresh": 1, "author": ["Kathleen Carroll"]},
{"text": "An admirable, responsible production, less emotionally disturbing than its predecessor, but a grand historical epic studying the nature of power in the United States' heritage.", "is_fresh": 1, "author": ["John H. Dorr"]},
{"text": "There are, in fact, a great many good things to look at in the film. But they don't add up to anything very impressive. I came away with the feeling I had been shown somebody's family-snapshot album with all the pictures pasted up in the wrong order.", "is_fresh": 0, "author": ["Kenneth Robinson"]},
{"text": "One of the greatest sequels ever.", "is_fresh": 1, "author": ["Kate Muir"]},
{"text": "The result is among the very greatest American films.", "is_fresh": 1, "author": ["Donald Clarke"]},
{"text": "Breathtaking in scope, Part II also shows the early life of the Don, brilliantly portrayed by Robert De Niro, as he flees Sicily and sails for New York. These sequences have the grandeur of a silent movie by DW Griffith or Erich von Stroheim.", "is_fresh": 1, "author": ["Adrian Turner"]},
{"text": "It is even better than the first film, and has the greatest single final scene in Hollywood history, a real coup de cin\u00e9ma.", "is_fresh": 1, "author": ["Peter Bradshaw"]},
{"text": "Either taken alone or together with the original, The Godfather Part II is an astounding work.", "is_fresh": 1, "author": ["Adam Lee Davies"]},
{"text": "Arguably better than the original, this is still an amazing film.", "is_fresh": 1, "author": ["Andrew Collins"]},
{"text": "The plotting is elliptical and the sweep intoxicates, but the contrast between De Niro's meditative Vito and Pacino's soul-starved eyes brings piercing focus to Coppola's resonating study of corrupting power.", "is_fresh": 1, "author": ["Kevin Harley"]},
{"text": "That lasting popularity isn't a fluke; the \"Godfather\" films stand the test of time because these aren't just movies, they're cultural touchstones.", "is_fresh": 1, "author": ["Colin Biggs"]},
{"text": "One of the most ambitious and brilliantly executed American films, a landmark work from one of Hollywood's top cinema eras.", "is_fresh": 1, "author": ["Michael Wilmington"]},
{"text": "This film has an even broader scope than the original, but does not fail in its depiction of small, intimate moments and surprising emotional reveals.", "is_fresh": 1, "author": ["Jeffrey M. Anderson"]},
{"text": "It delves deeper into the Corleone mythology, past the romanticism, to deliver an epic and intelligent tragedy.", "is_fresh": 1, "author": ["Radheyan Simonpillai"]},
{"text": "From start to finish, this is filmmaking at its most immortal.", "is_fresh": 1, "author": ["Ben Kenigsberg"]},
{"text": "This is quite simply one of the saddest movies ever made, a tale of loss, grief and absolute loneliness, an unflinching stare into the darkest moral abyss.", "is_fresh": 1, "author": ["Tom Huddleston"]},
{"text": "A rare sequel that is even better than the original 1972 The Godfather, largely due to the superb performances by De Niro (as the young Brando character), Pacino, who here assumes the lead, and the rest of the ensemble.", "is_fresh": 1, "author": ["Emanuel Levy"]},
{"text": "Instead of sitting in the shadow of the original Godfather, the Godfather Part II added to to the epic and made it even greater.", "is_fresh": 1, "author": ["Scott Nash"]},
{"text": "Part II is brilliant, but not for kids.", "is_fresh": 1, "author": ["Afsheen Nomai"]},
{"text": "Often ranked as the greatest movie sequel ever produced, The Godfather: Part II follows Al Pacino's Michael Corleone as he teams up with gangster Hyman Roth (Lee Strasberg) in an effort to expand his empire into the lucrative world of gambling.", "is_fresh": 1, "author": ["David Nusair"]},
{"text": "Not once does Pacino overtly ask for the audience's sympathy, but through a disciplined, suggestive performance he dominates the film.", "is_fresh": 1, "author": ["Richard Schickel"]},
{"text": "Although it runs a bit long, The Godfather: Part II is still an excellent film.", "is_fresh": 1, "author": ["Kevin Carr"]},
{"text": "While I'm sure profits were a big part of the conversation the Paramount suits had when deciding to green-light The Godfather Part II, but Coppola didn't go out and bastardize the franchise. Far from it.", "is_fresh": 1, "author": ["Ryan Cracknell"]},
{"text": "...an epic landscape of events and an exquisite tapestry of characterizations.", "is_fresh": 1, "author": ["John J. Puccio"]},
{"text": "It's not Shakespearean, but it's tragic.", "is_fresh": 1, "author": ["Dennis Schwartz"]},
{"text": "The greatest sequel ever made. Probably.", "is_fresh": 1, "author": []},
{"text": "The Paramount release has everything going for it.", "is_fresh": 1, "author": ["A.D. Murphy"]},
{"text": "Shadows lurk throughout the movie, as they do over the Corleones' lives.", "is_fresh": 1, "author": ["Josh Larsen"]},
{"text": "Francis Ford Coppola pulls it off in grand style.", "is_fresh": 1, "author": ["Don Druker"]},
{"text": "A mesmerizing sequel that explores the parallels in the life of father and son.", "is_fresh": 1, "author": ["Wesley Lovell"]},
{"text": "A rare sequel to a great film that recaptures and expands upon the mastery of its predecessor.", "is_fresh": 1, "author": ["Phil Villarreal"]},
{"text": "O segundo ato da obra m\u00e1xima do Cinema.", "is_fresh": 1, "author": ["Pablo Villa\u00e7a"]},
{"text": "The performances, Gordon Willis' memorably gloomy camerawork, the stately pace and the sheer scale of the story's sweep render everything engrossing and so, well, plausible that our ideas of organised crime in America will forever be marked by this movie.", "is_fresh": 1, "author": ["Geoff Andrew"]},
{"text": "A rarity: a sequel as great as its A+ predecessor. A powerhouse film.", "is_fresh": 1, "author": ["Steve Crum"]},
{"text": "A rare sequel that surpasses its classic source.", "is_fresh": 1, "author": ["Carol Cling"]},
{"text": "De Niro makes a great Vito, and seems to channel Marlon Brando as he transforms into the Don. While compelling in their own right, these flashbacks provide a break from Michael's single-mindedness, and clearly outline the similarities between the two men.", "is_fresh": 1, "author": ["John Paulsen"]},
{"text": "Could this somehow be even better than \"The Godfather\"? Decide for yourself while I go watch both movies.", "is_fresh": 1, "author": ["Scott Weinberg"]},
{"text": "The stunning text of The Godfather is replaced in Part II with prologues, epilogues, footnotes, and good intentions.", "is_fresh": 1, "author": ["Roger Ebert"]},
{"text": "This is nothing short of magisterial.", "is_fresh": 1, "author": ["Kim Newman"]},
{"text": "Quite possibly the best sequel ever. EVER.", "is_fresh": 1, "author": ["Widgett Walls"]},
{"text": "Quite possibly the best sequel ever made...", "is_fresh": 1, "author": ["Thomas Delapa"]},
{"text": "A rich, fully realized epic.", "is_fresh": 1, "author": ["Victoria Alexander"]},
{"text": "The best sequel of all time.", "is_fresh": 1, "author": ["John Urbancich"]},
{"text": "One of the best sequels ever made.", "is_fresh": 1, "author": ["Alex Sandell"]},
{"text": "It's a second movie made largely out of the bits and pieces of Mr. Puzo's novel that didn't fit into the first. It's a Frankenstein's monster stitched together from leftover parts. It talks. It moves in fits and starts but it has no mind of its own.", "is_fresh": 0, "author": ["Vincent Canby"]},
{"text": "[It] not only lived up to the artistic and dramatic excellence of the first film, but in many ways surpassed it.", "is_fresh": 1, "author": ["James Kendrick"]},
{"text": "The corruption of Michael Corleone reaches its climax in this, the only proper conclusion to the Godfather saga.", "is_fresh": 1, "author": ["Rob Vaux"]},
{"text": "Each story on its own would work better. Together, it makes it harder to get involved in any of them.", "is_fresh": 1, "author": ["Kevin N. Laforest"]},
{"text": "El Padrino II es una pintura fant\u00e1stica y detallada de la naturaleza del mal.", "is_fresh": 1, "author": ["Luis Martinez"]},
{"text": "This film is yet another classic of American Cinema.", "is_fresh": 1, "author": ["JoBlo"]},
{"text": "The Mother of All Sequels: a film at once both greater and lesser than its predecessor", "is_fresh": 1, "author": ["Dan Jardine"]},
{"text": "Unlike many critics, I don't feel the sequel has the weight of the original", "is_fresh": 1, "author": ["Christopher Null"]},
{"text": "Director Francis Ford Coppola destroys the rule that says all sequels are vastly inferior to the originals", "is_fresh": 1, "author": ["John A. Nesbit"]},
{"text": "The only sequel to win an Oscar for best picture.", "is_fresh": 1, "author": ["Neil Smith"]},
{"text": "Few sequels have expanded upon the original with the faithfulness and detail of this one.", "is_fresh": 1, "author": ["James Berardinelli"]},
{"text": "Even if the 1972 film The Godfather had not been made, its sequel would still be a monumental achievement.", "is_fresh": 1, "author": []},
{"text": "Rare is the sequel that equals the film that spawned it.", "is_fresh": 1, "author": ["MaryAnn Johanson"]},
{"text": "I am a big fan of both pictures, but prefer the original slightly for its originally and the intensity of the character's emotions.", "is_fresh": 1, "author": ["Steve Rhodes"]},
{"text": "Coppola was given a free hand with this sequel, and his deft directorial touches are everywhere, particularly in the earlier historical sequences.", "is_fresh": 1, "author": []},
{"text": "The Godfather, Part II (1974) of the Godfather trilogy continues the saga of the Corleone Family, serving as both a prologue and a sequel,", "is_fresh": 1, "author": ["Tim Dirks"]},
{"text": "Both a sequel and more than an equal to one of the greatest films of all time.", "is_fresh": 1, "author": ["Keith H. Brown"]},
{"text": "A true classic, one of the pillars of modern cinema.", "is_fresh": 1, "author": ["Dragan Antulov"]},
{"text": "", "is_fresh": 1, "author": ["Chuck O'Leary"]},
{"text": "", "is_fresh": 1, "author": ["Nell Minow"]},
{"text": "", "is_fresh": 1, "author": ["Andy Klein"]},
{"text": "", "is_fresh": 1, "author": ["Clint Morris"]},
{"text": "", "is_fresh": 1, "author": ["Philip Martin"]},
{"text": "", "is_fresh": 1, "author": ["Michael Dequina"]},
{"text": "", "is_fresh": 1, "author": ["Frank Swietek"]},
{"text": "", "is_fresh": 1, "author": ["Jon Niccum"]},
{"text": "", "is_fresh": 1, "author": ["Walter Chaw"]},
{"text": "", "is_fresh": 1, "author": ["Brian J. Arthurs"]}
]