[
{"reviews_count": "175", "title": "The Equalizer 2", "avg_audience_rating": "3.7", "rotten_count": "85", "tomatometer": "51", "audience_score": "67", "avg_critic_rating": "5.6", "fresh_count": "90", "user_ratings_count": "3,677"},
{"text": "The Equalizer 2 ultimately joins other conveyor belt revenge fantasies haphazardly conceived in 2018...", "is_fresh": 0, "author": ["Frank Ochieng"]},
{"text": "A vengeful Denzel is a sight to behold and I root for this franchise's existence but it seems like it's too much to ask for the movies themselves to live up to the standard of their star. ", "is_fresh": 1, "author": ["Brian Gill"]},
{"text": "Fun in the moment, but forgettable after, Fuqua and Washington's sequel is a passable revenge thriller. ", "is_fresh": 0, "author": ["Cameron Frew"]},
{"text": "Even with a relatively weak plot, Washington demonstrates flashes of bloody excitement as he dispatches armed goons in steady intervals...That said, my audience reacted even more during the dramatic moments, graced by his Final Form as Uncle Denzel.", "is_fresh": 1, "author": ["VyceVictus"]},
{"text": "The Equalizer 2 creates a fantasy world in which issues are black and white, and one man can control the destiny of those around him by sheer force of will. It's a staple in Antoine Fuqua and Denzel Washington's collaborations", "is_fresh": 1, "author": ["Ed Travis"]},
{"text": "Fuqua's movie, unqualified to create anything other than superficial poignancy, is empty, tiresome and uninteresting...", "is_fresh": 0, "author": ["Rodrigo Perez"]},
{"text": "Because it stars Washington and is directed by Antoine Fuqua, it's going to have much more competence and sheen than comparable genre fare.", "is_fresh": 1, "author": ["Sean Collier"]},
{"text": "The blandness of \"Equalizer 2\" even extends to Washington himself. This is the closest he's come to sleepwalking through a role.", "is_fresh": 0, "author": ["Joey Magidson"]},
{"text": "Sure, praise is granted for some well choreographed slayings, but considering the cost of a movie ticket today, you're better off staying home and waiting for this one on basic cable.", "is_fresh": 0, "author": ["Nate Adams"]},
{"text": "An entertaining sequel that packs more power with each punch. ", "is_fresh": 1, "author": ["Joe Friar"]},
{"text": "Another nasty, bone dry revenge thriller in which the coming storm of Washington's wrath is literalised as an on screen weather event.", "is_fresh": 1, "author": ["Ed Whitfield"]},
{"text": "Despite its glossy sheen, this is just run-of-the-mill pulp fiction.", "is_fresh": 0, "author": ["Rashid Irani"]},
{"text": "Watch the film for its superbly executed action and for more of a story than the last one. And for the behemoth called Denzel Washington...", "is_fresh": 1, "author": ["Devesh Sharma"]},
{"text": "It is blunt, humourless and brutal, and reminds of the no-nonsense action films of the 1970s and early 1980s.", "is_fresh": 0, "author": ["Richard James Havis"]},
{"text": "Features a dynamic action-man performance from Denzel Washington, in a bone-crunching action thriller that expertly weaves in fine dramatic messaging.", "is_fresh": 1, "author": ["Matthew Pejkovic"]},
{"text": "Denzel is Denzel, and he's going to deliver every time. ", "is_fresh": 1, "author": ["Tony Baker"]},
{"text": "The early action scenes on their own have a classic, macho rhythm. But you can't just write a tough guy, you need to give him a place to go.", "is_fresh": 0, "author": ["Alci Rengifo"]},
{"text": "A disjointed plot, cliched characters, casting that pretty much works as a spoiler, and the clunkiest of visual metaphors - it is a mess, and a dull one at that.", "is_fresh": 0, "author": ["Jonathan Roberts"]},
{"text": "Washington is a pleasure to watch on the screen. The two-time Oscar winner is able to tap into his own surplus of moral righteousness even when the script is pulling the carpet out from under him.", "is_fresh": 1, "author": ["Oliver Jones"]},
{"text": "I honestly felt like the first half of this was better than the first [movie].", "is_fresh": 1, "author": ["Martin Thomas"]},
{"text": "Everything in the movie is ridiculous... I'm waiting for the third one and he's working for Domino's.", "is_fresh": 1, "author": ["Korey Coleman"]},
{"text": "Equalizer 2 is more than a worthwhile proposal. [Full Review in Spanish]", "is_fresh": 1, "author": ["Diego Batlle"]},
{"text": "Dull, pretentious, and mostly disposable.", "is_fresh": 0, "author": ["Rendy Jones"]},
{"text": "The best moments of Equalizer 2 are wasted in a film that confuses personality with pretension, in a story too frivolous to deserve the talent that has set it. [Full Review in Spanish]", "is_fresh": 0, "author": ["Benjam\u00edn Harguindey"]},
{"text": "It's often cheesy and it's not deep, despite repeated cameos for a copy of Marcel Proust's In Search of Lost Time, but it is, appropriately enough, the equal of The Equalizer.", "is_fresh": 1, "author": ["Tara Brady"]},
{"text": "The confused, meandering course makes this difficult to get behind, while its idea of a climax is a CGI hurricane.", "is_fresh": 0, "author": ["Hilary A White"]},
{"text": "Equalizer 2 is no improvement on the 2014 movie.", "is_fresh": 0, "author": ["Matthew Bond"]},
{"text": "In summary, it is a good product, which questions and interrogates while it houses a franchise that is somewhat uncomfortable to place in the contemporary mainstream panorama. [Full Review in Spanish]", "is_fresh": 1, "author": ["David Tejero Nogales"]},
{"text": "Fuqua delivers a very reserved product, without being risky both in the plot and in its development, and this ends up taking its toll. [Full Review in Spanish]", "is_fresh": 0, "author": ["Rafael Rosales Santos"]},
{"text": "Clunky, over-processed cement-mixer cinema, given some consistency by Washington's screen presence...", "is_fresh": 0, "author": ["Guy Lodge"]},
{"text": "There are things to enjoy.", "is_fresh": 1, "author": ["Simran Hans"]},
{"text": "Fuqua and Washington manage to deliver a strong ending, but the energy wasted on the way makes for a baggy film.", "is_fresh": 0, "author": ["Alison Rowat"]},
{"text": "It has a one-of-a-kind star front and centre and in allowing him to do his thing, we get a sequel that's uncommonly worthwhile.", "is_fresh": 1, "author": ["Ross Miller"]},
{"text": "... if anyone can make meaningless look meaningful, it's Denzel. That's a big energy.", "is_fresh": 1, "author": ["Roe McDermott"]},
{"text": "A thriller that is sustained by a renowned actor accompanied by a solid cast that, although lost among small stories, ultimately comes out ahead as the action tape he promised to be. [Full Review in Spanish]", "is_fresh": 1, "author": ["Sergio L\u00f3pez Aguirre"]},
{"text": "A bloated, confusing, and terribly bland thriller.", "is_fresh": 0, "author": ["Chris Wasser"]},
{"text": "It's ridiculous, of course. And it's violent. It's also impeccably executed (pun intended), powerfully acted and sincerely acknowledges the value of goodness, virtue and doing the right thing. ", "is_fresh": 1, "author": ["Kevin Maher"]},
{"text": "A tense crowdpleaser, but no one is stretching here, including the viewer.", "is_fresh": 1, "author": ["Jamie East"]},
{"text": "This is far more rhythmically assured than the first one, and gains a feel for urban melancholy in the editing and score that nudges close to elegance at times.", "is_fresh": 1, "author": ["Tim Robey"]},
{"text": "It's purely designed to be a high-intensity, exploitative bloodbath, and it does that very well.", "is_fresh": 1, "author": ["Chris Newbould"]},
{"text": "A film of such frustrating ineptitude it doesn't even deserve the \"Sequelizer\" pun some critics have been applying to it.", "is_fresh": 0, "author": ["Alistair Harkness"]},
{"text": "The Equalizer 2 is a guilty pleasure - a by-the-numbers sequel given extra impetus by the presence of one of Hollywood's finest leading men.", "is_fresh": 1, "author": ["Rob Carnevale"]},
{"text": "It's a struggle to work out the point of the film.", "is_fresh": 0, "author": ["Geoffrey Macnab"]},
{"text": "It's the same action-and-avenging nonsense as before, but directed with fair zest by Antoine Fuqua.", "is_fresh": 1, "author": ["Nigel Andrews"]},
{"text": "Denzel Washington's in rattling form. But when is he ever not?", "is_fresh": 1, "author": ["John Byrne"]},
{"text": "More of the same from this franchise please.", "is_fresh": 1, "author": ["Adam Woodward"]},
{"text": "A marked improvement over its predecessor, packing in a handful of moments of legitimately spine-straightening suspense and, thank goodness, a sense of purpose for its lead.", "is_fresh": 1, "author": ["J. Olson"]},
{"text": "After four films with Fuqua, it's time for [Washington] to find a collaborator interested in making something more challenging than these childish, retrograde, wish fulfillment fantasies.", "is_fresh": 0, "author": ["Eddie Harrison"]},
{"text": "It's about as enjoyable as the first...there are some really good sequences with terrific dialogue. Plotting is the biggest issue here.", "is_fresh": 1, "author": ["Chris Stuckmann"]},
{"text": "The character in question, The Equalizer, shares the peaceful job of taxi driver with that of the relentless avenger of injustice and innocent victims... a sign of the film's lack of narrative continuity. [Full review in Spanish]", "is_fresh": 0, "author": ["Francisco Marinero"]},
{"text": "Once it's over, you won't necessarily be itching for an Equalizer 3.", "is_fresh": 0, "author": ["Michael Gingold"]},
{"text": "What makes The Equalizer 2as engaging as it is, is that we care for these characters in a way that most action movies tend to ignore. ", "is_fresh": 1, "author": ["Alan Cerny"]},
{"text": "The most notable thing about Equalizer 2 is the stylistic force of its director in the execution of its action scenes that take us to the darkest corners of the protagonist's soul. [Full Review in Spanish]", "is_fresh": 1, "author": ["Marcos Gand\u00eda"]},
{"text": "The Equalizer (2014) was one of those films that almost everyone forgot after seeing it, but that so many people saw that a sequel was already justified. [Full review in Spanish]", "is_fresh": 1, "author": ["Irene Crespo"]},
{"text": "Fragmented with too many subplots and unnecessarily sadistic violence, it's a ponderously contrived, avenging hero melodrama...", "is_fresh": 0, "author": ["Susan Granger"]},
{"text": "The tired, slow-burn movie around [Washington] ... is almost as punishing to an audience as McCall is to his prey.", "is_fresh": 0, "author": ["Stephen Rebello"]},
{"text": "Having McCall take a part-time gig as a Lyft driver hardly qualifies as meaningful character development - it's hardly even a useful plot device.", "is_fresh": 0, "author": ["Todd Jorgenson"]},
{"text": "The Equalizer films don't exactly push him beyond his comfort zone. But they celebrate the icon that Denzel is. They play on his persona, they savour his looming presence, and they give him more to chew on than similar films would.", "is_fresh": 0, "author": ["Rohan Naahar"]},
{"text": "A solid, value-driven action thriller...The magnificently tense finale, which takes place in an evacuated coastal town about to be torn apart by a hurricane has so many religious references it's hard to keep count.", "is_fresh": 1, "author": ["Jim Schembri"]},
{"text": "The Equalizer 2 is only the second in a series that already feels as if it is riddled with sequel fatigue.", "is_fresh": 0, "author": ["David Fontana"]},
{"text": "Unless Fuqua settles the vibranium question and tones the violence down, I'd prefer they don't team up for a third one.", "is_fresh": 0, "author": ["Mark Jackson"]},
{"text": "Essentially, if your idea of a good night out is watching Denzel Washington hang tough and destroy deserving scumbags, there's something for you here.", "is_fresh": 1, "author": ["Travis Johnson"]},
{"text": "It's just very standard, very predictable, very much exactly the movie you think it's going to be: that is the whole of its appeal and also its most glaring limitation.", "is_fresh": 0, "author": ["Tim Brayton"]},
{"text": "It's worth checking out, although on cable.", "is_fresh": 1, "author": ["Mark Ellis"]},
{"text": "It's not much of a movie - more a parade of rah-rah triumphs obscuring a batch of logical oddities - which makes Washington's committed performance stand out like the heavenly host in the night sky over Bethlehem. ", "is_fresh": 0, "author": ["Matthew Lickona"]},
{"text": "Washington's implacable charisma and Fuqua's robust command of pace and style are desperately needed because writer Robert Wenk is back too, and he's flat out of ideas. ", "is_fresh": 0, "author": ["Jim Lane"]},
{"text": "Equalizer 2 is an entertaining time at the movies, but if they had only insisted on closing the plot holes and making a vivid villain, it could have been an outright classic. ", "is_fresh": 1, "author": ["Carl Kozlowski"]},
{"text": "McCall, for all his high-minded talk, seems to take a little too much sick glee in all the bloodletting he engages in.", "is_fresh": 0, "author": ["Michael O'Sullivan"]},
{"text": "In the end, we have very good action sequences adorned with unnecessary well-intentioned speeches imposed upon them. [Full review in Spanish]", "is_fresh": 0, "author": ["Ruben Peralta Rigaud"]},
{"text": "It's something of a snoozer, featuring a low-energy performance by Denzel, who spends much of the film quietly observing and very little time delivering impassioned speeches or putting inferior people into their place. ", "is_fresh": 0, "author": ["Dustin Rowles"]},
{"text": "A couple of hours of pseudo-thoughtful entertainment.", "is_fresh": 1, "author": ["Rich Cline"]},
{"text": "The pacing of the film may be brisk, and the action scenes energizing, but a close look at the fight choreography shows that it concise and calculating.", "is_fresh": 1, "author": ["Jon Espino"]},
{"text": "The Equalizer was a satisfying action yarn, but this sequel offers few similar pleasures.", "is_fresh": 0, "author": ["Matt Brunson"]},
{"text": "McCall is tailor-made for Washington, who plays AARP cool, yet deadly, better than anyone. ", "is_fresh": 1, "author": ["Dana Barbuto"]},
{"text": "Washington's McCall is a compelling character, the kind you'd quite happily like to hang out with whether he's busting heads or painting walls.", "is_fresh": 1, "author": ["Chris Hewitt (UK)"]},
{"text": "Equalizer 2 is a slow, ponderous affair that not even Denzel's considerable charisma can save.", "is_fresh": 0, "author": ["Sarah Marrs"]},
{"text": "Despite the implausibility and the troubling violence that Fuqua always forces on his audience, it is an entertaining film.", "is_fresh": 1, "author": ["Tony Medley"]},
{"text": "This sequel to The Equalizer, itself based on the 1980s TV series, is more of the same, with (too) familiar screenwriting, a compelling lead character, and inventive action scenes. ", "is_fresh": 1, "author": ["Jeffrey M. Anderson"]},
{"text": "Even with Washington at the top of his game, \"The Equalizer 2\" just doesn't deliver the thrills. ", "is_fresh": 0, "author": ["Katie Walsh"]},
{"text": "Denzel Washington may be over 60 but as his work in his first sequel ever here proves he is definitely not over the hill.", "is_fresh": 1, "author": ["Pete Hammond"]},
{"text": "We've already mentioned that \"Equalizer 2\" offers more of the same, with its main attraction still giving his all while looking as if every vigilante move comes so very, very easily. That likely will be good enough for loyal Denzel fans of all ages.", "is_fresh": 1, "author": ["John Urbancich"]},
{"text": "How do the filmmakers settle on a narrative for an Equalizer film? The answer is they don't, cramming several plotlines into one jumbled film.", "is_fresh": 0, "author": ["Annlee Ellingson"]},
{"text": "Standard-issue crime-drama stuff, but Fuqua gives it the aura and gravity of a much more important movie.", "is_fresh": 1, "author": ["Eric D. Snider"]},
{"text": "There is a tonal consistency to The Equalizer II its predecessor never had.", "is_fresh": 1, "author": ["Sara Michelle Fetters"]},
{"text": "Denzel Washington's The Equalizer 2, a pointlessly violent sequel to his pointlessly brutal 2014 box-office success, confirms the pointlessly dangerous black-male stereotype that sells.", "is_fresh": 0, "author": ["Armond White"]},
{"text": "Everything that's wrong with the modern summer blockbuster: a meaningless franchise with only star power in its favor.", "is_fresh": 0, "author": ["Kirk Baird"]},
{"text": "The film would have collapsed into a mess with a lesser actor in the starring role. Washington manages to keep the film interesting even when the story takes on such an uninspired direction.", "is_fresh": 1, "author": ["Rick Bentley"]},
{"text": "This is a thought-provoking thriller.", "is_fresh": 1, "author": ["Stephen Romei"]},
{"text": "The character remains strong. The script, not so much.", "is_fresh": 1, "author": ["Clint O'Connor"]},
{"text": "I'm not sure audiences are getting what they deserve with this plodding, so-so action-thriller, but they'll get what they'll pay for...", "is_fresh": 0, "author": ["Brad Wheeler"]},
{"text": "A less-muddled script could have rescued \"The Equalizer 2\" from the summer blahs, but as it is, we'll just have to accept it for its strengths while acknowledging its flaws.", "is_fresh": 0, "author": ["Adam Graham"]},
{"text": "Less attention has been paid to Richard Wenk's screenplay, a contrived work that traffics in lapses of common sense and internal logic, plus an artificially sweet ending.", "is_fresh": 0, "author": ["Dann Gire"]},
{"text": "The film never jells. The main villains are cookie-cutter archetypes. No effort is made to give them any depth or personality.", "is_fresh": 0, "author": ["Bob Bloom"]},
{"text": "Pretty much the same style as the original but a little better. That's mostly due to Denzel's chemistry with the kid played by Ashton Sanders. ", "is_fresh": 1, "author": ["Gary Wolcott"]},
{"text": "It felt like a season of television crushed into two hours.", "is_fresh": 0, "author": ["Jeremy Jahns"]},
{"text": "Denzel Washington and Ashton Sanders of Moonlight bring nice father-son chemistry to violent action film.", "is_fresh": 1, "author": ["James Verniere"]},
{"text": "Denzel continues to have the time of his life being this solitary avenging angel, and Fuqua is painting every moment of extreme violence dark crimson.", "is_fresh": 1, "author": ["Jacob Knight"]},
{"text": "Anchored by Denzel Washington's steely presence, it's a spare, brutal vigilante exercise, with an element of righteous revenge mixed into the balance.", "is_fresh": 1, "author": ["Brian Lowry"]},
{"text": "McCall's moral compass is in short supply these days...", "is_fresh": 1, "author": ["Christian Toto"]},
{"text": "This is an action movie in which the action star strives to be, well, inactive. ", "is_fresh": 0, "author": ["Phil Villarreal"]},
{"text": "Denzel returns to lay on rough, R-rated justice. Yeah, the two-time Oscar winner is punching below his weight in a vigilante movie. But nothing dims his star power. Nothing.", "is_fresh": 1, "author": ["Peter Travers"]},
{"text": "Washington brings nuance to an otherwise black-and-white scenario, which elevates The Equalizer 2 above so many other \"nice guy/secret killer\" films.", "is_fresh": 1, "author": ["Alex Doenau"]},
{"text": "Wenk may have stuffed one too many plotlines into McCall's return, the resulting film often feeling disjointed, its central crime more MacGuffin than mystery to be solved.", "is_fresh": 0, "author": ["Laura Clifford"]},
{"text": "Denzel Washington is superbly watchable, as always, but Antoine Fuqua's sequel to his (not quite) everyman hero story swaps smarts and arty aspirations for mindless violence. ", "is_fresh": 0, "author": ["Liam Lacey"]},
{"text": "This follow-up is many things, and often chaotically tries to combine them all at once. ", "is_fresh": 0, "author": ["Sarah Ward"]},
{"text": "A dawdling vengeance thriller from Antoine Fuqua, an offhand charismatic turn by Denzel Washington in the title role. ", "is_fresh": 0, "author": ["Roger Moore"]},
{"text": "By the time the film concludes, I'm hoping Washington and Fuqua are willing to make a second exception to release a third installment. ", "is_fresh": 1, "author": ["Jeffrey Lyles"]},
{"text": "Suggests intriguing questions about the moral and ethical imperatives of justice...answers these questions with an Old Testament zeal: evil must be smitten by self-appointed good men.", "is_fresh": 0, "author": ["Peter Canavese"]},
{"text": "This time around, Denzel's \"Equalizer\" is less of a Robin Hood-like hero for the helpless, and more of a Travis Bickle-like vigilante, shooting his way through a murder caper.", "is_fresh": 0, "author": ["Luke Parker"]},
{"text": "Though it boasts some cool action scenes and a strong central performance, the movie is weighed down by a muddled script and bland storytelling efforts.", "is_fresh": 1, "author": ["Rob Dean"]},
{"text": "Robert McCall may have been better suited to an age when you could channel-hop to Spenser: For Hire or Remington Steele... As a multiplex offering, alongside tiny superheroes and giant dinosaurs, he may not be worth your time, even every four years.", "is_fresh": 0, "author": ["Chris Knight"]},
{"text": "A reasonably well-written and (of course) beautifully acted serving of geriatric-virility violence porn...", "is_fresh": 1, "author": ["Chris Klimek"]},
{"text": "The action turns out even shoddier in this second outing, particularly during a climactic blowout on an island hit by a hurricane. That may sound exciting on paper, but not when the winds render the dust-up barely visible.", "is_fresh": 0, "author": ["Radheyan Simonpillai"]},
{"text": "\"The Equalizer\" should be locked in a room with \"The Terminator.\" Then this lousy series would finally be killed off.", "is_fresh": 0, "author": ["Johnny Oleksinski"]},
{"text": "For a supposed action film, The Equalizer 2 is a slow burner, giving Washington the chance to prove as an actor he's a master of his domain in his own right.", "is_fresh": 1, "author": ["Jake Wilson"]},
{"text": "The elements of the original film that felt tacked on or out of character have been emphasized in The Equalizer 2.", "is_fresh": 0, "author": ["Mark Dujsik"]},
{"text": "Gory and silly.", "is_fresh": 1, "author": ["Tim Appelo"]},
{"text": "[It] won't be considered a standout in the career of the director or the actor, but it's not an embarrassment either. ", "is_fresh": 1, "author": ["Daniel M. Kimmel"]},
{"text": "The film's slow-burn approach matches that of the original. Fuqua is in no hurry and understands that building a story gradually pays dividends later in the proceedings.", "is_fresh": 1, "author": ["James Berardinelli"]},
{"text": "The film is effective where it needs to be, and if there is an \"Equalizer 3,\" in line to see it is where you'll find me.", "is_fresh": 1, "author": ["Kenneth Turan"]},
{"text": "The worst movie of Denzel Washington's career.", "is_fresh": 0, "author": ["Jordan Ruimy"]},
{"text": "With the secret behind his formidable skills out of the bag, all we have is a good guy who is good at things, and a sense of obligation to conjure up a convoluted syndicate of straw men for him to chop down.", "is_fresh": 0, "author": ["Emily Yoshida"]},
{"text": "The moral of the story in Equalizer 2 is that if you don't find yourself on Robert McCall's bad side, you're likely to be okay.", "is_fresh": 1, "author": ["Danielle Solzman"]},
{"text": "The film manages to create a perfect balance between the codes of an emotional drama and an action film.", "is_fresh": 1, "author": ["Juanma Fern\u00e1ndez Par\u00eds"]},
{"text": "He's never referred to as \"the Equalizer\" by those around him, but he might as well be, given that he's just a cape away from being a full-fledged superhero.", "is_fresh": 1, "author": ["Alissa Wilkinson"]},
{"text": "I read just now that this is the first sequel to any of his own films that Washington has agreed to star in. Having seen it, I'm not surprised.", "is_fresh": 1, "author": ["Graeme Tuckett"]},
{"text": "\"Equalizer 2\" is the kind of raise-the-bar sequel that can convert a franchise skeptic into a fan.", "is_fresh": 1, "author": ["Colin Covert"]},
{"text": "Like all great actors, Mr. Washington commits to the performance, but every so often he also breathes fire, imbuing a scene with such shocking ferocity and bone-deep moral certitude that everything else falls blissfully away.", "is_fresh": 1, "author": ["Manohla Dargis"]},
{"text": "It's a well-executed popcorn flick with some feeling, and better than the first. I wouldn't even mind a third.", "is_fresh": 1, "author": ["Brad Keefe"]},
{"text": "Betrayal, loss, grief, redemption - it's the stuff great characters are built on. And it makes all those thrilling knife fights and broken bones actually mean something.", "is_fresh": 1, "author": ["Barbara VanDenburgh"]},
{"text": "The Equalizer 2 tries way too hard to play the action sequences straight. ", "is_fresh": 0, "author": ["Matthew Monagle"]},
{"text": "Fuqua has made sure this follow-up is more of the same, playing it oddly safe with material that doesn't do particularly well with complete darkness.", "is_fresh": 0, "author": ["Brian Orndorf"]},
{"text": "Straight-forward, bone-crunching, nonsense, Antoine Fuqua's \"Death Wish\" like revenge tale is an unapologetic crowd-pleaser.", "is_fresh": 1, "author": ["Jonathan W. Hickman"]},
{"text": "It's gritty, dramatic, powerful and tense. There is a satisfying pay off and Washington is as good as ever. However, the film has lost much of what made it unique.", "is_fresh": 1, "author": ["Louise Keller"]},
{"text": "A narratively and visually muddled disappointment, one that regularly confuses numbing brutality with vicariously thrilling righteous vengeance.", "is_fresh": 0, "author": ["Tom Russo"]},
{"text": "A preposterous and pedestrian action-thriller.", "is_fresh": 0, "author": ["Frank Swietek"]},
{"text": "A movie that's watchable and intermittently pleasing. But not enough time was spent getting the substance right.", "is_fresh": 0, "author": ["Mick LaSalle"]},
{"text": "We think of the Equalizer films as action movies, but there's really not a ton of action. Often what we get - and like - is McCall as life coach.", "is_fresh": 1, "author": ["Gary Thompson"]},
{"text": "By sequelising The Equalizer, Denzel has given himself a franchise wherein he can consistently murder, monologue and moralise. ", "is_fresh": 1, "author": ["Simon Miraudo"]},
{"text": "\"...builds on the low-flash action chops of the original to bring us more of the good stuff...\"", "is_fresh": 1, "author": ["Cain Noble-Davies"]},
{"text": "There's not much effort to tie it all together with any kind of plausible, big-picture cohesion, but no matter. All we need to know is some very bad people have crossed Robert McCall, and that's almost always a deadly mistake.", "is_fresh": 1, "author": ["Richard Roeper"]},
{"text": "The Equalizer 2 is symptomatic of a confused time when people are collectively looking for invulnerable superheroes who don't so much as speak truth to injustice as beat the hell out of it, and its cathartic pleasures leave a bad taste.", "is_fresh": 0, "author": ["Niles Schwartz"]},
{"text": "Fuqua has always been adept at stirring a moody, anticipatory anxiety, at the anticipation of violence, but the buildup often proves more engaging onscreen than the actual onslaught.", "is_fresh": 0, "author": ["Alan Scherstuhl"]},
{"text": "It's an absurd opening that promises something glorious... Alas, this is not that movie.", "is_fresh": 0, "author": ["Tony Stamp"]},
{"text": "The Equalizer 2 tries hard to re-create that primal red-meat formula, but it takes far too long puttering around to really deliver the exploitation goods. Just get to the equalizing already!", "is_fresh": 0, "author": ["Andrew Wright"]},
{"text": "No amount of Denzel Washington's weary authority is enough to distract from the fact that this overstuffed, ultimately unsatisfying potboiler merely dresses up its cliches in strained gravitas.", "is_fresh": 0, "author": ["Tim Grierson"]},
{"text": "The climactic dispensation of rough justice... is almost worth the price of admission. However, the grind of the getting-there could have you requesting a discount.", "is_fresh": 0, "author": ["Leigh Paatsch"]},
{"text": "An unexpected but terrific character piece punctuated with thrilling action beats.", "is_fresh": 1, "author": ["Rob Hunter"]},
{"text": "This solid, but unspectacular sequel (Washington's first in a more than 50-film career) is a movie that plays by a \"very particular set\" of rules.", "is_fresh": 1, "author": ["James Croot"]},
{"text": "The movie is a bog; Washington's merely wading through it.", "is_fresh": 0, "author": ["K. Austin Collins"]},
{"text": "A satisfactory sequel, where Washington and Fuqua manage to improve upon the best qualities of the original. [Full review in Spanish] ", "is_fresh": 1, "author": ["Fico Cangiano"]},
{"text": "Even the most easily satisfied fans of Washington will be unlikely to find much of anything in this sadistic, stupid and sloppy sequel.", "is_fresh": 0, "author": ["Peter Sobczynski"]},
{"text": "Denzel crushes this role and turns a would-be straight-to-DVD movie into a legitimate slobberknocker!", "is_fresh": 1, "author": ["Ja-Quan Greene"]},
{"text": "Fuqua and Washington have developed a body of work over the years that is, if nothing else, reliably kinetic. But with Wenk's pedestrian writing, there just isn't much for Washington to work with here.", "is_fresh": 0, "author": ["Chris Barsanti"]},
{"text": "It's got some curves and tension, but it's dogged by issues.", "is_fresh": 0, "author": ["Joe Dziemianowicz"]},
{"text": "The Equalizer 2 never comes close to the delicious highs of like-minded flicks like Taken or John Wick, but Fuqua does improve upon the sloppy, poorly lit squabbles of the original.", "is_fresh": 0, "author": ["Randall Colburn"]},
{"text": "He's cool, with moral clarity and he's three moves ahead of everyone. No wonder he's such a welcome sight in 2018 America and no wonder Washington wanted another go-around.", "is_fresh": 1, "author": ["Mark Kennedy"]},
{"text": "For a film whose hero prides himself on \"equalizing\" the playing field for those who cannot defend themselves, The Equalizer 2 is incredibly uneven.", "is_fresh": 0, "author": ["Andrew Husband"]},
{"text": "Despite deeply flawed storytelling, it demonstrates how a great actor in a great role can turn an otherwise mediocre story into a satisfyingly visceral, cathartic thrill ride.", "is_fresh": 1, "author": ["Mike Scott"]},
{"text": "Denzel again delivers as a relentless killing machine eager to execute any evildoers dumb enough to cross his path!", "is_fresh": 1, "author": ["Kam Williams"]},
{"text": "Robert McCall is a great action hero, but all things being equalized, he deserves a better movie.", "is_fresh": 0, "author": ["William Bibbiani"]},
{"text": "Denzel Washington is excellent as McCall, and he brings out the best in Richard Wenk's script. If you are a fan of the original film, you will very likely appreciate this latest chapter.", "is_fresh": 1, "author": ["JimmyO"]},
{"text": "Denzel Washington and Antoine Fuqua have created a unique Punisher-with-heart vigilante character that is a pleasant thrill to watch and a modest delight to revisit.", "is_fresh": 1, "author": ["Witney Seibold"]},
{"text": "Worst of all, it leaves the door open for \"The Equalizer 3.\"", "is_fresh": 0, "author": ["David Ehrlich"]},
{"text": "I know why I shouldn't like The Equalizer 2, and yet I'd be thrilled if they ended up churning out a new Equalizer movie every few years.", "is_fresh": 1, "author": ["Matt Goldberg"]},
{"text": "It's hard to argue with McCall's mission, or his brutally crunchy methods. So why does it all feel so unoriginal and grim and dull?", "is_fresh": 0, "author": ["Chris Nashawaty"]},
{"text": "Hiring Denzel to play him is a lot like paying Frank Gehry to design your doghouse: He'll get the job done, and probably do it really well, but surely his talents could be much better applied to almost any other task?", "is_fresh": 0, "author": ["A.A. Dowd"]},
{"text": "There's the old clich\u00e9 that says, \"so-and-so is such a great actor he could read the phone book (whatever that is; as I said, it's an old clich\u00e9) and make it interesting.\" That's pretty much what Washington pulls off in \"EQ2.\"", "is_fresh": 1, "author": ["Soren Andersen"]},
{"text": "That Washington is charming enough to disguise McCall's clear streak of Travis Bickle-level sociopathy ranks as this production's greatest asset.", "is_fresh": 0, "author": ["Charles Bramesco"]},
{"text": "There surely are some fantastic tales to tell with this character, and that potential still exists, but this really isn't one of them.", "is_fresh": 0, "author": ["Eric Eisenberg"]},
{"text": "This distinctive character is gradually subsumed by familiar genre imperatives that eventually make McCall seem less special and singular than he did on first exposure in 2014.", "is_fresh": 0, "author": ["Todd McCarthy"]},
{"text": "Judging by the ponderous tone and pace, Fuqua thinks he's making high art (likely aspiring to something existential like Jean-Pierre Melville's \"Le Samoura\u00ef\"), but this is a grisly exploitation movie at best.", "is_fresh": 0, "author": ["Peter Debruge"]},
{"text": "In the past, this kind of character, who abhors swear words but kills with obvious relish, would've been positioned as an interesting contrast. In The Equalizer 2 it just feels like unexamined orthodoxy.", "is_fresh": 0, "author": ["Vincent Mancini"]},
{"text": "Outside of the performance from Denzel Washington, which is obviously good, the only engaging dynamic here is Robert trying to set Miles on the right path. The Equalizer 2 is fairly boring whenever they aren't interacting together", "is_fresh": 0, "author": ["Robert Kojder"]},
{"text": "The Equalizer 2 is an equally stylish sequel to Antoine Fuqua and Denzel Washington's action drama, but with fewer thrills and surprises.", "is_fresh": 1, "author": ["Molly Freeman"]}
]