[
{"reviews_count": "252", "title": "The Meg", "avg_audience_rating": "3.2", "rotten_count": "139", "tomatometer": "45", "audience_score": "48", "avg_critic_rating": "5.4", "fresh_count": "113", "user_ratings_count": "5,377"},
{"text": "Entertaining fun with not much gore. Statham's Australian-Cockney dive expert Jonas Taylor is stern and stoic, the Meg is impressive though takes a while to turn up. Pippin the terrier shows great promise.", "is_fresh": 1, "author": ["Sarah Cartland"]},
{"text": "It's exactly what I thought it would be: a big dumb fun summer movie. But it's far more dumb than fun, unfortunately.", "is_fresh": 0, "author": ["Kent Garrison"]},
{"text": "A first act that drags with a poor script and boring visual effects make for a movie that's only enjoyable for how dumb it can be.\u200b", "is_fresh": 0, "author": ["Kt Schaefer"]},
{"text": "I am extremely here for Jason Statham fighting a giant shark but too often, Turteltaub forces the main event to take a back seat to terribly plotted undercards. In the inevitable sequels to come, might I suggest more Statham fighting a giant shark? ", "is_fresh": 0, "author": ["Brian Gill"]},
{"text": "Quite as you would expect, The Meg is delirious, humid nonsense. But where it disappoints is its missed opportunities.", "is_fresh": 0, "author": ["Chris Feil"]},
{"text": "The Meg is at once aggressively stupid and aggressively banal, suffering a bad-to-the-bone script and some truly ghastly performances.", "is_fresh": 0, "author": ["Matt Oakes"]},
{"text": "This film needed blood, needed the horror, needed the morbid inventiveness a higher age rating would allow.", "is_fresh": 0, "author": ["Cameron Frew"]},
{"text": "True to the genre, there's an almost comical amount of plot, backstory, mythology and pseudo-scientific babble stacked up in order to justify a premise that still nonetheless boils down to: \"Shark... but bigger.\"", "is_fresh": 1, "author": ["Bob Chipman"]},
{"text": "The plot is preposterous, but who cares? We're here to see Statham punch sharks, and The Meg certainly delivers.", "is_fresh": 1, "author": ["Clint Worthington"]},
{"text": "The Meg won me over, largely because it promised man vs. beast and delivered. ", "is_fresh": 1, "author": ["Micheal Compton"]},
{"text": "Big, dumb fun but not nearly big or dumb enough to be truly fun.", "is_fresh": 0, "author": ["Doug Jamieson"]},
{"text": "The Meg is definitely a bad movie, but one that you can sit through in a pinch. For god's sake, though, don't pay too much attention.", "is_fresh": 0, "author": ["Sean Collier"]},
{"text": "I don't come to a film like The Meg for the script, but I'll stay for some hard R rated dismemberment. Sadly, that's never welcomed here as the film has been clearly amped up for a robust foreign box-office run, and to attract a family audience. ", "is_fresh": 0, "author": ["Nate Adams"]},
{"text": "Big, dumb, but not much fun.", "is_fresh": 0, "author": ["Joey Magidson"]},
{"text": "The Meg is just a toothless take on the \"don't go in the water!\" subgenre, one that's been significantly run down by its long swim through Hollywood's development hell.", "is_fresh": 0, "author": ["Aaron Leggo"]},
{"text": "If it were a person, 'The Meg' would say 'Hold my beer!'", "is_fresh": 1, "author": ["Linda Cook"]},
{"text": "It's a worthy set up but the film does run out of gas.", "is_fresh": 0, "author": ["Matthew Toomey"]},
{"text": "Ho-hum in its action scenes, void of tension, and miscast from top to bottom, The Meg is as dead-in-the-water a shark movie as there has ever been.", "is_fresh": 0, "author": ["Matthew Pejkovic"]},
{"text": "\"The Meg\" basically copies a lot of \"Jaws\" scenes, but with only one hundredth of the tension of the classic.", "is_fresh": 0, "author": ["Mark Jackson"]},
{"text": "It's a larger-than-life premise that's utilized to a distressingly ineffective degree by filmmaker Jon Turteltaub...", "is_fresh": 0, "author": ["David Nusair"]},
{"text": "This big, silly action movie, spawned of Jaws and Sharknado, is a kick to watch, mainly because the makers of this film seem to be having a lot of fun not taking anything seriously. It has a good blend of spectacle and humor.", "is_fresh": 1, "author": ["Robert Roten"]},
{"text": "Next to the humans, with their horrific hairstyles, and silly little dogs, The Meg seems sensible and calm, methodically going about the business of eating everything in sight. I'm with her.", "is_fresh": 0, "author": ["Dorothy Woodend"]},
{"text": "\"The Meg\" is a fun way to spend 113 minutes, despite its many flaws. I give it a slight recommendation. ", "is_fresh": 1, "author": ["Paul Chambers"]},
{"text": "The film is actually able to concoct a reason for Jason Statham to get into hand-to-hand combat with a 75-foot shark. That is, in a sense, the whole of what it needs to do.", "is_fresh": 0, "author": ["Tim Brayton"]},
{"text": "director Jon Turtletaub gives it all such a rote sheen of familiar polish that you might find yourself wishing that The Meg were a truly bad movie rather than just a competently mediocre one.", "is_fresh": 0, "author": ["James Kendrick"]},
{"text": "The Meg is a ton of pre-historic scary fun, and the last big blast of the summer!", "is_fresh": 1, "author": ["J Hurtado"]},
{"text": "Asks little more of you than to strap in, put away your phone and enjoy watching a freakishly huge prehistoric eating machine terrorize some scientists before it turns its appetite to a beach full of frolickers on floaties.", "is_fresh": 1, "author": ["Oliver Jones"]},
{"text": "The Meg is shamelessly stupid, delightfully dumb, and uproarious fun with it.", "is_fresh": 1, "author": ["Rosie Fletcher"]},
{"text": "The main flaw with The Meg is that it feels as if it should be having more fun than what it delivers", "is_fresh": 0, "author": ["Alci Rengifo"]},
{"text": "It's a tale of two movies: a suspense thriller that doesn't quite embrace its horror premise and a light blockbuster actioner with idiots getting their comeuppance. ", "is_fresh": 0, "author": ["Jared Mobarak"]},
{"text": "After a certain point it becomes forgettable... I did have a good time but I could have had a better time.", "is_fresh": 0, "author": ["Korey Coleman"]},
{"text": "It's so flat and cliche... they all spoke in two lines of dialogue. Whenever their first line was, I could predict to a T what they were gonna say next.", "is_fresh": 0, "author": ["Martin Thomas"]},
{"text": "Terrible dialogue. Really forced, awful emotionalism here and there. It felt like actors not really having a sense of direction.", "is_fresh": 0, "author": ["John Campea"]},
{"text": "It doesn't reach that level of skill and terror [achieved by JAWS], but for those who have an appetite for the genre, it serves well enough.", "is_fresh": 1, "author": ["Abbie Bernstein"]},
{"text": "The visual effects were actually really good. ", "is_fresh": 1, "author": ["Jaby Koay"]},
{"text": "It doesn't fully deliver. ", "is_fresh": 0, "author": ["Roth Cornet"]},
{"text": "The movie itself seems to be setting things up and establishing a tone that then it itself does not deliver. That was the biggest disappointment. ", "is_fresh": 0, "author": ["Dan Murrell"]},
{"text": "Though there may be some hiccups to the movie overall, it's an exciting and exhilarating -- and action-packed -- film with a classic theme.", "is_fresh": 1, "author": ["Annie Banks"]},
{"text": "The attractions are there, but the result is less convince and stimulating than promised. [Full Review in Spanish] ", "is_fresh": 1, "author": ["Diego Batlle"]},
{"text": "That a concept as high as \"Jason Statham versus a giant shark\" results in not a single memorable one-liner is borderline actionable.", "is_fresh": 0, "author": ["J. Olson"]},
{"text": "Take a friend to hang onto: there are scares galore in this good old-fashioned B movie that delivers exactly what it promises.", "is_fresh": 1, "author": ["Louise Keller"]},
{"text": "With a running time of nearly two hours, this regressive throwback is a nod to the prehistoric storytelling techniques Hollywood apparently still hasn't extricated itself from. ", "is_fresh": 0, "author": [" Nicholas Bell"]},
{"text": "...exactly what we paid for.", "is_fresh": 1, "author": ["Anupama Chopra"]},
{"text": "They should've called this movie \"Playing It Safe.\"", "is_fresh": 0, "author": ["Tony Baker"]},
{"text": "Everything you expect out of a shark movie: dumb, campy, cheesy, thrilling entertainment and it is a perfect August blockbuster for it.", "is_fresh": 1, "author": ["Rendy Jones"]},
{"text": "The Meg tends to flit between genres, making for an unsteady ride between action, comedy and mild horror. It lacks the finesse and timing of a tight thriller.", "is_fresh": 0, "author": ["Chloe Leeson"]},
{"text": "\"It could've been worse\". It's not the best compliment someone can give to a movie, but it's the first thing I thought when I finished watching 'The Meg'. [Full review in Spanish]", "is_fresh": 0, "author": ["Sebastian Zavala Kahn"]},
{"text": "You'll find more bloody gore in a lamb commercial than this toothless and pointless creature feature. ", "is_fresh": 0, "author": ["Tom Glasson"]},
{"text": "The Meg feels like a better production deal for the filmmakers than a better killer shark thriller for audiences.", "is_fresh": 0, "author": ["Dann Gire"]},
{"text": "When The Meg is fun, self-aware and proud to be both, it has an engaging comic spark. ", "is_fresh": 1, "author": ["Sarah Ward"]},
{"text": "The Meg, which is really pretty terrible (although occasionally - and intentionally - so bad it's funny), is for hardcore shark-movie fans only.", "is_fresh": 0, "author": ["Hannah Brown"]},
{"text": "The usually overly stoic Statham shows a likability and charisma he hasn't explored very often in his pervious works.", "is_fresh": 1, "author": ["Kimberly Pierce"]},
{"text": "The ocean is too wide, and the hunt for the giant shark feels too broad, where a focused adventure would be more impactful. The film fails to realise that being bigger doesn't mean scarier. ", "is_fresh": 0, "author": ["Chelsea Phillips-Carr"]},
{"text": "Unfortunately the production does not dare to go further and remains at times as a B movie. [Full Review in Spanish]", "is_fresh": 0, "author": ["Israel Acosta Aroche"]},
{"text": "The one genuine shock is that it takes Statham as long as 44 minutes to remove his shirt and flash his pecs.", "is_fresh": 0, "author": ["Matthew Norman "]},
{"text": "Oh the shark has, stupid teeth dear, and he shows 'em, boring white...", "is_fresh": 0, "author": ["Bob Grimm"]},
{"text": "By any number, The Meg is the hugest shark picture ever made, but like so much that passes as spectacle, it ain't really big - just tall, that's all. ", "is_fresh": 0, "author": ["Nick Pinkerton"]},
{"text": "The vacillations of the script are as constant as the boats attacked by the shark. [Full review in Spanish]", "is_fresh": 0, "author": ["Gaspar Zimerman"]},
{"text": "The interesting thing is that Statham is convincing when he's more than a stoic face, and the mix of genres comes in handy (he had already proved himself capable in comedy with Spy). [Full review in Spanish]", "is_fresh": 1, "author": ["Emmanuel B\u00e1ez"]},
{"text": "This sharp-toothed shark needed freedom, free rein for his murderous desires, however, he could not get out of the fish tank. [Full Review in Spanish]", "is_fresh": 0, "author": ["Rafael Paz"]},
{"text": "The Meg is one of the summer's most fun, most mindless blockbusters, a shark vs. human movie that doesn't stand up to close scrutiny but is enjoyably dumb.", "is_fresh": 1, "author": ["Roxana Hadadi"]},
{"text": "Think of Jaws on steroids and you've pretty much got in a nutshell what The Meg is like: it really is just an old-fashioned B-grade matinee monster movie with A-grade production values and a marvellously improbable beast at the centre of all the action.", "is_fresh": 1, "author": ["Jim Schembri"]},
{"text": "Essentially a PG-13 version of Alexandre Aja's Piranha 3D with fewer jokes and even less of a point, The Meg is a faceless, lifeless, workmanlike, unimaginative, lowest common denominator-courting, movie-like substance. ", "is_fresh": 0, "author": ["Daniel Barnes"]},
{"text": "The Meg can't decide if it wants to be silly or serious, and never really succeeds as either. Self-awareness is all well and good in a giant shark movie, but not when it undercuts the tension.", "is_fresh": 0, "author": ["Dominic Corry"]},
{"text": "I'm as much a fan of big-dumb-fun movies as the next man-child, The Meg is mostly just big-dumb.", "is_fresh": 0, "author": ["Matt Neal"]},
{"text": "Thanks to a diverse cast of characters you can actually care about and some well-placed dancing around typical action-thriller tropes, The Meg is much better than it ever had any right to be, and a worthy addition to Statham's cinematic oeuvre.", "is_fresh": 1, "author": ["Lee Jutton"]},
{"text": "Uneven and choppy, The Meg is certainly no Jaws, but at least it's no Sharkansas Women's Prison Massacre, either.", "is_fresh": 0, "author": ["Josh Bell"]},
{"text": "The Meg works because it's so busy having a blast, you almost don't notice all the things that are wrong with it. ", "is_fresh": 1, "author": ["Shyama Krishna Kumar"]},
{"text": "The film could've benefited from more R-rated absurdity - think Deep Blue Sea - to counter its bland, somewhat neutered surfaces.", "is_fresh": 1, "author": ["Aaron Yap"]},
{"text": "The bottom line: The Meg is never less than big, dumb fun.", "is_fresh": 1, "author": ["Rick Kisonak"]},
{"text": "If there's any sense of menace in The Meg, it lies in the prospect that many more such films may be on the way. All that said, I hope there are bigger opportunities in store for whoever edited the trailer.", "is_fresh": 0, "author": ["Jake Wilson"]},
{"text": "Luckily, during these flat spells, Statham is there to keep interest levels just out of the boring zone. Not only with some truly wince-inducing one-liners, but also due to some rather awkward interactions with his C-list co-stars.", "is_fresh": 1, "author": ["Leigh Paatsch"]},
{"text": "It came to a point where I could barely stop laughing at it. Key phrasing there, \"laughing at\", not \"with.\"", "is_fresh": 0, "author": ["Jonathan Roberts"]},
{"text": "How can you mess up Jason Statham versus a giant shark? Seriously, how? By giving it too much plot and pretending you're making a real movie.", "is_fresh": 0, "author": ["Beth Accomando"]},
{"text": "Acting-wise, this is no one's finest hour and, in this age of ultra-realism, some of the visual effects do underwhelm. But there's still a lot of fishy fun to be had. ", "is_fresh": 1, "author": ["Matthew Bond"]},
{"text": "The Meg nearly gets there. But it's too slow, too talkative and far too seemingly concerned with being a \"good\" film, when it should have been embracing all the glorious possibilities of being a great bad one.", "is_fresh": 0, "author": ["Graeme Tuckett"]},
{"text": "There is definitely an excellent idea hidden in the background of the film. Unfortunately, it's difficult to find it. [Full review in Spanish]", "is_fresh": 0, "author": ["Ruben Peralta Rigaud"]},
{"text": "The biggest problem, however, is the Meg itself. Director Jon Turteltaub sees to have entirely misinterpreted the mechanics of the creature feature. ", "is_fresh": 0, "author": ["Tara Brady"]},
{"text": "Jon Turteltaub proves as comfortable at directing large-scale, weighty set-pieces as Statham is reeling off one-liners in the face of near-certain death.", "is_fresh": 1, "author": ["Daniel Green"]},
{"text": "The Meg has a very firm sense of humor about the ridiculousness of its premise, and it's that sort of \"we're all in on the joke\" approach that makes The Meg unexpectedly amusing, even during the talky bits.", "is_fresh": 1, "author": ["Scott Weinberg"]},
{"text": "Not so much Deep Blue Sea as large green tea.", "is_fresh": 0, "author": ["Ed Whitfield"]},
{"text": "The film delivers on that silly-stupid-summer-fun promise, while also exceeding expectations in terms of action and set-pieces", "is_fresh": 1, "author": ["Katie Walsh"]},
{"text": "Exactly the movie you think it is, but not the movie you want it to be.", "is_fresh": 0, "author": ["Sarah Marrs"]},
{"text": "Thank goodness then that The Meg has Jason Statham (Crank, Fate of the Furious) at his most Jason Stathamy.", "is_fresh": 1, "author": ["James Croot"]},
{"text": "There's no way I can possibly love it entirely but I just think its ridiculously bad, but enjoyable at the same time.", "is_fresh": 0, "author": ["Ed Potton"]},
{"text": "As with any shark movie, there are so many nods to the greatness of Jaws I stopped counting, but the beach scene here is a standout.", "is_fresh": 1, "author": ["Alison Rowat"]},
{"text": "The problem with The Meg isn't that it's dumb, it's that it isn't dumb enough.", "is_fresh": 0, "author": ["Ben Coleman"]},
{"text": "This would've likely been best served as a ninety minute, blood spattering, joke cracking roller coaster. While it obviously has some awareness of this, it still has a fool hearted notion that it should be all things to all people. ", "is_fresh": 1, "author": ["Michael Fairbanks"]},
{"text": "Just keep swimming towards whatever is playing in the theater next door.", "is_fresh": 0, "author": ["Brooke Corso"]},
{"text": "It scares me when Jason Statham smiles, and he does quite a lot of it in this slightly tongue-in-cheek underwater monster adventure. It's big, ridiculous and good fun.", "is_fresh": 1, "author": ["Aine O'Connor"]},
{"text": "The Meg's target audience, the bloody-minded kid who wishes shark week was every week, isn't over served with guts and chum... There's neither speedy fun or much emotional investment in this.", "is_fresh": 0, "author": ["Richard von Busack"]},
{"text": "This isn't high-brow cinema, but \"The Meg\" is an audience-pleaser through and through.", "is_fresh": 1, "author": ["Tom Santilli"]},
{"text": "To steal (and paraphrase) from Woody Allen in \"Annie Hall,\" a film is like a shark. It has to keep on moving or it will die. And what we're dealing with here...is a dead shark.", "is_fresh": 0, "author": ["Michael A. Smith"]},
{"text": "...the kind of arrogant, ostentatious laziness that only a very specific stripe of nine figure film can aspire to...", "is_fresh": 0, "author": ["Travis Johnson"]},
{"text": "The movie is surprisingly subdued in its pacing, its characterizations, and its go-for-broke sensibilities. Luckily, the scrappy Statham is on hand to provide it with some bite.", "is_fresh": 0, "author": ["Matt Brunson"]},
{"text": "Watching it is like watching the spectacle of a class clown at their best: you laugh at their jokes, instigate their defiance, and \"ooooh\" when they get in trouble. The Meg is the class clown of Hollywood. Every shark movie is at this point.", "is_fresh": 1, "author": ["Jordan Calhoun"]},
{"text": "It's a good bad... and worth a popcorn matin\u00e9e. While it's easy to lament what could have been... maybe summer success and brand recognition here will lead to a bloodier badass sequel later.", "is_fresh": 1, "author": ["Kevin A. Ranson"]},
{"text": "A schlocky, splashy, by-the-numbers sea-monster movie.", "is_fresh": 0, "author": ["Susan Granger"]},
{"text": "Ultimately, the film can play fast and loose with the laws of deep-water biology all it wants and still be carried by the jaunty charm of its lead actor.", "is_fresh": 1, "author": ["Wendy Ide"]},
{"text": "While the Statham/shark combo shines, the rest of the film drowns. [Full review in Spanish]", "is_fresh": 0, "author": ["Fico Cangiano"]},
{"text": "The shark is sufficiently large, but if you want to make an impression, everything around it needs to be zippier, shorter, and crazier than this.", "is_fresh": 0, "author": ["Eric D. Snider"]},
{"text": "It's a watery circus floating on Hollywood's rubber carcass, and various other bits of plastic plot debris that keep washing up. We've built an industry from fun trash. The Meg is our legacy - and our reckoning: a meh outing that will still make millions.", "is_fresh": 0, "author": ["Katherine Monk"]},
{"text": "The Meg had free license to show up in theaters and just be a stupid spectacle and it doesn't capitalize on that at all. How often do film critics beg for a movie to be dumber?", "is_fresh": 0, "author": ["Matthew Passantino"]},
{"text": "The film is restrained; it's not as gory as you'd expect. In a way, it's a throwback to the type of creature features produced during the 1950s, when giant bugs and thawed-out dinosaurs threatened mankind almost every Saturday afternoon.", "is_fresh": 1, "author": ["Bob Bloom"]},
{"text": "It's never going to win an Oscar - unless the Academy starts giving out awards for Best Picture Where Jason Statham Fights a Shark - but if you're looking for some enjoyably bonkers summer-themed fun, here it is.", "is_fresh": 1, "author": ["Mike McGranaghan"]},
{"text": "Unfortunately, with The Meg, an able cast has little more to do than utter lame wisecracks and look concerned.", "is_fresh": 0, "author": ["Dan Lybarger"]},
{"text": "Welcome to Jurassic Shark. Glub, glub. A Dwayne Johnson film with Jason Statham as idiot's Captain Ahab.", "is_fresh": 0, "author": ["James Verniere"]},
{"text": "It's neither fish nor completely (sorry) foul.", "is_fresh": 0, "author": ["Robert Horton"]},
{"text": "It would've benefitted by being more dumb. ", "is_fresh": 1, "author": ["Tim Cogshell"]},
{"text": "Everything in The Meg looks fake, from the New Zealand-as-coastal-China backdrop to the massive underwater research center to the actors themselves, none of whom have been costumed or photographed with any sharpness.", "is_fresh": 0, "author": ["Adam Nayman"]},
{"text": "The script - which barely resembles Steve Alten's 1997 bestseller - mashes up a dozen hokey 50s creature features where scientists accidentally unleash a threat and then race to stop it.", "is_fresh": 0, "author": ["Norman Wilner"]},
{"text": "Maybe director John Turteltaub thought the barrage of pathos and yuks would distract from the fact that his star is a very big fish that is not very bright. Still: cool shark, bro.", "is_fresh": 0, "author": ["Matthew Lickona"]},
{"text": "What's vastly missing is the element of fear. Things are disappointingly placid for the first half of The Meg; the second half, admittedly, is nerve-jangling.", "is_fresh": 0, "author": ["Rashid Irani"]},
{"text": "The film, shot mostly at the sea, offers some stunning underwater scenes and some decent CGI. It hovers between being being a gloried B movie and a certified A movie.", "is_fresh": 1, "author": ["Devesh Sharma"]},
{"text": "I wanted this movie to be wackier, crazier, and over the top, the problem is that it's PG13.", "is_fresh": 0, "author": ["Christy Lemire"]},
{"text": "People are going to see this movie to watch the actor essentially punch a gigantic prehistoric shark in the face and on that front I'm hard-pressed to claim I was ever disappointed.", "is_fresh": 1, "author": ["Sara Michelle Fetters"]},
{"text": "Still, for all the nods to Jaws he did include, Turteltaub resists including the obvious line about the shark being too big for the boat.", "is_fresh": 0, "author": ["Kirk Baird"]},
{"text": "It's so bad that it's good, remember? It's bad, but it's funny! You're laughing! Right? The truth, unfortunately, is that the novelty of Statham's self-mocking performance and deadpan antics fades away... It is so bad that it's bad. ", "is_fresh": 0, "author": ["Kevin Maher"]},
{"text": "'The Meg' is preposterous and hilarious and dumb and it's fun as hell.", "is_fresh": 1, "author": ["TK Burton"]},
{"text": "To call the film \"derivative\" isn't pejorative; it's kind of the point.", "is_fresh": 0, "author": ["Alissa Wilkinson"]},
{"text": "The Meg is way more fun than it has any right to be, and that comes down to pacing. It moves at a breakneck speed that doesn't allow for any time wasted on things like sentimentality or cogent science, which aren't its strong points anyway. ", "is_fresh": 1, "author": ["Alexandra August"]},
{"text": "The magnitude of the production doesn't conceal [a] poor script overly inspired by Jaws. [Full review in Spanish]", "is_fresh": 0, "author": ["Francisco Marinero"]},
{"text": "It needs the self-awareness to commit to being a comedy, an action thriller, or a horror movie. Instead, the film is only mildly funny, only slightly exciting, and only sporadically scary.", "is_fresh": 0, "author": ["Todd Jorgenson"]},
{"text": "The Meg generates the suspense that the public expects from a killer shark movie, has flashes of grace and some unexpected plot twists... [Full Review in Spanish]", "is_fresh": 1, "author": ["Susana Guzman De la O"]},
{"text": "The Meg is a movie featuring Jason Statham fighting a [giant shark]...For some, that will be all the information you need to know you're going to stay far, far away. For others...it's all you need to know to say, \"Oh hell yes. I'm watching that.\"", "is_fresh": 1, "author": ["Rain Jokinen"]},
{"text": "Some silly summer scream stuff sinks as much as it splashes and swims.", "is_fresh": 0, "author": ["John Urbancich"]},
{"text": "...providing plenty of thrills even if none of the characters are likely to stick in your memory.", "is_fresh": 1, "author": ["Daniel M. Kimmel"]},
{"text": "The Meg is oddly charming, more pulp than cheese, like the sci-fi pumped out in the 1950s.", "is_fresh": 1, "author": ["Andrew Whalen"]},
{"text": "Ultimately, the only one in here with a shred of recognizable humanity is the gigantic, prehistoric shark itself. ", "is_fresh": 0, "author": ["Benjamin Freed"]},
{"text": "The Meg delivers the Statham-versus-giant-shark battle moviegoers are promised, but does so in a way that still manages to be underwhelming.", "is_fresh": 1, "author": ["Robert Yaniz, Jr."]},
{"text": "Great example of an old-fashioned, pure-at-heart escapist event movie that doesn't pretend to be anything that it's not and has boat loads of fun being its own ludicrous self.", "is_fresh": 1, "author": ["Ross Miller"]},
{"text": "The Meg was never going to be \"Jaws,\" but it still feels like a missed opportunity to be something of its own.", "is_fresh": 0, "author": ["Josh Terry"]},
{"text": "The Meg is undoubtedly dumb but it's a fun sort of dumb as most types of fun involving giant, murderous sharks tends to be.", "is_fresh": 1, "author": ["Sonny Bunch"]},
{"text": "As big, dumb and fun as you hoped for ... but saddled with the most cringe-worthy romantic subplots in recent memory.", "is_fresh": 1, "author": ["Christian Toto"]},
{"text": "Living up to its billing as the most ridiculous film of the summer, The Meg is one to laugh at rather than with. Instantly forgettable, but undeniably fun.", "is_fresh": 1, "author": ["Jordan Farley"]},
{"text": "One of the most extraordinary films you will see this year. Take that as you want.", "is_fresh": 1, "author": ["Jamie East"]},
{"text": "A mega-chunk of summer-movie shark cheese.", "is_fresh": 0, "author": ["Neil Pond"]},
{"text": "The open references to Steven Spielberg's 1975 masterpiece act as an unwitting reminder that the evolution of the shark movie has gone backwards in 43 years, in every way but one.", "is_fresh": 0, "author": ["Brian Viner"]},
{"text": "The dialogue is hilariously naff and the CGI shark is too ridiculous to be scary. But if you're after two hours of pure escapism, you should find yourself hooked.", "is_fresh": 1, "author": ["Andy Lea"]},
{"text": "The makers of The Meg may have gone to school on Spielberg, but the big-budget deep-sea thriller is nothing but bloodless summer filler.", "is_fresh": 0, "author": ["Brad Wheeler"]},
{"text": "Jason Statham takes on a giant shark in \"The Meg,\" a fun-dumb splash of summer popcorn entertainment that manages to be more fun than dumb.", "is_fresh": 1, "author": ["Adam Graham"]},
{"text": "\"The Meg\" has its moments of fun. And it certainly delivers some spectacle. But it's a bit of a confused movie, too, that makes it hard to recommend. (Full Content Review for Parents - Violence, Profanity, etc. - also Available)", "is_fresh": 0, "author": ["Teddy Durgin"]},
{"text": "Tons of first-class stunt work and digital effects, and dialogue disposable enough it won't matter if it translates well. ", "is_fresh": 1, "author": ["Nell Minow"]},
{"text": "This poorly sketched shark flick should have been bolder, cornier, and bloodier.", "is_fresh": 0, "author": ["Tomris Laffly"]},
{"text": "Has a way of affixing a toothy grin to your face the size of its shark.", "is_fresh": 1, "author": ["Phil Villarreal"]},
{"text": "Casting superstar tough-guy Jason Statham as Jonas was smart... too bad the script isn't.", "is_fresh": 0, "author": ["Staci Layne Wilson"]},
{"text": "Too much Stath and not enough Meg... This cheesy shark fantasy is neither scary nor funny enough to join the shark movie canon.", "is_fresh": 0, "author": ["Jonathan W. Hickman"]},
{"text": "In short, this isn't quite Sharknado, but it's certainly that Syfy junker's classier big screen cousin.", "is_fresh": 1, "author": ["Jacob Knight"]},
{"text": "Is it really worth self-conscious nods to the audience when genre conventions are performed with at best perfunctory gusto and come up short in producing a half-decently scary action film? ", "is_fresh": 0, "author": ["Tina Hassannia"]},
{"text": "The Meg is junk made with just enough conviction and craft to convince you that it's better than it is -- or, at the very least, better than it needs to be. But don't let lowered expectations overcome your faculties.", "is_fresh": 0, "author": ["Tim Grierson"]},
{"text": "It's an enjoyable movie. The problem with The Meg is that while it definitely chomps at your senses, it's just not ridiculous enough to be memorable.", "is_fresh": 1, "author": ["Jonathan Anderson"]},
{"text": "Statham does make it watchable. But only just.", "is_fresh": 1, "author": ["Alistair Harkness"]},
{"text": "Of all the thrillers made about tender, juicy humans splashing away from ravenous giant sharks, The Meg is undeniably the most recent.", "is_fresh": 0, "author": ["Chris Klimek"]},
{"text": "Turteltaub presents an exercise in aquatic terror and does so successfully. [Full Review in Spanish]", "is_fresh": 1, "author": ["Jordi Costa"]},
{"text": "A big, dumb shark movie that takes itself a little too seriously, and that's the point. ", "is_fresh": 1, "author": ["William Bibbiani"]},
{"text": "The Meg is a bad movie, well done. [Full Review in Spanish]", "is_fresh": 1, "author": ["Erick Estrada"]},
{"text": "[It] does more or less deliver on its promise of seeing a massive, prehistoric shark wreaking havoc ... This, though, is a case where 'more' is preferable to any amount of 'less.'", "is_fresh": 0, "author": ["Mark Dujsik"]},
{"text": "It is neither dumb nor smart enough to be fun, and spends way too much time with its boring human characters when it could be spending it with, you know, the giant shark.", "is_fresh": 0, "author": ["Emily Yoshida"]},
{"text": "Director Jon Turteltaub, a longtime hand at live-action Disney movies, doesn't have the ruthlessness required to goose either the suspense or the mayhem of a giant-shark movie. ", "is_fresh": 0, "author": ["Jesse Hassenger"]},
{"text": "Turteltaub is better at the scenes of conceiving cockamamie plans than at the unleashing of cockamamie-ness. He only occasionally suggests the mystery and majesty of his monster and exhibits little feel for suspense.", "is_fresh": 0, "author": ["Alan Scherstuhl"]},
{"text": "The most fun you'll have at the movies this summer... By the time The Meg gets down to its remaining survivors, you've been on a ride that few other movies have delivered lately.", "is_fresh": 1, "author": ["Fred Topel"]},
{"text": "Ultimately The Megmay only inspire you to go back and watch Jaws, which isn't a bad thing either.", "is_fresh": 1, "author": ["Scott Chitwood"]},
{"text": "The Meg gives its audience exactly what it expects and what it wants: B-movie thrills on an A-movie scale. You'll see many better movies this year but you're unlikely to see many that are more purely entertaining.", "is_fresh": 1, "author": ["Olly Richards"]},
{"text": "Audiences looking for a so-bad-its-good bit of kitsch will likely be let down. The Meh - sorry, The Meg - is so calculatedly flattened out for its Chinese financiers and market, that even the dialogue feels as though it's in translation.", "is_fresh": 0, "author": ["Liam Lacey"]},
{"text": "If you see one movie about Jason Statham fighting a giant shark this Summer, make it The Meg. ", "is_fresh": 1, "author": ["Vincent Mancini"]},
{"text": "To feel the full Meg effect, it's best to find refuge in its B movie aspects. [Full review in Spanish]", "is_fresh": 1, "author": ["Alberto Corona"]},
{"text": "This is the sort of late summer time waster that isn't very good, knows it isn't very good and knows you know it isn't very good.", "is_fresh": 0, "author": ["Colin Covert"]},
{"text": "Director Jon Turteltaub... has done the popcorn industry a serious service with this carnivorous charmer.", "is_fresh": 1, "author": ["Harry Guerin"]},
{"text": "Lively action, thrills and a few laughs (some unintentional) keep this summer popcorn cruncher afloat.", "is_fresh": 1, "author": ["Roger Tennis"]},
{"text": "It's a Statham movie, one in which the most ferocious predator in the movie is him and not the computer-generated beastie. ", "is_fresh": 1, "author": ["Travis Hopson"]},
{"text": "This is basically the perfect summer blockbuster. It demands absolutely nothing of its audience.", "is_fresh": 1, "author": ["Rich Cline"]},
{"text": "A Jaws knockoff designed to give Jason Statham meaningful employment where he can grunt heroically and cash a cheque bearing many zeroes, now that he has reached the Steven Seagal phase of his career.", "is_fresh": 0, "author": ["Peter Howell"]},
{"text": "Looks, sounds, and moves like it was patched together over an extended length of time by several committees full of translators.", "is_fresh": 0, "author": ["Andr\u00e9 Hereford"]},
{"text": "Yes, the CGI Meg is reasonably horrifying, but then so was Charlie the Tuna and, come to think of it, Flipper...The Meg is simply mediocre, PG-13 monster-moviemaking at its mind-numbing kinda/sorta best-ish.", "is_fresh": 0, "author": ["Marc Savlov"]},
{"text": "If only it fully leaned into its ridiculousness, then maybe The Meg would be worthwhile. It has its moments, but The Meg is overall a limp movie -- it has a big monster and absolutely no idea what to do with it.", "is_fresh": 0, "author": ["Rich Juzwiak"]},
{"text": "It does provide an entertaining ride for a few air-conditioned hours at the multiplex.", "is_fresh": 1, "author": ["Clint O'Connor"]},
{"text": "It mainly succeeds in what it sets out to do, which is entertain.", "is_fresh": 1, "author": ["Christopher Llewellyn Reed"]},
{"text": "Dithering on whether or not it's a comedy, thriller, or meditation on climate change, The Meg attempts to do a number of things while succeeding at very few of them.", "is_fresh": 0, "author": ["Hannah Woodhead"]},
{"text": "It begins like James Cameron's The Abyss but ends in the kind of toothless high campery found in last year's Baywatch.", "is_fresh": 1, "author": ["Geoffrey Macnab"]},
{"text": "A lot is obvious here, in fact, including a couple of twists...You're there for the action, and there's a lot of it. It's OK, and there are some scares and some silliness and some sadness doled out along the way.", "is_fresh": 0, "author": ["Richard Roeper"]},
{"text": "The Meg ends up being just a high-budget, low-value attempt to sell you a typical tale of a tortured man tracking a monster, composed of spare parts lifted from other films you love.", "is_fresh": 0, "author": ["David Fear"]},
{"text": "Fun characters, cool actors, strong production values, punchy dialogue and plenty of shark action. What more do you want?", "is_fresh": 1, "author": ["Scott Mendelson"]},
{"text": "The action is often silly, but not quite silly enough to make a giant-shark movie really fun.", "is_fresh": 0, "author": ["Sean P. Means"]},
{"text": "The thing that disappointed me the most about The Meg is its flat tone. There's too little tension and not nearly enough suspense.", "is_fresh": 0, "author": ["James Berardinelli"]},
{"text": "The film languished in development hell for over two decades, and it's easy to see why. ", "is_fresh": 0, "author": ["David Medsker"]},
{"text": "Disappointingly straight-forward. Not as much silly fun as you might hope for. ", "is_fresh": 0, "author": ["Chris Bumbray"]},
{"text": "It manages to hit upon a reasonably effective blend of action and humor that never sinks to the strained depths of the Sharknado saga.", "is_fresh": 1, "author": ["Peter Sobczynski"]},
{"text": "I'll just sum it up: Jason Statham. Fist. Pointy Object. Shark face. Awesome.", "is_fresh": 1, "author": ["Matthew Razak"]},
{"text": "Just when you thought it was safe to go back in the theater and enjoy old-fashioned summer entertainment. ", "is_fresh": 0, "author": ["Mara Reinstein"]},
{"text": "a goofy melding of Spielberg's \"Jurassic Park\" and \"Jaws\" with a soup\u00e7on of \"Finding Nemo.\"...Jason Statham is a welcome reprieve from Rock fatigue.", "is_fresh": 1, "author": ["Laura Clifford"]},
{"text": "Since the genre has been dominated in recent years by the campy Sharknado franchise, this 'Jurassic Jaws' homage proves to be just the Rx needed to make sharks scary again! ", "is_fresh": 1, "author": ["Kam Williams"]},
{"text": "The corniest of popcorn movies ... Don't go in expecting Jaws, but maybe something closer to Jaws 2.", "is_fresh": 1, "author": ["Edward Douglas"]},
{"text": "'The Meh' is more like it...a live-action comic book whose derivative silliness ultimately sinks it, though as brainless popcorn entertainment it might suffice for undemanding viewers.", "is_fresh": 0, "author": ["Frank Swietek"]},
{"text": "Turtletaub is trying to summon fun here, not create nightmares, and his lighter approach works, keeping Statham alert, the shark in motion, and scale relatively impressive.", "is_fresh": 1, "author": ["Brian Orndorf"]},
{"text": "The Meg seems destined to only find favour with snarky podcasters seeking schlocky targets for ridicule.", "is_fresh": 0, "author": ["Simon Foster"]},
{"text": "Jason Statham versus a giant prehistoric shark. It's never less - yet also never more - than you expect, and never more suspenseful or scary than it is cheesy. But whatev. Go, and enjoy.", "is_fresh": 1, "author": ["MaryAnn Johanson"]},
{"text": "The Meg is a shark movie that doesn't offer any major scares, despite boasting a monster 25 metres in length.", "is_fresh": 0, "author": ["James Mottram"]},
{"text": "It's not fun, it's not serious, it's not scary. It is stupid.", "is_fresh": 0, "author": ["Johnny Oleksinski"]},
{"text": "Wonky pacing and superfluous dramatic moments aside, the WrestleMania-sized tantalizing prospect of Jason Statham taking on a massive shark delivers in gloriously stupid fun", "is_fresh": 1, "author": ["Robert Kojder"]},
{"text": "Why any studio would greenlight, a 150 million dollar shark movie makes little to no sense especially when most shark movies go directly to DVD, Blu-Ray, or On-Demand.", "is_fresh": 0, "author": ["Scott Menzel"]},
{"text": "WB showed a better eye for effective imagery with their extravagant poster campaign than the tedious flatness we're left with throughout.", "is_fresh": 0, "author": ["Jordan Raup"]},
{"text": "An endearingly silly slasher, complete with ludicrous scares. (As it turns out, the biggest shark that ever lived is surprisingly good at silently sneaking up on its prey.)", "is_fresh": 1, "author": ["Matt Singer"]},
{"text": "Even if some of the Meg's CG-generated moves look a little fishy from time to time, that's almost part of the fun.", "is_fresh": 1, "author": ["Don Kaye"]},
{"text": "The Meg largely removes the cheese factor of the genre, but still remains a fun popcorn flick. The shark, despite being an enormous creature from the Pliocene era, behaves like an actual shark. ", "is_fresh": 1, "author": ["Julian Roman"]},
{"text": "The Meg resonates for the way its computer-generated beast makes way for the Statham-acious spotlight.", "is_fresh": 1, "author": ["Niles Schwartz"]},
{"text": "The Meg ticks the necessary wild summertime thrill boxes and also throws in the added bonus of incorporating just enough of a dark, forbidding and serious vibe to up the intensity and make the experience a truly immersive ride.", "is_fresh": 1, "author": ["Perri Nemiroff"]},
{"text": "If a lot of the plotting is colossally stupid, it's presented in a cheerful, old-fashioned, thoroughly unpretentious way, built on the simple premise that scaring people with sharks in summertime is a tried-and-true convention.", "is_fresh": 1, "author": ["Brian Lowry"]},
{"text": "Is it a particularly great movie? No. Does it have some pretty major structural problems? Yes. Does Jason Statham fight a giant, prehistoric shark in it? Yes. Verdict: See The Meg. The Meg will cleanse your soul.", "is_fresh": 1, "author": ["Rebecca Pahle"]},
{"text": "A cheerful pastiche, unpretentious and efficient, and the giant shark, when it finally shows up, is a pretty good special effect", "is_fresh": 1, "author": ["Gary Thompson"]},
{"text": "In the process of attempting to make The Meg a movie full of stupid fun, they forgot to have fun, but stayed square in the lane of stupid.", "is_fresh": 0, "author": ["Mike Reyes"]},
{"text": "It's a likeable popcorn movie, with some good monster moments, an engaging international cast and Jon Turteltaub helming a family-friendly balance of laughter and mayhem.", "is_fresh": 1, "author": ["Demetrios Matheou"]},
{"text": "A movie that wobbles unsteadily between straight-faced action epic and winking self-mockery.", "is_fresh": 0, "author": ["Rafer Guzman"]},
{"text": "All those who like their summer movies as big as the Pacific and as dumb as a bucket of sand will appreciate \"The Meg,\" a sometimes ridiculously entertaining, if forgettable, killer shark movie.", "is_fresh": 0, "author": ["Cary Darling"]},
{"text": "The best way to watch The Meg is with a big box of popcorn and an ironic eye roll: it's clearly designed for distracted audiences, given that each key plot point is explained around four times. ", "is_fresh": 0, "author": ["Anna Smith"]},
{"text": "There's a distinctly campy sensibility to The Meg that goes a long way toward anchoring even some of the film's graver sequences in a general sense of play. ", "is_fresh": 1, "author": ["Dominick Suzanne-Mayer "]},
{"text": "This film is more entertaining than others because it understands how silly it is, and embraces that.", "is_fresh": 1, "author": ["Chris Stuckmann"]},
{"text": "There's very little to care about between appearances of the title creature.", "is_fresh": 0, "author": ["Alonso Duralde"]},
{"text": "The Meg is bad, but only rarely in the fun way.", "is_fresh": 0, "author": ["Richard Lawson"]},
{"text": "Unlike his action-movie rival Johnson, Statham does not have the charisma to carry this film. He gets the job done all right, but makes it feel more like work than play.", "is_fresh": 0, "author": ["Michael O'Sullivan"]},
{"text": "The Meg is the most enjoyable movie of the summer. To see such a jubilant return to creature feature blockbuster territory is something special.", "is_fresh": 1, "author": ["Drew Dietsch"]},
{"text": "It may have a few rough patches, but as a whole, it's entertaining as hell and it really scratched my itch for aquatic-themed adventures this summer.", "is_fresh": 1, "author": ["Heather Wixson"]},
{"text": "The Meg, stolidly directed by Jon Turteltaub, winds up proving a fairly obvious theory about its chosen sub-genre: the more massive the shark (and the budget), the lighter the scares and the lower the stakes.", "is_fresh": 0, "author": ["Justin Chang"]},
{"text": "From direction to production to writing, everything was handled wrong. They didn't know what they wanted this movie to be.", "is_fresh": 0, "author": ["Kristian Harloff"]},
{"text": "Sulking, frowning and quipping with aplomb, Statham brings to the table all the grandeur of a bloke fist-fighting in a car park - paired with the outlandish premise, the contrast works magnificently.", "is_fresh": 1, "author": ["Emma Simmonds"]},
{"text": "Everybody, including Statham, gets more and more cartoony as the movie goes on...it ended up being a lot more like Geostorm than it had to be.", "is_fresh": 0, "author": ["Mark Ellis"]},
{"text": "The Meg proves only that, at least cinematically speaking, great-white movies may have finally jumped the shark.", "is_fresh": 0, "author": ["Joshua Rothkopf"]},
{"text": "There are some glorious highs in The Meg, and yet you always feel like it could go a little further, be more bonkers, shave off some of the runtime and go a little grislier with the chomping.", "is_fresh": 0, "author": ["Matt Goldberg"]},
{"text": "Not quite killer, but it's rare to see a 21st-century blockbuster having this much fun - right through to its sign-off - with its own premise.", "is_fresh": 1, "author": ["Mike McCahill"]},
{"text": "The Meg should have been a zippy, bloody 85-minute B movie, not the bloated behemoth it has been puffed up into with all the intelligence of a sea cucumber.", "is_fresh": 0, "author": ["Alan Jones"]},
{"text": "Dumb, not as fun as it could be, but it does have some dumb fun. ", "is_fresh": 0, "author": ["Jeremy Jahns"]},
{"text": "Give us more giant shark movies, Hollywood. Please don't let The Meg be a one-off.", "is_fresh": 1, "author": ["Matt Donato"]},
{"text": "What is it about sharks that inspires such absurdity in plots?", "is_fresh": 0, "author": ["Jake Coyle"]},
{"text": "Shark. Weak.", "is_fresh": 0, "author": ["Chris Hewitt (UK)"]},
{"text": "Sadly, not even the shark is very interesting.", "is_fresh": 0, "author": ["Jeffrey M. Anderson"]},
{"text": "The Meg delivers exactly what its advertising campaign promises, with no unexpected surprises, pleasant or otherwise. ", "is_fresh": 1, "author": ["Robbie Collin"]},
{"text": "The Meg is an entertaining underwater monster movie and summer thrill ride that wholeheartedly embraces its inherent cheesiness without overdoing it.", "is_fresh": 1, "author": ["Sandy Schaefer"]},
{"text": "Turteltaub's direction never suggests that it's motivated by anything except commercial and contractual considerations.", "is_fresh": 0, "author": ["Ignatiy Vishnevetsky"]},
{"text": "Statham remains an appealing summer movie fixture, but sharks deserve better than this.", "is_fresh": 0, "author": ["Eric Kohn"]},
{"text": "It's all good, goofy fun; make it an air-conditioned double feature with \"Mamma Mia! Here We Go Again\" and you might just have the very definition of \"summer movies.\"", "is_fresh": 1, "author": ["Moira MacDonald"]},
{"text": "\"The Meg\" doesn't seem to know how dumb it is.", "is_fresh": 0, "author": ["Jeannette Catsoulis"]},
{"text": "Forgettably entertaining/entertainingly forgettable.", "is_fresh": 1, "author": ["Michael Phillips"]},
{"text": "Ridiculous, cheesy popcorn fun.", "is_fresh": 1, "author": ["Chris Nashawaty"]},
{"text": "A perfect blend of silly and serious, plausible and preposterous. It knows what it is and doesn't over or undersell its goods. An absolute must see with your chums. ", "is_fresh": 1, "author": ["Courtney Howard"]},
{"text": "Whether you like The Meg depends on how much you like seeing Jason Statham in and out of a wetsuit, doing action-hero things. He's certainly good at it, and he's the best thing about the movie, not that the competition is particularly fierce.", "is_fresh": 0, "author": ["Bill Goodykoontz"]},
{"text": "Blandly internationalized, generically derivative, drained of any personality, edited as if by computer and bleached of the slightest hint of emotion... The Meg is a one hundred percent inorganic meal.", "is_fresh": 0, "author": ["Todd McCarthy"]},
{"text": "There were moments I forgot to breathe while watching The Meg.", "is_fresh": 1, "author": ["Jamie Broadnax"]},
{"text": "When you go to a film in which Jason Statham takes on a 70-foot prehistoric shark, you know exactly what you're going to get -- and The Meg delivers all the terrible puns, comedy deaths and thrilling action you'd expect.", "is_fresh": 1, "author": ["Abigail Chandler"]},
{"text": "Comes on like it wants to be the mother of all deep-sea attack movies. But it's really just the mother of all generically pandering, totally unsurprising Jaws ripoffs.", "is_fresh": 0, "author": ["Owen Gleiberman"]},
{"text": "The Meg offers a fair share of humor and suspense...", "is_fresh": 0, "author": ["Danielle Solzman"]},
{"text": "The Meg is dumb, but it knows it's dumb and buys into it entirely. That gives the whole thing a real cohesion that makes it work. It's exactly what you hope it will be.", "is_fresh": 1, "author": ["Germain Lussier"]},
{"text": "It delivers more than enough shark thrills that will have you alternating from dropping your jaw, laughing and applauding.", "is_fresh": 1, "author": ["Brad Keefe"]},
{"text": "A popcorn pic to be endured, not enjoyed.", "is_fresh": 0, "author": ["Roger Moore"]}
]