[
{"reviews_count": "112", "title": "The Queen of Versailles", "avg_audience_rating": "3.7", "rotten_count": "6", "tomatometer": "95", "audience_score": "73", "avg_critic_rating": "  8", "fresh_count": "106", "user_ratings_count": "15,774"},
{"text": "Were this not a documentary, it would all play out like a lazy satire as the easy ironies pile up.", "is_fresh": 1, "author": ["Saundra Sorenson"]},
{"text": "The excess is astonishing and infuriating... but a very specialized slice of Americana that proves nobody is untouchable, there's no life too big to tear down.", "is_fresh": 1, "author": ["Tara Thorne"]},
{"text": "The Siegels do have their little place in history; not, as Siegel claims, as a man whose deep pockets helped George W. Bush get elected, but as a cautionary tale.", "is_fresh": 1, "author": ["Pat Padua"]},
{"text": "Greenfield's affection for her subjects ensures that they never remain the victims of their own story for long - Jackie herself is ceaselessly likable despite her tone-deaf ditziness.", "is_fresh": 1, "author": ["Emma Dibdin"]},
{"text": "[Director Lauren] Greenfield's gaze somehow synthesizes ridicule and compassion in a way that elevates her film above superficially similar reality TV shows like the Real Housewives franchise.", "is_fresh": 1, "author": ["Steve Erickson"]},
{"text": "Be prepared to find yourself trying to find sympathy and compassion for the Siegels.", "is_fresh": 1, "author": ["Craig D. Lindsey"]},
{"text": "An ultimately haunting worst-case-scenario for Americans living beyond their means after the bottom dropped out.", "is_fresh": 1, "author": ["Sean Burns"]},
{"text": "A pretty effective warning shot across the bow of the one percenters.", "is_fresh": 1, "author": ["Dan Jardine"]},
{"text": "Humanizes the upper one percent in a 100-percent entertaining way. ", "is_fresh": 1, "author": ["Al Alexander"]},
{"text": "Strangely entertaining and revealing documentary about a culture obsessed with money and people aspiring to a life they can't afford. Greed is good once again if you can borrow enough money to consume all you desire. Mind the debt gap. ", "is_fresh": 1, "author": ["Cameron Williams"]},
{"text": "...their plight plays like the financial crisis in miniature. Or perhaps it's in macro. ", "is_fresh": 1, "author": ["Josh Larsen"]},
{"text": "My problem with this riches to rags Americana story is that I felt no sympathy for the featured self-absorbed materialists.", "is_fresh": 1, "author": ["Dennis Schwartz"]},
{"text": "If you've ever wondered how that one percent of the richest lives, this film will show you how one family lives (they are probably back in the 99 percent now), and it ain't pretty.", "is_fresh": 1, "author": ["Robert Roten"]},
{"text": "Both the quintessential documentary about the Great Recession, and quite possibly the most Schadenfreude-filled movie of all time.", "is_fresh": 1, "author": ["Stephen Silver"]},
{"text": "A documentary about a rich couple riding the waves of wealth and greed and then plunging downwards.", "is_fresh": 1, "author": ["Frederic and Mary Ann Brussat"]},
{"text": "A powerhouse documentary, the film shifts from simply being a fly-on-the-wall look at material decadence and moral decay into a study of a family trying to hold itself together during a trying period.", "is_fresh": 1, "author": ["Matt Brunson"]},
{"text": "a repetitive exercise in schadenfreude, and the Siegels don't do much to alter that... The Queen of Versailles leaves viewers with one feeling about the Siegels: Let them eat stale cake.", "is_fresh": 1, "author": ["Steve Persall"]},
{"text": "Documentaries are rarely as hilarious as this one. Well, the first half of it at least", "is_fresh": 1, "author": ["Rich Cline"]},
{"text": "[E]nds up an ever less slightly ungenerous look at the .01 percent than it might have been... But this is still a brutal film from many angles.", "is_fresh": 1, "author": ["MaryAnn Johanson"]},
{"text": "One of the great unsayable truths about the American dream is that it is a bit of a Ponzi scheme ... our system admits a glimmer of hope that anyone, no matter how lowborn, can rise to the top.", "is_fresh": 1, "author": ["Philip Martin"]},
{"text": "Extremely funny and revealing ...", "is_fresh": 1, "author": ["Philip French"]},
{"text": "[Siegel] is now suing Greenfield for \"misrepresentation\". Well, I know whose side I'm on.", "is_fresh": 1, "author": ["Charlotte O'Sullivan"]},
{"text": "She epitomises a Western culture struggling to wean itself off debt.", "is_fresh": 1, "author": ["Grant Rollings"]},
{"text": "Greenfield's film is bathed in Florida sunshine, adding to the sensation that we're watching Lifestyles of the Rich and Famous with a Marxist punchline. ", "is_fresh": 1, "author": ["Tara Brady"]},
{"text": "Never has grotesque wealth looked so unenviable, or its removal been so entertaining, as in this garishly watchable riches-to-rags documentary ...", "is_fresh": 1, "author": ["Steve Rose"]},
{"text": "[Siegel] ultimately emerges as someone who belongs more in The Little House on the Prairie: ever cheerful, and triumphantly unimpeachable.", "is_fresh": 1, "author": ["Antonia Quirke"]},
{"text": "The temptation to be moralistic must have been overpowering, yet Greenfield finally manages to summon sympathy for people who at first seem vain, selfish and greedy.", "is_fresh": 1, "author": ["David Gritten"]},
{"text": "Prepare to be shocked, disgusted and compelled.", "is_fresh": 1, "author": ["Andy Tweddle"]},
{"text": "In the end, these are human beings, not emblems - and it is this that makes this documentary one of the most watchable, for rich and poor alike.", "is_fresh": 1, "author": ["Francesca Steele"]},
{"text": "It's priceless.", "is_fresh": 1, "author": ["Cath Clarke"]},
{"text": "A bizarre and mesmerising journey to the heart of Cloud Cuckoo Land.", "is_fresh": 1, "author": ["Philip Wilding"]},
{"text": "It is a comedy that aspires to tragedy, and a metaphor for a nation collapsing beneath the incompatible, intolerable pressures of excess and inequity.", "is_fresh": 1, "author": ["John Beifuss"]},
{"text": "For all their garishness, the Siegels are pretty likable, even if attempts to make you sympathetic to their \"plight\" fall short.", "is_fresh": 1, "author": ["Chris Foran"]},
{"text": "It scores a lot of laughs at the Siegel's bad taste and odd ways of adapting to their newfound misfortune. Thankfully, Greenfield also makes the Siegels sympathetic.", "is_fresh": 1, "author": ["Dan Lybarger"]},
{"text": "If you get some kind of sick kick watching the mighty take a fall, The Queen of Versailles will be nothing short of a schadenfreudic ball.", "is_fresh": 1, "author": ["Erick Weber"]},
{"text": "Seriously, if this was the American Dream, couldn't we have come up with something better?", "is_fresh": 1, "author": ["Tom Long"]},
{"text": "It contains some useful information, I suppose, but I did not like these people, I hope never to meet them, and I wonder if the world wouldn't be a better place without them.", "is_fresh": 0, "author": ["Jeffrey M. Anderson"]},
{"text": "Watching Jackie fill cart after Walmart cart with crap the family doesn't need is to witness the new millennium's version of Marie Antoinette.", "is_fresh": 1, "author": ["Jeff Meyers"]},
{"text": "Can we feel sorry for super-filthy-rich rich people? Maybe not. But we can be fascinated by their insane spending. Lauren Greenfield gains uber-access to the excess.", "is_fresh": 1, "author": ["Clint O'Connor"]},
{"text": "Although director Lauren Greenfield documents several instances in which it's apparent that the Siegels' lifestyle is so alien from the vast majority that they might as well call Mars home, she hasn't set out to eat the rich.", "is_fresh": 1, "author": ["Mark Pfeiffer"]},
{"text": "Greenfield and her crew achieved extraordinary access to the Siegel's lives, and one of the film's pleasures is simply getting to visit a world that few of us will ever know.", "is_fresh": 1, "author": ["Sarah Boslaugh"]},
{"text": "Although it's a guilty pleasure, \"The Queen of Versailles\" is artful enough that both the prosecution and the defense could invoke it when the peasants cry \"Off with their heads!\"", "is_fresh": 1, "author": ["Joe Williams"]},
{"text": "At times the film feels aimless and inconclusive, but Greenfield's open-minded and observational approach yields compelling details from every scene.", "is_fresh": 1, "author": ["Paul Gallagher"]},
{"text": "Taken at face value, The Queen of Versailles reveals nothing about the rich that isn't plainly evident on the E! Network. But its most surprising quality is also Jackie's: endurance.", "is_fresh": 1, "author": ["Justin Strout"]},
{"text": "This rags-to-riches-to-almost-rags-again queen has an endearing knack for looking on the bright side. You find yourself, by the end, wishing her well.", "is_fresh": 1, "author": ["Moira MacDonald"]},
{"text": "\"The Queen of Versailles\" is funny, sad, infuriating, instructive. It's the American Dream inflated to ridiculous extremes, until it bursts.", "is_fresh": 1, "author": ["Bill Goodykoontz"]},
{"text": "A portrait of the American Dream gone sour so absurdly engaging that you might be ashamed of enjoying it so much.", "is_fresh": 1, "author": ["Frank Swietek"]},
{"text": "A can't-look-away cross between a Bergman drama and a \"Real Housewives\" spin-off.", "is_fresh": 1, "author": ["Rick Kisonak"]},
{"text": "The Queen of Versailles presents a fascinating case study of how the collapsing economy impacted the superrich. It will also likely drive anybody who isn't the superrich up the wall.", "is_fresh": 1, "author": ["Kimberley Jones"]},
{"text": "More than a social morality tale, this is a character study, with the title well chosen.", "is_fresh": 1, "author": ["Rick Groen"]},
{"text": "It would be easy to look at this with smug satisfaction, but director Lauren Greenfield is impassive.", "is_fresh": 1, "author": ["Mark Dujsik"]},
{"text": "Surely more topical (and essential) now than when it was conceived, The Queen of Versailles plays like a Christopher Guest parody of the financial crisis.", "is_fresh": 1, "author": ["Ben Kenigsberg"]},
{"text": "Watching \"The Queen of Versailles\" you don't know whether to laugh or cry.", "is_fresh": 1, "author": ["Shawn Levy"]},
{"text": "Whatever their crimes of bad taste, they had it, flaunted it, lost it, and lived to tell the tale.", "is_fresh": 1, "author": ["Kelly Vance"]},
{"text": "\"The Queen of Versailles\" ought to be required viewing for anyone who blames the rich for yanking the rug out from under America's economy.", "is_fresh": 1, "author": ["Rafer Guzman"]},
{"text": "The pride, gluttony and inexplicable romance in the tale are almost Shakespearean.", "is_fresh": 1, "author": ["Chris Hewitt (St. Paul)"]},
{"text": "By the end, the movie has pulled off a small miracle: You become absorbed in the lives of these people for who they are and not what they own.", "is_fresh": 1, "author": ["Rene Rodriguez"]},
{"text": "In director Lauren Greenfield's tremendous documentary packed with terrific details, greed is not good. It is a slow, self-inflicted wound whose pain hits hard and fast.", "is_fresh": 1, "author": ["Matt Pais"]},
{"text": "What I left with was not hatred. I disapprove of the values they represent, but I also find them fascinating and just slightly lovable.", "is_fresh": 1, "author": ["Roger Ebert"]},
{"text": "A well-told tale about having to atone for sins of the sub-prime era.", "is_fresh": 1, "author": ["Vincent Mancini"]},
{"text": "A tragicomic indulgence of schadenfreude with the sophistication of a Kardashian reality show.", "is_fresh": 0, "author": ["Alison Gang"]},
{"text": "The result is a rich portrait.", "is_fresh": 1, "author": ["Tyler Chase"]},
{"text": "\"The Queen of Versailles\" turns out to be a portrait -- appalling, absorbing and improbably affecting -- of how, even within a system seemingly designed to ensure that the rich get richer, sometimes the rich get poorer.", "is_fresh": 1, "author": ["Ann Hornaday"]},
{"text": "A dysfunctional family documentary which invites the audience to take pleasure in the misfortunes of some decidedly-decadent 1%ers. ", "is_fresh": 1, "author": ["Kam Williams"]},
{"text": "Through a clear lens unclouded by politics or blame, it offers insight into the hazardous American practice of living beyond our means.", "is_fresh": 1, "author": ["Amy Biancolli"]},
{"text": "There are improbably involving human stories here.", "is_fresh": 1, "author": ["Gary Thompson"]},
{"text": "There's more going on here than classist derision, and the filmmaker uses her footage to try to sort out her feelings.", "is_fresh": 1, "author": ["Ty Burr"]},
{"text": "The Queen of Versailles combines the voyeuristic thrills of reality TV with the soul-revealing artistry of great portraiture and the head-shaking revelations of solid investigative reporting.", "is_fresh": 1, "author": ["Steven Rea"]},
{"text": "\"The Queen of Versailles\" is beautifully constructed and frequently uproarious.", "is_fresh": 1, "author": ["Colin Covert"]},
{"text": "It transforms from a mocking portrait of exorbitance into a sympathetic depiction of a family struggling with their own version of what most of us have gone through.", "is_fresh": 1, "author": ["Robert Levin"]},
{"text": "The paradox of wealth without refinement remains unexamined but emerges as a metaphor for the American Dream itself.", "is_fresh": 1, "author": ["Richard Brody"]},
{"text": "Extravagant yet surprisingly compassionate, it's a unique chronicle of the collapse of the real estate market.", "is_fresh": 1, "author": ["Susan Granger"]},
{"text": "Compulsively watchable from start to finish, The Queen of Versailles chips away at the aspirational fantasy that drives those Bravo shows, slowly, steadily allowing reality to slip through the cracks.", "is_fresh": 1, "author": ["Ethan Alter"]},
{"text": "Ultra-rich face financial crisis in teen-friendly docu.", "is_fresh": 1, "author": ["S. Jhoanna Robledo"]},
{"text": "A rise-and-fall story that will have you laughing and shaking your head - in pity, disgust and, occasionally, outrage - at the very same time.", "is_fresh": 1, "author": ["Marshall Fine"]},
{"text": "Dig into your popcorn, and get ready for some snide schadenfreude.", "is_fresh": 1, "author": ["Stephen Whitty"]},
{"text": "The Siegels make the Kardashians and Donald Trump look like tasteful pikers when it comes to egregiously conspicuous consumption, sheer hubris and utter refusal to take responsibility for their actions.", "is_fresh": 1, "author": ["Lou Lumenick"]},
{"text": "Director Lauren Greenfield finds the pathos in an ultra-wealthy couple who willingly mortgaged their own future.", "is_fresh": 1, "author": ["Elizabeth Weitzman"]},
{"text": "Director Lauren Greenfield's timing turned out to be extraordinarily fortuitous in its depiction of how the mighty also fall, in the wake of the 2008 financial crisis.", "is_fresh": 1, "author": ["Claudia Puig"]},
{"text": "The Queen of Versailles is the lucky case of a documentary where life intervenes and deepens the film in completely unexpected ways.", "is_fresh": 1, "author": ["Scott Tobias"]},
{"text": "[An] excellent and unexpectedly nuanced documentary...", "is_fresh": 1, "author": ["Sheri Linden"]},
{"text": "It makes sense to find the director unwilling to walk away from such as a fascinating couple, resulting in a superb documentary and a powerful statement on the ugliness and delusion of greed.", "is_fresh": 1, "author": ["Brian Orndorf"]},
{"text": "It develops an almost mournful empathy for its subjects as they fall from great heights to merely impressive ones.", "is_fresh": 1, "author": ["Alison Willmore"]},
{"text": "Captures the tone of the times with a clear, surprisingly compassionate eye.", "is_fresh": 1, "author": ["A.O. Scott"]},
{"text": "I feel contempt for my contempt for these people. Whether that's my problem or the film's, I'm not entirely sure, but I'm leaning toward blaming Greenfield.", "is_fresh": 0, "author": ["Mary F. Pols"]},
{"text": "These are not horrible people, just ones who flung themselves enthusiastically toward the American dream as so many do.", "is_fresh": 1, "author": ["Christy Lemire"]},
{"text": "Documentarian Lauren Greenfield caught lightning in a bottle with this one.", "is_fresh": 1, "author": ["Kirk Honeycutt"]},
{"text": "With every shopping spree, every limo ride to McDonald's, Mrs. Siegel underlines the cliche that money cannot buy you taste. Or class. ", "is_fresh": 1, "author": ["Roger Moore"]},
{"text": "Every cutaway to their McDonald's takeout bags or fluffy white puppies (there must be a dozen of them) emphasizes a bedrock tackiness that will convert your audience into a snorting gang of Marxists-at least for a while.", "is_fresh": 0, "author": ["Joshua Rothkopf"]},
{"text": "The film hardly feels hastily pasted together: Greenfield filmed long enough to document physical changes in her subjects.", "is_fresh": 1, "author": ["Karina Longworth"]},
{"text": "Finds a way to incorporate the harsh realities [of the economic crash] into a movie that's genuinely funny and entertaining, which is quite an achievement in itself.", "is_fresh": 1, "author": ["Edward Douglas"]},
{"text": "Lauren Greenfield's film evolves from an ode to entitled obliviousness to a more evenhanded character study, tracing the fault lines that develop within the Siegel family.", "is_fresh": 1, "author": ["Budd Wilkins"]},
{"text": "A stunning look at what happens to a rich person who gets greedy.", "is_fresh": 1, "author": ["Harvey S. Karten"]},
{"text": "Through a focused chronicle of one marriage, the director conveys both the seductive and ugly aspects of unbridled ambition and American capitalism.", "is_fresh": 1, "author": ["Emanuel Levy"]},
{"text": "[VIDEO ESSAY] There's quiet satisfaction is watching the financial collapse of the Florida billionaire self-professedly \"personally\" responsible for George W. Bush's \"illegal\" takeover of the White House in 2000. ", "is_fresh": 1, "author": ["Cole Smithey"]},
{"text": "It's like a champagne bath laced with arsenic.", "is_fresh": 1, "author": ["Owen Gleiberman"]},
{"text": "For Greenfield, the Siegels are a brilliant metaphor for everything farkakte about the U.S. economy and the culture that shaped it.", "is_fresh": 1, "author": ["David Edelstein"]},
{"text": "Let them eat cake!", "is_fresh": 1, "author": ["Jennifer Merin"]},
{"text": "A fascinating, infuriating and poignant documentary.", "is_fresh": 1, "author": ["Fred Topel"]},
{"text": "Porn without penetration is sometimes how this doc impacts in its candid, unapologetic look at a once white-bread couple who vault to billionaire status and fall hard when the 2008 financial crisis hits.", "is_fresh": 1, "author": ["Doris Toumarkine"]},
{"text": "This honesty and heart is what makes The Queen of Versailles so compelling.", "is_fresh": 1, "author": ["Allison Loring"]},
{"text": "Turns the \"Real Housewives\" formula upside down and it becomes possibly the least tragic epic tragedy ever constructed.\"", "is_fresh": 1, "author": ["Dan Fienberg"]},
{"text": "A fascinating and sobering documentary that tracks the unexpected impact of the financial crisis on one of America's richest families.", "is_fresh": 1, "author": ["Matthew Turner"]},
{"text": "An outrageous, despicable, guiltily hilarious and appropriately superficial good time.", "is_fresh": 1, "author": ["Christopher Campbell"]},
{"text": "Illuminating, oddly hilarious, ceaselessly watchable.", "is_fresh": 1, "author": ["Kate Erbland"]},
{"text": "Greenfield's fly on the wall view of obscene wealth punctured like a toy balloon is as current as a blog or a headline.", "is_fresh": 1, "author": ["Ray Greene"]},
{"text": "This timely and involving documentary elicits both sympathy and schadenfreude.", "is_fresh": 1, "author": ["Justin Chang"]},
{"text": "If the film intends to show that any of the Siegels have gained any wisdom from hardship, we don't see it.", "is_fresh": 0, "author": ["David D'Arcy"]},
{"text": "While in some ways the collapsing of the Siegels' wealth may seem like commeuppance for their excessiveness, Greenfield has painted such a human portrait that Jackie, in particular, remains sympathetic, even when she is adding to her own tragedy. ", "is_fresh": 1, "author": ["Amber Wilkinson"]},
{"text": "Like a Theodore Dreiser novel for our time, infused with the vivid, vulgar spirit of reality TV. It often had the sold-out Eccles Center howling, but also has elements of profound tragedy and allegory.", "is_fresh": 1, "author": ["Andrew O'Hehir"]},
{"text": "The ironies pile up. But there is some pathos here too.", "is_fresh": 1, "author": ["Noel Murray"]},
{"text": "The Queen of Versailles will prompt loathing not only among the so-called 99 Percent, but among those in the top 1 percent who would like someone more sane to represent them on camera.", "is_fresh": 0, "author": ["John DeFore"]}
]