[
{"reviews_count": "117", "title": "The Armstrong Lie", "avg_audience_rating": "3.7", "rotten_count": "21", "tomatometer": "82", "audience_score": "76", "avg_critic_rating": "6.9", "fresh_count": "96", "user_ratings_count": "5,895"},
{"text": "The tale is fascinating, not just for cycling enthusiasts, but connoisseurs of the human condition.", "is_fresh": 1, "author": ["Kate Muir"]},
{"text": "This film, if not a whitewash, has a touch of the fanboy about it.", "is_fresh": 0, "author": ["Katy Hayes"]},
{"text": "Perhaps it would have been better if Gibney had told us something we didn't already know.", "is_fresh": 0, "author": ["Stephen Schaefer"]},
{"text": "Rigorously researched yet repetitive, it never quite hits the button.", "is_fresh": 1, "author": ["Larushka Ivan-Zadeh"]},
{"text": "The Armstrong Lie has several insightful moments but is most interesting in how it shows us a filmmaker usually committed to finding the absolute truth in his subjects, suffering when he comes across a story where lies and truth constantly intertwine.", "is_fresh": 1, "author": ["Richard Haridy"]},
{"text": "( ... ) a riveting, insider's view of the unravelling of one of the most extraordinary stories in the history of sports. Alex Gibney's two-hour movie races by in what feels like minutes.", "is_fresh": 1, "author": ["Graham Young"]},
{"text": "The Armstrong Lie is a very good sports documentary, but doesn't reach far enough to become one of the best nonfiction films of the year.", "is_fresh": 1, "author": ["Daniel Walber"]},
{"text": "[A]nother brilliant documentary from the ever-incisive Alex Gibney... not about cycling but the power of celebrity...", "is_fresh": 1, "author": ["MaryAnn Johanson"]},
{"text": "The lie is the least of it in Gibney's personal documentary", "is_fresh": 1, "author": ["Marty Mapes"]},
{"text": "INCISIVE as it is infuriating, The Armstrong Lie chronicles the greatest fraud ever perpetuated in the history of organised sport.", "is_fresh": 1, "author": ["Leigh Paatsch"]},
{"text": "It's an open wound of a documentary, sure, yet there is a pervasive sense Armstrong is using it as another means to redeem his public reputation...You might well find yourself sympathising with him more than reason would otherwise allow. ", "is_fresh": 1, "author": ["Jim Schembri"]},
{"text": "The flow is constantly punctured by Gibney's interjections, as if we were hearing it from a jilted ex.", "is_fresh": 0, "author": ["Monica Castillo"]},
{"text": "The Armstrong Lie gives great insight into a champion sportsman whose position at the top of his game meant he thought he could get away with anything.", "is_fresh": 1, "author": ["Margaret Pomeranz"]},
{"text": "It's a meticulous examination of a particularly ruthless brand of power game-playing.", "is_fresh": 1, "author": ["Sandra Hall"]},
{"text": "Gibney's gripping documentary is a breathtaking expose, not only of cyclist Lance Armstrong as a drug cheat, but one that explores deep into the culture of the sport of cycling and its intrinsic doping problems", "is_fresh": 1, "author": ["Louise Keller"]},
{"text": "It's a compelling story, though it doesn't really sustain a two-hour plus running time.", "is_fresh": 0, "author": ["David Stratton"]},
{"text": "The Armstrong Lie presents an interesting perspective on him, and on his role in the science of doping.", "is_fresh": 1, "author": ["Philippa Hawker"]},
{"text": "The Armstrong Lie is a fascinating portrait of a man in denial, told from the firsthand perspective of Gibney, who himself was duped at a certain level by Armstrong's own confidence and charm. ", "is_fresh": 1, "author": ["Eric Melin"]},
{"text": "We see an athlete for whom winning came before any sense of sportsmanship, catalysed by a cognitive dissonance that saw him come to believe his own lies.", "is_fresh": 1, "author": ["Hilary A White"]},
{"text": "It's entirely possible you can't get to the heart of Armstrong because there is no heart, but I'd like to have seen someone have a go.", "is_fresh": 0, "author": ["Deborah Ross"]},
{"text": "As for the historical record of [Armstrong's] legacy, Gibney's doc makes a good first draft.", "is_fresh": 1, "author": ["Jonathan Kiefer"]},
{"text": "Armstrong comes across as both admirably resilient and frighteningly selfish, his treatment of those who crossed him (teammates with whom he doped, for example) tellingly callous, his refusal to be beaten bizarrely engaging.", "is_fresh": 1, "author": ["Mark Kermode"]},
{"text": "Power must never be mistaken for virtue, warns Gibney, and self-regulation doesn't work. Even the best of us need to be kept an eye on.", "is_fresh": 1, "author": ["Charlotte O'Sullivan"]},
{"text": "This biographical documentary about disgraced cyclist Lance Armstrong feels eerily gentle compared to filmmaker Alex Gibney's recent films, the WikiLeaks doc We Steal Secrets and the Catholic priest expose Mea Maxima Culpa.", "is_fresh": 1, "author": ["Rich Cline"]},
{"text": "Forensic detail is, one supposes, a little less easy to flog than damp-eyed talking heads. But one can't help but feel this film leaves an even more interesting story untold.", "is_fresh": 1, "author": ["Donald Clarke"]},
{"text": "A worthy effort but Armstrong remains a tough nut to crack.", "is_fresh": 1, "author": ["Emma Simmonds"]},
{"text": "The least convincing Alex Gibney documentary I have seen.", "is_fresh": 1, "author": ["Nigel Andrews"]},
{"text": "A striking but flawed documentary ...", "is_fresh": 1, "author": ["Peter Bradshaw"]},
{"text": "A fascinating portrait of both Armstrong himself and the mechanics of the lie he maintained throughout his seven Tour de France victories ...", "is_fresh": 1, "author": ["Matthew Turner"]},
{"text": "Ultimately, it's not just Armstrong that emerges as the villain of the piece - the whole sport looks pretty grubby too.", "is_fresh": 1, "author": ["Tim Evans"]},
{"text": "Alex Gibney delivers another smart and enthralling documentary ...", "is_fresh": 1, "author": ["Gail Tolley"]},
{"text": "The Armstrong Lie is a lean, searing and detailed portrait of human frailty that requires no prior interest in either Armstrong or his sport.", "is_fresh": 1, "author": ["Emma Dibdin"]},
{"text": "What will take your breath away is how viciously Armstrong crushed and humiliated anyone who dared to make allegations against him,", "is_fresh": 1, "author": ["Cath Clarke"]},
{"text": "Berg is doubtless sincere about paying tribute to Luttrell and his comrades - you just wish his salute wasn't so jingoistic and clich\u00e9d.", "is_fresh": 0, "author": ["Siobhan Synnot"]},
{"text": "A documentary of two halves, Gibney's character study of Armstrong is tough and forensic.", "is_fresh": 1, "author": ["David Hughes"]},
{"text": "A master docu-maker gets the inside dope on a master dissembler. It requires stamina, but its charismatic subject exerts genuine magnetism.", "is_fresh": 1, "author": ["Kevin Harley"]},
{"text": "Much to the chagrin of Oscar-winning director Alex Gibney, the title of his latest documentary is hardly a revelation.", "is_fresh": 0, "author": ["Todd Jorgenson"]},
{"text": "Gibney finds himself between mythmakers and mythbusters", "is_fresh": 1, "author": ["Robert Denerstein"]},
{"text": "While never dull, The Armstrong Lie is too long at 122 minutes, with much of the material feeling repetitive and far from illuminating.", "is_fresh": 0, "author": ["Matt Brunson"]},
{"text": "Faced with an opponent desperately clinging to the last vestiges of his reputation, Gibney uncharacteristically fails to fully pull back the curtain.", "is_fresh": 0, "author": ["Curtis Woloschuk"]},
{"text": "Lie emerges as less an indictment of our celebrity-obsessed culture (Armstrong's case is too specific) than a portrait of an incredibly demanding sport.", "is_fresh": 1, "author": ["Carla Meyer"]},
{"text": "An admirably comprehensive film about a frustratingly hard-to-pin-down man, and a postmortem to one of the most heartbreaking betrayals of fans that the sports world has seen.", "is_fresh": 1, "author": ["Mike Scott"]},
{"text": "Gibney tries in vain to get to the heart of the story. Probing questions get answered, but most viewers won't be satisfied.", "is_fresh": 0, "author": ["Jonathan W. Hickman"]},
{"text": "Even those who believe they couldn't think less of the disgraced Tour de France-winning cyclist will regard \"The Armstrong Lie\" as the final nail in the coffin he built himself.", "is_fresh": 1, "author": ["Duane Dudek"]},
{"text": "While the movie includes enough details about the physiology, strategy and marketing of bike racing to satisfy some of our curiosity, other questions remain unanswered.", "is_fresh": 1, "author": ["Joe Williams"]},
{"text": "\"The Armstrong Lie\" feels like wheel-spinning, outraged that Armstrong lied not only to millions of people but to Gibney and then not pushing the evidence to the finish line.", "is_fresh": 0, "author": ["Jeff Baker"]},
{"text": "Suggests, not as forcefully as it should, that the real addicts here are not the cyclists but the sports industry professionals, sponsors, fans and other look-the-other-way enablers...", "is_fresh": 1, "author": ["John Beifuss"]},
{"text": "Gibney does a good job of relating [the] viciousness to Armstrong's powerful will to win - or at least his will to beat people.", "is_fresh": 1, "author": ["David Berry"]},
{"text": "The tale has plenty of resonance off the race course. As sportswriter Dan Coyle says in the film, \"It's not a story about doping, it's a story about power.\"", "is_fresh": 1, "author": ["Colin Covert"]},
{"text": "This documentary about one of the best deceivers in modern history feels like a heavyweight match of wits before it even begins.", "is_fresh": 1, "author": ["Katherine Monk"]},
{"text": "Even if you're not a big fan of bicycling or of Armstrong, it's riveting.", "is_fresh": 1, "author": ["Chris Hewitt (St. Paul)"]},
{"text": "While it could be dismissed as basic schadenfreude, The Armstrong Lie cuts deeper, revealing a huckster who honestly believed his own fiction. ", "is_fresh": 1, "author": ["Brian Orndorf"]},
{"text": "... had Armstrong never been accused of doping would Gibney's film still have its original title? ", "is_fresh": 1, "author": ["Matt Kelemen"]},
{"text": "\"The Armstrong Lie\" simply offers up the Armstrong lie. Sorry, but we've all already heard that one.", "is_fresh": 0, "author": ["Tom Long"]},
{"text": "The Armstrong Lie is eye-opening and myth-shattering and more than a little depressing.", "is_fresh": 1, "author": ["Steven Rea"]},
{"text": "Gibney gives the truth as full an airing as seems humanly possible, given that the subject is a world-class liar.", "is_fresh": 1, "author": ["Peter Howell"]},
{"text": "A well made film about one messed up dude. ", "is_fresh": 1, "author": ["Bob Grimm"]},
{"text": "As a comprehensive look at the Armstrong affair, as well as an often complex examination of power dynamics in professional sports, it's fascinating and highly watchable.", "is_fresh": 1, "author": ["Josh Bell"]},
{"text": "Only when it gets personal does The Armstrong Lie pick up speed.", "is_fresh": 0, "author": ["Kent Turner"]},
{"text": "The bitterest parts of Gibney's movie are the interviews with the former teammates who were caught doping, and whom Armstrong, when he was still officially clean, viciously turned on.", "is_fresh": 1, "author": ["David Denby"]},
{"text": "Gibney took a film that was supposed to be about the resurrection of a sports star and turned it into an epic indictment of one man and an entire culture. The lesson is obvious: Never throw anything out.", "is_fresh": 1, "author": ["John Anderson"]},
{"text": "While there are no new explosive revelations in The Armstrong Lie - and, at just over two hours, it's a touch too long - it's still a mesmerizing cautionary tale.", "is_fresh": 1, "author": ["Cary Darling"]},
{"text": "The movie captures a very modern approach to public scandal: Confession without remorse.", "is_fresh": 1, "author": ["Ty Burr"]},
{"text": "There's a palpable sense of sadness, more than outrage or betrayal, to the film.", "is_fresh": 1, "author": ["Michael O'Sullivan"]},
{"text": "This scalding documentary follows along the lines of classic Greek tragedy,revealing how the fear of humiliation is one of the greatest motivators in human behavior. ", "is_fresh": 1, "author": ["Susan Granger"]},
{"text": "To look at Armstrong as he semi-justifies his decisions is to see the definition of arrogance. He defies you to challenge him, as he has done for so long.", "is_fresh": 1, "author": ["Bill Goodykoontz"]},
{"text": "A retread...This is the first Gibney film that feels superfluous.", "is_fresh": 0, "author": ["Frank Swietek"]},
{"text": "Works best in its simplest form: when Lance Armstrong directly addresses the camera, both in 2009 and in 2013.", "is_fresh": 1, "author": ["Robert Levin"]},
{"text": "Gibney frames his film as being somewhat catch as catch can, and it is...educates about the details of doping, the 'moral relativism' so pervasive in the age of juiced athletics, and the willful ignorance that attends it.", "is_fresh": 1, "author": ["Peter Canavese"]},
{"text": "You'd have to start looking into ancient Greek tragedy to top it as a showcase for pure, unadulterated hubris. That's one of the things that makes The Armstrong Lie, which has more on its mind than the mere debunking of a tarnished hero, so worthwhile.", "is_fresh": 1, "author": ["Bruce Ingram"]},
{"text": "While the film is frequently interesting, Gibney has a hard time addressing the elephant in the locker room.", "is_fresh": 0, "author": ["Anders Wright"]},
{"text": "None of the athlete's words really answer Gibney's central question. Perhaps we're just supposed to see it in his eyes.", "is_fresh": 1, "author": ["Peter Hartlaub"]},
{"text": "It's good that [documentarian Alex] Gibney doesn't turn [Lance] Armstrong into a martyr, but that's mostly because he doesn't have anything to say.", "is_fresh": 0, "author": ["Matt Prigge"]},
{"text": "The Armstrong Lie is one of the best batches of lemonade ever made from a severely bruised lemon.", "is_fresh": 1, "author": ["Michael Sragow"]},
{"text": "Gibney assembles a damning case against the athlete, but what distinguishes this from other accounts of the scandal is the filmmaker's admission that, while shooting a documentary about Armstrong's 2009 comeback, he smothered his own innate skepticism.", "is_fresh": 1, "author": ["J. R. Jones"]},
{"text": "To mixed success, \"The Armstrong Lie\" allows Gibney generous time and space to explain what sort of movie he started out to make and what kind of confessional he ended up making.", "is_fresh": 1, "author": ["Michael Phillips"]},
{"text": "In some ways, the most powerful lies are the ones we tell ourselves.", "is_fresh": 1, "author": ["Matt Pais"]},
{"text": "The prime artifact of [Gibney's] film is in capturing Armstrong's persona, a man...who we see time and time again lie through his teeth with what appears to be a clear conscience.", "is_fresh": 1, "author": ["Laura Clifford"]},
{"text": "Beautifully shot and edited, even after you know the horrible things Armstrong did to good people who only wanted the truth to come out, you can't help but realize how charming he is. I hated to see it end.", "is_fresh": 1, "author": ["Tony Medley"]},
{"text": "For all the detail, very little will come across as new to followers of the scandal over the years.", "is_fresh": 0, "author": ["Marjorie Baumgarten"]},
{"text": "The filmmaker has experienced the lie firsthand on multiple occasions, imbuing the project with the ire of the personal frustrations experienced by many of Armstrong's fans. ", "is_fresh": 1, "author": ["Eric Kohn"]},
{"text": "Gibney's film paints a picture of an overly ambitious man whose supreme, almost clinical, self-confidence severed his connection to reality and truth.", "is_fresh": 1, "author": ["Ali Arikan"]},
{"text": "\"The Armstrong Lie\" is truly singular, a tale of ambition that's almost mad enough to be mythic.", "is_fresh": 1, "author": ["Joe Morgenstern"]},
{"text": "Mr. Armstrong, for all his gifts and hard work, emerges as a hollow man, corrupted by glory, protecting what remains of his reputation.", "is_fresh": 1, "author": ["Stephen Holden"]},
{"text": "Overall, Gibney does a fine job documenting the timeless nature of Armstrong's fall from grace.", "is_fresh": 1, "author": ["Sara Stewart"]},
{"text": "The Armstrong Lie is rarely boring, and it's beautifully shot by French-born cinematographer Maryse Alberti. But the film is more illuminating about the corrupt sports industry than it is about its subject.", "is_fresh": 1, "author": ["Ella Taylor"]},
{"text": "Lance Armstrong's next career could be sleazy politician or used car salesman. He lies with such conviction it's terrifying.", "is_fresh": 1, "author": ["Claudia Puig"]},
{"text": "'The Armstrong Lie' gives a good enough summary of the sport and its shenanigans (and by implication those of others.", "is_fresh": 1, "author": ["Donald J. Levit"]},
{"text": "The movie rambles at two-plus hours, but the provocation never stops.", "is_fresh": 1, "author": ["Peter Travers"]},
{"text": "For anyone who's not sick of hearing about the ongoing Armstrong saga (he's still facing millions of dollars in lawsuits), it's a well-executed synopsis of a whopper of a fall-from-grace story.", "is_fresh": 1, "author": ["Pam LeBlanc"]},
{"text": "The film offers a definite sting as Armstrong's former teammates dish on who saw what and when.", "is_fresh": 1, "author": ["Ben Kenigsberg"]},
{"text": "What Gibney offers is uniquely cinematic: an emotional connection to a beguiling man, who gives you reason both to respect and revile him.", "is_fresh": 1, "author": ["Sarah Sluis"]},
{"text": "Strong stuff, a film that scalds its subject - who still doesn't seem to understand what he's done that's pissed so many people off.", "is_fresh": 1, "author": ["Marshall Fine"]},
{"text": "A film that's supposedly about a disgraced bicycle racer becomes a film about why we're so eager to believe things - or invent things - that are evidently untrue, or at least unlikely.", "is_fresh": 1, "author": ["Andrew O'Hehir"]},
{"text": "It's a fascinating film that points the finger at a charismatic master of deception - as well as our willingness to buy his deceit.", "is_fresh": 1, "author": ["Chris Nashawaty"]},
{"text": "Gibney wants to make a point about how so many people were eager to embrace that story, but counting himself among the duped seems fishy. It's his own false narrative, useful for framing a feature-length documentary.", "is_fresh": 0, "author": ["Scott Tobias"]},
{"text": "This smart documentary suggests that Armstrong was arresting not despite his monstrous ego and competitiveness but because of those factors.", "is_fresh": 1, "author": ["Tim Grierson"]},
{"text": "As thoroughly damning as it is, this deserved beat-down feels a bit late to the Lance Armstrong lynching. ", "is_fresh": 1, "author": ["Roger Moore"]},
{"text": "Given Armstrong's squirminess on the couch, you'll wish this profile had traded a portion of its deep background for a little in-the-moment boldness.", "is_fresh": 0, "author": ["Joshua Rothkopf"]},
{"text": "To use a phrase from the film, The Armstrong Lie is a \"myth-buster.\" It's wholly necessary, brilliantly executed, and a complete bummer.", "is_fresh": 1, "author": ["Chuck Wilson"]},
{"text": "Anyone holding a strong opinion about Lance Armstrong's dramatic rise to the top of competitive cycling and sour fall from grace should see Alex Gibney's from-the-horse's-mouth documentary. ", "is_fresh": 1, "author": ["Cole Smithey"]},
{"text": "The film can't entirely avoid the feeling of a less-productive score-settling hit piece, as if Alex Gibney was making this film merely to stick it to the subject that screwed him big time.", "is_fresh": 0, "author": ["Kenji Fujishima"]},
{"text": "An unforgiving, unflattering portrait of a fallen athlete and inspiration.", "is_fresh": 1, "author": ["Sandy Cohen"]},
{"text": "As an embarrassingly obvious liar, I am constantly fascinated by how others do it, and Gibney gives you many opportunities to study a master.", "is_fresh": 1, "author": ["David Edelstein"]},
{"text": "The film seems complicit in his \"don't hate the player, hate the game\" attitude about doping which fails to justify his own metastasized dishonesty, and especially the vindictiveness with which he destroyed the lives and livelihoods of his opponents.", "is_fresh": 0, "author": ["Todd Gilchrist"]},
{"text": "Gibney may not be as biting as in his previous work ... The man [Armstrong] still feels like an enigma.", "is_fresh": 1, "author": ["Lisa Giles-Keddie"]},
{"text": "The Armstrong Lie isn't as comprehensive or as confident in its lid-blowing as Gibney's previous work, but nevertheless this is a compelling study of an athlete's desire to win.", "is_fresh": 1, "author": ["Michael Leader"]},
{"text": "The Armstrong Lie is always compelling, and Gibney deserves credit for putting his own naivet\u00e9 up on the screen for the world to see.", "is_fresh": 1, "author": ["Ashley Clark"]},
{"text": "Engaging, punchy documentary.", "is_fresh": 1, "author": ["Lee Marshall"]},
{"text": "A quite absorbing but never riveting or revelatory overview of Armstrong's career and testy personality.", "is_fresh": 1, "author": ["Boyd van Hoeij"]},
{"text": "Alex Gibney delivers not just a detailed, full-access account of his subject, in all his defiance, hubris and tentative self-reckoning, but also a layered inquiry into the culture of competitiveness, celebrity, moral relativism and hypocrisy.", "is_fresh": 1, "author": ["Justin Chang"]},
{"text": "It ... succeeds as a probing look into the mechanics of an epic lie, and because of the emotion at its heart.", "is_fresh": 1, "author": ["Chris Michael"]},
{"text": "By embracing contradictions and examining the making of a lie, The Armstrong Lie demonstrates how elusive the truth can be even when the facts are known about a widely recognized figure.", "is_fresh": 1, "author": ["Darren Ruecker"]},
{"text": "At once one of Gibney's most humanly compelling works, and one of his more rhetorically inconsistent.", "is_fresh": 1, "author": ["Guy Lodge"]},
{"text": "If you followed the scandal closely over the years, it'll likely feel like going over old ground....for all its flaws, the film offers as compelling and fair a summary of the case and the man for those less well-versed in the tale...", "is_fresh": 1, "author": ["Oliver Lyttelton"]},
{"text": "Gibney's own conflicted feelings toward Armstrong -- awe and admiration mingled with a true fan's fury at being duped -- make for a compellingly nuanced depiction.", "is_fresh": 1, "author": ["Jon Frosch"]},
{"text": "Where Gibney's film succeeds is in the way it lays bare the theatre of the Tour de France to mug bystanders like me who assumed it was a straightforward cycling competition.", "is_fresh": 1, "author": ["Robbie Collin"]}
]