[
{"reviews_count": "71", "title": "The Usual Suspects", "avg_audience_rating": "4.2", "rotten_count": "8", "tomatometer": "89", "audience_score": "96", "avg_critic_rating": "7.8", "fresh_count": "63", "user_ratings_count": "434,362"},
{"text": "A movie where the getting-there (and the getting-away-with-it) is everything.", "is_fresh": 1, "author": ["Leigh Paatsch"]},
{"text": "Singer, like Tarantino, is less into mining new film themes than in re-inventing old ones. And the way he does so shows full well that there is still a bit of life in the old mob movie yet.", "is_fresh": 1, "author": ["Dan Webster"]},
{"text": "It stands up brilliantly to repeat viewing, to the extent that you may never fully solve the riddle. But don't let that put you off; it's the ultimate whodunit.", "is_fresh": 1, "author": []},
{"text": "It's a film that demands to be watched again and again -- this is good old-fashioned pulp fiction told in the slickest 1990s style.", "is_fresh": 1, "author": ["David Parkinson"]},
{"text": "Give director Bryan Singer credit for providing a plot that is not resolved by an exchange of gunfire, but don't expect the movie's glib punchline to stay with you for very long.", "is_fresh": 0, "author": ["Gary Thompson"]},
{"text": "An imaginative, entertaining crime mystery with plenty of nerve and vigor.", "is_fresh": 1, "author": ["Doug Thomas"]},
{"text": "Metaphysical mumbo-jumbo? Of course -- but the thrill of The Usual Suspects is that, after years of movie demythologising, it re-mythologises the crime movie.", "is_fresh": 1, "author": ["Quentin Curtis"]},
{"text": "If the pleasures of The Usual Suspects are the more superficial ones of ingenuity and style, those are abundantly available. The twists and turns of the plot are an awful lot of fun, while the ending is genuinely satisfying and surprising.", "is_fresh": 1, "author": ["Jay Boyar"]},
{"text": "The most attuned devotee of crime mystery will be hard-pressed to guess the outcome of this stylish thriller. It is riddled with machine-gun dialogue and kinky implications at every turn.", "is_fresh": 1, "author": ["Roger Hurlburt"]},
{"text": "In a season of fat blockbusters, a picture as brainy, bitter, and compact as this one comes as a shock and a treat.", "is_fresh": 1, "author": ["Anthony Lane"]},
{"text": "The then 27-year-old Bryan Singer eclipsed most other '90s crime movies with this brilliantly slippery, cerebral thriller.", "is_fresh": 1, "author": []},
{"text": "It's a nerve-shredding suspense movie about corruption, a bravura actor's show full of deliciously twisted cops and robbers, and a complex riddle packed with unexpected turns.", "is_fresh": 1, "author": ["Michael Wilmington"]},
{"text": "It may ultimately make sense; no one could tell without at least four or five viewings. What is totally commanding, however, is the level of ensemble acting [and] the adroitness of the storytelling.", "is_fresh": 1, "author": ["Stephen Hunter"]},
{"text": "A little red herring is one thing. But don't smack me in the face with it, all right?", "is_fresh": 0, "author": ["Tom Gliatto"]},
{"text": "For many true movie fiends, noir is the key American movie type, and the most fun when it's done right. The Usual Suspects is done right.", "is_fresh": 1, "author": ["Jack Kroll"]},
{"text": "A masterpiece of the modern film noir genre, a terrific performance piece for everyone involved and an absolutely outstanding directorial effort.", "is_fresh": 1, "author": ["R.L. Shaffer"]},
{"text": "While it's fair to call The Usual Suspects a gimmick in search of a movie, one could say something similar of, say, an Agatha Christie mystery. [Blu-ray]", "is_fresh": 1, "author": ["Peter Canavese"]},
{"text": "Anything but usual, Singer's movie is pretty damn near untouchable. Next to this, most other crime films feel petty.", "is_fresh": 1, "author": []},
{"text": "Screenwriter Christopher McQuarrie's tough-guy dialogue and Bryan Singer's crisp direction give the ensemble cast every opportunity to shine, and they do.", "is_fresh": 1, "author": []},
{"text": "I didn't believe this story for a minute, even in movie terms -- though it's less offensive than a piece of junk like Apt Pupil, Singer's subsequent feature.", "is_fresh": 0, "author": ["Jonathan Rosenbaum"]},
{"text": "The Usual Suspects expertly combines the complicated narrative structure of D.O.A. with the quirky, hard-boiled characters of Pickup on South Street.", "is_fresh": 1, "author": ["Mark Harris"]},
{"text": "Bryan Singer's poker face is worthless at best.", "is_fresh": 0, "author": ["Rob Humanick"]},
{"text": "A terrific cast of exciting actors socks over this absorbingly complicated yarn that's been spun in seductively slick fashion by director Bryan Singer.", "is_fresh": 1, "author": ["Todd McCarthy"]},
{"text": "Stylishly made but narratively hollow and dramatically derivative, Bryan Singer's neo-noir puzzle owes its existence to Tarantino. ", "is_fresh": 1, "author": ["Emanuel Levy"]},
{"text": "To many young film buffs, this is where film history begins and ends.", "is_fresh": 1, "author": ["Jeffrey M. Anderson"]},
{"text": "McQuarrie's script is a scurrying lizard of a yarn, scaly, swift and difficult to follow.", "is_fresh": 1, "author": ["Phil Villarreal"]},
{"text": "Singer creates a classy, thought-provoking mystery that is pleasingly old-fashioned and absolutely modern in the sly, slightly self-conscious play it makes with myth and methods of storytelling.", "is_fresh": 1, "author": ["Geoff Andrew"]},
{"text": "If ever a movie got extra points for a strong, unexpected conclusion it's The Usual Suspects.", "is_fresh": 1, "author": ["Chuck O'Leary"]},
{"text": "Not to be believed for a NYC second.", "is_fresh": 1, "author": ["Dennis Schwartz"]},
{"text": "No one is out of place or out of line here, and that is what makes the final payoff so sweet.", "is_fresh": 1, "author": ["David Medsker"]},
{"text": "One of the most ingenious, unpredictable films in recent memory... and one of the biggest cheats.", "is_fresh": 0, "author": ["Michael Dequina"]},
{"text": "It's a real dazzler -- a neo-noir hybrid of a heist and a mystery film that sucks you into a dark world where nothing is what it seems.", "is_fresh": 1, "author": ["Leonard Schwarz"]},
{"text": "This movie finally isn't anything more than an intricate feat of gamesmanship, but it's still quite something to see.", "is_fresh": 1, "author": ["Janet Maslin"]},
{"text": "It is a complex story, but I found it fun.", "is_fresh": 1, "author": ["Robert Roten"]},
{"text": "Fantastic ensemble crime thriller with the mystique of an underworld urban legend. A Breakout project for both Benecio Del Toro and Director Bryan Singer.", "is_fresh": 1, "author": ["Brian Mckay"]},
{"text": "What a cast, what a script, what a movie. We need some more of these.", "is_fresh": 1, "author": ["Widgett Walls"]},
{"text": "Good, but...movies don't come more overrated.", "is_fresh": 1, "author": ["Ken Hanke"]},
{"text": "Too predictable. Still enthralling enough to watch (at least twice).", "is_fresh": 1, "author": ["Alex Sandell"]},
{"text": "The Usual Suspects loses some of its impact with subsequent viewings, but it remains a superior picture with much to enjoy beyond its unforgettable ending.", "is_fresh": 1, "author": ["Kevin N. Laforest"]},
{"text": "In many ways, the viewers are the mark in this audacious con game... and its brilliance is all the more impressive for it.", "is_fresh": 1, "author": ["Rob Vaux"]},
{"text": "Intriguing well made crime drama with a nice twist in the end", "is_fresh": 1, "author": ["Stefan Birgir Stefansson"]},
{"text": "A brilliantly inventive and suspenseful crime drama that is destined to become a classic.", "is_fresh": 1, "author": ["Frederic and Mary Ann Brussat"]},
{"text": "The Usual Suspects has always kind of sat there, hoping that you'll love it for its twist ending.", "is_fresh": 0, "author": ["Ed Gonzalez"]},
{"text": "It's not often that a movie so intriguing comes out of Hollywood, but when one does, it should be watched.", "is_fresh": 1, "author": ["David Perini"]},
{"text": "The Usual Suspects is the freshest, funniest and scariest crime thriller to come along since Pulp Fiction.", "is_fresh": 1, "author": ["Peter Travers"]},
{"text": "...an entertaining crime drama; an intricately conceived puzzle play; a fragment of gangster mythology; a parody of cops-and-robbers films; an outright black comedy;", "is_fresh": 1, "author": ["John J. Puccio"]},
{"text": "But like a tale from the Arabian Nights, told for the sheer pleasure of storytelling, this elegant puzzle not only enjoys showing off, it also has something to show.", "is_fresh": 1, "author": ["Kenneth Turan"]},
{"text": "The Usual Suspects is an accomplished synthesis of noir elements and, as such, is an entertaining entry to the genre.", "is_fresh": 1, "author": ["James Berardinelli"]},
{"text": "Once again, my comprehension began to slip, and finally I wrote down: 'To the degree that I do understand, I don't care.'", "is_fresh": 0, "author": ["Roger Ebert"]},
{"text": "Certain 'big twists' may have hogged the limelight of late, but rarely have they come 'bigger' or better than in Bryan Singer's glorious exercise in taut intrigue, dazzling plotting and criminal psychology.", "is_fresh": 1, "author": ["Mark Dinning"]},
{"text": "Lots of fun and a very handsome, widescreen production by director Bryan Singer, who co-wrote the original script with once-and-future partner (and ex-private detective) Christopher McQuarrie.", "is_fresh": 1, "author": ["Tom Keogh"]},
{"text": "Next to the steady diet of Hollywood formula, contrived plots and situations a regular moviegoer can spot a mile off, The Usual Suspects is something quite different: A movie that's smarter than you are.", "is_fresh": 1, "author": ["Sean P. Means"]},
{"text": "After I first saw the film, I recommended it to people as an entertaining and commercial crime thriller; a standard story done very well. And then I saw it again. The movie is so much better the second time.", "is_fresh": 1, "author": ["Andy Spletzer"]},
{"text": "The twist at the end is a corker, but crucial questions remain unanswered. What's interesting, though, is how little this intrudes on our enjoyment.", "is_fresh": 1, "author": ["Hal Hinson"]},
{"text": "After following the beckoning twists and turns, you're left trapped and more than a little disappointed for getting in so deep.", "is_fresh": 0, "author": ["Desson Thomson"]},
{"text": "The only usual thing about The Usual Suspects is the title. All else is a fun, fresh, gritty new take on something you thought was old and familiar.", "is_fresh": 1, "author": ["Bruce Kirkland"]},
{"text": "There are plenty of twists in the plot to keep you on your toes throughout the film.", "is_fresh": 1, "author": ["Madeleine Williams"]},
{"text": "In the press notes for The Usual Suspects, the director speculates that viewers will enjoy his film even more the second time. That's because you need a scorecard to keep track of this thriller the first time around.", "is_fresh": 1, "author": ["Patricia Bibby"]},
{"text": "The Usual Suspects is a movie with style to burn, and, initially, that is this crime drama's most mesmerizing aspect.", "is_fresh": 1, "author": ["Marjorie Baumgarten"]},
{"text": "Nothing is what it seems in this layered, velvety movie (which was shot in handsome wide-screen format) -- the truth keeps shifting -- and nothing matters either.", "is_fresh": 1, "author": ["Joe Baltake"]},
{"text": "The interaction of all the characters is both fascinating and unusual.", "is_fresh": 1, "author": ["Steve Rhodes"]},
{"text": "The Usual Suspects is a knockout suspense yarn with so many twists and turns you're never quite sure where it's going to wind up. And the trip is enormously satisfying.", "is_fresh": 1, "author": ["Chris Hicks"]},
{"text": "Director Bryan Singer gives his film enough surface flash to entertain future late-night cable possibilities.", "is_fresh": 1, "author": ["Mike Clark"]},
{"text": "All the actors nail their parts with ultra-cool finesse, and just listening to Del Toro mumble his lines is worth the cost of the ticket alone. Singer's direction is also completely on target.", "is_fresh": 1, "author": ["Christopher Null"]},
{"text": "Director Bryan Singer works so hard at evoking an air of world-weary fatalism that it's a shame to find out, at the end, that the little things -- like characters and story -- don't matter as much as the oh-so-clever denouement.", "is_fresh": 1, "author": ["Bryant Frazer"]},
{"text": "As entertainment, the film is a lukewarm experience. But as a piece of construction, The Usual Suspects is a slick bit of business.", "is_fresh": 1, "author": ["Mick LaSalle"]},
{"text": "Most of the time I hardly knew what was going on, but I couldn't wait to see what happened next.", "is_fresh": 1, "author": ["Barbara Shulgasser"]},
{"text": "This is a film that looks good, and has good actors, but the writing is really the film's strongest point.", "is_fresh": 1, "author": ["Mark R. Leeper"]},
{"text": "Dense with plot intricacies, thick with atmosphere, and packed with showy roles for a hip ensemble, The Usual Suspects is fun to watch -- a celebration of cool actors having a good time playing sweaty and devious lowlifes. ", "is_fresh": 1, "author": ["Lisa Schwarzbaum"]},
{"text": "", "is_fresh": 1, "author": ["Jeffrey Westhoff"]},
{"text": "", "is_fresh": 1, "author": ["Scott Weinberg"]}
]