[
{"reviews_count": "42", "title": "The Dead Zone", "avg_audience_rating": "3.5", "rotten_count": "4", "tomatometer": "90", "audience_score": "76", "avg_critic_rating": "7.6", "fresh_count": "38", "user_ratings_count": "36,262"},
{"text": "The Dead Zone is one of the best Stephen King film adaptations as it deftly combines the supernatural with real world elements culminating in a believable story.", "is_fresh": 1, "author": ["Michelle Kisner"]},
{"text": "Before Christopher Walken was a punchline, he was an actor...you get a great sense of how startling Walken can be as a star, of how unusual and unexpected his every choice is, from his turn in this early-career King adaptation", "is_fresh": 1, "author": ["Henry Stewart"]},
{"text": "The Dead Zone ultimately ranks as one of the best King adaptations to date.", "is_fresh": 1, "author": ["Rob Vaux"]},
{"text": "[An] engrossing yet strangely unembellished adaptation of Stephen King's bestseller by director David Cronenberg.", "is_fresh": 1, "author": ["Alan Jones"]},
{"text": "Director David Cronenberg's sense of pace is acute, the editing by Ronald Sanders is seamless and suspenseful. And, if nothing else, the movie establishes that chills can be generated without explicit gore and violence.", "is_fresh": 1, "author": ["Ralph Novak"]},
{"text": "It's both moving and quietly unsettling as it builds towards a forceful climax.", "is_fresh": 1, "author": []},
{"text": "An accomplished psychological thriller.", "is_fresh": 1, "author": ["Variety Staff"]},
{"text": "Arguably the best adaptation of a Stephen King novel.", "is_fresh": 1, "author": []},
{"text": "Cronenberg attempting a little mainstream with this Stephen King yarn and really pulling it off.", "is_fresh": 1, "author": ["Kim Newman"]},
{"text": "This is a welcome straightforward adaptation/improvement of King's original, minus Cronenberg's visceral flourishes.", "is_fresh": 1, "author": []},
{"text": "By no means a bad film, just a disappointingly bland and superficial one.", "is_fresh": 0, "author": ["Dave Kehr"]},
{"text": "A thing of dark, twisted, ironic beauty.", "is_fresh": 1, "author": ["Scott Weinberg"]},
{"text": "Don't let the fact that visible breath and frosty misery take priority over exploding heads and fetus-licking snow you.", "is_fresh": 1, "author": ["Eric Henderson"]},
{"text": "Cronenberg tells the story with measured strokes and a sure emotional touch as well as nifty blasts of horror.", "is_fresh": 1, "author": ["Jeffrey M. Anderson"]},
{"text": "Cronenberg pulls it off, but you can't help feeling it's a movie in search of a TV series.", "is_fresh": 1, "author": ["Tom Charity"]},
{"text": "Chilling.", "is_fresh": 1, "author": ["Cole Smithey"]},
{"text": "A gripping thriller done with intelligence. One of the better film adaptations of Stephen King's work.", "is_fresh": 1, "author": ["Chuck O'Leary"]},
{"text": "Walken revels in the lead....intriguing", "is_fresh": 1, "author": ["Clint Morris"]},
{"text": "The Dead Zone does what only a good supernatural thriller can do: It makes us forget it is supernatural.", "is_fresh": 1, "author": ["Roger Ebert"]},
{"text": "The classic Walken role, by which all subsequent ones are measured. Possibly the best Stephen King adaptation too.", "is_fresh": 1, "author": ["Luke Y. Thompson"]},
{"text": "The Dead Zone is not a story that is particularly suited to Cronenberg's fascination with, and adeptness at portraying, body horror...", "is_fresh": 0, "author": ["James Kendrick"]},
{"text": "Spurred on by Christopher Walken's sincerely moving and warm portrayal.", "is_fresh": 1, "author": ["Dennis Schwartz"]},
{"text": "A dud.", "is_fresh": 0, "author": ["Alex Sandell"]},
{"text": "An unusually thoughtful and engrossing horror flick with a terrific performance by Walken.", "is_fresh": 1, "author": ["Dan Lybarger"]},
{"text": "Mr. Cronenberg's direction is vivid and effective; his pacing is a little unemphatic at times, but the film's individual scenes are very well staged.", "is_fresh": 1, "author": ["Janet Maslin"]},
{"text": "Isn't about anything really save the crushing disappointment of ambition and the unbearable lightness of being.", "is_fresh": 1, "author": ["Walter Chaw"]},
{"text": "Cronenberg's most accessible film. Very good, but not great.", "is_fresh": 1, "author": ["Ken Hanke"]},
{"text": "One of King's better cinematic adaptations.", "is_fresh": 1, "author": ["Jon Niccum"]},
{"text": "...near perfect...", "is_fresh": 1, "author": ["David Nusair"]},
{"text": "Brilliantly creepy Walken", "is_fresh": 1, "author": ["Michael Szymanski"]},
{"text": "One of", "is_fresh": 1, "author": ["Bob Grimm"]},
{"text": "Chrisopher Walken gives a thoughtful performance as a psychic-in-spite-of-himself who must save the world from a mad politician.", "is_fresh": 1, "author": ["David Sterritt"]},
{"text": "In The Dead Zone, Cronenberg's visual sense isn't as evident, but his smart choices in letting Stephen King's compelling story unfold without excessive distractions more than makes up for it.", "is_fresh": 1, "author": ["Brian Webster"]},
{"text": "David Cronenberg's direction -- his first mainstream job, after Videodrome -- is apt and creepy, though the story never really goes as far as it could have. Still, it's a creepy little mystery, especially for a King flick.", "is_fresh": 1, "author": ["Christopher Null"]},
{"text": "Despite the reputation of both Stephen King and director Cronenberg (Videodrome, Scanners) there is very little blood and gore in this film.", "is_fresh": 1, "author": ["James O'Ehley"]},
{"text": "On the surface, THE DEAD ZONE looks like a very good film...", "is_fresh": 1, "author": ["Dragan Antulov"]},
{"text": "", "is_fresh": 1, "author": ["Emanuel Levy"]},
{"text": "", "is_fresh": 1, "author": ["Carol Cling"]},
{"text": "", "is_fresh": 1, "author": ["Mark Palermo"]},
{"text": "", "is_fresh": 1, "author": ["Jeffrey Westhoff"]},
{"text": "", "is_fresh": 1, "author": ["Tony Toscano"]},
{"text": "", "is_fresh": 0, "author": ["Philip Martin"]}
]