[
{"reviews_count": "287", "title": "The Hobbit: An Unexpected Journey", "avg_audience_rating": "4.1", "rotten_count": "102", "tomatometer": "64", "audience_score": "83", "avg_critic_rating": "6.5", "fresh_count": "185", "user_ratings_count": "482,508"},
{"text": "We've got a lot of road to travel before we'll know if the quest was worth it. But I'm willing to go along on the journey, so that's something.", "is_fresh": 1, "author": ["Zaki Hasan"]},
{"text": "What could have been a breezy, thrilling stand-alone film is instead a long, sometimes tedious, excursion.", "is_fresh": 0, "author": ["Johnny Gayzmonic"]},
{"text": "An adequate filmmaking exercise that strikes most of the same beats as Lord of the Rings without any of the importance, epic scope or je ne sais quoi.", "is_fresh": 0, "author": ["Terence Johnson"]},
{"text": "Freeman has been well cast as the young Bilbo, providing a sense of British indignity accompanied by his slightly gormless, gob-smacked facial expressions.", "is_fresh": 1, "author": ["Joseph Walsh"]},
{"text": "It also has one thing that Lord of the Rings never did: A story that is human-scale, even if it's about hobbits and dwarves.", "is_fresh": 1, "author": ["Annalee Newitz"]},
{"text": "At the centre are terrific performances from Freeman and Richard Armitage as the dwarf Thorin, plus all the lush scenery, majesty and magic we've come to expect from Jackson - strengths that will have us counting the days until part two.", "is_fresh": 1, "author": ["Jo Berry"]},
{"text": "Slow start, senstational ending: a decent job. No The Lord Of The Rings, but no The Phantom Menace either.", "is_fresh": 1, "author": ["Caroline Westbrook"]},
{"text": "Virtuous, authentic heroes have a way of making more heroes as they journey on, whether across a movie screen or the pages of a beloved book.", "is_fresh": 1, "author": ["Sr. Rose Pacatte"]},
{"text": "There is a good deal to be said about Peter Jackson's long-awaited and exceedingly long adaptation of J.R.R. Tolkien's The Hobbit, most of it bad.", "is_fresh": 0, "author": ["J. Hoberman"]},
{"text": "There were extended sequences when my eyes literally could not track the action. Sense of space was demolished. Motion swamped the screen.", "is_fresh": 0, "author": ["Sonny Bunch"]},
{"text": "The 'LOTR' films have become so iconic and undeniably definitive, that it's often anticlimactic in 'The Hobbit' to hear grand characters saying new sentences in new settings. ", "is_fresh": 1, "author": ["Mark Jackson"]},
{"text": "Watching the three great actors in eye-popping 3D as they go on and on about dwarves, dragons, a necromancer, elves and ogres is the joy and ridiculousness of a fantasy movie that takes itself very honestly and seriously.", "is_fresh": 1, "author": ["Kong Rithdee"]},
{"text": "[Peter Jackson's] efforts to filter or self-edit - assuming there were any - remain fruitless.", "is_fresh": 0, "author": ["J. Olson"]},
{"text": "A bloated, entirely unnecessary cash-grab prequel suffering from a fatal case of elephantitis.", "is_fresh": 0, "author": ["Sean Burns"]},
{"text": "You may have seen Middle Earth before. But you haven't been IN Middle Earth.Peter Jackson's 'The Hobbit: An Unexpected Journey' has made it possible for you to feel like you're surrounded by the astonishing environment created by J.R.R. Tolkien.", "is_fresh": 1, "author": ["Linda Cook"]},
{"text": "With the first film pushing three hours, purists will be pleased. Less die-hard audiences will find a lot of meandering set-up - albeit visually gorgeous meandering setup.", "is_fresh": 1, "author": ["Brad Keefe"]},
{"text": "Remember the joke that The Fellowship of the Ring was just a bunch of people walking around for three hours? In this case, it's actually true.", "is_fresh": 0, "author": ["Bryan Bishop"]},
{"text": "An occasionally entertaining but empty fantasy epic...", "is_fresh": 0, "author": ["Felix Vasquez Jr."]},
{"text": "It rambles over hill and dale and mountain and field and forest and marsh and through cavern and catacomb and grotto and pothole...but will please the Tolkien faithful.", "is_fresh": 1, "author": ["John Serba"]},
{"text": "While the new scenes don't add much to the great film, the outstanding wealth of special features makes this one of the must-own Blu-rays of 2013.", "is_fresh": 1, "author": ["Jeff Beck"]},
{"text": "It's like we returned to Disneyland to find it looking as magical as ever, but with most of the rides closed. ", "is_fresh": 0, "author": ["Eric D. Snider"]},
{"text": "There are worse ways to kill time, sure; it's just that there is, alas, so much time to kill.", "is_fresh": 0, "author": ["Will Leitch"]},
{"text": "\"Unexpected Journey\" runs nearly three hours. That gives Jackson plenty of time to revive its magic [which he does] by triggering our good will toward the \"Rings\" trilogy. He evokes the trilogy's tone and its rhythms.", "is_fresh": 1, "author": ["Carla Meyer"]},
{"text": "As great as Serkis is, he can't begin to make 'The Hobbit' look anything but short.", "is_fresh": 0, "author": ["Al Alexander"]},
{"text": "The odd thing about the saying \"too much of a good thing\" is that it acknowledges the fact that, something, in general, is composed of an overabundance of excellence.", "is_fresh": 1, "author": ["Bill Gibron"]},
{"text": "The Hobbit may not be as memorable as the Lord of the Rings trilogy, but it's a mostly faithful adaptation that sticks to the same tones and themes of the source material.", "is_fresh": 1, "author": ["Jeremy Lebens"]},
{"text": "It's a journey that any fan of Peter Jackson's \"The Lord of the Rings\" Trilogy should enjoy.", "is_fresh": 1, "author": ["Wesley Lovell"]},
{"text": "Peter Jackson's return to Middle Earth feels familiar and unfulfilling.", "is_fresh": 0, "author": ["Tom Glasson"]},
{"text": "If Jackson had focused simply on Bilbo's party and their attempts to get a proper homeland for the dwarves, 'The Hobbit: An Unexpected Journey' would have been a leaner, more engaging tale.", "is_fresh": 1, "author": ["Dan Lybarger"]},
{"text": "Fans of J.R.R. Tolkien may like sitting through a 169 minute film, that easily could have been trimmed by at least 50 minutes. But, I was constantly aware of the long running time. ", "is_fresh": 0, "author": ["Paul Chambers"]},
{"text": "Whenever this movie suffers from lengthy prequel-itis and a weighty sense of expectations, it falls short. Still, for much of its 165 minutes, this epic has enough small moments and deft touches that it tugs you along with the power of a good story.", "is_fresh": 1, "author": ["Brian Gibson"]},
{"text": "An Unexpected Journey offers an unparalleled visual spectacle", "is_fresh": 1, "author": ["Mary Clare Waireri"]},
{"text": "a drag-down, mildly diverting entertainment", "is_fresh": 1, "author": ["Jay Antani"]},
{"text": "When the dwarves turn up mob-handed, kicking off a night of boisterous revelry, the laboured jests and jollity seem to go on forever. And the combination of dwarves, forced humour and familiar faces off the telly turn the occasion into bad panto.", "is_fresh": 0, "author": ["Jason Best"]},
{"text": "The Hobbit: An Unexpected Journey had me with the dulcet melancholy of displaced Dwarves, yearning to be home.", "is_fresh": 1, "author": ["Blake Howard"]},
{"text": "Slower out of the gates than a three-legged donkey... but it gets better, and fans won't mind this slowburn beginning because, hey, it's Middle Earth.", "is_fresh": 1, "author": ["Matt Neal"]},
{"text": "It's the behaviour of the supposedly affable dwarves that makes this particular 'adventure' such a punishing experience.", "is_fresh": 0, "author": ["Charlie Lyne"]},
{"text": "...a jaw-dropping visual carnival courtesy of Peter Jackson and company!", "is_fresh": 1, "author": ["Michael A. Smith"]},
{"text": "Very, very (very) slow in the early going, but Peter Jackson does get there (eventually).", "is_fresh": 1, "author": ["Clint O'Connor"]},
{"text": "The Hobbit: An Unexpected Journey is a story stretched too thin; dragged out by drudging slowness and obvious padding that its handful of thrilling action sequences can't improve. ", "is_fresh": 0, "author": ["Diva Velez"]},
{"text": "Should more than satisfactorily scratch the itch of those who have waited many long years to see Middle Earth back on screen.", "is_fresh": 1, "author": ["Gabe Leibowitz"]},
{"text": "A marvel of filmmaking wizardry and engrossing adventure storytelling, The Hobbit: An Unexpected Journey marks another triumph by director Peter Jackson who once again takes J.R. Tolkien's words and brings them to life with skilful, passionate expertise.", "is_fresh": 1, "author": ["Matthew Pejkovic"]},
{"text": "THE Hobbit occupies that same awkward spot in popular cinema as the Twilight movies in terms of balancing good cinema against fan-service.", "is_fresh": 1, "author": ["Tim Martain"]},
{"text": "Here's hoping Jackson's love affair with technology shifts back to his real strength-good old-fashioned storytelling-and that he has the courage to edit down the film.", "is_fresh": 0, "author": ["Richard Knight"]},
{"text": "\"Disappointing\" isn't the same thing as \"bad.\"", "is_fresh": 1, "author": ["Rob Vaux"]},
{"text": "There is simply not enough story to justify the inordinate length...the enormous production effort is negated by [the] disastrous decision to shoot at 48 frames per second...This makes the entire enterprise look like the world's most expensive home video.", "is_fresh": 0, "author": ["Jim Schembri"]},
{"text": "Lacking the interesting characters and intriguing subplots that made the earlier trilogy so engaging, The Hobbit: An Unexpected Journey is too flat, too slow.", "is_fresh": 0, "author": ["Matthew Toomey"]},
{"text": "A vibrant vision but a long slog.", "is_fresh": 1, "author": ["Charles Koplinski"]},
{"text": "Like the sad, bug-eyed Gollum, moviegoers may not have realized how much they missed movies like this onscreen in the past several years. ", "is_fresh": 1, "author": ["Phil Villarreal"]},
{"text": "The absolute highlight: the return of Andy Serkis, master of motion-capture performance, as the scary, disturbing, pathetic Gollum.", "is_fresh": 1, "author": ["John Beifuss"]},
{"text": "A wild and visually stunning quest through a fantasy world all done with the noble spirit of courage and goodwill.", "is_fresh": 1, "author": ["Cameron Williams"]},
{"text": "For what it's worth, the first installment of The Hobbit hits all the right notes and delivers what will be expected of it", "is_fresh": 1, "author": ["James Kendrick"]},
{"text": "Repetitive and pointless action scenes fill out an already bloated runtime, but not to the level of indulgence that we saw on 'King Kong'.", "is_fresh": 0, "author": ["Garth Franklin"]},
{"text": "For thousands, the Lord of The Rings trilogy was an emotion-filled spectacle; The Hobbit, by comparison, is all pixels and no pulse.", "is_fresh": 0, "author": ["Simon Foster"]},
{"text": "Wax your hyperbole.", "is_fresh": 1, "author": ["Kelly Vance"]},
{"text": "All in all I think of it as The Hobbit: A Better Than Expected Journey.", "is_fresh": 1, "author": ["Ken Hanke"]},
{"text": "'The Hobbit' is another ambitious, gorgeous and faithful trip into JRR's writing - and because of this, it won't win any new fans if you had no patience ten years ago. For those who do, you'll definitely want to go there and back again.", "is_fresh": 1, "author": ["Patrick Kolan"]},
{"text": "An unexpectedly great start to the prequel to \"LOTR\"; Peter Jackson strikes again.", "is_fresh": 1, "author": ["Jackie K. Cooper"]},
{"text": "My biggest complaint about this latest adventure in Middle-earth is that it is three hours worth of set-up for the next movie.", "is_fresh": 0, "author": ["Lori Hoffman"]},
{"text": "Much as with LotR, the casting is a strength.", "is_fresh": 1, "author": ["Michael Burgin"]},
{"text": "This first chapter of Peter Jackson's new Tolkien trilogy takes us back to the familiar settings and characters, inflating a simple journey into an epic adventure in the process.", "is_fresh": 1, "author": ["Rich Cline"]},
{"text": "Peter Jackson didn't particularly want to direct The Hobbit, and I didn't particularly want to be bored to tears, but there we both were, fulfilling what could only be described as some sort of cinematic murder-suicide pact.", "is_fresh": 0, "author": ["Simon Miraudo"]},
{"text": "Having now seen it twice, I favor the 2D/24p version over the 3D/48p one. But absent the format quibble, Jackson gives us a worthy start to a new trilogy.", "is_fresh": 1, "author": ["Jonathan W. Hickman"]},
{"text": "I have a reservation about the tone of pantomime that is established at the start of the film, but the much anticipated 48 frames per second 3D presentation seems glorious to me", "is_fresh": 1, "author": ["Andrew L. Urban"]},
{"text": "Jackson's adroit direction and brilliance of the reality are the film's high points. Whether there is the substance to support three films will be revealed. As far as technical wizardry goes with superb 3D effects, it is the visuals that excel", "is_fresh": 1, "author": ["Louise Keller"]},
{"text": "Butter spread over too much bread, Bilbo might say.", "is_fresh": 0, "author": ["Rob Humanick"]},
{"text": "Aqui e ali, at\u00e9 sentimos o gosto do universo criado por Tolkien, mas para isso temos que devorar quilos e mais quilos da massa fermentada por um padeiro megaloman\u00edaco que perdeu o controle sobre o que levar\u00e1 ao forno.", "is_fresh": 0, "author": ["Pablo Villa\u00e7a"]},
{"text": "Despite its bloated length and meandering plot, this is still an enjoyable production, at least for fans of Peter Jackson, Middle Earth and J.R.R. Tolkien.", "is_fresh": 1, "author": ["Robert Roten"]},
{"text": "It does what so few sequels/prequels do, making you hungry for the next of the series, while still making you appreciate very much what has come before.", "is_fresh": 1, "author": ["Jason Gorber"]},
{"text": "Peter Jackson seems keenly aware of the differences between The Hobbit and The Lord of the Rings, and instead of trying to make one more like the other, he embraces what makes each story unique.", "is_fresh": 1, "author": ["Rick Marshall"]},
{"text": "Jackson seems to be going through the motions of epic fantasy filmmaking.", "is_fresh": 0, "author": ["Ian Buckwalter"]},
{"text": "In his desire to tell this story in the most comprehensive manner possible, Jackson seems to have forgotten one of cinema's most pleasurable tricks: the ability to cut to the chase.", "is_fresh": 0, "author": ["Alistair Harkness"]},
{"text": "This is a Hobbit cobbled together by an obsession with technological ingenuity at the expense of storytelling.", "is_fresh": 1, "author": ["Siobhan Synnot"]},
{"text": "Full of stuff... all the way up to a bloated 169-minute running time. But stuff is not exactly the same thing as having a rich and complicated plot.", "is_fresh": 0, "author": ["Tim Brayton"]},
{"text": "Simply, if you're a fan of the way Jackson has delivered Middle-earth to you in the past, then this is more of the same...", "is_fresh": 1, "author": ["Mark Bell"]},
{"text": "... there's nothing to hate or fear here (unless you buy the super-chubby size soda). Welcome back, Middle Earth.", "is_fresh": 1, "author": ["Kevin A. Ranson"]},
{"text": "Visually it is sometimes amazing, but it is a large troll step down from the last trilogy.", "is_fresh": 1, "author": ["Mark R. Leeper"]},
{"text": "Entertaining, but just when a good thing becomes too much of a good thing will vary from viewer to viewer.", "is_fresh": 1, "author": ["Scott Nash"]},
{"text": "For better or worse this is no longer J.R.R. Tolkien's Hobbit it has become Peter Jackson's Hobbit. Lots of talking, walking and singing. Hard to take the villains seriously when they all sound like high-pitched singing versions of Elmer Fudd. ", "is_fresh": 0, "author": ["Michelle Alexandria"]},
{"text": "Though some may find \"An Unexpected Journey\" a bit slow in parts (I can't imagine) or a tad too long (I might agree), I found the experience exhilarating! ", "is_fresh": 1, "author": ["Jeanne Kaplan"]},
{"text": "Whatever you think of Sir Peter Jackson --- he was knighted in 2010 for \"his service to films\" --- you have to admire his ambition.", "is_fresh": 1, "author": ["David Kaplan"]},
{"text": "Instead of simply adapting Tolkien's novel, Jackson has opted to use the story as a jumping off point for a convoluted prequel that threatens to do for Middle Earth what George Lucas's Star Wars prequels did for a galaxy far, far away.", "is_fresh": 0, "author": ["Steve Biodrowski"]},
{"text": "This is hobbit cordial, one part juice to nine parts water.", "is_fresh": 0, "author": ["Ed Whitfield"]},
{"text": "Is the 48fps format a good thing? Not unless the title had been Days of Our Hobbits or As the Shire Turns. My advice, then, would be to see this fairly entertaining movie in 2-D or even regular 3-D and leave the 48fps nonsense by the wayside.", "is_fresh": 1, "author": ["Matt Brunson"]},
{"text": "I prefer my movies to be more entertainment than ordeal.", "is_fresh": 0, "author": ["Pete Vonder Haar"]},
{"text": "'Well, that was the longest video game trailer I have ever seen. No, seriously, are you going to show the real film now?'", "is_fresh": 0, "author": ["Widgett Walls"]},
{"text": "...almost 3 hours watching this would seem to be beyond torture for a normal adult, despite the exceptional production values which comprise the only reason to see it.", "is_fresh": 0, "author": ["Tony Medley"]},
{"text": "It frequently seems as though Jackson was less interested in making The Hobbit than in remaking his own fabulously successful Lord of the Rings series.", "is_fresh": 0, "author": ["Christopher Orr"]},
{"text": "Not all the scenes are necessary, and a great deal of the movie is set-up, with Jackson reveling in his own return to Middle Earth. But it's an enjoyable experience.", "is_fresh": 1, "author": ["Kevin Carr"]},
{"text": "Happily, despite all the technical details, \"The Hobbit: An Unexpected Journey\" is exciting, tantalizing and satisfying.", "is_fresh": 1, "author": ["Jeffrey M. Anderson"]},
{"text": "While this film is way too long and might be more for Tolkien devotees than mainstream audiences, after a slow start it turns into a rousing adventure with plenty of visual flair and top-notch action sequences.", "is_fresh": 1, "author": ["Todd Jorgenson"]},
{"text": "The Hobbit: An Unexpected Journey is like 90 minutes of flirting, an hour of foreplay, and no sex. In other words, it's fun, but not entirely satisfying.", "is_fresh": 1, "author": ["Mike McGranaghan"]},
{"text": "Precisely what an adventure epic should be: huge, long, and lots of fun.", "is_fresh": 1, "author": ["Scott Weinberg"]},
{"text": "While Jackson has clearly fleshed out some aspects of the source material, An Unexpected Journey doesn't drag nearly as much is its 169-minute running time might suggest.", "is_fresh": 1, "author": ["Josh Terry"]},
{"text": "Two thirds is so packed with charming characters, stellar visuals and sense of adventure, it makes that other third come across as much more of a failure than it really is.", "is_fresh": 1, "author": ["Perri Nemiroff"]},
{"text": "A few extemporaneous Lord of the Rings elements distract from The Hobbit storyline but Jackson has presented a captivating and exciting return to Middle-earth.", "is_fresh": 1, "author": ["Ben Kendrick"]},
{"text": "This first installment should draw a large audience; getting it back for rounds two and three will be more difficult.", "is_fresh": 1, "author": ["Daniel Eagan"]},
{"text": "There are so few directors who can convincingly create a fantasy world that I applaud Jackson for continuing to make Middle Earth a travel destination we still love to visit -- even if the journey is becoming less direct.", "is_fresh": 1, "author": ["Beth Accomando"]},
{"text": "Despite some minor missteps, watching it feels like welcoming an old friend into your home. He may ramble a bit and slightly overstay his welcome, but hanging out with him reminds you of why you're friends in the first place.", "is_fresh": 1, "author": ["Eric Melin"]},
{"text": "A promising start. ", "is_fresh": 1, "author": ["John Wirt"]},
{"text": "...buried beneath the bloated 2-hour and 46-minute run time of The Hobbit is as an entertaining two-hour movie...", "is_fresh": 1, "author": ["Jeff Meyers"]},
{"text": "Are the creatures amazingly rendered? Yes. Have we seen their lifelike equal onscreen before? No.", "is_fresh": 0, "author": ["Leonard Maltin"]},
{"text": "My first thought in watching The Hobbit was: Do we really need this movie? It was my last thought, too.", "is_fresh": 0, "author": ["Peter Rainer"]},
{"text": "To its own narrative detriment, \"The Hobbit\" works hard to lay the framework for what will follow. Certainly that's one way to set out on a trilogy, but it's surely not the best.", "is_fresh": 0, "author": ["Lisa Kennedy"]},
{"text": "Nearly three hours, and the story has progressed only slightly. Nothing is short and sweet here, not even the identities. It's always Thorin, son of Theraflu, son of Thong, etc.", "is_fresh": 0, "author": ["Gary Thompson"]},
{"text": "Tolkien tale isn't as great as LOTR, but better for tweens.", "is_fresh": 1, "author": ["Sandie Angulo Chen"]},
{"text": "Jackson's risky creative choices have drained Bilbo Baggins' adventure of its magic.", "is_fresh": 0, "author": ["Alison Gang"]},
{"text": "It's all fight scenes, and the fight scenes have no arc. You just sit there waiting for some inevitable deus ex machina to save the day whenever Peter Jackson feels like it. The characters have no agency. It's like watching a kid play with his GI Joes.", "is_fresh": 0, "author": ["Vincent Mancini"]},
{"text": "By no means a disaster, The Hobbit mixes thrills with disappointments", "is_fresh": 1, "author": ["Robert Denerstein"]},
{"text": "Tolkein geeks rejoice", "is_fresh": 1, "author": ["Marty Mapes"]},
{"text": "Fantasy fans hungry for a second breakfast of Tolkien-fueled fare can get their fill with this visually sumptuous feast.", "is_fresh": 1, "author": ["Tyler Hanley"]},
{"text": "Peter Jackson catches a nasty case of George Lucas-itis with his latest Middle earth saga.", "is_fresh": 0, "author": ["Christian Toto"]},
{"text": "There's no denying the majesty in Peter Jackson's visuals but he's taken a relatively slim children's book and stretched it beyond the limits.", "is_fresh": 0, "author": ["Richard Roeper"]},
{"text": "...has nearly as much going for it (Martin Freeman as Bilbo, much untampered-with Tolkien dialogue) as it does against it (that chintzy-looking 48 FPS speed, bloated screenplay).", "is_fresh": 0, "author": ["Chris Barsanti"]},
{"text": "Sad to say, \"The Hobbit: An Unexpected Journey\" is a pale shadow trying to reach the sun on the strength of the \"Lord of the Rings\" trilogy.", "is_fresh": 0, "author": ["Bob Bloom"]},
{"text": "In his attempt to produce a definitive, enhanced-strength version of the text, Jackson has stripped away much of the fun, a great deal of the energy and most of the humour.", "is_fresh": 0, "author": ["Donald Clarke"]},
{"text": "What it all comes down to is that if you in any way, shape or form enjoyed the \"Lord of the Rings\" movies then you must see \"The Hobbit.\" Many happy returns.", "is_fresh": 1, "author": ["Mathew DeKinder"]},
{"text": "Yet another battle-filled and self-indulgent film by Peter Jackson.", "is_fresh": 0, "author": ["Frederic and Mary Ann Brussat"]},
{"text": "With each successive set-piece, the movie grows more and more rousing.", "is_fresh": 1, "author": ["Ethan Alter"]},
{"text": "A minor flaw or two but assuming you don't spend all of your days barefoot like a Hobbit, the movie will knock your socks off. ", "is_fresh": 1, "author": ["Gary Wolcott"]},
{"text": "The reason it's so hard to immerse yourself in the world of Middle Earth again isn't HOW Peter Jackson filmed \"The Hobbit.\" It's WHAT he filmed. ", "is_fresh": 0, "author": ["Rob Thomas"]},
{"text": "A hugely enjoyable set-up for what looks set to be another thrilling trilogy.", "is_fresh": 1, "author": ["Alex Zane"]},
{"text": "Jackson has delivered plenty more of the big setpieces that fans loved in the trilogy, albeit at the cost of making The Hobbit far more imperial and epic than it needs to be.", "is_fresh": 1, "author": ["David Sexton"]},
{"text": "Jackson has come back to Middle Earth to compose his most masturbatory effort yet.", "is_fresh": 0, "author": ["Neil Miller"]},
{"text": "This has to go down as the most disappointing film of the year.", "is_fresh": 0, "author": ["Marc Mohan"]},
{"text": "It would be wrong to ignore the technical achievement that Jackson has pulled off yet again. But when said and done, \"The Hobbit\" feels more like a cinematic encyclopedia of Tolkein's mythical world rather than a trip to the movies.", "is_fresh": 0, "author": ["Justin Craig"]},
{"text": "THE HOBBIT: AN UNEXPECTED JOURNEY is a visual feast with whimsy and charm.", "is_fresh": 1, "author": ["JimmyO"]},
{"text": "The repeated iterations of fight, flight and respite here get wearing. Especially perhaps because, with Jackson's fetish for detail, they take more time to watch on screen than to read about.", "is_fresh": 0, "author": ["Liam Lacey"]},
{"text": "\"The Hobbit: An Unexpected Journey\" has finally arrived, not on wings of gossamer fancy but with a hairy-footed thud.", "is_fresh": 0, "author": ["Ann Hornaday"]},
{"text": "Hems and haws with only an occasional cinematic punch, making it a good, but very expected journey. ", "is_fresh": 1, "author": ["Mark Sells"]},
{"text": "While the 48fps reads very much as \"American soap opera\" in the early scenes, it's quite effective in the rousing, vertigo-laced action sequences. Messy, but worth a look.", "is_fresh": 1, "author": ["Brian Juergens"]},
{"text": "Not what you might have been expecting, or hoping for.", "is_fresh": 0, "author": ["Kurt Loder"]},
{"text": "A well-made spectacle that makes up for overall lacking story and character development with one incredible action scene after the next.", "is_fresh": 1, "author": ["Bill Clark"]},
{"text": "Jackson himself seems to miss the forest of the story for the literal trees.", "is_fresh": 1, "author": ["Nell Minow"]},
{"text": "Moments of brilliance and moments of boredom", "is_fresh": 1, "author": ["Willie Waffle"]},
{"text": "Those expecting THE HOBBIT to be on the same level as LORD OF THE RINGS are only setting themselves up for disappointment. But if you just go in expecting a fun adventure, you should be able to enjoy it. Just DON'T see it in the higher frame rate.", "is_fresh": 1, "author": ["Austin Kennedy"]},
{"text": "If this were Green Eggs and Ham, the film would stop at approximately the point at which you would not eat them with a fox.", "is_fresh": 0, "author": ["Walter Chaw"]},
{"text": "One possibility is that the main thing to recommend the film is nostalgia. But so be it.", "is_fresh": 1, "author": ["Eugene Novikov"]},
{"text": "Gets off to a decent start for this next trilogy, but it's not the epic, genre-redefining event of the one that preceded it.", "is_fresh": 1, "author": ["Jeffrey Lyles"]},
{"text": "The overgenerous running time is somewhat to the film's advantage, but there are warning signs that Jackson might be stretching the tale to its limit.", "is_fresh": 1, "author": ["Kent Turner"]},
{"text": "The Hobbit: An Unexpected Journey is a lot like that beat up car you have sitting in the driveway. It doesn't always accelerate when it should, but once it gets going it's more reliable than anything.", "is_fresh": 1, "author": ["Chris Sawin"]},
{"text": "The Hobbit: An Unexpected Journey ... is clumsy where Tolkien's book is streamlined -- filling in the gaps where the novel is vague...", "is_fresh": 1, "author": ["Mark Dujsik"]},
{"text": "Just because you can do three movies doesn't mean you need to do three movies.", "is_fresh": 0, "author": ["Rebecca Murray"]},
{"text": "Okay but nothing spectacular as a whole and certainly not unique. (Full Content Review for Parents also available)", "is_fresh": 1, "author": ["Jim Judy"]},
{"text": "With approximately six more hours to go, it's tough not to shudder at the sheer lengths director Peter Jackson is about to go to stretch this story into paper-thin taffy.", "is_fresh": 0, "author": ["Dustin Putman"]},
{"text": "If The Hobbit: An Unexpected Journey is any indicator of things to come, this trilogy could be every bit as wondrous and exciting as the one that preceded it.", "is_fresh": 1, "author": ["Jason Buchanan"]},
{"text": "An overlong adventure enlivened by wonders.", "is_fresh": 1, "author": ["Joe Morgenstern"]},
{"text": "Guess what is unexpected about this journey? Nothing, as there isn't one surprise in watching this continuation of the cinematic telling of J.R.R. Tolkien's Middle Earth tales.", "is_fresh": 0, "author": ["Michael Smith"]},
{"text": "An Unexpected Journey is a major comedown, a muddle-headed and cumbersome piece of filmmaking that betrays Jackson's mercenary motives -- Tolkien's book, too.", "is_fresh": 0, "author": ["Tom Charity"]},
{"text": "If you loved the earlier films, these are moments you will hold on to, but they're very few, and they're not enough.", "is_fresh": 0, "author": ["Mick LaSalle"]},
{"text": "Once again, Jackson proves adept at capturing the tone and feel of Middle Earth, and the film takes us along familiar trails to meet some of our old friends.", "is_fresh": 1, "author": ["Jay Stone"]},
{"text": "I trust Jackson's instincts with Tolkien's work. It's his editorial indifference that could pose a greater threat to The Hobbit than any attack from Smaug.", "is_fresh": 1, "author": ["Brian Orndorf"]},
{"text": "Part One of director Peter Jackson's planned film trilogy of J.R.R. Tolkien's The Hobbit forces audiences to run an obstacle course before the fun kicks in.", "is_fresh": 1, "author": ["Peter Travers"]},
{"text": "Between its lighter tone and a decade's worth of improvements in digital film techniques, there should be enough of a novelty factor to delight most fans.", "is_fresh": 1, "author": ["Bob Mondello"]},
{"text": "The tone of Jackson's latest is, appropriately, much more jovial than that of Rings, which unfolds in an era far more stricken with despair.", "is_fresh": 1, "author": ["R. Kurt Osenlund"]},
{"text": "His first installment of The Hobbit, Tolkien's relatively slim precursor to the sprawling \"Rings\" saga, is a technically impressive but bloated adventure that makes you feel every one of its 169 minutes. ", "is_fresh": 0, "author": ["Cary Darling"]},
{"text": "I was impressed with how much of the story's good humor Jackson and Co. manage to weave into the spectacle. It's there in the close shave with a gang of hungry trolls, and it really lifts off once Andy Serkis' uncanny Gollum enters the picture.", "is_fresh": 1, "author": ["Chris Vognar"]},
{"text": "It may not be the story the book told in content and tone, but it's the story it had to be... plus 30 minutes.", "is_fresh": 1, "author": ["Matthew Razak"]},
{"text": "Those early scenes in the Shire and the story of the loss of the dwarf kingdom establish character and purpose and give reason to hope and care that, like a talented sports team with a losing record, things can get only better.", "is_fresh": 1, "author": ["Duane Dudek"]},
{"text": "A major disappointment that is about as difficult to swallow as the Denny's meals that are among the avalanche of commercial tie-ins that have accompanied its release. ", "is_fresh": 0, "author": ["Peter Sobczynski"]},
{"text": "Fun, though more than a little trying.", "is_fresh": 1, "author": ["Jeffrey Westhoff"]},
{"text": "Time will tell if this is a new Peter Jackson cash cow or just a bridge too far.", "is_fresh": 1, "author": ["Robin Clifford"]},
{"text": "The film is frequently gorgeous, technologically adventurous and eventually thrilling.", "is_fresh": 1, "author": ["David Frese"]},
{"text": "Tolkien's inventive, episodic tale of a modest homebody on a dangerous journey has been turned into an overscale and plodding spectacle.", "is_fresh": 0, "author": ["A.O. Scott"]},
{"text": "The final sequence is an inspired little montage, with a Wagnerian flick in its scaly tail, setting up Hobbit 2. I can't wait. And I'm the one who didn't even want to go into Hobbit 1", "is_fresh": 1, "author": ["Nigel Andrews"]},
{"text": "Even at their eye-filling best, these sequences generate more spectacle than suspense.", "is_fresh": 0, "author": ["Jesse Hassenger"]},
{"text": "Once the adventure is finally underway, and Martin Freeman's meek hero starts to come into his own, Jackson digs in and delivers an appropriately epic companion piece to his earlier trilogy.", "is_fresh": 1, "author": ["Norman Wilner"]},
{"text": "By the third time someone hangs by his fingertips over a gaping void, or Gandalf shouts \"Run!\" so they can flee the latest CGI monstrosity, the Lonely Mountain seems far away indeed.", "is_fresh": 0, "author": ["Peter Keough"]},
{"text": "Once it gets going, it's actually quite fun.", "is_fresh": 1, "author": ["T'Cha Dunlevy"]},
{"text": "This movie is about drawing things out as much as possible to make a snack-size story feel like a meal.", "is_fresh": 0, "author": ["Chris Hewitt (St. Paul)"]},
{"text": "The last hour of this movie is pretty much nonstop, and it's a gas.", "is_fresh": 1, "author": ["Tom Long"]},
{"text": "Little about the storytelling suggests a beating heart beneath the visuals; once the journey has begun, the characters find themselves in life-threatening danger with stupefying regularity.", "is_fresh": 0, "author": ["Ben Sachs"]},
{"text": "Jackson's biggest failing with the first installment of The Hobbit is that he crowds out a great story with such minor plot developments that carry no immediate importance to the movie or characters.", "is_fresh": 0, "author": ["Kirk Baird"]},
{"text": "Seeing The Hobbit is like going to a timeshare presentation. First you have to sit through the boring stuff before you can take advantage of the spectacular benefits.", "is_fresh": 1, "author": ["Tony Macklin"]},
{"text": "Jackson imposes a sense of grandeur but mostly loses Tolkien's sense of fun.", "is_fresh": 1, "author": ["Lawrence Toppman"]},
{"text": "This is not about a reluctant hero drawing courage from some deep personal well. It's not about dread and danger. It's about visual effects.", "is_fresh": 0, "author": ["Steven Rea"]},
{"text": "\"The Hobbit: An Unexpected Journey\" is not the worst film of the year, but it may be the most disappointing.", "is_fresh": 0, "author": ["Colin Covert"]},
{"text": "The Hobbit: An Unexpected Journey looks like the start of another blockbuster trilogy.", "is_fresh": 1, "author": ["Henry Fitzherbert"]},
{"text": "I'm afraid that whoever it was in the New York Film Critics Circle who voted for \"The Hobbit\" as best animated film had a point. And so did the people who suspected that this whole thing was a bad idea.", "is_fresh": 0, "author": ["Andrew O'Hehir"]},
{"text": "Watching The Hobbit was an unexpected endurance test. Younger children will not last the pace, but plucky ten year olds with a couple of well timed toilet breaks will lap this up. ", "is_fresh": 1, "author": ["Brian Henry Martin"]},
{"text": "Rather than an epic continuation of Jackson's Middle-earth obsession, the film seems more like the work of a man driving around a multilevel parking garage without being able to find the exit.", "is_fresh": 0, "author": ["Marjorie Baumgarten"]},
{"text": "A bloated, dull mess of a film that meanders when it should move and stumbles when it should run.", "is_fresh": 0, "author": ["Brian Tallerico"]},
{"text": "Get ready for a more heated debate than any election season. Is Peter Jackson's ambitious, overblown adaptation worth it, or is it a flagrant attempt to create a cash cow out of a children's book? The answer is yes.", "is_fresh": 1, "author": ["Joe Lozito"]},
{"text": "If you're going to a see a nearly three-hour movie based on a fraction of a popular book, make it \"Lincoln\" ", "is_fresh": 0, "author": ["Stephen Silver"]},
{"text": "As fun as it is to watch, this isn't Tolkien's Hobbit. The story of a peaceable traveler who knew the virtue of restraint is lost to the vision of filmmakers who have none.", "is_fresh": 1, "author": ["Jeffrey Overstreet"]},
{"text": "The unhappy truth [is] that this return visit to Middle Earth is a bloated letdown.", "is_fresh": 0, "author": ["Frank Swietek"]},
{"text": "The film is worthy of both your attention and of the Tolkien legendarium in which Jackson, his actors and his Weta Workshop technical crew are so firmly situated.", "is_fresh": 1, "author": ["Peter Howell"]},
{"text": "At nearly three hours long, \"An Unexpected Journey\" has moments when the caravan seems both overstuffed and out of balance, but it's such a scenic trip that only a stubborn homebody could complain.", "is_fresh": 1, "author": ["Joe Williams"]},
{"text": "...for the faithful. For everyone else, it will probably prove the same as any long journey, periods of discovery and excitement countered with long stretches of boredom.", "is_fresh": 0, "author": ["Laura Clifford"]},
{"text": "It is great to once more be whisked back to Tolkien's extraordinarily vivid world, but Jackson's overstuffed film proves that it is possible to get too much of a good thing. ", "is_fresh": 1, "author": ["Mike Scott"]},
{"text": "To gaze upon the film, like Frodo staring into that prophetic magic orb, is to be shaken by a dark vision of cinema's future.", "is_fresh": 0, "author": ["A.A. Dowd"]},
{"text": "A delightfully fun trip back to Middle-earth, even if it fails to justify its overstuffed 160 minute runtime.", "is_fresh": 1, "author": ["Jason Zingale"]},
{"text": ".. An absolute triumph, possessing all the magic, adventure and excitement of (the) landmark \"Lord of the Rings\" trilogy.", "is_fresh": 1, "author": ["Greg Maki"]},
{"text": "Is it crunchable? Is it scrumptious? The best awful-looking film I have ever seen.", "is_fresh": 1, "author": ["James Verniere"]},
{"text": "As entertaining as watching the last bits of ketchup drip out of the bottle.", "is_fresh": 0, "author": ["Matt Pais"]},
{"text": "Bloated...overlong. Even Shakespeare needs editing.", "is_fresh": 1, "author": ["Roger Moore"]},
{"text": "Features terrific performances, stunning action sequences and some state-of-the-art special effects, but it's also far too long ...", "is_fresh": 1, "author": ["Matthew Turner"]},
{"text": "I'm here to vouch for Jackson, except for the length.", "is_fresh": 1, "author": ["Jim Slotek"]},
{"text": "Almost all highlights and bombast, with little if any room for subtlety or poetry.", "is_fresh": 1, "author": ["Steven D. Greydanus"]},
{"text": "Though at two hours, 50 minutes it feels overstuffed, the first \"Hobbit\" film holds its own thanks to inspired acting and some jaw-dropping technical innovations.", "is_fresh": 1, "author": ["Mary Ann Gwinn"]},
{"text": "When, in Jackson's film, someone describes a character's \"love of gold\" as having become \"too fierce,\" you wonder if the warning might apply to \"The Hobbit\" in other ways.", "is_fresh": 0, "author": ["Michael Phillips"]},
{"text": "At its best, it recaptures the Rings movies' breadth, detail, and staggering sense of beauty.", "is_fresh": 1, "author": ["Tasha Robinson"]},
{"text": "Often entertaining, especially for those fans who loved The Lord of the Rings and have been waiting years to see more of Tolkien's Middle-earth onscreen.", "is_fresh": 1, "author": ["Josh Bell"]},
{"text": "Peter Jackson definitely knows what he's doing. He just didn't do it this time.", "is_fresh": 0, "author": ["William Bibbiani"]},
{"text": "Peter Jackson has formally moved away from the artistic act of directing, and into the business of creating synthetic movie \"product.\" ", "is_fresh": 0, "author": ["Cole Smithey"]},
{"text": "Does An Unexpected Journey do a satisfactory job bringing audiences back to Middle Earth? The answer is 'yes' - if not as resolutely as I may have hoped - and the film is absolutely worth seeing for this quality alone", "is_fresh": 1, "author": ["Jonathan Lack"]},
{"text": "[The] elements are in place again, but the story feels less substantial than the Lord of the Rings tales.", "is_fresh": 0, "author": ["Claudia Puig"]},
{"text": "Solid and acceptable instead of soaring and exceptional, [and] unnecessarily hampered in its quest to reach the magical heights of the trilogy.", "is_fresh": 0, "author": ["Kenneth Turan"]},
{"text": "\"...after seeing The Hobbit I couldn't wait to see it again - projected at 24 frames per second and without 3-D.\"", "is_fresh": 1, "author": ["Josh Larsen"]},
{"text": "It all just takes so long.", "is_fresh": 0, "author": ["Bill Goodykoontz"]},
{"text": "I feel like the 48 frames per second took off a full half point of enjoyment, yet I proudly reclaim here as I confidently send movie lovers forth to see \"The Hobbit\" (in 24 frames, please!).", "is_fresh": 1, "author": ["Kristian Harloff"]},
{"text": "Regardless of the frames, dimensions, or goggles used to conjure it, \"The Hobbit: An Unexpected Journey\" is an incredible ride and a triumphant return to Middle Earth.", "is_fresh": 1, "author": ["Mark Ellis"]},
{"text": "There are people who claim to see no difference between 24 and 48 frame rates, and to them, I'd recommend an unexpected journey to the eye doctor.", "is_fresh": 1, "author": ["Rene Rodriguez"]},
{"text": "Packed with crescendos and crap-outs, Peter Jackson's mega-bloated beginning to Bilbo Baggins' pilgrimage across Middle-earth to Lonely Mountain both awes and bores.", "is_fresh": 1, "author": ["Erick Weber"]},
{"text": "Decent enough fantasy adventure, but it doesn't especially feel like Tolkien.", "is_fresh": 1, "author": ["Catherine Bray"]},
{"text": "\"The Hobbit\" becomes what it was originally meant to be - not a cut-from-the-same-cloth prequel, but its own, individual thing.", "is_fresh": 1, "author": ["Stephen Whitty"]},
{"text": "[A] dazzling, busy, fundamentally tedious movie ...", "is_fresh": 1, "author": ["Ty Burr"]},
{"text": "It's a shame to see Peter Jackson treading water when there are so many new cinematic horizons worth exploring.", "is_fresh": 0, "author": ["Robert Levin"]},
{"text": "I found that it provided a pretty convincingly immersive experience, and I look forward to the technology's evolution/refinement. Which I guess also means I look forward to the next two installments of the trilogy.", "is_fresh": 1, "author": ["Glenn Kenny"]},
{"text": "The decision to hit the 12A rating squarely on the head also means that several scenes, particularly those involving Radegast the Brown (Sylvester McCoy) feel added more for their cuteness than content.", "is_fresh": 1, "author": ["Amber Wilkinson"]},
{"text": "In a bit of irony, Bilbo Baggins says at the end of the movie: \"I do believe the worst is behind us.\" We can only hope so.", "is_fresh": 0, "author": ["Charlie McCollum"]},
{"text": "The board is set, the pieces are moving and we're set up nicely for Jackson to tighten the noose with the love of second-act grit he displayed in The Two Towers.", "is_fresh": 1, "author": ["Adam Lee Davies"]},
{"text": "The more dark it becomes, the more 'The Hobbit' becomes compelling as a story, and finds a fitting tone.", "is_fresh": 1, "author": ["Dave Calhoun"]},
{"text": "\"The Hobbit\" is an impressive first chapter.", "is_fresh": 1, "author": ["Rafer Guzman"]},
{"text": "Even though this installment is mostly a prelude, Jackson's eccentric mixture of low humor, earnest foreboding and digitally processed pageantry is consistently engaging and immersive.", "is_fresh": 1, "author": ["Keith Uhlich"]},
{"text": "Piles on enough eye candy and action sequences to please fans, plus more humor than the three \"Rings\" films - even if it only occasionally achieves the trio's grandeur.", "is_fresh": 1, "author": ["Lou Lumenick"]},
{"text": "If Peter Jackson couldn't tell this slight story in a single film there's no hope the other two in this prequel series will be any less bloated.", "is_fresh": 0, "author": ["Daniel M. Kimmel"]},
{"text": "It's easy to spot the padding in this over-long, character-packed, bladder-testing, 162-minute first instalment. But there's still more than enough here to make it a worthy addition to the Oscar-laden fantasy series.", "is_fresh": 1, "author": ["Andy Lea"]},
{"text": "It's a promising start...but where it's going to in the two remaining movies is anybody's guess.", "is_fresh": 1, "author": ["Tim Evans"]},
{"text": "The Hobbit may be a different story to The Lord Of The Rings ... but there is really nothing all that unexpected about this journey.", "is_fresh": 1, "author": ["Matt Looker"]},
{"text": "I found myself concentrating more on the strange look of the film and less on the film itself.", "is_fresh": 1, "author": ["Danny Minton"]},
{"text": "Thankfully, Freeman is a charismatic lead, employing that familiar look of weary bemusement (perfected on The Office) to offer a humorous counterpoint to all the growly doom-mongering.", "is_fresh": 1, "author": ["Stella Papamichael"]},
{"text": "While fans of J.R.R. Tolkien's novels and The Lord of the Rings movies will find plenty to enjoy and marvel over, non-believers may find themselves getting bored and bemused by the unnecessarily drawn-out story.", "is_fresh": 0, "author": ["John Hiscock"]},
{"text": "Where the format comes into its own is in intense, action-packed territory. An Unexpected Journey's battle sequences are especially striking.", "is_fresh": 1, "author": ["Neala Johnson"]},
{"text": "Where the format comes into its own is in intense, action-packed territory. An Unexpected Journey's battle sequences are especially striking.", "is_fresh": 1, "author": ["Neala Johnson"]},
{"text": "An Unexpected Journey is a bit ropey, excessive and padded in places, sure, but if that's the worst and the best is yet to come, then this could end up being another great trilogy.", "is_fresh": 1, "author": ["Dave Golder"]},
{"text": "What's all this add up to? Not terribly much.", "is_fresh": 0, "author": ["Laremy Legel"]},
{"text": "It's not as good as I hoped, but it's also a lot better than I feared.", "is_fresh": 1, "author": ["Christopher Tookey"]},
{"text": "And we're back! Slam bang in Middle-earth as though the Lord of the Rings trilogy never went away, which it didn't.", "is_fresh": 1, "author": ["Kate Muir"]},
{"text": "Thankfully, Jackson's flair for action sequences and bold and complex production design hasn't deserted him.", "is_fresh": 1, "author": ["Geoffrey Macnab"]},
{"text": "Viewers have come to expect visceral combat between characters who feel tangible in their appearance and reactions, but there's none of that here.", "is_fresh": 0, "author": ["Rob Hunter"]},
{"text": "On balance, honor has been done to Tolkien, not least in the famous riddle game between Bilbo and Gollum, and some of the exploits to come will surely lighten the load.", "is_fresh": 1, "author": ["Anthony Lane"]},
{"text": "An Unexpected Journey is a competent, entertaining effort but it neither enthralls nor amazes in the way its predecessors did.", "is_fresh": 1, "author": ["James Berardinelli"]},
{"text": "( ... )despite plenty of flaws, this new forerunner to JRR Tolkien's The Lord of the Rings is set to have merit on its own terms. It's the most exciting film of 2012. And it's a technological ground breaker, too...", "is_fresh": 1, "author": ["Graham Young"]},
{"text": "[M]ore than a bit like slogging through overly completist volumes of fan fiction, and that is going to bore more casual moviegoers, and also some serious fans...", "is_fresh": 0, "author": ["MaryAnn Johanson"]},
{"text": "It's hard to overstate the degree to which the 48fps format interfered with my ability to get lost in this movie's story.", "is_fresh": 0, "author": ["Dana Stevens"]},
{"text": "The Hobbit plays younger and lighter than Fellowship and its follow-ups, but does right by the faithful and has a strength in Martin Freeman's Bilbo that may yet see this trilogy measure up to the last one. There is treasure here.", "is_fresh": 1, "author": ["Dan Jolin"]},
{"text": "The Lord of the Rings trilogy [has] been replaced by something that resembles tatty summer-stock theater.", "is_fresh": 0, "author": ["David Edelstein"]},
{"text": "Peter Jackson returns to the Middle Earth he rendered so faithfully in Lord of the Rings, and it's never looked so glorious.", "is_fresh": 1, "author": ["James Mottram"]},
{"text": "The real triumph of The Hobbit is that Peter Jackson leaves you wanting more.", "is_fresh": 1, "author": ["Allan Hunter"]},
{"text": "A tighter hand (and one less film in the mix) may have helped this first film somewhat but there's no doubt that the first step taken on our journey with The Hobbit is an enjoyable and visually stunning one.", "is_fresh": 1, "author": ["Jon Lyus"]},
{"text": "Jackson has made The Hobbit with brio and fun, and Martin Freeman is just right as Bilbo Baggins: he plays it with understatement and charm.", "is_fresh": 1, "author": ["Peter Bradshaw"]},
{"text": "As a lover of cinema, Jackson's film bored me rigid; as a lover of Tolkien, it broke my heart.", "is_fresh": 0, "author": ["Robbie Collin"]},
{"text": "Emotionally rewarding, imaginatively detailed and made with a genuine sense of joy, the first Hobbit chapter succeeds despite its structural and formatting mis-steps.", "is_fresh": 1, "author": ["Emma Dibdin"]},
{"text": "Peter Jackson triumphantly returns to Middle Earth with The Hobbit: An Unexpected Journey. A folksy, beguiling adventure, we get to enjoy the splendor of the story and fantastic settings in a more whimsical experience.", "is_fresh": 1, "author": ["Julian Roman"]},
{"text": "Grandiose and visually spectacular, although the visual effects overwhelm the narrative.", "is_fresh": 1, "author": ["Susan Granger"]},
{"text": "An Unexpected Journey has so many pay-offs that most are likely to re-engage with the saga. ", "is_fresh": 1, "author": ["Garry Maddox"]},
{"text": "Once these dwarves, accompanied by Bilbo and Gandalf, hit the road, the film takes off and doesn't come down until the credits roll. ", "is_fresh": 1, "author": ["Marshall Fine"]},
{"text": "Even once Bilbo and company take to the hobbit highway, the pacing is leisurely verging on lethargic ...", "is_fresh": 0, "author": ["Scott Foundas"]},
{"text": "The movie lacks majesty. Grand in parts, the movie is too often grandiose or grandiloquent; and the running time is indefensible.", "is_fresh": 0, "author": ["Richard Corliss"]},
{"text": "The Lord of the Rings trilogy behind him, Peter Jackson has begun yet another, this time adapting the Tolkien epic, The Hobbit. ", "is_fresh": 1, "author": ["Joanna Langfield"]},
{"text": "Thank goodness for Martin Freeman, who makes Bilbo a feeling person & a hobbit. Otherwise, the film is so awed by its technical ingenuity that character and story fade away. ", "is_fresh": 0, "author": ["Caryn James"]},
{"text": "The first chapter of Jackson's new trilogy is decent, if not enirely satisfying, bound to suffer from inevitable comparisons with the superior, Oscar-winning Lord of the Rings.", "is_fresh": 1, "author": ["Emanuel Levy"]},
{"text": "Not as immediately captivating as the LOTR trilogy, but it's still a return trip to Middle Earth that's well worth taking. Martin Freeman makes a perfect Bilbo, and Ian McKellen is superb (as always). ", "is_fresh": 1, "author": ["Chris Bumbray"]},
{"text": "Peter Jackson's return to swords, sorcery and beards deserving of their own postcodes is fantasy how it ought to be.", "is_fresh": 1, "author": ["Matthew Leyland"]},
{"text": "This film is pure excess that's almost definitely motivated by studio greed, but it's light entertainment that will please fans, and Andy Serkis damn-near runs away with the film during his exemplary third-act appearance as Gollum.", "is_fresh": 1, "author": ["Shaun Munro"]},
{"text": "Tolkien's brisk story of intrepid little hobbit Bilbo Baggins is drawn out and diluted by dispensable trimmings better left for DVD extras.", "is_fresh": 0, "author": ["David Germain"]},
{"text": "Wild slides into caves, pell-mell chases, absurd cliffhangers and other such \"thrill-rides\" in 3D give the film a playfulness.", "is_fresh": 1, "author": ["Kirk Honeycutt"]},
{"text": "Fulfilling just a fraction of J.R.R. Tolkien's \"There and Back Again\" subtitle, The Hobbit alternately rewards and abuses auds' appetite for all things Middle-earth.", "is_fresh": 1, "author": ["Peter Debruge"]},
{"text": "Where Jackson might occasionally misstep tonally, he takes the reigns from the episodic original and runs with generally fantastic results through several narrative additions, all of which give the characters more agency in their own affairs.", "is_fresh": 1, "author": ["Shawn Adler"]},
{"text": "While Jackson hasn't delivered a hit on par with his \"Lord of the Rings\" movies, \"The Hobbit\" proves he can still do justice to the tricky blend of fantasy and action that made the earlier entries such enjoyable works of popular entertainment.", "is_fresh": 1, "author": ["Eric Kohn"]},
{"text": "There are elements in this new film that are as spectacular as much of the Rings trilogy was, but there is much that is flat-footed and tedious as well, especially in the early going.", "is_fresh": 0, "author": ["Todd McCarthy"]},
{"text": "Setting aside technological considerations, The Hobbit is nothing short of a joyous homecoming.", "is_fresh": 1, "author": ["Alice Tynan"]},
{"text": "An Unexpected Journey may as well be The Phantom Menace and God help us all if the next two movies aren't better than this one.", "is_fresh": 0, "author": ["Edward Douglas"]},
{"text": "It's not as bad as you feared, but not as good as you hoped. ", "is_fresh": 1, "author": ["Devin Faraci"]},
{"text": "Peter Jackson's fourth trip to Middle-earth can't quite recapture the greatness, emotional impact or charm of the LOTR films, but there's still much to enjoy about The Hobbit: An Unexpected Journey.", "is_fresh": 1, "author": ["Jim Vejvoda"]},
{"text": "For now, 'The Hobbit: An Unexpected Journey' is a good start, but with the expectations resting on the film, is good going to be good enough? ", "is_fresh": 1, "author": ["Drew McWeeny"]},
{"text": "A fresh, free-spirited form of fantasy, Jackson's latest provides a younger generation with a stepping stone to his later films while serving the adult's who want more. ", "is_fresh": 1, "author": ["Matt Patches"]},
{"text": "Boasting an appreciably dark tone and a seemingly endless array of visual astonishments, this \"Hobbit\" suffers from a bit of d\u00e9j\u00e0 vu.", "is_fresh": 1, "author": ["Tim Grierson"]},
{"text": "Unless your dreams are populated by denizens of Middle Earth, endless footage of them simply talking or walking is a lot less spectacular than Peter Jackson thinks it is.", "is_fresh": 0, "author": ["Jordan Hoffman"]},
{"text": "A briskly engaging adventure shrouded in superfluous detail, though also, yes, admittedly, technical virtuosity, it's an accomplished if unexciting first chapter in the preamble to his Oscar-winning film series.", "is_fresh": 1, "author": ["Todd Gilchrist"]},
{"text": "For its occasional moments of excess and unhurried pace, An Unexpected Journey is proof that Jackson still has a knack for stories in this world.", "is_fresh": 1, "author": ["Katey Rich"]},
{"text": "The Hobbit: An Unexpected Journey is more fun than The Fellowship of the Ring, no doubt about it.", "is_fresh": 1, "author": ["Luke Y. Thompson"]},
{"text": "Tolkien could invent names and languages, but he couldn't create a plot at gunpoint. ", "is_fresh": 0, "author": ["James Rocchi"]},
{"text": "This film stands ably on its own, offering up generous piles of large scale fantasy underscored by genuine emotional heft and boundary-pushing visuals.", "is_fresh": 1, "author": ["Dominic Corry"]},
{"text": "The movie itself is a lot of fun. And if you can separate yourself from the visual distraction, you'll find plenty to enjoy.", "is_fresh": 1, "author": ["Elizabeth Weitzman"]},
{"text": "Vital as they are, Gollum and Bilbo can only do so much to keep us enchanted. Is Jackson able to sustain the magic in two more installments? I peer into Tolkien's Misty Mountains and embrace the journey.", "is_fresh": 1, "author": ["Lisa Schwarzbaum"]}
]