[
{"reviews_count": "31", "title": "Thunder Road", "avg_audience_rating": "4.8", "rotten_count": "1", "tomatometer": "97", "audience_score": "98", "avg_critic_rating": "  8", "fresh_count": "30", "user_ratings_count": "890"},
{"text": "It's hard not to laugh at some of the more ridiculous moments, though our laughter abates when we come to recognize the feeling inscribed in Cummings' work. It comes from a deep place, and the hurt never rings false.", "is_fresh": 1, "author": ["Tomas Trussow"]},
{"text": "It's a singular performance in a singular movie, to be certain. One that will have you smiling and teary-eyed for various - right or wrong - reasons.", "is_fresh": 1, "author": ["Bill Arceneaux"]},
{"text": "Emotionally in tune with the struggles of being both a parent and a child, Cummings creates an off-kilter love letter that speaks to the complexities of family dynamics.", "is_fresh": 1, "author": ["Morgan Rojas"]},
{"text": "At turns funny, uncomfortable, and heartbreaking, and I think what works best about is that Cummings is dropped into a serious cop-on-the-edge plot, despite looking like a cop from Super Troopers.", "is_fresh": 1, "author": ["Stephen Silver"]},
{"text": "Cummings performance is a tour de force -- a completely hashed out flawed character that the audience connects with and feels his pain.", "is_fresh": 1, "author": ["Micheal Compton"]},
{"text": "The opening of Thunder Road is one of the most cringingly hilarious scenes of 2018. The rest of the movie never quite reaches the level of awkward humor in that opening number, but it comes close.", "is_fresh": 1, "author": ["Deirdre Crimmins"]},
{"text": "Remarkably, Cummings manages to piece these oddball vignettes into a vivid drama with its own unpredictable, startlingly lovely shape.", "is_fresh": 1, "author": ["Justin Chang"]},
{"text": "Thunder Road provides a fine showcase for Cummings, as a filmmaker of some sensitivity and as an actor who shows the full range of this tragic clown.", "is_fresh": 1, "author": ["Mark Dujsik"]},
{"text": "Though the sky might be falling, \"Thunder Road\" swirls about the tragicomedy of Officer Arnaud's plight with ease. It's hard to really forge a film that can wreck you and play with such liveliness.", "is_fresh": 1, "author": ["Cory Woodroof"]},
{"text": "The fragility of masculine performance is being interrogated here, although no one articulates this, fortunately. ", "is_fresh": 1, "author": ["Ken Eisner"]},
{"text": "The brilliance of Thunder Road is how Jim Cummings strikes a tone of outrageous humor and legitimately earned sadness within the same scene, a feat he accomplishes multiple times throughout the dark comedy", "is_fresh": 1, "author": ["Robert Kojder"]},
{"text": "It's a testament to the filmmakers here that they manage to maintain a superb balance of comedy and tragedy in this original tale.", "is_fresh": 1, "author": ["John Hanlon"]},
{"text": "I have seen humanistic American filmmaking's future, and its name is Jim Cummings.", "is_fresh": 1, "author": ["David Fear"]},
{"text": "All conveyed in Cummings' tour-de-force performance, Thunder Road is about grief and guilt, hopelessness and hopefulness.", "is_fresh": 1, "author": ["Matthew Passantino"]},
{"text": "Warmth and uncomfortable comedy rarely align this sharply as Jim Cummings evokes a level of confident versatility reminiscent of early Tom Hanks. Thunder Road is one of the best films of the year.", "is_fresh": 1, "author": ["Aaron Peterson"]},
{"text": "Thunder Road is an exhilarating ride. It announces Jim Cummings as a talent to be reckoned with and dances on the jagged precipice of emotional contradictions. It's a graceless dance to watch, but delivered with the utmost control and grace.", "is_fresh": 1, "author": ["Marjorie Baumgarten"]},
{"text": "Offers a memorable depiction of a man ill-equipped to deal with or direct his feelings-probably not all that different from the rest of us.", "is_fresh": 1, "author": ["Ignatiy Vishnevetsky"]},
{"text": "Jim Cummings astonishes as writer-director-star in this tonally perfect, profoundly moving comic drama.", "is_fresh": 1, "author": ["Shaun Munro"]},
{"text": "Thunder Road comes with a nice blend of tragedy and comedy with a marvelous performance from multi-hyphenate Jim Cummings.", "is_fresh": 1, "author": ["Danielle Solzman"]},
{"text": "It's a true powerhouse performance as Cummings shows his uncanny ability to traverse the delicate roads of a public nervous breakdown with pathos and humor.", "is_fresh": 1, "author": ["Jared Mobarak"]},
{"text": "The vast majority of the people around me genuinely liked the movie, and I just didn't get why they were so enthusiastic...it lent itself to me checking my watch regularly.", "is_fresh": 0, "author": ["Lisa Nesselson"]},
{"text": "The thrill of Thunder Road is witnessing the out-of-nowhere emergence of Cummings as a fully-formed artist.", "is_fresh": 1, "author": ["Mark Keizer"]},
{"text": "It's a stunner.", "is_fresh": 1, "author": ["Stephen Saito"]},
{"text": "With Thunder Road, we witness the birth of a comic actor who could very well grow into one of the finest of this generation. ", "is_fresh": 1, "author": ["Alistair Ryder"]},
{"text": "Cummings, who also wrote and directed the film, has delivered a remarkable tragicomic performance in the lead.", "is_fresh": 1, "author": ["A.A. Dowd"]},
{"text": "As both writer and director, Cummings proves his mettle time and again, swerving madly from comedy to tragedy without missing a beat, proficient at both genres.", "is_fresh": 1, "author": ["Christopher Llewellyn Reed"]},
{"text": "Driven by Cummings' transfixingly vulnerable performance, the movie not only justifies returning to the source: Shockingly, it does so without even using the device that seemed key to the short's success.", "is_fresh": 1, "author": ["John DeFore"]},
{"text": "When Cummings finds the right balance of dramatic license and believable characterization, 'Thunder Road' is exhilarating to watch.", "is_fresh": 1, "author": ["Brian Tallerico"]},
{"text": "Uncompromisingly challenging at times, Jim Cummings' feature-length adaptation of his award-winning 2016 short film Thunder Road offers a unique portrait of a tightly wound lawman on the verge of a nervous breakdown.", "is_fresh": 1, "author": ["John Fink"]},
{"text": "Thunder Road lands on a tragic development, but upends it with a single teary-eyed moment that hints - with no real evidence - that better things may be around the corner. ", "is_fresh": 1, "author": ["Eric Kohn"]},
{"text": "Cummings is a born filmmaker who plants seedlings of raw drama that sprout in unexpected and moving ways.", "is_fresh": 1, "author": ["Owen Gleiberman"]},
{"text": "It's hard not to laugh at some of the more ridiculous moments, though our laughter abates when we come to recognize the feeling inscribed in Cummings' work. It comes from a deep place, and the hurt never rings false.", "is_fresh": 1, "author": ["Tomas Trussow"]},
{"text": "It's a singular performance in a singular movie, to be certain. One that will have you smiling and teary-eyed for various - right or wrong - reasons.", "is_fresh": 1, "author": ["Bill Arceneaux"]},
{"text": "Emotionally in tune with the struggles of being both a parent and a child, Cummings creates an off-kilter love letter that speaks to the complexities of family dynamics.", "is_fresh": 1, "author": ["Morgan Rojas"]},
{"text": "At turns funny, uncomfortable, and heartbreaking, and I think what works best about is that Cummings is dropped into a serious cop-on-the-edge plot, despite looking like a cop from Super Troopers.", "is_fresh": 1, "author": ["Stephen Silver"]},
{"text": "Cummings performance is a tour de force -- a completely hashed out flawed character that the audience connects with and feels his pain.", "is_fresh": 1, "author": ["Micheal Compton"]},
{"text": "The opening of Thunder Road is one of the most cringingly hilarious scenes of 2018. The rest of the movie never quite reaches the level of awkward humor in that opening number, but it comes close.", "is_fresh": 1, "author": ["Deirdre Crimmins"]},
{"text": "Remarkably, Cummings manages to piece these oddball vignettes into a vivid drama with its own unpredictable, startlingly lovely shape.", "is_fresh": 1, "author": ["Justin Chang"]},
{"text": "Thunder Road provides a fine showcase for Cummings, as a filmmaker of some sensitivity and as an actor who shows the full range of this tragic clown.", "is_fresh": 1, "author": ["Mark Dujsik"]},
{"text": "Though the sky might be falling, \"Thunder Road\" swirls about the tragicomedy of Officer Arnaud's plight with ease. It's hard to really forge a film that can wreck you and play with such liveliness.", "is_fresh": 1, "author": ["Cory Woodroof"]},
{"text": "The fragility of masculine performance is being interrogated here, although no one articulates this, fortunately. ", "is_fresh": 1, "author": ["Ken Eisner"]},
{"text": "The brilliance of Thunder Road is how Jim Cummings strikes a tone of outrageous humor and legitimately earned sadness within the same scene, a feat he accomplishes multiple times throughout the dark comedy", "is_fresh": 1, "author": ["Robert Kojder"]},
{"text": "It's a testament to the filmmakers here that they manage to maintain a superb balance of comedy and tragedy in this original tale.", "is_fresh": 1, "author": ["John Hanlon"]},
{"text": "I have seen humanistic American filmmaking's future, and its name is Jim Cummings.", "is_fresh": 1, "author": ["David Fear"]},
{"text": "All conveyed in Cummings' tour-de-force performance, Thunder Road is about grief and guilt, hopelessness and hopefulness.", "is_fresh": 1, "author": ["Matthew Passantino"]},
{"text": "Warmth and uncomfortable comedy rarely align this sharply as Jim Cummings evokes a level of confident versatility reminiscent of early Tom Hanks. Thunder Road is one of the best films of the year.", "is_fresh": 1, "author": ["Aaron Peterson"]},
{"text": "Thunder Road is an exhilarating ride. It announces Jim Cummings as a talent to be reckoned with and dances on the jagged precipice of emotional contradictions. It's a graceless dance to watch, but delivered with the utmost control and grace.", "is_fresh": 1, "author": ["Marjorie Baumgarten"]},
{"text": "Offers a memorable depiction of a man ill-equipped to deal with or direct his feelings-probably not all that different from the rest of us.", "is_fresh": 1, "author": ["Ignatiy Vishnevetsky"]},
{"text": "Jim Cummings astonishes as writer-director-star in this tonally perfect, profoundly moving comic drama.", "is_fresh": 1, "author": ["Shaun Munro"]},
{"text": "Thunder Road comes with a nice blend of tragedy and comedy with a marvelous performance from multi-hyphenate Jim Cummings.", "is_fresh": 1, "author": ["Danielle Solzman"]},
{"text": "It's a true powerhouse performance as Cummings shows his uncanny ability to traverse the delicate roads of a public nervous breakdown with pathos and humor.", "is_fresh": 1, "author": ["Jared Mobarak"]}
]