[
{"reviews_count": "6", "title": "Time Trap", "avg_audience_rating": "3.9", "rotten_count": "2", "tomatometer": "67", "audience_score": "74", "avg_critic_rating": "7.2", "fresh_count": "4", "user_ratings_count": "215"},
{"text": "Time Trap ... offers viewers an intriguing premise supported by a solid ensemble cast that frequently entertains.", "is_fresh": 1, "author": ["Christopher Llewellyn Reed"]},
{"text": "What started with a very cool concept ended up tripping over itself time and time again. ", "is_fresh": 0, "author": ["Amyana Bartley"]},
{"text": "In the moment... it's entertaining and chock-full of enough deliciously weird interludes that it's impossible to be too harsh.", "is_fresh": 1, "author": ["James Berardinelli"]},
{"text": "This opens things up to plenty of new dangers, including aliens and some seriously hostile cavemen, but not the kind of wholly propulsive, time-tripping fun that might be expected.", "is_fresh": 0, "author": ["Gary Goldstein"]},
{"text": "Time Trap is highly creative, populated with relatable characters, with a whip-smart script. Sadly, the very end of the movie undoes the tense atmosphere setup throughout. While it does not ruin the film, it does leave one a bit disappointed.", "is_fresh": 1, "author": ["Bobby LePire"]},
{"text": "Aliens. Conquistadors. Cavemen. All three filmic mainstays crop up in this soft sci-fi thriller.", "is_fresh": 1, "author": ["Matt Oakes"]}
]