[
{"reviews_count": "57", "title": "To Kill a Mockingbird", "avg_audience_rating": "3.9", "rotten_count": "5", "tomatometer": "91", "audience_score": "92", "avg_critic_rating": "8.8", "fresh_count": "52", "user_ratings_count": "178,829"},
{"text": "Solid social conscience drama.", "is_fresh": 1, "author": ["Dennis Schwartz"]},
{"text": "A fine, moving, informative period piece for all ages, To Kill a Mockingbird is as much an abiding favourite as the book.", "is_fresh": 1, "author": ["Andrew Collins"]},
{"text": "Peck's performance, in tortoiseshell glasses and a cream linen suit, is mesmerizing and serious.", "is_fresh": 1, "author": ["Kate Muir"]},
{"text": "\"To Kill a Mockingbird\" relates the Cult of Childhood to the Negro Problem with disastrous results.", "is_fresh": 0, "author": ["Andrew Sarris"]},
{"text": "Gregory Peck stays beautifully within the character of the bespectacled, widowed man, but with its episodes unevenly joined, the script is too repetitive and long.", "is_fresh": 0, "author": []},
{"text": "As Mulligan so deftly demonstrates, the story is in the characters, their failings and fragility, their heroism and nobility of spirit.", "is_fresh": 1, "author": ["Marc Lee"]},
{"text": "I got so much more from this story as an adult, and it's a shame that my adolescent stubbornness kept me from the movie for so many years.", "is_fresh": 1, "author": ["Kevin Carr"]},
{"text": "Because the story is related through young Scout and Jem, that childhood wonder and fear is never close behind. ", "is_fresh": 1, "author": ["Eric Melin"]},
{"text": "One of those rare instances when a movie perfectly captures the essence of its source material without compromising it in any way.", "is_fresh": 1, "author": ["Matt Brunson"]},
{"text": "Justly celebrated.", "is_fresh": 1, "author": ["Joe Morgenstern"]},
{"text": "One of Hollywood's finest achievements, To Kill A Mockingbird is truly timeless.", "is_fresh": 1, "author": []},
{"text": "Since its release, this intelligent, atmospheric film has been warmly received by audiences responding not only to their own childhood, but also to the heroic image portrayed by Peck, a shining example of citizenship and affectionate fatherhood.", "is_fresh": 1, "author": []},
{"text": "To Kill a Mockingbird is a time capsule, preserving hopes and sentiments from a kinder, gentler, more naive America.", "is_fresh": 0, "author": ["Roger Ebert"]},
{"text": "Harper Lee's child's-eye view of southern bigotry gains something in its translation to the screen by Robert Mulligan, who knows exactly where to place the camera to catch a child's subjective experience.", "is_fresh": 1, "author": ["Dave Kehr"]},
{"text": "A terrific central performance by Gregory Peck makes for an outstanding big screen adaptation of Harper Lee's classic novel.", "is_fresh": 1, "author": ["Wesley Lovell"]},
{"text": "So much of the novel's reckless atmosphere is missing...", "is_fresh": 0, "author": ["Josh Larsen"]},
{"text": "Oscar winner Gregory Peck is ideal casting as Atticus, for his Lincoln-like integrity and intelligence perfectly serve the role", "is_fresh": 1, "author": ["Dan Jardine"]},
{"text": "Uneven film whose strong point is anti-racism.", "is_fresh": 1, "author": ["Michael E. Grost"]},
{"text": "To Kill a Mockingbird should make admirers of the novel weep many times over.", "is_fresh": 1, "author": ["Gabe Leibowitz"]},
{"text": "To Kill A Mockingbird is a product of American realism, and it is a rare and worthy treasure.", "is_fresh": 1, "author": ["James Powers"]},
{"text": "This one is always just off the boil.", "is_fresh": 0, "author": ["Geoff Andrew"]},
{"text": "With the Tom Robinson plot intertwining with Scout and Jem's education in the ugly flaws of a world they're only beginning to comprehend, today the film offers an extra accumulated layer of 'meaning.'", "is_fresh": 1, "author": ["Mark Bourne"]},
{"text": "A classic adaptation of an American classic. Storytelling doesn't get much better than this.", "is_fresh": 1, "author": ["William Thomas"]},
{"text": "Regardless of its flaws, it occupies a specific place in American cinema; it's easy to enjoy and hard to forget.", "is_fresh": 1, "author": ["Jeffrey M. Anderson"]},
{"text": "Above all, it's a film about listening to Dad.", "is_fresh": 1, "author": ["Phil Villarreal"]},
{"text": "Arguably one of the best dramatic films ever made, brought home with tons of great features, a sparkling new transfer, and a nifty fold-out case.", "is_fresh": 1, "author": ["Scott Weinberg"]},
{"text": "Combining the best of Southern Gothic and coutroom drama traditions, this Oscar-winner is poignant as a classic coming-of-age tale and expose of the American legal system", "is_fresh": 1, "author": ["Emanuel Levy"]},
{"text": "Superb on all counts. Great adaptation of the memorable novel.", "is_fresh": 1, "author": ["Steve Crum"]},
{"text": "Right, like anyone cares what I say about it at this point.", "is_fresh": 1, "author": ["Luke Y. Thompson"]},
{"text": "Minor shortcomings in a rewarding film.", "is_fresh": 1, "author": ["Bosley Crowther"]},
{"text": "There are few films that can be called perfect, this is one of them.", "is_fresh": 1, "author": ["Andrea Chase"]},
{"text": "...To Kill A Mockingbird leaves you with a much-needed belief in hope, ignited anew by the eyes of children.", "is_fresh": 1, "author": ["Anita Schmaltz"]},
{"text": "...endearing, heartwarming, tragic, uplifting, and, ultimately, inspiring. Movies don't get any better than this.", "is_fresh": 1, "author": ["John J. Puccio"]},
{"text": "The film is honest about a time in this country when happy endings were few and far between.", "is_fresh": 1, "author": ["Steven Snyder"]},
{"text": "One of the best movies ever created. Poor mockingbird.", "is_fresh": 1, "author": ["Alex Sandell"]},
{"text": "Universally recognized as a classic, and the label is well deserved.", "is_fresh": 1, "author": ["James Berardinelli"]},
{"text": "An oldie but goody that can still entertain as it preaches.", "is_fresh": 1, "author": ["Rachel Gordon"]},
{"text": "Harper Lee's highly regarded first novel has been artfully and delicately translated to the screen.", "is_fresh": 1, "author": []},
{"text": "Made in black and white in 1962 at a time when other movies had switched to color, it shattered many notions of what was right.", "is_fresh": 1, "author": ["Steve Rhodes"]},
{"text": "To Kill a Mockingbird (1962) is a much-loved, critically-acclaimed, classic trial film, a dramatic tour-de-force of acting, a portrayal of childhood innocence, and", "is_fresh": 1, "author": ["Tim Dirks"]},
{"text": "", "is_fresh": 1, "author": ["Cole Smithey"]},
{"text": "", "is_fresh": 1, "author": ["Michael Dequina"]},
{"text": "", "is_fresh": 1, "author": ["Chuck O'Leary"]},
{"text": "", "is_fresh": 1, "author": ["Nicolas Lacroix"]},
{"text": "", "is_fresh": 1, "author": ["Mark R. Leeper"]},
{"text": "", "is_fresh": 1, "author": ["Jake Euker"]},
{"text": "", "is_fresh": 1, "author": ["Andy Klein"]},
{"text": "", "is_fresh": 1, "author": ["Bob Bloom"]},
{"text": "", "is_fresh": 1, "author": ["Linda Cook"]},
{"text": "", "is_fresh": 1, "author": ["Frank Swietek"]},
{"text": "", "is_fresh": 1, "author": ["Carol Cling"]},
{"text": "", "is_fresh": 1, "author": ["Nell Minow"]},
{"text": "", "is_fresh": 1, "author": ["Brian J. Arthurs"]},
{"text": "", "is_fresh": 1, "author": ["Paul Matwychuk"]},
{"text": "", "is_fresh": 1, "author": ["Josh Gilchrist"]},
{"text": "", "is_fresh": 1, "author": ["Philip Martin"]},
{"text": "", "is_fresh": 1, "author": ["Jeffrey Westhoff"]}
]