[
{"reviews_count": "54", "title": "Top Gun", "avg_audience_rating": "3.5", "rotten_count": "25", "tomatometer": "54", "audience_score": "83", "avg_critic_rating": "5.8", "fresh_count": "29", "user_ratings_count": "724,061"},
{"text": "... \"Top Gun\" is terribly monotonous.", "is_fresh": 0, "author": ["Kathleen Carroll"]},
{"text": "The movie, in short, hits its emotional marks, but it does so with such insistence that it feels less like real life than an object lesson in the architecture of the blockbuster.", "is_fresh": 0, "author": ["Paul Attanasio"]},
{"text": "Could Top Gun actually be a portrait of the dark side of American individualism?", "is_fresh": 1, "author": ["Josh Larsen"]},
{"text": "Slickly made, it's a fairly entertaining watch that doesn't provide much beyond surface thrills, although many have had fun analyzing its (unintentional?) homoerotic content.", "is_fresh": 1, "author": ["Matt Brunson"]},
{"text": "\"Top Gun\" works best as a sort of time capsule, a window into a pretty spectacular decade for big-budget filmmaking.", "is_fresh": 1, "author": ["J. Olson"]},
{"text": "Cruise, the cheesy soundtrack and the stunning aerial photography that marks out its combat scenes are its three main selling points.", "is_fresh": 0, "author": ["Jennie Kermode"]},
{"text": "You can argue that it's a cool movie, but is \"Top Gun\" a good movie? I'd definitely say \"Hell no,\" topped with \"Are you kidding me?\"", "is_fresh": 0, "author": ["Felix Vasquez Jr."]},
{"text": "The unashamedly goofy 1986 dogfighting classic flips on the afterburners to make yet another pass on Blu-ray, this time soaring into the third dimension. ", "is_fresh": 1, "author": ["Phil Villarreal"]},
{"text": "It's still the same old Top Gun, retaining every frame of ridiculousness and emphatic acting that turned the Don Simpson/Jerry Bruckheimer production into a legend. ", "is_fresh": 0, "author": ["Brian Orndorf"]},
{"text": "The 3D is impressive considering it wasn't shot for that, and the sound delivers full throttle engine roars and the legendary soundtrack sounds as crisp as ever. ", "is_fresh": 1, "author": ["Mark Ellis"]},
{"text": "If you missed it in theaters the first time, it's probably going to be the best movie theater experience you'll have so far this year.", "is_fresh": 1, "author": ["Kristian Harloff"]},
{"text": "An undeniably cheesy yet strangely appealing time capsule, with a little something for everyone provided we understand that it's all bubblegum. ", "is_fresh": 1, "author": ["Rob Vaux"]},
{"text": "There are elements that hold up - especially Cruise's blinding charisma. The aerial scenes are still thrilling, and perfectly suited to a giant screen. Everything else? Well, that depends on how nostalgic you're feeling.", "is_fresh": 1, "author": ["Elizabeth Weitzman"]},
{"text": "The aerial sequences in Top Gun are as thrilling -- while remaining coherent -- as any ever put on film.", "is_fresh": 1, "author": ["Gene Siskel"]},
{"text": "Watching Top Gun again twenty five years after its release is still a dazzling and dizzying experience. You are not so much on the edge of your seat as flung around it as the on-screen action endlessly spins and soars. ", "is_fresh": 1, "author": ["Brian Henry Martin"]},
{"text": "Basically perfect, even it is perfect at one of the worst sorts of things a movie can attempt.", "is_fresh": 0, "author": ["Tim Brayton"]},
{"text": "Whether you love Top Gun or hate it -- or hate yourself for loving it -- the fact is that when it became the top-grossing film of 1986, Hollywood in its infinite wisdom took all of the worst lessons from its success and overlooked what made it so... fun.", "is_fresh": 1, "author": ["Chris Nashawaty"]},
{"text": "Among the first generation of films influenced by the cutting techniques of music videos, a progression of oversaturated, meaty images, embarrassing dialogue and awful music.", "is_fresh": 1, "author": ["Burl Burlingame"]},
{"text": "Top Gun is about the training of the Navy's best fighter pilots and their blooding in cold war incidents, and the only thing Director Tony Scott has not brought up to date is the story.", "is_fresh": 0, "author": []},
{"text": "This paean to hotshot Navy fighter pilots and high technology attracted mass audiences despite its familiar plot and characters so vapid they vanish from memory as soon as the house lights come up.", "is_fresh": 0, "author": []},
{"text": "Every moment is hyped for maximum visual and visceral impact, but Scott doesn't display the slightest bit of interest (or belief) in the actual characters and situations.", "is_fresh": 0, "author": ["Dave Kehr"]},
{"text": "Tom Cruise classic still revs engines.", "is_fresh": 1, "author": ["Heather Boerner"]},
{"text": "Set in the world of naval fighter pilots, pic has strong visuals and pretty young people in stylish clothes and a non-stop soundtrack.", "is_fresh": 1, "author": ["Variety Staff"]},
{"text": "Watchable but rarely enthralling...", "is_fresh": 1, "author": ["David Nusair"]},
{"text": "Like many films from its decade, Top Gun is steeped in 80s culture %u2013 from the top 40 music to the clothing styles.", "is_fresh": 1, "author": ["Kevin Carr"]},
{"text": "(Its success) supports the pop-psych analysis that pre-actualized teenage boys are the most homosexual beings in existence.", "is_fresh": 0, "author": ["Walter Chaw"]},
{"text": "A movie for adolescents, and adults who willfully decide not to know better for a couple of hours. [Blu-Ray]", "is_fresh": 0, "author": ["Peter Canavese"]},
{"text": "You get about thirty minutes of good movie in Top Gun, and most of that comes at the end.", "is_fresh": 0, "author": ["John J. Puccio"]},
{"text": "This movie gets worse with time.", "is_fresh": 0, "author": ["Cole Smithey"]},
{"text": "Noisy, slick, and shallow, Tony Scott's MTV-like actioner became emblematic of 1980s blockbusters, reflecting in its macho bravado and cheap elitism the mood of the Reagan era; in the process, it also made Tom Cruise the biggest star of his generation", "is_fresh": 0, "author": ["Emanuel Levy"]},
{"text": "The story is risible, the direction routine, the underlying ethic highly questionable; but the flying stirs the blood like speed.", "is_fresh": 1, "author": []},
{"text": "Not exactly a cinema classic but it has not only become a cultural icon but remains infinitely rewatchable.", "is_fresh": 1, "author": ["Adam Smith"]},
{"text": "today its legacy is more of a punchline as an analogy for '80s overindulgence in action films and as a vehicle to be freely reinterpreted", "is_fresh": 1, "author": ["Christopher Null"]},
{"text": "thrilling but far too rah-rah", "is_fresh": 1, "author": ["Rich Cline"]},
{"text": "Once 'Top Gun... gets back to earth, the master of the skies is as clunky as a big land-bound bird.", "is_fresh": 0, "author": ["Walter Goodman"]},
{"text": "Everything wrong with 80s movies in one film.", "is_fresh": 0, "author": ["Ken Hanke"]},
{"text": "Jet piloting is the ultimate gesture not of national defense but of personal style, as if the planes were the ultimate, unfeminizing fashion accessory.", "is_fresh": 0, "author": ["Nick Davis"]},
{"text": "Loud, silly, stylistic, but carried by Cruise's charisma.", "is_fresh": 1, "author": ["Bob Bloom"]},
{"text": "I feel the need, the need.....to experience it all again!", "is_fresh": 1, "author": ["Clint Morris"]},
{"text": "The only thing that got me through the movie was the hilariously dumb and macho rivalry between Val Kilmer and Tom Cruise.", "is_fresh": 0, "author": ["Kevin N. Laforest"]},
{"text": "Focuses on the machismo posturing of elite flyboys and the joys of male camaraderie.", "is_fresh": 1, "author": ["Frederic and Mary Ann Brussat"]},
{"text": "Every time I see it, I just want to smash Tom Cruise's smug, arrogant face into the cockpit windshield.", "is_fresh": 0, "author": ["Rob Vaux"]},
{"text": "The dogfights are absolutely the best since Clint Eastwood's electrifying aerial scenes in Firefox. But look out for the scenes where the people talk to one another.", "is_fresh": 0, "author": ["Roger Ebert"]},
{"text": "Top Gun is the type of movie that turns the screen into an altar. Kneeling before its slick fa\u00e7ade of 1980s magnificence, you are in the shadow of a film that has defined the modern day action blockbuster.", "is_fresh": 1, "author": ["Almar Haflidason"]},
{"text": "", "is_fresh": 1, "author": ["Greg Maki"]},
{"text": "", "is_fresh": 1, "author": ["Robin Clifford"]},
{"text": "", "is_fresh": 0, "author": ["James O'Ehley"]},
{"text": "", "is_fresh": 0, "author": ["Philip Martin"]},
{"text": "", "is_fresh": 1, "author": ["Carol Cling"]},
{"text": "", "is_fresh": 1, "author": ["Rumsey Taylor"]},
{"text": "", "is_fresh": 0, "author": ["Brian J. Arthurs"]},
{"text": "", "is_fresh": 0, "author": ["Jeffrey Westhoff"]},
{"text": "", "is_fresh": 1, "author": ["Rob Blackwelder"]},
{"text": "", "is_fresh": 0, "author": ["Scott Weinberg"]}
]