[
{"reviews_count": "281", "title": "Venom", "avg_audience_rating": "4.3", "rotten_count": "200", "tomatometer": "29", "audience_score": "87", "avg_critic_rating": "4.4", "fresh_count": "81", "user_ratings_count": "33,073"},
{"text": "It's loud, ugly, and seriously...what is going on with Tom Hardy? Blink once if you need help, Tom.", "is_fresh": 0, "author": ["Kent Garrison"]},
{"text": "A dumb script, bad CGI and poor plotting all combine to make a film that feels as though it is a bad joke at someone's expense. \u200b", "is_fresh": 0, "author": ["Kt Schaefer"]},
{"text": "If you're not going to do right by these characters, go give Marvel them back. Why are you still trying to make all this money if you're not doing right by the fans?", "is_fresh": 0, "author": ["Sharronda Williams"]},
{"text": "If Venom ends up becoming the Green Lantern (that Tom) Hardy makes on the way to something better, then all Hardy's effort will have been worth it.", "is_fresh": 0, "author": ["Matt Ward"]},
{"text": "This is a creature out of the most sordid depths of superhero movies, the blockbuster synonymous with junk good that has nothing to offer and sucks the life out of its talented cast. [Full Review in Spanish]", "is_fresh": 0, "author": ["Carlos D\u00edaz Reyes"]},
{"text": "Marvel Studios have now officially hit the bottom of the barrel as one of its third-rate, C-grade creations known mainly to Marvel's fanboy base gets his own mediocre movie.", "is_fresh": 0, "author": ["Jim Schembri"]},
{"text": "Imagine if Rick Moranis had an alien in his head that sounded like Freddy Krueger and you start to see where the movie is going.", "is_fresh": 1, "author": ["Eli Glasner"]},
{"text": "Like Brock's relationship with Venom, the movie exists in constant turmoil between dueling desires to be simultaneously formulaic and spontaneous.", "is_fresh": 0, "author": ["Ian Thomas Malone"]},
{"text": "Venom poisons the well of its own goodwill by a series of misfiring, illogical plot points and lack of respect for its own universe's rules.", "is_fresh": 0, "author": ["J. Don Birnam"]},
{"text": "An aimless, awful embarrassment for everyone involved, Venom imagines a world where a dopey Peter Parker-type was instead bitten by a radioactive turd. ", "is_fresh": 0, "author": ["Matt Oakes"]},
{"text": "A baffling stupid anti-hero feature that left me with a ton of questions such as, \"What is Tom Hardy doing with his career?\" and, \"Why does Venom have to be so eat-y?\"", "is_fresh": 0, "author": ["Brian Gill"]},
{"text": "Venom is a bad movie. There is no questioning that. However, if you are in the right mindset, it's still incredibly watchable as a so-bad-its-good hot mess.", "is_fresh": 0, "author": ["Jennifer Heaton"]},
{"text": "The crux of it is this; Venom's strength lies in its ridiculousness, because that's all it really has going for it.", "is_fresh": 0, "author": ["Cameron Frew"]},
{"text": "Michelle Williams, near the very end, [says what] feels like the most sincere heartfelt thing anyone says in the entire movie: \"I'm sorry about Venom.\"", "is_fresh": 0, "author": ["Bob Chipman"]},
{"text": "What works in this movie's favor is a tone that makes it feel less like a response to the Marvel Cinematic Universe than an escapee from the Troma Pictures vaults that somehow managed to evade release for the last quarter century.", "is_fresh": 1, "author": ["Zaki Hasan"]},
{"text": "A desperately confused piece of work which has only a few compensatory pleasures to offer along the way.", "is_fresh": 0, "author": ["Tom Duggins"]},
{"text": "[Sony] has a great Venom in Tom Hardy. If only they had a better-equipped director, screenwriters, visual effects, and supporting cast.", "is_fresh": 0, "author": ["Johnny Gayzmonic"]},
{"text": "Venom is a movie that's not without faults. And while the comic book genre is competitive, we can't dismiss that Venom is an enjoyable entry nonetheless.", "is_fresh": 1, "author": ["Mia Johnson"]},
{"text": "Venom is such a weird movie that never really pulls off what it's aiming for, though it's hard to tell exactly what it's aiming for.", "is_fresh": 0, "author": ["Sean Mulvihill"]},
{"text": "Venom may not be a great superhero movie, but it's definitely going to make you laugh.", "is_fresh": 0, "author": ["Kirsten Acuna"]},
{"text": "The inclusion of an admittedly fun pre-end credits teaser only highlights the degree to which Fleischer and company have bungled the premise and title character...", "is_fresh": 0, "author": ["David Nusair"]},
{"text": "An aggressively mediocre superhero movie, hopscotching through divergent tones that don't fit together. ", "is_fresh": 0, "author": ["Stephen Silver"]},
{"text": "With Venom, there's no love because there's no character to love.", "is_fresh": 0, "author": ["Tim Brennan"]},
{"text": "It's a film that feels more like a buddy sit-com with some weird tonal shifts that just undermine everything happening on the screen. It never quite clicks.", "is_fresh": 0, "author": ["Micheal Compton"]},
{"text": "Hands-down the worst movie of 2018, so far...movie tickets are so expensive, and I cannot afford to keep watching these terrible movies...this movie didn't even try to have a plot or make sense.", "is_fresh": 0, "author": ["Brandon Collins"]},
{"text": "This didn't wear too well on me...I didn't even realize that.", "is_fresh": 0, "author": ["Justin Brown"]},
{"text": "The excessive slow motion underscores how outdated this character is... Still, it is a nice movie. How could it not be, with so many good actors attached? [Full Review in Spanish]", "is_fresh": 1, "author": ["Alberto Corona"]},
{"text": "...the result is a weird, atonal, campy mess.", "is_fresh": 0, "author": ["Gary Dowell"]},
{"text": "After taking their not-so-sweet time getting to the action, director Ruben Fletcher and his screenwriters rush from scene to scene in implausible fashion.", "is_fresh": 0, "author": ["Khari J. Sampson"]},
{"text": "Misconceived, miscast and with enough violence and general nastiness to earn it a 15 certificate, it's a remarkably unpleasant way to spend the best part of two hours in a cinema. ", "is_fresh": 0, "author": ["Matthew Bond"]},
{"text": "deeply conflicted, forever torn between being a dark, violent sci-fi horrorshow and a looser, lighter piece of antiheroic pulp comedy", "is_fresh": 0, "author": ["James Kendrick"]},
{"text": "It's a film that simply works with a simple plot and entertains with action scenes and effects. [Full review in Spanish]", "is_fresh": 1, "author": ["Abigail Camarillo"]},
{"text": "An entirely squandered opportunity. ", "is_fresh": 0, "author": ["Tom Glasson"]},
{"text": "It may feel a bit like super hero movies before there were epic sagas, such as the Iron Man and Captain America franchises, but Venom is still a fun time at the movies.", "is_fresh": 1, "author": ["Chauncey K. Robinson"]},
{"text": "A waste of a perfectly good Tom Hardy.", "is_fresh": 0, "author": ["Kristen Lopez"]},
{"text": "The story is aided by having top notch acting talent like Hardy and Williams. There is also plenty of action and humor. The formulaic plot has its problems, but overall, this is an entertaining movie.", "is_fresh": 1, "author": ["Robert Roten"]},
{"text": "Venom serves up a menu of spicy hard PG-13 action but also includes a well balanced sampling of scrumptiously surprising buddy humor between an unemployed reporter and a flesh eating symbiote. We're ready for the second course.", "is_fresh": 1, "author": ["Alachia Queen "]},
{"text": "I don't know if you need to rush into theaters to see Venom, but when you can rent it, please do...it's not an amazing film but I can say I had a good time watching it.", "is_fresh": 1, "author": ["Andre Meadows"]},
{"text": "The movie becomes about Eddie and Venom coming to an arrangement. There is a lot of humour, including a sly riff on the Batman movies from Marvel rival DC Comics.", "is_fresh": 1, "author": ["Stephen Romei"]},
{"text": "Based on a minor, morally fluid Marvel Comics character, Venom isn't a good movie, exactly, being a sloppily scripted, unevenly executed tonal mess.", "is_fresh": 0, "author": ["Alison Gillmor"]},
{"text": "It never reaches the level of the best the MCU has to offer, but it isn't the absolute disaster many of us were dreading either. [Full review in Spanish]", "is_fresh": 1, "author": ["Sebastian Zavala Kahn"]},
{"text": "Ultimately we're left with this mess of a PG-13 bloodless, watered-down impression of a superhero movie. The most grotesque thing in the entire movie has gotta be watching Tom Hardy shovel tater tots into his mouth like a goddamned Neanderthal.", "is_fresh": 0, "author": ["Amelia Navascues"]},
{"text": "...Venom knows this, and because of that, it doesn't bother to make much sense. Its entire deal is just having fun with the dynamic between Eddie Brock-Tom Hardy giving a downright incredible performance as a man possessed.", "is_fresh": 1, "author": ["Joshua Rivera"]},
{"text": "There's apparently so little scope for exploration of this bizarre and fascinating symbiotic relationship that Fleischer decides instead to spend the first hour of the film worrying about Brock's career issues...", "is_fresh": 0, "author": ["Chris Newbould"]},
{"text": "The best supervillains tell us something about ourselves and our heroes. Venom crawls into its hero's head and realizes it has nothing to say.", "is_fresh": 0, "author": ["Jesse Hassenger"]},
{"text": "Tom Hardy makes the film sit-throughable, but only just, and only because he plays what comedy there is for all it's worth. ", "is_fresh": 0, "author": ["CJ Johnson"]},
{"text": "For the most part, Venom is very watchable and in some sections goddamn delightful. Yet, these moments make one wish the movie was better as a whole.", "is_fresh": 1, "author": ["Stephen Porzio"]},
{"text": "Parts of this movie should appeal to Venom fans, but it's difficult to argue this as a solid feature. Unless you're dying to see this, skip it until its available to stream. ", "is_fresh": 0, "author": ["Kimberly Pierce"]},
{"text": "Truly, a film this gloriously bad deserves to be seen on the big screen. If you want to see something good, see something else. If you want to see something fun... well, this is it.", "is_fresh": 1, "author": ["Karl Puschmann"]},
{"text": "There's nothing here but a noisy and dumb piece of fluff that simply isn't trying hard enough.", "is_fresh": 0, "author": ["Doug Jamieson"]},
{"text": "Sound. Fury. Nonsense. A franchise is born. Beats me what moviegoers thought they hadn't seen a hundred times before in this one-man buddy film. ", "is_fresh": 0, "author": ["Rick Kisonak"]},
{"text": "Known for his muzzled and intoxicating performances, Hardy is one of the most fascinating actors on the planet. So it's a shame that Venom is too mediocre and forgettable for its own good. ", "is_fresh": 0, "author": ["Nate Adams"]},
{"text": "Creating a cult following is always fun and worth something, but it will not warrant the legs for a series that can keep up with the majority of people left wanting more.", "is_fresh": 0, "author": ["Andrew J. Salazar"]},
{"text": "The tone waffles about and the plot is utter nonsense, but if you can set aside all the expectations and baggage of what you think a Venom movie should be, you just might be surprised by how much you enjoy just what this movie is. ", "is_fresh": 1, "author": ["Tori Preston"]},
{"text": "This mess of an origin story does not deserve the brilliance that is Tom Hardy. ", "is_fresh": 0, "author": ["Yip Wai Yee"]},
{"text": "Venom introduces a popular character, perhaps not in the best form, but it is enjoyable. [Full Review in Spanish]", "is_fresh": 0, "author": ["Rafael Rosales Santos"]},
{"text": "This stuff doesn't hold a candle to any Iron Man, Captain America or Thor instalment.", "is_fresh": 0, "author": ["Leigh Paatsch"]},
{"text": "Sony, overly intent on empire-building, has jettisoned a crucial ingredient: bite.", "is_fresh": 0, "author": ["Charlotte O'Sullivan"]},
{"text": "What could go wrong? Apparently, most things.", "is_fresh": 0, "author": ["Alan French"]},
{"text": "Here's the thing. \"Venom\" is both one of the worst films of the year so far, as well as one of the most fun.", "is_fresh": 0, "author": ["Joey Magidson"]},
{"text": "Hardy and Williams have talent to spare but it isn't on display in this walk through it movie. The only talent showing is the special effects crew. Venom is a B-grade Marvel hero.", "is_fresh": 0, "author": ["Jackie K. Cooper"]},
{"text": "Venom isn't the home run Sony was hoping for and it certainly isn't the film longtime fans have been craving, but the good news is that Hardy is really fun in the role.", "is_fresh": 0, "author": ["Kyle Wilson"]},
{"text": "Venom chops and changes genres like a game in Whose Line Is It Anyway?.", "is_fresh": 0, "author": ["Jonathan Roberts"]},
{"text": "Venom may not be the greatest comic book movie of all time, but it has its moments and isn't quite as bad as you may have been led to believe.", "is_fresh": 1, "author": ["Matt Hudson"]},
{"text": "Never once does your heart pump a little quicker from tension. Never once do any hairs stand up in fright in the presence of what should be a complete badass.", "is_fresh": 0, "author": ["Don Shanahan"]},
{"text": "Like a runaway train, Venom teeters on the edge of the rails, inches away from becoming an absolute wreck. Like it or hate it, you won't be able to to look away.", "is_fresh": 1, "author": ["Matt Rodriguez"]},
{"text": "The best thing I can say for Venom is that it's so ridiculous that it's worth watching as a train wreck.", "is_fresh": 0, "author": ["Sean Collier"]},
{"text": "Weakly scripted as a Jekyll & Hyde-type origin story, it's clumsily directed and dreadfully disappointing. Yet, as the box-office shows, never underestimate the appeal of comic-book movies.", "is_fresh": 0, "author": ["Susan Granger"]},
{"text": "For me, Venom succeeded at what Suicide Squad failed to do: deliver an enthusiastically weird superhero spinoff with an edgy-but-funny lead. ", "is_fresh": 1, "author": ["Gavia Baker-Whitelaw"]},
{"text": "If only the makers of Venom believed in their own ideas.", "is_fresh": 1, "author": ["Bilge Ebiri"]},
{"text": "You have got to be kidding me.... you're not really setting this up for the sequel?", "is_fresh": 0, "author": ["Martin Thomas"]},
{"text": "Sony, you don't get it. You don't get it. And you don't want to.", "is_fresh": 0, "author": ["Korey Coleman"]},
{"text": "A complete and utter tonal mess... Boring. Then silly. Then funny.", "is_fresh": 0, "author": ["Mark Kermode"]},
{"text": "An occasionally entertaining misfire that only scratches the surface of what a Venom movie could truly be.", "is_fresh": 0, "author": ["Chris Stuckmann"]},
{"text": "The entire first half of 'Venom', the story tries very hard to build Tom Hardy's character Eddie up to be a great reporter. But, Hardy looks uncomfortable and ill-suited to this Clark-Kentian treatment. That's just one of several problems in this film.", "is_fresh": 0, "author": ["Jonita Davis"]},
{"text": "Its drama is prosaic and the big action finale...devolves into a whirl of obvious CGI. It looks like a pitched battle between two blobs of molten liquorice.", "is_fresh": 0, "author": ["Edward Porter"]},
{"text": "The film itself demands nothing... and is so formulaic that it is extremely easy to play along. [Full review in Spanish]", "is_fresh": 1, "author": ["Emmanuel B\u00e1ez"]},
{"text": "A lack of imagination leaves the effects looking dull and the thrills feeling derivative.", "is_fresh": 0, "author": ["Rich Cline"]},
{"text": "It's a lot of fun, once you're over the weirdness of Tom Hardy in a big franchise movie. ", "is_fresh": 1, "author": ["Aine O'Connor"]},
{"text": "In general, Venom not only fails as action cinema, but also with its alleged fusion of comedy with horror. [Full review in Spanish]", "is_fresh": 0, "author": ["William Venegas"]},
{"text": "Venom is a soulless movie in which slimy creatures are trying to find host bodies.", "is_fresh": 0, "author": ["Anupama Chopra"]},
{"text": "This is a paradox: Venom isn't good-nor so-bad-it's-good-and yet if there had been more of it, and if that more had been a little wilder or gorier, it probably would have been better. ", "is_fresh": 0, "author": ["Adam Nayman"]},
{"text": "Fleisher's film feels like it's held together with duct tape, and it's a step down from the better comic book movie entries this year, but in early October, \"Venom\" might be enough fun to get a pass.", "is_fresh": 0, "author": ["Josh Terry"]},
{"text": "Like the character of Venom itself, the movie doesn't seem to know what the hell it's supposed to be. But at least by my count it seemed to run not much longer than an hour-and-a-half. Still too long.", "is_fresh": 0, "author": ["Steve Murray"]},
{"text": "This is nowhere near as bad as the nothing of a film that was Slenderman, but you can tell they were made by the same studio, and that's criminal enough to the artists, performers and technical filmmaking that could have been showcased here.", "is_fresh": 0, "author": ["Evan Griffin"]},
{"text": "All so terrible, dull, and ridiculous, and I'm weary at the thought of a franchise being built from these vapid, poorly built characters.", "is_fresh": 0, "author": ["Felix Vasquez Jr."]},
{"text": "VENOM should've been a fantastically violent exploration of id and insanity, but mostly it should've been a good time. It is none of those things. By trying to keep a foot in the kiddie camp, VENOM tries to have it all, and loses everything.", "is_fresh": 0, "author": ["Diva Velez"]},
{"text": "The film's major weaknesses is its screenplay. So many sequences lack credibility.", "is_fresh": 0, "author": ["Matthew Toomey"]},
{"text": "The most interesting thing about VENOM is Eddie's phone. It survives punishing battle and a prolonged dip in San Francisco Bay without ill effect. A film about its exploits, now that's a superhero flick that I could have gotten behind. ", "is_fresh": 0, "author": ["Andrea Chase"]},
{"text": "The film includes a line from a peripheral character who proclaims: 'It's worse than I thought.' Those telling words also become the only delicious piece of irony in the entire disappointing deliverance.", "is_fresh": 0, "author": ["John Urbancich"]},
{"text": "It's split down the middle.", "is_fresh": 0, "author": ["Matthew Passantino"]},
{"text": "Venom is the Catwoman of toxic masculinity. It's bad. ", "is_fresh": 0, "author": ["Ben Coleman"]},
{"text": "It's all about that connection between Eddie and Venom, which is very funny and it works", "is_fresh": 1, "author": ["Ben Rolph"]},
{"text": "What sets (it) apart and keeps it on the rails is Hardy's commitment to the relatable streetwise reporter wielding a weapon that thinks for itself, that and keeping the story simple enough to enjoy it for what it is.", "is_fresh": 1, "author": ["Kevin A. Ranson"]},
{"text": "So much of it is amusingly off-kilter that the joy of watching it is equivalent to the pleasure of eating junk food. It's utter garbage; you won't think about it once it's gone, but it'll hit a lot of instant pleasure centers.", "is_fresh": 1, "author": ["Emily Wheeler"]},
{"text": "Manages to be both rushed and laboured, rattling through an agonising amount of setups before deciding on its split-personality buddy-comedy tone.", "is_fresh": 0, "author": ["Simran Hans"]},
{"text": "A chaotic, unfocused, assembly edit of a movie, that appears to have had all the vitality and humanity parasitically sucked out of it. ", "is_fresh": 0, "author": ["Ed Whitfield"]},
{"text": "Venom is terrible and the worst film of Tom Hardy's varied career. ", "is_fresh": 0, "author": ["Damien Straker"]},
{"text": "The movie doesn't really capitalize on the inherent novelty of a villain in the title role. It's where you can feel the conflict in the movie itself. Like Eddie, our hero-villain, the film resists a new shape, a new manifestation of a changing inner core.", "is_fresh": 1, "author": ["Katherine Monk"]},
{"text": "All hail Tom Hardy. No more men in masks flying around in a motorized suit. And Hardy's Taboo is set for another season.", "is_fresh": 1, "author": ["Victoria Alexander"]},
{"text": "[A] weak B-movie with A-list talent working gamely to try to elevate the material... [but] in the end it's too much of a mixed bag of tone and erratic plotting to escape its own limitations.", "is_fresh": 0, "author": ["Mark Hughes"]},
{"text": "It moves quickly and is fairly good-natured, but otherwise this flatly written, uninspired comic-book action movie feels more like a paycheck-driven business decision than an artistic inspiration. ", "is_fresh": 0, "author": ["Jeffrey M. Anderson"]},
{"text": "Tonally uneven, mostly bumbling, and occasionally funny, sometimes on purpose. Is it good? No. Is it boring? Also no.", "is_fresh": 0, "author": ["Eric D. Snider"]},
{"text": "Sloppy mess with a lot of editing problems...wasted performances for sure.", "is_fresh": 0, "author": ["Kristian Harloff"]},
{"text": "If you're a hardcore Venom fan, you'll be more let down than if you go to this movie wanting an entertaining action ride.", "is_fresh": 0, "author": ["Mark Ellis"]},
{"text": "It's actually one of those movies you can watch over and over again...I left feeling like Guardians of the Galaxy, I was smiling and laughing throughout the whole movie.", "is_fresh": 1, "author": ["Steph Cozza"]},
{"text": "There was just a disconnect that didn't work for me...", "is_fresh": 0, "author": ["Jaby Koay"]},
{"text": "Tom Hardy did a really good job of being Eddie Brock and Venom...I also liked what Riz Ahmed brought to the villain.", "is_fresh": 1, "author": ["Achara Kirk"]},
{"text": "It's not clear what precisely we've done to deserve this iteration of Venom and the hilariously goofy movie in which he stars, but it's a mixed blessing worth embracing.", "is_fresh": 1, "author": ["Alex Abad-Santos"]},
{"text": "The result offers a strong performance by Tom Hardy, anchoring a storyline which, for Marvel, is slightly too wild and out-of-control, although that's probably fitting, because it's really what the scary/funny/icky Venom is all about.", "is_fresh": 1, "author": ["David 'Mad Dog' Bradley"]},
{"text": "What the screenplay lacks in character development, it makes up for in at least a couple of the action scenes which are well staged and executed...", "is_fresh": 1, "author": ["Neil Soans"]},
{"text": "\"Venom\" is a hot train wreck ... and by hot I mean Tom Hardy in the lead role. You just cannot look away even though the movie is a disaster ... ", "is_fresh": 0, "author": ["Dana Barbuto"]},
{"text": "A tone-deaf, uneven and maddeningly dumb clunker that never settles on an identity, all the way to the closing credits.", "is_fresh": 0, "author": ["Richard Roeper"]},
{"text": "The shapeless, headache-inducing inevitable final showdown ironically feels like the appropriate culmination of an action approach that lacks all impact. ", "is_fresh": 0, "author": ["Ross Miller"]},
{"text": "It feels like it takes forever to get to the fun weirdness, which is odd since this movie is only really about 100 minutes long. But ... I'm kind of interested in seeing a sequel?", "is_fresh": 0, "author": ["Sonny Bunch"]},
{"text": "Venom is the worst parts of the Sam Raimi and Sony reboot Spider-Men combined.", "is_fresh": 0, "author": ["Sarah Marrs"]},
{"text": "Venom doesn't measure up to our current view of superhero cinema, and that's both damning and unfortunate for a cookie cutter flick like this.", "is_fresh": 0, "author": ["Drew Dietsch"]},
{"text": "This Venom is more a character presentation than an adventure in itself. [Full review in Spanish]", "is_fresh": 1, "author": ["Pablo A. Scholz"]},
{"text": "It's a shame because Venom's mythology, if presented properly, has more potential than many of the superhero [iterations] we see. [Full review in Spanish]", "is_fresh": 0, "author": ["Ruben Peralta Rigaud"]},
{"text": "Venom's most serious problem is that it never decides what it's about. [Full Review in Spanish]", "is_fresh": 0, "author": ["Erick Estrada"]},
{"text": "Ultimately, Venom is neither here nor there, and its failure to be self-aware makes it feel like a movie from a different superhero era at times.", "is_fresh": 0, "author": ["Akhil Arora"]},
{"text": "Venom is a mixed bag. While the CGI and action scenes are great, the acting and story is unfocused. Let's hope things brighten up in the forthcoming sequels...", "is_fresh": 1, "author": ["Devesh Sharma"]},
{"text": "Is Venom a good movie? Absolutely not. I wouldn't be the least bit surprised if it won every single Razzie award next year. But Venom is also one of the most entertaining and idiosyncratic theatergoing experiences of 2018.", "is_fresh": 0, "author": ["Miles Surrey"]},
{"text": "Venom may not be completely terrible, but it's definitely not very good. I suppose Venom can go and stand in line with the Fantastic Four, awaiting a decent Marvel adaptation.", "is_fresh": 0, "author": ["Oktay Ege Kozak"]},
{"text": "Venom doesn't have either the hilarity or the weight of the best superhero movies. That said, it's diverting in the way of something that doesn't invent anything new, but still checks off its boxes with enthusiasm.", "is_fresh": 1, "author": ["Abbie Bernstein"]},
{"text": "I feel like they didn't do a single piece of practical special effects. ", "is_fresh": 0, "author": ["Tony Baker"]},
{"text": "Toss in characterizations that are threadbare, half-baked and in one instance borderline inexcusable to the point of being offensive and there is precious little about this one that should get anyone excited to see it.", "is_fresh": 0, "author": ["Sara Michelle Fetters"]},
{"text": "The biggest problem with Venom isn't the fact that it is a bad movie -- although it is a terrible one, to be sure -- as much as it is a complete nothing", "is_fresh": 0, "author": ["Peter Sobczynski"]},
{"text": "Venom won't be going on anyone's best lists for 2018, but if you intend to see it anyway, see it with the expectation that you won't be getting much out of it but a few laughs, a very lively performance from Hardy, and an incredibly forgettable story.", "is_fresh": 0, "author": ["Mae Abdulbaki"]},
{"text": "Like watching 2003 crash into 2018 and realize how much it sucks here. I liked more of it than I didn't, but the bad parts are very bad. ", "is_fresh": 1, "author": ["Vincent Mancini"]},
{"text": "Fleischer directs with a sure hand, Hardy tosses a little mischief into the pot, and - despite a formulaic script - it all comes out tasting delicious. Relax and have some fun with this one knowing that Venom is NOT your father's Marvel movie. ", "is_fresh": 1, "author": ["Aaron Peterson"]},
{"text": "It's true, Venom is a bit of a catastrophe. It is a bad, bizarre and baffling entity of a film. But do you know something? I could not take my eyes off it. We have a hilariously over-the-top Tom Hardy to thank for that.", "is_fresh": 0, "author": ["Chris Wasser"]},
{"text": "The director Ruben Fleischer does not end up finding a genre in which to accommodate Venom, who, as a good symbiote, seems to be accommodating the one that best suits him. [Full Review in Spanish]", "is_fresh": 0, "author": ["Sergio L\u00f3pez Aguirre"]},
{"text": "It's hard to mess up a car chase up and down the streets of San Francisco and Fleischer certainly doesn't, though at these speeds we should be gasping and laughing instead of just nodding our heads.", "is_fresh": 0, "author": ["David Edelstein"]},
{"text": "Is it a comedy? Is it an action film? [Venom] makes no pretense of being anything more than a superhero film,... trading the thematic material present in most major superhero ventures for biting off people's heads.", "is_fresh": 0, "author": ["Kate Gardner"]},
{"text": "Silly fun. Tom Hardy plays the infected Eddie like a cross between fifties-era Marlon Brando, nineties-era Al Pacino and mugging for the cameras Jerry Lewis, making him unlike any superhero lead you've ever seen. He's oddly mesmerizing. ", "is_fresh": 1, "author": ["Chris Bumbray"]},
{"text": "Taken for what it is, Venom is a good night out -- a fast-paced, often hilarious creature feature that's nowhere near the train wreck critics would have you believe.", "is_fresh": 1, "author": ["Michael Coldwell"]},
{"text": "I'm not a big Marvel movie nor a super hero movie fan but this one cracked me up. Tom Hardy has a blast with this material. The most fun you'll have in a movie this weekend.", "is_fresh": 1, "author": ["Gary Wolcott"]},
{"text": "A symbiote v symbiote fight looks like two oil slicks merging and is just as tedious...", "is_fresh": 0, "author": ["Jo Berry"]},
{"text": "Venom delivers for its audience. It's exciting, entertaining, and fun. ", "is_fresh": 1, "author": ["Daniel M. Kimmel"]},
{"text": "Venom does not know if it wants to be a movie about a superhero or about a supervillain. Or a 'buddy movie' of man and symbiote. [Full Review in Spanish]", "is_fresh": 0, "author": ["Jordi Costa"]},
{"text": "The Venom symbiote requires a perfect match to bond with its host; otherwise, the host is doomed. The Venom movie plays like a midnight horror that has invaded a superhero movie, and while there are some laffs to be had, it's far from a perfect match.", "is_fresh": 0, "author": ["Matthew Lickona"]},
{"text": "I was entertained and utterly fascinated by every second of it.", "is_fresh": 1, "author": ["Anthony Ray Bench"]},
{"text": "There's a reason for the top-tier cast. It's actually fun!", "is_fresh": 1, "author": ["Staci Layne Wilson"]},
{"text": "This odd blend of buddy flick and superhero movie-sort of like 'The Incredible Hulk' merged with 'Upgrade'-proves as unpleasant to watch as Venom is to look at.", "is_fresh": 0, "author": ["Frank Swietek"]},
{"text": "Venom is intentionally gross and unintentionally funny, a film that careens all over the place but is sometimes enjoyable in its bizarreness.", "is_fresh": 1, "author": ["Roxana Hadadi"]},
{"text": "Though Hardy does his weirdest to keep it entertaining whenever he's on screen, it's hard to see the movie as anything but a missed opportunity.", "is_fresh": 0, "author": ["Greg Maki"]},
{"text": "Is \"Venom\" like \"Fantastic Four\"-level bad? Nah. Not quite. The failure comes in knowing that it could have and should have been so much better.", "is_fresh": 0, "author": ["Tom Santilli"]},
{"text": "Venom isn't good, but Venom was never meant to be good anyway.", "is_fresh": 1, "author": ["Matthew Razak"]},
{"text": "The takeaway here is the character of Venom plays even if his movie is not so great. The fun of Hardy in this role is what makes this movie just barely recommendable.", "is_fresh": 1, "author": ["Mathew DeKinder"]},
{"text": "Mostly bad-bad, with a splash and dash of fun.", "is_fresh": 0, "author": ["Mara Reinstein"]},
{"text": "Whatever you might have expected this movie to be-not all that bad...not very good...frickin' awful-chances are you'd never have guessed it would be a comedy. But it is!", "is_fresh": 1, "author": ["Kurt Loder"]},
{"text": "Certainly I'm in a minority when it comes to my fellow critics, but I liked \"Venom.\" Hell, if it wasn't for the sloppy and formulaic script, I might have even loved it. ", "is_fresh": 1, "author": ["Matthew Rozsa"]},
{"text": "When the obligatory Stan Lee cameo is the highlight of a Marvel movie ... you've got problems.", "is_fresh": 0, "author": ["Christian Toto"]},
{"text": "Goofy enough that it slightly delivers a degree or two of guilty pleasure entertainment value when not otherwise making you wonder why and how it derailed. (Full Content Review for Parents - Violence, Profanity, etc. - also Available)", "is_fresh": 0, "author": ["Jim Judy"]},
{"text": "It turns out Venom isn't much different than the alien who starred in NBC's 1980s sitcom ALF: A pushy boor motivated mostly by his next snack.", "is_fresh": 0, "author": ["Chris Klimek"]},
{"text": "The film careens from idiocy to inanity, occasionally surfacing above the muck for a semi-kick-ass action scene or two. ", "is_fresh": 0, "author": ["Christopher Llewellyn Reed"]},
{"text": "No one comes out of this looking good.", "is_fresh": 0, "author": ["Jamie East"]},
{"text": "It's basically a B-movie in the guise of a blockbuster, bereft of wit, swagger and pizzazz, and with strangely lacklustre special effects.", "is_fresh": 0, "author": ["Brian Viner"]},
{"text": "A dull, dated comic-book clunker that is somehow even smaller and lesser than the sum of its noisy, junky, clich\u00e9d bits. So perfunctory that it saps even its excellent cast of all their charisma.", "is_fresh": 0, "author": ["MaryAnn Johanson"]},
{"text": "\"Venom\" could become Marvel's version of \"The Rocky Horror Picture Show\" or \"Santa Claus Conquers the Martians\" -- a camp classic worth mocking again and again.", "is_fresh": 0, "author": ["Rafer Guzman"]},
{"text": "The chief problem with \"Venom\" is that it never settles on a tone. Is it comedy? Horror? Romance? Drama? Why not try all of them at once?", "is_fresh": 0, "author": ["Ty Burr"]},
{"text": "Tom Hardy delivers a bravura one-man show in this poisonously drab Spider-Man spin-off.", "is_fresh": 0, "author": ["Rohan Naahar"]},
{"text": "An absolute stiff, a monotonous slog through generic material.", "is_fresh": 0, "author": ["Robert Horton"]},
{"text": "There's plenty of promise percolating on a cellular level; with another installment, perhaps a merely good picture can become something more.", "is_fresh": 1, "author": ["Dustin Putman"]},
{"text": "...a couple of moderately entertaining moments aside the flick is a dud, making bafflingly poor decisions at almost every turn.", "is_fresh": 0, "author": ["Anthony O'Connor"]},
{"text": "My enjoying myself doesn't turn Venom into a winner. It merely reveals the surprisingly intentional mirth we hope will return [in potential sequels].\ufeff", "is_fresh": 1, "author": ["Jared Mobarak"]},
{"text": "VENOM is a disaster, except for Tom Hardy's eye-popping performance.", "is_fresh": 0, "author": ["Brad Miska"]},
{"text": "A horribly scripted film so bad as to be enjoyable, but not bad enough to be good.", "is_fresh": 0, "author": ["Sarah-Tai Black"]},
{"text": "On the Marvel scale of greatness, with 1 being the least pleasing and 10 the most amazing, Venom might be around a 3.5, a 4 if you're in a really good mood.", "is_fresh": 0, "author": ["Stephanie Zacharek"]},
{"text": "As Eddie, Hardy sounds like he is doing one of those exercises in which an actor practices pronunciation with marbles in his mouth. His Venom voice sounds like Darth Vader trying to burb.", "is_fresh": 1, "author": ["Bob Bloom"]},
{"text": "The movie's not a total wash, there is enjoyment in it.", "is_fresh": 1, "author": ["Jeremy Jahns"]},
{"text": "Tom Hardy tries his best to channel his inner alien but Venom is less than marvelous as a comic book movie.", "is_fresh": 0, "author": ["Pete Hammond"]},
{"text": "Venom isn't even aggressively bad; it's just not trying very hard to be good. ", "is_fresh": 0, "author": ["David Medsker"]},
{"text": "Venom has one of the better Stan Lee cameos going for it, but depending on your enjoyment for things that are so bad they are good, you may be long gone from the theater by then", "is_fresh": 0, "author": ["Robert Kojder"]},
{"text": "Venom isn't funny. Venom doesn't have a hero or antihero or villain to root for. Were it not for a pretty good car chase, some decent visual effects, and Hardy's performance, it would be a complete waste of time.", "is_fresh": 0, "author": ["Deirdre Crimmins"]},
{"text": "Part of the reason the superhero genre has managed to elevate itself is it gives us characters that we root for and care about. Venom does none of this.", "is_fresh": 0, "author": ["Mark Daniell"]},
{"text": "[I]t feels as if the filmmakers don't have the nerve or don't know how to give us a true villain as the protagonist...", "is_fresh": 0, "author": ["Mark Dujsik"]},
{"text": "At some future gala event where Tom Hardy is being feted for his incredible acting career, the clip from Venom will be the one that gets the audience laughing.", "is_fresh": 0, "author": ["Peter Howell"]},
{"text": "What Venom suffers from more than anything is the expectations set by a Marvel release. ", "is_fresh": 1, "author": ["Hope Madden"]},
{"text": "Venom has been unleashed. Infection has entered the system. The blockbuster bloat is spreading. ", "is_fresh": 0, "author": ["Karl Quinn"]},
{"text": "The story of his origins is so complicated that you need a background briefing if you don't already possess a PhD in Marvel anthropology and genealogy. ", "is_fresh": 1, "author": ["Sandra Hall"]},
{"text": "Aims to be a brash, breezy and breathlessly paced new origin story, but largely misses those targets.", "is_fresh": 0, "author": ["Colin Covert"]},
{"text": "Venom's almost worth watching for Tom Hardy's bizarre accent and whirling-dervish mania alone, but it's a shame he's not surrounded by a better, more exciting film.", "is_fresh": 0, "author": ["Clint Worthington"]},
{"text": "It all ends with a gaudy computer-generated eye-gasm and the sense that you might just have seen the worst comic-book blockbuster of the decade. ", "is_fresh": 0, "author": ["Kevin Maher"]},
{"text": "A Cleaned Up, Toned Down, Baffling Misfire", "is_fresh": 0, "author": ["J Hurtado"]},
{"text": "There's some nice banter going on in Eddie's head, with the actor also proving the basso voice of Venom", "is_fresh": 1, "author": ["Chris Knight"]},
{"text": "It's just not an especially good superhero movie and it wastes an intriguing premise.", "is_fresh": 0, "author": ["James Berardinelli"]},
{"text": "As a superhero movies go, it's generic in a way that recalls the pre-Avengers bad old days (Green Lantern, Green Hornet, Jonah Hex) - without any personal style, unique tone, or interesting atmosphere.", "is_fresh": 0, "author": ["Gary Thompson"]},
{"text": "Ruben Fleischer's unnecessarily neutered take on one of Marvel's most frightening characters has some moments of genius peppered throughout... but it's a mostly drab, forgettable affair that's chaotic in all the wrong ways.", "is_fresh": 0, "author": ["Andrew Parker"]},
{"text": "Venom is a godawful mess, really...", "is_fresh": 0, "author": ["Norman Wilner"]},
{"text": "They must release the director's cut.", "is_fresh": 0, "author": ["Jordan Ruimy"]},
{"text": "As a superhero movie, Venom,... is a dismal failure... But as a buddy comedy? Well, that's where Venom really hits its stride.", "is_fresh": 1, "author": ["Anne Cohen"]},
{"text": "It's an incoherent mess of tones, acting styles and visual effects. And yet it's kind of a hoot.", "is_fresh": 1, "author": ["Jake Coyle"]},
{"text": "Venom is disappointing. The film doesn't fulfill the potential of the character or the story. It lacks a harder edge because of the PG-13 rating.", "is_fresh": 0, "author": ["Julian Roman"]},
{"text": "The most absurd and terrifying moments end up being squashed by the mundane material and Venom is reduced to an infantile version. [Full Review in Spanish]", "is_fresh": 0, "author": ["Benjam\u00edn Harguindey"]},
{"text": "The last part of the film completely squashes the great work Tom Hardy does with the title character leading up to the climax. [Full Review in Spanish]", "is_fresh": 0, "author": ["Juanma Fern\u00e1ndez Par\u00eds"]},
{"text": "The expression \"I'd listen to him read the phone book\" might as well be rewritten forthwith: \"I'd watch him in a Venom movie.\"", "is_fresh": 1, "author": ["J. Olson"]},
{"text": "A picture in the running for the dubious distinction of being perhaps the worst Marvel-derived origin story ever. And that includes the odious 2015 \"Fantastic Four.\"", "is_fresh": 0, "author": ["Soren Andersen"]},
{"text": "There's nothing memorable in \"Venom,\" nothing to talk about the next day. But if it happens to hit you right, its lightness is refreshing.", "is_fresh": 1, "author": ["Mick LaSalle"]},
{"text": "Offers a slapdash experience filled with a host of clich\u00e9s and unintentionally laughable moments.", "is_fresh": 0, "author": ["George Thomas"]},
{"text": "More monster movie than a superhero one, Sony's attempt to expand its Spider-Man franchise with this solo vehicle for one of his more colorful villains makes a mess of the tone, staggering from horror-tinged nastiness to split-personality comedy.", "is_fresh": 0, "author": ["Brian Lowry"]},
{"text": "The ingratiating eccentricities of \"Venom\" aren't enough to really distinguish the movie from its superhero-movie brethren as it devolves into the usual expensive orgy of sound, fury and wisecracking.", "is_fresh": 0, "author": ["Glenn Kenny"]},
{"text": "However, despite it's many flaws, the overarching impression of Venom is positive. It's undeniably a lot of fun and is at its best when it leans in to its offbeat sense of humour.", "is_fresh": 1, "author": ["Sarah McIntyre"]},
{"text": "A tonally wonky lark that's actually stronger when it's sillier. It's a mess, but a fun mess-at least for a while.", "is_fresh": 0, "author": ["Christy Lemire"]},
{"text": "Its best bits are still less tedious than the worst bits of Avengers: Infinity War. Put that on the poster.", "is_fresh": 1, "author": ["Donald Clarke"]},
{"text": "The final act's full-tilt embrace of action effectively undermines Tom Hardy's flashes of actorly idiosyncrasy.", "is_fresh": 0, "author": ["Jake Cole"]},
{"text": "[A] weakly funny anti-superhero mess that plays like Spider-Man meets The Mask via Deadpool 7.", "is_fresh": 0, "author": ["Chris Barsanti"]},
{"text": "In terms of narrative and character arc, Venom is an absolute disaster.", "is_fresh": 0, "author": ["Leigh Monson"]},
{"text": "The scariest thing about Venom, the new screen iteration of Marvel's alien mostly-villainous symbiote character of Spider-Man fame - is that the movie would be 40 minutes longer if Tom Hardy had his way.", "is_fresh": 0, "author": ["Jim Slotek"]},
{"text": "Venom is a severely flawed movie in a lot of different ways, but I'll be damned if the gonzo back-and-forth between Tom Hardy's journalist Eddie Brock and the alien symbiote wasn't a lot of twisted fun", "is_fresh": 1, "author": ["Travis Hopson"]},
{"text": "Every member of the cast came out to play, starting with Tom Hardy's physical and... interesting performance. [Full review in Spanish]", "is_fresh": 1, "author": ["Orlando Maldonado"]},
{"text": "The sad truth is that Venom feels like the shameless cash-in many feared it would be.", "is_fresh": 0, "author": ["Matt Neal"]},
{"text": "The feature does just fine existing in its own world of impish behavior and premiere Hardy freak-outs. ", "is_fresh": 1, "author": ["Brian Orndorf"]},
{"text": "The action is solid, and the character well realised. So why doesn't Venom work as it should? It's all down to balance.", "is_fresh": 0, "author": ["James Luxford"]},
{"text": "Incoherent plotting, tired tropes, lacklustre special effects and a shameful waste of a stellar cast.", "is_fresh": 0, "author": ["Joseph Walsh"]},
{"text": "The movie clings to the most basic of superhero plotting, the most egregious of comic-book clich\u00e9s and the most underwritten of villainous motives", "is_fresh": 0, "author": ["Matt Looker"]},
{"text": "A disjointed, tonally confused and mediocrely written action flick, the best thing Venom has going for it is its relatively short runtime.", "is_fresh": 0, "author": ["Wenlei Ma"]},
{"text": "To put it simply, Venom is dead on arrival, and missing everything that helps make these films so much fun to watch.", "is_fresh": 0, "author": ["Danielle Solzman"]},
{"text": "So THIS is why Sony keeps remaking and rebooting \"Spider-Man.\" They haven't a clue how to make \"Venom\" work on the big screen. ", "is_fresh": 0, "author": ["Roger Moore"]},
{"text": "The reason why Venom doesn't work isn't due to the PG-13 rating but because the film is an absolute train wreck.", "is_fresh": 0, "author": ["Scott Menzel"]},
{"text": "I feel a bit like Joey Tribbiani eating Rachel's meat trifle in Friends: It's not what it could have been, sure, but Tom Hardy? Good. Riz Ahmed? Good. Giant-tongued space monster Venom? Goood.", "is_fresh": 1, "author": ["Simon Miraudo"]},
{"text": "To describe Venom as \"tonally confused\" doesn't really convey the fractured, directionless feeling the film embodies. Every actor plays their part as if they're in a different film than everyone else on screen.", "is_fresh": 0, "author": ["Vikram Murthi"]},
{"text": "If you are a fan of the comic character, you should be pleased with this incarnation just as those unfamiliar with the character will probably find the movie and Hardy's performance to be off-putting.", "is_fresh": 1, "author": ["Edward Douglas"]},
{"text": "Weirdly entertaining and fun, yet well below the genre's high standard of now days. [Full review in Spanish]", "is_fresh": 0, "author": ["Fico Cangiano"]},
{"text": "It only succeeds in being a supremely average film that mostly frustrates and baffles rather than thrills.", "is_fresh": 0, "author": ["Daniel Rutledge"]},
{"text": "One assumes that the second or third homes Tom Hardy and Michelle Williams purchased with their paychecks was worth the experience of making this misguided, gobsmacking mess.", "is_fresh": 0, "author": ["Todd Gilchrist"]},
{"text": "Well, at least we still have \"Upgrade\".", "is_fresh": 0, "author": ["Rendy Jones"]},
{"text": "At the very least, Venom feels as if Fleischer was shooting two radically different movies at once, and even in the final edit it's not clear which he chose.", "is_fresh": 0, "author": ["Sam Adams"]},
{"text": "\"Venom\"? More like cyanide.", "is_fresh": 0, "author": ["Johnny Oleksinski"]},
{"text": "Venom mostly wastes its stellar cast with its jarring tonal clash - the wacky humour is badly timed, and the one-liners are ghastly. Its blend of puerile comedy and psychological horror just never really gels.", "is_fresh": 0, "author": ["Katherine McLaughlin"]},
{"text": "Venom is a mess of a movie, a baffling mishmash of sci-fi, horror and comedy elements and one which squanders most of the resources at its disposal.", "is_fresh": 0, "author": ["Geoffrey Macnab"]},
{"text": "Even the great Tom Hardy is defeated by this tone-deaf Marvel botch job, which delivers a puddle of simplistic, sanitized PG-13 drivel instead of the scary, dark-night-of-the-soul thunderbolt fans had every right to expect.. ", "is_fresh": 0, "author": ["Peter Travers"]},
{"text": "Venom is obviously the victim of some brutal editing, and the derivative, sketchily plotted B-movie that's left is as scrappy and hurried as a trailer.", "is_fresh": 0, "author": ["Nicholas Barber"]},
{"text": "As a superhero movie, [it's] nothing special. As a cannibal comedy, it's priceless. [Full review in Spanish]", "is_fresh": 1, "author": ["Yago Garc\u00eda"]},
{"text": "With its head-munching and several gross-out scenes of Hardy trying to sate Venom's bottomless hunger, the movie is in a hurry to prove its edginess. ", "is_fresh": 0, "author": ["Ed Power"]},
{"text": "It's never boring, but it certainly doesn't hold up under close inspection - and it definitely doesn't meet the standards set by its genre predecessors.", "is_fresh": 0, "author": ["Meg Downey"]},
{"text": "Despite a cartoonishly entertaining performance from the great Tom Hardy, this superhero film is a total mess.", "is_fresh": 0, "author": ["Nick Schager"]},
{"text": "True faith can't help but be sincere, and so Venom, for all of its winking, seems genuinely in awe of its monster, too.", "is_fresh": 1, "author": ["Richard Lawson"]},
{"text": "It gets the job done, has a couple of decent laughs, some passable action, and a fascinatingly buggy central performance.", "is_fresh": 1, "author": ["Kyle Anderson"]},
{"text": "\"Venom\" is an entertaining comic book movie that at times is intentionally funny, while other non-funny moments miss the mark so badly that you can't help but laugh.", "is_fresh": 1, "author": ["Jason Guerrasio"]},
{"text": "The film contains a vast wealth of laughs that emanate from a kind of action-comedy slapstick I sincerely didn't know Tom Hardy had in him.", "is_fresh": 1, "author": ["Abraham Riesman"]},
{"text": "Venom is certainly a flawed superhero movie, but Tom Hardy's performances as Eddie Brock and Venom make for a fun and entertaining ride.", "is_fresh": 1, "author": ["Molly Freeman"]},
{"text": "Nowhere near as edgy or exciting as it should have been.", "is_fresh": 0, "author": ["Adam Woodward"]},
{"text": "It would be true to say that the tongue and Tom Hardy are the making of Sony's venture into the Marvel Universe. ", "is_fresh": 1, "author": ["Louise Keller"]},
{"text": "Fleischer fails to get a grip here. Wobbling haphazardly between The Mask-style mischief and a more monstrous pitch, he winds up muzzling the film's potential as either an oddball curio or action movie.", "is_fresh": 0, "author": ["Kevin Harley"]},
{"text": "Why can't the movie make Venom properly dirty? The PG-13 rating seriously hurts. ", "is_fresh": 0, "author": ["Joshua Rothkopf"]},
{"text": "Fleischer made a better comedy-horror with Zombieland, but Venom's a decent buddy actioner. You might even laugh your head off...", "is_fresh": 1, "author": ["Jamie Graham"]},
{"text": "Venom is neither triumph nor train-wreck. It's a mediocre origin story, a superhero host that sadly fails to bond with its comedy parasite.", "is_fresh": 0, "author": ["Ian Freer"]},
{"text": "The filmmakers seem faintly aware that not all comic book characters are superheroes, but unsure of what else Venom could actually be.", "is_fresh": 0, "author": ["Jesse Hassenger"]},
{"text": "Riz Ahmed's evil mad scientist starts well but, like Hardy, is swallowed up by mayhem and metamorphosis. By the hour mark, matters have become seriously boring.", "is_fresh": 0, "author": ["Nigel Andrews"]},
{"text": "The tone of this movie is all over the place, and it's the inconsistencies rather than the absence of Tom Holland in a starring role that are Venom's real problem.", "is_fresh": 0, "author": ["Hugh Armitage"]},
{"text": "How Tom Hardy, Michelle Williams, and Riz Ahmed read this piss-poor script and decided it would make a deserving movie is an oral history worth reading 10 years from now.", "is_fresh": 0, "author": ["Rodrigo Perez"]},
{"text": "Not as bad as Spider-Man 3, Venom sadly fails to capitalise on its potential. There's high hopes for a sequel, although with an opening this lack-lustre, Sony might just hit the reset button once more.", "is_fresh": 0, "author": ["Kat Hughes"]},
{"text": "Venom is not a good movie, but I also want to make it clear that I had the time of my life watching it.", "is_fresh": 0, "author": ["Mike Ryan"]},
{"text": "You could almost convince me the messy tone was part of some genius master plan to make a movie that matched its title character's disjointed temperament. Almost.", "is_fresh": 0, "author": ["Matt Singer"]},
{"text": "It's a mess, but wow, is it ever a fun, fascinating mess. ", "is_fresh": 1, "author": ["Katie Walsh"]},
{"text": "When a major fight scene resembles a pair of black pants caught in a white wash, it's fair to say you haven't taken the audience with you.", "is_fresh": 0, "author": ["Stuart McGurk"]},
{"text": "Like his hungry alien latching onto Eddie, Fleischer cunningly fastens a malicious irreverence onto an otherwise lackluster superhero movie. But the symbiosis doesn't quite take.", "is_fresh": 0, "author": ["Tim Grierson"]},
{"text": "Venom is a film as messy as the amorphous black blob at its core.", "is_fresh": 0, "author": ["James Mottram"]},
{"text": "Sony Pictures appear to have lavished a nine-figure sum on, and are now hoping to establish an entire cinematic universe on the back of, a character who looks like someone drizzled Creme Egg filling onto a bin bag.", "is_fresh": 0, "author": ["Robbie Collin"]},
{"text": "This won't change how you view superhero movies, but it's a great escape nonetheless.", "is_fresh": 1, "author": ["JimmyO"]},
{"text": "Venom would be another anonymous notch on the superhero movie belt if not for Hardy, whose dedication to batshit nonsense is a saving grace - and reason enough to make a second movie.", "is_fresh": 1, "author": ["Matt Patches"]},
{"text": "It's a loud, kind of silly action/buddy cop movie that just wants you to kick back with a bucket of popcorn and have a good time while a space monster licks his chops at you.", "is_fresh": 1, "author": ["Charles Pulliam-Moore"]},
{"text": "A movie that initially seemed just-plain-bad becomes so-bad-it's-good. Or maybe it's just plain good. It's been a full day since I've seen it, and honestly, I'm still not sure. Either way, I laughed a lot.", "is_fresh": 1, "author": ["Angie Han"]},
{"text": "\"Venom\" feels like pretty weak poison.", "is_fresh": 0, "author": ["Justin Chang"]},
{"text": "A significant problem in a film full of them is that Eddie comes off as a dope, an eager dufus hardly convincing as a boundary-pushing journo or someone who can out-think a titan of technology.", "is_fresh": 0, "author": ["Todd McCarthy"]},
{"text": "It's a train wreck of a movie, mixing and matching wildly dissonant tones, bizarre plot contrivances, and a truly unique lead performance.", "is_fresh": 0, "author": ["Bryan Bishop"]},
{"text": "Venom is riddled with the poison of dullness.", "is_fresh": 0, "author": ["Peter Bradshaw"]},
{"text": "It never rises above bombastic and busy - which is something I never thought I'd say about a movie starring three aces like Hardy, Ahmed, and Williams.", "is_fresh": 0, "author": ["Chris Nashawaty"]},
{"text": "It's not \"good,\" but it has a self-satirical edge, and Tom Hardy seems to be trying to be the first actor to win an Oscar and a Razzie for the same performance. ", "is_fresh": 0, "author": ["Scott Mendelson"]},
{"text": "Removing Spider-Man from the overall equation creates too many narrative potholes around which Venom fails to weave with any sort of grace or style. ", "is_fresh": 0, "author": ["Sean O'Connell"]},
{"text": "This radically different approach will surely be jarring to some, but the fact that this movie could never exist in the same world as \"Captain America: Civil War\" despite hailing from the same brand of comics is part of its charm.", "is_fresh": 1, "author": ["Michael Nordine"]},
{"text": "If you replaced Tom Hardy for Steve Martin in \"All of Me,\" and switched out Lily Tomlin for a wad of chewed-up black licorice, you'd have \"Venom.\"", "is_fresh": 0, "author": ["Alonso Duralde"]},
{"text": "Venom almost gets away with its nonsensical plot in the end thanks to that Eddie and Venom bromance, but then you're reminded of the major missed opportunity here.", "is_fresh": 0, "author": ["Perri Nemiroff"]},
{"text": "It's plain old 'meh'. A film that feels like what you'd expect from a below average superhero flick circa 2004, like Ghost Rider or Fantastic Four.", "is_fresh": 0, "author": ["George Simpson"]},
{"text": "Venom plays like a Marvel movie that might have been made in 1996, with no nuance, little character development, and a clunky, on-the-nose style of advancing its plot.", "is_fresh": 0, "author": ["Don Kaye"]},
{"text": "Tom Hardy does his best to elevate a tonally confused script, but Venom will leave you begging for an antidote.", "is_fresh": 0, "author": ["Laura Prudom"]},
{"text": "\"Venom\" is a textbook case of a comic-book film that's unexciting in its ho-hum competence, and even its visual-effects bravura.", "is_fresh": 0, "author": ["Owen Gleiberman"]},
{"text": "Without Tom Hardy, this movie would not work in any way, shape or form.", "is_fresh": 1, "author": ["Dan Murrell"]},
{"text": "Tom Hardy's energy is infectious.", "is_fresh": 1, "author": ["Danielle Radford"]}
]