[
{"reviews_count": "179", "title": "Wreck it Ralph", "avg_audience_rating": "4.1", "rotten_count": "23", "tomatometer": "87", "audience_score": "86", "avg_critic_rating": "7.5", "fresh_count": "156", "user_ratings_count": "238,246"},
{"text": "Ralph Breaks the Internet, a more complete film with a bigger and more evolved story to share, doesn't need parlor tricks to keep viewer interest.", "is_fresh": 1, "author": ["Kirk Baird"]},
{"text": "Sweet without being saccharine and clever without being too full of itself, its both a light-hearted romp and a serious examination of what it means to be a hero.", "is_fresh": 1, "author": ["Johnny Gayzmonic"]},
{"text": "The film is begging for a sequel, and I will be first in line if it does indeed get made.", "is_fresh": 1, "author": ["Jennifer Heaton"]},
{"text": "Even if you're unfamiliar with the characters, the story is accessible.", "is_fresh": 1, "author": ["Sarah Gopaul"]},
{"text": "Fizzy, colourful and intricately plotted, this 2012 pop meta-fiction from The Simpsons' Rich Moore does for vintage arcade games what Who Framed Roger Rabbit did for the Golden Age of Animation.", "is_fresh": 1, "author": ["Jake Wilson"]},
{"text": "You can pretty much count on a film like Wreck-It Ralph to be funny... but the real achievement of a film like this is that you actually care about the characters and the stakes.", "is_fresh": 1, "author": ["Charlie Jane Anders"]},
{"text": "This movie is just fricken great. It's action packed. It's funny. It does a really good job of giving you a lot of video game representations...But it's not references the movie, either. ", "is_fresh": 1, "author": ["Andre Meadows"]},
{"text": "Wreck-It Ralph is a must-see for anyone who grew up playing 1980s arcade games - and their kids will love it too. ", "is_fresh": 1, "author": ["Larushka Ivan-Zadeh"]},
{"text": "Wreck-It Ralph is one of those rare movies that's fun for a revisit yet is peppered with enough hidden references to make the rewatch worthwhile. After a second viewing this weekend, I still walked away impressed.", "is_fresh": 1, "author": ["Monica Castillo"]},
{"text": "Its visuals are so sharp that they practically smother the rest of the film.", "is_fresh": 1, "author": ["J. Olson"]},
{"text": "Wreck-It Ralph plays out a little like a screwball comedy, with Vanellope absolutely vexing Ralph because of her energy, her enthusiasm, and her wide-eyed naivet\u00e9, with Ralph coming around as reluctantly as Cary Grant in Bringing Up Baby.", "is_fresh": 1, "author": ["James Plath"]},
{"text": "Not in my wildest dreams did I ever anticipate using the word \"thoughtful\" to describe a fairly recent animated film.", "is_fresh": 1, "author": ["David Keyes"]},
{"text": "As flawed and derivative it may be, \"Wreck It Ralph\" is still a very fine animated fantasy with a keen sense of creativity and wit...", "is_fresh": 1, "author": ["Felix Vasquez Jr."]},
{"text": "an affectionate love note to computer games past ", "is_fresh": 1, "author": ["James Luxford"]},
{"text": "A bubbly, buoyant treat with near-Pixar levels of heart.", "is_fresh": 1, "author": ["Eric D. Snider"]},
{"text": "Ralph's arms may be gorilla like, his fists gigantic hammers, but Reilly imbues him with rue and courtliness.", "is_fresh": 1, "author": ["Margot Harrison"]},
{"text": "An excellent, inventive, anti-bullying adventure that may be a little too technologically advanced for older audiences.", "is_fresh": 1, "author": ["Wesley Lovell"]},
{"text": "Wreck-It Ralph is a highly original and exciting film that puts Disney Animation right up there with Pixar in terms of providing a story full of emotion, heart and energy.", "is_fresh": 1, "author": ["Jeremy Lebens"]},
{"text": "Hyperactive day-glo fizzy-pop family animation with a heartfelt message about staying true to yourself lurking underneath all the visual fireworks.", "is_fresh": 1, "author": ["Catherine Bray"]},
{"text": "A very clever, delightfully funny and visually stunning Disney film. And yet we end up watching it having already seen its potential to be something much more enticing.", "is_fresh": 1, "author": ["Matt Looker"]},
{"text": "The prospect of inevitable sequels is more than bearable.", "is_fresh": 1, "author": ["Donald Clarke"]},
{"text": "For some, Ralph's spell in Sugar Rush's candy-coloured world may induce hyperglycaemia... but hard-core gamers will have a blast picking up all the gaming in-jokes and references that fly over everyone else's heads.", "is_fresh": 1, "author": ["Jason Best"]},
{"text": "Just like the camera gave us the heads of Frankenstein and Hellboy, so we always get Ralph's giant hands first here.", "is_fresh": 1, "author": ["Graham Young"]},
{"text": "It's a little frantic at times but great fun, clever and well-crafted.", "is_fresh": 1, "author": ["Henry Fitzherbert"]},
{"text": "A colourfully cute romp for kids.", "is_fresh": 1, "author": ["Alan Jones"]},
{"text": "The film is nicely animated but confusing enough to be almost impenetrable at times.", "is_fresh": 0, "author": ["Derek Malcolm"]},
{"text": "Warm, witty, wacky and wonderful, Wreck-It Ralph deserves to stand alongside the best of Disney, while also feeling like it wouldn't be out of place at Pixar's table.", "is_fresh": 1, "author": ["James White"]},
{"text": "Visually ambitious and packed with inside jokes for arcade gamers, this colourful animated adventure is an enjoyable romp but is probably too energetic for its own good. ", "is_fresh": 1, "author": ["Rich Cline"]},
{"text": "This is a hugely enjoyable entry in the Walt Disney Animation Studios catalogue. It sits well alongside the likes of Tangled, balancing both anarchic humour and classic Disney sentimentality very well.", "is_fresh": 1, "author": ["Alex Zane"]},
{"text": "Wreck-It Ralph is witty, ingenious and entertaining, a technical and creative breakthrough on a par with Who Framed Roger Rabbit?, 25 years ago.", "is_fresh": 1, "author": ["Christopher Tookey"]},
{"text": "I found the idea of teens laying down their coins to play arcade games in this present day a strange, semi-intentional archaism - nostalgic wish-fulfilment on the part of the middle-aged people creating the movie.", "is_fresh": 0, "author": ["Peter Bradshaw"]},
{"text": "It's a CGI time-machine for those who misspent their youth developing RSIs on bleeping 8-bit arcade consoles.", "is_fresh": 1, "author": ["Jamie Dunn"]},
{"text": "Play an actual videogame instead.", "is_fresh": 0, "author": ["Chris Blohm"]},
{"text": "The chubby 3D animation, smart-alecky product placement and potty humour all capped my enthusiasm about halfway to total delight.", "is_fresh": 0, "author": ["Tim Robey"]},
{"text": "This is an engaging adventure with likeable characters and some nice ideas, though the pacing flags in the second half and there's a nagging sense of unexplored potential.", "is_fresh": 1, "author": ["Matthew Turner"]},
{"text": "Witty, inventive, beautifully animated and, most importantly, heartfelt. ", "is_fresh": 1, "author": ["Andy Lea"]},
{"text": "Put a coin in the slot and sit back and enjoy; it's the best Pixar movie the studio didn't make, and there can be no higher praise.", "is_fresh": 1, "author": ["Rich Phippen"]},
{"text": "It's arguably the best Pixar-style feature from Disney that hasn't actually been made directly by its acquired, multi-Oscar winning arm.", "is_fresh": 1, "author": ["Graham Young"]},
{"text": "Disney's found a lot to play with here, but you may find yourself itching to take the controls.", "is_fresh": 0, "author": ["Guy Lodge"]},
{"text": "Disney have struck gold outside of their partnership with Pixar, delivering a riotous, sharp and stirring rollercoaster ride of an animated film, reinforced by clever, sentimental video game references and saccharine delight.", "is_fresh": 1, "author": ["Jamie Neish"]},
{"text": "Mostly it's a charming, funny, beautifully animated little kick ...", "is_fresh": 1, "author": ["Siobhan Synnot"]},
{"text": "A Who Framed Roger Rabbit for the joystick generation that, despite a mid-act dip into generic Disney territory, high-scores on laughs, invention and 8-bit affection.", "is_fresh": 1, "author": ["Simon Crook"]},
{"text": "Wreck-It Ralph is a dazzling show of sound and colour, tipping its hat to the 8-bit era and modern-day touchstones.", "is_fresh": 1, "author": ["Simon Reynolds"]},
{"text": "A Disney flick that feels like on-form Pixar, blending knowing humour and sophistication with a large helping of heart. You'll want another go.", "is_fresh": 1, "author": ["Stephen Kelly"]},
{"text": "This cleverly-targeted family romp marks a step up both commercially and artistically for the non-Pixar side of Disney's animation offering.", "is_fresh": 1, "author": ["Hannah McGill"]},
{"text": "You'll either love it or you'll admire it, while wishing it would calm down and, I don't know, maybe pick up a book for a while.", "is_fresh": 0, "author": ["Michael Phillips"]},
{"text": "It's a cool game, to be sure, but watching someone else play it gets old after a while.", "is_fresh": 0, "author": ["Bilge Ebiri"]},
{"text": "...a passable yet disappointing effort from the so-called Mouse House...", "is_fresh": 1, "author": ["David Nusair"]},
{"text": "Despite being a perfectly entertaining Disney picture, Wreck-it Ralph leaves that nagging taste in the mouth that it could have been so much more.", "is_fresh": 1, "author": ["Gabe Leibowitz"]},
{"text": "This A-grade animated Disney charmer hits the nail on the head...director Rich Moore has enormous faith in the ability of young audiences to absorb multiple story strands at once, a belief aided no end by the exquisite quality of the animation. ", "is_fresh": 1, "author": ["Jim Schembri"]},
{"text": "Anyone who grew up within a controller cable length of a gaming console will need to see this film.", "is_fresh": 1, "author": ["Alice Tynan"]},
{"text": "Disney hits all its demographic targets from those whose first gaming experience is Angry Birds to those who know their Asteroids from their Defender.", "is_fresh": 1, "author": ["Matt Neal"]},
{"text": "It's a superbly rendered, supremely creative effort that lovingly pays tribute to 1980s arcade games.", "is_fresh": 1, "author": ["Stephen Silver"]},
{"text": "An even more enriching experience than I had anticipated.", "is_fresh": 1, "author": ["Liam Maguren"]},
{"text": "With its inventive premise, clever script and wacky characters, this family friendly film tells the story of the video game's bad guy, whose colourful adventures and life affirming journey allow him to realise his true worth", "is_fresh": 1, "author": ["Louise Keller"]},
{"text": "Wreck-It-Ralph is one of the year's best animated features (if not the best) and it's the attention to detail in the tightly-written script that gives it such an edge.", "is_fresh": 1, "author": ["Matthew Toomey"]},
{"text": "As a new father you can fully trust me when I say things like 'Wreck-It Ralph' is fun for the whole family, even though my family won't find that out for another five years.", "is_fresh": 1, "author": ["Jeff Bayer"]},
{"text": "[It earns] an emotional final payoff, when it could have easily coasted on the nostalgia of parents, and the undiscerning tastes of infants. That it also injects a number of thrilling action sequences and witty asides is just icing on the delectable cake.", "is_fresh": 1, "author": ["Simon Miraudo"]},
{"text": "This movie - much like Toy Story before it - imagines what might happen if toys' designated functions face challenges, if characters have ideas that take them beyond expectations.", "is_fresh": 1, "author": ["Cynthia Fuchs"]},
{"text": "This witty and brilliantly executed Disney production is looser and less insistent on your emotional acquiescence than its Pixar counterparts...", "is_fresh": 1, "author": ["John Beifuss"]},
{"text": "Wreck-It Ralph is a major advancement for Walt Disney Animation Studios in all regards.", "is_fresh": 1, "author": ["Thomas Caldwell"]},
{"text": "While not quite the 80s gaming throwback it implies, this is a sweet, clever animated adventure.", "is_fresh": 1, "author": ["Bruce Bennett"]},
{"text": "Easily the best animated film in a year full of crushing disappointments, Wreck-It Ralph is a heart-warming ode to retro gaming that will enrapture gamers and pretty much everyone else along the way.", "is_fresh": 1, "author": ["Shaun Munro"]},
{"text": "There's a bonus level of enjoyment for video-game aficionados who might never look at classic arcade games quite the same way again.", "is_fresh": 1, "author": ["Todd Jorgenson"]},
{"text": "Don't worry. You won't be the only grownup seeing 'Wreck-It Ralph.' And if you want to take your family, you will be laughing just as hard as the younger viewers.", "is_fresh": 1, "author": ["Linda Cook"]},
{"text": "Funny, heartwarming, interesting characters, but just a little bit overlong.", "is_fresh": 1, "author": ["Robert Roten"]},
{"text": "Wreck-it Ralph, under the keen executive producer eye of Pixar titan John Lasseter, is what would happen if Toy Story & Shrek had a video game lovechild.", "is_fresh": 1, "author": ["Blake Howard"]},
{"text": "The world created in the movie is so utterly fascinating that I desperately want to see what other kind of amazing, creative tales can be told within it. ", "is_fresh": 1, "author": ["Katey Rich"]},
{"text": "Not a wreck but the movie does have some problems.", "is_fresh": 1, "author": ["Jackie K. Cooper"]},
{"text": "Ralph and his new friends offer much action and adventure, but the movie scores most of all with its poignant scenes and the relationships among its characters. ", "is_fresh": 1, "author": ["John Wirt"]},
{"text": "Wreck-It Ralph is colorful and harmless. It's also harmless and colorful. That just about covers it.", "is_fresh": 1, "author": ["Ken Hanke"]},
{"text": "The creators, more than most, understand that a good setting and fun sight gags are secondary to a story with heart. ", "is_fresh": 1, "author": ["Rebecca Cusey"]},
{"text": "That Disney's in-house effort mostly plays like an actual Pixar film is a fine compliment.", "is_fresh": 1, "author": ["Scott Wold"]},
{"text": "Has no apparent goal other than being the biggest, most colorful film it can be, with a warm and fuzzy message that isn't aiming to be sophisticated, and it does what it sets out to do.", "is_fresh": 1, "author": ["Tim Brayton"]},
{"text": "Best videogame movie ever! ... [A]mong the immense pleasures of this thoroughly enjoyable film are the many ingenious touches that bind it into a cohesive world...", "is_fresh": 1, "author": ["MaryAnn Johanson"]},
{"text": "A manic children's film about the souls of video game avatars. ", "is_fresh": 1, "author": ["Matt Singer"]},
{"text": "may be set in the world of video games, but its conceit is set firmly in . . . the Hero's Journey. The mythic realms are made of bits and bytes, but are just as magical, and the tasks nothing short of Herculean. Not that any of this is stuffy or pedantic.", "is_fresh": 1, "author": ["Andrea Chase"]},
{"text": "Inventively wired, it's a video-game adventure that explores visually dazzling, distinctively retro worlds.", "is_fresh": 1, "author": ["Susan Granger"]},
{"text": "Yeah, I said it. Wreck-It Ralph compares with the Toy Story movies. It's the equal to those films in terms of joy, character, sweetness and, most of all, heart.", "is_fresh": 1, "author": ["Devin Faraci"]},
{"text": "A brilliant concept in search of a movie. Starts off really strong with sly humor and wit that devolves into cheap kiddie jokes.", "is_fresh": 0, "author": ["Michelle Alexandria"]},
{"text": "Wreck-It Ralph knows that it can only play at its inside jokes for so long before the shtick gets old.", "is_fresh": 1, "author": ["Mark Dujsik"]},
{"text": "Wreck-It Ralph is consistently inventive, displaying a sturdy story structure that makes it more than just a simplistic romp for the Gen-X crowd.", "is_fresh": 1, "author": ["Matt Brunson"]},
{"text": "The most fun I've had in a theater for quite a long time.", "is_fresh": 1, "author": ["Scott Nash"]},
{"text": "Wreck-It Ralph isn't great but it's not a total train wreck either. ", "is_fresh": 1, "author": ["Gary Wolcott"]},
{"text": "The breakout star here is Silverman, who channels her caustic Kewpie doll stand-up personality into the impish Vanellope to give her some bite and a lot of heart.", "is_fresh": 1, "author": ["Sean P. Means"]},
{"text": "Wreck-It Ralph is like the happy hallucination a 14 year old kid in 1986 might have had after ingesting a dozen or so Pixie Sticks and a liter of Jolt Cola", "is_fresh": 1, "author": ["Bill Gibron"]},
{"text": "The story pushes a heartfelt message, but the humorous antics are pitched at a strictly juvenile level that will have parents yawning while their children roar in approval.", "is_fresh": 0, "author": ["Steve Biodrowski"]},
{"text": "For anyone with a grade-schooler and a free Saturday, it's a pretty safe and painless bet. And a great excuse to go up to the attic later and see if you can dig out your old Atari 2600.", "is_fresh": 1, "author": ["Stephen Whitty"]},
{"text": "Wreck-It Ralph makes you think that an animated comedy this humorous, original, and entertaining has to be unhealthy.", "is_fresh": 1, "author": ["Chris Sawin"]},
{"text": "A lot of kids are going to grow up with hopes of working in the game industry, and I mean *inside* the game industry.", "is_fresh": 1, "author": ["Perri Nemiroff"]},
{"text": "This certainly isn't the best Disney film to come along, but it's a decent outing for families. ", "is_fresh": 1, "author": ["Jeanne Kaplan"]},
{"text": "The biggest disappointment of all is that John Lasseter is executive producer. Unfortunately, \"Ralph\" can't hold a candle to his prior creations. ", "is_fresh": 0, "author": ["David Kaplan"]},
{"text": "Abandons its initial, clever and fiendishly marketable conceit for a highly conventional tale about fatherhood ... Worth a handful of quarters, but not much more than that.", "is_fresh": 1, "author": ["William Bibbiani"]},
{"text": "Amiable enough.", "is_fresh": 1, "author": ["James Verniere"]},
{"text": "Unlike the Pixar films toward which it aspires-which marry sophisticated conceits to straightforward storylines-Wreck-It Ralph consistently gets lost in its own intricate plot mechanics.", "is_fresh": 0, "author": ["Christopher Orr"]},
{"text": "The movie's retro sensibilities will appeal to adults, while the colorful games and characters, as well as the simplicity of the story, will hold the attention of young viewers.", "is_fresh": 1, "author": ["Bob Bloom"]},
{"text": "Video game enthusiasts are sure to embrace the feature's familiarity with arcade history, while the less enlightened will have to do with a splendidly animated picture populated with likable characters and explosive action set-pieces.", "is_fresh": 1, "author": ["Brian Orndorf"]},
{"text": "The movie knows and loves gaming culture, but never uses that as an excuse to let the narrative slip.", "is_fresh": 1, "author": ["Rob Vaux"]},
{"text": "The giddiest cartoon comedy in years. ", "is_fresh": 1, "author": ["Jeffrey Westhoff"]},
{"text": "\"Wreck-It Ralph\" is one of the best animated movies of 2012... ", "is_fresh": 1, "author": ["Cole Smithey"]},
{"text": "Wreck-It-Ralph enjoys a smart ratio of accessible character drama and goofy gaming gags - resulting in an exceptionally entertaining, and heartfelt, animated adventure.", "is_fresh": 1, "author": ["Ben Kendrick"]},
{"text": "Through it all, the animators fill Wreck-It Ralph with playful sight gags and smart video-game references that will delight savvy viewers, but aren't so inclusive that they can't be enjoyed by non-gamers.", "is_fresh": 1, "author": ["Jason Buchanan"]},
{"text": "The film gets a lot of credit for being clever and original while sticking to tried-and-true family movie themes like believing in yourself and accepting everyone's differences.", "is_fresh": 1, "author": ["Mathew DeKinder"]},
{"text": "One of the best animated movies of a year full of them. Sweet, silly, nostalgic, and very geeky fun.", "is_fresh": 1, "author": ["Scott Weinberg"]},
{"text": "'Wreck-it Ralph' is a serious contender for the title of best animated film of the year.", "is_fresh": 1, "author": ["James Rocchi"]},
{"text": "Those who've played and programmed the games over the decades will find some fun with in-jokes involving the likes of Pac-man and Q*bert but anyone else over the age of ten will likely be bored.", "is_fresh": 0, "author": ["Laura Clifford"]},
{"text": "Game-themed movie mixes potty humor with strong messages.", "is_fresh": 1, "author": ["Common Sense Media Editors"]},
{"text": "Wreck-It Ralph may ostensibly be for kids, but the viewers who will probably enjoy it most are those who were children thirty years ago.", "is_fresh": 1, "author": ["Ethan Alter"]},
{"text": "You might wish you could insert another quarter when it finally reaches 'game over.' (Full Content Review for Parents also available)", "is_fresh": 1, "author": ["Jim Judy"]},
{"text": "A sort of Toy Story as seen through an 8-bit lens.", "is_fresh": 1, "author": ["Mike Scott"]},
{"text": "Sarah Silverman puts in one of the greatest voice acting performances you will ever see or hear in your life. ", "is_fresh": 1, "author": ["Willie Waffle"]},
{"text": "The movie's subversive sensibility and old-school/new-school feel are a total kick.", "is_fresh": 1, "author": ["Betsy Sharkey"]},
{"text": "It's impossible not to feel a strong sense of nostalgic amusement, if not sheer delight, at the comings and goings of all these characters.", "is_fresh": 1, "author": ["Dave McGinn"]},
{"text": "It's fun for awhile, but it's not a video game you'll come back to once you set down the controller.", "is_fresh": 1, "author": ["Adam Graham"]},
{"text": "Amid all the boring crashing and chasing and slapstick, there are some brilliant flashes of wit (particularly a reference to the guards in the Wizard of Oz).", "is_fresh": 1, "author": ["Kyle Smith"]},
{"text": "Emphasizes action and eye-popping visuals over emotion.", "is_fresh": 0, "author": ["Michael O'Sullivan"]},
{"text": "This is, without a doubt, the best animated film so far this year. It's a video game geek's paradise, featuring countless references to games from all eras. ", "is_fresh": 1, "author": ["Austin Kennedy"]},
{"text": "Disney can dress it up, take it out to the arcade and plug it full of quarters ... but at the end of the cord, the film's a simple, 8-bit I-gotta-be-me story, with a dull plot and tepid characters. Game over.", "is_fresh": 0, "author": ["Kimberly Gadette"]},
{"text": "The first half of the film is a constant delight as clever, funny ideas are presented, one after another. ", "is_fresh": 1, "author": ["Leonard Maltin"]},
{"text": "'Wreck-It Ralph' combines a fresh idea with a true love for retro pop culture. It's hard not to love this movie.", "is_fresh": 1, "author": ["Richard Roeper"]},
{"text": "A few power-ups shy of a classic, but its winking look at the world of video games is fun, even if it doesn't reach its full potential.", "is_fresh": 1, "author": ["Jeffrey Lyles"]},
{"text": "If ever a movie deserved the tag line 'Get ready to root for the bad guy,' it's this.", "is_fresh": 1, "author": ["David Medsker"]},
{"text": "A witty, imaginative romp that should please some viewers with its nostalgic references to the pastimes they affectionately remember and everybody else with its explosion of sheer exuberance and warmth.", "is_fresh": 1, "author": ["Frank Swietek"]},
{"text": "Delightfully off the rails, offering a grown-up-friendly tone and merging of visual styles that are reminiscent of the studio's 1988 animated homage to film noir, \"Who Framed Roger Rabbit.\"", "is_fresh": 1, "author": ["Peter Hartlaub"]},
{"text": "Probably won't endure like the best of Disney's animated canon, but it's a slight, well-meaning entertainment all the same. ", "is_fresh": 1, "author": ["Dustin Putman"]},
{"text": "\"Wreck-It Ralph\" is a lot like video games and candy: light entertainment but fun while it lasts.", "is_fresh": 1, "author": ["Jody Mitori"]},
{"text": "Wreck-It Ralph is the latest in a rash of recent movies fired up with imaginative risk. Director Moore brings a video junkie's passion to the movie game, and it's hilariously infectious.", "is_fresh": 1, "author": ["Peter Travers"]},
{"text": "The witty and vibrant worlds are gorgeously imagined (and of course now available in game form themselves), with a satisfying balance of heart and humor.", "is_fresh": 1, "author": ["Nell Minow"]},
{"text": "Wreck-It Ralph is an absolutely wonderful film, nothing short of a glorious, full-blown rebirth for Disney Animation Studios. ", "is_fresh": 1, "author": ["Jonathan Lack"]},
{"text": "It's a lovely pretext for dazzling visuals, yet the production is diminished by the clumsiness of an 8-bit script.", "is_fresh": 0, "author": ["Joe Morgenstern"]},
{"text": "Like a video game, Rich Moore's 3-D film is colorful, noisy, and pixel-deep.", "is_fresh": 1, "author": ["Carrie Rickey"]},
{"text": "Wreck-It Ralph is pop nirvana, a headlong rush through classic arcade games and Nintendo standards that's not too busy playing spot-the-reference to keep from paying off in laughs and heart.", "is_fresh": 1, "author": ["Scott Tobias"]},
{"text": "The movie invites a measure of cynicism - which it proceeds to obliterate with a 93-minute blast of color, noise, ingenuity and fun.", "is_fresh": 1, "author": ["A.O. Scott"]},
{"text": "It's pure plastic product from plot line to the pro forma 3-D to the tidy moral lessons - ersatz family entertainment as disposable as it is diverting.", "is_fresh": 0, "author": ["Ty Burr"]},
{"text": "The farcical story is cute, the dialogue witty and the players charming.", "is_fresh": 1, "author": ["Claudia Puig"]},
{"text": "Powered by a standout concept delivered upon in winning fashion, this fun film serves as the most natural and effortlessly readymade animated feature for future franchise exploration since Shrek.", "is_fresh": 1, "author": ["Brent Simon"]},
{"text": "Call it Tron for little kids. Or Toy Story for their arcade generation parents. ", "is_fresh": 1, "author": ["Jim Slotek"]},
{"text": "Think \"Tron\" with belly laughs. Or \"Night at the Museum\" with any laughs.", "is_fresh": 1, "author": ["Colin Covert"]},
{"text": "\"Wreck-It Ralph\" builds on a wonderful premise that explores whether folks are condemned to be victims of their own circumstances.", "is_fresh": 1, "author": ["Jon Niccum"]},
{"text": "\"Wreck-It Ralph\" doesn't just wreck 'em. It darn near kills 'em.", "is_fresh": 1, "author": ["Graham Killeen"]},
{"text": "\"Wreck-It Ralph\" blends poignancy and a piston-powered plot that revels in both visual inventiveness and a vaudevillian sense of timing.", "is_fresh": 1, "author": ["Frank Lovece"]},
{"text": "Starts out as a funny high scorer but limps into a second half as flat as those quarters we once pumped into arcade machines long ago.", "is_fresh": 0, "author": ["Linda Barnard"]},
{"text": "Wreck-It Ralph feels like so many modern AAA gaming titles-a promising starting point for an inevitable, improved sequel.", "is_fresh": 0, "author": ["Nick Schager"]},
{"text": "Built for fun...in its dazzlingly elaborate production design and kinetic 3D action...perfect casting...Who Framed Roger Rabbit-esque video-game-character cameos, and a cramming of clever comic touches...", "is_fresh": 1, "author": ["Peter Canavese"]},
{"text": "Sweet enough but in the end a bit of a corny-syrupy wipeout, this is middling family-night fare, but it never even comes close to the emotional or technical wizardry of Pixar's finest moments.", "is_fresh": 0, "author": ["Marc Savlov"]},
{"text": "The film flies off in all sorts of directions, all of them rewarding. But the best trick is how screenwriters Phil Johnston and Jennifer Lee bring everything back together, even the seemingly least-related elements.", "is_fresh": 1, "author": ["Bill Goodykoontz"]},
{"text": "Rings a few welcome changes on the Disney-princess mythos, but it still feels like a game you've played before.", "is_fresh": 1, "author": ["Sam Adams"]},
{"text": "I do not care one bit about video games. Even if I did, I suspect I wouldn't be a fan of the loud and frenzied \"Wreck-It Ralph.\" ", "is_fresh": 0, "author": ["Chris Hewitt (St. Paul)"]},
{"text": "The most inventive and entertaining family movie I've seen this year, packed with wickedly smart humor and joyful animation. ", "is_fresh": 1, "author": ["Mary F. Pols"]},
{"text": "A gorgeously rendered story that will play just as well to children as to their parents, albeit for different reasons. Playstation and Xbox junkies will be equally pleased.", "is_fresh": 1, "author": ["Rene Rodriguez"]},
{"text": "What makes this work is not only the in-jokes for video game fans, but the rich characterization. ", "is_fresh": 1, "author": ["Daniel M. Kimmel"]},
{"text": "A bouncy, boingy ball of candy-colored fun, Wreck-It Ralph is intended as pure entertainment for wee boys and girls. And I bet most adults will find it a hoot to boot.", "is_fresh": 1, "author": ["Christopher Lloyd"]},
{"text": "The imagery is amazing - and always witty. This is a Disney cartoon - but it's got the imagination and brains of a Pixar feature. ", "is_fresh": 1, "author": ["Marshall Fine"]},
{"text": "A sweet, colorful 3-D animated feature that finds Disney passing its stuck-in-a-rut partners at Pixar.", "is_fresh": 1, "author": ["Matt Pais"]},
{"text": "Disney Animation takes a page out of Pixar's well-worn playbook for this, a screwball farce with a novel setting and more edge than your average Disney 'toon.", "is_fresh": 1, "author": ["Roger Moore"]},
{"text": "Bursting with candy-bright colors and zoomy action, Pixar's \"Wreck-It Ralph\" should prove as entertaining as a sugar rush for its young target audience.", "is_fresh": 1, "author": ["Moira MacDonald"]},
{"text": "More than another standard cutesy reference-fest with some exciting chases and an eventual upbeat message.", "is_fresh": 1, "author": ["Tasha Robinson"]},
{"text": "The art design and color palette of \"Wreck-It Ralph\" permit unlimited sets, costumes and rules, giving the movie tireless originality and different behavior in every different cyber word.", "is_fresh": 1, "author": ["Roger Ebert"]},
{"text": "The story often feels jumbled and unfocused. But the details of the video-game world are intricate and wonderfully realized.", "is_fresh": 1, "author": ["Josh Bell"]},
{"text": "If only the Konami Code could fix this script.", "is_fresh": 0, "author": ["Brett Michel"]},
{"text": "Wreck-It Ralph never does anything groundbreaking with this idea, but it's cute and clever and evokes nostalgia for gamers of the '80s and '90s.", "is_fresh": 1, "author": ["James Berardinelli"]},
{"text": "It's a fine piece of moviemaking that has a little something for kids who don't remember when games were played in arcades and adults who will delight in the tweaking of a bygone era.", "is_fresh": 1, "author": ["Charlie McCollum"]},
{"text": "It's a great dynamic and it works but my favorite character isn the whole thing was Alan Tudyck as King Candy, such a hilarious throwback to the Mad Hatter from Alice in Wonderland.", "is_fresh": 1, "author": ["Kristian Harloff"]},
{"text": "It was such a great time at the cinema; I was expecting to like it and I ended up falling in love.", "is_fresh": 1, "author": ["Mark Ellis"]},
{"text": "It doesn't quite carry the heft of Toy Story, but there's a lot of heart packed into these zeroes and ones.", "is_fresh": 1, "author": ["Keith Staskiewicz"]},
{"text": "An adorable winner ...", "is_fresh": 1, "author": ["Laremy Legel"]},
{"text": "The metaphor is clever, injecting real-life risk and reward into these beautifully artificial vistas, scored to composer Henry Jackman's Nintendo-worthy beeps and bloops.", "is_fresh": 1, "author": ["Joshua Rothkopf"]},
{"text": "A delightful contrast to Moore's frenetic adventure is offered by an accompanying short subject Paper Man... the reason for the \"plus\" in my grade, and a likely Oscar nominee in the animated short film category.", "is_fresh": 1, "author": ["Steve Persall"]},
{"text": "Consider it a force in the Best Animated Film Oscar race", "is_fresh": 1, "author": ["Pete Hammond"]},
{"text": "Like most any game, Wreck-it Ralph is most fun when it's messing around without a particular goal.", "is_fresh": 1, "author": ["Phil Villarreal"]},
{"text": "Life lessons about being true to yourself are learned along the way, delivered with all the subtlety of Felix's hammer, but Wreck-It Ralph actually makes us care about these videogame characters and their dreams.", "is_fresh": 1, "author": ["Alonso Duralde"]},
{"text": "'Wreck-It Ralph' is a clutter of noise, eye-wearying animation, frenetic action and two-dimensional characters.", "is_fresh": 0, "author": ["Kirk Honeycutt"]},
{"text": "A cleverly conceived, coin operated machine.", "is_fresh": 1, "author": ["Mark Sells"]},
{"text": "The filmmakers deserve credit for creating different worlds, each with distinctive look, but like most road films, the tale is overly episodic, lacking the unified vision that has marked the genre's best works.", "is_fresh": 1, "author": ["Emanuel Levy"]},
{"text": "Beneath the pixelated gags, the stakes are relatively familiar. However, much of the humor in \"Wreck-It Ralph\" riffs on the nostalgia associated with real games.", "is_fresh": 1, "author": ["Eric Kohn"]},
{"text": "Nothing but broad, pandering indexes tailored to appeal to the arcade wistfulness it never even bothers to convincingly evoke.", "is_fresh": 0, "author": ["John Semley"]},
{"text": "With a mix of retro eye-candy for grown-ups and a thrilling, approachable storyline for the tykes, the film casts a wide and beguiling net.", "is_fresh": 1, "author": ["Justin Lowe"]},
{"text": "There are a staggering number of rules governing the gameplay in Wreck-It Ralph, and one of the toon's greatest pleasures comes in how intuitively audiences discover those parameters as the story unfolds.", "is_fresh": 1, "author": ["Peter Debruge"]},
{"text": "While only the first forty minutes are super, on the whole WRECK-IT RALPH is a whole lot of fun. ", "is_fresh": 1, "author": ["Chris Bumbray"]}
]