[
{"reviews_count": "229", "title": "All is Lost", "avg_audience_rating": "3.5", "rotten_count": "14", "tomatometer": "94", "audience_score": "63", "avg_critic_rating": "  8", "fresh_count": "215", "user_ratings_count": "40,454"},
{"text": "Unlike similar films, Zemeckis' Cast Away and Cuar\u00f3n's Gravity, which wrapped up in their contingencies familiarly sentimental undertones, Chandor keeps it pared down and real", "is_fresh": 1, "author": ["PJ Nabarro"]},
{"text": "All Is Lost can be tedious to watch at times but its metaphoric overtones about crisis-driven alienation and determination will certainly float one's boat.", "is_fresh": 1, "author": ["Frank Ochieng"]},
{"text": "In any event, the film is a subtle acting exercise and a triumph of cinematography; it is also a tad ho-hum.", "is_fresh": 1, "author": ["Debbie Baldwin"]},
{"text": "It is a bold and masterful film, and Redford is great.", "is_fresh": 1, "author": ["Camilla Long"]},
{"text": "Its lack of detail and substance might be aggravating to some viewers, but the blank palette puts you in a position to run free with your own interpretation, and I have a tough time believing that wasn't director J.C. Chandor's intention all along.", "is_fresh": 1, "author": ["Josh Terry"]},
{"text": "There's almost no dialogue and yet it grips from damp beginning to seriously watery end.", "is_fresh": 1, "author": ["Matthew Bond"]},
{"text": "Powerful. ", "is_fresh": 1, "author": ["Rochelle Siemienowicz"]},
{"text": "Even with the boring bits, it's a solid A of a movie, a top-tenner for sure.", "is_fresh": 1, "author": ["Sarah Marrs"]},
{"text": "All Is Lost is a testament to the possibilities of digital cinema: a film like this, shot in such close confines, simply couldn't be made with anything other than lightweight, handheld cameras. ", "is_fresh": 1, "author": ["Anwen Crawford"]},
{"text": "As grim and hopeless as things could possibly get in a movie called All Is Lost, the movie is essentially about perseverance: playing it smart, staying safe and not giving up until -- well, see the title.", "is_fresh": 1, "author": ["Craig D. Lindsey"]},
{"text": "A vital, exciting piece of work from Mr. Redford, an actor whom you'd have been forgiven for counting out by now.", "is_fresh": 1, "author": ["Jason Bailey"]},
{"text": "The success of All Is Lost is to be a physical film that ends up with emotional reverberation, right down to the last shot that engulfs us and Our Man in the depths of the ocean, with only a faint light shining from above.", "is_fresh": 1, "author": ["Kong Rithdee"]},
{"text": "Like Gravity, this actually offers the greatest story of them all: one person's fight to stay alive.", "is_fresh": 1, "author": ["David 'Mad Dog' Bradley"]},
{"text": "All is Lost is outstanding and so the collaboration between Redford and writer/director J.C Chandor. ", "is_fresh": 1, "author": ["Blake Howard"]},
{"text": "Frank G. DeMarco and Peter Zuccarini, dual cinematographers, gather gorgeous imagery especially those captured from beneath the ocean's surface.", "is_fresh": 1, "author": ["Clayton Davis"]},
{"text": "Chandor never overplays his hand, and in doing so he creates a worthy portrait of a man in a dire situation that resonates with us all.", "is_fresh": 1, "author": ["Colin Biggs"]},
{"text": "once Robert Redford is on screen, his muted, exasperated, hopeful performance is an exemplar of the physical. Our Man seems a man of reckless wealth and expansive estrangement: why is he at sea? Begging the larger question, why are we all at sea?", "is_fresh": 1, "author": ["Ray Pride"]},
{"text": "A commanding performance by Robert Redford with nary a word spoken. It makes up for the somewhat tedious running time.", "is_fresh": 1, "author": ["Wesley Lovell"]},
{"text": "Superb, a brilliantly conceived, first-person masterpiece, totally immersive and compelling from first frame to last. It's easily one of the best survival films ever made, even with Gravity dominating everybody's praise.", "is_fresh": 1, "author": ["Jim Schembri"]},
{"text": "O rosto envelhecido, marcado e expressivo (e ainda belo) de Redford comunica uma infinidade de ideias e sentimentos com o m\u00ednimo esfor\u00e7o.", "is_fresh": 1, "author": ["Pablo Villa\u00e7a"]},
{"text": "Mark his name down as one to watch. Chandor could potentially turn out to be as fresh and innovative a talent of the likes of Christopher Nolan and Spike Jonze in the near future.", "is_fresh": 1, "author": ["Leigh Paatsch"]},
{"text": "This works just fine viewed as a stripped back tale of survival against the odds. The ending is the only moment where the metaphorical comes to the fore, and even then it's really just a matter of how literally you want to take the title.", "is_fresh": 1, "author": ["Anthony Morris"]},
{"text": "This film makes an excellent case that sometimes less can be so much more.", "is_fresh": 1, "author": ["Damien Straker"]},
{"text": "A subtle meditation on mind, body and spirit that's imbued with an aching amount of futility and loneliness", "is_fresh": 1, "author": ["Cameron Williams"]},
{"text": "The low tech nature of All is Lost accentuates the primal (physical) nature of this struggle, while the technical prowess of Gravity emphasizes its more metaphysical (and less interesting) nature", "is_fresh": 1, "author": ["Dan Jardine"]},
{"text": "All is Lost makes the familiar strikingly new. The filmmaker and his star hold their nerve, refusing easy outs and making you look - and listen - carefully to a starkly pure piece of cinema.", "is_fresh": 1, "author": ["Craig Mathieson"]},
{"text": "If you're slightly intrigued by the premise, find the time to see All Is Lost. It's taking a chance and trying to give us something different.", "is_fresh": 1, "author": ["Matthew Toomey"]},
{"text": "Full of detail, the film is almost claustrophobic at times as we stay inside the cabin of the yacht while the ocean heaves outside, the wind howls, the boat shrieks... it's a unique work", "is_fresh": 1, "author": ["Andrew L. Urban"]},
{"text": "Uncluttered by narrative or dialogue, Robert Redford gives an astounding performance - spending most of the film literally and psychologically hanging on", "is_fresh": 1, "author": ["Louise Keller"]},
{"text": "It's a rare example of pure cinema, and that, in itself, gives it a stature to which few Hollywood films these days aspire.", "is_fresh": 1, "author": ["David Stratton"]},
{"text": "Chandor has produced a minimalist gem.", "is_fresh": 1, "author": ["Sandra Hall"]},
{"text": "This is the most compelling tale of nautical peril since Steven Spielberg's Jaws.", "is_fresh": 1, "author": ["Tom Clift"]},
{"text": "'Captain Phillips' wasn't the only see-worthy vessel of 2013. ", "is_fresh": 1, "author": ["Linda Cook"]},
{"text": "We (and he) know he's screwed. The tension comes from establishing just how badly.", "is_fresh": 1, "author": ["Matt Glasby"]},
{"text": "Chandor clearly wanted to make something powerful and engrossing, but due to the simplistic nature of the film, what he ended up with was something dull and forgettable.", "is_fresh": 0, "author": ["Jeff Beck"]},
{"text": "The film attains an operatic grandeur in its closing moments, and surprisingly earns it: Chandor's intensely physical, experiential work has brought us right up to the perilous edge between life and death.", "is_fresh": 1, "author": ["Michael Koresky"]},
{"text": "The most remarkable feat in J.C. Chandor's stranded-in-the-sea survival story All Is Lost is star Robert Redford's ability to shave on open water. ", "is_fresh": 1, "author": ["Simon Miraudo"]},
{"text": "The Old Man IN the Sea!", "is_fresh": 1, "author": ["Kam Williams"]},
{"text": "(Redford) is quite effective in the film's slower moments, while thoroughly rattled when reacting to the elements.", "is_fresh": 1, "author": ["Matthew Sorrento"]},
{"text": "So threadbare that there's nothing to grasp onto to care about.", "is_fresh": 0, "author": ["Michael Dequina"]},
{"text": "We've seen this story before, but Chandor dares to construct it so far from convention, and, surprisingly, it resonates come closer to home in the process.", "is_fresh": 1, "author": ["Joe Utichi"]},
{"text": "A drama full of intrigue, built on close identification with the imperilled floater. ", "is_fresh": 1, "author": ["Ed Whitfield"]},
{"text": "Gravity's great weakness was the unnecessarily abundant corny dialogue. All Is Lost is makes no such compromises.", "is_fresh": 1, "author": ["Donald Clarke"]},
{"text": "As the film goes on, we see Redford in a new light. A light dimmer and paler and murkier. Once a golden god on screen, there now remains a hobbled everyman.", "is_fresh": 1, "author": ["Jordan Hiller"]},
{"text": "Who is this sailor? Where does he come from? Chandor never sees fit to tell us. His hero remains a deliberate stencil, defined solely by the crisis around him and the actions he takes.", "is_fresh": 1, "author": ["Xan Brooks"]},
{"text": "the film generates a wonderful sense of claustrophobia on the open sea. Imagine a movie with the lyrical beauty of a Terrence Malick project crossed with the virtuosity of Tom Hanks in Cast Away.", "is_fresh": 1, "author": ["Graham Young"]},
{"text": "Technically, this is a hugely impressive film but it still left me feeling a little underwhelmed. ", "is_fresh": 1, "author": ["Andy Lea"]},
{"text": "[Redford] speaks barely a handful of lines in All Is Lost, but the film still manages to feel like an internal monologue, a conversation between one man and himself.", "is_fresh": 1, "author": ["Tim Robey"]},
{"text": "The utter solitude is almost vertiginous.", "is_fresh": 1, "author": ["Peter Bradshaw"]},
{"text": "Chandor's movie gives us the Hemingwayish essentials and then some.", "is_fresh": 1, "author": ["Nigel Andrews"]},
{"text": "There's something powerful lurking in the deep.", "is_fresh": 1, "author": ["Sophie Monks Kaufman"]},
{"text": "Impressively paced and superbly shot, this is a powerful and ultimately terrifying drama with stunning sound design work and an Oscar-worthy performance from Robert Redford.", "is_fresh": 1, "author": ["Matthew Turner"]},
{"text": "At a time when filmmakers are desperately throwing everything at the screen and seeing what sticks, it's refreshing to see a film like All Is Lost come along and turn the more-is-more formula on its head.", "is_fresh": 1, "author": ["John Nugent"]},
{"text": "This beautifully-directed drama succeeds to a certain experimental extent but drags on for a bit too long.", "is_fresh": 1, "author": ["John Hanlon"]},
{"text": "If you are a big Robert Redford fan you should eat this movie up since he is the only person in the movie. The downside, he is the only person in the movie.", "is_fresh": 0, "author": ["Jackie K. Cooper"]},
{"text": "With no 3D, no friends and no hope, Redford and Chandor show how survivalist instincts can stoke thrilling, thoughtful cinema.", "is_fresh": 1, "author": ["Kevin Harley"]},
{"text": "A very beautiful and intense piece of survival drama...", "is_fresh": 1, "author": ["Felix Vasquez Jr."]},
{"text": "After the award-winning Margin Call, writer-director J.C. Chandor shifts gears completely for this fiercely detailed one-man survival drama.", "is_fresh": 1, "author": ["Rich Cline"]},
{"text": "[Redford] gives a commanding performance as the nameless protagonist that makes the complete lack of characterisation an irrelevance.", "is_fresh": 1, "author": ["Philip Concannon"]},
{"text": "All Is Lost is very pure film-making, set entirely on the water, without dialogue, just showing us the man's fight to survive from moment to moment.", "is_fresh": 1, "author": ["David Sexton"]},
{"text": "the Cliffs Notes version of the deeper, more profound character study that never transpires on-screen", "is_fresh": 0, "author": ["Jay Antani"]},
{"text": "This is one man, alone, facing death. Redford is playing himself, and he's not playing around.", "is_fresh": 1, "author": ["Mitch Lillie"]},
{"text": "It's the detail and precision of his storytelling style that makes All Is Lost so engrossing.", "is_fresh": 1, "author": ["Geoffrey Macnab"]},
{"text": "[Redford] brings both physicality and emotion to the role, subtly shifting from anger to surprise to despair. It's a completely naturalistic performance, stripped of ego or artifice, and you often forget you're watching a Hollywood icon.", "is_fresh": 1, "author": ["Jeff Meyers"]},
{"text": "It's not as tense as Gravity, but just as suspenseful, and almost as exhilarating.", "is_fresh": 1, "author": ["Jim Lane"]},
{"text": "Stylistically it's a serious about-face from director J. C. Chandor, whose excellent debut feature Margin Call was stuffed with actors as Wall Street types talking a mile a minute.", "is_fresh": 1, "author": ["Dave White"]},
{"text": "A triumph of pure cinema and wonderful visual storytelling from Chandor, who must now be considered the real deal, while Redford is sublime in what could well be the performance of his career.", "is_fresh": 1, "author": ["Chris Hewitt (UK)"]},
{"text": "All is Lost is superior craftsmanship on the part of the filmmaker and his star, making a late-in-life \"coming of age\" story that transitions into a man's twilight and burns bright.", "is_fresh": 1, "author": ["Michael Smith"]},
{"text": "All Is Lost boils down the art of filmmaking to the essential parts, making even the slightest decisions evident and powerful.", "is_fresh": 1, "author": ["Matt Patches"]},
{"text": "As written and directed by young American filmmaker J.C. Chandor, All is Lost is a classic case of man-against-nature.", "is_fresh": 1, "author": ["Bruce Kirkland"]},
{"text": "Even Redford bailing water for 106 minutes can be a bit much.", "is_fresh": 0, "author": ["Mick LaSalle"]},
{"text": "The movie has the feel of a beautifully conceived and elegantly composed short story with a remarkable and consistently surprising degree of emotional resonance.", "is_fresh": 1, "author": ["Nathan Southern"]},
{"text": "if the film maintains our attention, it is simply because we connect with the base desire to survive, which embodied by someone like Robert Redford becomes all the more gripping", "is_fresh": 1, "author": ["James Kendrick"]},
{"text": "This is an uncommonly absorbing movie. ", "is_fresh": 1, "author": ["Wesley Morris"]},
{"text": "[Redford] barely utters a word and yet manages to give one of the finest performances of his long career.", "is_fresh": 1, "author": ["Allan Hunter"]},
{"text": "a film of action and suspense with no guns and no villains but the sea and an inevitable death.", "is_fresh": 1, "author": ["Mark R. Leeper"]},
{"text": "The key ingredient to the film's success is Redford's vulnerability. He's trying so desperately to stay alive that he has few moments for reflection, but they register - and all without the aid of dialogue.", "is_fresh": 1, "author": ["Eric Melin"]},
{"text": "The movie pares its man-vs.-the elements, man-vs.-himself theme to the barest bones, yet it's timely as well as timeless, as Chandor acknowledges the coldness of the corporate as well as natural environment.", "is_fresh": 1, "author": ["John Beifuss"]},
{"text": "All Is Lost should have been a movie that has you thinking for days; instead it ends with a brief sigh of relief and a shrug.", "is_fresh": 0, "author": ["Bill Clark"]},
{"text": "Low on narrative but an exciting, incredibly filmed misadventure nonetheless.", "is_fresh": 1, "author": ["Bruce Bennett"]},
{"text": "Redford's now leathery exterior is in such contrast to his once striking youthful good looks yet there is still beauty in that well worn face.\u2029", "is_fresh": 1, "author": ["Lori Hoffman"]},
{"text": "This shipwreck isn't a train wreck by any means, but, in the case of the writer-director's sophomore outing, less really is less. All Is Lost winds up nautical miles from all it might have been.", "is_fresh": 1, "author": ["Rick Kisonak"]},
{"text": "Nobody else appears on screen with Redford and there is almost no dialog in the film. This is a one man show. One man against the sea.", "is_fresh": 1, "author": ["Robert Roten"]},
{"text": "A spectacular, galvanizing display of how this one-time Hollywood \"golden boy,\" now 77, can still commandeer the screen.", "is_fresh": 1, "author": ["Neil Pond"]},
{"text": "Even 'The Old Man and the Sea' had more meat on it. That, of course, is a huge compliment.", "is_fresh": 1, "author": ["Matt Prigge"]},
{"text": "This unusual film has a good chance of taking you along for its ride even though you might wonder how such a slight film could hold your attention.", "is_fresh": 1, "author": ["Dennis Schwartz"]},
{"text": "Robert's Redford has two-lines in the whole movie but his acting is still incredible. The movie isn't. ", "is_fresh": 1, "author": ["Gary Wolcott"]},
{"text": "The vacuum-sealed status of this man admittedly places some distance between him and viewers, although the presence of Redford in the role goes a long way toward closing the gap.", "is_fresh": 1, "author": ["Matt Brunson"]},
{"text": "Even if it's not the greatest movie of the year, All Is Lost is certainly one of the most unique movies of the year.", "is_fresh": 1, "author": ["Kevin Carr"]},
{"text": "Though a picture may not really be worth a thousand words, striking images can hold our attention when no words are forthcoming.", "is_fresh": 1, "author": ["Lawrence Toppman"]},
{"text": "Five minutes alone with him in All Is Lost will make you feel like a chump for ever suspecting [Redford] was done for. The charisma never went away; it's only aged into a very fine vintage, indeed.", "is_fresh": 1, "author": ["Kimberley Jones"]},
{"text": "A gripping exercise in visual storytelling.", "is_fresh": 1, "author": ["John Serba"]},
{"text": "You would think a movie packed with scenes like \"Redford repairs a hole in a boat,\" \"Redford inventories supplies\" and \"Redford eats some beans out of a can\" would make for tedious viewing, and yet I was transfixed.", "is_fresh": 1, "author": ["Mathew DeKinder"]},
{"text": "Redford does a fantastic job of conveying every nuance of emotion in his character with just a look or a gesture.", "is_fresh": 1, "author": ["Josh Bell"]},
{"text": "It's great to see Robert Redford caring enough to dig deep enough for this kind of performance this late in his career. ", "is_fresh": 1, "author": ["Clint O'Connor"]},
{"text": "J.C. Chandor wrote and directed \"All Is Lost,\" but Robert Redford owns it.", "is_fresh": 1, "author": ["Duane Dudek"]},
{"text": "An Amazing Minimalist Turn from Redford.", "is_fresh": 1, "author": ["Charles Koplinski"]},
{"text": "\"All is Lost\" is disciplined, elemental filmmaking built around a disciplined, elemental performance, and it's one of the best films of the year.", "is_fresh": 1, "author": ["Rob Thomas"]},
{"text": "We get the predictable plot points - storms, sharks, close calls with passing ships - but it feels like a uniquely handmade artifact.", "is_fresh": 1, "author": ["Joe Williams"]},
{"text": "It's supremely skillful acting reminiscent of his memorable turn more than 40 years ago as the mountain man of few words fighting to survive in Jeremiah Johnson.", "is_fresh": 1, "author": ["Jane Sumner"]},
{"text": "All is Lost is a testament to a great actor, an experimental piece of cinema and a bit of a bore.", "is_fresh": 0, "author": ["Rene Rodriguez"]},
{"text": "It's just humanity at its most basic.", "is_fresh": 1, "author": ["Cameron Meier"]},
{"text": "A surprisingly successful stunt. How successful it is will vary from viewer to viewer.", "is_fresh": 1, "author": ["Ken Hanke"]},
{"text": "Working only with a sinking boat, a willing star, and the open water, and the helmer is able to create one of the most suspenseful, striking features of 2013. ", "is_fresh": 1, "author": ["Brian Orndorf"]},
{"text": "Writer/director J.C. Chandor crafts a survival tale that is as tumultuous emotionally as it is environmentally, amply proving that audiences do not need complicated plotting or reams of exposition in order to care for the people they're watching.", "is_fresh": 1, "author": ["Todd Gilchrist"]},
{"text": "Redford sails alone, but no man is an island", "is_fresh": 1, "author": ["Marty Mapes"]},
{"text": "Can resourcefulness conquer bad luck?", "is_fresh": 1, "author": ["Robert Denerstein"]},
{"text": "A survival story that eschews melodramatic exaggeration in favor of a straightforward approach that extends to Redford's understated yet authoritative performance.", "is_fresh": 1, "author": ["Frank Swietek"]},
{"text": "From the moment Our Man awakens to discover he's stranded at sea, to its Rorschach conclusion - what do you see, and what does that say about you? - All Is Lost is both practical and spiritual, now and Zen.", "is_fresh": 1, "author": ["Steve Persall"]},
{"text": "The ordeal envelops us with each roll of the waves.", "is_fresh": 1, "author": ["Kelly Vance"]},
{"text": "As a solo sailor on a hostile sea, Robert Redford doesn't so much play to the camera, as tolerate it, showing that, even at 77, he's so much more than a pretty face, a buttery voice and an athletic physique. ", "is_fresh": 1, "author": ["Thelma Adams"]},
{"text": "A gripping one-man show", "is_fresh": 1, "author": ["Scott Nash"]},
{"text": "... a bracing nautical adventure. Think 'Old Man and the Sea' by way of 'The Perfect Storm' ... Redford in a revelatory performance, maybe his best ever.", "is_fresh": 1, "author": ["Glenn Lovell"]},
{"text": "An impressively audacious effort...", "is_fresh": 1, "author": ["David Nusair"]},
{"text": "A noble-minded, but only partly successful film - one that will probably be a riveting moviegoing experience for some, but an unsatisfying trip across the ocean for others.", "is_fresh": 1, "author": ["Sandy Schaefer"]},
{"text": "Robert Redford's acting career has been sending out an S.O.S. for years.Finally, someone has tossed him a lifeline.", "is_fresh": 1, "author": ["Al Alexander"]},
{"text": "As a rugged yet wise exploration of manhood and mortality, All Is Lost gives great Hemingway.", "is_fresh": 1, "author": ["Jason Anderson"]},
{"text": "All Is Lost is very much Redford's triumph. His turn isn't pure disappearance so much as a brilliantly human example of cresting and plummeting, cresting and plummeting.", "is_fresh": 1, "author": ["Lisa Kennedy"]},
{"text": "The acting is note-perfect, a career performance from a man who has been in the business for more than 50 years.", "is_fresh": 1, "author": ["Chris Knight"]},
{"text": "An intense thriller that keeps the audience gripped with fear, despair and hope. ", "is_fresh": 1, "author": ["Jeanne Kaplan"]},
{"text": "\"All is Lost\" is a unique cinematic experience that should be seen on the big screen.", "is_fresh": 1, "author": ["David Kaplan"]},
{"text": "A marvel of minimalist film-making, a great, iconic actor in a virtual silent film.", "is_fresh": 1, "author": ["James Verniere"]},
{"text": "The movie is rigorous, serious and well-crafted, with Redford holding the screen using only his economical emotional reactions and physical presence.", "is_fresh": 1, "author": ["Liam Lacey"]},
{"text": "Redford's amazing, nuanced and heartbreaking but never showy performance, arguably his best in his very long and varied career. (Full Content Review for Parents also available)", "is_fresh": 1, "author": ["Jim Judy"]},
{"text": "For all its formal austerity, All Is Lost also offers itself as a widescreen multiplex attraction, keeping all eyes glued on Our Man's dilemma, and every mind wondering if he'll manage to cheat death.", "is_fresh": 1, "author": ["Peter Howell"]},
{"text": "Eventually, even the effort to survive becomes questionable. We are all isolated, we all succumb at some point. \"All Is Lost\" studies that point.", "is_fresh": 1, "author": ["Tom Long"]},
{"text": "Too Adrift", "is_fresh": 0, "author": ["Diana Saenger"]},
{"text": "Jostling around on the same flat level, spurts of interest coming but few and far between, \"All Is Lost\" should send one away with a dropped, unsettled stomach. Instead, it doesn't elicit much more than a shrug.", "is_fresh": 0, "author": ["Dustin Putman"]},
{"text": "Redford could win first Best Actor Oscar of his great career.", "is_fresh": 1, "author": ["Richard Roeper"]},
{"text": "[Chandor]'s made an old man's movie, with real perspective about how we face things once we reach a certain point in our lives, but with all the passion and creative daring that young men bring to the table.", "is_fresh": 1, "author": ["Drew McWeeny"]},
{"text": "All is Lost is about how human nature rebels against death, even when all hope is vanquished by adverse circumstances.", "is_fresh": 1, "author": ["James Berardinelli"]},
{"text": "This is a beautiful portrayal of not just the human spirit, but what our meager species goes through just to keep drawing breath.", "is_fresh": 1, "author": ["Anders Wright"]},
{"text": "Chandor and Redford make every moment matter in this fascinating film (despite an ending that will divide audiences).", "is_fresh": 1, "author": ["Moira MacDonald"]},
{"text": "The real victory in All Is Lost is how much Chandor is able to communicate about the human spirit with so few strokes.", "is_fresh": 1, "author": ["Katherine Monk"]},
{"text": "Robert Redford's true grit and some wizardly images, not the script, are what make this one-man survival epic ineluctably compelling.", "is_fresh": 1, "author": ["Michael Sragow"]},
{"text": "One actor. One setting. No back story. No dialogue. One hell of a movie.", "is_fresh": 1, "author": ["Colin Covert"]},
{"text": "Even at the age of 77, Redford can command a screen, and he's the main reason to watch this man-against-nature story.", "is_fresh": 1, "author": ["Rafer Guzman"]},
{"text": "Both a thrilling adventure and a subtle character portrait, \"All Is Lost\" is the best Redford movie since his brilliant \"All the President's Men\" 37 years ago.", "is_fresh": 1, "author": ["Chris Hewitt (St. Paul)"]},
{"text": "Redford brings the watchfulness that has served him so well to every moment of \"All Is Lost,\" infusing what is already a perfectly entertaining adventure with rich veins of symbolism and meta-meaning.", "is_fresh": 1, "author": ["Ann Hornaday"]},
{"text": "Although you may never be bored with \"All Is Lost,\" you are rarely fully engaged.", "is_fresh": 1, "author": ["Randy Cordova"]},
{"text": "Redford isn't precisely stretching his range as an actor here or revealing a new side to us. Rather, he's finding the cleanest, clearest way to express a quiet man's wiles and resources.", "is_fresh": 1, "author": ["Michael Phillips"]},
{"text": "All is Lost does not move at a brisk clip, or a tedious drag. Chandor knows exactly the proper speed of each scene and carries it out with Pete Beaudreau's editing in appropriate sync.", "is_fresh": 1, "author": ["Dann Gire"]},
{"text": "The human drive to survive is what fuels this story of resilience and perseverance.", "is_fresh": 1, "author": ["Annlee Ellingson"]},
{"text": "A showcase for Robert Redford like he hasn't had in years and further proof that the writer/director of \"Margin Call\" is one to watch. ", "is_fresh": 1, "author": ["Brian Tallerico"]},
{"text": "This is gripping as an adventure story even if doesn't achieve the profundity to which it aspires.", "is_fresh": 1, "author": ["Ben Sachs"]},
{"text": "Burning with a young man's vigor and stripped bare of every ounce of celebrity, Redford commands the screen and drags us into the watery ordeal with him.", "is_fresh": 1, "author": ["Travis Hopson"]},
{"text": "A nearly perfect thing: Economic, elegant, and elemental, it's a cleanly observed tale of one man trying, choice by choice, to keep the odds going in his favor.", "is_fresh": 1, "author": ["Ty Burr"]},
{"text": "An ocean of metaphor.", "is_fresh": 1, "author": ["Matt Pais"]},
{"text": "As a \"man vs. wild\" adventure in the Jack London mode...All is Lost has plenty of fearsome moments, but the deeper fears are existential: man in mortal contention with an indifferent universe.", "is_fresh": 1, "author": ["Peter Canavese"]},
{"text": "In a sense, it's the simplest thing in storytelling to create a character in peril that an audience can relate to. But to pull it off like this demonstrates astonishing maturity in [Chandor's] craft.", "is_fresh": 1, "author": ["Marc Mohan"]},
{"text": "In lesser hands, his character's ordeal might have been portrayed with big punctuation marks and dramatic flourishes. Redford's reactions are honest, in tune with a man of the sea.", "is_fresh": 1, "author": ["Randy Myers"]},
{"text": "When did Robert Redford turn into the male Sandra Bullock?", "is_fresh": 0, "author": ["Tony Macklin"]},
{"text": "I ultimately admired it more as a high degree-of-difficulty achievement than as a film", "is_fresh": 1, "author": ["Stephen Silver"]},
{"text": "As an actor, Redford feels impenetrable which may be why it's easy to project yourself onto him, but the title, like the protagonist, stands like a dare to reverse fate.", "is_fresh": 1, "author": ["Sara Maria Vizcarrondo"]},
{"text": "In the late 1960s and early '70s, a young Robert Redford proved he could hold his own, on his own, against nature and the screen with 'Downhill Racer' and 'Jeremiah Johnson.' Four decades later he's still proving it with the thrilling 'All Is Lost.' ", "is_fresh": 1, "author": ["Greg Evans"]},
{"text": "Robert Redford gives the performance of his life in this one man show brilliantly directed by J.C.Chandor. It's a towering achievement for both of them.", "is_fresh": 1, "author": ["Pete Hammond"]},
{"text": "The sort of unique, uncompromising movie that immediately undercuts the 'They don't make em like they used to' complaints.", "is_fresh": 1, "author": ["Devin Faraci"]},
{"text": "It makes for an ambitious experiment even if the drama isn't always compelling. Yet the result is quietly powerful and never becomes waterlogged.", "is_fresh": 1, "author": ["Todd Jorgenson"]},
{"text": "Redford is the film's most credible ingredient of all; in many key scenes it is evident that he is performing his own stunts.", "is_fresh": 0, "author": ["Leonard Maltin"]},
{"text": "A beautifully gripping survivalist story.", "is_fresh": 1, "author": ["Eric D. Snider"]},
{"text": "J.C. Chandor knows what a jewel he has in Redford, and he creates an appropriately simple, transparent setting.", "is_fresh": 1, "author": ["Dana Stevens"]},
{"text": "I was completely absorbed throughout All is Lost and appreciated the skill with which Chandor brought his very specific vision to life.", "is_fresh": 1, "author": ["Ethan Alter"]},
{"text": "This steadily absorbing man-adrift-on-a-damaged-sailboat saga has possibly the three most suspenseful sequences of the year.", "is_fresh": 1, "author": ["Kent Turner"]},
{"text": "Redford gives a performance from which all vanity has been stripped away. ", "is_fresh": 1, "author": ["Kurt Loder"]},
{"text": "Chandor, within the confines he has set for himself, has done an excellent job of locking us into his hero's predicament.", "is_fresh": 1, "author": ["Peter Rainer"]},
{"text": "It seems more determined to impress than to entertain. However, it succeeds wildly on the first count, which may make it worth seeing for many adventurous teens and parents.", "is_fresh": 1, "author": ["Jeffrey M. Anderson"]},
{"text": "Redford's voice might be largely silent, but the soul is there and the magnitude of all that is lost hits home.", "is_fresh": 1, "author": ["Robert Levin"]},
{"text": "Here is a formidable opus whose real spiritual relative is Tennyson's \"Ulysses\". Yes. \"All is Lost\" is that good.", "is_fresh": 1, "author": ["Ali Arikan"]},
{"text": "...a surprisingly unsparing and rigorous piece of work, tinged with an unsentimental fatalism.", "is_fresh": 1, "author": ["Chris Barsanti"]},
{"text": "A gripping experience ... with its circling sharks, its sun-dappled beauty and its agonies of shattered hope.", "is_fresh": 1, "author": ["Kyle Smith"]},
{"text": "A fascinating voyage across a vast ocean, and into the great uncharted waters of our selves.", "is_fresh": 1, "author": ["Stephen Whitty"]},
{"text": "Palpably suspenseful, engrossing, bold and intelligent. It's a new American classic that will be remembered for many years to come. Robert Redford delivers a tour de force performance.", "is_fresh": 1, "author": ["Avi Offer"]},
{"text": "It would be one thing if All is Lost merely pulled you in with a firm grip and true skill; what's even more impressive is what it says to you once it has you in its grasp.", "is_fresh": 1, "author": ["James Rocchi"]},
{"text": "\"All Is Lost,\" which is only Chandor's second film, reveals itself as remarkably skillful, surprisingly insightful and deeply moving.", "is_fresh": 1, "author": ["Betsy Sharkey"]},
{"text": "Chandor proves that the elements, combined with the varied and subtle talents of a veteran actor, are all that is needed to make a captivating, nail-biting thriller.", "is_fresh": 1, "author": ["Claudia Puig"]},
{"text": "I bought in-much to my surprise, since it promised to be a stunt-and far from feeling any remorse, I grew more invested as the going got rough.", "is_fresh": 1, "author": ["Joe Morgenstern"]},
{"text": "An action movie in the most profound and exalted sense of the term ...", "is_fresh": 1, "author": ["A.O. Scott"]},
{"text": "Like the best of the genre, its relentless focus on the material and the practical also gestures subtly at a life of the soul, however battered.", "is_fresh": 1, "author": ["Ella Taylor"]},
{"text": "After being Oscar nominated for his first film's screenplay, writer/director J.C. Chandor (\"Margin Call\") leapfrogs forward with his second, which, ironically, features only one voice over and two instances of dialogue, one consisting of only one word.", "is_fresh": 1, "author": ["Laura Clifford"]},
{"text": "Redford reconfirms his legend without resorting to movie myth", "is_fresh": 1, "author": ["Bill Gibron"]},
{"text": "It's just a guy. On a boat. For 107 minutes. And every one of those minutes is riveting.", "is_fresh": 1, "author": ["Elizabeth Weitzman"]},
{"text": "Like \"Gravity\", a film about survival that opens to great acclaim--in this case well-deserved.", "is_fresh": 1, "author": ["Louis Proyect"]},
{"text": "Who is \"Our Man\"? What did he do in life? Why was he out there? It doesn't matter. All that matters is this moment, and the next moment, and the moment after that.", "is_fresh": 1, "author": ["Mike D'Angelo"]},
{"text": "There is incredible tension in this ordeal, this effort to survive, to find rescue, and Redford - an icon of the American film experience for more than half a century now - makes that tension deeply palpable.", "is_fresh": 1, "author": ["Steven Rea"]},
{"text": "Redford, who can play intelligence, wit and nuance to a camera like nobody's business, holds us in his grip. It's a master class in acting.", "is_fresh": 1, "author": ["Peter Travers"]},
{"text": "I respect what it's trying to do, and its attempts to overcome the constraints it gave itself. But it evaporates the minute it's over. It's a noble, and failed, experiment.", "is_fresh": 0, "author": ["Will Leitch"]},
{"text": "This is only the second film by Chandor, and he works in a style of great purity. There's hardly a 'movieish' moment to speak of in All Is Lost.", "is_fresh": 1, "author": ["Owen Gleiberman"]},
{"text": "The approach results in one scene of heart-in-throat action after another, with Chandor's immersive approach shoring up Redford's remarkable, understated performance.", "is_fresh": 1, "author": ["Keith Phipps"]},
{"text": "The feeling of doom, whether personal or planetary, is today pervasive. But All Is Lost, in the end, is a stirring, repudiation of its own title.", "is_fresh": 1, "author": ["Jake Coyle"]},
{"text": "[VIDEO ESSAY] Robert Redford gives the finest performance of his career in writer-director J.C. Chandor's literal and metaphorical tale of one man's attempts to survive on the high seas. ", "is_fresh": 1, "author": ["Cole Smithey"]},
{"text": "Goodness knows what this movie would be like without the brute force of Mr. Redford's intelligence, focus and self-confidence.", "is_fresh": 1, "author": ["Rex Reed"]},
{"text": "Redford's finest hour.", "is_fresh": 1, "author": ["Roger Moore"]},
{"text": "Stranded and alone as he battles the stormy sea and his mortality, Robert Redford delivers a commanding lead performance in All Is Lost, a nearly wordless but captivating drama from J.C. Chandor. ", "is_fresh": 1, "author": ["Jordan Adler"]},
{"text": "The will to survive is moving enough-here it is, stripped to its elements, and if you can't bring yourself to care about something that simple then the problem is you, not the movies.", "is_fresh": 1, "author": ["Alan Scherstuhl"]},
{"text": "It's the salvation of the moviegoing year.", "is_fresh": 1, "author": ["Joshua Rothkopf"]},
{"text": "Even as All Is Lost expands Chandor's range with a far more engaging and determined work, the true auteur of All Is Lost is Redford himself.", "is_fresh": 1, "author": ["Eric Kohn"]},
{"text": "It's nothing new to watch an impressive survival story onscreen, but rare to see it done this well.", "is_fresh": 1, "author": ["Katey Rich"]},
{"text": "Redford gives the kind of career-capping performance many of his contemporaries could only dream of.", "is_fresh": 1, "author": ["Chris Bumbray"]},
{"text": "All Is Lost has moments of beauty, but the movie as a whole feels detached, almost clinical.", "is_fresh": 0, "author": ["Daniel Eagan"]},
{"text": "A mesmerizing, compelling and deeply profound high-seas adventure in which Robert Redford gives one of the most fulfilling and rewarding performances of his career.", "is_fresh": 1, "author": ["Scott A. Mantz"]},
{"text": "A bravura performance in a gripping film that joins Gravity in the competition to be the year's most harrowing.", "is_fresh": 1, "author": ["Marshall Fine"]},
{"text": "Despite all those critical hosannas coming out of Cannes, the movie stalls in the doldrums.", "is_fresh": 0, "author": ["Kirk Honeycutt"]},
{"text": "More than a dandy counterpoint to the megahit Gravity, J.C Chandor's thrilling adventure is also a remarkable existential ride.", "is_fresh": 1, "author": ["Joanna Langfield"]},
{"text": "Chandor, who demonstrated a vivid talent for dialogue, mood, and characterization in the Wall Street meltdown movie Margin Call, here displays an ability to furiously carve up and then integrate a confined space.", "is_fresh": 1, "author": ["David Denby"]},
{"text": "An impressively spare, nearly dialogue-free stranded-at-sea drama starring a superb Robert Redford.", "is_fresh": 1, "author": ["Justin Chang"]},
{"text": "The camera rocks with the creaks, cracks, and other sounds of encroaching disequilibrium, while an actor in his element anchors your gaze-and gives the performance of his life.", "is_fresh": 1, "author": ["David Edelstein"]},
{"text": "Robert Redford will get a Best Actor Oscar nomination for this awesome, extraordinary adventure on an unforgiving sea.", "is_fresh": 1, "author": ["Susan Granger"]},
{"text": "In the tradition of Crane, London and Hemingway, 'All Is Lost' is unsermonized Man against Nature at the same time as Man against Himself.", "is_fresh": 1, "author": ["Donald J. Levit"]},
{"text": "A visually striking man versus nature story about enduring when the elements are conspiring against you.", "is_fresh": 1, "author": ["Simon Reynolds"]},
{"text": "Breaks story-telling conventions by deliberately focusing on a single character, one with no back story, all in the service of praising individuality, resilience and ingenuity.", "is_fresh": 1, "author": ["Harvey S. Karten"]},
{"text": "Watching a man try to survive a mid-sea disaster is compelling, but watching a man try to survive a mid-sea disaster in an effort to live for something would have been exponentially more compelling.", "is_fresh": 1, "author": ["Perri Nemiroff"]},
{"text": "An immersive drama about being resilient and facing the fear we all have of dying alone; one of the Best Films of 2013.", "is_fresh": 1, "author": ["Frederic and Mary Ann Brussat"]},
{"text": "J.C. Chandor creates an austere snapshot of human struggle, ingenuity, and perseverance, one that's predicated on Robert Redford's fantastic performance.", "is_fresh": 1, "author": ["Nick Schager"]},
{"text": "All Is Lost is a movie that is understated, yet still manages to play out on a staggeringly huge canvas; the personal and the universal one and the same.", "is_fresh": 1, "author": ["Ali Gray"]},
{"text": "All Is Lost is amazing, deeply moving, and a harking back to an age when the best mainstream films might be the best pictures America made.", "is_fresh": 1, "author": ["David Thomson"]},
{"text": "All Is Lost was clearly a challenge to produce, and it makes its own demands on its viewers. It's a worthwhile effort on both counts.", "is_fresh": 1, "author": ["Alonso Duralde"]},
{"text": "Forsaking the chatter of his risibly exposition-heavy MARGIN CALL (11), and one-upping LIFE OF PI by stripping things down to the bare minimum, Chandor charts an admirably uncompromising if curiously aloof course into nothingness.", "is_fresh": 1, "author": ["Nicolas Rapold"]},
{"text": "All the drama we need is in the moment, and that's where the movie stays.", "is_fresh": 1, "author": ["Eugene Novikov"]},
{"text": "A film that very eloquently provides an argument for the survival of heroes, or at least one hero.", "is_fresh": 1, "author": ["John Bleasdale"]},
{"text": "For the most part The Immigrant is works in an incredibly satisfying and affecting manner.", "is_fresh": 1, "author": ["Craig Skinner"]},
{"text": "...Chandor who had already impressed us in a very different manner with his first film, here shows himself in a new light, that showcases his technical aptitude and remarkable sense of pacing and rhythm.", "is_fresh": 1, "author": ["Jessica Kiang"]},
{"text": "Redford's fiercely committed and quite brilliant performance is the reason to see this daringly minimalist, slightly overlong curio.", "is_fresh": 1, "author": ["Shaun Munro"]},
{"text": "A signal film achievement and the capstone to a great star's career. This is Ultimate Redford.", "is_fresh": 1, "author": ["Mary Corliss"]},
{"text": "Engrossing both dramatically and as a minimalist narrative exercise, All Is Lost is a survival-at-sea story powered by an emphasis on realism and a refusal to allow any false emotional beats to impede on this unsentimental tale.", "is_fresh": 1, "author": ["Tim Grierson"]},
{"text": "Robert Redford gives an impressive one-man show in this sea-stranded survival tale.", "is_fresh": 1, "author": ["Todd McCarthy"]},
{"text": "The film's scope is limited, but as far as it goes, All Is Lost is very good indeed: a neat idea, very nimbly executed.", "is_fresh": 1, "author": ["Robbie Collin"]},
{"text": "From bow to stern Chandor delivers pure cinema", "is_fresh": 1, "author": ["Jordan Hoffman"]},
{"text": "Redford delivers a tour de force performance: holding the screen effortlessly with no acting support whatsoever.", "is_fresh": 1, "author": ["Andrew Pulver"]},
{"text": "A grim and rather relentless analogy for the slow march towards death: every bad thing can and does happen, with almost comical inevitability, and by the hour mark, you find yourself begging for a shark attack that might put poor Red out of his misery.", "is_fresh": 1, "author": ["Simon Gallagher"]}
]