[
{"reviews_count": "182", "title": "American Beauty", "avg_audience_rating": "3.8", "rotten_count": "21", "tomatometer": "88", "audience_score": "93", "avg_critic_rating": "8.2", "fresh_count": "161", "user_ratings_count": "659,875"},
{"text": "The highly entertaining dark comedy American Beauty uses its cardboard characters very well.", "is_fresh": 1, "author": ["Andy Spletzer"]},
{"text": "...magnificent, fresh, debatable, funny and tragicomic. [Full Review in Spanish] ", "is_fresh": 1, "author": ["Israel Paredes"]},
{"text": "American Beauty is deeply disturbing, acerbically funny, brilliantly acted, breathtakingly original and highly sophisticated.", "is_fresh": 1, "author": ["Paul Clinton (CNN.com)"]},
{"text": "A tightly coiled rage seethes beneath the pretty surface of American Beauty, a wickedly funny black comedy directed by newcomer Sam Mendes.", "is_fresh": 1, "author": ["Ann Hornaday"]},
{"text": "This is Spacey's best performance since he took home an Oscar for The Usual Suspects.", "is_fresh": 1, "author": ["Jeff Strickler"]},
{"text": "This seriocomic autopsy of middle-class virtue has the capacity to startle and surprise, and a gift for finding grim humor at the heart of tragedy.", "is_fresh": 1, "author": ["Bill Gallo"]},
{"text": "This engrossing centrepiece meshes with subplots involving Burnham's dysfunctional family and unbalanced neighbours, in a virtuoso study of isolation, repression and fulfilment. Mendes infuses the lush visuals and lyrical script with dramatic panache.", "is_fresh": 1, "author": ["Ed Potton"]},
{"text": "The writing is acidically amusing without ever trying to conceal the loneliness at the heart, the direction a perfect frame for the characters and the wonderful performances that create them.", "is_fresh": 1, "author": ["Margaret Pomeranz"]},
{"text": "Kevin Spacey is the greatest actor of his generation, hands down, no contest.", "is_fresh": 1, "author": ["Scott Nash"]},
{"text": "The film is stunningly poignant, and when first time cinema director Mendes turns his hands to the serious aspects of the disintegration of human souls, the funny lurches to the profound with hardly a flicker of disruption.", "is_fresh": 1, "author": ["Natalie Stone"]},
{"text": "Mendes loves his performers, framing their big moments with suburban metaphors and dizzily poetic fantasies.", "is_fresh": 1, "author": ["Steve Persall"]},
{"text": "With its parade of neurotics, psychotics, bigots and deceivers, American Beauty is an endlessly rewatchable black comedy.", "is_fresh": 1, "author": ["Marc Lee"]},
{"text": "A truly beautiful, poignant and brilliantly funny film, it doesn't get much better than this.", "is_fresh": 1, "author": ["Megan Spencer"]},
{"text": "It took a British stage director to create the ultimate movie about the American family.", "is_fresh": 1, "author": ["Robert Nu\u00f1ez"]},
{"text": "Why, then, did I enjoy it so little? Because of its unrelenting self-importance: American Beauty wants us to know, in every shot at every turn, just how clever and mercilessly cutting it is.", "is_fresh": 0, "author": ["Joe Morgenstern"]},
{"text": "Kevin Spacey gives the performance of his life.", "is_fresh": 1, "author": ["Rex Reed"]},
{"text": "Alan Ball's script is a terrific piece of material, and Mendes responds directly to its subversive, provocative vision of a curdled American Dream.", "is_fresh": 1, "author": ["John Hartl"]},
{"text": "Mendes manages to give individuality and distinction to some extremely familiar material.", "is_fresh": 1, "author": ["Philip French"]},
{"text": "Disturbing, bleak, thought-provoking.", "is_fresh": 1, "author": ["David Sterritt"]},
{"text": "American Beauty approaches a manic, almost cartoonish edge without falling over. Both Spacey and Bening use extraordinary comic timing to bring these very sad, lost characters to life.", "is_fresh": 1, "author": ["Jami Bernard"]},
{"text": "[The filmmakers'] attacks on real-estate agents, corporate America and suburbia aren't so much shooting fish in a barrel as they are shooting fish in a shallow dish.", "is_fresh": 0, "author": ["Jay Boyar"]},
{"text": "Flaws and all, this is intelligent, exhilarating, effervescent film-making, and a remarkable debut from Sam Mendes.", "is_fresh": 1, "author": ["Peter Bradshaw"]},
{"text": "Boldly challenging our sympathies, [Lester] somehow wins them because, to borrow a phrase, he's a man in full.", "is_fresh": 1, "author": ["Richard Schickel"]},
{"text": "The hairpin turns from farce to melodrama, from satire to bathos, are fresh and deftly navigated, but almost every one of the underlying attitudes is smug and easy.", "is_fresh": 0, "author": ["David Edelstein"]},
{"text": "Mendes and screenwriter Alan Ball, both making their feature debuts, resort to a few heavy-handed tactics to get their points across, but their sheer audacity is so exhilarating it hardly matters.", "is_fresh": 1, "author": ["Scott Tobias"]},
{"text": "Beauty is never less than fascinating and always visually stunning.", "is_fresh": 1, "author": ["Leah Rozen"]},
{"text": "British theatre director Sam Mendes made an astonishing film debut with this sublime black comedy about midlife crises.", "is_fresh": 1, "author": ["Lorien Haynes"]},
{"text": "In their scathing portrayal of middle-class anxiety, screenwriter Alan Ball and director Sam Mendes create an average Joe determined to unearth the carefully buried truths of his life.", "is_fresh": 1, "author": ["Serena Donadoni"]},
{"text": "American Beauty is a profoundly satisfying piece of cinema which works its way inside you, grabs hold of your heart and simply refuses to let go.", "is_fresh": 1, "author": []},
{"text": "This amazing and impassioned fantasia about American loneliness begins as satire and ends with a vision of the sublime.", "is_fresh": 1, "author": ["David Denby"]},
{"text": "American Beauty was a deserving best picture and Lester's rich existential journey and social commentary of modern America peels away the inauthentic and superficial to reveal the epic allure in a bleak suburbia. ", "is_fresh": 1, "author": ["Blake Howard"]},
{"text": "Cripplingly broad, with network-sitcom beats dressed in R-rated threads... [endorses] a particularly adolescent male point of view.", "is_fresh": 0, "author": ["Tim Brayton"]},
{"text": "Powerful acting, great story, but far too mature for kids.", "is_fresh": 1, "author": ["Nell Minow"]},
{"text": "The flaws that exist in American Beauty are effortlessly overcome by a cast that blossoms. Spacey in particular exhibits a rare wit and gravitas with Lester's weary frowns and cutting smirks, proving his mettle in this career peak performance.", "is_fresh": 1, "author": ["Radheyan Simonpillai"]},
{"text": "It's daring in that it sympathizes with a protagonist who's a pederast though its portrait of an American family on the brink of collapse is essentially a cartoon", "is_fresh": 0, "author": ["Ed Gonzalez"]},
{"text": "One of the most startling, brilliant pictures to come out of a major studio in many years.", "is_fresh": 1, "author": []},
{"text": "An elusive and allusive work of art that won't be pinned down easily.", "is_fresh": 1, "author": ["Rob Gonsalves"]},
{"text": "Recently, Happiness and Election have taken pot shots at suburban morals and ethics, but none has hit so close to the bone and so on-target as American Beauty.", "is_fresh": 1, "author": ["Joe Lozito"]},
{"text": "It's like Norman Bates getting good advice from Mother.", "is_fresh": 0, "author": ["Walter Chaw"]},
{"text": "As the latest mainstream movie symptom of our premillennial malaise, American Beauty is so brilliantly acted, written, directed and visualized that for all its despondency and despair, it is a lot of fun.", "is_fresh": 1, "author": ["Andrew Sarris"]},
{"text": "An incisive if over-the-top take on familial dysfunction.", "is_fresh": 1, "author": ["Wesley Lovell"]},
{"text": "Above all, \"American Beauty\" is about finding peace and a sense of wonder in the least likely of places, such as your inner torment or, failing that, perhaps a floating plastic bag.", "is_fresh": 1, "author": ["Phil Villarreal"]},
{"text": "Brit Sam Mendes makes an impressive directorial debut with a glossy, well-acted satire of the American burbs, a theatrically stylized meditation that combines the zeitgeist of 1950s Eisnehower with that of 1990s Clinton.", "is_fresh": 1, "author": ["Emanuel Levy"]},
{"text": "Dark, intelligent, scandalous, emotional, and truthful -- one of the year's best.", "is_fresh": 1, "author": ["Jeffrey M. Anderson"]},
{"text": "Director Mendes guides an artful path between desire and self-disgust, playing youth against experience, male against female.", "is_fresh": 1, "author": ["Tom Charity"]},
{"text": "This is what movies are all about.", "is_fresh": 1, "author": ["Robin Clifford"]},
{"text": "Complexity, say quite a few of my colleagues. Lies, I say.", "is_fresh": 0, "author": ["Stuart Klawans"]},
{"text": "As the world changed in the past five years, so did the relevance of American Beauty.", "is_fresh": 1, "author": ["Dragan Antulov"]},
{"text": "A stylish film about an American family that pretends to be moral and enlightened, but revels in its mean-spirited sarcasm and its championing of self-interest.", "is_fresh": 0, "author": ["Jeffrey Overstreet"]},
{"text": "Like Network in the 1970s and Ordinary People in the '80s, American Beauty is a scathing reflection of contemporary American life.", "is_fresh": 1, "author": ["Judith Egerton"]},
{"text": "Spacey's style and delivery save the film time after time.", "is_fresh": 1, "author": ["John R. McEwen"]},
{"text": "Filled with moments of uncommon intelligence, sensitivity, truth and wit, American Beauty is an instant American classic.", "is_fresh": 1, "author": ["Brent Simon"]},
{"text": "It is a great film and will definitely be regarded as one of the best films of the 90's ... right next to Titanic.", "is_fresh": 1, "author": ["Anthony Miele"]},
{"text": "Time and again, you fear Mendes won't be able to sustain such a confident shuffling of his pack, but somehow he does, and for once the result is a genuine surprise.", "is_fresh": 1, "author": ["Kevin Jackson"]},
{"text": "There's so much right -- and so much wrong -- with this lauded, scathing look at suburban discontent.", "is_fresh": 1, "author": ["James Rocchi"]},
{"text": "An uncompromising, sometimes uncomfortable, but utterly exhilarating movie, easily the best yet this year.", "is_fresh": 1, "author": ["Margaret A. McGurk"]},
{"text": "An astonishingly assured first feature from transatlantic theater whiz kid Sam Mendes.", "is_fresh": 1, "author": ["Ella Taylor"]},
{"text": "Moves from mirthful to moody and to downright overwrought near the climax.", "is_fresh": 0, "author": ["Bob Thompson"]},
{"text": "It challenges and disturbs as it invigorates and entertains.", "is_fresh": 1, "author": ["Louis B. Hobson"]},
{"text": "One of the year's very best pictures.", "is_fresh": 1, "author": ["Kevin N. Laforest"]},
{"text": "...a novelistic integrity, a cool black comic sensibility and, at its core, a raw throbbing monster of a busted heart.", "is_fresh": 1, "author": ["Philip Martin"]},
{"text": "Shrouded in ugliness despite brilliant performances by Bening and Spacey.", "is_fresh": 0, "author": ["Betty Jo Tucker"]},
{"text": "When all is said and done, doesn't really offer anything new.", "is_fresh": 0, "author": ["Jason Clark"]},
{"text": "Mendes has assembled \"American Beauty\" from other groundbreaking films. His ambition lies in the way he presents \"American Beauty\" as a modern version of the major films he copies.", "is_fresh": 0, "author": ["Jeffrey Westhoff"]},
{"text": "A great, tremendously entertaining experience. I only wish there were more films this satisfying.", "is_fresh": 1, "author": ["Edward Guthmann"]},
{"text": "A hist\u00f3ria \u00e9 uma pequena metralhadora girat\u00f3ria que n\u00e3o se preocupa em poupar alguns dos mais arraigados valores do american way of life.", "is_fresh": 1, "author": ["Pablo Villa\u00e7a"]},
{"text": "There is beauty to which this movie is stone cold blind: beauty it tramples on as ignorantly as Buddy Kane or Col. Fitts.", "is_fresh": 0, "author": ["Steven D. Greydanus"]},
{"text": "[A] near-masterpiece.", "is_fresh": 1, "author": ["Peter Keough"]},
{"text": "This is definitely a knife-to-the-heart movie -- the kind whose potent effect is easy to feel yet hard to describe.", "is_fresh": 1, "author": ["Rick Groen"]},
{"text": "It may take several viewings of this extraordinary film to mine all of its spiritual riches.", "is_fresh": 1, "author": ["Frederic and Mary Ann Brussat"]},
{"text": "From the opening moment we know we're in the hands of gifted, assured, focussed filmmakers.", "is_fresh": 1, "author": ["Rich Cline"]},
{"text": "Les recomiendo leer entre l\u00edneas, la realidad mostrada es devastadora, demasiado \"bella\" y \"ordinaria\" para algunos...", "is_fresh": 1, "author": ["Alex Ramirez"]},
{"text": "The kind of artful defiance that Hollywood is usually too timid to deliver: a jolting comedy that makes you laugh till it hurts.", "is_fresh": 1, "author": ["Peter Travers"]},
{"text": "As ever, Spacey is brilliant with his edgy, almost psychotic creation, delivering Alan Ball's quick-witted script in superb, deadpan fashion.", "is_fresh": 1, "author": ["Kevin Lewin"]},
{"text": "Cinematographer Conrad L. Hall uses shadows and the color red to startling effect, and director Sam Mendes moves around his characters so assuredly, I realized you don't even need dialogue to follow the plot.", "is_fresh": 1, "author": ["Chris Phillips"]},
{"text": "A film which turns the microscope on the human condition in all its ragged glory.", "is_fresh": 1, "author": ["Andrew Howe"]},
{"text": "It wants to be an original beauty so much that it doesn't realize just how plain and ordinary it really is.", "is_fresh": 0, "author": ["Chuck Rudolph"]},
{"text": "Belleza Americana es el espejo de una sociedad que ha querido vivir enga\u00f1ada durante d\u00e9cadas y que ahora comienza a despertar a la realidad", "is_fresh": 1, "author": ["Jorge Avila Andrade"]},
{"text": "It is the screenplay, that penetrating, character-driven screenplay, that surely makes American Beauty one of the best (if not the best) films this year.", "is_fresh": 1, "author": ["Jim Chastain"]},
{"text": "a visually extravagant, entrancingly dark comedy about how people fall apart and build walls of angst between each other", "is_fresh": 1, "author": ["James Kendrick"]},
{"text": "As it detects increasingly vital signs of life behind the absurd surfaces that Mr. Mendes presents so beautifully, the film takes on a gravity to match its evil zest.", "is_fresh": 1, "author": ["Janet Maslin"]},
{"text": "Simultaneously gripping and frustrating, American Beauty is the best film of the year that irritated the hell out of me.", "is_fresh": 1, "author": ["Scott Renshaw"]},
{"text": "Mendes can stake a claim alongside the likes of Kubrick and Egoyan as one whose cinematic vision both challenges and entertains.", "is_fresh": 1, "author": ["James Berardinelli"]},
{"text": "[Beauty] is certainly adept at showing how awful life in the United States is at the moment -- and that's what gives it some bite. But it's no less adept at taking that awfulness and making it pleasurable to watch -- and that's what makes it entertaining.", "is_fresh": 1, "author": ["Jonathan Rosenbaum"]},
{"text": "It never justifies the blatancy of its opening, and it never does anything to freshen what is only one more journey through familiar fortyish unfulfillment.", "is_fresh": 0, "author": ["Stanley Kauffmann"]},
{"text": "American Beauty offers one of the best ensemble casts you'll see in any American movie this year.", "is_fresh": 1, "author": ["Andrew O'Hehir"]},
{"text": "American Beauty is a comedy because we laugh at the absurdity of the hero's problems. And a tragedy because we can identify with his failure.", "is_fresh": 1, "author": ["Roger Ebert"]},
{"text": "An incisive, deliriously funny and profound vision of the American Dream hitting meltdown.", "is_fresh": 1, "author": ["Ian Nathan"]},
{"text": "Hilarious, slightly sick, and super-edgy.", "is_fresh": 1, "author": ["Peter Brunette"]},
{"text": "If it is never really as profound as it seems to think it is, American Beauty is consistently entertaining.", "is_fresh": 1, "author": ["Robert Horton"]},
{"text": "American Beauty is that rare instance where all the elements of a movie -- story, setting, acting, shot construction -- come together to convey its message.", "is_fresh": 1, "author": ["Annlee Ellingson"]},
{"text": "Compelling to watch, full of black humor, evocative imagery and wrenching sadness.", "is_fresh": 1, "author": ["Eric D. Snider"]},
{"text": "A terrific film about troubled souls.", "is_fresh": 1, "author": []},
{"text": "You know you're in the hands of a true filmmaker when you feel invited, at every turn, to share his sense of entrancement. I got that feeling in just about every frame of American Beauty.", "is_fresh": 1, "author": ["Owen Gleiberman"]},
{"text": "Bravo and roll out the Oscar nominations.", "is_fresh": 1, "author": ["Cornell & Petricelli"]},
{"text": "delights in confounding our expectations again and again... In its probe of what lies beneath the shiny surface of everday life, \"Beauty\" sometimes recalls David Lynch's \"Blue Velvet\" or his ground-breaking TV series \"Twin Peaks.\"", "is_fresh": 1, "author": ["James Sanford"]},
{"text": "I'd have preferred that this realization be stumbled across by means other than pot and lust, still, a great film.", "is_fresh": 1, "author": ["Ross Anthony"]},
{"text": "I somehow liked the film more than I probably should have.", "is_fresh": 1, "author": ["Dennis Schwartz"]},
{"text": "American Beauty accomplishes in a mere two hours, what many movies and sequels all year long have not; it makes the viewer reason and empathize with the great American Family.", "is_fresh": 1, "author": ["Rhonda Baughman"]},
{"text": "A dark comical masterpiece.", "is_fresh": 1, "author": ["Christopher Brandon"]},
{"text": "Peers between the white picket fenceposts of suburbia to reveal emotional toxicity and unexpected grace.", "is_fresh": 1, "author": ["Randall King"]},
{"text": "I think Lester Burnham is destined to become an iconic American character, one with a life well beyond the film that spawned him.", "is_fresh": 1, "author": ["MaryAnn Johanson"]},
{"text": "One of the best films of the year.", "is_fresh": 1, "author": ["Jim Judy"]},
{"text": "It is art that entertains and tells us something about ourselves.", "is_fresh": 1, "author": ["Elspeth Haughton"]},
{"text": "There's too much dead air around the dialogue and the comic pacing is nonexistent.", "is_fresh": 0, "author": ["J. Hoberman"]},
{"text": "The language is brutal and lyrical.", "is_fresh": 1, "author": ["Cynthia Fuchs"]},
{"text": "Artful, wise and darkly witty.", "is_fresh": 1, "author": ["Jack Garner"]},
{"text": "Bening's performance is nothing short of exhilarating.", "is_fresh": 1, "author": ["Madeleine Williams"]},
{"text": "If you enjoy \"films\" then rush right out. Otherwise put it on your \"must rent\" list.", "is_fresh": 0, "author": ["Kamal 'The Diva' Larsuel"]},
{"text": "This film is solid gold.", "is_fresh": 1, "author": ["Urban Cinefile Critics"]},
{"text": "Nothing short of perfection.", "is_fresh": 1, "author": ["Jon Popick"]},
{"text": "There are six main characters and another half-dozen smaller parts in American Beauty. All of them are well written and well acted.", "is_fresh": 1, "author": ["Marty Mapes"]},
{"text": "It explores the endemic problems haunting many contemporary families: consumerism, unemployment, drugs, peer pressure, loneliness, discrimination and violence.", "is_fresh": 1, "author": ["Yazmin Ghonaim"]},
{"text": "American Beauty brings a bracing blend of cunning, insight and compassion to the drama of a suburban family coming apart.", "is_fresh": 1, "author": ["Susan Stark"]},
{"text": "I think it unfolds as a profound masterpiece, then collapses in a muddle of probably unintentional, certainly unnecessary pessimism.", "is_fresh": 1, "author": ["Ian Waldron-Mantgani"]},
{"text": "American Beauty is a singular accomplishment so specifically keyed to Spacey's talents that it mandates going out on a limb to say it contains the performance that will ultimately be regarded as 'the one'.", "is_fresh": 1, "author": ["Mike Clark"]},
{"text": "What American Beauty has to say isn't pretty, at least not in the conventional fashion, but it is a brilliant, exhilarating piece of filmmaking.", "is_fresh": 1, "author": ["Marc Savlov"]},
{"text": "Superlatively well-made.", "is_fresh": 1, "author": ["Joe Baltake"]},
{"text": "A heart breaking-retching-touching-intestine churner.", "is_fresh": 1, "author": ["Emily Blunt"]},
{"text": "It's a picture with a great cool shiny surface, and it boasts superb actors, witty and iconoclastic writing, vigorous and imaginative direction and brilliantly stylized cinematography.", "is_fresh": 1, "author": ["Michael Wilmington"]},
{"text": "It's a black comedy that's supposed to be about the hollowness of the American dream, but in fact ... it reveals the moral and intellectual bankruptsy of Hollywood.", "is_fresh": 1, "author": ["Robert Roten"]},
{"text": "Hilarious, cynical, disturbing, yet emotionally satisfying.", "is_fresh": 1, "author": ["Matt Easterbrook"]},
{"text": "There's so much to see in this movie that, with every blink, you'll miss something amazing. Something poignant. Something timeless.", "is_fresh": 1, "author": ["Alex Sandell"]},
{"text": "The obvious star is Spacey, who makes Lester such a human character that you can't help sympathizing with him, despite the many embarrassing gestures on his part.", "is_fresh": 1, "author": ["Jeff Vice"]},
{"text": "This is a rare and outstanding film that deserves attention and will challenge some heady competition for a place as the best film of the year.", "is_fresh": 1, "author": ["Christopher Null"]},
{"text": "Moviemakers who feel betrayed by the cheery sitcoms of their adolescence can now take it out on all the rest of us and, as a bonus, get points for profundity too.", "is_fresh": 0, "author": ["Peter Rainer"]},
{"text": "Well-acted, reasonably insightful, and often laugh-out-loud funny.", "is_fresh": 1, "author": ["Bryant Frazer"]},
{"text": "American Beauty is a flat-out masterpiece, surely the best movie of the year; indeed, an all-time classic.", "is_fresh": 1, "author": ["Rod Dreher"]},
{"text": "What, at first, promises to be an insightful satirical look at a suburban American family unravels into a familiar tale of infidelity and rebellion.", "is_fresh": 1, "author": ["Ed Kelleher"]},
{"text": "You can't help but wonder how people find themselves trapped in situations where they have all their happiness and energy sucked right out of them. You can't help but wonder if it will happen to you.", "is_fresh": 1, "author": ["Scott A. Mantz"]},
{"text": "The film struggles with its mood swings and is marred by its own tonal and thematic inconsistencies.", "is_fresh": 0, "author": ["Wesley Morris"]},
{"text": "The movie is an impressive achievement, yes, but not always a deep and effective one.", "is_fresh": 1, "author": ["David Keyes"]},
{"text": "Astounding.", "is_fresh": 1, "author": ["Rob Blackwelder"]},
{"text": "Though the film is outrageously entertaining, its relentless struggle to find social relevance becomes so heavy-handed that it leaves you feeling sucker-punched.", "is_fresh": 0, "author": ["Robert Payne"]},
{"text": "Original in story, interesting in premise, acted sharply by its well-rounded cast, directed in a manner made all the more absorbing, and edgy and humorous enough to keep me going.", "is_fresh": 1, "author": ["JoBlo"]},
{"text": "Bitterly funny and beautifully crafted.", "is_fresh": 1, "author": ["Tom Block"]},
{"text": "Kevin Spacey gives a performance, in what may be one of the great films of our time, that will surely garner him an Academy Award nomination.", "is_fresh": 1, "author": ["Mac Verstandig"]},
{"text": "It truly, honestly makes me see the beauty in the world, a goal not many films have achieved. In short, it gives me pause.", "is_fresh": 1, "author": ["Shay Casey"]},
{"text": "Silky, seductive and unsettling, American Beauty is an dazzling piece of movie-making, nimbly shifting from dark comedy to drama to horror to pure poetry and back again.", "is_fresh": 1, "author": ["Edward Johnson-Ott"]},
{"text": "American Beauty mesmerizes because every moment, however caricatured, hits a nerve in each of us.", "is_fresh": 1, "author": ["Harvey S. Karten"]},
{"text": "Kevin Spacey's work in the movie is the best film acting that he has ever done.", "is_fresh": 1, "author": ["Steve Rhodes"]},
{"text": "Director Sam Mendes presents some memorable images, and moments of Kubrick class clarity, but the whole does not hang together.", "is_fresh": 0, "author": ["David Forsmark"]},
{"text": "This cinematic rose is truly the one to pick.", "is_fresh": 1, "author": ["Steve Schneider"]},
{"text": "This chronicle of suburban families imploding in slow motion contains genuine laughs, but they escape through clenched teeth.", "is_fresh": 1, "author": ["Maitland McDonagh"]},
{"text": "Very clever, hugely entertaining.", "is_fresh": 1, "author": ["Ben Williams"]},
{"text": "Easily one of the year's best films.", "is_fresh": 1, "author": ["Jason Kaufman"]},
{"text": "American Beauty takes its place among the best family dramas of recent decades.", "is_fresh": 1, "author": ["Ted Anthony"]},
{"text": "Wildly funny and unpredictable.", "is_fresh": 1, "author": ["Michael Dequina"]},
{"text": "Exhibits a stable, consistent tone and style, using brilliant direction, incredible acting and a smart screenplay that balances the comedy with the morbidity.", "is_fresh": 1, "author": ["Widgett Walls"]},
{"text": "Despite the acting, which ranges mostly from good to terrific, Mendes is the real discovery here.", "is_fresh": 1, "author": ["Lawrence Toppman"]},
{"text": "The real star of the film is Alan Ball's exceptional script, which continually reveals new, surprising layers in characters that initially seem like cartoonish types.", "is_fresh": 1, "author": ["Rene Rodriguez"]},
{"text": "Because the film's visual conception and most of its performances have such disturbing power, in dreamlike fragments American Beauty is able to burrow inside the cliche to understand how it came to be.", "is_fresh": 1, "author": ["Carrie Rickey"]},
{"text": "Startling, brilliantly assembled.", "is_fresh": 1, "author": ["Philip Wuntch"]},
{"text": "Marvelous filmmaking on every level.", "is_fresh": 1, "author": ["Jeanne Aufmuth"]},
{"text": "Near-perfect.", "is_fresh": 1, "author": ["Duane Dudek"]},
{"text": "A sitcom with a brain, though its depth is pretty synthetic.", "is_fresh": 1, "author": ["David Elliott"]},
{"text": "With Lester as its guide, American Beauty peels away the layers of what passes for normalcy in contemporary suburbia to reveal the creepy-crawlies under the neatly trimmed lawns.", "is_fresh": 1, "author": ["Todd Anthony"]},
{"text": "At this point in the year, I'd readily call American Beauty one of the best movies of 1999. It is certainly the best-acted, with Kevin Spacey a standout among a stellar ensemble cast.", "is_fresh": 1, "author": ["Eleanor Ringel Cater"]},
{"text": "Funny and highly entertaining.", "is_fresh": 1, "author": ["Steven Rosen"]},
{"text": "I can't remember the last time I've seen a mainstream, big-studio release this well-acted.", "is_fresh": 1, "author": ["Jeff Millar"]},
{"text": "A dynamite comedy-drama.", "is_fresh": 1, "author": ["William Arnold"]},
{"text": "Savagely funny and sympathetically insightful.", "is_fresh": 1, "author": ["Joe Leydon"]},
{"text": "An acerbic, darkly comic critique of how social conventions can lead people into false, sterile and emotionally stunted lives, American Beauty is a real American original.", "is_fresh": 1, "author": ["Todd McCarthy"]},
{"text": "Surprising and enjoyable.", "is_fresh": 1, "author": ["Glenn Whipp"]},
{"text": "American Beauty is a devastating motion picture of unconceivable power.", "is_fresh": 1, "author": ["Dustin Putman"]},
{"text": "One of the great films of the decade.", "is_fresh": 1, "author": ["Eric Lurio"]},
{"text": "American Beauty is an American Classic.", "is_fresh": 1, "author": ["Nick Nunziata"]},
{"text": "Hilarious, painful and brutally frank.", "is_fresh": 1, "author": ["Desson Thomson"]},
{"text": "American Beauty is a very funny film that packs an unexpected emotional wallop.", "is_fresh": 1, "author": ["David Ansen"]},
{"text": "Beauty is a blood-chilling dark comedy with unexpected moments of both fury and warmth, a strange, brooding and very accomplished film that sets us back on our heels from its opening frames.", "is_fresh": 1, "author": ["Kenneth Turan"]},
{"text": "A millennial classic.", "is_fresh": 1, "author": ["Jay Carr"]},
{"text": "One of the edgiest movies of the year.", "is_fresh": 1, "author": ["Richard T. Jameson"]},
{"text": "The world's most honest sitcom.", "is_fresh": 1, "author": ["Scott Weinberg"]},
{"text": "an explanation of why I love the movies so much. ", "is_fresh": 1, "author": ["Blake French"]},
{"text": "The movie, despite its exaggerations and caricatures, does grip you, ever so slowly at first, and pull you in.", "is_fresh": 1, "author": ["John J. Puccio"]},
{"text": "Amazing.", "is_fresh": 1, "author": ["Susan Granger"]},
{"text": "There are times when \"American Beauty\" feels like it might be toppling over into melodrama, but Mendes grabs the reins and reels his actors in, generating power and a lot of perspiration in the process.", "is_fresh": 1, "author": ["David N. Butterworth"]},
{"text": "An original, a tour-de-force exhibition of acting missing from the movie screen so far this year.", "is_fresh": 1, "author": ["Bob Bloom"]},
{"text": "The dark, deeply ironic ending, though given away by our narrator in the first few minutes of the movie, stays with you for weeks after it's all over.", "is_fresh": 1, "author": ["Eugene Novikov"]},
{"text": "Worth seeing as a snapshot of American society at a peculiar juncture in its unfolding as an empire.", "is_fresh": 1, "author": ["Louis Proyect"]},
{"text": "", "is_fresh": 1, "author": []},
{"text": "", "is_fresh": 1, "author": ["Greg Dean Schmitz"]}
]