[
{"reviews_count": "24", "title": "American Gigolo", "avg_audience_rating": "3.1", "rotten_count": "8", "tomatometer": "67", "audience_score": "51", "avg_critic_rating": "6.5", "fresh_count": "16", "user_ratings_count": "9,331"},
{"text": "'80s thriller has lots of sex, violence, language. ", "is_fresh": 1, "author": ["Barbara Shulgasser"]},
{"text": "Richard Gere, the highly touted actor critics invariably defend as a talent in search of a script, proves that his method acting can't propel him through a bad script.", "is_fresh": 0, "author": ["Michael Blowen"]},
{"text": "The journey from point A to point B might have been more direct, though given the film's lush visuals and many iconic New York settings, it would probably not have been as pretty.", "is_fresh": 1, "author": ["John Lui"]},
{"text": "Stylish but emotionally hollow, Paul Schrader's morality tale of a callboy (played by Richard Gere), offers some visual pleasures, including Armani's slick wardrobe.", "is_fresh": 1, "author": ["Emanuel Levy"]},
{"text": "Schrader's development of the frame-up story is mechanically melodramatic, and Gere, essentially a boring actor, doesn't help much either. He just cannot carry a picture, even when his passivity and gentleness well serve some aspects of his character...", "is_fresh": 0, "author": ["Richard Schickel"]},
{"text": "Schrader manages to underline the glamour of the protagonist's profession while at the same time illustrating its seedy underside.", "is_fresh": 1, "author": []},
{"text": "The story becomes increasingly implausible as its thriller elements kick in, but the moving last shot achieves a sense of spiritual transcendence and grace rare in American movies.", "is_fresh": 1, "author": []},
{"text": "Although the film rather loses its grip in the last two reels, this is, on the whole, an impressive piece of work.", "is_fresh": 1, "author": []},
{"text": "Schrader's third outing as a director is betrayed by a curious, uncharacteristic evasiveness at its core.", "is_fresh": 0, "author": ["Variety Staff"]},
{"text": "Pure fantasy.", "is_fresh": 1, "author": ["Cole Smithey"]},
{"text": "It all becomes something of an academic, if entertaining, exercise that fails to stir the emotions.", "is_fresh": 0, "author": ["Geoff Andrew"]},
{"text": "The whole movie has a winning sadness about it; take away the story's sensational aspects and what you have is a study in loneliness.", "is_fresh": 1, "author": ["Roger Ebert"]},
{"text": "Turn off the sound and just enjoy the visuals.", "is_fresh": 1, "author": ["Nell Minow"]},
{"text": "Slick, empty and far from sensual", "is_fresh": 0, "author": ["James Sanford"]},
{"text": "American Gigolo explores the flashy career of a male hustler.", "is_fresh": 1, "author": ["Frederic and Mary Ann Brussat"]},
{"text": "A trama policial \u00e9 fraqu\u00edssima, e nem Schrader (tamb\u00e9m roteirista) sabe como lidar com ela, j\u00e1 que o ato final da hist\u00f3ria abusa de cenas epis\u00f3dicas em fade, s\u00f3 para amarrar o desfecho.", "is_fresh": 0, "author": ["Pablo Villa\u00e7a"]},
{"text": "While certainly not Schrader's best film as either a writer or director, it is still an interesting signpost of the early 1980s", "is_fresh": 1, "author": ["James Kendrick"]},
{"text": "", "is_fresh": 0, "author": ["Jake Euker"]},
{"text": "", "is_fresh": 1, "author": ["Jeffrey Westhoff"]},
{"text": "", "is_fresh": 1, "author": ["Chuck O'Leary"]},
{"text": "", "is_fresh": 1, "author": ["Michelle Alexandria"]},
{"text": "", "is_fresh": 1, "author": ["Carol Cling"]},
{"text": "", "is_fresh": 1, "author": ["Philip Martin"]},
{"text": "", "is_fresh": 0, "author": ["Dan Jardine"]},
{"text": "'80s thriller has lots of sex, violence, language. ", "is_fresh": 1, "author": ["Barbara Shulgasser"]},
{"text": "Richard Gere, the highly touted actor critics invariably defend as a talent in search of a script, proves that his method acting can't propel him through a bad script.", "is_fresh": 0, "author": ["Michael Blowen"]},
{"text": "The journey from point A to point B might have been more direct, though given the film's lush visuals and many iconic New York settings, it would probably not have been as pretty.", "is_fresh": 1, "author": ["John Lui"]},
{"text": "Stylish but emotionally hollow, Paul Schrader's morality tale of a callboy (played by Richard Gere), offers some visual pleasures, including Armani's slick wardrobe.", "is_fresh": 1, "author": ["Emanuel Levy"]},
{"text": "Schrader's development of the frame-up story is mechanically melodramatic, and Gere, essentially a boring actor, doesn't help much either. He just cannot carry a picture, even when his passivity and gentleness well serve some aspects of his character...", "is_fresh": 0, "author": ["Richard Schickel"]},
{"text": "Schrader manages to underline the glamour of the protagonist's profession while at the same time illustrating its seedy underside.", "is_fresh": 1, "author": []},
{"text": "The story becomes increasingly implausible as its thriller elements kick in, but the moving last shot achieves a sense of spiritual transcendence and grace rare in American movies.", "is_fresh": 1, "author": []},
{"text": "Although the film rather loses its grip in the last two reels, this is, on the whole, an impressive piece of work.", "is_fresh": 1, "author": []},
{"text": "Schrader's third outing as a director is betrayed by a curious, uncharacteristic evasiveness at its core.", "is_fresh": 0, "author": ["Variety Staff"]},
{"text": "Pure fantasy.", "is_fresh": 1, "author": ["Cole Smithey"]},
{"text": "It all becomes something of an academic, if entertaining, exercise that fails to stir the emotions.", "is_fresh": 0, "author": ["Geoff Andrew"]},
{"text": "The whole movie has a winning sadness about it; take away the story's sensational aspects and what you have is a study in loneliness.", "is_fresh": 1, "author": ["Roger Ebert"]},
{"text": "Turn off the sound and just enjoy the visuals.", "is_fresh": 1, "author": ["Nell Minow"]},
{"text": "Slick, empty and far from sensual", "is_fresh": 0, "author": ["James Sanford"]},
{"text": "American Gigolo explores the flashy career of a male hustler.", "is_fresh": 1, "author": ["Frederic and Mary Ann Brussat"]},
{"text": "A trama policial \u00e9 fraqu\u00edssima, e nem Schrader (tamb\u00e9m roteirista) sabe como lidar com ela, j\u00e1 que o ato final da hist\u00f3ria abusa de cenas epis\u00f3dicas em fade, s\u00f3 para amarrar o desfecho.", "is_fresh": 0, "author": ["Pablo Villa\u00e7a"]},
{"text": "While certainly not Schrader's best film as either a writer or director, it is still an interesting signpost of the early 1980s", "is_fresh": 1, "author": ["James Kendrick"]},
{"text": "", "is_fresh": 0, "author": ["Jake Euker"]},
{"text": "", "is_fresh": 1, "author": ["Jeffrey Westhoff"]},
{"text": "", "is_fresh": 1, "author": ["Chuck O'Leary"]}
]