[
{"reviews_count": "353", "title": "Ant-Man and the Wasp", "avg_audience_rating": "3.8", "rotten_count": "42", "tomatometer": "88", "audience_score": "78", "avg_critic_rating": "  7", "fresh_count": "311", "user_ratings_count": "20,299"},
{"text": "This won't become anybody's favourite Marvel movie, but at this point in their timeline, a gentle character comedy is exactly the movie we need from them.", "is_fresh": 1, "author": ["Alistair Ryder"]},
{"text": "An engaging superhero film that will genuinely appeal to both adults and children. Not knuckle-whiteningly exciting, but the humour perfectly undercuts the typical blockbuster dialogue whenever it threatens to fall into sentimentality or cod-physics.", "is_fresh": 1, "author": ["Sarah Cartland"]},
{"text": "Marvel Studios provides yet another captivating film, but its lasting impact will be far less than pretty much every other entry into the MCU.", "is_fresh": 1, "author": ["Kent Garrison"]},
{"text": "In essence, Ant-Man and the Wasp is a rich man's Thor: The Dark World, a film that serves as much an episodic purpose as a cinematic one if not more so.", "is_fresh": 1, "author": ["Matt Ward"]},
{"text": "One of the most enjoyable movies in the Marvel Cinematic Universe with both of the titular characters holding their own in every aspect of the film. ", "is_fresh": 1, "author": ["Brian Gill"]},
{"text": "Incredibly entertaining and exactly the antidote for a series of movies that were growing overstuffed beyond the point of exhaustion.", "is_fresh": 1, "author": ["Patrick Bromley"]},
{"text": "This could well be the least extended-preview-for-the-next-one MCU installment since Iron Man 3.", "is_fresh": 1, "author": ["Matt Oakes"]},
{"text": "A well-needed break from genocide-clicking titans, this breezy sequel is adequately entertaining, but vastly forgettable.", "is_fresh": 0, "author": ["Cameron Frew"]},
{"text": "Stop turning these movies into homework, they're supposed to be fun - sit through the credits, you'll get your answers.", "is_fresh": 1, "author": ["Bob Chipman"]},
{"text": "Three years ago, I proclaimed the first Ant-Man, \"the perfect chaser to cleanse the palette from the last superhero jam while getting us queued for the next one.\" That description is applicable in its entirety to this sequel as well. ", "is_fresh": 1, "author": ["Zaki Hasan"]},
{"text": "It's a welcome change of pace that reminds us that superhero films can be easy, breezy fun instead of heavy-handed spectacle.", "is_fresh": 1, "author": ["Johnny Gayzmonic"]},
{"text": "Strong action and strong jokes. With nothing to top the stakes of Infinity War, it was the perfect end cap for the MCU's 2018 roster.", "is_fresh": 1, "author": ["Ify Nwadiwe"]},
{"text": "It's not better than or funnier than \"Thor: Ragnarok. But it has some great laughs and Lang's relationship with his daughter may be the most meaningful father-daughter relationship in the MCU outside Hank and Hope Van Dyne.", "is_fresh": 1, "author": ["Kirsten Acuna"]},
{"text": "These heroes may be tiny, but the fun is big - real big.", "is_fresh": 1, "author": ["Sean Mulvihill"]},
{"text": "One of the biggest victories of Ant-Man and the Wasp is that, like Civil War before it, it lets Rudd be Rudd. ", "is_fresh": 1, "author": ["Clint Worthington"]},
{"text": "Ant-Man and the Wasp zips along at a delightful pace thanks to a script full of zingers and self-awareness and Peyton Reed's keen eye behind the camera.", "is_fresh": 1, "author": ["Micheal Compton"]},
{"text": "Full of action, fun, humour, colour and Michael Douglas, if you simply want a good old superhero flick, you won't be disappointed here.", "is_fresh": 1, "author": ["Matt Hudson"]},
{"text": "Ant-Man and the Wasp feeds into a longstanding trope about disability and doesn't even seem to realize it's doing it.", "is_fresh": 1, "author": ["Li Lai"]},
{"text": "As was the case with 2015's Ant-Man, it's nice to see a Marvel movie with a self-contained plotline. ", "is_fresh": 1, "author": ["Sean Collier"]},
{"text": "A fun romp with likeable characters. It is a breath of fresh air within the larger continuity of the MCU.", "is_fresh": 1, "author": ["Stephanie Cooke"]},
{"text": "Now that the dust has settled, Marvel is back with a lighter, lesser sequel in the form of Ant-Man and the Wasp, a change of pace that's too busy to be breezy.", "is_fresh": 0, "author": ["Aaron Leggo"]},
{"text": "It deftly revels in its own ridiculousness, never shying away from how outrageous its narrative ultimately is.", "is_fresh": 1, "author": ["Doug Jamieson"]},
{"text": "[Evangeline Lilly's] Wasp is the ... provider of the film's backbone and the answer to why part two surpasses the first - if only by half an ant.", "is_fresh": 1, "author": ["Nguyen Le"]},
{"text": "Provides a good dose of refreshing fun", "is_fresh": 1, "author": ["Nate Adams"]},
{"text": "Ant-Man and the Wasp is an explosion of creativity and charisma.", "is_fresh": 1, "author": ["Aaron Peterson"]},
{"text": "This film is much funnier than most MCU films, and like 'Guardians' has unexpected heart. Rudd rocks it as a comedic actor this time around, with Peyton utilizing his talents", "is_fresh": 1, "author": ["Alan French"]},
{"text": "Chicanos love Moz. Also: Practical fashion for Hope van Dyne might foreshadow fewer high heels for female heroes in future MCU films. Not holding breath, but fingers crossed!", "is_fresh": 1, "author": ["Leona Laurie"]},
{"text": "With a touch of romance and the promise of more sequels, the film is a superhero treat for ordinary mortals. ", "is_fresh": 1, "author": ["Sr. Rose Pacatte"]},
{"text": "\"Ant-Man and the Wasp\" is beige; but (in the words of Australian comic Billy Birmingham as beloved cricket commentator Richie Benaud), it's also cream, bone, off-white and perhaps ivory.", "is_fresh": 0, "author": ["Blake Howard"]},
{"text": "Great fun, a great cast overall...the best thing that Ant-Man and the Wasp delivers is fun. This is just antics, fun gags, all sorts of sides and shenanigans. The best stuff is bite-sized entertainment.", "is_fresh": 1, "author": ["Eli Glasner"]},
{"text": "The right kind of light hearted action-adventure needed during a year of ultra-serious Marvel superhero fare, although the lack of a truly memorable villain dilutes the stakes somewhat.", "is_fresh": 1, "author": ["Matthew Pejkovic"]},
{"text": "If the previous film was a bubbly champagne cocktail of a superhero movie, its sequel is something flatter and more concussive-akin to a series of vodka shots. Bottom line though, as long Paul Rudd is invited, it's still a party.", "is_fresh": 1, "author": ["Oliver Jones"]},
{"text": "The special effects in this movie are fantastic...It just looks dope...seamless. ", "is_fresh": 1, "author": ["Tony Baker"]},
{"text": "As the 20th film in the MCU, \"Ant-Man and the Wasp\" finds itself somewhere in the middle. But in a series with very few misses, that's a pretty good place to land.", "is_fresh": 1, "author": ["Karen M. Peterson"]},
{"text": "I'm all for it...both heroes are pure fun.", "is_fresh": 1, "author": ["Lisa Nesselson"]},
{"text": "I still liked the first Ant-Man better.", "is_fresh": 1, "author": ["Martin Thomas"]},
{"text": "This is a high priced sitcom.", "is_fresh": 1, "author": ["Korey Coleman"]},
{"text": "It's comforting to know these chapters can still resonate while embracing their role as throwaways. [This filler is] self-aware enough to unapologetically do its thing.", "is_fresh": 1, "author": ["Jared Mobarak"]},
{"text": "In terms of large pieces of plot or character reveals...not a lot happened in this movie that was shatteringly significant for the future of the MCU--until the post-credit scene.", "is_fresh": 1, "author": ["Roth Cornet"]},
{"text": "This movie is more moments, performances, characters, and specific jokes than it is looking at the [film in] total...but it's entertaining.", "is_fresh": 1, "author": ["Dan Murrell"]},
{"text": "A charming, fun and entertaining ride all along the way.", "is_fresh": 1, "author": ["John Campea"]},
{"text": "The comedy worked very well for the film, but I can't help the feeling that some of those comedic scenes went a little long. ", "is_fresh": 1, "author": ["Jaby Koay"]},
{"text": "It's more than happy to deliver a fun-filled movie evening, one that's both light-hearted and light-weight.", "is_fresh": 1, "author": ["Akhil Arora"]},
{"text": "In \"short,\" it's a pretty good time!", "is_fresh": 1, "author": ["Robert Daniels"]},
{"text": "It's a movie that's meant to entertain, and does, but just cannot rise above being enjoyable in the moment.", "is_fresh": 1, "author": ["Terence Johnson"]},
{"text": "Ant-Man and The Wasp is full of color and energy, goofball personalities and obsessed geniuses, lost loves and giant insects. It uses small ideas for big payoffs.", "is_fresh": 1, "author": ["Alci Rengifo"]},
{"text": "It's featherweight fun that won't change your life, but that's perfectly OK.", "is_fresh": 1, "author": ["Kambole Campbell"]},
{"text": "Offers little (no pun intended) to the entire large scope of the MCU, but as a self-contained fun summer blockbuster that only cares to have fun and for audiences to have a good time, it delivers.", "is_fresh": 1, "author": ["Rendy Jones"]},
{"text": "Marvel's sequel, 'Ant-Man and The Wasp,' is just as much fun as the first film and includes some even faster paced action ", "is_fresh": 1, "author": ["Sarah Gopaul"]},
{"text": "Two generations of Ant-Men and Wasps fight alongside one another and learn what it means to be family, and it is never less than utterly delightful.", "is_fresh": 1, "author": ["Asia Frey"]},
{"text": "Who would have thought all it took for this critic to unabashedly like an MCU movie again was a big heart and Paul Rudd's hairy chest? This Marvel hater liked it, so give it a go. ", "is_fresh": 1, "author": ["Ruben Rosario"]},
{"text": "[It's] light, fluffy and jiggly at times, it's sweet enough, but without a lot of real substance.", "is_fresh": 0, "author": ["Lisa Johnson Mandell"]},
{"text": "Peyton Reed and the creatives behind Ant-Man dropped their latest installment of the MCU comedy as a cinematic reminder to take a breath. Everything is going to be okay, kids.", "is_fresh": 1, "author": ["Kimberly Pierce"]},
{"text": "A Fun MCU Movie With Family At Its Core", "is_fresh": 1, "author": ["Jazz Tangcay"]},
{"text": "Ant-Man and the Wasp isn't the worst Marvel movie ever, but it might be the most inconsequential... Eventually, repetition in action and tone neuter the film's creative energy. ", "is_fresh": 0, "author": ["Glenn Heath Jr."]},
{"text": "Ant-Man and the Wasp is surreal fun. It moves swift but you're laughing the whole time, largely because of the character Scott Lang (Paul Rudd). ", "is_fresh": 1, "author": ["Lapacazo Sandoval"]},
{"text": "You can feel the strain, a bit, for laughs in the first 15 minutes but once you settle into the movie's goofy warmth, and relatively chill vibe (well, as chill as superhero movies get that is), it's quite a fun adventure. ", "is_fresh": 1, "author": ["Nathaniel Rogers"]},
{"text": "This is just filling - something to hold over hungry movie-goers - until the next Avengers movie drops next year.", "is_fresh": 0, "author": ["Tom Santilli"]},
{"text": "The best thing about this movie is, I want to say, Evangeline Lily.", "is_fresh": 1, "author": ["Dorian Parks"]},
{"text": "Its intent is limited to amusing and diverting for a couple of hours of high-summer fun. That it does.", "is_fresh": 1, "author": ["Matthew Norman "]},
{"text": "Paul Rudd is always the affable hero and this film makes great use of tropes that have become stale elsewhere in the MCU.", "is_fresh": 1, "author": ["Wesley Lovell"]},
{"text": "It's the rare Marvel movie you wish had a little more action.", "is_fresh": 0, "author": ["Tom Shone"]},
{"text": "This a film that's difficult to actively dislike - Rudd and his equally charming co-stars take care of that - and fun in the moment, but there's precious little that lingers after the credits roll.", "is_fresh": 1, "author": ["Hannah Woodhead"]},
{"text": "An old-school, primary-coloured charm is detectable - there isn't really a big arch-nemesis, for example - and most welcome. ", "is_fresh": 1, "author": ["Hilary A White"]},
{"text": "There's a lot to be said for a superhero film in which the entire world isn't at stake, and where everyone isn't worrying about a skyscraper falling on their heads.", "is_fresh": 1, "author": ["Chris Wasser"]},
{"text": "The lighter, throat-clearing Marvel episodes are a great deal more digestible than the over-stuffed showstoppers. Ant-Man and The Wasp is not the equal of the hilarious Thor Ragnarok, but it never climbs too far up its own quantum realm.", "is_fresh": 1, "author": ["Donald Clarke"]},
{"text": "Just when things start getting boring, Rudd is on hand to reassure us, and the film's ending is a great deal of fun.", "is_fresh": 1, "author": ["Paul Whitington"]},
{"text": "Rudd - who claims a screenwriting credit too - is likeable, funny and plays it with just the right amount of tongue in cheek not to undo all his good work.", "is_fresh": 1, "author": ["Matthew Bond"]},
{"text": "Ant-Man & The Wasp, the studio's first release post-Thanos clicking those fingers, is a breezy, heart-warming romp that plants its tongue firmly in its cheek.", "is_fresh": 1, "author": ["Rob Carnevale"]},
{"text": "It's perfectly enjoyably fare from the Marvel roster that doesn't do a whole lot to stand out but looks good doing its own thing.", "is_fresh": 1, "author": ["Ross Miller"]},
{"text": "'Ant-Man and the Wasp' offer laughs, adventure, and a stinger at the end.", "is_fresh": 1, "author": ["Linda Cook"]},
{"text": "Once again Marvel have served up a film with all the edges blunted, where even a little passionate smooching is rendered ridiculous and sexless. ", "is_fresh": 0, "author": ["Ed Whitfield"]},
{"text": "It may not be as significant to the Marvel canon as, say, Black Panther but the skittish wit and playfulness wins us over.", "is_fresh": 1, "author": ["Wendy Ide"]},
{"text": "A mild improvement over its lackluster predecessor...", "is_fresh": 1, "author": ["David Nusair"]},
{"text": "It is silly, but after the far more dramatic Avengers: Infinity War, it's a welcome light relief.", "is_fresh": 1, "author": ["Jo Berry"]},
{"text": "Paul Rudd's ability to keep ex-con/single-dad/reluctant superhero Scott Lang simultaneously sceptical, confused and committed to the sci-fi chaos around him without ever going boringly square-jawed is nothing less than the purest movie-star charisma.", "is_fresh": 1, "author": ["Adam Nayman"]},
{"text": "A decent and rollicking summer holiday movie compared to most others, but miniature in the grand scheme of Marvel.", "is_fresh": 1, "author": ["Jamie East"]},
{"text": "With a less appealing actor in the title role, the Ant-Man films wouldn't be half as enjoyable.", "is_fresh": 1, "author": ["Brian Viner"]},
{"text": "The screenwriters (Rudd among them) frequently mock their own sci-fi jargon, their snarkiness the strong suit in a movie offering little else except souped-up car chases.", "is_fresh": 1, "author": ["Andrea Gronvall"]},
{"text": "A film in which the minuscule can quickly become monumental.", "is_fresh": 1, "author": ["Alistair Harkness"]},
{"text": "After 19 Marvel movies so far, and a growing sense of global self-importance (commercially and culturally), a throwaway superhero film is, in fact, just what we need. ", "is_fresh": 1, "author": ["Kevin Maher"]},
{"text": "The two great enemies of picnic now get co-billing in this hilarious, delightful and somehow downright lovable entertainment from the Marvel Cinematic Universe.", "is_fresh": 1, "author": ["Peter Bradshaw"]},
{"text": "I'm tired of saying \"the special effects are great\" when nothing else in a movie is. But, yes, it's spectacularly staged.", "is_fresh": 1, "author": ["Nigel Andrews"]},
{"text": "The storyline feels a little thin and moth-eaten in parts but this sequel is plenty of fun.", "is_fresh": 1, "author": ["Geoffrey Macnab"]},
{"text": "There are times in the cinema when you realise you're in complete agreement with that old Spinal Tap pearl of wisdom - the one about being jealous of yourself. ", "is_fresh": 1, "author": ["Harry Guerin"]},
{"text": "The set-pieces feel somewhat expected, thankfully there's still plenty of witty banter and inventive filmmaking touches to keep the audience entertained.", "is_fresh": 1, "author": ["Rich Cline"]},
{"text": "This all makes for a gleefully entertaining, down to earth, two hours.", "is_fresh": 1, "author": ["Joseph Walsh"]},
{"text": "The humour and unflappable comedic timing of its cast remains the franchise's strength, and entertaining action sequences manage to uplift an ultimately heavy-handed sequel.", "is_fresh": 1, "author": ["Kelli Weston"]},
{"text": "After a shaky first act, it becomes the bright, buoyant action-comedy \"Ant-Man\" should have been.", "is_fresh": 1, "author": ["J. Olson"]},
{"text": "Want a tightly packed bundle of fast dialogue, heady danger and speculation as to which stars are coming back for a third film? Ant-Man and the Wasp is that ticket.", "is_fresh": 1, "author": ["Karen Krizanovich"]},
{"text": "The willingness to go breezy and small scale is extremely welcome.", "is_fresh": 1, "author": ["Tim Brayton"]},
{"text": "... A wild ride, using visual effects to play with size and scale in absurd and exciting ways.", "is_fresh": 1, "author": ["Greg Maki"]},
{"text": "A movie that is so top-to-bottom fun that it's hard to believe the same studio put out the doomsday spectacle that is Avengers: Infinity War a mere two months ago.", "is_fresh": 1, "author": ["Joshua Rivera"]},
{"text": "With a little inventiveness and charm to spare, it succeeds by charting its own course through the MCU, and I hope there are more lighthearted, character-driven adventures in this dysfunctional family's future.", "is_fresh": 1, "author": ["Eric Melin"]},
{"text": "A refreshingly different and delightful spectacle that also excels as a rip-roaring, fast-paced and engaging diversion.", "is_fresh": 1, "author": ["Alan Jones"]},
{"text": "In another context, I might say that the film was simply on par with the original but here it serves as a good chaser to the unsatisfying INFINITY WAR cliffhanger.", "is_fresh": 1, "author": ["Rubin Safaya"]},
{"text": "The chemistry between Rudd and Lily is more than worthy. [Full Review in Spanish]", "is_fresh": 1, "author": ["Diego Batlle"]},
{"text": "Sadly, the movie has a hard time picking a villain to stick with... That coupled with a flat ending... results in Ant-Man and the Wasp just barely making it past passable, without earning itself a spot in the ranks of summer romp.", "is_fresh": 0, "author": ["Jake Pesaruk"]},
{"text": "You won't mistake Ant-Man and the Wasp for anything particularly deep or even all that ambitious, but it is certainly a fun diversion.", "is_fresh": 1, "author": ["James Kendrick"]},
{"text": "It's an enormously fun film, but there's no way it can match up to Marvel's recent hot streak.", "is_fresh": 1, "author": ["Abigail Chandler"]},
{"text": "A light and sunny entry in the ongoing Marvel canon that gets by on the cast's easygoing chemistry.", "is_fresh": 1, "author": ["David Sims"]},
{"text": "While the screenplay isn't as strong as it could be, the action scenes deliver in a big way.", "is_fresh": 1, "author": ["Matthew Toomey"]},
{"text": "A light, funny action film, this is not as dark as many Marvel films. Usually, in these films, the heroes are trying to save the world. This time, the stakes are more modest. It is more of a personal journey, which is a nice change of pace.", "is_fresh": 1, "author": ["Robert Roten"]},
{"text": "The chaos is very funny and the final sequence is very entertaining, but it lacks enough substance to generate any sort of dramatic connection. [Full Review in Spanish] ", "is_fresh": 1, "author": ["Carlos D\u00edaz Reyes"]},
{"text": "Ant-Man and Wasp is a concise, light and funny film. [Full Review in Spanish] ", "is_fresh": 1, "author": ["Fausto Ponce"]},
{"text": "Michael Pe\u00f1a's performance is the most memorable. [Full Review in Spanish] ", "is_fresh": 1, "author": ["Lucero Calder\u00f3n"]},
{"text": "A Marvel film giving off the repeated vibe that in some other space and time, Pixar might have made it.", "is_fresh": 1, "author": ["Tim Robey"]},
{"text": "It serves as welcome respite, but essentially Marvel has followed its most consequential movie with its least.", "is_fresh": 1, "author": ["Matt Looker"]},
{"text": "A joy to watch on the big screen. ", "is_fresh": 1, "author": ["David Weiner"]},
{"text": "With a self-contained storyline and plenty of laughs, Ant-Man and The Wasp is the perfect follow-up to the chaos of Infinity War.", "is_fresh": 1, "author": ["Tom Glasson"]},
{"text": "Ant-Man and the Wasp is far from being among the highlights of the genre..., but the good thing is that it does not pretend [to be], because it is aware of its inconsistency within the MCU universe. [Full review in Spanish]", "is_fresh": 1, "author": ["Jos\u00e9 Mart\u00edn"]},
{"text": "Ant-Man and the Wasp is a respite, a fast-moving, cleverly written follow-up that offers up consistent laughs, refreshingly low stakes, and plenty of sight gags.", "is_fresh": 1, "author": ["Roxana Hadadi"]},
{"text": "Good summer fun, and better than the first.", "is_fresh": 1, "author": ["Bob Grimm"]},
{"text": "The non-sequitur scenes are the movie's highlights.", "is_fresh": 1, "author": ["Josh Larsen"]},
{"text": "White it may seem to have very little at stake - it's not the emotional powerhouse that some of the other Marvel movies are - it's a sheer joy, a breath of fresh air.", "is_fresh": 1, "author": ["Jeffrey M. Anderson"]},
{"text": "Ant-Man and the Wasp is an intelligent, funny, fast-paced Marvel movie, ideal for school-holiday viewing.", "is_fresh": 1, "author": ["Stephen Romei"]},
{"text": "Like the last installment, this Ant-Man film does indeed deliver all of the things we look for in an MCU filler, while also staking a small place for itself.", "is_fresh": 1, "author": ["Jonita Davis"]},
{"text": "So Ant-Man and the Wasp is worthwhile, if not a must-see, appealing less for its thundering action than for its throwaway gags.", "is_fresh": 1, "author": ["Kyle Smith"]},
{"text": "Ant-Man does not pretend to be anything other than a film where the titular hero moves on a flying ant. And that is surely appreciated. [Full review in Spanish]", "is_fresh": 1, "author": ["Daniel Krauze"]},
{"text": "Barely an hour has passed since I saw it, and it has already been reduced to dust in my memory.", "is_fresh": 0, "author": ["Rohan Naahar"]},
{"text": "Apart from being a romance, Ant-Man and the Wasp is also the funniest Marvel film you'll see.", "is_fresh": 1, "author": ["Devesh Sharma"]},
{"text": "Ant-Man and the Wasp is a buzz-worthy blockbuster.", "is_fresh": 1, "author": ["Rashid Irani"]},
{"text": "The Ant-man sequel is a thrilling fun ride that engages you emotionally and amuses you with its CGI antics and comic demeanour.", "is_fresh": 1, "author": ["Renuka Vyavahare"]},
{"text": "It's enjoyable enough, even for those who would rather eat broken glass than sit through another elephantine CGI-fest from the damned Marvel Comics Universe. ", "is_fresh": 1, "author": ["Jim Lane"]},
{"text": "Ant-Man and the Wasp blends the superhero film with comedy without feeling disjointed. More jokes landed than in most films of this combination of genres, which makes this more like a superhero comedy than a superhero film with comedic relief. ", "is_fresh": 1, "author": ["Amanda Mazzillo"]},
{"text": "The stellar ensemble has no trouble nailing the humor while keeping suspense high and conveying some serious stakes. It's a unique and highly entertaining ride I can't wait to go on again.", "is_fresh": 1, "author": ["Perri Nemiroff"]},
{"text": "Even by Mouse House standards, this is puerile stuff. Plus a waste of serious comic talent.", "is_fresh": 0, "author": ["Rick Kisonak"]},
{"text": "If this movie were a carbohydrate it'd definitely be about as complex as white bread. But admittedly, it is pretty interesting if you've ever been curious what a literal small and low stakes MCU movie looks like. ", "is_fresh": 1, "author": ["Amelia Navascues"]},
{"text": "[The movie] makes us feel small and gives us the thrill of what it would feel like to be that tiny. It's a cartoon take on Gulliver's Travels - which is the delicious gimmick at the heart of the Ant-Man franchise... and impossible to resist.", "is_fresh": 1, "author": ["Katherine Monk"]},
{"text": "Unquestionably, the recognition of The Wasp/Evangeline Lily's superhero's name in the film's title is an intelligent choice--along with the choice to center on family.", "is_fresh": 1, "author": ["Sarah Knight Adamson"]},
{"text": "The film's larger-than-life humor and relatively low-stakes ground it in a way the MCU needed after Avengers: Infinity War with a much more personal story.", "is_fresh": 1, "author": ["Michelle Jaworski"]},
{"text": "Ant-Man and the Wasp is, after all, a film about protecting and sacrificing for one's family, and it's love that binds such relationships together. And perhaps, Reed suggests, it's love that binds the rest of us as well.", "is_fresh": 1, "author": ["Nathanael Hood"]},
{"text": "If you're still rocking back and forth in the foetal position after Infinity War, here's something to cheer you up a little. Great fun.", "is_fresh": 1, "author": ["Tim Martain"]},
{"text": "There's a fresh sense of looseness, lots of play and pockets of weird humor... That's the stuff that makes the movie really sing - not sting.", "is_fresh": 1, "author": ["Katie Walsh"]},
{"text": "Ant-Man and the Wasp may be light fare when compared to the other Marvel films, but just like its predecessor, it still manages to pack a pretty big punch where it counts.", "is_fresh": 1, "author": ["Jeff Beck"]},
{"text": "Ant-Man and the Wasp has another problem: the nonexistence of a charismatic antagonistic character.", "is_fresh": 0, "author": ["Ernesto Diezmartinez"]},
{"text": "The action sequences are seamless, funny and, with their use of big-small toggles, ever surprising and fresh.", "is_fresh": 1, "author": ["Tom Meek"]},
{"text": "The action sequences are the most ingenious, with different uses of the suit, many of them accompanied with meta humor and some very nice gags that have to do with [the] technology's malfunction. [Full review in Spanish]", "is_fresh": 1, "author": ["Emmanuel B\u00e1ez"]},
{"text": "Therefore, in addition to being a simple plot, it is feignedly complex. [Full review in Spanish]", "is_fresh": 0, "author": ["William Venegas"]},
{"text": "It does its job, has Paul Rudd being charming, brings The Wasp in as a full character, delivers on the action, and leaves with a mic drop of a post-credits sequence that had the audience gasping.", "is_fresh": 1, "author": ["Matthew Razak"]},
{"text": "A light, fun side adventure that has a lot more fun with the premise and universe of Ant-Man...", "is_fresh": 1, "author": ["Felix Vasquez Jr."]},
{"text": "But despite its good points, not everything is honey over flakes because despite having good visual effects, the assembly feels a little lost in certain parts. [Full Review in Spanish]", "is_fresh": 1, "author": ["Israel Acosta Aroche"]},
{"text": "A lot of humor and the entire movie is geared to a family audience. My favorite of the Marvel movies. It is MARVEL-ous!", "is_fresh": 1, "author": ["Jackie K. Cooper"]},
{"text": "Big things again come in small packages, and this year's summer blockbuster message regarding the importance of family and trusting your circle of friends continues here in the most entertaining of ways.", "is_fresh": 1, "author": ["Kevin A. Ranson"]},
{"text": "With its convoluted screenplay as well as FX sequences of numbing repetition, it would be easy to completely write off Ant-Man and the Wasp. Yet what largely redeems it are the central characters and the performers who fill out those roles.", "is_fresh": 1, "author": ["Matt Brunson"]},
{"text": "At least one of us is way up to here with these comic book-based tales.", "is_fresh": 0, "author": ["John Urbancich"]},
{"text": "As an action comedy, Ant-Man and the Wasp hits all the marks.", "is_fresh": 1, "author": ["Ben Sin"]},
{"text": "Comic book fun and comic book shallow.", "is_fresh": 0, "author": ["Dennis Schwartz"]},
{"text": "Just two and a half months after having premiered Avengers Infinity War, Ant-Man the Wasp is the movie that Marvel Cinematic Universe needed. [Full Review in Spanish]", "is_fresh": 1, "author": ["Sergio L\u00f3pez Aguirre"]},
{"text": "Marvel Studios succeeds again and this sequel makes it clear that in the future, Ant-Man could become an even more important character in the MCU. [Full Review in Spanish]", "is_fresh": 1, "author": ["Jonathan Eslui"]},
{"text": "Where is the climax? Where is the suspense there? Where the emotion? The story that was so applauded three summers ago has lost all dimension, all its fabulous dimension. [Full Review in Spanish]", "is_fresh": 0, "author": ["Erick Estrada"]},
{"text": "Paul Rudd is resourceful, self-deprecating and capable of making the most of the thinnest material.", "is_fresh": 1, "author": ["Stephen Rebello"]},
{"text": "Ant-Man and the Wasp delivers what it promises. Maybe a little more. [Full Review in Spanish]", "is_fresh": 1, "author": ["Hugo Hern\u00e1ndez Valdivia"]},
{"text": "Sweetly shrinking, surreal sci-fi - marking the first MCU movie feature a female superhero's name in the title...", "is_fresh": 1, "author": ["Susan Granger"]},
{"text": "After the galactic annihilation of Avengers: Infinity War, Marvel lowers the stakes and amps up the fun with Ant-Man and the Wasp.", "is_fresh": 1, "author": ["Annlee Ellingson"]},
{"text": "Here's the surprising good news: lightning has struck twice. Everything I enjoyed about the first movie is repeated successfully. It's funny, imaginative, full of action-not violent action-and knockout visual effects that serve the story", "is_fresh": 1, "author": ["Leonard Maltin"]},
{"text": "Cheerfully (and fittingly) small in scale, with personal stakes rather than fate-of-the-world stuff and a director who doesn't pretend it's anything more than that.", "is_fresh": 1, "author": ["Eric D. Snider"]},
{"text": "Ant-Man and the Wasp is one fun ride which never loses its steam. ", "is_fresh": 1, "author": ["Jamal-Dean Grootboom"]},
{"text": "It's all disposable and inconsequential fun, and enough to tide audiences over for the next power-packed, supersized extravaganza.", "is_fresh": 1, "author": ["Craig Takeuchi"]},
{"text": "This is a breezy, fast-paced sequel that goes out of its way to provoke buckets of laughter and massive sighs of wide-eyed awe.", "is_fresh": 1, "author": ["Sara Michelle Fetters"]},
{"text": "Mostly improves upon everything the original film did.", "is_fresh": 1, "author": ["Kirk Baird"]},
{"text": "What is there not to like about watching a bad guy get knocked off of his speeding motorcycle by a giant Pez dispenser bouncing down the road?", "is_fresh": 1, "author": ["Frank Wilkins"]},
{"text": "Barely fresh. Some fun bits. A half hour too long for what it is. Superhero fatigue setting in.", "is_fresh": 1, "author": ["James Verniere"]},
{"text": "Marvel's latest is a delightful stand-alone film that'll also leave fans with an unfamiliar feeling: uncertainty.", "is_fresh": 1, "author": ["Miles Surrey"]},
{"text": "The way Ant-Man and the Wasp change their sizes to surprise bad guys or accomplish some kind of task puts a smile on your face at the same time that it's generating excitement.", "is_fresh": 1, "author": ["Mike McGranaghan"]},
{"text": "But for the most part, the two hours you'll spend running around with Marvel's Ant pals is fun and doesn't have the same emotional investment Infinity War or even Black Panther did earlier this year. And, for once in the MCU, that's kind of refreshing.", "is_fresh": 1, "author": ["Mark Daniell"]},
{"text": "Lily emerges from the shadows and becomes a true half of a perfect whole, and she and Rudd play beautifully off of each other, executing terrific timing both physically and comedically.", "is_fresh": 1, "author": ["TK Burton"]},
{"text": "\"Ant-Man and the Wasp\" is another great example of what comic book movies should be: a good time.", "is_fresh": 1, "author": ["Josh Terry"]},
{"text": "But, like Ant-Man, who gets woozy when he stretches too tall, the movie gets into trouble whenever it tries to go big.", "is_fresh": 0, "author": ["Christopher Lawrence"]},
{"text": "In a summer of indistinguishable franchise entries, this is one not to swat away.", "is_fresh": 1, "author": ["Benjamin Freed"]},
{"text": "Unlike the unaccountably dull \"Ant-Man\" feature that came and went three years ago, this one tangles us up cheerfully, almost instantly, in its high-tech bedazzlements and witty beguilements, never loosening its grip.", "is_fresh": 1, "author": ["Joe Morgenstern"]},
{"text": "Ant-Man and the Wasp is fun on a bite-sized scale, and it is everything that it wants to be.", "is_fresh": 1, "author": ["Alex Doenau"]},
{"text": "And while the fights and stunts are occasionally eye-catching, those eyes often end up wandering off as the combination of fast editing and quick-growing-and-shrinking props makes it hard to follow the action.", "is_fresh": 0, "author": ["Chris Knight"]},
{"text": "The [film] does not detract from the original, although it is obvious that the humor has been amplified for the sequel. [Full review in Spanish]", "is_fresh": 1, "author": ["Staff"]},
{"text": "A passably entertaining film with no answers to its biggest questions.", "is_fresh": 0, "author": ["Chris Stuckmann"]},
{"text": "Ant-Man and the Wasp is an eager puppy of a $100 million superhero tentpole, and it knows precisely where on your face to lick you.", "is_fresh": 1, "author": ["Jonathan L. Fischer"]},
{"text": "An enjoyable bit of escapist entertainment that should appease both critics and regular moviegoers alike. (Full Content Review for Parents - Violence, Profanity, etc. - also Available)", "is_fresh": 1, "author": ["Jim Judy"]},
{"text": "Would be okay and maybe even fun were it not for the frequent presence of a gruesome ghost haunting the proceedings: a woman in constant physical and emotional agony who is trying desperately not to die. A weirdly disturbing fly in the amiable ointment.", "is_fresh": 0, "author": ["Matthew Lickona"]},
{"text": "Director Peyton Reed has a light touch, which works well with Rudd's patented off-kilter comedic delivery.", "is_fresh": 1, "author": ["Piers Marchant"]},
{"text": "A welcome respite from the endless gush of showier Marvel super-product.", "is_fresh": 1, "author": ["Kurt Loder"]},
{"text": "The movie is akin to the last days of school after finals, when everyone is goofing around and having fun.", "is_fresh": 1, "author": ["Phil Villarreal"]},
{"text": "Paul Rudd is neither an aunt nor a WASP but he's fantastic in \"Ant-Man and the Wasp.\"", "is_fresh": 1, "author": ["Jordan Hoffman"]},
{"text": "Perfectly disposable pop culture.", "is_fresh": 1, "author": ["Sonny Bunch"]},
{"text": "Like its 2015 predecessor (which also followed on the heels of a gargantuan \"Avengers\" movie), this is a funnier, gentler, and, appropriately enough, smaller Marvel movie.", "is_fresh": 1, "author": ["Rob Thomas"]},
{"text": "This \"Ant-Man\" entry stakes out its own corner of the Marvel Universe sandbox as a throwback to '80s-style childlike adventure.", "is_fresh": 1, "author": ["G. Allen Johnson"]},
{"text": "Aside from a few flourishes of aesthetic inventiveness and a single moment of genuine wonder, \"Ant-Man and The Wasp\" doesn't do very much with its premise.", "is_fresh": 0, "author": ["Matthew Rozsa"]},
{"text": "It's worth noting that while Ant-Man's listed first, this sequel is really all about the sting of the Wasp.", "is_fresh": 1, "author": ["Rebecca Murray"]},
{"text": "Ant-Man & The Wasp is funny and fun but a little too wrapped up and tripped up by its quantum entanglement of plots to be truly great.", "is_fresh": 1, "author": ["Matt Neal"]},
{"text": "Breezy Ant-Man and the Wasp great fun.", "is_fresh": 1, "author": ["Charles Koplinski"]},
{"text": "In a cinematic world crowded with comic-book flicks, \"Ant-Man and the Wasp\" stands out. And that's no small accomplishment.", "is_fresh": 1, "author": ["Calvin Wilson"]},
{"text": "Underwhelming", "is_fresh": 0, "author": ["Roger Moore"]},
{"text": "Even so, the sharpness in the dialogue, the sympathy Paul Rudd always exudes, and, again, his sensible perception of being a minor product, make Ant-man and the Wasp a more acceptable ephemeral pleasure. [Full Review in Spanish]", "is_fresh": 1, "author": ["Javier Oca\u00f1a"]},
{"text": "Rudd's easy charm and sly comic energy make a billion-dollar property feel like a slacker comedy made by some friends in their loft, with everyone in the cast getting at least one good moment.", "is_fresh": 1, "author": ["Norman Wilner"]},
{"text": "Even when things get ultra-corny, Ant-Man and the Wasp keeps merrily buzzing along.", "is_fresh": 1, "author": ["Richard Roeper"]},
{"text": "It's as throwaway and silly as it sounds, and a welcome relief from the sombre air of other recent Marvel Cinematic Universe movies. ", "is_fresh": 1, "author": ["Chris Newbould"]},
{"text": "[Ant-Man] gets by on his propensity for knockabout humour, his child-like enthusiasms and the company he keeps. He's likeable, his films are kid-friendly, and that's about it.", "is_fresh": 1, "author": ["Sandra Hall"]},
{"text": "Mildly entertaining, breezy and funny despite its overstuffed, convoluted and unremarkable plot and lengthy running time. ", "is_fresh": 1, "author": ["Avi Offer"]},
{"text": "[I]ts plot and its comedy feel like separate entities vying for control, while the characters vie for movie's focus and heart.", "is_fresh": 0, "author": ["Mark Dujsik"]},
{"text": "Half the living beings in the universe aren't at stake, just two lives. If you're ok with that after Infinity War, then this is the perfect superhero summer blockbuster palate cleanser.", "is_fresh": 1, "author": ["Iain McNally"]},
{"text": "Director Peyton Reed reassembles almost everyone from the original film and returns to build on the surprising magic that the unlikely team managed to pull off the first time around.", "is_fresh": 1, "author": ["Shyama Krishna Kumar"]},
{"text": "It is a nice change to have a light, breezy Marvel flick that's more like a heist than a save-the-world superhero film.", "is_fresh": 1, "author": ["Joanne Soh"]},
{"text": "It's nice to see a Marvel movie that seems intended to amuse us more than it's designed to beat us into submission.", "is_fresh": 1, "author": ["Robert Denerstein"]},
{"text": "We already know that superhero movies have to be loved as they are. [Full review in Spanish]", "is_fresh": 1, "author": ["Pablo A. Scholz"]},
{"text": "The most enjoyable aspects of the movie are the special effects as people, cars, buildings - and even a Hello Kitty Pez dispenser - shrink or grow in size, as the plot dictates.", "is_fresh": 1, "author": ["Bob Bloom"]},
{"text": "The tight-knit ensemble delivers a fun, small-scale caper that's delightfully self-contained.", "is_fresh": 1, "author": ["Andr\u00e9 Hereford"]},
{"text": "Ant-Man and the Wasp follows through on that stuff and goes even further with scale-shifting action sequences. More importantly, this film uses Rudd exponentially better, giving him plenty of opportunities to be goofy and charming and Paul Rudd-y.", "is_fresh": 1, "author": ["Suzette Smith"]},
{"text": "It's a refreshingly loose and daffy approach to the genre that Marvel seem to have a lock on.", "is_fresh": 1, "author": ["Graeme Tuckett"]},
{"text": "Ant-Man and the Wasp proves to be a fun romp, but not one that's completely compelling to blockbuster fans at the level of the \"Avengers\" movies.", "is_fresh": 1, "author": ["Carl Kozlowski"]},
{"text": "All in all, Ant-Man and the Wasp amounts to a tidy, tight and consistently entertaining package. Unwrap without any reservations and simply enjoy.", "is_fresh": 1, "author": ["Leigh Paatsch"]},
{"text": "If it weren't for a smattering of PG-13 language, Ant-Man and the Wasp would be the perfect superheroes to save the whole family from the summer heat for a couple of hours.", "is_fresh": 1, "author": ["Megan Basham"]},
{"text": "In a world where superhero are everywhere, you have to play up the thing that makes your superhero movie unique. The Ant-Man movies play that unique quality up well.", "is_fresh": 1, "author": ["Jeremy Jahns"]},
{"text": "Ant-Man's new adventure is entertaining and far more ambitious on a visual level and extremely fun. [Full Review in Spanish]", "is_fresh": 1, "author": ["Juanma Fern\u00e1ndez Par\u00eds"]},
{"text": "Retaining all of the humor and charm of 2015's 'Ant-Man', this marvelously delightful and energetic sequel never takes itself too seriously.", "is_fresh": 1, "author": ["Roger Tennis"]},
{"text": "Unquestionably the most light-hearted franchise from the House of Marvel, that quality is in full swing in this consistently laugh-out-loud funny sci-fi adventure.", "is_fresh": 1, "author": ["Dominic Corry"]},
{"text": "While not a franchise game-changer, there's something soothing about the lower stakes of this sequel's well-honed heist plot, making it a fun follow-up. ", "is_fresh": 1, "author": ["Chris Bumbray"]},
{"text": "Thankfully, Paul Rudd as Ant-Man is as engaging as ever. He almost single-handedly saves this sequel, which is genial enough but not nearly as much fun as the original.", "is_fresh": 1, "author": ["Caryn James"]},
{"text": "The film cuts superheroes and their oh-so-serious issues down to size.", "is_fresh": 1, "author": ["Peter Howell"]},
{"text": "There is cuteness and chuckle-worthy visual and verbal jokes, but the film-maker weaves in that element that eludes others: heartfelt emotion.", "is_fresh": 1, "author": ["John Lui"]},
{"text": "Rudd remains the heart and soul by stepping back and letting everyone else fill the room. He's one of the great modern straight men, but when he lets rip... it's a quick-witted back-and-forth that's easily as funny as a drumming ant. ", "is_fresh": 1, "author": ["Richard Whittaker"]},
{"text": "No matter your size or your grasp of science or superheroes, Ant-Man and the Wasp is pure quantum fun.", "is_fresh": 1, "author": ["Neil Pond"]},
{"text": "\"Ant-Man and the Wasp\" is disposable pop trash, not worth taking seriously for a moment and therefore eminently worthy of your attention at this moment.", "is_fresh": 1, "author": ["Ty Burr"]},
{"text": "A high-spirited lark of blessedly little consequence.", "is_fresh": 1, "author": ["Sean Burns"]},
{"text": "Plodding, repetitive, replete with technobabble nonsense and lifeless action, this is easily the worst-written of any of the 20 MCU offerings and may be the worst all-around film featuring a Marvel superhero since Sony rebooted Spider-Man.", "is_fresh": 0, "author": ["James Berardinelli"]},
{"text": "Though Rudd and Pe\u00f1a work like mad to get laughs, they come up well short of optimal levels achieved in Thor: Ragnarok.", "is_fresh": 0, "author": ["Gary Thompson"]},
{"text": "It keeps things small-scale and low-key, and for the most part turns out better for it.", "is_fresh": 1, "author": ["Josh Bell"]},
{"text": "...the most fun you're likely to have at the movies this summer. ", "is_fresh": 1, "author": ["Daniel M. Kimmel"]},
{"text": "A hugely enjoyable action offering that happily comes as one of the better efforts from Marvel's infamously erratic output.", "is_fresh": 1, "author": ["Jim Schembri"]},
{"text": "In general, the actors and their delivery of smart dialogue - on top of some excellent action sequences - are the main reasons to watch the film.", "is_fresh": 1, "author": ["Christopher Llewellyn Reed"]},
{"text": "It's honestly a little hard to separate Ant-Man and the Wasp's actual quality from what a lovely break it is from reality.", "is_fresh": 1, "author": ["Sarah Marrs"]},
{"text": "Director Peyton Reed and his writers (including Rudd) have a lot of fun with scale, sizing the vehicles up and down and Scott himself getting as big as the Statue of Liberty.", "is_fresh": 1, "author": ["Nell Minow"]},
{"text": "...a light movie that favours humour and family drama over action and destruction.... [Full review in Spanish]", "is_fresh": 1, "author": ["Sebastian Zavala Kahn"]},
{"text": "[F]ast-paced, laugh-out-loud funny, and packed full of one-size-fits-all blockbuster entertainment sure to excite fans young and old. But what it has more than anything else is heart and soul...", "is_fresh": 1, "author": ["Mark Hughes"]},
{"text": "Director/co-writer Peyton Reed has basically made a large-scale summer comedy that just so happens to star superheroes.", "is_fresh": 1, "author": ["Jack Giroux"]},
{"text": "An engaging goof that resists bludgeoning you with bigness and instead settles for good vibes and jokes. Look! Up in the sky! It's a bird! It's a plane! [Squints.] It's a surprisingly enjoyable summer romp!", "is_fresh": 1, "author": ["Manohla Dargis"]},
{"text": "Though in every respect a lightweight addition to the Marvel canon, the innocuous 'Ant-Man and the Wasp' is mildly enjoyable. ", "is_fresh": 1, "author": ["Frank Swietek"]},
{"text": "The strength in Ant-Man And The Wasp is that it's a small-stakes, personal superhero caper that's unconcerned with the bigger battle for the world's soul. It's such a relief to not be asked to invest in something grandiose.", "is_fresh": 1, "author": ["Wenlei Ma"]},
{"text": "Over the two-hour run time it never gets dull to see objects shrink or grow in visually impressive perspective shifts and absurdly comic moments...", "is_fresh": 1, "author": ["Steve Newall"]},
{"text": "In the diminutive figure's second effort, average things come in small packages.", "is_fresh": 1, "author": ["Sarah Ward"]},
{"text": "Actually, the events of Ant-Man and the Wasp don't tie into Avengers: Infinity War, and this creates a weird respite, reminding audiences of the entertainment derived from past Marvel features like Thor: Ragnarok and Spider-Man: Homecoming.", "is_fresh": 1, "author": ["Kristen Lopez"]},
{"text": "[\"Ant-Man and The Wasp\"] is pretty much exactly what I'd want in a superhero movie: a funny cast, zippy action scenes and not an infinity stone in sight.", "is_fresh": 1, "author": ["Jake Coyle"]},
{"text": "Ant-Man and the Wasp is a classic Marvel superhero film but also a fresh palette cleanse to the MCU we've known for so long.", "is_fresh": 1, "author": ["Steph Cozza"]},
{"text": "Light and breezy, it's a worthwhile superhero sequel.", "is_fresh": 1, "author": ["Brad Keefe"]},
{"text": "Ant-Man and the Wasp is a fun-sized flick.", "is_fresh": 1, "author": ["Joe Gross"]},
{"text": "Here's how professor-level particle physics filters down to the general public: via \"Ant-Man.\" Much more fun this way. Definitely worth the price of a movie ticket.", "is_fresh": 1, "author": ["Mark Jackson"]},
{"text": "I won't say that \"Ant-Man and the Wasp\" feels fresh and inventive all the way through, but it certainly has its moments.", "is_fresh": 1, "author": ["Colin Covert"]},
{"text": "[Peyton Reed] keeps it all breezy, light and laced with humor.", "is_fresh": 1, "author": ["George Thomas"]},
{"text": "As the saying goes, good things come in small packages. ", "is_fresh": 1, "author": ["Dana Barbuto"]},
{"text": "Ant-Man and the Wasp runs nearly two hours, but its merry mix of deft one-liners, visual gags, restrained action sequences and subatomic protoplasmic spectacle never drags, especially with Rudd's witty, confident performance.", "is_fresh": 1, "author": ["Dann Gire"]},
{"text": "I'm not ashamed to say that I most enjoyed \"Ant-Man\" when it felt like a sequel in spirit to \"Honey, I Shrunk the Kids.\" \"Ant-Man and the Wasp\" doubles down on that vibe and then some.", "is_fresh": 1, "author": ["Steven D. Greydanus"]},
{"text": "If Ant-Man and the Wasp is hard to love, it's also hard to actively dislike.", "is_fresh": 1, "author": ["Stephanie Zacharek"]},
{"text": "It's like the movie-going equivalent of a beach read.", "is_fresh": 1, "author": ["Maren Longbella"]},
{"text": "Ant-Man and the Wasp is entertaining from beginning to end, especially after the apocalyptic \"Infinity War.\" [Full review in Spanish]", "is_fresh": 1, "author": ["Ruben Peralta Rigaud"]},
{"text": "A welcomed change of stakes and tone, coming from Infinity War. Lighthearted, fast and funny, Ant-Man and the Wasp is a solid sequel to the original. [Full review in Spanish] ", "is_fresh": 1, "author": ["Fico Cangiano"]},
{"text": "Ant-Man and the Wasp is a hilariously, fun action-flick that takes the edge off the tragic ending of Avengers: Infinity War.", "is_fresh": 1, "author": ["Alan Ng"]},
{"text": "Funny, action-packed sequel is lighter Marvel fare. ", "is_fresh": 1, "author": ["Sandie Angulo Chen"]},
{"text": "The adventure is swallowed up by exhausting attempts at humor that don't land nearly often enough.", "is_fresh": 0, "author": ["Blake Crane"]},
{"text": "A good time at the movies... If the first film felt more carefully laid out, the sequel succeeds in stoking some Pixar-style emotion in its family dynamics...", "is_fresh": 1, "author": ["Peter Canavese"]},
{"text": "This terminally boring, by-the-numbers installment is credited to five screenwriters and all they've come up with is an inverse game of hot potato with the usual assembly of players (the good guys, the bad guys, the law and a wild card).", "is_fresh": 0, "author": ["Laura Clifford"]},
{"text": "It's fun, it's funny, and it's got such lower stakes than Avengers: Infinity War that it's practically the equivalent of a relaxing Sunday afternoon in the Marvel Cinematic Universe.", "is_fresh": 1, "author": ["Britton Peele"]},
{"text": "We'll get back to the fight against Thanos soon enough. Enthusiasts can resume arguing over various aspects of Marvel minutiae then. For now, \"Ant-Man and the Wasp\" is a nice break.", "is_fresh": 1, "author": ["Bill Goodykoontz"]},
{"text": "There's a lot going on here, which leads to a whole lot of gassy exposition to explain it all, including two separate scenes in which two different groups of good guys are tied to chairs while villains bloviate on the intricacies of the plot.", "is_fresh": 0, "author": ["Soren Andersen"]},
{"text": "Turns out there is a plot device more annoying than time travel - quantum. But the make-it-up-as-we-go-along story aside, Reed still has a flair for using toys at his disposal - glitchy shrinking/growing devices, sight gags, Scott's giant ant pals, etc.", "is_fresh": 1, "author": ["Jim Slotek"]},
{"text": "The funniest part of Ant-Man and the Wasp is the fact Marvel followed their despairing Avengers: Infinity War cliffhanger with a disposable side-adventure. Are they having a laugh? Yes, and loving it.", "is_fresh": 1, "author": ["Simon Miraudo"]},
{"text": "Its quiet optimism feels both welcome and badly needed. ", "is_fresh": 1, "author": ["Rob Vaux"]},
{"text": "Ant-Man and the Wasp is all in pursuit of some MCU masterplan. If only the journey there was a bit more of a buzz.", "is_fresh": 0, "author": ["Andrew Frisicano"]},
{"text": "Paul Rudd gets plenty of big (and small) laughs in Ant-Man And The Wasp, a Marvel outing thankfully on the light side, with a breakthru female character co-headlining a Marvel film for the first time.", "is_fresh": 1, "author": ["Pete Hammond"]},
{"text": "Bursting with dynamic special effects, skillful action, and a gentle human element that never gets displaced.", "is_fresh": 1, "author": ["Dustin Putman"]},
{"text": "Funny, enticing, a Marvel treasure, I loved it!", "is_fresh": 1, "author": ["Diana Saenger"]},
{"text": "Truly Marvel. [Full Review in Spanish] ", "is_fresh": 1, "author": ["Alberto Corona"]},
{"text": "A light, watered-down tonic leading up to next May's Avengers 4 extravaganza. ", "is_fresh": 0, "author": ["Mara Reinstein"]},
{"text": "Ant-Man and the Wasp may not be the best anything, but, like its perpetually challenged hero, it is plenty good enough.", "is_fresh": 1, "author": ["Simon Abrams"]},
{"text": "The earlier film's freewheeling, low-key loopiness is replaced by a dull and dutiful plot that, with its forced references to other Marvel installments, squeezes the action to fit the franchise.", "is_fresh": 0, "author": ["Richard Brody"]},
{"text": "What came naturally, and perhaps accidentally, the first time out feels practiced and artificial here. The rhythm is, slightly but persistently, off.", "is_fresh": 0, "author": ["Glen Weldon"]},
{"text": "Ant-Man and the Wasp is so breezy and charming that what would be defects in a more self-serious film are assets here.", "is_fresh": 1, "author": ["Travis Johnson"]},
{"text": "I found this movie totally engaging. Rudd is absolutely charming and, as we've seen before, very funny. ", "is_fresh": 1, "author": ["Jeanne Kaplan"]},
{"text": "ANT-MAN AND THE WASP is solid family fun, and if you missed the first installment from 2015, it doesn't matter --- you will still enjoy the sequel. Having said that, however, the movie is a bit too long at a shade under two hours. ", "is_fresh": 1, "author": ["David Kaplan"]},
{"text": "There are few, if any, surprises delivered through the course of \"Ant-Man and the Wasp.\" In fact, I was bored more than once and found myself checking the time - frequently. ", "is_fresh": 0, "author": ["Robin Clifford"]},
{"text": "This focus on family and extended family gives Ant-Man and The Wasp a little more heart than most superhero films.", "is_fresh": 1, "author": ["Beth Accomando"]},
{"text": "If any word sums up Ant-Man and The Wasp it's the one you never want to hear about a sequel: Extraneous.", "is_fresh": 0, "author": ["Joshua Starnes"]},
{"text": "As much as the jokes are funny and mostly work, it starts to get in the way of the drama, or at least the emotional heft, that they're trying to go for with what is ultimately this rescue story. ", "is_fresh": 0, "author": ["Matt Atchity"]},
{"text": "There is more of an emotional underpinning to this one than there was in the first one because of the Michelle Pfeiffer element to it. ", "is_fresh": 1, "author": ["Christy Lemire"]},
{"text": "Big laughs, small concerns.", "is_fresh": 1, "author": ["Max Covill"]},
{"text": "Adequate to sate the audience between the major tentpoles.", "is_fresh": 1, "author": ["Jason Gorber"]},
{"text": "\"Ant-Man and the Wasp\" is merry and fleet, and no less enjoyable for being instantly forgettable. The buzz might be temporary, but it's fun while it lasts.", "is_fresh": 1, "author": ["Ann Hornaday"]},
{"text": "Showcasing Marvel's funny, family-friendly side, \"Ant-Man and the Wasp\" is just fine. And given the heavy narrative that played out in \"Infinity War,\" it's a tiny reprieve from all the death and destruction.", "is_fresh": 1, "author": ["Jonathan W. Hickman"]},
{"text": "It's a movie that understands all the variances of scale, and takes the audience along for the ride as they constantly change.", "is_fresh": 1, "author": ["Tasha Robinson"]},
{"text": "This is a wonderful toy that one imagines young girls in particular would like - and it's hard to believe that there will be anything funnier this summer.", "is_fresh": 1, "author": ["Richard von Busack"]},
{"text": "It's a dazzling, fast-paced, outrageously funny superhero romp that feels more cohesive than its 2015 predecessor, Ant-Man...", "is_fresh": 1, "author": ["Bernard Boo"]},
{"text": "It comes close to greatness but stops a little short. And that's not a big deal.", "is_fresh": 1, "author": ["William Bibbiani"]},
{"text": "Instantly forgettable and habitually unfunny.", "is_fresh": 0, "author": ["Brian Orndorf"]},
{"text": "Scruffy, understated and fun, the sequel sidesteps just about all of the gravitas left hanging after the events of April's highly-anticipated superhero crossover.", "is_fresh": 1, "author": ["Todd Gilchrist"]},
{"text": "Ant-Man and the Wasp is a nice lighthearted breather from recent devastating MCU events; this isn't the first time Ant-Man has had a tough act to follow, and judging from this sequel, it won't be the last, as the successful levity is welcome", "is_fresh": 1, "author": ["Robert Kojder"]},
{"text": "Ant-Man and the Wasp is undoubtedly a laugh-out-loud blockbuster superhero movie that will entertain audiences and provide a much-needed break to all the drama happening elsewhere in the Marvel Universe after Avengers: Infinity War.", "is_fresh": 1, "author": ["Ashley Menzel"]},
{"text": "Not everything has to be serious and epic, sometimes having fun is just what we need. ", "is_fresh": 1, "author": ["Scott Menzel"]},
{"text": "Ant-Man and the Wasp is delightful from start to finish, especially after the apocalyptic Infinity War.", "is_fresh": 1, "author": ["Daniel Eagan"]},
{"text": "A sequel... is automatically more interesting because it is building off the history of another movie. This proves true with Ant-Man and The Wasp, but not because it's the sequel to Ant-Man, rather because it's the sequel to Captain America: Civil War.", "is_fresh": 1, "author": ["Fred Topel"]},
{"text": "Occasionally agreeable but ultimately disposable, [it's] a bauble that feels less like a fun side journey and more like a waste of everybody's time. ", "is_fresh": 0, "author": ["Will Leitch"]},
{"text": "The movie takes nothing, including itself, seriously, and just runs on as a nice caper with relatively low stakes and goofball humor.", "is_fresh": 1, "author": ["Matt Goldberg"]},
{"text": "The payoffs aren't plot points but the gags, which somehow defuse the tension without turning the picture into camp. ", "is_fresh": 1, "author": ["David Edelstein"]},
{"text": "\"Ant-Man and the Wasp,\" the first sequel to 2015's \"Ant-Man,\" is barely an exoskeleton next to its much better predecessor.", "is_fresh": 0, "author": ["Johnny Oleksinski"]},
{"text": "Ant-Man and the Wasp brings humor and levity back to the Marvel Cinematic Universe. It's loaded with incredible action scenes, really amping up the visual effects from the first film.", "is_fresh": 1, "author": ["Julian Roman"]},
{"text": "Inconsequential, but damn, is it fun.", "is_fresh": 1, "author": ["Kyle Anderson"]},
{"text": "No sting here: this one's a big, happy hit.", "is_fresh": 1, "author": ["Joanna Langfield"]},
{"text": "Almost as enjoyable as the first. Not quite the same impact, but a good ride from start to finish.", "is_fresh": 1, "author": ["Mark Ellis"]},
{"text": "I loved the action, I loved a lot of the humor, but it wasn't as good as the first one in my opinion...", "is_fresh": 1, "author": ["Kristian Harloff"]},
{"text": "Ant-Man and the Wasp works well enough.", "is_fresh": 1, "author": ["Brian Lowry"]},
{"text": "What the film does best, though, is entertain us with a kinetic romp through the Marvel Cinematic Universe without being held down by it.", "is_fresh": 1, "author": ["Travis Hopson"]},
{"text": "Ant-Man & The Wasp is a triumph not because it sees its heroes saving us all from oblivion, but because they desire the same comfort their audience does when they're possibly doomed to the void: a gentle embrace from those closest to them.", "is_fresh": 1, "author": ["Jacob Knight"]},
{"text": "Delivers giant sized laughs, fun thrills and is all together a perfectly timed chapter of Phase 3 to loosen the mood up for MCU fans.", "is_fresh": 1, "author": ["Jeffrey Lyles"]},
{"text": "A blast of pure popcorn fun, and something of a palate cleanser after the weightier likes of Black Panther and Infinity War. ", "is_fresh": 1, "author": ["Matt Maytum"]},
{"text": "While Ant-Man and The Wasp is a bit lighter than the average Marvel film... the comedy is subtle and fits in well with the storyline.", "is_fresh": 1, "author": ["Michael Sangiacomo"]},
{"text": "The script is snappy, and the jokes keep coming, making Ant-Man and the Wasp a healing balm after the dark ending of May's Avengers: Infinity War.", "is_fresh": 1, "author": ["Anne Cohen"]},
{"text": "Ant-Man And The Wasp is arguably even more of a straightforward comedy, to the point that it doesn't even have a primary villain.", "is_fresh": 1, "author": ["Ignatiy Vishnevetsky"]},
{"text": "Ant-Man and the Wasp is a crowd-pleaser of a film, and a reminder that great characters and fun scripts are what make enjoyable comic book movies-not just a huge shared universe.", "is_fresh": 1, "author": ["Germain Lussier"]},
{"text": "Ant-Man and the Wasp is a two-hour mental break when a lot of people could need a mental break.... I mean this as a huge compliment.", "is_fresh": 1, "author": ["Mike Ryan"]},
{"text": "There's no getting away from the fact that Ant-Man And The Wasp, as fun as it is, lacks the sheer, mind-blowing heft of Infinity War... In this new era of Marvel over-achievement, it really does feel like a lesser work.", "is_fresh": 1, "author": ["Dan Jolin"]},
{"text": "Ant-Man and the Wasp is a hilarious return to the shrinking heroes, but with elevated action and a heartfelt story, it's a well-rounded Marvel sequel.", "is_fresh": 1, "author": ["Molly Freeman"]},
{"text": "It's disjointed, and cluttered, but it's also entertaining in spurts. Is that enough? Just about, and not quite.", "is_fresh": 0, "author": ["Bilge Ebiri"]},
{"text": "With its constant humor and the energetic chemistry between Rudd and Lilly, \"Ant-Man and the Wasp\" is the most playful of the Marvel movies", "is_fresh": 1, "author": ["Sean P. Means"]},
{"text": "This is one of those Marvel products peddling self-aware detachment as a defining narrative strategy...It feels less like a feature film than a meme somebody made about an Ant-Man trailer.", "is_fresh": 0, "author": ["Darren Franich"]},
{"text": "The basic necessities of narrative momentum are given the requisite focus and care that in better properties can produce exceptional Marvel entertainments... but in the case of Ant-Man, words like \"basic\" and \"requisite\" are always the ceiling.", "is_fresh": 0, "author": ["David Crow"]},
{"text": "The thrill of the film is watching Ant-Man and the Wasp team up and raise hell together.", "is_fresh": 1, "author": ["Peter Travers"]},
{"text": "You might wish the whole movie had found a way to go quantum; you'll certainly long for more Pfeiffer, who has too few scenes but invests each of them with her usual luminosity.", "is_fresh": 1, "author": ["Justin Chang"]},
{"text": "Ant-Man and The Wasp brings some much-needed comedy to the Marvel Cinematic Universe.", "is_fresh": 1, "author": ["Danielle Solzman"]},
{"text": "This is a very funny movie that I laughed out loud to more times than I can count.", "is_fresh": 1, "author": ["Kaila Hale-Stern"]},
{"text": "Ant-Man and The Wasp is a great breather that was sorely needed after Infinity War. It makes me appreciate Avengers more while allowing me to breath, kick up my feet, and just have fun for two hours.", "is_fresh": 1, "author": ["Garrett Green"]},
{"text": "Ant-Man and the Wasp is an airy, nimble piece of filmmaking: Reed's confidence to unapologetically embrace weirdness gives the franchise its distinctly playful spirit. ", "is_fresh": 1, "author": ["Alex Abad-Santos"]},
{"text": "\"Ant-Man and the Wasp\" has its moments, but it doesn't quite measure up to the original.", "is_fresh": 0, "author": ["Rafer Guzman"]},
{"text": "It's a lively, funny and unapologetically fantastical change-of-pace from the last few \"gotta save the world\" MCU epics. ", "is_fresh": 1, "author": ["Scott Mendelson"]},
{"text": "Its comedy is wonderfully offbeat, its heart is huge and emblazoned on its sleeve, and its intentions are wildly optimistic and bright.", "is_fresh": 1, "author": ["Meg Downey"]},
{"text": "Improving on the lackluster 2015 original, \"Ant-Man and the Wasp\" is winningly modest, no small feat for a film which is part of the gargantuan Marvel Cinematic Universe. ", "is_fresh": 1, "author": ["Tim Grierson"]},
{"text": "Ant-Man and the Wasp never forgets that it's a part of one of the comedic pillars of the MCU, and it keeps the jokes flying fast and free.", "is_fresh": 1, "author": ["Caroline Siede"]},
{"text": "Rudd is such a friendly, likable presence; he sets this movie's pace, while Lilly's fiercely committed Hope/Wasp acts as the perfect counterweight. Rudd's scenes with Lilly and with Fortson make the movie matter in human terms.", "is_fresh": 1, "author": ["Michael Phillips"]},
{"text": "Ant-Man And The Wasp surpasses the original by miles, functioning best when it embraces its sheer absurdity and loopy lunacy.", "is_fresh": 1, "author": ["Courtney Howard"]},
{"text": "It seems pretty nice. Would that we could wrestle the rest of the world down to that same agreeable scale.", "is_fresh": 1, "author": ["Richard Lawson"]},
{"text": "While Ant-Man's technically \"the star,\" this is most definitely the Wasp's movie to own, and the smirking, enjoyably no-nonsense role fits Lilly well.", "is_fresh": 1, "author": ["Brian Truitt"]},
{"text": "Isn't the funniest Marvel movie ever made, or the deepest or the coolest or the most creative. But it just might be the nicest, and that counts for something.", "is_fresh": 1, "author": ["Angie Han"]},
{"text": "The essence of \"Ant-Man\" is inherently silly, and that's where the strength of the new movie lies. ", "is_fresh": 1, "author": ["Eric Kohn"]},
{"text": "The rest of the Marvel family could learn a thing or two from the scrappy small-scale of their tiniest colleague.", "is_fresh": 1, "author": ["Jordan Raup"]},
{"text": "Ant-Man and the Wasp is a comparatively modest film that puts a premium on fun.", "is_fresh": 1, "author": ["J.R. Kinnard"]},
{"text": "Ant-Man and the Wasp is the funniest movie Marvel has made yet.", "is_fresh": 1, "author": ["Susana Polo"]},
{"text": "The good news is, Ant-Man and the Wasp is better than the first film.", "is_fresh": 1, "author": ["Josh Spiegel"]},
{"text": "After a rough start in the previous entry, director Peyton Reed seems much more comfortable balancing wacky antics, familial bonds and over-the-top superhero set pieces this time around.", "is_fresh": 1, "author": ["Alonso Duralde"]},
{"text": "Ant-Man and The Wasp is bolder, funnier, and far more daring than the film that preceded it, but also slightly less even and narratively tight.", "is_fresh": 1, "author": ["Conner Schwerdtfeger"]},
{"text": "Ant-Man and The Wasp isn't an essential Marvel movie, but it's further proof that good things come in small packages.", "is_fresh": 1, "author": ["Laura Prudom"]},
{"text": "This latest entry in the unstoppable Marvel Studios takeover of the world is probably the most amusing film the company has made since the Kevin Feige reign began a decade ago.", "is_fresh": 1, "author": ["Todd McCarthy"]},
{"text": "Like the first movie, director Peyton Reed (\"Bring It On\") mixes action and laughs to deliver one of the most enjoyable moviegoing experiences you'll have this summer. ", "is_fresh": 1, "author": ["Jason Guerrasio"]},
{"text": "Ant-Man and the Wasp has a pleasingly breakneck, now-you-see-it-now-you-don't surreal glee. It's a cunningly swift and delightful comedy of scale.", "is_fresh": 1, "author": ["Owen Gleiberman"]},
{"text": "M\u00eame sans l'effet de surprise, cette suite s'av\u00e8re tr\u00e8s r\u00e9jouissante. [Full review in French]", "is_fresh": 1, "author": ["Kevin N. Laforest"]},
{"text": "Stories come in all shapes and sizes and \"Ant-Man And The Wasp\" proves not all their superhero movies need to be blockbusters about saving the world.", "is_fresh": 1, "author": ["Rodrigo Perez"]},
{"text": "Ebulliently funny, visually inventive, and above all passionately committed to the idea that heroism isn't a burden but an uplifting realization of our best qualities.", "is_fresh": 1, "author": ["Jake Cole"]},
{"text": "A small step up from the first Ant-Man.", "is_fresh": 1, "author": ["Matt Singer"]},
{"text": "Ant-Man And The Wasp is the kind of playtime entertainment suited for Scott Lang's better-when-on-a-team personality, loaded with size-shifty sight gags and lower stakes worth Paul Rudd's ensemble stardom.", "is_fresh": 1, "author": ["Matt Donato"]}
]