[
{"reviews_count": "120", "title": "Armageddon", "avg_audience_rating": "3.5", "rotten_count": "75", "tomatometer": "38", "audience_score": "73", "avg_critic_rating": "5.2", "fresh_count": "45", "user_ratings_count": "909,424"},
{"text": "[Michael Bay's] hyper jaunty technique of cut, cut, cut leaves the audiences gasping for air, and never lets a scene's impact truly sink in. ", "is_fresh": 0, "author": ["Zaki Hasan"]},
{"text": "There are great disasters flicks but Armageddon is not one of them.", "is_fresh": 0, "author": ["Danielle Solzman"]},
{"text": "Armageddon is big and noisy and stupid and shameless and it's going to be huge at the box office.", "is_fresh": 0, "author": ["Jay Carr"]},
{"text": "Virtually nothing happens, and it happens at the most unrelenting speed.", "is_fresh": 0, "author": ["Tim Brayton"]},
{"text": "The special effects are spectacular, even if the acting and script are patchy, but at two and half hours long, it overstays its welcome.", "is_fresh": 0, "author": []},
{"text": "How does Armageddon, a movie obsessed with countdowns and countdown clocks, manage to redefine -- downward -- the standard for summer stupidity? Let me count the ways.", "is_fresh": 0, "author": ["Joe Morgenstern"]},
{"text": "It's strictly a side issue whether mankind will survive colliding with an asteroid the size of Texas; the real question is whether Liv Tyler, who plays Bruce Willis's daughter, gets to keep her boyfriend.", "is_fresh": 0, "author": ["Jonathan Rosenbaum"]},
{"text": "By the time Bay and Bruckheimer appropriate John F. Kennedy's image in their final small-town-America montage, it's clear their pomposity knows no limits.", "is_fresh": 0, "author": ["Ann Hornaday"]},
{"text": "The special effects are the best that $150 million can buy and the script plays like a near-afterthought.", "is_fresh": 0, "author": ["Desmond Ryan"]},
{"text": "The end of the world is going to be very noisy and filled with some of the worst dialogue ever.", "is_fresh": 0, "author": ["Jami Bernard"]},
{"text": "Armageddon peels your eyelids back and blows your eardrums out until rational analysis is moot.", "is_fresh": 1, "author": ["Michael O'Sullivan"]},
{"text": "Producer Jerry Bruckheimer and director Michael Bay are slick Hollywood operators who know exactly what they're doing: Armageddon's heart beats strongly, but it's pumping adrenaline rather than blood.", "is_fresh": 1, "author": ["Leah Rozen"]},
{"text": "Just when you think you've had it with this movie, there comes a farcical, rock 'n' roll sort of comedy sequence, or a hilariously goofy line.", "is_fresh": 1, "author": ["Jay Boyar"]},
{"text": "Most of the time, Armageddon simply makes your head hurt.", "is_fresh": 0, "author": ["Manohla Dargis"]},
{"text": "If you're going to blow up the world -- or advertise your intentions to do so -- you might as well have some laughs along the way.", "is_fresh": 1, "author": ["Michael Wilmington"]},
{"text": "Affleck demonstrates a sexy Paul Newmanish charm and is clearly bound for stardom.", "is_fresh": 1, "author": ["Daphne Merkin"]},
{"text": "It's such a thrill ride, in fact, that after its 2 1/2 hours of thrills, you're likely to feel more pummeled than entertained, which is just the point.", "is_fresh": 1, "author": ["Matt Soergel"]},
{"text": "Bay directs Armageddon in a way that seems more concerned with constantly assaulting the senses than anything else, hoping perhaps that the quick cuts and constant explosions will distract from his film's many flaws.", "is_fresh": 0, "author": ["Keith Phipps"]},
{"text": "So predictable it could have been written by a chimp who's watched too much TV, the huge movie is as dumb as it is loud, and it's way too loud. Watching it is like putting your head in a tin washbucket while weightlifters whack it with golf clubs.", "is_fresh": 0, "author": ["Stephen Hunter"]},
{"text": "Bay has simply botched the job. His action sequences, especially those on the asteroid, are impenetrable and chaotic. And the narrative, larded with the usual military double-cross, is preposterous.", "is_fresh": 0, "author": ["Gary Thompson"]},
{"text": "[Bay's] movies are trailers for themselves. Every scene is all climax and no foreplay. When it's all over you can't remember if you've been watching a movie or just a jumbo-sized coming attraction.", "is_fresh": 0, "author": ["Peter Rainer"]},
{"text": "If you've seen any of a dozen similar disaster movies, you know how it all turns out.", "is_fresh": 0, "author": ["Todd Anthony"]},
{"text": "The loved-up subplot is a low point but, within such an expert thrill ride, it's not the end of the world.", "is_fresh": 1, "author": ["Andrew Collins"]},
{"text": "Of course, the special effects are dazzling.", "is_fresh": 1, "author": ["Forrest Green III"]},
{"text": "With a plot-free second half, it's more a $140 million pizza-and-six-pack film than a worthy contender to action classics like Face/Off or Die Hard.", "is_fresh": 0, "author": []},
{"text": "Armageddon -- slick, overblown and formulaic to its core -- nevertheless amounts to this season's closest screen equivalent to an apocalyptic thrill ride.", "is_fresh": 1, "author": ["Philip Booth"]},
{"text": "This deeply stupid film purports to be a tender love story, a meaty action-adventure and a global disaster movie. Quite bafflingly, it often struggles to be all of these things at once.", "is_fresh": 0, "author": ["Ryan Gilbey"]},
{"text": "It's schlock, sure, but it's fun schlock with good performances and good special effects and a reasonably brisk script. It pushes all the right buttons in two formulas -- action-comedy and adventure.", "is_fresh": 1, "author": ["Ted Anthony"]},
{"text": "While there's some crater-sized flaws if you want to be nit-picky, this is Bay's finest, earnestly entertaining film and an easy crowd pleaser.", "is_fresh": 1, "author": ["Jeffrey Lyles"]},
{"text": "An often loud, bright, irritating and occasionally intrusive film...", "is_fresh": 0, "author": ["Felix Vasquez Jr."]},
{"text": "A silly, noisy, overlong, star-driven popcorn movie about the end of the world", "is_fresh": 0, "author": ["Emanuel Levy"]},
{"text": "The color-corrected Life magazine pictorial-style imagery and excessive use of slo-mo are far more annoying than they are easy on the eyes, and the hyperactive editing is unbearable. [Blu-ray]", "is_fresh": 0, "author": ["Peter Canavese"]},
{"text": "It's easy to be sucked in by all the glossy, nostalgic images that flash across the screen like some sort of psychological experiment, but like most of the director's other films, most is forgettable shortly thereafter.", "is_fresh": 0, "author": ["Ryan Cracknell"]},
{"text": "It's noisy, glossy, and excessive, and more than a tad simplistic -- but it's also nearly irresistible. ", "is_fresh": 1, "author": ["Jeffrey M. Anderson"]},
{"text": "...this is a critic-proof crowd-pleaser that purposely intones God, Mom, and apple pie before pushing every other jingoistic, proto-patriotic button out there.", "is_fresh": 1, "author": ["Bill Gibron"]},
{"text": "Of all the Michael Bay films out there, Armageddon is the Michael Bayest.", "is_fresh": 0, "author": ["Rob Vaux"]},
{"text": "Not awful.", "is_fresh": 1, "author": ["Rob Nelson"]},
{"text": "That said, Armageddon is still good. Well, maybe good isn't the right word. It is very entertaining and even features (gulp) a female in a sort of important role.", "is_fresh": 1, "author": ["Jon Popick"]},
{"text": "Bruce Willis saves the world but can't save \"Armageddon.\"", "is_fresh": 0, "author": ["Todd McCarthy"]},
{"text": "I must confess that at times I found myself rooting for the meteor to hit the Earth and put us all out of our misery.", "is_fresh": 0, "author": ["Andrew Sarris"]},
{"text": "This idiotic film is loud, boorish and smart enough to relish its own lunkhead bravado.", "is_fresh": 1, "author": ["Tom Charity"]},
{"text": "This second and much anticipated big-rock-hitting-the-earth science fiction event epic is a major disappointment.", "is_fresh": 0, "author": ["Robin Clifford"]},
{"text": "A Godzilla-sized blockbuster -- it's an outrageous spectacle, without many brains to speak of, but its heart in the right place.", "is_fresh": 1, "author": ["Jeffrey Overstreet"]},
{"text": "Where things fall apart are the scenes that try to put in characterisation, and, God help us, comic relief.", "is_fresh": 0, "author": ["Ian Waldron-Mantgani"]},
{"text": "Armabludgeon is like a roller coast--occasionally exciting, but in the end you've been taken for a long, nauseating ride.", "is_fresh": 0, "author": ["Carlo Cavagna"]},
{"text": "Tenso e com bons efeitos visuais, o filme funciona como divers\u00e3o (apesar dos clich\u00eas).", "is_fresh": 1, "author": ["Pablo Villa\u00e7a"]},
{"text": "Resolute on violating every law of dramatic unity and physics, Armageddon makes Deep Impact look like a documentary.", "is_fresh": 0, "author": ["Jeffrey Westhoff"]},
{"text": "It won't get bigger, slicker, glossier or more fun this summer.", "is_fresh": 1, "author": ["Jeanne Aufmuth"]},
{"text": "Camerawork is not supposed to be the star of the picture; the fact that it's the best thing in the movie says something.", "is_fresh": 0, "author": ["John R. McEwen"]},
{"text": "Bay's astronauts show us how to disable the sort of worthless debris that can threaten us from the cosmos, but a more pressing problem is how we might deflect the petrified garbage that the director himself keeps hurling at our cineplexes.", "is_fresh": 0, "author": ["Nick Davis"]},
{"text": "I just think these guys should learn you can tell a story with more subtlety over two and a half hours than they do over three minutes.", "is_fresh": 1, "author": ["Ron Wells"]},
{"text": "There unquestionably is a lot of energy in Armageddon. But like the pieces of the asteroid that break off and spin harmlessly into space, much of it comes to naught.", "is_fresh": 0, "author": ["Jeff Strickler"]},
{"text": "It's an awful movie, so outrageously excessive that it could be a parody of itself.", "is_fresh": 0, "author": ["Margaret A. McGurk"]},
{"text": "It's still a noisy and dumb flick, but as far as summer popcorn movies go, who cares?", "is_fresh": 1, "author": ["Kevin N. Laforest"]},
{"text": "breathless and utterly brainless... makes the similarly themed and much more sentimental 'Deep Impact' look like 'Schindler's List' by comparison.", "is_fresh": 0, "author": ["James Sanford"]},
{"text": "Yes, in this film the honors-science students are obliged to sit back and watch as the shop class saves the world.", "is_fresh": 0, "author": ["Steven D. Greydanus"]},
{"text": "All the movie's staggering conventional weaknesses -- ludicrous plot, weak characterization, incomprehensible staging and ambient racket -- are irrelevant.", "is_fresh": 0, "author": ["Liam Lacey"]},
{"text": "Not long into Armageddon's two-and-a-half-hour length I found myself thinking, \"Let the planet go -- nothing is worth this aggravation.\"", "is_fresh": 0, "author": ["Peter Keough"]},
{"text": "A few daring antiheroes who have nothing to lose prove themselves up to the challenge of saving the world.", "is_fresh": 1, "author": ["Frederic and Mary Ann Brussat"]},
{"text": "one of the most calculating films of all of this year's blockbusters.", "is_fresh": 1, "author": ["Brandon Judell"]},
{"text": "Do you ride rollercoasters for insight into your psyche? NO. Do you see Armageddon to be lambasted with great special effects, & incredible acts of derring-do? Yes, you do.", "is_fresh": 1, "author": ["Karina Montgomery"]},
{"text": "Bay loves to place the camera in the path of meteors or pieces of spaceships or airborne cars. Did one of these projectiles conk him on his noggin? Is that why \"Armageddon\" is so utterly and thoroughly incompetent?", "is_fresh": 0, "author": ["Charles Taylor"]},
{"text": "I hate Armageddon for what it is: the unholy spawn of The Dirty Dozen and Con Air.", "is_fresh": 0, "author": ["Peter Travers"]},
{"text": "...a pretty muddled piece of filmmaking.", "is_fresh": 0, "author": ["John J. Puccio"]},
{"text": "A high-octane, rocket-propelled assault on the senses.", "is_fresh": 1, "author": ["Andrew Howe"]},
{"text": "Too long, too loud, and featuring more camera movement and fast edits than ten other movies put together, Armageddon will be a powerful test of how far action directors can push the line before they wear audiences to a frazzle.", "is_fresh": 0, "author": ["James Kendrick"]},
{"text": "Sporadically watchable, it's at its best at those infrequent moments when it doesn't take itself too seriously.", "is_fresh": 0, "author": ["Kenneth Turan"]},
{"text": "While Armageddon has great special effects, non-stop action and comedy and some good acting talent, it lacks scientific credibility, the editing is choppy and the characterizations are weak.", "is_fresh": 0, "author": ["Robert Roten"]},
{"text": "A real movie about courage in space is Apollo 13, in which fear and sacrifice have meaning. This jingoistic, overblown spectacle is about whistling in the dark.", "is_fresh": 0, "author": ["Janet Maslin"]},
{"text": "For all the uneven visceral enjoyment that it's worth, Touchstone Pictures proudly presents Armageddon: a blockbuster a la carte.", "is_fresh": 1, "author": ["Scott Renshaw"]},
{"text": "...the latest in a line of increasingly-stupid action pictures that amazes audiences with flashy special effects and nifty action sequences, but leaves them high and dry in both the character and story departments.", "is_fresh": 1, "author": ["James Berardinelli"]},
{"text": "The movie is an assault on the eyes, the ears, the brain, common sense and the human desire to be entertained.", "is_fresh": 0, "author": ["Roger Ebert"]},
{"text": "The only compelling lure is the special effects, which are sometimes impressive, sometimes transparent, yet somehow always inadequate to the apocalyptic task at hand.", "is_fresh": 0, "author": ["John Hartl"]},
{"text": "There are many things to dislike about Armageddon, from its stunningly straight-faced Charlton Heston introduction to its casual contempt for the Greenpeace activists protesting the drilling of oil wells", "is_fresh": 0, "author": ["Robert Horton"]},
{"text": "...why couldn't the film have tapped into a more noble and stylish tradition? Why couldn't these men have been interesting instead of cartoons?", "is_fresh": 0, "author": ["Tom Keogh"]},
{"text": "It delivers the thrill-ride twists and turns, exciting but not surprising.", "is_fresh": 1, "author": ["Sean P. Means"]},
{"text": "As a summer popcorn flick, the film has its moments and is ultimately enjoyable, even though the fate of the planet seems to take a backseat plotwise to the fate of Liv Tyler and Ben Affleck's goo-goo-eye-making.", "is_fresh": 1, "author": ["Christine James"]},
{"text": "It is impossible to take a movie like this seriously. Unfortunately, the movie tries to force us to do just that a few times too many.", "is_fresh": 0, "author": ["Eric D. Snider"]},
{"text": "This sci-fi special is clearly no intelligentsia brain-teaser.", "is_fresh": 0, "author": []},
{"text": "The movie opens with the destruction of Manhattan by meteor shower, and, midway through, Paris gets wiped out as well. Naturally, no one blinks an eye.", "is_fresh": 0, "author": ["Owen Gleiberman"]},
{"text": "The summer thrill ride movie is becoming as much of a 4th of July tradition as the picnic and the fireworks.", "is_fresh": 1, "author": ["Nell Minow"]},
{"text": "...this film reaches its real dramatic power because it embroils us in deeper issues of heart and spirit.", "is_fresh": 1, "author": ["Cornell & Petricelli"]},
{"text": "What's really invigorating about Armageddon is that it's a true adventure film.", "is_fresh": 1, "author": ["John Paul Powell"]},
{"text": "Along with the rest of the audience, I jumped when I was meant to jump, laughed when I was meant to laugh, and swallowed a lump in my throat when I was meant to feel moved.", "is_fresh": 1, "author": ["David Edelstein"]},
{"text": "American women are either bitches, whores, or semivirginal nymphs who need the protection of a manly man.", "is_fresh": 0, "author": ["MaryAnn Johanson"]},
{"text": "In a dismal summer for popcorn movies, this epic may be the silliest but still looks like the best shot.", "is_fresh": 1, "author": ["Angie Errigo"]},
{"text": "In several shots, the poor, deprived, unskilled and timid folks of Europe, Asia and Africa pray for the brave Yanks to save their butts.", "is_fresh": 0, "author": ["Jack Garner"]},
{"text": "For some reason, even though the asteroid is \"as big as Texas\", they only need to drill 800 feet to get to the very center.", "is_fresh": 0, "author": ["Madeleine Williams"]},
{"text": "It's not gonna hurt ya, but it ain't gonna help ya.", "is_fresh": 0, "author": ["Oz"]},
{"text": "The film's flaws will shoot right past much of its target audience, which is there to take a thrill ride into a fearsome fantasy.", "is_fresh": 1, "author": ["Urban Cinefile Critics"]},
{"text": "For sheer escapist entertainment, it is quite successful. On the other hand, there are a few too many angles from which to attack this film - science, depth, originality, editing - you name it.", "is_fresh": 1, "author": ["Marty Mapes"]},
{"text": "Armageddon left me feeling bombarded, worn out, and assaulted. The real disaster is this movie.", "is_fresh": 0, "author": ["Mike McGranaghan"]},
{"text": "The clock must be ticking. The editing must be quick and the soundtrack must be LOUD so that even when nothing exciting is happening it must seem that something important and exciting is happening.", "is_fresh": 0, "author": ["James O'Ehley"]},
{"text": "...full of sound and fury but without a single new idea to add to the conversation.", "is_fresh": 0, "author": ["Susan Stark"]},
{"text": "Rent The Right Stuff and watch a real movie by real artists about real heroes.", "is_fresh": 0, "author": ["Edward Johnson-Ott"]},
{"text": "Michael Bay's movie is frenetic from start to its conclusion two-and-one half long hours later, leaving the audience scarcely a moment to catch its breath.", "is_fresh": 0, "author": ["Harvey S. Karten"]},
{"text": "Why did I enjoy a film that has numerous plot holes, too many explosions, and the IQ of a house plant?", "is_fresh": 1, "author": ["Ted Prigge"]},
{"text": "It's time for some silly summer fun in Armageddon as Bruce Willis and Co. kick some asteroid tail.", "is_fresh": 1, "author": ["Steve Rhodes"]},
{"text": "No one in his or her right mind is going to take this juggernaut explode-o-thon seriously, of course, but as far as popcorn-grubbing eye candy with deafening sound and plenty of cheeseball Aerosmith tuneage (and progeny), it's great fun.", "is_fresh": 1, "author": ["Marc Savlov"]},
{"text": "Even worse is the wildly overrated Affleck, whose failings as an actor become glaringly obvious here.", "is_fresh": 0, "author": ["Joe Baltake"]},
{"text": "Armageddon is the ultimate summer movie, and as such should be taken for what it is.", "is_fresh": 1, "author": ["Matt Easterbrook"]},
{"text": "It's loud, full of computer effects, and sort of annoying.", "is_fresh": 0, "author": ["Alex Sandell"]},
{"text": "Armageddon is far from boring, but it's chock-full of explosions and loud noises, which becomes annoying in a hurry.", "is_fresh": 0, "author": ["Jeff Vice"]},
{"text": "Save the planet, but spare us this movie.", "is_fresh": 0, "author": ["Mike Clark"]},
{"text": "Yet while the movie's emotions grow a bit gentler, they remain as forced and artificial as ever, pushing market-tested buttons - heroics, patriotism, family values - with a monotony that denies us any chance to think or even feel for ourselves.", "is_fresh": 0, "author": ["David Sterritt"]},
{"text": "Never let it be said that Armageddon errs on the side of subtlety", "is_fresh": 1, "author": ["Maitland McDonagh"]},
{"text": "You know you're in trouble when Deep Impact dwarfs your asteroid movie in terms of emotion and scope.", "is_fresh": 0, "author": ["Bill Chambers"]},
{"text": "It sure makes an ugly mess.", "is_fresh": 0, "author": ["Bob Graham"]},
{"text": "...a waste of 100 million dollars and the talent of great actors...", "is_fresh": 0, "author": ["David Keyes"]},
{"text": "This is a tedious, tiresome embarrassment and is without question the worst movie I've seen in two years.", "is_fresh": 0, "author": ["Rob Blackwelder"]},
{"text": "Armageddon, as directed by Michael Bay, doesn't give a hoot about making a deep, humanistic impact on us. Or even a shallow one.", "is_fresh": 0, "author": ["Richard Schickel"]},
{"text": "You can only suspend your disbelief so far, even if you're hanging upside-down from the double loop. Even by summer blockbuster standards, Armageddon pushes the envelope when it comes to defining the word preposterous.", "is_fresh": 0, "author": ["Ron Weiskind"]},
{"text": "...a nacho-munching, popcorn-eating cheese-fest of special effects, fun and 144 minutes of brainless entertainment.", "is_fresh": 1, "author": ["JoBlo"]},
{"text": "In the end, the script is probably the only true thing that I felt was lacking.", "is_fresh": 1, "author": ["Greg Dean Schmitz"]},
{"text": "Relatively silly and far too long disaster movie.", "is_fresh": 0, "author": ["Christopher Null"]},
{"text": "Don't come out puling and whining that you wanted a movie more about the human side of the story, because they tried that and screwed it up. It was called Deep Impact.", "is_fresh": 1, "author": ["Widgett Walls"]},
{"text": "Armageddon features some dynamite special effects, but on the whole, it's an empty, almost cynical movie in the way it manipulates its audience.", "is_fresh": 0, "author": ["Bob Bloom"]},
{"text": "A reasonably satisfying summer blockbuster, with all the flaws and virtues that come with that label.", "is_fresh": 1, "author": ["Michael Dequina"]},
{"text": "As a science fiction movie, it has more action than thought.", "is_fresh": 0, "author": ["Mark R. Leeper"]},
{"text": "", "is_fresh": 0, "author": ["Dragan Antulov"]}
]