[
{"reviews_count": "47", "title": "Army Of Darkness", "avg_audience_rating": "3.8", "rotten_count": "13", "tomatometer": "72", "audience_score": "87", "avg_critic_rating": "6.9", "fresh_count": "34", "user_ratings_count": "218,379"},
{"text": "The climactic battle between the living and the dead that closes the picture is well done yet disappointingly lacking in thrills...", "is_fresh": 1, "author": ["David Nusair"]},
{"text": "Only a primitive screwhead would find zero entertainment value in the third Evil Dead movie.", "is_fresh": 1, "author": ["Matt Brunson"]},
{"text": "More than anything, Army of Darkness is a tribute to the Ray Harryhausen adventure epics (Clash of the Titans, Sinbad, and the like) that Sam Raimi grew up loving.", "is_fresh": 1, "author": ["Austin Trunick"]},
{"text": "Sam Raimi's Army of Darkness delivers a great conclusion to what is one of the most unique trilogies in cinema history, providing a ton of laughs and plenty of exciting action in the process.", "is_fresh": 1, "author": ["Jeff Beck"]},
{"text": "A loopy work of imagination that never fails to be entertaining.", "is_fresh": 1, "author": ["Tim Brayton"]},
{"text": "Works in being a spooky and entertaining darkly comedic horror movie...", "is_fresh": 1, "author": ["Felix Vasquez Jr."]},
{"text": "Army of Darkness' story is so perfunctory and lame that there's nothing to tether its bits and pieces of loopy madness.", "is_fresh": 0, "author": ["Nick Schager"]},
{"text": "Containing less of the blood soaked insanity of the previous two instalments, Army of Darkness comes off as more of an adventure film with a horror element attached to it. ", "is_fresh": 1, "author": ["Matthew Pejkovic"]},
{"text": "Raimi turns his back on the horror genre that brought him fame in the first place and delivers instead a cartoonish sword-and-sorcery fantasy, albeit one with some pretty cool monsters and special effects.", "is_fresh": 0, "author": ["Steve Newton"]},
{"text": "I'll probably take heat for saying so, but this flick kind of sucks.", "is_fresh": 0, "author": ["Steve \"Uncle Creepy\" Barton"]},
{"text": "This is old-fashioned fun until the climactic battle, which almost comes across like routine bone piling after all the flights of fancy.", "is_fresh": 1, "author": ["Jonathan Rosenbaum"]},
{"text": "Raimi and his camera never slow down, which is good because many of the gags don't stand up to scrutiny.", "is_fresh": 0, "author": ["Josh Larsen"]},
{"text": "a director, Raimi's strength lies in his manic inventiveness %u2013 which is somewhat in abeyance here, as he tries injecting some traditional plot elements into the old formula.", "is_fresh": 1, "author": ["Steve Biodrowski"]},
{"text": "Camp isn't just an undercurrent here--it's the grindhouse force that drives the movie, with Bruce Campbell clearly happy behind the wheel.", "is_fresh": 1, "author": ["Christopher Smith"]},
{"text": "Raimi approaches this scenario as if someone had given him a deep pail of Magic Markers and told him to draw the ultimate comic book.", "is_fresh": 1, "author": ["Rob Gonsalves"]},
{"text": "A bloody and fairly lifeless witch's brew of medievalism, Jonathan Swift and the Three Stooges.", "is_fresh": 0, "author": ["Thomas Delapa"]},
{"text": "A masterpiece of lunacy and oddball creativity.", "is_fresh": 1, "author": ["Bill Clark"]},
{"text": "To watch the movie is to join its chaotic flow of hyperactive energy.", "is_fresh": 1, "author": ["Phil Villarreal"]},
{"text": "Army of Darkness s'impose comme un film diablement amusant, un summum dans le genre et \u00e0 seulement quelques \u00e9chelons d'Evil Dead II", "is_fresh": 1, "author": ["Louis-J\u00e9r\u00f4me Cloutier"]},
{"text": "[W]ickedly witty...", "is_fresh": 1, "author": ["MaryAnn Johanson"]},
{"text": "Die-hard horror buffs beware: 'Army' gives the genre a giant 'Three Stooges'-style slap to the face.", "is_fresh": 1, "author": ["Dan Fazio"]},
{"text": "In his own special way, Bruce Campbell is an icon of cool", "is_fresh": 1, "author": ["Brian Mckay"]},
{"text": "Oh, the sugar that Raimi once gave.", "is_fresh": 1, "author": ["Alex Sandell"]},
{"text": "Jokey, pretty effective, but quickly forgettable.", "is_fresh": 1, "author": ["Ken Hanke"]},
{"text": "Another wacked out Raimi flick", "is_fresh": 1, "author": ["Mike McGranaghan"]},
{"text": "Good old fashioned middle-age zombi movie with shoot guns and chainsaws.", "is_fresh": 1, "author": ["Stefan Birgir Stefansson"]},
{"text": "...a comical send-up of sword-and-sorcery epics...filled with imaginative touches, but long flat stretches, too, and a good deal of sophomoric humor.", "is_fresh": 0, "author": ["John J. Puccio"]},
{"text": "A jaw-dropper.", "is_fresh": 1, "author": ["Jeffrey M. Anderson"]},
{"text": "Evil Dead 3, only more giggles than gore.", "is_fresh": 1, "author": ["Scott Weinberg"]},
{"text": "", "is_fresh": 0, "author": ["Owen Gleiberman"]},
{"text": "", "is_fresh": 1, "author": ["Greg Maki"]},
{"text": "", "is_fresh": 0, "author": ["Matt Kelemen"]},
{"text": "", "is_fresh": 1, "author": ["Christopher Null"]},
{"text": "", "is_fresh": 1, "author": ["Rebecca Murray"]},
{"text": "", "is_fresh": 1, "author": ["Ryan Cracknell"]},
{"text": "", "is_fresh": 1, "author": ["Walter Chaw"]},
{"text": "", "is_fresh": 1, "author": ["Robert Roten"]},
{"text": "", "is_fresh": 1, "author": ["Philip Martin"]},
{"text": "", "is_fresh": 0, "author": ["Cory Cheney"]},
{"text": "", "is_fresh": 0, "author": []},
{"text": "", "is_fresh": 1, "author": ["James Berardinelli"]},
{"text": "", "is_fresh": 0, "author": ["Roger Ebert"]},
{"text": "", "is_fresh": 1, "author": ["Kurt Dahlke"]},
{"text": "", "is_fresh": 0, "author": ["Marc Savlov"]},
{"text": "", "is_fresh": 1, "author": ["Mark R. Leeper"]},
{"text": "", "is_fresh": 0, "author": []},
{"text": "", "is_fresh": 1, "author": []}
]