[
{"reviews_count": "121", "title": "Because of Winn-Dixie", "avg_audience_rating": "3.3", "rotten_count": "55", "tomatometer": "55", "audience_score": "63", "avg_critic_rating": "5.8", "fresh_count": "66", "user_ratings_count": "42,135"},
{"text": "Thoughtful, personal drama, complex and with much to say.", "is_fresh": 1, "author": ["Michael E. Grost"]},
{"text": "A girl and a dog educate a small southern town.", "is_fresh": 1, "author": ["Nell Minow"]},
{"text": "A sweet film, laced with magic realism, and it tackles some rather dark themes in a way that is perfectly appropriate for young children.", "is_fresh": 1, "author": ["Peter T. Chattaway"]},
{"text": "Just the latest quasi-magic-realist, two-birds-with-one-stone shrine to non-traditional families and the power of myth", "is_fresh": 0, "author": ["Bill Chambers"]},
{"text": "Because of Winn-Dixie does no harm, and it should appeal to younger children while charming more than a few adults.", "is_fresh": 1, "author": ["John J. Puccio"]},
{"text": "Relentlessly cute and adorable, it at least has a slight sour edge that gives us above-8s something to cling to. Briefly.", "is_fresh": 0, "author": ["Rich Cline"]},
{"text": "A children's film that embraces storytelling modesty and a balanced view of the world as both depressing and joyous.", "is_fresh": 1, "author": ["Nick Schager"]},
{"text": "The untidy answers and selfless actions in Because of Winn-Dixie stand out from the family films populated with bratty kids and clueless adults.", "is_fresh": 1, "author": ["Mark Pfeiffer"]},
{"text": "A cloying 'family entertainment' filled to the bubbling brim with goody-goody intentions and, somehow, managing to deliver on none of them.", "is_fresh": 0, "author": ["Harry Haun"]},
{"text": "not heavy on plot, but it is a series of charming adventures with common, heart warming themes about finding friendship and dealing with hardship", "is_fresh": 1, "author": ["Willie Waffle"]},
{"text": "The movie offers a loving but strikingly tempered assessment of family and town life that one seldom finds in today's raucous family films.", "is_fresh": 1, "author": ["Thomas Peyser"]},
{"text": "It's all very sweet, the acting is excellent, especially Tyson and young Ms. Robb. The dog is very good too.", "is_fresh": 1, "author": ["Eric Lurio"]},
{"text": "I left the theater with joy in my heart. And it's all because of Winn-Dixie.", "is_fresh": 1, "author": ["Linda Cook"]},
{"text": "One of the bright spots in last few weeks.", "is_fresh": 1, "author": ["Tony Toscano"]},
{"text": "About 110 minutes of well-meaning, benign unoriginality", "is_fresh": 0, "author": ["Pete Croatto"]},
{"text": "Because of Winn-Dixie's heart-tugging sadness makes its joy even sweeter.", "is_fresh": 1, "author": ["John Wirt"]},
{"text": "Starting with the dog, Wang's warm-and-fuzzy story could have used some careful trimming.", "is_fresh": 0, "author": ["Thomas Delapa"]},
{"text": "[It's] a delightfully moving experience... It's more than a good kids' movie; it's a good movie for everyone.", "is_fresh": 1, "author": ["David Cornelius"]},
{"text": "Despite its charm the material is simply too thin for 106 minutes of screen time. ", "is_fresh": 1, "author": ["Ken Hanke"]},
{"text": "Plenty entertaining and chock full of valuable lessons about friendship and respect.", "is_fresh": 1, "author": ["Peter Debruge"]},
{"text": "If they let the dog go I think we'd have a better movie.", "is_fresh": 0, "author": ["Richard Roeper"]},
{"text": "It's heavy on metaphor and voiceover, and weak on passion...", "is_fresh": 0, "author": ["Mark Collette"]},
{"text": "Like a big glass of milk and a slice of apple pie, Because of Winn-Dixie is just as wholesome as it gets, if you don't mind overdosing on the sugar once in awhile.", "is_fresh": 0, "author": ["Kit Bowen"]},
{"text": "A sweet movie that takes its own sweet time in telling its story.", "is_fresh": 0, "author": ["Jackie K. Cooper"]},
{"text": "Some older viewers might be confused that director Wayne Wang offers no entry point for grownups. This is a kid's view of the world, free of irony and in-jokes.", "is_fresh": 1, "author": ["Mark Palermo"]},
{"text": "For every scene where the shaggy dog gives a human-looking smile, there's another about the unavoidable sadness that comes with walking on two legs rather than four.", "is_fresh": 1, "author": ["Beth Jones"]},
{"text": "...wait til it hits cable...that goes for you too Dave Matthews fans.", "is_fresh": 0, "author": ["John Venable"]},
{"text": "Heart-warming, old-fashioned family fare", "is_fresh": 1, "author": ["Susan Granger"]},
{"text": "[T]his sweet-tempered adaptation is a film that parents and kids can enjoy together.", "is_fresh": 1, "author": ["Daniel M. Kimmel"]},
{"text": "Because of Winn-Dixie should provide a pleasant family outing free of any cinematic mange.", "is_fresh": 1, "author": ["Marjorie Baumgarten"]},
{"text": "Director Damien O'Donnell crafts this well-acted, funny, moving story that speaks to people's loneliness and the need to connect. This film is great for kids and adults alike.", "is_fresh": 1, "author": ["Vince Koehler"]},
{"text": "An innocuous and sleepy-eyed kiddie fable that resonates occasionally in its tenderness. Intermittently dour and drab in some instances [but] also very charming and observant", "is_fresh": 1, "author": ["Frank Ochieng"]},
{"text": "The ideal candidate for a summer release, not a February schlep-off.", "is_fresh": 1, "author": ["Scott Gwin"]},
{"text": "A spiritually uplifting old-fashioned shaggy-dog tale that is without guile.", "is_fresh": 1, "author": ["Dennis Schwartz"]},
{"text": "An unhomogenized combination of formulaic family entertainment and cornpone Southern fable.", "is_fresh": 0, "author": ["Liam Lacey"]},
{"text": "Because of Winn-Dixie, based on the much-praised children's book by Kate DiCamillo, is about loss and the ways people deal with it, but also about joy, hope and love.", "is_fresh": 1, "author": ["Jean Lowerison"]},
{"text": "Nothing more than a series of scenes, first cute, then sentimental, then funny, and then the cycle repeats itself.", "is_fresh": 0, "author": ["Eric D. Snider"]},
{"text": "The moment is so identical to a pivotal scene in Lars von Trier's Dogville that it makes one wonder if director Wayne Wang is intentionally paying homage.", "is_fresh": 0, "author": ["Brett Buckalew"]},
{"text": "Sincere rather than cynical.", "is_fresh": 1, "author": ["Jonathan Rosenbaum"]},
{"text": "So darn wholesome and good that it goes down like a cold glass of milk and is just about as exciting.", "is_fresh": 0, "author": ["Scott Nash"]},
{"text": "Fans of DiCamillo's book should be pleased with how Wang has faithfully preserved the novel's clear-eyed depiction of both pain and joy.", "is_fresh": 1, "author": ["Ann Hornaday"]},
{"text": "A whimsical family film about longing and belonging told with gentle humanity.", "is_fresh": 1, "author": ["Claudia Puig"]},
{"text": "This simple coming-of-age tale tends to drift away on tangential story lines, but should still warm the hearts of audiences of all ages.", "is_fresh": 1, "author": ["Angel Cohn"]},
{"text": "This is a so-so story that's told incorrectly.", "is_fresh": 0, "author": ["Peter Howell"]},
{"text": "Because of Winn-Dixie meets cute, but in the end it grates on the nerves.", "is_fresh": 0, "author": ["Laura Kelly"]},
{"text": "[The movie] manages to eradicate any meaningful subtleties that are present in Kate DiCamillo's 2001 Newberry Award-winning children's book.", "is_fresh": 0, "author": ["Jeff Shannon"]},
{"text": "Winn-Dixie has a way of growing on you.", "is_fresh": 1, "author": ["Peter Hartlaub"]},
{"text": "As family films go, Winn-Dixie is only mildly successful and a bit bland.", "is_fresh": 0, "author": ["Jack Garner"]},
{"text": "A refreshingly old-fashioned family movie that doesn't rely on smart-alecky humor or pop culture references to keep kids in their seats.", "is_fresh": 1, "author": ["Timothy Knight"]},
{"text": "Because of Winn Dixie is a touching, sincere, heart-warming family film that nonetheless made me want to bail after about 30 minutes.", "is_fresh": 0, "author": ["Gary Thompson"]},
{"text": "Because is proof positive that nostalgia and dogs go together like Winn and Dixie.", "is_fresh": 1, "author": ["Roger Moore"]},
{"text": "It's not that the film is a family classic; far from it. But the simple, heartwarming story of a girl and her dog, based on the popular book by Kate DiCamillo, should satisfy its 8- to 12-year-old target demographic.", "is_fresh": 0, "author": ["Marc Mohan"]},
{"text": "Winn-Dixie has everything but the drama, and while that doesn't make it a dog, it never raises it above the status of stuffed toy.", "is_fresh": 0, "author": ["Stephen Whitty"]},
{"text": "Mildly diverting and way too long for a movie aimed at kids.", "is_fresh": 0, "author": ["Lou Lumenick"]},
{"text": "Has some wan jokes, incongruous slapstick and the occasional embarrassment, which may keep it from being as popular as the Newberry Award-winning novel by Kate DiCamillo.", "is_fresh": 0, "author": ["Jami Bernard"]},
{"text": "The best of this year's family-friendly film explosion so far.", "is_fresh": 1, "author": ["Mack Bates"]},
{"text": "A dreary, uninspired tale.", "is_fresh": 0, "author": ["Kevin Crust"]},
{"text": "Won't disappoint any elementary school kid or the moms and dads who treasure their dog-eared copies of Kate DiCamillo's Newbery-honored children's novel.", "is_fresh": 1, "author": ["Glenn Whipp"]},
{"text": "Inoffensive fodder for the family trade.", "is_fresh": 0, "author": ["Robert W. Butler"]},
{"text": "A thoughtful and sometimes poignant study of how a 10-year-old girl copes with loneliness.", "is_fresh": 1, "author": ["Bruce Kirkland"]},
{"text": "This charming coming-of-age kiddie movie delivers the good.", "is_fresh": 1, "author": []},
{"text": "This is a movie to take your kids to.", "is_fresh": 1, "author": ["Tom Long"]},
{"text": "Parents who claim they crave thoughtful entertainment for their kids finally have a movie they can get behind.", "is_fresh": 1, "author": ["John Monaghan"]},
{"text": "Because of Winn-Dixie doesn't have a mean bone in its body, but it's dead in the water.", "is_fresh": 0, "author": ["Roger Ebert"]},
{"text": "Manages to overcome the sense of its being overly familiar.", "is_fresh": 1, "author": ["Jeff Vice"]},
{"text": "Doesn't exactly rise to the level of a family classic.", "is_fresh": 0, "author": ["Robert Denerstein"]},
{"text": "It makes a fine argument for what kid-friendly, Christian-compassionate entertainment can be.", "is_fresh": 1, "author": ["Lisa Kennedy"]},
{"text": "A wonderful smiling sheepdog steals this heartwarming movie from its human actors.", "is_fresh": 1, "author": ["Betty Jo Tucker"]},
{"text": "It's so much more honest than the average Hollywood blather that I think you'll end up in my camp.", "is_fresh": 1, "author": ["Lawrence Toppman"]},
{"text": "Without becoming particularly preachy or heavy-handed, 'Winn-Dixie' insists that acceptance and tolerance are integral parts of Christianity.", "is_fresh": 1, "author": ["James Sanford"]},
{"text": "The unconditional love of a great dog can work miracles in anyone's life. Kids will love the dog and forget all the parts that don't work for them.", "is_fresh": 1, "author": ["Cherryl Dawson and Leigh Ann Palone"]},
{"text": "[The script] can never decide whether this is supposed to be an over-the-top comedy or a deeply moving drama -- and doesn't do that well at either.", "is_fresh": 0, "author": ["Kim Williamson"]},
{"text": "In pace, sensibility, and big, beating heart, this is a child's first indie film, and it's the better for it.", "is_fresh": 1, "author": ["Ty Burr"]},
{"text": "Most of the time, you can't go wrong with kids and dogs. Then there's Because of Winn-Dixie.", "is_fresh": 0, "author": ["Bill Muller"]},
{"text": "Sure, there's nothing here that hasn't already been covered in a Hallmark movie, but it's still refreshing to find a well-made, enjoyable film for families. ", "is_fresh": 1, "author": ["Jeffrey Bruner"]},
{"text": "There's bad, there's \"so bad it's good\"... and then there's this moronic film.", "is_fresh": 0, "author": ["David Foucher"]},
{"text": "Because of Winn-Dixie-based on the beloved novel by Kate DiCamillo-turns out to be a modest success for the family crowd.", "is_fresh": 1, "author": ["Peter Canavese"]},
{"text": "[S]mart and sweet but unsentimental and warmly genuine in its portrait of childhood innocence and the adventure of growing up...", "is_fresh": 1, "author": ["MaryAnn Johanson"]},
{"text": "I wanted to like Winn-Dixie ... I just didn't believe it.", "is_fresh": 0, "author": ["Greg Maki"]},
{"text": "A breath of fresh air within this genre...", "is_fresh": 1, "author": ["Brent Simon"]},
{"text": "A simple, slow-moving, shaggy-dog story that has enough charm to keep us involved but not enough dramatic tension to rise above the ordinary.", "is_fresh": 0, "author": ["Paula Nechak"]},
{"text": "It has old-fashioned and heartwarming written all over it, in heavy black Magic Marker.", "is_fresh": 1, "author": ["Anita Gates"]},
{"text": "Winn-Dixie is simply an episodic film, and not a particularly inviting one at that.", "is_fresh": 0, "author": ["Brian Orndorf"]},
{"text": "Such a misfire that even the title can think of nothing else but to blame the poor dog.", "is_fresh": 0, "author": ["Erik Childress"]},
{"text": "Not the movie audiences anticipate, even when it acquiesces to convention.", "is_fresh": 0, "author": ["Todd Gilchrist"]},
{"text": "while Wang hits some high notes with a few scattered flights of fancy, he mostly bungles this girl and her dog tale with painfully awkward direction and mind-numbing treacle", "is_fresh": 0, "author": ["Laura Clifford"]},
{"text": "strong appearances by top talent in the adult roles and graceful evocation of a gently rural community by director Wayne Wang keep it for the most part more sweet than sugary.", "is_fresh": 1, "author": ["Nell Minow"]},
{"text": "The sum of its parts could have added up to much more than it does. Then again, let's be thankful for small victories. It could have been Are We There Yet?", "is_fresh": 1, "author": ["Dustin Putman"]},
{"text": "Family-friendly charmer.", "is_fresh": 1, "author": ["Desson Thomson"]},
{"text": "Director Wayne Wang and screenwriter Joan Singleton have crafted an utterly faithful film adaptation of Kate DiCamillo's affecting Newbery Honor story.", "is_fresh": 1, "author": ["Nancy Churnin"]},
{"text": "Cozy and homespun, Because of Winn-Dixie is the movie equivalent of a grilled cheese sandwich or Patsy Cline's voice.", "is_fresh": 1, "author": ["Chris Hewitt (St. Paul)"]},
{"text": "A lopsided but fitfully pleasant daydream for young girls looking to discover their inner hostess: a dog-slobbered Martha Stewart: The Early Years.", "is_fresh": 0, "author": ["Jan Stuart"]},
{"text": "A touching story about a young girl and her dog, Because of Winn-Dixie is quintessentially cute.", "is_fresh": 1, "author": ["Jeff Strickler"]},
{"text": "Though [Jeff] Daniels brings his usual quiet nuance and understated comedy to the role of the grieving preacher, there's no redeeming this slavishly folksy betrayal of what can be dimly discerned of an absorbing and original tale of pain overcome.", "is_fresh": 0, "author": ["Ella Taylor"]},
{"text": "Bland, amiable, innocuous.", "is_fresh": 0, "author": ["David Sterritt"]},
{"text": "Wayne Wang's Because of Winn-Dixie tries hard to be sweet but plays like Pollyanna with fleas.", "is_fresh": 0, "author": ["Robert K. Elder"]},
{"text": "It's refreshingly free of the overadrenalized overkill and/or saccharine manipulations of so many kid movies.", "is_fresh": 1, "author": ["Eleanor Ringel Cater"]},
{"text": "Quite a bit better than the dog-movie cliches the trailer suggests\u0085 Like Miss Franny's semi-magical candies, it is both sweet and sad, a blend that does the heart good.", "is_fresh": 1, "author": ["Steven D. Greydanus"]},
{"text": "The new My Girl-meets-Turner & Hooch-meets-My Dog Skip film from the formerly formidable but recently forgettable director Wayne Wang.", "is_fresh": 0, "author": ["Jon Popick"]},
{"text": "Wang...is aiming for quirkiness here, but he never gets beyond cloying.", "is_fresh": 0, "author": ["Josh Larsen"]},
{"text": "The artificial, manufactured feel of \"Because of Winn Dixie\" kept me at arm's length", "is_fresh": 0, "author": ["Robin Clifford"]},
{"text": "...too aggressively cute and sappy, relying on close-ups and standard slapstick montages instead of establishing a genuine emotional connection with the audience.", "is_fresh": 0, "author": ["Todd Jorgenson"]},
{"text": "It's makers would like it to become an instant classic of the genre, but at best it's an amiable but mediocre formula flick more suitable for the home screen than a theatre.", "is_fresh": 0, "author": ["Frank Swietek"]},
{"text": "To Winn-Dixie's great credit, both as a book and as a dandy, dignified movie, there's nothing condescendingly lesson-like in the wisdom India acquires.", "is_fresh": 1, "author": ["Lisa Schwarzbaum"]},
{"text": "Has its charms though it's no 'Lassie Come Home'", "is_fresh": 1, "author": ["Harvey S. Karten"]},
{"text": "A sometimes sweet film, it produces a high fidget factor due to its excessive length and thin plot.", "is_fresh": 0, "author": ["Steve Rhodes"]},
{"text": "Despite director Wayne Wang's flair for vehicles about characters seeking to fill a void in their lives, he never achieves the right balance here.", "is_fresh": 0, "author": ["Michael Rechtshaffen"]},
{"text": "The story seems awkwardly positioned between coming-of-age realism and whimsical fantasy.", "is_fresh": 0, "author": ["Ben Kenigsberg"]},
{"text": "A story that can't help but touch your heartstrings. The dog is cute and loveable, but 9 year old Opal's ingenuous personality brightens all the lonely people. I loved it. ", "is_fresh": 1, "author": ["Tony Medley"]},
{"text": "It's like one half of a Willa Cather novel: The moral backbone is there but its social spine has been ripped out. ", "is_fresh": 0, "author": ["Ed Gonzalez"]},
{"text": "Uneven though it is, Because of Winn-Dixie, based on Kate Di Camillo's novel, is tough to dislike.", "is_fresh": 1, "author": ["Lael Loewenstein"]},
{"text": "A magical story about a lonely girl whose life is transformed by a smiling stray dog who has a spiritual gift for creating community and bringing joy to everyone.", "is_fresh": 1, "author": ["Frederic and Mary Ann Brussat"]},
{"text": "", "is_fresh": 0, "author": ["Jim Lane"]},
{"text": "", "is_fresh": 1, "author": ["Peter Travers"]},
{"text": "", "is_fresh": 0, "author": ["Garth Franklin"]},
{"text": "", "is_fresh": 0, "author": []},
{"text": "", "is_fresh": 0, "author": ["Fred Topel"]},
{"text": "", "is_fresh": 1, "author": ["Steven Snyder"]},
{"text": "", "is_fresh": 1, "author": []},
{"text": "", "is_fresh": 0, "author": ["Stephen Schaefer"]},
{"text": "", "is_fresh": 0, "author": []}
]