[
{"reviews_count": "45", "title": "Beverly Hills Cop", "avg_audience_rating": "3.4", "rotten_count": "8", "tomatometer": "82", "audience_score": "82", "avg_critic_rating": "7.1", "fresh_count": "37", "user_ratings_count": "377,382"},
{"text": "Away from Murphy's iconic comic status and star quality at the time, he was a limited dramatic actor - making almost untenable the tauter moments of the plot.", "is_fresh": 0, "author": ["PJ Nabarro"]},
{"text": "(PODCAST) Eddie Murphy's Axel Foley is a gay cop out to solve the murder of an ex-lover. 20 years of hindsight shows Axel Foley to be a great gay icon of '80s pop culture.", "is_fresh": 1, "author": ["Cole Smithey"]},
{"text": "This lickety-split action comedy is distinguished by the wry, character-conscious direction of Martin Brest, who coaxes a silver-bullet performance from star Eddie Murphy that's practically criminal in its accuracy.", "is_fresh": 1, "author": ["Kirk Ellis"]},
{"text": "By no means great cinema... but it is a great popcorn movie.", "is_fresh": 1, "author": ["Tim Brayton"]},
{"text": "Fast, enjoyable, often witty action-comedy that made Eddie Muprphy the most popular movie star in the country.", "is_fresh": 1, "author": ["Emanuel Levy"]},
{"text": "Simply put, Beverly Hills Cop is one of the best buddy cop movies ever made.", "is_fresh": 1, "author": ["R.L. Shaffer"]},
{"text": "begin charting the legendarily-steep decline of Murphy as a conversation worth having outside the tabloids.", "is_fresh": 0, "author": ["Walter Chaw"]},
{"text": "Classic '80s Murphy vehicle; fun but foulmouthed.", "is_fresh": 1, "author": ["David Gurney"]},
{"text": "Murphy exudes the kind of cheeky, cocky charm that has been missing from the screen since Cagney was a pup, snarling his way out of the ghetto.", "is_fresh": 1, "author": ["Richard Schickel"]},
{"text": "See website for more details.", "is_fresh": 1, "author": ["Rory L. Aronsky"]},
{"text": "It's one of the few star comedies of the early 80s to allot some humor and personality to the minor characters.", "is_fresh": 1, "author": ["Dave Kehr"]},
{"text": "Brash, crude and very funny.", "is_fresh": 1, "author": []},
{"text": "Expectations that Eddie Murphy's street brand of rebelliousness would devastate staid and glittery Beverly Hills are not entirely met in a film that grows increasingly dramatic.", "is_fresh": 0, "author": ["Variety Staff"]},
{"text": "Murphy at his absolute best.", "is_fresh": 1, "author": ["Rob Thomas"]},
{"text": "The connecting stuff is just bagatelle.", "is_fresh": 0, "author": []},
{"text": "Murphy exudes a natural sense of entitlement and superiority that elevates him above the Beverly Hills fops even in his grimy sweatshirt ...", "is_fresh": 1, "author": ["Philip Martin"]},
{"text": "Eddie Murphy looks like the latest victim of the Star Magic Syndrome, in which it is assumed that a movie will be a hit simply because it stars an enormously talented person.", "is_fresh": 0, "author": ["Roger Ebert"]},
{"text": "One of the great popular entertainments of our time, a film that still has a place on the top 40 list of American box-office champs, and continues to look slick and full of energy almost twenty years after opening.", "is_fresh": 1, "author": ["Ian Waldron-Mantgani"]},
{"text": "Mr. Murphy knows exactly what he's doing, and he wins at every turn.", "is_fresh": 1, "author": ["Janet Maslin"]},
{"text": "Loud, long, vulgar.", "is_fresh": 0, "author": ["Ken Hanke"]},
{"text": "Eddie Murphy is excellent. I can't imagine anyone else starring in this film.", "is_fresh": 1, "author": ["Clint Morris"]},
{"text": "Eddie improvs this B-actioner into a classic comedy.", "is_fresh": 1, "author": ["James Hill"]},
{"text": "An Eddie Murphy classic! One of his best, but not better than \"Coming To America.\"", "is_fresh": 1, "author": ["John Oliver"]},
{"text": "Simplstic formula, delivered with style by a young, fun Eddie Murphy.", "is_fresh": 1, "author": ["Scott Weinberg"]},
{"text": "Eddie Murphy is the one of the few reasons to sit through this movie. He gives lip, delivers timely one-liners and tops it off with better than half-decent physical comedy.", "is_fresh": 0, "author": ["Ryan Cracknell"]},
{"text": "...provides more action and more laughs than most recent comedy thrillers.", "is_fresh": 1, "author": ["John J. Puccio"]},
{"text": "Murphy's attitude and provocative improvisations carry the movie even when everything else around him fails", "is_fresh": 1, "author": ["James Kendrick"]},
{"text": "Murphy's funniest work", "is_fresh": 1, "author": ["Christopher Null"]},
{"text": "This film illustrates some of the general sensibilities of 1980s America.", "is_fresh": 1, "author": ["Dragan Antulov"]},
{"text": "", "is_fresh": 1, "author": ["Chris Nashawaty"]},
{"text": "", "is_fresh": 1, "author": ["Cole Smithey"]},
{"text": "", "is_fresh": 1, "author": ["Emanuel Levy"]},
{"text": "", "is_fresh": 1, "author": ["Michael Szymanski"]},
{"text": "", "is_fresh": 1, "author": ["Michael Dequina"]},
{"text": "", "is_fresh": 1, "author": ["Mark Palermo"]},
{"text": "", "is_fresh": 1, "author": ["Matt Brunson"]},
{"text": "", "is_fresh": 1, "author": ["Robin Clifford"]},
{"text": "", "is_fresh": 1, "author": ["Linda Cook"]},
{"text": "", "is_fresh": 1, "author": ["Jeffrey Westhoff"]},
{"text": "", "is_fresh": 1, "author": ["Rich Cline"]},
{"text": "", "is_fresh": 1, "author": ["Carol Cling"]},
{"text": "", "is_fresh": 1, "author": ["Audrey Rock-Richardson"]},
{"text": "", "is_fresh": 1, "author": ["Rebecca Murray"]},
{"text": "", "is_fresh": 0, "author": ["Rob Vaux"]},
{"text": "", "is_fresh": 1, "author": ["Robert Roten"]}
]