[
{"reviews_count": "47", "title": "bisbee 17", "avg_audience_rating": "3.6", "rotten_count": "2", "tomatometer": "96", "audience_score": "59", "avg_critic_rating": "7.9", "fresh_count": "45", "user_ratings_count": "62"},
{"text": "The Deportation seemed to disappear from town history. It was rarely mentioned. Even today residents don't really talk of the Deportation. It is a town that can keep a secret.", "is_fresh": 1, "author": ["Carey-Ann Pawsey"]},
{"text": "Bisbee '17 speaks to the stakes of local history and amateur genealogy for places and people that are twinkling out of living memory.", "is_fresh": 1, "author": ["Mark Asch"]},
{"text": "Robert Greene has created a thoughtful and sprawling documentary about facing up to the past by walking in the shadow of history.", "is_fresh": 1, "author": ["Rob Aldam"]},
{"text": "I was moved to tears, a rarity for me. It's closing passages are so exceptionally well-handled that one might actually forget they're watching a documentary recreation.", "is_fresh": 1, "author": ["Glenn Dunks"]},
{"text": "Bisbee '17 is the rare documentary that also succeeds as a provocative cinematic statement. ", "is_fresh": 1, "author": ["Alan Zilberman"]},
{"text": "The unorthodox methods of \"Bisbee '17\" conjure up the past in a powerful and cathartic way.", "is_fresh": 1, "author": ["Rob Thomas"]},
{"text": "A fascinating exercise in nonfiction filmmaking as a performative, interdisciplinary, collective act, as well as a provocative inquiry into how selective memory, ideology, shame and unspeakable trauma shape what we come to accept as official history.", "is_fresh": 1, "author": ["Ann Hornaday"]},
{"text": "The film's epic canvas fuses a procedural documentary with tableaux that wouldn't be out of place in a horror western.", "is_fresh": 1, "author": ["Chuck Bowen"]},
{"text": "Though it sometimes trades detail for its tricksy gimmick, Robert Greene's new doc is a chilling slice of untold American history.", "is_fresh": 1, "author": ["Shaun Munro"]},
{"text": "Bisbee '17 is fascinating because it represents a leap forward in the perfection of the filmmaker's style.", "is_fresh": 1, "author": ["Musanna Ahmed"]},
{"text": "Art, even of the amateur variety, has that singular power to transform hearts and minds, and that's what we get to witness here.", "is_fresh": 1, "author": ["Mark Dujsik"]},
{"text": "With more intimate documentaries like Kate Plays Christine and Kati With an I, director Robert Greene has always found space for enigma in motivation, in a lack of resolution: Bisbee '17 cannot afford such space. ", "is_fresh": 1, "author": ["Richard Whittaker"]},
{"text": "As the crimes of the deportation haunts Bisbee and its inhabitants, so, too, are we haunted by them through the filter of Greene's lens. But that experience, the experience of being haunted, proves vital.", "is_fresh": 1, "author": ["Andy Crump"]},
{"text": "It would be enough for any documentary to tell this piece of hushed-up history, but Bisbee '17 is onto something more radical; watching it is like witnessing the defusing of a time bomb from a foot away.", "is_fresh": 1, "author": ["Joshua Rothkopf"]},
{"text": "Even though deportation is a tough subject, especially because of what is going on in America, I still really enjoyed this documentary.", "is_fresh": 1, "author": ["Chris Salce"]},
{"text": "An interesting if unfulfilling documentary experiment...", "is_fresh": 0, "author": ["G. Allen Johnson"]},
{"text": "Despite a few slow spots, Bisbee '17 is a useful portrait of changing times in the West, as well as a reminder of how far we still have to go.", "is_fresh": 1, "author": ["Kelly Vance"]},
{"text": "Greene has made a hard movie to argue with, even as he invites you to do exactly that.", "is_fresh": 1, "author": ["Justin Chang"]},
{"text": "Beyond the rote talking heads, the film's something of a dreamy cinematic wonder.", "is_fresh": 1, "author": ["Tom Meek"]},
{"text": "Plenty of superb anecdotes.", "is_fresh": 1, "author": ["Rich Cline"]},
{"text": "Director Greene does an earnest job in telling this unknown piece of history.", "is_fresh": 1, "author": ["Robin Clifford"]},
{"text": "In some respects \"Bisbee '17\" serves as a kind of therapy for the town. But it's still difficult material.", "is_fresh": 1, "author": ["Bill Goodykoontz"]},
{"text": "There may never be justice for the victims of American trauma, but Greene has told one story no viewer could ever forget. ", "is_fresh": 1, "author": ["Scout Tafoya"]},
{"text": "[Robert] Greene's film moves in a forward, circular motion, through swift, precise interviews and extraordinarily evocative images of the mines that continue to remind us where we are.", "is_fresh": 1, "author": ["K. Austin Collins"]},
{"text": "Greene's movie... grows into an adventurous exercise in drama-documentary; what could have seemed arch or awkward is handled with grace and tact, and there is even a song.", "is_fresh": 1, "author": ["Anthony Lane"]},
{"text": "\"Bisbee '17\" plays its funny games in a far friendlier and more accessible, but still pointed, way.", "is_fresh": 1, "author": ["Steve Erickson"]},
{"text": "Like many arty contemporary documentaries, Bisbee '17 is rather theatrical. But that's reasonable in this case...", "is_fresh": 1, "author": ["Mark Jenkins"]},
{"text": "There's no denying that Bisbee '17 has some moments of deep elegiac power or, for that matter, that Greene's ambition is boundless.", "is_fresh": 1, "author": ["Chris Nashawaty"]},
{"text": "On an emotional level, Bisbee '17 may be inadequate. On a technical level, it's extraordinary.", "is_fresh": 1, "author": ["Christopher Campbell"]},
{"text": "Remembering the past is not enough to prevent its recurrence. It has to be kept alive.", "is_fresh": 1, "author": ["Sam Adams"]},
{"text": "As actors and locals are assigned their parts for a centennial recreation, we hear from residents, most stating that they 'can see both sides.' The rhetoric is revealing...", "is_fresh": 1, "author": ["Laura Clifford"]},
{"text": "The sheer audacity and originality of the exercise makes it a must-see, regardless of what you might think of the success or failure of any particular choice.", "is_fresh": 1, "author": ["Matt Zoller Seitz"]},
{"text": "An often lethargic expos\u00e9 about a heartbreaking, horrifying and enraging event from America's past, but suffers from sluggish pacing, lack of profound insight and not enough scope. a squandered opportunity to shed light on an important human rights issue.", "is_fresh": 0, "author": ["Avi Offer"]},
{"text": "Like all of Greene's films, it's more of a cannily controlled meditation than a traditional attempt at semi-objective portraiture, deliberately blurring the line between documentation and performance.", "is_fresh": 1, "author": ["Mike D'Angelo"]},
{"text": "Even though \"Bisbee '17\" depicts a wholesome and harmonious community undertaking, it is a profoundly haunted and haunting film.", "is_fresh": 1, "author": ["A.O. Scott"]},
{"text": "This is, in large part, a documentary about its own making, openly welcoming questions about how much the presence of Greene and his crew are influencing what they capture.", "is_fresh": 1, "author": ["David Bax"]},
{"text": "The director purposefully pulls us this way and that, weaving cinematic spells and then yanking us out of them; as viewers, we are both inside and outside the story.", "is_fresh": 1, "author": ["Bilge Ebiri"]},
{"text": "The results are as powerful to watch as they clearly are for those taking part, in a multi-layered documentary that uses everything it can to excavate the past.", "is_fresh": 1, "author": ["Sarah Ward"]},
{"text": "It's a shameful episode that Greene contends has never been properly acknowledged in the town... It's a good story, but despite his command of camera, music and mood, the film plays a little like a protracted rehearsal for a cosplay re-enactment.", "is_fresh": 1, "author": ["Karl Quinn"]},
{"text": "[Greene's] previous documentaries emphasize actors performing in staged scenarios to draw out emotional truths, and his latest is even more ambitious: an absorbing meta-doc with the sweep of a classic American western.", "is_fresh": 1, "author": ["Kevin Ritchie"]},
{"text": "The film is rich and multifaceted, as Greene employs an array of styles (historical reenactments, direct cinema-style portraiture, musical numbers) to investigate the complex relationship between Bisbee's past and present. ", "is_fresh": 1, "author": ["Ben Sachs"]},
{"text": "In \"Bisbee '17,\" Greene peels the layers of oblivion off history like so many layers of paint.", "is_fresh": 1, "author": ["Richard Brody"]},
{"text": "The movie sometimes feels overlong and repetitive in its buildup to the reenactment, but becomes absolutely mesmerizing as the centennial of the deportation arrives and the event commences. ", "is_fresh": 1, "author": ["Dan Schindel"]},
{"text": "Bisbee '17 is a fierce, lyrical probe into the soul of a town haunted by a history it would rather forget. It's also an unsettling cipher for America, in a year when the ghosts of our past revealed themselves in frightening ways.", "is_fresh": 1, "author": ["Alissa Wilkinson"]},
{"text": "The result is a singularly American riff on The Act of Killing, a fascinating and dream-like mosaic that's less driven by residual anger than by cockeyed concern, less interested in exhuming the past than in revealing its value to the present.", "is_fresh": 1, "author": ["David Ehrlich"]},
{"text": "A bracing documentary that blends fiction and reality in ways that both complicate and enhance the material's core themes.", "is_fresh": 1, "author": ["Nick Schager"]},
{"text": "[Greene's] intense focus on individuals can feel limiting in terms of the overall truth-and-reconciliation dynamic, but it also leads to some powerful moments. And the story's contemporary resonance couldn't be clearer.", "is_fresh": 1, "author": ["Sheri Linden"]}
]