[
{"reviews_count": "168", "title": "Bowling for Columbine", "avg_audience_rating": "3.5", "rotten_count": "9", "tomatometer": "95", "audience_score": "82", "avg_critic_rating": "8.2", "fresh_count": "159", "user_ratings_count": "202,994"},
{"text": "hits us with hard truths and thought-provoking inquiry while also making us laugh", "is_fresh": 1, "author": ["James Kendrick"]},
{"text": "Whatever, dude. Unlike Moore, I have homes on both sides of the border and it's the Quebec one I keep locked.", "is_fresh": 0, "author": ["Mark Steyn"]},
{"text": "I don't like Michael Moore. He cheats. When a film is presented as a documentary we expect some kind of journalistic search for truth ... But questions he raises about guns and violence ...add an immediacy to questions he asks that we all need to answer.", "is_fresh": 1, "author": ["Joel Siegel"]},
{"text": "Must-see gun violence documentary is brutal.", "is_fresh": 1, "author": ["Nell Minow"]},
{"text": "A frustrating film that asks more questions than answers.", "is_fresh": 0, "author": ["Felix Vasquez Jr."]},
{"text": "Agree with his messages or not, there's no denying the effectiveness of Moore's presentation.", "is_fresh": 1, "author": ["Michael Dequina"]},
{"text": "It's both powerful and infuriating, brilliant and facile, hilarious and horrific, witty and demagogic. It's a great movie to argue about.", "is_fresh": 1, "author": ["David Ansen"]},
{"text": "For all its gallows humor and choked laughter of disbelief, it feels rather soul-sick and bewildered.", "is_fresh": 1, "author": ["Rob Gonsalves"]},
{"text": "It may be more op-ed than journalistic, but that does not distract from the fact that BFC makes for a thoroughly enjoyable, thought provoking film.", "is_fresh": 1, "author": ["Jason Gorber"]},
{"text": "Why do Americans seem so inclined to slaughter one another? Once again, Michael Moore has once again waded into some rather murky waters to weigh in on a very thorny subject.", "is_fresh": 1, "author": ["Kam Williams"]},
{"text": "Even if his information is, oh, even 40% false... the ideas he is presenting need to be heard, examined, and reckoned with.", "is_fresh": 1, "author": ["Jeffrey Overstreet"]},
{"text": "Bowling for dollars", "is_fresh": 0, "author": ["S. James Wegg"]},
{"text": "Moore's timing couldn't be better aimed for all Americans to search in their heart of hearts and ask why we live in a pathological gun culture.", "is_fresh": 1, "author": ["Thomas Delapa"]},
{"text": "Perhaps a world as outrageous as ours deserves a filmmaker as blunt as Michael Moore.", "is_fresh": 1, "author": ["Jurgen Fauth"]},
{"text": "'Valiente ejercicio de uno de los pocos individuos pensantes por parte de Estados Unidos que se ha atrevido a hacerse escuchar'", "is_fresh": 1, "author": ["Jorge Avila Andrade"]},
{"text": "A classic of political debate.", "is_fresh": 1, "author": ["Mark Robison"]},
{"text": "Try and find this film, watch it and talk about it. The issues that it covers are ones that beg to be discussed, and this piece has only scratched the surface.", "is_fresh": 1, "author": ["Shawn Bowers"]},
{"text": "..is a lively movie that gives us, we believe, a firm grasp on the side of pro-gun control activists while portraying gun rights supporters as purveyors of senseless violence.", "is_fresh": 1, "author": ["Wesley Lovell"]},
{"text": "Las preguntas y sus posibles respuestas adquieren una dimensi\u00f3n mucho m\u00e1s impactante al ser formuladas por un estadounidense, o sea que la cr\u00edtica proviene de adentro.", "is_fresh": 1, "author": ["Enrique Buchichio"]},
{"text": "No one would ever mistake Moore for anything but a mudslinging yellow journalist, but sometimes extreme issues require extreme measures.", "is_fresh": 1, "author": ["John J. Puccio"]},
{"text": "Michael Moore clearly and convincingly expresses his rage at the way fear, violence and the ignorance they both breed are whittling away this country's soul.", "is_fresh": 1, "author": ["Nick Rogers"]},
{"text": "Quando Tiros em Columbine acerta o alvo (com o perd\u00e3o do trocadilho), n\u00e3o h\u00e1 como negar o brilhantismo da argumenta\u00e7\u00e3o de seu diretor.", "is_fresh": 1, "author": ["Pablo Villa\u00e7a"]},
{"text": "This film is bitingly brilliant -- as only Michael Moore can be.", "is_fresh": 1, "author": ["Leigh Johnson"]},
{"text": "Very very good", "is_fresh": 1, "author": ["Stefan Birgir Stefansson"]},
{"text": "Moore's statement on American paranoia extends back to the colonists. Would there have been a revolution if King George III had imposed a waiting period and trigger locks on muskets?", "is_fresh": 1, "author": ["Stephen Himes"]},
{"text": "Master movie muckraker Moore retraces the final days of the Columbine shooters, in an alternately sordid and absurd trail that ends up encompassing a culpable media and a wacky gun love culture.", "is_fresh": 1, "author": ["Prairie Miller"]},
{"text": "Michael Moore is a national treasure. Whether or not you agree with him, he puts out an entertaining product that will make you think.", "is_fresh": 1, "author": ["Jean Lowerison"]},
{"text": "...a documentary that walks up to the brink of the abyss, looks in, then stands back to giggle and shrug.", "is_fresh": 1, "author": ["Philip Martin"]},
{"text": "...startling, thought-provoking, brave and aggressive...", "is_fresh": 1, "author": ["David Keyes"]},
{"text": "I personally, don't always agree with this guy, or his one-sided methods, but, either way, I think the film is worth viewing and I'm glad he's got the gonads to make it.", "is_fresh": 1, "author": ["Ross Anthony"]},
{"text": "Michael Moore's aim is true.", "is_fresh": 1, "author": ["Linda Cook"]},
{"text": "The film, like \"JFK,\" may not be very believable on close examination, but it is entertaining and thought-provoking.", "is_fresh": 1, "author": ["Robert Roten"]},
{"text": "Michael Moore has perfected the art of highly entertaining, self-aggrandizing, politically motivated documentary-making, and he's got as potent a topic as ever here.", "is_fresh": 1, "author": ["Brian Webster"]},
{"text": "...sheds light on the darkest corner of America's soul - and the man with the torch is the unlikely figure of a shuffling, bespectacled and overweight and underpaid filmmaker in baggy jeans.", "is_fresh": 1, "author": ["Urban Cinefile Critics"]},
{"text": "When Bowling For Columbine hits its stride, which is to say, during the bulk of its running time, it's funny, incisive and fairly devastating.", "is_fresh": 1, "author": ["Bryant Frazer"]},
{"text": "All in all, Mr. Moore has given us a lot to think about in Bowling for Columbine, and he has entertained us royally in the process.", "is_fresh": 1, "author": ["Andrew Sarris"]},
{"text": "Michael Moore's latest documentary about America's thirst for violence is his best film yet...", "is_fresh": 1, "author": ["Dennis Schwartz"]},
{"text": "It could change America, not only because it is full of necessary discussion points, but because it is so accessible that it makes complex politics understandable to viewers looking for nothing but energetic entertainment.", "is_fresh": 1, "author": ["Ian Waldron-Mantgani"]},
{"text": "A remarkable piece of documentary filmmaking.", "is_fresh": 1, "author": ["Mark A. Altman"]},
{"text": "\"Bowling for Columbine\" isn't always pretty, but it's never less than disarming.", "is_fresh": 1, "author": ["David N. Butterworth"]},
{"text": "An important film, not only because of what it's about but also because of what it represents. Films like this strengthen our opinions and give us a feeling of democracy and freedom of speech at work.", "is_fresh": 1, "author": ["Mark Dujsik"]},
{"text": "...\"Bowling for Columbine\" remains a disquieting and thought-provoking film...", "is_fresh": 1, "author": ["Tony Toscano"]},
{"text": "The film's strength isn't in its details, but in the larger picture it paints - of a culture in conflict with itself, with the thin veneer of nationalism that covers our deepest, media-soaked fears.", "is_fresh": 1, "author": ["Gabriel Shanks"]},
{"text": "Funnier than most comedies, more moving than most tear-jerkers and more apt to outrage than the most frenzied Oliver Stone diatribe, Michael Moore's Bowling for Columbine belongs on everyone's must-see list.", "is_fresh": 1, "author": ["Ken Hanke"]},
{"text": "Bowling for Columbine isn't a subtle film; instead, it makes its case with Magnum force.", "is_fresh": 1, "author": ["Matt Brunson"]},
{"text": "Will those on the right dismiss Moore as a propagandist? Will those on the left flock to the theater and accept Moore's word as gospel? Either scenario is depressing.", "is_fresh": 1, "author": ["Beth Jones"]},
{"text": "Powerful, disturbing, funny, thought provoking, moving and infuriating.", "is_fresh": 1, "author": ["Edward Johnson-Ott"]},
{"text": "Michael Moore is back, bringing his highly entertaining and thought-provoking guerrilla filmmaking to the topic of guns and violence in America.", "is_fresh": 1, "author": ["Jack Garner"]},
{"text": "Columbine is a remarkable piece of work. It's a meditation on a serious subject presented in a manner so lighthearted that it might actually convince people to listen.", "is_fresh": 1, "author": ["Forrest Hartman"]},
{"text": "Percutant, d\u00e9rangeant, amusant, \u00e9mouvant et for\u00e7ant la r\u00e9flexion. \u00c0 ne manquer sous aucun pr\u00e9texte.", "is_fresh": 1, "author": ["Nicolas Lacroix"]},
{"text": "If director Michael Moore could restrain his ego from belly-flopping on the material, he might have come up with something great.", "is_fresh": 1, "author": ["Mark Palermo"]},
{"text": "This one can't be missed.", "is_fresh": 1, "author": ["Alex Sandell"]},
{"text": "...the most stunning film of the year.", "is_fresh": 1, "author": ["Paul Salfen"]},
{"text": "Bowling For Columbine should be required viewing for teenagers.", "is_fresh": 1, "author": ["Margaret A. McGurk"]},
{"text": "The filmmaker has delivered the most provocative film of the year that's also highly entertaining, thought-provoking and even moving (despite the obvious manipulation).", "is_fresh": 1, "author": ["Jim Judy"]},
{"text": "No one goes unindicted here, which is probably for the best. And if you're not nearly moved to tears by a couple of scenes, you've got ice water in your veins.", "is_fresh": 1, "author": ["Jeff Vice"]},
{"text": "It is a film that will have people walking out halfway through, will encourage others to stand up and applaud, and will, undoubtedly, leave both camps engaged in a ferocious debate for years to come.", "is_fresh": 1, "author": ["Steven Snyder"]},
{"text": "Regardless of your political bent, you've gotta admit that Michael Moore is confronting critical issues that are all too oft-overlooked by the mass media.", "is_fresh": 1, "author": ["Dan Jardine"]},
{"text": "Fun and informative, thoughtful and thought-provoking.", "is_fresh": 1, "author": ["Marjorie Baumgarten"]},
{"text": "Moore's documentary asks the right questions to jump-start serious dialogue.", "is_fresh": 1, "author": ["John A. Nesbit"]},
{"text": "Moore sees a nation that extols the glories of 'family values' while millions line up to see 'Jackass: The Movie'...", "is_fresh": 1, "author": ["James Sanford"]},
{"text": "That it comes up with no simple answers is to its credit.", "is_fresh": 1, "author": ["Cynthia Fuchs"]},
{"text": "Fascinating, thought-provoking, often fitfully funny and sometimes devastatingly sad.", "is_fresh": 1, "author": ["Bob Longino"]},
{"text": "While watching Bowling for Columbine, the word 'absurd' kept coming to mind.", "is_fresh": 1, "author": ["Shirley Klass"]},
{"text": "A thought provoking film.", "is_fresh": 1, "author": ["Clint Morris"]},
{"text": "A thought-provoking picture.", "is_fresh": 1, "author": ["Lawrence Toppman"]},
{"text": "The most bold and socially important film to hit theaters this year.", "is_fresh": 1, "author": ["Phil Villarreal"]},
{"text": "Moore's most coherent and complex film yet.", "is_fresh": 1, "author": ["Duane Dudek"]},
{"text": "A worthy successor to Roger & Me.", "is_fresh": 1, "author": ["Roger Moore"]},
{"text": "This vital film has all of the street-smart urgency of Moore's best work and precious little of the smug self-indulgence that has so often led us fellow lefties to roll our eyes in embarrassment.", "is_fresh": 1, "author": ["Steve Schneider"]},
{"text": "Digs uncomfortable humor out of shocking and sorrowful situations. You'll laugh as you shake your head in disgust.", "is_fresh": 1, "author": ["Sean O'Connell"]},
{"text": "As funny as it is sad. As brilliant as it is terrifying. Moore gives us the first necessary documentary since Roger and Me . And yes, I know he made that, too.", "is_fresh": 1, "author": ["Jimmy O"]},
{"text": "This is a bold, blackly comic masterpiece -- everyone should see it.", "is_fresh": 1, "author": ["Nev Pierce"]},
{"text": "Always the underdog, [Moore]'s fighting hard against just about everyone here, but mostly he's fighting to give a movie that's saddled with a terminally unclear thesis some sense of gravitas.", "is_fresh": 0, "author": ["Jeremy Heilman"]},
{"text": "Bowling for Columbine isn't just a highly recommended accomplishment; it deserves to be required viewing...One of the year's biggest entertainments, and one of its most thought-provoking.", "is_fresh": 1, "author": ["Dustin Putman"]},
{"text": "A sweeping, sometimes insightful and often funny look at America's culture of violence.", "is_fresh": 1, "author": ["Robert Denerstein"]},
{"text": "Bowling for Columbine would never be mistaken for even-handed, but it is at least a sincere attempt to find the source of this country's inability to curb gun violence and murder.", "is_fresh": 1, "author": ["Terry Lawson"]},
{"text": "Thought-provoking, outspoken and frequently hilarious, Bowling for Columbine is vintage Michael Moore.", "is_fresh": 1, "author": ["Todd Anthony"]},
{"text": "Gutsy, mandatory viewing.", "is_fresh": 1, "author": ["Joe Baltake"]},
{"text": "Impressively reframes the gun-control debate in terms that advocates of both sides might find fruitful, but Moore doesn't do anything to shed his reputation as a snot.", "is_fresh": 1, "author": ["Shawn Levy"]},
{"text": "By turns hilarious, infuriating, moving, manipulative, self-serving and, most importantly, absolutely required viewing.", "is_fresh": 1, "author": ["Rene Rodriguez"]},
{"text": "A film as mournful as it is amusing, one that forces even a seasoned agent provocateur like Moore to admit that he cannot answer the questions he poses.", "is_fresh": 1, "author": ["Robert W. Butler"]},
{"text": "[Moore's] better at fingering problems than finding solutions. But though he only scratches the surface, at least he provides a strong itch to explore more.", "is_fresh": 1, "author": ["Bruce Westbrook"]},
{"text": "There is simply no doubt that this film asks the right questions at the right time in the history of our country.", "is_fresh": 1, "author": ["Susan Stark"]},
{"text": "At its best, which occurs often, Michael Moore's Bowling for Columbine rekindles the muckraking, soul-searching spirit of the 'Are we a sick society?' journalism of the 1960s.", "is_fresh": 1, "author": ["Steven Rosen"]},
{"text": "Bowling for Columbine is a great national conversation-starter", "is_fresh": 1, "author": ["Marty Mapes"]},
{"text": "There are some inconsistencies in Moore's points and his arguments jump around a lot to support his view of the world (like any good documentary), but it's still very thought provoking.", "is_fresh": 1, "author": ["Cherryl Dawson and Leigh Ann Palone"]},
{"text": "Even those who would like to dismiss the film outright should find much to mull and debate.", "is_fresh": 1, "author": ["Chris Vognar"]},
{"text": "Where Bowling for Columbine is at its most valuable is in its examination of America's culture of fear as a root cause of gun violence.", "is_fresh": 1, "author": ["Luke Y. Thompson"]},
{"text": "With 'Bowling for Columbine,' Michael Moore gives us the perfect starting point for a national conversation about guns, violence, and fear.", "is_fresh": 1, "author": ["Betty Jo Tucker"]},
{"text": "We need [Moore's] noisy, cocky energy, his passion and class consciousness; we need his shticks, we need his stones.", "is_fresh": 1, "author": ["Lisa Schwarzbaum"]},
{"text": "Mr. Moore aims at so many targets and tilts at so many windmills that his arguments lose persuasion.", "is_fresh": 0, "author": ["Rex Reed"]},
{"text": "Moore provides an invaluable service by sparking debate and encouraging thought. Better still, he does all of this, and more, while remaining one of the most savagely hilarious social critics this side of Jonathan Swift.", "is_fresh": 1, "author": ["Joe Leydon"]},
{"text": "This disquieting, comic brand of guerrilla filmmaking is two hours of subjective preaching that should be required viewing.", "is_fresh": 1, "author": ["Elias Savada"]},
{"text": "Moore's bag of tricks is familiar from Roger & Me -- smirking, oozing false sympathy, insinuating, fiddling with facts -- and it works best the first time you see it.", "is_fresh": 1, "author": ["Jim Lane"]},
{"text": "Stuffed to the brim with ideas, American instigator Michael Moore's film is a rambling examination of American gun culture that uses his usual modus operandi of crucifixion through juxtaposition.", "is_fresh": 1, "author": ["Brent Simon"]},
{"text": "Even if the world doesn't see things the way [Michael Moore] does, his questions are worth asking.... and Bowling for Columbine benefits from his iconoclastic zeal.", "is_fresh": 1, "author": ["Rob Vaux"]},
{"text": "This movie has intelligence and a thirst for the truth, and even if it doesn't find simple answers, it does its job by asking the questions.", "is_fresh": 1, "author": ["Jeffrey Chen"]},
{"text": "Whether you agree with his politics or not ... you will leave the theater thinking and arguing about it.", "is_fresh": 1, "author": ["Michael W. Phillips, Jr."]},
{"text": "Number one - with a bullet. The Last Temptation of Charleton. All politics aside, this is a fantastically made film.", "is_fresh": 1, "author": ["Karina Montgomery"]},
{"text": "Even Moore's detractors, should they be inclined to see the film, will admit that he takes a refreshingly nuanced view of the issue.", "is_fresh": 1, "author": ["Ann Hornaday"]},
{"text": "It explains the very fabric of American society.", "is_fresh": 1, "author": ["Jonathan Curiel"]},
{"text": "By film's end, the foolish are piled up like dead deer on a car hood.", "is_fresh": 1, "author": ["David Elliott"]},
{"text": "Watch it, argue about it, embrace it, denounce it.", "is_fresh": 1, "author": ["Moira MacDonald"]},
{"text": "If, as the old saying goes, the role of the journalist is to 'comfort the afflicted and afflict the comfortable,' then in Bowling For Columbine, Moore fulfils the requirements beyond all previous measure.", "is_fresh": 1, "author": ["Jim Slotek"]},
{"text": "A documentary that is both hilarious and sorrowful.", "is_fresh": 1, "author": ["Roger Ebert"]},
{"text": "It's a crazy, enthralling, sometimes hilarious mess of hypotheses, accusations, and head-scratching flights of folly, and it's there to be wrestled with.", "is_fresh": 1, "author": ["Wesley Morris"]},
{"text": "Whether or not you agree with his politics, it's obvious that Michael Moore's propaganda evokes a remarkable emotional effect.", "is_fresh": 1, "author": ["Susan Granger"]},
{"text": "Stuffed with content that is sometimes riveting and occasionally meandering and often arguable, the documentary is a bit of a shambles -- yet an intriguing and, in light of the timid conservatism that typifies pop Americana, a valuable shambles.", "is_fresh": 1, "author": ["Rick Groen"]},
{"text": "How great to (again) see a movie that actually takes a stand.", "is_fresh": 1, "author": ["Eugene Novikov"]},
{"text": "The film is very funny.", "is_fresh": 1, "author": ["William Arnold"]},
{"text": "A lot of this is amusing and somehow telling. But what does it all add up to?", "is_fresh": 0, "author": ["Desson Thomson"]},
{"text": "It gets my vote for the bravest, most incendiary film of the year.", "is_fresh": 1, "author": ["Glenn Lovell"]},
{"text": "Irreverent, provocative and provoking.", "is_fresh": 1, "author": ["Carrie Rickey"]},
{"text": "As the national media become more sedate and incurious, this country desperately needs a gadfly like Moore. Indeed, we need more like him.", "is_fresh": 1, "author": ["Jeffrey Westhoff"]},
{"text": "It's unnerving, stimulating, likely to provoke anger and sorrow on both political sides -- and, above all, it's extremely funny.", "is_fresh": 1, "author": ["Michael Wilmington"]},
{"text": "...but pardon me if I shoot the messenger (ooh, the horrible pun!) for his propagandist approach to the subject that comes close to crippling his credibility.", "is_fresh": 1, "author": ["Rob Blackwelder"]},
{"text": "Michael Moore has created a dark and twisted piece of Americana that deserves to be seen in every home and every school for years to come. Strike that - it needs to be seen.", "is_fresh": 1, "author": ["Erik Childress"]},
{"text": "Alternately thought-provoking and thoughtless, invigorating and infuriating. But at the very least, it does the valuable service of getting Americans talking beyond patriotic cant and clich\u00e9s.", "is_fresh": 1, "author": ["Kevin Lally"]},
{"text": "[Michael Moore's] brilliant at what he does, but I don't think he's always being honest.", "is_fresh": 1, "author": ["Richard Roeper"]},
{"text": "One gets the sense that Moore is setting out to provoke, rather than seek out honest answers.", "is_fresh": 1, "author": ["Jeanne Aufmuth"]},
{"text": "If there's only one movie that you could see this year...see this one!", "is_fresh": 1, "author": ["JoBlo"]},
{"text": "Hardly an objective documentary, but it's great cinematic polemic...love Moore or loathe him, you've got to admire...the intensity with which he's willing to express his convictions.", "is_fresh": 1, "author": ["Frank Swietek"]},
{"text": "Moore tackles this complex subject with his signature irreverence, creating a heavy but entertaining expos\u00e9.", "is_fresh": 1, "author": ["Kevin N. Laforest"]},
{"text": "It's not the best film of the year by a long shot, but it's the first one that demands to be seen and, once seen, dissected among friends.", "is_fresh": 1, "author": ["Walter Chaw"]},
{"text": "The most thought-provoking film of the year, one that whipsaws you from laughs to tears to outrage.", "is_fresh": 1, "author": ["Marshall Fine"]},
{"text": "Moore's combination of horror and levity is sharp, uncomfortable, and evocative.", "is_fresh": 1, "author": ["Norm Schrager"]},
{"text": "[Moore] gets at vital issues the way no one else seems able to.", "is_fresh": 1, "author": ["John Anderson"]},
{"text": "For anyone who cares about the future of America, it's required viewing.", "is_fresh": 1, "author": ["Glenn Whipp"]},
{"text": "Glib, satirical documentary that fudges facts, makes facile points and engages in the cinematic equivalent of tabloid journalism.", "is_fresh": 0, "author": ["Shlomo Schwartzberg"]},
{"text": "Michael Moore's documentary on America, guns and bowling is infuriating, uneven and unfair -- and a riveting, don't-miss social critique.", "is_fresh": 1, "author": ["James Rocchi"]},
{"text": "I suggest that you give it a shot. It should fuel some interesting conversation.", "is_fresh": 1, "author": ["John Venable"]},
{"text": "A kick-out-the-jams, no-holds-barred examination of America's obsession with guns and the fear-based culture that is at the core of the nation's rampant and outrageous violence", "is_fresh": 1, "author": ["Frederic and Mary Ann Brussat"]},
{"text": "A strike? Not quite, but a good score nonetheless.", "is_fresh": 1, "author": []},
{"text": "Forcefully demonstrat[es] that social criticism is still alive someplace other than on the Internet and that at least one American has the balls to speak his mind.", "is_fresh": 1, "author": ["MaryAnn Johanson"]},
{"text": "While there's obviously no single easy answer to the questions his film raises, Moore jumps from topic to topic without ever really digging below the surface or looking for counterpoints. That said, his questions are crucial ones.", "is_fresh": 1, "author": ["Justin Hartung"]},
{"text": "Moore is simply holding a giant mirror up to the US, and those offended by the film are really taking issue with themselves, which is pretty damn funny.", "is_fresh": 1, "author": ["Jon Popick"]},
{"text": "Riotously funny and deadly serious.", "is_fresh": 1, "author": ["Ken Fox"]},
{"text": "For the most part, it's a work of incendiary genius, steering clear of knee-jerk reactions and quick solutions.", "is_fresh": 1, "author": ["Tor Thorsen"]},
{"text": "I hope the movie is widely seen and debated with appropriate ferocity and thoughtfulness.", "is_fresh": 1, "author": ["A.O. Scott"]},
{"text": "Anything that coaxes us into thinking about why we are the way we are, even as imperfectly as Bowling for Columbine does, is an energizing change of pace.", "is_fresh": 1, "author": ["Kenneth Turan"]},
{"text": "This is a movie that you will want to discuss with other people, and that's the sign of a director who has done his job.", "is_fresh": 1, "author": ["Larry Carroll"]},
{"text": "Although he'd have made a crackerjack ad man, [Moore's] a slipshod filmmaker, and the movie quickly collapses, burying its subject beneath bumper-sticker rehashes of received ideas.", "is_fresh": 0, "author": ["John Powers"]},
{"text": "The food for thought that Moore feeds us is still potent stuff", "is_fresh": 1, "author": ["Robin Clifford"]},
{"text": "The movie can be devastating and is often hilarious.", "is_fresh": 1, "author": ["J. Hoberman"]},
{"text": "certainly thought provoking and oddly entertaining", "is_fresh": 1, "author": ["Laura Clifford"]},
{"text": "Regardless of how dubious its documentary tactics may be, Bowling for Columbine is powerful, thought-provoking, and, upon occasion, bitingly funny.", "is_fresh": 1, "author": ["James Berardinelli"]},
{"text": "There's no excuse for Moore's frequent self-aggrandizing and shrill sanctimoniousness, but he does manage to put the Man in his place.", "is_fresh": 1, "author": ["Ed Gonzalez"]},
{"text": "While certain sequences hit home, the doc is sloppy and unfocused, guilty of the tabloid mentality Moore takes such pleasure in lampooning.", "is_fresh": 0, "author": ["Adam Nayman"]},
{"text": "Here lies the charm of Michael Moore's style, he uses guerilla style journalism to ask the questions no one seems to be asking, of the people no one seems to have the balls to ask.", "is_fresh": 1, "author": ["Alex Keen"]},
{"text": "Frequently extremely funny, sometimes quite intriguing and other times infuriatingly naive.", "is_fresh": 1, "author": ["Steve Rhodes"]},
{"text": "Why do Americans kill one another in such numbers? Michael Moore doesn't know but he sure make the exploration of the question a fascinating one.", "is_fresh": 1, "author": ["Harvey S. Karten"]},
{"text": "A great documentary challenges social norms and demands reaction, and on that score Moore hits us right between the eyes.", "is_fresh": 1, "author": ["Peter Howell"]},
{"text": "This volcanically funny and seriously scary look at America's obsession with guns is meant to shake us up good. And it does.", "is_fresh": 1, "author": ["Peter Travers"]},
{"text": "Moore is a master pot stirrer. He is a drama queen sans make-up like no other. And he is one funny mofo.", "is_fresh": 1, "author": ["David Poland"]},
{"text": "Problematic yet essential, it arrives in theaters looking, if anything, even more caustic and timely than it did at its Cannes premiere.", "is_fresh": 1, "author": ["Mike D'Angelo"]},
{"text": "A flat-out brilliant cinematic essay on the issue of guns and violence in American society.", "is_fresh": 1, "author": ["Kirk Honeycutt"]},
{"text": "", "is_fresh": 1, "author": ["Joe Lozito"]},
{"text": "", "is_fresh": 1, "author": []},
{"text": "", "is_fresh": 1, "author": []},
{"text": "", "is_fresh": 1, "author": []},
{"text": "", "is_fresh": 1, "author": []},
{"text": "", "is_fresh": 1, "author": ["Nell Minow"]},
{"text": "", "is_fresh": 1, "author": ["Garth Franklin"]},
{"text": "", "is_fresh": 1, "author": ["Matthew Turner"]},
{"text": "", "is_fresh": 1, "author": ["Eric D. Snider"]},
{"text": "", "is_fresh": 1, "author": ["Brian Orndorf"]},
{"text": "", "is_fresh": 1, "author": []}
]