[
{"reviews_count": "284", "title": "Carol", "avg_audience_rating": "3.8", "rotten_count": "16", "tomatometer": "94", "audience_score": "73", "avg_critic_rating": "8.6", "fresh_count": "268", "user_ratings_count": "29,199"},
{"text": "The main problem is that the social tapestry is far, far less interesting than in Far from Heaven.", "is_fresh": 0, "author": ["PJ Nabarro"]},
{"text": "A slow, intellectual, coming-of-age romance, Carol is a stunningly filmed piece of emotionally distant art.", "is_fresh": 1, "author": ["Molly Templeton"]},
{"text": "A luscious and profound piece on relationships, sexuality and repression.", "is_fresh": 1, "author": ["Erik Anderson"]},
{"text": "There are so few movies that dare to build themselves around female leads that Carol comes across as outrageously daring. It should not be, but there we are.", "is_fresh": 1, "author": ["Alison Rowat"]},
{"text": "With a minimum number of words and gestures, Mara conveys the complex inner life of Therese, a young woman in 1950s New York who's trying to understand what it means to fall in love.", "is_fresh": 1, "author": ["Kathryn Reklis"]},
{"text": "Iit makes me wish the word \"epic\" hadn't been completely diluted so I could bring the full weight of its meaning to bear on this love story. Extraordinary? Singular? Remarkable? Yes, all of those things too.", "is_fresh": 1, "author": ["Heather Hogan"]},
{"text": "How gorgeous and complex and unforgettable is the world Haynes has created in Carol, and how lovely it is to realize that it might just be our own.", "is_fresh": 1, "author": ["Bobby Finger"]},
{"text": "The film is a triumph of art direction and wardrobe, a seductive art object. When Carol tells her husband \"we're not ugly people, Harge,\" she is telling the truth about a film that finds beauty in bad situations.", "is_fresh": 1, "author": ["A.S. Hamrah"]},
{"text": "Carol is a voluptuous, simmering, shimmering, careless whisper of a film that could easily have been written entirely for Cate Blanchett.", "is_fresh": 1, "author": ["Camilla Long"]},
{"text": "Stunningly atmospheric and featuring eye-catching production and costume design, the romance can be stilted at times, but it's hard not to appreciate the cinematic composition in its entirety.", "is_fresh": 1, "author": ["Kiko Martinez"]},
{"text": "... the ending, although extensive, moves... [Full review in Spanish]", "is_fresh": 1, "author": ["Daniel Krauze"]},
{"text": "The story can be a little over-leisurely in its unfolding but it builds to a powerful finale.", "is_fresh": 1, "author": ["Lynden Barber"]},
{"text": "There isn't a single scene that is anything less than stunning to look at", "is_fresh": 1, "author": ["Robert Kojder"]},
{"text": "This is a society you will recognise - for Carol goes well beyond Carol.", "is_fresh": 1, "author": ["Srijana Mitra Das"]},
{"text": "Underplay and restraint are the strengths of Carol. This is a film that stays clear of dramatisation. It kills you softly. ", "is_fresh": 1, "author": ["Rachit Gupta"]},
{"text": "Not perfect but a must-see for those who like to keep an eye on the serious award contenders.", "is_fresh": 1, "author": ["Matthew Bond"]},
{"text": "Carol is a strange film to parse. It's certainly one of the very best made and well-acted films of the year, but its sum total is cold and reserved.", "is_fresh": 1, "author": ["Sarah Marrs"]},
{"text": "Languid and seductive, it's a slow burner with Rooney Mara and Cate Blanchett as an exquisitely matched pair.", "is_fresh": 1, "author": ["M. Faust"]},
{"text": "Carol is a perfect film that will restore your faith in cinema.", "is_fresh": 1, "author": ["Teo Bugbee"]},
{"text": "What results is equally tragic and beautiful, highlighting the terrible consequences of societal rejection and stigma.", "is_fresh": 1, "author": ["Keeva Stratton"]},
{"text": "In the Golden Age of Hollywood-the 1940s and '50s-there was a genre called the 'woman's picture.' Contemporary filmmaker Todd Haynes has become the modern master of the form. ", "is_fresh": 1, "author": ["Lisa Jensen"]},
{"text": "Cate Blanchett may well be on her way to a third Oscar, and it would not be undeserved. Her Carol is assured, but her consequences are greater, as is the range of emotion Blanchett displays.", "is_fresh": 1, "author": ["Brad Keefe"]},
{"text": "[Todd] Haynes remains the consummate filmmaking artist.", "is_fresh": 1, "author": ["Dan Webster"]},
{"text": "Add Todd Haynes' midcentury love story Carol to your list of favorite Christmas-themed films.", "is_fresh": 1, "author": ["Peg Aloi"]},
{"text": "I relish this stunningly framed paean to female love but fear something priggish is buried within it.", "is_fresh": 1, "author": ["Lisa Rosman"]},
{"text": "Though much of Carol highlights the sexism and rigid social expectations of the time, it's not a preachy film. It's dramatic, certainly, but on a small scale, not a large scale.", "is_fresh": 1, "author": ["Abby Olcese"]},
{"text": "Among the virtues of Todd Haynes's new film, Carol, is the delicacy, the patience, and the sheer amount of screen time that it lavishes on the experience of falling in love.", "is_fresh": 1, "author": ["Francine Prose"]},
{"text": "I can think of no better way to describe Carol to others - it is so powerful, so important, so real and alive that it makes you forget it's not happening to you.", "is_fresh": 1, "author": ["Danielle Riendeau"]},
{"text": "So enraptured was I by the look of the movie, I was almost able to overlook the fact that we don't actually get a lot of dialogue between the two women. ", "is_fresh": 1, "author": ["Rain Jokinen"]},
{"text": "To call Carol a Christmas miracle feels like a gaudy understatement, but that's sort of exactly what it is. ", "is_fresh": 1, "author": ["Kristen Yoonsoo Kim"]},
{"text": "A film for anybody who has ever fallen in and out of love, dealing with hopeless infatuation and the slow transition to the messy reality that all but threatens to burn out the initial spark, Carol is more than just a gorgeously crafted period piece.", "is_fresh": 1, "author": ["Alistair Ryder"]},
{"text": "What Haynes gets so perfectly right with this film really is the very specific sense of time and place.", "is_fresh": 1, "author": ["Lesley Coffin"]},
{"text": "Everything is so perfectly beautiful in Carol, director Todd Haynes' '50s melodrama, that it more closely resembles a museum diorama than a movie -- until its luminous stars, Cate Blanchett and Rooney Mara, breathe life and passion into it.", "is_fresh": 1, "author": ["Sean P. Means"]},
{"text": "The smile of recognition and understanding that closes things out is an unforgettable celebratory stunner that shook me right to my very core.", "is_fresh": 1, "author": ["Sara Michelle Fetters"]},
{"text": "This is a slender movie that Haynes gives plenty of antique atmosphere.", "is_fresh": 1, "author": ["Wesley Morris"]},
{"text": "A love story of sublime subtlety where the smallest encounters have the most consuming impact.", "is_fresh": 1, "author": ["Oliver Whitney"]},
{"text": "Carol is a sensuous, enchanting piece of work which vividly and realistically recreates the 1950s in American in a new way -- never seeming twee or idealised.", "is_fresh": 1, "author": ["Sarah McIntyre"]},
{"text": "Carol tracks the slow-burn of romantic agony, with the added weight of a closet the size of the world. ", "is_fresh": 1, "author": ["Tara Thorne"]},
{"text": "A showcase for the towering talents of Blanchett and Mara, Carol is a sumptuous watch.", "is_fresh": 1, "author": ["Udita Jhunjhunwala"]},
{"text": "Never has the impossible glamour of Cate Blanchett been used to better effect than in Todd Hayne's ravishing and romantic Carol.", "is_fresh": 1, "author": ["Max Weiss"]},
{"text": "A wondrously beautiful piece of filmmaking by American director Todd Haynes.", "is_fresh": 1, "author": ["Kaori Shoji"]},
{"text": "Though it's certainly a two-woman show, Carol finds room to be impossibly generous to very nearly every human being who appears onscreen.", "is_fresh": 1, "author": ["Tim Brayton"]},
{"text": "One of this year's best films.", "is_fresh": 1, "author": ["John Lui"]},
{"text": "A movie that adheres to the Hollywood canons, impeccably shot and crafted and a strong presence by Blanchet and Mara. [Full Review in Spanish]", "is_fresh": 1, "author": ["Hugo Lara"]},
{"text": "'Carol' feels like the third part of a loose trilogy of films set in the past, about women who are trapped by the confines of their time. ", "is_fresh": 1, "author": ["Jason Bailey"]},
{"text": "Carol is a dizzyingly romantic love story that will appeal to any filmgoer.", "is_fresh": 1, "author": ["Peter Calder"]},
{"text": "In their story set in the past, there lies possibility, which is what infuses Carol and Haynes's best work generally, the transcendence of being and becoming yourself.", "is_fresh": 1, "author": ["Nicolas Rapold"]},
{"text": "I value Haynes as an artist, but his art isn't revelatory or emotional; it signifies feelings rather than sharing them.", "is_fresh": 1, "author": ["Rob Gonsalves"]},
{"text": "The period trappings remain impeccable throughout, crackling even when the script doesn't.", "is_fresh": 1, "author": ["J. Olson"]},
{"text": "The torment is captured well enough in the faces of the actors, their characters locked inside an indifferent, inhospitable world.", "is_fresh": 1, "author": ["James Mottram"]},
{"text": "A perfectly acted, perfectly sculpted, perfectly rounded exploration of love and strife in the not-so-perfect '50s.", "is_fresh": 1, "author": ["Wesley Lovell"]},
{"text": "The film still makes the viewer swoon, its heady mood of love and longing generated by the briefest of glances and gestures. ", "is_fresh": 1, "author": ["Jason Best"]},
{"text": "As he did with his gloriously realized 2002 domestic drama Far From Heaven, director Todd Haynes once more brings a story of how, in the pursuit of dreams, even happy endings can come with collateral damage.", "is_fresh": 1, "author": ["Bill Newcott"]},
{"text": "The rhythm is slow but the film is never boring, this is a story worthy of seeing in the big screen. [Full review in Spanish]", "is_fresh": 1, "author": ["Sebastian Zavala Kahn"]},
{"text": "Carol is a truly striking cinematic achievement, artfully exploring themes that resonate still with powerful force today.", "is_fresh": 1, "author": ["Roe McDermott"]},
{"text": "Carol is a movie worth watching to understand its main theme without fear of censorship, and most of all, to realize and understand that love is love regardless of genre. [Full Review in Spanish]", "is_fresh": 1, "author": ["Israel Acosta Aroche"]},
{"text": "What Carol captures more specifically than the thrill of a romantic encounter is the act of remembering only to forget.", "is_fresh": 1, "author": ["Ian Barr"]},
{"text": "This is pure cinema, which through its artistry opens a window into the souls of its characters and admittedly opens the closed windows of its viewers as well.", "is_fresh": 1, "author": ["Emine Yildirim"]},
{"text": "Carol is a n excellent film, full of warmth and romance.", "is_fresh": 1, "author": ["Martin Roberts"]},
{"text": "In spite of being Hannes' less ambitious cinematic film, Carol offers the experience of putting you in the shoes of it's characters and feel what they feel. [Full review in Spanish]", "is_fresh": 1, "author": ["Alonso D\u00edaz de la Vega"]},
{"text": "An elegant, profound, meassured and extraordinary crafted film. Blanchett and Mara are hypnotic. [Full review in Spanish]", "is_fresh": 1, "author": ["Edgardo Res\u00e9ndiz"]},
{"text": "A love story told with looks and subtleties, hand with hand with an extraordinary cinematography work. [Full review in Spanish]", "is_fresh": 1, "author": ["Eduardo Molina"]},
{"text": "It's a delight to scrutinize every inch of Lachman's deep focus compositions and try and take in the abundance of exquisite detail.", "is_fresh": 1, "author": ["Giovanni Marchini Camia"]},
{"text": "'Carol' is the most romantic movie of the year, and through Rooney Mara's performance-and Haynes' careful direction-it might also be the most cathartic.", "is_fresh": 1, "author": ["Brian Formo"]},
{"text": "Every piece fits perfectly to tell a story about love and passion, but ultimately, it feels like you've already seen this film. [Full review in Spanish]", "is_fresh": 0, "author": ["Adri\u00e1n Ruiz"]},
{"text": "'Carol' is a declaration of love to another film era but from a thoroughly modern perspective. [Full review in Spanish]", "is_fresh": 1, "author": ["Alberto Abu\u00edn"]},
{"text": "Brilliant adaptation, revised and refined, from the romantic novel by Patricia Highsmith. One of the best films of the year. [Full review in Spanish]", "is_fresh": 1, "author": ["Ernesto Diezmartinez"]},
{"text": "Focusing on the details that go from set design to excellent performances, Carol is an exquisite film. [Full review in Spanish]", "is_fresh": 1, "author": ["Mario P. Sz\u00e9kely"]},
{"text": "'Carol' is a meticulous low-key reward for audiences.", "is_fresh": 1, "author": ["Donald J. Levit"]},
{"text": "This elegant and perhaps very restrained presentation does just that, presenting the case. Discussing the rest is up to us. [Full review in Spanish]", "is_fresh": 1, "author": ["Erick Estrada"]},
{"text": "The film can be seen as another element that qualifies Todd Haynes as a director with something interesting to say. [Full review in Spanish]", "is_fresh": 1, "author": ["Uriel Barco"]},
{"text": "The sobriety and good taste with which Todd Haynes tells us the story makes Carol an exquisite movie that you simply can't miss. [Full Review in Spanish]", "is_fresh": 1, "author": ["Lucero Sol\u00f3rzano"]},
{"text": "Carool is an effective portrait of an era, but it's also a way of making a thinking about cinema. [Full Review in Spanish]", "is_fresh": 1, "author": ["Luis Fernando Galv\u00e1n"]},
{"text": "Haynes has forged a drama that's wonderfully intimate and subtle while generating considerable emotional power.", "is_fresh": 1, "author": ["Nick Dent"]},
{"text": "The performances in Carol are simply spectacular. [Full review in Spanish]", "is_fresh": 1, "author": ["Ira Franco"]},
{"text": "Both women are magnificent and it's thanks to them, and to Haynes's refined talent, that this story of love and passion is so convincing, so tender, and so painful.", "is_fresh": 1, "author": ["David Stratton"]},
{"text": "Carol's world is built with impeccable attention and care, Haynes consumed as a craftsman delicate. [Full Review in spanish]", "is_fresh": 1, "author": ["Jorge (JJ) Negrete"]},
{"text": "For those seeking an afternoon weepy, the film's poise might be its Achilles heel - we never feel the howl of real heartbreak. But for everyone else, two words will suffice: pure class.", "is_fresh": 1, "author": ["Matt Glasby"]},
{"text": "Cate Blanchett gives an acting class. Dressed in the costumes of Sandy Powell, is a lady, but also a woman. [Full Review in Spanish]", "is_fresh": 1, "author": ["Pablo A. Scholz"]},
{"text": "Haynes creates the scenes to guide the audience emotionally without it noticing. [Full Review in Spanish]", "is_fresh": 1, "author": ["Javier Oca\u00f1a"]},
{"text": "Exquisite and touching, \"Carol\" examines the high price of true love...", "is_fresh": 1, "author": ["Jonathan W. Hickman"]},
{"text": "While Cate Blanchett has been nabbing all the praise, the actual protagonist of the piece, played by Rooney Mara, manages to match the top-billed star with a performance every bit as committed, subtle, moving and intense.", "is_fresh": 1, "author": ["David 'Mad Dog' Bradley"]},
{"text": "\"Carol\" is a perfect example of audiovisual beauty with emotional atrophy. [Full Review in Spanish]", "is_fresh": 0, "author": ["Mikel Zorrilla"]},
{"text": "What's fascinating about Carol is how Haynes and his performers create a sophisticated story about two people trying to be together in an environment that's quietly suffocating them. ", "is_fresh": 1, "author": ["Craig D. Lindsey"]},
{"text": "More than a narrative, the film is a study in visual ways to convey the \"swimmy,\" unreal sensations of love at first sight.", "is_fresh": 1, "author": ["Margot Harrison"]},
{"text": "Todd Haynes avoids melodrama thanks to a stylized visual language and a script that builds subtly conflicts for the characters. [Full review in Spanish] ", "is_fresh": 1, "author": ["Fernanda Sol\u00f3rzano"]},
{"text": "In Carol, director Todd haynes shows us his hability to exploit themes about gender roles and secual orientation with a very submersive story. [Full review in Spanish] ", "is_fresh": 1, "author": ["Benjam\u00edn Harguindey"]},
{"text": "While it avoids being preachy, it fails to stir the heart, which renders it a gorgeous, but relatively stultifying exercise in style.", "is_fresh": 0, "author": ["James Kendrick"]},
{"text": "Though some may be left cold by the remove at which Haynes keeps us from his superlative leads, others will be putty in his gifted hands.", "is_fresh": 1, "author": ["Michael Nordine"]},
{"text": "Director Todd Haynes steers away from the melodrama that drove Far From Heaven (2002), the emphasis here being on restraint, mood and beautifully nuanced performances, all framed by the type of exacting period recreation that has now become standard.", "is_fresh": 1, "author": ["Jim Schembri"]},
{"text": "Carol is a snow globe of a movie: an ornate and delicate piece, frozen in time. Lavishly designed and performed with precision, it's a love story that deserves to endure.", "is_fresh": 1, "author": ["Alex Doenau"]},
{"text": "Cate Blanchett and Rooney Mara take us inside a passionate story of desire and retribution that's both satisfying and disturbing.", "is_fresh": 1, "author": ["Paul Byrnes"]},
{"text": "makes you wonder if a little chaos might have benefited everyone, potentially stretching the story and characters into more interesting places.", "is_fresh": 0, "author": ["Luke Buckmaster"]},
{"text": "Carol is essential. It's the work of a premiere filmmaker whose talents only continue to grow.", "is_fresh": 1, "author": ["Glenn Dunks"]},
{"text": "A movie of impeccable surfaces and subterranean anxieties...", "is_fresh": 1, "author": ["John Beifuss"]},
{"text": "Todd Haynes is a director born to make Highsmith's novel about lesbian love ending happily. A masterpiece that is even a better adaptation than Hitchcock's \"Strangers on a Train\", another Highsmith novel. ", "is_fresh": 1, "author": ["Louis Proyect"]},
{"text": "It is equally political and broadly universal and applicable in its aim of dramatising an unexpected trace of love that might be true and worth following.", "is_fresh": 1, "author": ["Damien Straker"]},
{"text": "Haynes taps into universal anxieties about love and relationships without ever letting go of the sense of imprisonment that came with being gay in the 1950s.", "is_fresh": 1, "author": ["David Sims"]},
{"text": "Right down to the delicate touches, like the ways two different people's hands linger on Therese's shoulder, everything is constructed with minute attention to human detail.", "is_fresh": 1, "author": ["Tim Martain"]},
{"text": "A heartening romance for our time as well as theirs.", "is_fresh": 1, "author": ["Kristian M. Lin"]},
{"text": "Flawless in every way: sumptuous visually and emotionally. One of the more mature and sophisticated romances the big screen has ever seen.", "is_fresh": 1, "author": ["MaryAnn Johanson"]},
{"text": "Todd Haynes blends the emotional sincerity of character with a pointed sociopolitical statement and a quiet satirical contempt for the squareness of its 1950s setting.", "is_fresh": 1, "author": ["John Serba"]},
{"text": "Despite its emotional inaccessibility and overreliance on aesthetics, is still worth a watch for those with maturity and patience.", "is_fresh": 1, "author": ["Cameron Meier"]},
{"text": "The storytelling is sublime, as is the look of the film. It is a work of sheer beauty ... Blanchett is breathtaking in the title role", "is_fresh": 1, "author": ["Louise Keller"]},
{"text": "It has all the stylistic grace of Haynes' Far From Heaven (2002), but it is more involving, and thus a slightly more advanced picture. It's also a delight from start to finish.", "is_fresh": 1, "author": ["CJ Johnson"]},
{"text": "Cate Blanchett's is so broad and unsubtle that \"Carol\" feels like a \"Carol Burnett Show\" parody.", "is_fresh": 0, "author": ["Phil Hall"]},
{"text": "Haynes designs a perfectly nostaglic sensory experience - something like a Manhattan department store window - needing a suppler story to sell.", "is_fresh": 1, "author": ["Steve Persall"]},
{"text": "This is the best love story of the year, superbly acted by Blanchett and Mara and directed by Haynes, but there is not much of an edge to the rest of the story.", "is_fresh": 1, "author": ["Robert Roten"]},
{"text": "How can you call Carol chilly when it's literally the thawing of cinema's inglorious past?", "is_fresh": 1, "author": ["Simon Miraudo"]},
{"text": "This remarkable, intelligent and beautifully humane film evokes the smoky, poisonous beauty of the time. Almost perfectly.", "is_fresh": 1, "author": ["Philip Martin"]},
{"text": "Carol is a visually rich period drama that boasts strong performances and refined direction, though some may find it easier to admire than love.", "is_fresh": 1, "author": ["Sandy Schaefer"]},
{"text": "It resonates most thanks to the performances that bring it to life.", "is_fresh": 1, "author": ["Scott Renshaw"]},
{"text": "A sumptuous tale of two women who don't always play by those rules.", "is_fresh": 1, "author": ["Michael Smith"]},
{"text": "Director Todd Haynes has created in \"Carol\" a world so rich in texture, design and mood that it is easy to fall into its loving arms of emotions and get enveloped in its story of love and loss.", "is_fresh": 1, "author": ["Rick Bentley"]},
{"text": "Carol is a beautifully shot film that captures the mix of nervousness and excitement that comes with most new relationships.", "is_fresh": 1, "author": ["Matthew Toomey"]},
{"text": "Haynes maintains the film's temperature at a low simmer and expertly brings it to the boil, but while \"Carol\" builds to a scene of intense eroticism, it's mostly about all the things you can't reach out and touch.", "is_fresh": 1, "author": ["Ty Burr"]},
{"text": "Worth watching for the electrifying chemistry of its love-struck leads alone.", "is_fresh": 1, "author": ["Alex Zane"]},
{"text": "It is a classy entertainment with a delicious combination of psychological manipulation and latent liberation.", "is_fresh": 1, "author": ["Julian Wood"]},
{"text": "This is about two people who didn't know what their lives were until they met each other, then scrambling, in their muted, buttoned-up way, to figure out what happens next. Haynes loves them so much that he believes they can. You will too.", "is_fresh": 1, "author": ["Will Leitch"]},
{"text": "Haynes brilliantly captures each of those small moments of both grace and indignity.", "is_fresh": 1, "author": ["Josh Bell"]},
{"text": "Blanchett's Carol is matched for emotional perplexity by Therese, Rooney Mara's younger shop clerk and photographer manqu\u00e9. What does it mean when the two of us are in the same room, they survey, in a succession of gestures, ventures and setbacks", "is_fresh": 1, "author": ["Ray Pride"]},
{"text": "Despite year-end plaudits and the promising reunion of Haynes and cinematographer Lachman, this proves a fairly anemic forbidden-love melodrama ... Blanchett turns in a rare one-note performance.", "is_fresh": 0, "author": ["Glenn Lovell"]},
{"text": "The impeccable style of the 1950s era conceals a maelstrom of messy, raw emotion, which overflows in the film's heartbreaking second act as the forbidden lovers discover the terrible cost of their liaisons.", "is_fresh": 1, "author": ["Georgia Morgan"]},
{"text": "The music, cinematography, costumes, sets and overall design are flawless, and the film as a whole is utterly exquisite. Maybe a little too exquisite-Carol is so painstaking, I felt like I was watching it from behind a velvet rope.", "is_fresh": 1, "author": ["Daniel Barnes"]},
{"text": "From Highsmith's bold story, Haynes fashions a remarkable study of emotions brought to life by two of the best movie performances of the year.", "is_fresh": 1, "author": ["Dann Gire"]},
{"text": "As a love story this left me unsatisfied, though I enjoyed the lush period trappings and the flattering sense of how enlightened I am compared to people in the 1950s.", "is_fresh": 0, "author": ["J. R. Jones"]},
{"text": "Blanchett and Mara are superb at executing one of the cinema's great gifts: the exchanged glance, held long enough to scorch even the well-mannered Fifties.", "is_fresh": 1, "author": ["Robert Horton"]},
{"text": "All of these things add up to create a film where nothing happens by accident and everything enriches the storytelling.", "is_fresh": 1, "author": ["Beth Accomando"]},
{"text": "Mara and Blanchett give two of the finest performances of 2015.", "is_fresh": 1, "author": ["Allyson Johnson"]},
{"text": "Intoxicating, romantic. Blanchett and Mara are year's most romantic couple. Beautifully filmed in Super 16mm. ", "is_fresh": 1, "author": ["James Verniere"]},
{"text": "A cold fish of a film, beautiful but taxing.", "is_fresh": 1, "author": ["Richard von Busack"]},
{"text": "Like an Edward Hopper painting sprung to life, its mood washes over you in an evocative mix of opulence and despair as it dizzyingly dances with the forbidden. ", "is_fresh": 1, "author": ["Al Alexander"]},
{"text": "A perfect bookend piece to director Todd Haynes' 2002 Far from Heaven, which was merely one of the great motion pictures of the 2000s.", "is_fresh": 1, "author": ["Matt Brunson"]},
{"text": "The lesbian affair at its heart is rendered with intelligence and care, and if there are speeches to be made, they are happily few, and far more personal than political.", "is_fresh": 1, "author": ["Matthew Lickona"]},
{"text": "The performances are impeccable, the writing terrific, the direction solid, and the film looks lush and absolutely gorgeous. (Full Content Review for Parents - Sex, Profanity, Violence, etc. - Also Available)", "is_fresh": 1, "author": ["Jim Judy"]},
{"text": "Will love conquer all? Probably not. The bigger question is whether it will endure. The lush, beautifully acted and shot \"Carol\" answers this with a sweet smile.", "is_fresh": 1, "author": ["Tom Long"]},
{"text": "It's not the story so much that is striking as Haynes' re-creation of the era. And it is not just in costumes and sets; it's the way he uses his camera to capture knowing glances, furtive looks, gestures and silences that speak volumes.", "is_fresh": 1, "author": ["Bob Bloom"]},
{"text": "Carol is a fine, elegant melodrama -- nothing more and nothing less.", "is_fresh": 1, "author": ["Mark Dujsik"]},
{"text": "\"Carol\" demonstrates that a period piece can engagingly comment on modern times.", "is_fresh": 1, "author": ["Calvin Wilson"]},
{"text": "\"Carol\" possesses the same quiet, catlike powers of its magnetic title character: It swirls around to ambush you ... and make you swoon.", "is_fresh": 1, "author": ["Ann Hornaday"]},
{"text": "Haynes composes the film like a series of Edward Hopper paintings: elegant, beautifully calibrated shots that express the street-level loneliness of midcentury life.", "is_fresh": 1, "author": ["Colin Covert"]},
{"text": "Exquisite...a small film, but it's like a flawless gem with endless facets to explore and appreciate.", "is_fresh": 1, "author": ["Frank Swietek"]},
{"text": "Cate Blanchett is outstanding as a married woman who falls for a younger woman. As that younger woman, Rooney Mara is even better.", "is_fresh": 1, "author": ["Bill Goodykoontz"]},
{"text": "The experience of watching \"Carol\" is like being pulled into a different place, real and not real, like the best movies, like being in love.", "is_fresh": 1, "author": ["Jeff Baker"]},
{"text": "The film's cool, distant beauty is mirrored in the performance of the wonderful Cate Blanchett, who plays the wealthy, older and experienced Carol. As Therese, whose infatuation with Carol opens her eyes to who she is and what she desires.", "is_fresh": 1, "author": ["Joanna Connors"]},
{"text": "Control isn't just the formal rigor that Carol exhibits from the very first scene: It's the stifling exactitude required of its two main characters, whose every public utterance and gesture must be delivered in code.", "is_fresh": 1, "author": ["Jim Ridley"]},
{"text": "Haynes looks back on mid-century conformity without camp or condescension. Carol's extravagantly beautiful surfaces are both seductive and dangerous, reminding us that nostalgia for this so-called simpler time papers over some stark injustices.", "is_fresh": 1, "author": ["Alison Gillmor"]},
{"text": "Todd Haynes' most rapturous, riveting film in two decades. An exquisite romance of both gossamer beauty and gargantuan emotions, propelled by two of the year's best female performances and a synesthetic symbiosis between its cinematography and score.", "is_fresh": 1, "author": ["Nick Rogers"]},
{"text": "In Carol, all the elements dovetail perfectly to create a movie that is as irresistible as its title character. The movie has an allure that is almost trancelike, mimicking for the viewers the inescapable attraction experienced by the two main characters.", "is_fresh": 1, "author": ["Marjorie Baumgarten"]},
{"text": "Blanchett's a formidable technician, a performer of serious wit and fire. She serves \"Carol\" well and truly throughout.", "is_fresh": 1, "author": ["Michael Phillips"]},
{"text": "Haynes directs with a subtle precision, the script by Phyllis Nagy is a well-crafted gem, and Cate Blanchett and Rooney Mara make for one of the most intriguing and memorable movie couples of the year.", "is_fresh": 1, "author": ["Richard Roeper"]},
{"text": "Haynes is at his best when losing himself in the moment, isolating longing on a molecular level. \"Carol\" has an abundance of these beats, and each one works to reinforce what a special, profoundly felt movie it is.", "is_fresh": 1, "author": ["Brian Orndorf"]},
{"text": "You leave the film's soft-grained world reluctantly, as if taking off a warm coat when it's still a little chilly inside.", "is_fresh": 1, "author": ["Moira MacDonald"]},
{"text": "...understands that even the slightest of gestures can crush.", "is_fresh": 1, "author": ["Josh Larsen"]},
{"text": "Mara displays fondness and disinterest so naturally you can swear you know exactly what the character's thinking without her actually saying anything.", "is_fresh": 1, "author": ["Matt Pais"]},
{"text": "Mara and Blanchett are each extraordinary, working in the most organic and soul-stirring ways.", "is_fresh": 1, "author": ["Steven Rea"]},
{"text": "...an erratic yet heartwrenching period piece. ", "is_fresh": 1, "author": ["David Nusair"]},
{"text": "Even if it didn't have a spellbinding central performance from Cate Blanchett, Carol would be worth seeing just for its sumptuous re-creation of an era...Todd Haynes' film is luminescent - like a perfectly preserved Kodachrome image.", "is_fresh": 1, "author": ["Cary Darling"]},
{"text": "A beguiling story of two people from different worlds who come together powerfully.", "is_fresh": 1, "author": ["Mike McGranaghan"]},
{"text": "As in his gorgeous film Far From Heaven and TV series Mildred Pierce, filmmaker Todd Haynes tells a simple story with visual impact and thematic resonance.", "is_fresh": 1, "author": ["Rich Cline"]},
{"text": "The movie's sensory evocation of falling in love, with all its joys and miseries, is gender-blind; its critique of patriarchal power-hoarding and bourgeois repressiveness -- the Sirkian theme Haynes previously explored in Far from Heaven -- is timeless.", "is_fresh": 1, "author": ["Graham Fuller"]},
{"text": "The imperfect reality of world aspiring for perfection synchronises beautifully.", "is_fresh": 1, "author": ["Cameron Williams"]},
{"text": "It's all about a mood, a feeling that leaves you aching to knead the unspoken into a satisfying loaf of thought, but sits unleavened like a cold lump of dough at the bottom of your gut...Carol is a masterpiece, a shining reflection of what movies do well.", "is_fresh": 1, "author": ["Katherine Monk"]},
{"text": "Carol captures the specifics of one relationship thwarted by Eisenhower-era conventions even as it whispers timeless truth about the affairs of almost any heart.", "is_fresh": 1, "author": ["Ken Eisner"]},
{"text": "It's a flawlessly crafted, stirringly intelligent, resonantly emotional story about two women daring to follow their hearts.", "is_fresh": 1, "author": ["Anita Katz"]},
{"text": "A timeless, forbidden, and music-cued affair of the heart.", "is_fresh": 1, "author": ["Kevin A. Ranson"]},
{"text": "This is a lesbian romance told exclusively in the vocabulary of heterosexual Hollywood.", "is_fresh": 0, "author": ["Kate Taylor"]},
{"text": "Carol is a complex human story about unspoken desire, social expectations and an authentic life.", "is_fresh": 1, "author": ["Liz Braun"]},
{"text": "Carol is the rare film that couldn't just get away with being silent, but could probably also be just as engrossing completely still -- just sitting there, watching Mara and Blanchett watch each other.", "is_fresh": 1, "author": ["David Berry"]},
{"text": "Todd Haynes subverts just about every element of the 50s lesbian narrative in this gorgeous Cannes-approved romance.", "is_fresh": 1, "author": ["Susan G. Cole"]},
{"text": "Haynes reminds us how bad things used to be. He also invites us to remember how beautiful mad love can be and to swoon along with it.", "is_fresh": 1, "author": ["Peter Howell"]},
{"text": "Haynes elicits two great performances and provides the perfect frame for them, not just in terms of setting, but through smart casting and attention to the smallest of performances. Notice how even actors with one line grab one's attention.", "is_fresh": 1, "author": ["Mick LaSalle"]},
{"text": "Carol uses satire as a mask which, once cast aside, leads to ... unspoken discussions on station, gender, sexuality, and identity.", "is_fresh": 1, "author": ["Shawn Hazelett"]},
{"text": "None of its individual parts seems particularly impressive on paper, yet Haynes taps into the hyperspecificities of a forbidden, secret love to such an achingly tender degree that I feared Mara's character would literally shatter into pieces.", "is_fresh": 1, "author": ["Derek Smith"]},
{"text": "It has a furtive soulfulness that sneaks up on you. It's the real thing - a true romance - merged with a resonant riff on what might be called the metaphysics of tolerance.", "is_fresh": 1, "author": ["Owen Gleiberman"]},
{"text": "It's the measured performances by co-stars Cate Blanchett and Rooney Mara that make this film special.", "is_fresh": 1, "author": ["Dennis Schwartz"]},
{"text": "Carol is a haunting motion picture - the kind of film that stays with the viewer long after the multiplex's neon signage has disappeared from the rear-view mirror.", "is_fresh": 1, "author": ["James Berardinelli"]},
{"text": "Perhaps I expected too much, but I was disappointed in Todd Haynes' tasteful, yet tedious, lesbian melodrama, finding it furtive, overly fetishistic and formalized.", "is_fresh": 0, "author": ["Susan Granger"]},
{"text": "One of the year's best, an emotionally rich lesbian love story.", "is_fresh": 1, "author": ["Frederic and Mary Ann Brussat"]},
{"text": "Todd Haynes has directed Carol, from a screenplay by Phyllis Nagy, with superb precision. ", "is_fresh": 1, "author": ["Jeffrey M. Anderson"]},
{"text": "A sad heartbreaker of a film.", "is_fresh": 1, "author": ["Allan Hunter"]},
{"text": "There's no way Joan Crawford or Barbara Stanwyck would ever have been allowed to touch this material during the golden age of women's pictures, but their loss is Blanchett and Mara's gain.", "is_fresh": 1, "author": ["Violet LeVoit"]},
{"text": "It's a film that justifies repeated viewing, each time a new detail underlining its resonant depiction of love as an adventure.", "is_fresh": 1, "author": ["Demetrios Matheou"]},
{"text": "Director Haynes unfurls this love story in the shadows with a delicate hand. ", "is_fresh": 1, "author": ["Leonard Maltin"]},
{"text": "Blanchett and Mara seem visibly to be enhancing and encouraging the other's work, never more so than in the final scene, which depends for its intensity, like so much of the film, on the exchange of eye contact.", "is_fresh": 1, "author": ["Ryan Gilbey"]},
{"text": "An exquisite film by Todd Haynes that delves into the lost arts and crafts of a raised eyebrow, a smouldering glance, a sharp intake of breath, a brush of a coral-polished fingernail, a pulse of expensive scent and looks that could thrill.", "is_fresh": 1, "author": ["Kate Muir"]},
{"text": "Carol is an easy film to admire -- so beautiful to look at; entirely exquisite -- but such a hard film to feel anything for.", "is_fresh": 0, "author": ["Deborah Ross"]},
{"text": "Liberated by the prospect of working from someone else's script (a first), Haynes has conjured a polymorphous kaleidoscope that can be read variously as a ravishing romance, sly psychodrama or arch sociopolitical satire.", "is_fresh": 1, "author": ["Mark Kermode"]},
{"text": "It's a transcendent work of art.", "is_fresh": 1, "author": ["Tony Macklin"]},
{"text": "The film is rooted in the most essential truth of all: Carol and Therese need each other in order to become the best people they can be.", "is_fresh": 1, "author": ["Robert Levin"]},
{"text": "... both specific and universal, a story that takes place 63 years ago yet resonates with contemporary immediacy beneath the surface.", "is_fresh": 1, "author": ["Todd Jorgenson"]},
{"text": "It is devastating, superbly played and deftly made. It is wonderful.", "is_fresh": 1, "author": ["Lewis Bazley"]},
{"text": "A stunning masterpiece, front-loaded with atmospheric mood and poignant tenderness.", "is_fresh": 1, "author": ["Alan Jones"]},
{"text": "It is a simple enough tale, but exquisitely acted, and directed with enormous style by Todd Haynes. You can almost smell the era; the cigarettes and the stultifying conservatism.", "is_fresh": 1, "author": ["Brian Viner"]},
{"text": "\"Carol\" establishes a mood of mournful romance, half nostalgic and half ominous, that never lets go.", "is_fresh": 1, "author": ["Andrew O'Hehir"]},
{"text": "Moving, beautifully acted '50s-set drama about secret love.", "is_fresh": 1, "author": ["S. Jhoanna Robledo"]},
{"text": "Lovely, austere. And bloodless.", "is_fresh": 1, "author": ["Roger Moore"]},
{"text": "One of the most beautiful love stories ever told.", "is_fresh": 1, "author": ["Sophie Monks Kaufman"]},
{"text": "The most romantic movie of the year.", "is_fresh": 1, "author": ["Nell Minow"]},
{"text": "Todd Haynes has made a love story intimate in scope and sweeping in feeling, one that shoves pessimism to the sidelines in exchange for optimism and tough, earnest sentiment.", "is_fresh": 1, "author": ["Dustin Putman"]},
{"text": "Carol is a quiet movie, choosing to let something blossom on its own instead of forcing of it. ", "is_fresh": 1, "author": ["Jon Winkler"]},
{"text": "Director Todd Haynes (Far From Heaven) stages the characters' fraught journey with an elegant touch. ", "is_fresh": 1, "author": ["Mara Reinstein"]},
{"text": "Todd Haynes' resonant period romance echoes 'Far From Heaven,' but Cate Blanchett and Rooney Mara elude that film's glossy fatalism.", "is_fresh": 1, "author": ["Chris Barsanti"]},
{"text": "While the narrative on the whole is ultimately very straightforward and uncomplicated, the weight is provided by some tremendous performances, incredible style, and a magnificent score.", "is_fresh": 1, "author": ["Eric Eisenberg"]},
{"text": "Under Haynes' sure hand, Blanchett and Mara deliver a love story to melt to.", "is_fresh": 1, "author": ["Kevin Harley"]},
{"text": "Haynes tells us that, thrillingly, passion burns hotter than fear.", "is_fresh": 1, "author": ["Jamie Dunn"]},
{"text": "Mara and Blanchett make for an unforgettable couple in a beautiful film about longing, loss and the confusion and wonder of love.", "is_fresh": 1, "author": ["Nev Pierce"]},
{"text": "Demonstra (e \u00e9 triste que isto ainda seja necess\u00e1rio) que o que \u00e9 realmente imoral \u00e9 tentar sufocar a livre express\u00e3o rom\u00e2ntica e sexual em um mundo cada vez mais tomado pelo \u00f3dio e pela intoler\u00e2ncia.", "is_fresh": 1, "author": ["Pablo Villa\u00e7a"]},
{"text": "Holds back a bit compared to its more melodramatic predecessor. But these are small complaints about a movie containing a trio of truly extraordinary and moving performances from Blanchett, Mara and Paulson that place it among the year's best.", "is_fresh": 1, "author": ["Lou Lumenick"]},
{"text": "Todd Haynes' sumptuous romantic drama strikes a welcome note of optimism that's still rare in gay cinema.", "is_fresh": 1, "author": ["Rafer Guzman"]},
{"text": "With terrific acting performances and a bygone era that sparks to life with impressive filmmaking, Carol crafts a memorable romance gift-wrapped for the holiday.", "is_fresh": 1, "author": ["Brian Truitt"]},
{"text": "The two lead performances, the overplayer and the underplayer, complement each other wonderfully.", "is_fresh": 1, "author": ["Carrie Rickey"]},
{"text": "It wasn't until the final shot of Carol that I realized how tightly the film had wrapped me in its web.", "is_fresh": 1, "author": ["Todd VanDerWerff"]},
{"text": "I did like the performances, even though Blanchett was a bit stagey. However, with this paper thin storyline that is overly drawn out, I did not care about the fate of the two main characters and the whole thing left me emotionally cold.", "is_fresh": 0, "author": ["Neil Rosen"]},
{"text": "The problem is that there is very little chemistry between the actresses, and Haynes and screenwriter Phyllis Nagy are far too studied in their depiction of passion.", "is_fresh": 0, "author": ["Peter Rainer"]},
{"text": "Brilliantly acted, and possibly the most tasteful romance ever filmed, but so relentlessly elegant that it's a little suffocating.", "is_fresh": 1, "author": ["Vincent Mancini"]},
{"text": "Blanchett is a naturally theatrical actress, unafraid of being \"dramatic.\" Because of this, she sometimes seems out of place in a realistic context. But \"Carol\" plays to her strengths.", "is_fresh": 1, "author": ["Sheila O'Malley"]},
{"text": "I'm betting that Highsmith, a bold stylist herself, would have loved Carol even though it's a Todd Haynes film in every fiber of its Douglas Sirk-inspired being.", "is_fresh": 1, "author": ["Ella Taylor"]},
{"text": "Haynes builds a film on the furtive glances and secretive language that gays and lesbians in this country had to rely upon for so long to find each other and to express themselves.", "is_fresh": 1, "author": ["Alonso Duralde"]},
{"text": "In the hands of Cate Blanchett, who is wondrous and magnetic as always, and Rooney Mara, who has never been better or more touching, the movie becomes unforgettable.", "is_fresh": 1, "author": ["Stephen Rebello"]},
{"text": "Loneliness and longing are at the center of these two women's lives, at least for a while, and they're expressed by nuance and implication in a pair of superb performances, and by a lovely evocation of the period.", "is_fresh": 1, "author": ["Joe Morgenstern"]},
{"text": "As its bravura filmmaking unfolds, those specifics fade and what remains are the feelings and emotions that all the best movie love stories create. And make no mistake, \"Carol\" belongs in that group.", "is_fresh": 1, "author": ["Kenneth Turan"]},
{"text": "At once ardent and analytical, cerebral and swooning, \"Carol\" is a study in human magnetism, in the physics and optics of eros. With sparse dialogue and restrained drama, the film is a symphony of angles and glances, of colors and shadows.", "is_fresh": 1, "author": ["A.O. Scott"]},
{"text": "It's been a long time since the movies have seen a fuse of pure ardor burn this slowly and steadily, leading to such an unexpectedly moving explosion of resolve.", "is_fresh": 1, "author": ["Mike D'Angelo"]},
{"text": "What's remarkable about Carol is that it seems to exist entirely in the present moment-to be precise, in that electric, elastic, heart-stopping/heart-racing present of romantic desire.", "is_fresh": 1, "author": ["Amy Taubin"]},
{"text": "The director Todd Haynes and the novelist Patricia Highsmith fit together like a hand and glove-a beautifully manicured hand and a sleek gray-green leather glove, two images that figure prominently in Carol ...", "is_fresh": 1, "author": ["Dana Stevens"]},
{"text": "Todd Haynes' commitment to outcasts, then and now, makes Carol a romantic spellbinder that cuts deep. It's one of the year's very best films. Blanchett and Mara should have Oscar calling. ", "is_fresh": 1, "author": ["Peter Travers"]},
{"text": "Mr. Haynes is a director of enormous imagination and insight, so for a fragile narrative as exquisite and tender as Chantilly lace, Mr. Haynes fits the emotions to the period like the movements in a symphony.", "is_fresh": 1, "author": ["Rex Reed"]},
{"text": "Haynes is a master for period pieces - the movie nicely re-creates Eisenhower-era New York - and his skill with actresses.", "is_fresh": 1, "author": ["Stephen Whitty"]},
{"text": "The film leaves an indelible impression of what it is like to have to slip into shadows, away from windows and mirrors, to experience true passion.", "is_fresh": 1, "author": ["Kirk Honeycutt"]},
{"text": "For me, it's a movie that's easy to admire but hard to hold close.", "is_fresh": 1, "author": ["Stephanie Zacharek"]},
{"text": "A gorgeous and sumptuous period love story that's a worthy addition to Todd Haynes' filmography.", "is_fresh": 1, "author": ["Edward Douglas"]},
{"text": "A passionate yet detached study of the practicalities of love - the twisty-turny route one must navigate to form any kind of relationship, and especially a type that has so many barriers thrown up in its path. ", "is_fresh": 1, "author": ["Matt Prigge"]},
{"text": "Carol is an overwhelmingly beautiful film. It looks like a dream, it sounds like whispered want, and it feels like falling in love in all its stomach turning terror and ecstasy. Even its title rolls elegantly off the tongue.", "is_fresh": 1, "author": ["Lindsey Bahr"]},
{"text": "...Carol comes off as a hollow exercise in style.", "is_fresh": 0, "author": ["Odie Henderson"]},
{"text": "Todd Haynes' immaculate film sweeps us away, but not for the reasons I was expecting. ", "is_fresh": 1, "author": ["Joanna Langfield"]},
{"text": "Remarkably personal and poised.", "is_fresh": 1, "author": ["Nina Corcoran"]},
{"text": "While Mara and Chandler deliver incredible performances, Blanchett is a vision to behold.", "is_fresh": 1, "author": ["Nick Romano"]},
{"text": "Carol is both a beautiful miniature and a majestic romance; it's set 60 years in the past, but it's for now.", "is_fresh": 1, "author": ["Steve Pond"]},
{"text": "A mannered, classical romance that replaces the original pulp identity of the novel at the time of its release with a gentle, affecting two-hander as the author surely envisioned it.", "is_fresh": 1, "author": ["Eric Kohn"]},
{"text": "Carol is gorgeous, gently groundbreaking, and might be the saddest thing you'll ever see.", "is_fresh": 1, "author": ["Tim Robey"]},
{"text": "Its story is ultimately too familiar and chilly to truly hit the melodramatic peaks of Haynes's Far From Heaven, but it nonetheless boasts a commendable understanding of the complexities of human desire.", "is_fresh": 1, "author": ["Nick Schager"]},
{"text": "Critically, Haynes mimics the reserve of the era, depending on glances or gestures to communicate the powerful, dangerous feelings that pass between Carol and Therese.", "is_fresh": 1, "author": ["Michael Bonner"]},
{"text": "A poignant period piece which serves as a telling reminder of how far we've come from the days when homosexuality was still considered a crime of moral turpitude", "is_fresh": 1, "author": ["Kam Williams"]},
{"text": "Haynes ... does beauty, and a dread of the unbeautiful sustains his film.", "is_fresh": 1, "author": ["Anthony Lane"]},
{"text": "Get to the theater before the hype overwhelms the touching drama. Carol is worth falling in love with.", "is_fresh": 1, "author": ["Monica Castillo"]},
{"text": "Despite the meticulousness of Haynes's adaptation, the complexity of Therese's attitude is lost, and with it much of the strange energy and ambiguous pleasures of Highsmith's inimitable book.", "is_fresh": 0, "author": ["Naomi Fry"]},
{"text": "Exquisite from first frame to last, Carol indulges in every classic moviemaking virtue while infusing a modern sensibility.", "is_fresh": 1, "author": ["Bob Strauss"]},
{"text": "A gorgeous time capsule capturing the manners and mores of America at the start of the conservative Eisenhower era, bristling with a pair of lead performances that stand among the year's best.", "is_fresh": 1, "author": ["Chris Nashawaty"]},
{"text": "While that sort of attention to detail is sure to garner well-deserved Oscar nominations, it serve the correct purpose, which is to establish the world and then get out of the way.", "is_fresh": 1, "author": ["Fred Topel"]},
{"text": "Faithful adaptation of Patricia Highsmith's love story features two moving performances in a wonderfully realized production.", "is_fresh": 1, "author": ["Rex Roberts"]},
{"text": "This is a story about the most immutable force in nature and all the delirious highs and lows it imparts. Carol argues that yes, love hurts. But man, does it feel good.", "is_fresh": 1, "author": ["Rene Rodriguez"]},
{"text": "\"Carol\" surprisingly also finds Haynes at his most hopeful that such loves can survive.", "is_fresh": 1, "author": ["Travis Hopson"]},
{"text": "The film never really goes for crescendo, rather it simmers a cauldron of heated but restrained emotions and sensations - gorgeously.", "is_fresh": 1, "author": ["Ian Mantgani"]},
{"text": "Todd Haynes has crafted a visually stunning picture with Carol, a lesbian love story brought to life with remarkable performances by Cate Blanchett and Rooney Mara.", "is_fresh": 1, "author": ["Alicia Adejobi"]},
{"text": "Beautiful in practically every way, Carol is a touchingly romantic triumph.", "is_fresh": 1, "author": ["David James"]},
{"text": "The film dares its viewers to consider that--for a couple of hours, at least--even when a thing seems too good to be true, it might not be.", "is_fresh": 1, "author": ["Steve Macfarlane"]},
{"text": "Blanchett captures the lioness quality of Carol, steaming forward with blinders on as she finds herself entranced by Therese's innocence. Her slow, sultry hand moving across her lover's shoulder is a vibrant action that speaks impeccable volumes.", "is_fresh": 1, "author": ["Clayton Davis"]},
{"text": "An intoxicating and endlessly surprising portrait of forbidden passion.", "is_fresh": 1, "author": ["Emma Dibdin"]},
{"text": "The notion that true love is a physical, emotional and spiritual bond between two individuals (whatever their sex) forms the powerful theme of a film that glistens from every pore, including those of Cate Blanchett and Rooney Mara ", "is_fresh": 1, "author": ["Thelma Adams"]},
{"text": "a genuinely wonderful film that, despite its atypical source, finally gives [Patricia Highsmith's] writing its deserved work.", "is_fresh": 1, "author": ["Alex Leadbeater"]},
{"text": "Todd Haynes movies tend to grow on me. I expect that Carol, his adaptation of Patricia Highsmith's The Price of Salt, will do the same. ", "is_fresh": 1, "author": ["Walter Chaw"]},
{"text": "[It] should have been awarded the Most Valuable Player. It ticks off nearly all the boxes ... However, the tastefully polished production offers few surprises.", "is_fresh": 1, "author": ["Kent Turner"]},
{"text": "Carol maybe isn't the sweeping, three-hanky melodrama I was ready for. But as it slowly seeps in, it transcends.", "is_fresh": 1, "author": ["Richard Lawson"]},
{"text": "Carol simmers with unspoken emotion and desire, condensing volumes into the Brief Encounter-style touch of a hand on a shoulder, into the offer of a whiff of perfume on a pulse point, into Billie Holiday recordings and Carter Burwell's expressive score.", "is_fresh": 1, "author": ["Alison Willmore"]},
{"text": "[CANNES 2015] Here is a film that doesn't need any awards to stake its worthiness. That said, awards of some variety will surely follow.", "is_fresh": 1, "author": ["Cole Smithey"]},
{"text": "Haynes crafts a tender, devastating romance but also surveys a battleground of power and control.", "is_fresh": 1, "author": ["Isabel Stevens"]},
{"text": "An impressive piece of work, a lesbian melodrama which is probing, thoughtful and finally very moving.", "is_fresh": 1, "author": ["Geoffrey Macnab"]},
{"text": "Like its effortlessly chic central character, Todd Haynes's adaptation of Patricia Highsmith's novella is impeccably put together.", "is_fresh": 1, "author": ["Wendy Ide"]},
{"text": "The most obvious achievement is Cate Blanchett's performance, which is absolutely flooring in its brilliance.", "is_fresh": 1, "author": ["Charles Ealy"]},
{"text": "[A] gloriously romantic, sumptuous movie ...", "is_fresh": 1, "author": ["David Sexton"]},
{"text": "A loaded dance of desire.", "is_fresh": 1, "author": ["Dave Calhoun"]},
{"text": "Surprisingly dull and weightless...the direction of the image is often bland and functional.", "is_fresh": 0, "author": ["Adam Cook"]},
{"text": "[A]bsolutely brilliant performances by Cate Blanchett and Rooney Mara", "is_fresh": 1, "author": ["Jordan Hoffman"]},
{"text": "A very intelligent and sophisticated lvoe story reminiscent of The End of the Affair or Brief Encounter.", "is_fresh": 1, "author": ["Jo-Anne Titmarsh"]},
{"text": "An achingly beautiful, tightly wound package of woe that slowly comes undone over the course of its running time to reveal something very special indeed.", "is_fresh": 1, "author": ["Katherine McLaughlin"]},
{"text": "I went into a trance watching it - and haven't quite surfaced, even now.", "is_fresh": 1, "author": ["Peter Bradshaw"]},
{"text": "An exquisitely drawn, deeply felt love story that teases out every shadow and nuance of its characters' inner lives with supreme intelligence, breathtaking poise and filmmaking craft of the most sophisticated yet accessible order.", "is_fresh": 1, "author": ["Justin Chang"]},
{"text": "It's such stately, evocative, confident filmmaking, the only reservation being that it's also a bit chilly.", "is_fresh": 1, "author": ["Tim Grierson"]},
{"text": "Absorbing and beautifully crafted but also a bit studied; you long to feel some blood in its veins.", "is_fresh": 1, "author": ["Todd McCarthy"]},
{"text": "Cate Blanchett and Rooney Mara deliver remarkable performances in this impressive period piece", "is_fresh": 1, "author": ["Gregory Ellwood"]},
{"text": "\"Carol\" is a love story for the ages, a film you feel like you may be walking toward, like Therese does at one point, entranced and lovelorn, forever.", "is_fresh": 1, "author": ["Jessica Kiang"]},
{"text": "Surges with such juddering, largely suppressed emotion that the whiff of the pop-cultural Senior Common Room will trouble only the most resistant observer. ", "is_fresh": 1, "author": ["Donald Clarke"]},
{"text": "With Carol , Haynes is playing a longer game, and saves his sucker punches for an exemplary, heart-wrenching final reel.", "is_fresh": 1, "author": ["David Jenkins"]}
]