[
{"reviews_count": "170", "title": "Chicken Run", "avg_audience_rating": "  3", "rotten_count": "5", "tomatometer": "97", "audience_score": "64", "avg_critic_rating": "8.1", "fresh_count": "165", "user_ratings_count": "548,453"},
{"text": "Its plump chickens maintain that strange, haptic quality that makes you yearn to reach out and squeeze them.", "is_fresh": 1, "author": ["Rebecca Hawkes"]},
{"text": "Even without Wallace and Gromit, most of the trademark joys are here: the compound of squashy creatures and heavy machinery, the wide, open-ended rictus of a toothy smile, and the great Parkian gulp.", "is_fresh": 1, "author": ["Anthony Lane"]},
{"text": "It coaxes you to laugh and cry, flatters your intelligence, and practically guarantees a cheap night out: at dinner afterward, no one's going to be ordering anything but salad.", "is_fresh": 1, "author": ["Debra Jo Immergut"]},
{"text": "It's a warm-hearted and amusing entertainment that your children will enjoy.", "is_fresh": 1, "author": ["Sebastian Faulks"]},
{"text": "Chickens are inherently funny, like nature's idea of a very practical joke. Park and Lord have just improved the old rubber chicken gag, making it movable, turning it into something closer to who we are and what we know as humans.", "is_fresh": 1, "author": ["Steve Persall"]},
{"text": "Chicken Run is a charmingly conceived entertainment. But it's a little bit twee.", "is_fresh": 1, "author": ["Peter Bradshaw"]},
{"text": "What gives this movie its oddly strong grip on a viewer's heart is a physical tenderness inseparable from the nature of claymation.", "is_fresh": 1, "author": ["F.X. Feeney"]},
{"text": "The claymation comedy Chicken Run is eggsactly what the doctor ordered. It's a witty, high-spirited adventure that will appeal to moviegoers of all ages. Call it chicken soup for the funny bone. ", "is_fresh": 1, "author": ["Louis B. Hobson"]},
{"text": "The first feature film from England's Aardman Animation, and the first truly terrific film to be released by DreamWorks.", "is_fresh": 1, "author": ["Gregory Weinkauf"]},
{"text": "Most of the time Chicken Run entertains, instructs, involves and enchants.", "is_fresh": 1, "author": ["Rex Reed"]},
{"text": "Run to Chicken Run. This clay-animation comedy is the most entertaining animal story since Babe.", "is_fresh": 1, "author": ["Jeff Strickler"]},
{"text": "The film is brilliantly voiced across the board, with special notice to Mel Gibson as Rocky and Julia Sawalha as Ginger.", "is_fresh": 1, "author": ["Glen Oliver"]},
{"text": "The sly, sardonic flight of fancy known as Chicken Run is a delightful epic of fowl deeds, quests for freedom and poultry heroics from the off-kilter English cartoon house, Aardman Animation.", "is_fresh": 1, "author": ["Dennis King"]},
{"text": "Like Wallace & Gromit, it's a paean to British eccentricity, equal parts cluelessness and hopefulness, full of English slang and dry Brit humor.", "is_fresh": 1, "author": ["Matt Soergel"]},
{"text": "Indeed, it's the best movie comedy to come out of England since Monty Python packed up the circus.", "is_fresh": 1, "author": ["Randall King"]},
{"text": "Chicken Run contains some gorgeous, destined-to-be-classic set pieces, and this is where the Aardman production team flex their animation muscles.", "is_fresh": 1, "author": ["Megan Spencer"]},
{"text": "It's nothing less than a stop-motion tour de force, bursting with charm, humor, invention and eye-popping mise en scene.", "is_fresh": 1, "author": ["Todd Anthony"]},
{"text": "With its winking homages to films like Stalag 17 and The Great Escape, Run is visually inventive, its characters plump with personality and, for a bunch of chickens, ever so brave.", "is_fresh": 1, "author": ["Leah Rozen"]},
{"text": "This wonderful visual treat is done in stop-action clay animation, a form which is both substantial and magical. It's as if the clay figures kids make have managed to take on a life of their own.", "is_fresh": 1, "author": ["Serena Donadoni"]},
{"text": "This first feature by Nick Park and Peter Lord, the team that brought you Wallace and Gromit, is a diabolically witty piece of work, a haymaker.", "is_fresh": 1, "author": ["David Edelstein"]},
{"text": "Most of the laughs stem from the peculiar appeal of claymation -- something about a raised eyebrow or other subtle bit of expression just seems funnier at the stop-motion speed of claymation.", "is_fresh": 1, "author": ["Gary Thompson"]},
{"text": "Apart from looking like no other type of animated film, Chicken Run stands alone in its unwavering determination not to play down to the kiddies.", "is_fresh": 1, "author": ["Steven Rea"]},
{"text": "Chicken Run isn't just chock-full of references to classic prison-break movies and some witty inside Hollywood jokes, but is filled with a secret ingredient sadly missing from its super-digitized, merchandise-driven counterparts: heart.", "is_fresh": 1, "author": ["Ann Hornaday"]},
{"text": "Chicken Run, Aardman's first full-length animated feature, finally makes good on the promise of the studio's award-winning shorts.", "is_fresh": 1, "author": []},
{"text": "This feathered pastiche of PoW classics such as The Great Escape and Stalag 17 is an awesome achievement by consummate film-makers.", "is_fresh": 1, "author": ["David Parkinson"]},
{"text": "It is not only an amazing technical accomplishment, it's also the wittiest and best-voiced animated movie to come along in years.", "is_fresh": 1, "author": ["Jonathan Foreman"]},
{"text": "Chicken Run boasts the most delicious collection of desperately funny Brits since The Full Monty. Poultry has never been so stuffed with personality.", "is_fresh": 1, "author": ["Susan Wloszczyna"]},
{"text": "The finale and a scene set inside the pie-making machinery prove that the Rube Goldberg formula is infallible, and the puns -- another staple of crossover animation -- range from \"fowl\" to \"poultry in motion.\"", "is_fresh": 1, "author": ["Lisa Alspector"]},
{"text": "There are some mighty fine laughs in this clever Claymation cartoon from the creator of England's hilarious Wallace and Gromit movies.", "is_fresh": 1, "author": ["David Sterritt"]},
{"text": "The level of invention on display, from the vividly detailed models and figurines to the gallery of memorable supporting characters, is astonishing at any length.", "is_fresh": 1, "author": ["Scott Tobias"]},
{"text": "Fab animation from Wallace and Gromit creator.", "is_fresh": 1, "author": ["Nell Minow"]},
{"text": "\"Chicken Run's\" finale is on par both with \"The Great Escape\" and the classic Wallace and Gromit ending to \"A Close Shave\" for rousing excitement and ingenuity. When it comes to clever and fun entertainment with a twist, it's the cock of the walk.", "is_fresh": 1, "author": ["Nick Rogers"]},
{"text": "The sophisticated humor of Peter Lord and Nick Park's very funny comedy is more likely to strike a nerve with adults.", "is_fresh": 1, "author": ["Michael Dequina"]},
{"text": "Thoroughly endearing family entertainment.", "is_fresh": 1, "author": []},
{"text": "Exactly the picker-upper this macho-movie summer needs.", "is_fresh": 1, "author": ["Richard Corliss"]},
{"text": "Park's love for all his characters, good and evil, is literally palpable: These characters have been forged of clay, fussed over, posed, photographed over a period of years.", "is_fresh": 1, "author": ["Rob Gonsalves"]},
{"text": "That rare animated film that can easily please all age groups.", "is_fresh": 1, "author": ["Joe Lozito"]},
{"text": "It'd be churlish to carp about this triumph of craftsmanlike technique.", "is_fresh": 1, "author": ["Geoff Andrew"]},
{"text": "I know I've seen a good funny animal movie if I stop eating the animal in real life.", "is_fresh": 1, "author": ["Chris Gore"]},
{"text": "Inventiveness taken to new levels...simply a marvel.", "is_fresh": 1, "author": ["Karina Montgomery"]},
{"text": "I don't think two minutes went by where I wasn't laughing out loud.", "is_fresh": 1, "author": ["Scott Nash"]},
{"text": "It has intelligence, humor, drama and tragedy, dance numbers, amour and more, any of which will have appeal to someone out there.", "is_fresh": 1, "author": ["Robin Clifford"]},
{"text": "It's a wonder to know that each frame of this film was handmade, not orchestrated by a computer.", "is_fresh": 1, "author": ["Jeffrey Overstreet"]},
{"text": "Insufferably twee.", "is_fresh": 0, "author": ["Martin Scribbs"]},
{"text": "Something about Nick Park's characters is intrinsically hilarious... Maybe it's those teeth.", "is_fresh": 1, "author": ["Jeffrey M. Anderson"]},
{"text": "A sharp, witty movie that finally answers the age-old question: what do chickens do when you're not looking?", "is_fresh": 1, "author": ["Eugene Novikov"]},
{"text": "It's hard to make bits of clay flutter like feathers, but somehow they do.", "is_fresh": 1, "author": ["John R. McEwen"]},
{"text": "The lavish coops, detailed pie machine and realistic lighting are just a small thread in a beautiful canvas of stirring images.", "is_fresh": 1, "author": ["Wesley Lovell"]},
{"text": "The poultry cast are capable of an extraordinary range of expression, especially during the sad or mildly scary scenes.", "is_fresh": 1, "author": ["Kim Newman"]},
{"text": "I highly recommend you check this out on the big screen. ", "is_fresh": 1, "author": ["Scott Chitwood"]},
{"text": "The deeply ironic undertones will keep adults and kids entertained alike.", "is_fresh": 1, "author": ["Sarah Hall"]},
{"text": "Full of humor for every age group, capped off with the message that perseverance and teamwork pay off.", "is_fresh": 1, "author": ["Jean Lowerison"]},
{"text": "The animation is executed with astonishing skill, considering every frame records minute changes made by hand in models of rubber and plasticene modeling clay. They even managed a spit-take!", "is_fresh": 1, "author": ["Margaret A. McGurk"]},
{"text": "What really makes it special, more than the impressive animation, is the endearing characters and involving plot.", "is_fresh": 1, "author": ["Kevin N. Laforest"]},
{"text": "Chicken Run is the funniest movie of the year, if you are under the age of 5 or suffering from severe head trauma.", "is_fresh": 0, "author": ["Joshua Tyler"]},
{"text": "Filled with heroism, humor and heart, this wonderful film is a treat for the entire family.", "is_fresh": 1, "author": ["Betty Jo Tucker"]},
{"text": "...a lot of the same offbeat charm as the Wallace & Gromit series", "is_fresh": 1, "author": ["Philip Martin"]},
{"text": "Like the computer animators at Pixar, the stop-motion wizards at Aardman realize their technical prowess would be wasted without a worthy script.", "is_fresh": 1, "author": ["Jeffrey Westhoff"]},
{"text": "Gets by on the elements of fun and frivolity common to all the Aardman animations.", "is_fresh": 1, "author": ["Kim Williamson"]},
{"text": "Adem\u00e1s de contar con una historia y un humor muy disfrutable por peques y adultos, hablamos de una cinta llena de alegor\u00edas con el mundo real", "is_fresh": 1, "author": ["Luis Martinez"]},
{"text": "Apresenta um visual arrebatador.", "is_fresh": 1, "author": ["Pablo Villa\u00e7a"]},
{"text": "May not maintain quite the same frantic level of invention as the Wallace and Gromit shorts, but it has more heart.", "is_fresh": 1, "author": ["Steven D. Greydanus"]},
{"text": "Fans of the more subversive Wallace and Gromit tales are almost bound to be somewhat disappointed by this safer, more mainstream effort.", "is_fresh": 1, "author": ["Liam Lacey"]},
{"text": "Clever, funny and thoroughly entertaining from beginning to end.", "is_fresh": 1, "author": ["William Arnold"]},
{"text": "Fowl by no means, this film is no feather in the cap, either.", "is_fresh": 0, "author": ["Peter Keough"]},
{"text": "Certainly worth seeing, but more for the things (hopefully) to come rather than for the matters at hand.", "is_fresh": 1, "author": ["Chuck Rudolph"]},
{"text": "In short: It's everything you could hope for from an Aardman feature.", "is_fresh": 1, "author": ["Rich Cline"]},
{"text": "Chicken Run Movie Review ", "is_fresh": 1, "author": ["Alex Keen"]},
{"text": "Pure poultry.", "is_fresh": 1, "author": ["Jay Stone"]},
{"text": "The real magic of Chicken Run is how personable it is, how easy and effortlessly it tells its story.", "is_fresh": 1, "author": ["Rob Vaux"]},
{"text": "There are last minute rescues and incredible visuals.", "is_fresh": 1, "author": ["Joel Siegel"]},
{"text": "For adults, it can get mushy and repetitious, though the overall sweetness and ingenuity shoveled into it makes you want to love the movie more than you're able.", "is_fresh": 1, "author": ["Michael Atkinson"]},
{"text": "When Mel Gibson passes on to that big screen in the sky, don't be surprised if he's best remembered for playing a flirtatious rooster.", "is_fresh": 1, "author": ["Dan Lybarger"]},
{"text": "I was ready to fly the coop long before the 82 minutes were up, but if you're in the mood for something offbeat and wacky, Chicken Run may be just your kind of amiably birdbrained entertainment.", "is_fresh": 1, "author": ["Eleanor Ringel Cater"]},
{"text": "Una de las mejores cintas del a\u00f1o y una excelente muestra de lo que se puede hacer con imaginaci\u00f3n, talento y un buen cargamento de plastilina", "is_fresh": 1, "author": ["Jorge Avila Andrade"]},
{"text": "mostly good, lighthearted entertainment with more than its share of bad chicken puns", "is_fresh": 1, "author": ["James Kendrick"]},
{"text": "Chicken Run is one of those movies that plays well to children, but also has plenty of dry jokes that will keep adults entertained as well.", "is_fresh": 1, "author": ["Jim Chastain"]},
{"text": "Playful, infectious, and totally extraordinary.", "is_fresh": 1, "author": ["Urban Cinefile Critics"]},
{"text": "Oh, Chicken Run is a good movie, no doubt. It's also fairly entertaining. But Oscar caliber?", "is_fresh": 1, "author": ["Matt Easterbrook"]},
{"text": "Before our disbelieving eyes, a pageant of jeopardy, romance and rescue unfolds.", "is_fresh": 1, "author": ["Kenneth Turan"]},
{"text": "A charming, fanciful and whimsical tale of love, bondage and the quest for escape from the awful fate of being turned into nuggets.", "is_fresh": 1, "author": ["Robert Roten"]},
{"text": "It's immensely satisfying, a divinely relaxed and confident film. Mr. Park and Mr. Lord brilliantly integrate everyday objects into the story.", "is_fresh": 1, "author": ["Elvis Mitchell"]},
{"text": "Simple, but engaging.", "is_fresh": 1, "author": ["James Berardinelli"]},
{"text": "The first feature from the creators of Wallace and Gromit is a plucking good time.", "is_fresh": 1, "author": ["Michael Sragow"]},
{"text": "It is observant about human (or chicken) nature.", "is_fresh": 1, "author": ["Roger Ebert"]},
{"text": "It's a remarkably well-sustained spin on the popular P.O.W. camp movie, with a touch of The Squawkshank Redemptions about it, too.", "is_fresh": 1, "author": ["Angie Errigo"]},
{"text": "You'll want to see Chicken Run more than once.", "is_fresh": 1, "author": ["John Hartl"]},
{"text": "Chicken Run rules the roost.", "is_fresh": 1, "author": ["Sean P. Means"]},
{"text": "A triumph for Park and Lord.", "is_fresh": 1, "author": ["Tom Keogh"]},
{"text": "f a better, funnier, smarter, more endearing film than Chicken Run comes along this year, I will eat a live chicken and shoot the feathers out my butt.", "is_fresh": 1, "author": ["Eric D. Snider"]},
{"text": "Worth four clucks for the buck.", "is_fresh": 1, "author": []},
{"text": "A delightful, perceptive, funny, detail-perfect fable.", "is_fresh": 1, "author": ["Lisa Schwarzbaum"]},
{"text": "Excellent visuals, a tenderly told tale, laughs aplenty, and a positive social message to boot.", "is_fresh": 1, "author": ["Gabriel Shanks"]},
{"text": "It may also even have the power to make you think twice the next time you run through the drive-thru at your local KFC.", "is_fresh": 1, "author": ["Dustin Putman"]},
{"text": "Everyone except poultry farmers and airline companies should rejoice at the creation of this wonderful Claymation movie.", "is_fresh": 1, "author": ["Harvey S. Karten"]},
{"text": "The film manages to cross all barriers; it should be accessible to both children and adults, Brits and Yanks, rats and chickens.", "is_fresh": 1, "author": ["Shay Casey"]},
{"text": "Vegetarian propaganda, aimed at the kiddie audience? Of course. But Chicken Run is also, and most impressively, an ideal marriage of style and subject matter.", "is_fresh": 1, "author": ["Stuart Klawans"]},
{"text": "The filmmakers' care for the story and its telling is somehow obvious to even the youngest viewer.", "is_fresh": 1, "author": ["George Zahora"]},
{"text": "Full of little surprises.", "is_fresh": 1, "author": ["Gordon G. Geise"]},
{"text": "Many will appreciate the genial, good-natured goofiness.", "is_fresh": 1, "author": ["Frank Swietek"]},
{"text": "Chicken Run is great fowl play escapism.", "is_fresh": 1, "author": ["Bob Thompson"]},
{"text": "It's extraordinary how stylized chickens made of clay can exhibit such touching emotion.", "is_fresh": 1, "author": ["MaryAnn Johanson"]},
{"text": "An animated farce with... uproarious action", "is_fresh": 1, "author": ["Carlo Cavagna"]},
{"text": "A magical movie the entire family can enjoy.", "is_fresh": 1, "author": ["Dan Jardine"]},
{"text": "If the Aardman menagerie strikes you as funny, the movie will too.", "is_fresh": 1, "author": ["J. Hoberman"]},
{"text": "The stars of this fowl adventure also have hilarious foibles, eccentric habits, diverse personalities and a lot of spunk.", "is_fresh": 1, "author": ["Jack Garner"]},
{"text": "I'm half tempted to run for the border on this one.", "is_fresh": 0, "author": ["Kamal 'The Diva' Larsuel"]},
{"text": "Run is the rare exception of a film that is extremely enjoyable across the entire demographic board.", "is_fresh": 1, "author": ["Jon Popick"]},
{"text": "And although the pace is uneven and the plot seems stretched thin, Chicken Run is still worth a look", "is_fresh": 1, "author": ["Marty Mapes"]},
{"text": "Chicken Run is the rare, true original in modern movies. It will delight you beyond words. Don't even think about missing it.", "is_fresh": 1, "author": ["Susan Stark"]},
{"text": "For older children and adults, it's thin soup.", "is_fresh": 1, "author": ["Ian Waldron-Mantgani"]},
{"text": "among the top 10 films of 2000", "is_fresh": 1, "author": ["John A. Nesbit"]},
{"text": "But there's something more going on here, an almost palpable joy in the ability of the animators to turn colorful clay into charming, amusing characters.", "is_fresh": 1, "author": ["Robert W. Butler"]},
{"text": "Finally, an animated film without any explosions, pop-rock, product-placement soundtrack songs, or ill-defined sense of moral ineptitude (yes, Titan A.E., I'm talking about you) that's actually and honestly fun for the whole family.", "is_fresh": 1, "author": ["Marc Savlov"]},
{"text": "It's a very smart film.", "is_fresh": 1, "author": ["Joe Baltake"]},
{"text": "It really is quite funny.", "is_fresh": 1, "author": ["Emily Blunt"]},
{"text": "A movie both hilarious and sometimes heart-stoppingly exciting.", "is_fresh": 1, "author": ["Michael Wilmington"]},
{"text": "Few filmmakers are better at setting up a sight gag than co-director/co-creators Nick Park and Peter Lord.", "is_fresh": 1, "author": ["Jeff Vice"]},
{"text": "While the average chicken may hold as much interest to you as a dead duck, this film's chickens are well-defined characters that make you laugh, feel worry for them, and then laugh even more.", "is_fresh": 1, "author": ["James Brundage"]},
{"text": "Fun even with your eyes closed; the jokes and Britishisms and sound effects work all by themselves.", "is_fresh": 1, "author": ["Peter Rainer"]},
{"text": "It's The Great Escape as performed by chickens and is every bit as good as you could imagine.", "is_fresh": 1, "author": ["William Gallagher"]},
{"text": "One of the funniest, best written movies of the year.", "is_fresh": 1, "author": ["Jonathan Lewis"]},
{"text": "This chicken has legs -- lots of them.", "is_fresh": 1, "author": ["Kevin Lally"]},
{"text": "The slapstick, quick timing, and colorful characters may keep the kids occupied, but the sharp dialogue and tender moments will make the adults enjoy it even more.", "is_fresh": 1, "author": ["Scott A. Mantz"]},
{"text": "A witty, action-packed story.", "is_fresh": 1, "author": ["Peter Stack"]},
{"text": "Assembled with painstaking finesse and obsessiveness, this film is imbued with infectious pluck.", "is_fresh": 1, "author": ["Wesley Morris"]},
{"text": "Lots of groovy chicks, scads of cheep thrills and a studly rooster with a comb-over to die for.", "is_fresh": 1, "author": ["Rita Kempley"]},
{"text": "A movie so sweet, so open and honest that we savor its charm and bathe in its confidence.", "is_fresh": 1, "author": ["David Keyes"]},
{"text": "At the end of the movie, the audience applauded, the first time I've seen that since Toy Story 2.", "is_fresh": 1, "author": ["Gary Brown"]},
{"text": "Fun and amazingly rendered, but ultimately a little flat.", "is_fresh": 1, "author": ["Rob Blackwelder"]},
{"text": "This is a tale of toil, sacrifice, and hard-earned victory without a speck of fairy dust or dreamy-eyed fantasy.", "is_fresh": 1, "author": ["Jeffrey Wells"]},
{"text": "A cluckin' good time!", "is_fresh": 1, "author": ["JoBlo"]},
{"text": "It's smart and charming, a family film in the best sense -- a multi-layered feast where all ages will find much to enjoy.", "is_fresh": 1, "author": ["Bob Aulert"]},
{"text": "Mel Gibson as a chicken.", "is_fresh": 1, "author": ["Mac Verstandig"]},
{"text": "A pleasing and likable comedy that will entertain virtually all age groups.", "is_fresh": 1, "author": ["Kirk Honeycutt"]},
{"text": "A delightfully clever feature.", "is_fresh": 1, "author": ["Todd McCarthy"]},
{"text": "It all builds to a fabulously frantic, hilarious action-packed climax.", "is_fresh": 1, "author": ["Robin Askew"]},
{"text": "Chicken Run delivers.", "is_fresh": 1, "author": ["Eric Lurio"]},
{"text": "DreamWorks rules, and Chicken Run is king.", "is_fresh": 1, "author": ["Steve Rhodes"]},
{"text": "It's as much a treat for adults as for children, with humor that spans all age ranges and careens from sophisticated to just plain silly.", "is_fresh": 1, "author": ["Jami Bernard"]},
{"text": "There is something wonderfully improbable, anachronistic and quixotic about Chicken Run.", "is_fresh": 1, "author": ["David Ansen"]},
{"text": "What makes Chicken Run so successful is the filmmakers' obvious love for clay animation.", "is_fresh": 1, "author": ["Heather Feher"]},
{"text": "A fun-filled film.", "is_fresh": 1, "author": ["Ross Anthony"]},
{"text": "Chicken Run is, in every way possible, great filmmaking.", "is_fresh": 1, "author": ["Jeffrey Huston"]},
{"text": "Delivers just about every bit of all-around entertainment I could ask for from a movie about chickens escaping from the farm.", "is_fresh": 1, "author": ["Greg Dean Schmitz"]},
{"text": "An ingenious, G-rated claymation adventure.", "is_fresh": 1, "author": ["Mark Halverson"]},
{"text": "You will believe a chicken has teeth.", "is_fresh": 1, "author": ["Widgett Walls"]},
{"text": "It's so much fun.", "is_fresh": 1, "author": ["Chris Vognar"]},
{"text": "Chicken Run is the most delightful piece of feature length animation to debut this summer.", "is_fresh": 1, "author": ["Steve Biodrowski"]},
{"text": "Could be this summer's sleeper, or this summer's The Iron Giant.", "is_fresh": 1, "author": ["Steve Ryfle"]},
{"text": "Aardman delivers the most consistently entertaining animated film in years.", "is_fresh": 1, "author": ["Bruce Westbrook"]},
{"text": "It could do for the plight of poultry what Babe did for bacon.", "is_fresh": 1, "author": ["Kevin Maynard"]},
{"text": "Talk about your chick flicks!", "is_fresh": 1, "author": ["Stephen Miller"]},
{"text": "There's plenty to cluck about.", "is_fresh": 1, "author": ["Jay Carr"]},
{"text": "Julia Sawalha gives Ginger a brave, smart, you-go-hen! attitude.", "is_fresh": 1, "author": ["Steven Rosen"]},
{"text": "Chicken Run is a delight for kids and adults.", "is_fresh": 1, "author": ["Shawn Levy"]},
{"text": "It's always risky to count your chickens before they're hatched. Even so, I have to say that Chicken Run deserves to be a runaway hit.", "is_fresh": 1, "author": ["Jay Boyar"]},
{"text": "Funny in eggs-ecution and fabulous in design.", "is_fresh": 1, "author": ["Peter Howell"]},
{"text": "There's hardly ever a lull in the action.", "is_fresh": 1, "author": ["Nina Garin"]},
{"text": "The high-flying fun is limited solely be the poultry running time.", "is_fresh": 1, "author": ["Scott Weinberg"]},
{"text": "A spunky and hilarious story about the yearning for freedom in the heart of a very determined hen on a farm in the English countryside.", "is_fresh": 1, "author": ["Frederic and Mary Ann Brussat"]},
{"text": "Rarely does a prison film delight and amuse.", "is_fresh": 1, "author": ["Jeanne Aufmuth"]},
{"text": "Imagine Mel Gibson playing the James Garner role in The Great Escape. Now, imagine Mel Gibson in feathers.", "is_fresh": 1, "author": ["John J. Puccio"]},
{"text": "Does the Nick Park charm work for a feature film? In my opinion, not really.", "is_fresh": 0, "author": ["Mark R. Leeper"]},
{"text": "Good gravy! It's a double-yolk'd chicken delight for the whole family!", "is_fresh": 1, "author": ["Susan Granger"]},
{"text": "Chicken Run should be seen by the whole family. Actually, it should be seen by everyone.", "is_fresh": 1, "author": ["Laura Clifford"]},
{"text": "One of the most entertaining vehicles of the year.", "is_fresh": 1, "author": ["Bob Bloom"]},
{"text": "It's an entertaining warm-up, a few bits of brilliance packed in disposable kiddie fluff.", "is_fresh": 1, "author": ["Scott Renshaw"]},
{"text": "", "is_fresh": 1, "author": ["Jeremiah Kipp"]},
{"text": "", "is_fresh": 1, "author": ["Garth Franklin"]}
]