[
{"reviews_count": "245", "title": "Children Of Men", "avg_audience_rating": "3.7", "rotten_count": "20", "tomatometer": "92", "audience_score": "85", "avg_critic_rating": "  8", "fresh_count": "225", "user_ratings_count": "530,433"},
{"text": "It is simultaneously soul-crushing and spirit-lifting. Watching twelve years after its release, the potent themes of immigration, border control, and seeking humanity in others means Children of Men remains more timely than ever.", "is_fresh": 1, "author": ["Millicent Thomas"]},
{"text": "Beautifully directed and magnificently crafted, it's a wrenching thriller in a grimy world of industrial decay, a distorted mirror of today in a palette of cement dust.", "is_fresh": 1, "author": ["Sean Axmaker"]},
{"text": "Enjoy it for its story, enjoy it for its entertainment value, and enjoy it for its intelligence. Just watch it.", "is_fresh": 1, "author": ["Courtney Button"]},
{"text": "The future is a touchable, understandable place, the physical sensations of which we already know in our hearts and guts, hence its draw to people who're looking ahead with no small amount of discomfort.", "is_fresh": 1, "author": ["Dorothy Woodend"]},
{"text": "[Children of Men] is terribly exciting.", "is_fresh": 1, "author": ["Annie Wagner"]},
{"text": "Cuar\u00f3n is implementing a verisimilitude that both matches the film's edge-of-your-seat escalations and demonstrates a new understanding of blockbuster realism.", "is_fresh": 1, "author": ["Michael Joshua Rowin"]},
{"text": "Children of Men founders in its latter moments -- not a lot, but enough. Its failure is less one of plot than of something deeper, a composing idea to undergird the plot.", "is_fresh": 0, "author": ["Christopher Orr"]},
{"text": "A film that has much to recommend it, not least the proof it offers, as if any more were needed, that Alfonso Cuar\u00f3n is one of the most visually inspired directors working today.", "is_fresh": 1, "author": ["Ryan Gilbey"]},
{"text": "Here is your post-holiday depression pill: Children of Men. Not to relieve depression. To cause it.", "is_fresh": 0, "author": ["David Elliott"]},
{"text": "Children of Men is so boldly told, so thought out, so infused with the joy of filmmaking, that it's absolutely exhilarating. It's one of the best movies of the past year.", "is_fresh": 1, "author": ["Matt Soergel"]},
{"text": "Alfonso Cuaron stages some terrific set-pieces, and the production designers deserve credit for making London in 2027 look like the grunge capital of the world, ie, like now, only more so. One small problem: I didn't believe any of it.", "is_fresh": 1, "author": ["Anthony Quinn"]},
{"text": "P.D. James's novel must have made more sense than Cuar\u00f3n's cheerful but incoherent screen adaptation.", "is_fresh": 0, "author": ["Nigel Andrews"]},
{"text": "You really are immersed into this believable world of the future.", "is_fresh": 1, "author": ["Margaret Pomeranz"]},
{"text": "If its backdrop and story never quite coalesce into a satisfying whole, then the film is saved by its sheer imaginative verve and by the terrific chase and battle sequences.", "is_fresh": 1, "author": ["Lee Marshall"]},
{"text": "For all Cuar\u00f3n's expertise in whipping up his film's elements into a pungent and frightening stew, the movie's technical brilliance can be blinding. The story and characters remain all but skeletal.", "is_fresh": 1, "author": ["Tim Robey"]},
{"text": "And yet... And yet... For all its fine parts, Children Of Men is somehow less than the sum.", "is_fresh": 1, "author": []},
{"text": "If you thought the battle scenes in... Saving Private Ryan were tough going, the final 20 minutes of Children of Men will not only shake you, they'll have you revising your expectations about just how realistic cinematic portrayals of combat can get.", "is_fresh": 1, "author": ["Jim Schembri"]},
{"text": "Ultimately grimy, both in subject matter and visually, thanks to set designers Jim Clay and Geoffrey Kirkland), the picture is frightening and powerful.", "is_fresh": 1, "author": ["Jess Lomas"]},
{"text": "Cuaron doesn't treat his future world like fictitious science fiction. He seems to be saying that our current paths will lead to an apocalypse not unlike this one.", "is_fresh": 1, "author": ["Bob Grimm"]},
{"text": "Children of Men is like an elongated episode of Doctor Who for adults, without the funny bits, David Tennant's oozy charm and the ironic sense of its own fundamental silliness.", "is_fresh": 0, "author": ["Iain Millar"]},
{"text": "By letting his film lapse into a standard action movie, Cuaron I think has suffered a regrettable failure of imagination.", "is_fresh": 0, "author": ["Julie Rigg"]},
{"text": "Fortunately, the film rarely slows down long enough to proselytize, especially in the hellish refugee-camp climax, a horrid polyglot of ceaseless conflict that could be any war zone on the planet.", "is_fresh": 1, "author": ["Corey Hall"]},
{"text": "It's a disturbing tale that is exceptionally uncomfortable to watch because it's almost believable in spite of how ludicrous it first appears.", "is_fresh": 1, "author": ["Rich Phippen"]},
{"text": "Owen delivers one of his best performances as a lifeless man, whose activist spirit is unexpectedly reignited by his contact with Kee.", "is_fresh": 1, "author": ["Rick Fulton"]},
{"text": "Classic dystopian British science fiction that draws powerful and moving parallels to the state of the world.", "is_fresh": 1, "author": ["Matthew De Abaitua"]},
{"text": "[Alfonso Cuaron] proves again what a versatile and talented director he is.", "is_fresh": 1, "author": ["David Stratton"]},
{"text": "Powerhouse dystopian chase film/thriller/political statement from Alfonso Cuar\u00f3n.", "is_fresh": 1, "author": ["Edward Johnson-Ott"]},
{"text": "The stark triumph of Children of Men lies in how its visceral v\u00e9rit\u00e9 style brings the realities of a War on Terror fought in distant lands crashing back onto British soil.", "is_fresh": 1, "author": ["Jamie Russell"]},
{"text": "Children of Men presents a chillingly believable version of the future. It will stay with you long after the end credits fade.", "is_fresh": 1, "author": ["Leah Rozen"]},
{"text": "In Children of Men, the astonishing director Alfonso Cuar\u00f3n has created a menacing future-shock thriller. And his scenes of a sinking England are too plausible for the good of your nerves.", "is_fresh": 1, "author": ["Richard von Busack"]},
{"text": "Children of Men will certainly keep your interest and has some fascinating ideas, but in the end is nothing more than just a good genre flick.", "is_fresh": 1, "author": ["Matt Holmes"]},
{"text": "Children of Men is a thoughtful shoot-'em-up adventure, and a good one.", "is_fresh": 1, "author": ["Steve Persall"]},
{"text": "Gripping, violent look at the future. Adults only.", "is_fresh": 1, "author": ["Sierra Filucci"]},
{"text": "For all its dystopian, violent fury, \"Children of Men's\" grace distinguishes itself the most - an all-encompassing embrace of humanity, community and perseverance and an optimistic ending that doesn't feel at all like a cheat.", "is_fresh": 1, "author": ["Nick Rogers"]},
{"text": "A major message to be taken from Children of Men is that the miracle of child birth cannot be taken for granted. At the end, though, it is felt that without hope, without faith, then what is there to live for? ", "is_fresh": 1, "author": ["Matthew Pejkovic"]},
{"text": "A special film by a gifted filmmaker.", "is_fresh": 1, "author": ["Neil Miller"]},
{"text": "Few recent films have so stunned me in segments, and so frustrated me as a whole", "is_fresh": 0, "author": ["Fernando F. Croce"]},
{"text": "Cuaron asks us to find hope in a grim nativity story where a reluctant hero and scared would-be mother try to find shelter in a land that desperately needs a newborn savior.", "is_fresh": 1, "author": ["Amy Nicholson"]},
{"text": "[Includes] the most exciting and emotionally exhausting car chase since The French Connection.", "is_fresh": 1, "author": ["Peter Keough"]},
{"text": "Children of Men is a glorious mess. It's a Frankenstein monster of a movie. Part sci-fi, part thriller, part action genre, part religious allegory, it flays and lumbers after meaning-- sending off occasional sparks of style.", "is_fresh": 1, "author": ["Tony Macklin"]},
{"text": "Children of Men succeeds as a downbeat dystopian thriller with some intriguing themes.", "is_fresh": 1, "author": ["Steven D. Greydanus"]},
{"text": "Cuar\u00f3n delights in marshaling his showpieces, like the finer details of Jim Clay and Geoffrey Kirkland's just-futuristic-enough production design, or, especially, camera operator George Richmond's agile enactment of Emmanuel Lubezki's moody cinematography", "is_fresh": 1, "author": ["Jonathan Kiefer"]},
{"text": "This is an astounding piece of work - easily one of the best films of 2006.", "is_fresh": 1, "author": ["Steve Biodrowski"]},
{"text": "I was entranced by this movie. Hypnotized. Spellbound. In a thrall. The final quarter of the film is nothing short of an evolutionary leap forward in filmmaking.", "is_fresh": 1, "author": ["Brandon Fibbs"]},
{"text": "A compelling and haunting look at a dystopian England.", "is_fresh": 1, "author": ["Garth Franklin"]},
{"text": "Cuaron fulfills the promise of futuristic fiction; characters do not wear strange costumes or visit the moon, and the cities are not plastic hallucinations, but look just like today, except tired and shabby.", "is_fresh": 1, "author": ["Roger Ebert"]},
{"text": "It does the job, it does it well, and the fact that it's being called a masterpiece for doing so speaks unwell of the current state of movies.", "is_fresh": 1, "author": ["Rob Gonsalves"]},
{"text": "There are enough ideas here that the film's never boring, and Mr. Cuar\u00f3n's bravura direction is thrilling from start to finish.", "is_fresh": 1, "author": ["Joe Lozito"]},
{"text": "Top-notch suspense, intense action and totally believable sci-fi combine to make Children of Men gripping and a big winner.", "is_fresh": 1, "author": ["Brian Webster"]},
{"text": "Goes beyond words in excellence...", "is_fresh": 1, "author": ["Felix Vasquez Jr."]},
{"text": "The very soul of the film scoffs at the expectation of being conventional or formulaic.", "is_fresh": 1, "author": ["David Keyes"]},
{"text": "As uncertain and spontaneous as its events are in the moment, Children of Men feels too tightly wound for its own good.", "is_fresh": 1, "author": ["Rob Humanick"]},
{"text": "he only thing that strikes a false note here is...the final sequence (and a sound heard over the closing credits)... Otherwise a perfect film.", "is_fresh": 1, "author": ["Anton Bitel"]},
{"text": "Director Alfonso Cuar\u00f3n's stunning big-screen version of the P.D. James novel Children of Men is one of the best pictures of 2006.", "is_fresh": 1, "author": ["Stax"]},
{"text": "What makes CHILDREN OF MEN so exciting and such a wonder is Cuar\u00f3n's strong direction and the expert cinematography of Emmanuel Luzbecki.", "is_fresh": 1, "author": ["Ted Murphy"]},
{"text": "An apocalyptic thrill ride that is as gritty as it is gripping, with a dark terror outgunned only by its daring humanity.", "is_fresh": 1, "author": ["Bruce Bennett"]},
{"text": "Children of Men feels more relevant than almost every film set in the present day and is better than almost every other film made this year.", "is_fresh": 1, "author": ["Brian Tallerico"]},
{"text": "Un brillante relato cinematogr\u00e1fico ejecutado con maestr\u00eda, pero sobre todo una sombr\u00eda visi\u00f3n del futuro que es en realidad una inquietante met\u00e1fora del mundo de hoy.", "is_fresh": 1, "author": ["Enrique Buchichio"]},
{"text": "Why this film didn't receive Oscar recognition for Best Picture, tells you more about the Academy's shortcomings than this picture's.", "is_fresh": 1, "author": ["Dennis Schwartz"]},
{"text": "A thought-provoking glimpse into a desperate future where infertility has spawned violence. This compelling narrative redfines the post-apocalyptic genre.", "is_fresh": 1, "author": ["Wesley Lovell"]},
{"text": "You feel as if you're accompanying a war photographer who's lost a bet. Slogging unflinchingly through humanity's worst hours, the movie laces the narrative's forays into science-fiction grandstanding with a gut-wrenching dynamic.", "is_fresh": 1, "author": ["Joshua Rothkopf"]},
{"text": "This is filmmaking of swaggering virtuosity.", "is_fresh": 1, "author": ["Jim Ridley"]},
{"text": "Director Alfonso Cuaron delivers some truly bravura sequences that raise this loose P.D. James adaptation to the level of exhilarating filmmaking.", "is_fresh": 1, "author": ["David N. Butterworth"]},
{"text": "I have to confess that at times I was so flabbergasted by the incredible camerawork and long shots, I forgot to listen to the story. I loved it.", "is_fresh": 1, "author": ["Karina Montgomery"]},
{"text": "There is something satisfying about a movie that forces you to hang onto it %u2013 one where the impact grows greater the more you think about it.", "is_fresh": 1, "author": ["Mike McGranaghan"]},
{"text": "Il s'est rarement fait film d\u00e9non\u00e7ant l'incertitude par rapport \u00e0 notre avenir sur cette plan\u00e8te ainsi que la barbarie et l'\u00e9go\u00efsme de l'\u00eatre humain plus direct et percutant", "is_fresh": 1, "author": ["Jean-Fran\u00e7ois Vandeuren"]},
{"text": "Immensely thought-provoking and chillingly insightful...a resilient sci-fi fantasy that dares to contemplate the fate of mankind's chaotic impulsiveness.", "is_fresh": 1, "author": ["Frank Ochieng"]},
{"text": "I did get caught up in Theo's struggle, and Owen and Caine's great performances kept me hanging in to see the outcome of the film.", "is_fresh": 1, "author": ["Diana Saenger"]},
{"text": "The startling offhandedness with which tidings of the apocalypse are delivered is the keynote of this bracing, sometimes shocking new film.", "is_fresh": 1, "author": ["Thomas Peyser"]},
{"text": "What the narrative demands, and what Cuaron provides, is moral ambiguity and a teasing hopefulness that suggests the possibility of redemption.This is quite an achievement.", "is_fresh": 1, "author": ["Philip French"]},
{"text": "If Children of Men sometimes oversteps in its political imagery, perhaps pushing current issues a little too pressingly, it never feels anything less than enthralling.", "is_fresh": 1, "author": ["James Kendrick"]},
{"text": "'I went to see Children of Men today, and I need you to help explain it to me,' partially went the message, from a rather film-literate Eastern seaboarder.", "is_fresh": 1, "author": ["Brent Simon"]},
{"text": "What I find particularly irksome about it is its pseudo-humanism and its calculating political correctness.", "is_fresh": 0, "author": ["Andrew Sarris"]},
{"text": "Alfonso Cuar\u00f3n's futuristic adventure derives its power from a premise as potent and primal as they come", "is_fresh": 1, "author": ["Jay Antani"]},
{"text": "... A work of science fiction that bears a disturbing resemblance to the facts of today.", "is_fresh": 1, "author": ["Greg Maki"]},
{"text": "Invigorating in its ideas and style, Children of Men conceives a dystopian future, but its questions are just as relevant to our modern lives.", "is_fresh": 1, "author": ["Mark Pfeiffer"]},
{"text": "There's nothing like a doomsday movie to start off the new year, I always say.", "is_fresh": 1, "author": ["Linda Cook"]},
{"text": "It's a hell of a setup, and for the most part Cuaron and company deliver on that promise.", "is_fresh": 1, "author": ["Michael W. Phillips, Jr."]},
{"text": "One of the year's best films.", "is_fresh": 1, "author": ["Robert Roten"]},
{"text": "Cuaron manages to pack a lot of incident into this exciting tale.", "is_fresh": 1, "author": ["Matt Brunson"]},
{"text": "Call it dystopian or future shocking, but Children of Men is nothing more than a sensational cinematic allegory as bona fide art.", "is_fresh": 1, "author": ["Bill Gibron"]},
{"text": "A speculative \"what if?\" take on human nature taunts Children of Men with the pretense of great science fiction.", "is_fresh": 1, "author": ["Mark Palermo"]},
{"text": "... this ugly world of racism, violence and homeland security gone mad is a more likely futuristic scenario than a world in which shared humanity and peace reign supreme.", "is_fresh": 1, "author": ["Lori Hoffman"]},
{"text": "Children of Men is depressing as hell, but it's also a helluva good movie. 28 Days Later meets V for Vendetta with, thankfully, more in common with the former.", "is_fresh": 1, "author": ["Gina Carbone"]},
{"text": "The director and I agree on the future. Though mine doesn't have a hopeful ending. ", "is_fresh": 1, "author": ["Victoria Alexander"]},
{"text": "It's simply must-see filmmaking all the way around -- as art, as entertainment, as social commentary.", "is_fresh": 1, "author": ["Ken Hanke"]},
{"text": "Yes, kids, Children of Men is one of those bleakly futuristic \"In a World\" movies, a genre that's constantly reproducing itself in the semi-infantile world of adult movies.", "is_fresh": 0, "author": ["Thomas Delapa"]},
{"text": "There are no more children left in the world! A world where Pixar gives up movies for CG-animated Select Comfort Sleep-Number Bed commercials.", "is_fresh": 0, "author": ["Mark Ramsey"]},
{"text": "Welcome to the new year, folks, and welcome to Alfonso Cuaron's superb \"Children of Men,\" which is one of 2006's best.", "is_fresh": 1, "author": ["Christopher Smith"]},
{"text": "The gripping Children of Men doesn't kid around.", "is_fresh": 1, "author": ["Gary Brown"]},
{"text": "This is a film that had a great deal potential, but got too involved in its action scenes.", "is_fresh": 0, "author": ["Mark R. Leeper"]},
{"text": "Cuaron and company do a splendid job of putting the viewer smack dab in the center of the action.", "is_fresh": 1, "author": ["Rebecca Murray"]},
{"text": "The future looks bleak in Children of Men, a sci-fi thriller that has less to do with the plot -- centering on a world where disease has left all the women sterile -- than with the director's vision of where our culture is headed.", "is_fresh": 1, "author": ["Chris Kaltenbach"]},
{"text": "It's a wow.", "is_fresh": 1, "author": ["David Edelstein"]},
{"text": "Little-known fact: Alfonso Cuar\u00f3n is The Man.", "is_fresh": 1, "author": ["David Medsker"]},
{"text": "As much as it is invigorating visually and moving emotionally, the film does turn at last on this familiar device, the damaged white man in need of spiritual and ideological fixing.", "is_fresh": 1, "author": ["Cynthia Fuchs"]},
{"text": "Children of Men so thoroughly captivates visually that one can forgive the film's tendency to explain itself only vaguely.", "is_fresh": 1, "author": ["Carla Meyer"]},
{"text": "Children of Men has been brilliantly adapted from a sci-fi novel by P.D. James and offers echoes of other literate, futuristic satires.", "is_fresh": 1, "author": ["Jack Garner"]},
{"text": "Cuaron is known as a humanist/pictorialist (The Little Princess, Y Tu Mama Tambien), but he does exceedingly well here with action and violence, turning rudimentary car-chases into something that feels alive and reinvented.", "is_fresh": 1, "author": ["Gary Thompson"]},
{"text": "A superior sci-fi thriller and the best doomsday drama since 28 Days Later.", "is_fresh": 1, "author": ["Roger Moore"]},
{"text": "Director Alfonso Cuaron has exactingly deployed his craft in a depressingly single-minded fashion to create a single-mindedly depressing work of art.", "is_fresh": 1, "author": ["Shawn Levy"]},
{"text": "The most eye-popping and moving drama of the season.", "is_fresh": 1, "author": ["Steve Ramos"]},
{"text": "Despite the bleakness of its vision, Children of Men is also thrilling, both for its groundbreaking style (there are action sequences here unlike any filmed before) and its complex, vividly realized ideas.", "is_fresh": 1, "author": ["Rene Rodriguez"]},
{"text": "Cuar\u00f3n does lowdown takes on high concept better than anyone; no matter what genre he touches, he brings grit and loose-limbed humor along with the hand-held camera jangles.", "is_fresh": 1, "author": ["Amy Biancolli"]},
{"text": "Darkly poetic throughout, the film starts with an explosion and ends drifting in fog with no clear resolution in sight. How brave and oddly satisfying.", "is_fresh": 1, "author": ["Tom Long"]},
{"text": "Fasten your seat belt; you're in for a bumpy, provocative ride.", "is_fresh": 1, "author": ["Terry Lawson"]},
{"text": "Children of Men is a chillingly effective cautionary fable that provides provocative social commentary, but it also works as a compassionate character drama.", "is_fresh": 1, "author": ["Jeff Vice"]},
{"text": "You can see it now or wait 20 years until the movie has found a niche among equally visionary movies that have the capacity to compel, alarm and shake things up.", "is_fresh": 1, "author": ["Robert Denerstein"]},
{"text": "Based on a novel by British mystery writer P.D. James, Children of Men is a filmmaking feat. In the midst of mayhem, director Alfonso Cuaron delivers subtle and jarring images, while exploring complex emotional rhythms.", "is_fresh": 1, "author": ["Lisa Kennedy"]},
{"text": "A rare combination of intelligent social commentary and riveting action - a chase movie for the thinking person.", "is_fresh": 1, "author": ["Sean P. Means"]},
{"text": "This fascinating portrait of the future is one of the best-directed films of the year.", "is_fresh": 1, "author": ["Tyler Hanley"]},
{"text": "Utterly convincing in the density of its street-level detail and occasionally awe-inspiring in the bravado of its complicated action sequences...", "is_fresh": 1, "author": ["John Beifuss"]},
{"text": "The miracle of Cuar\u00f3n's films is that he presents the sanctity of our feelings for our children in ways as rugged, terrifying, and unsentimental as childhood.", "is_fresh": 1, "author": ["Walter Chaw"]},
{"text": "...a lot better in its specific realizations of what chaos and murder must look, sound and feel like than in offering anything of lasting sustenance.", "is_fresh": 1, "author": ["Philip Martin"]},
{"text": "...a fascinating 'what if' that plays out with devastating effect.", "is_fresh": 1, "author": ["Daniel M. Kimmel"]},
{"text": "Owen makes Theo into the type of modern hero moviegoers want to see today.", "is_fresh": 1, "author": ["Willie Waffle"]},
{"text": "The most frightening science-fiction films... take identifiable situations and circumstances and give them an extra, ominous edge. By that standard, 'Children of Men' is one of the scariest films in years...", "is_fresh": 1, "author": ["James Sanford"]},
{"text": "Cuaron is a visual genius.", "is_fresh": 1, "author": ["Chris Hewitt (St. Paul)"]},
{"text": "[A] dark, terrifying and sometimes very funny film.", "is_fresh": 1, "author": ["Steven Rea"]},
{"text": "A stylish mish-mash of dystopian clich\u00e9s.", "is_fresh": 0, "author": ["Stephen Whitty"]},
{"text": "one of the best science fiction films in the past few years.", "is_fresh": 1, "author": ["Sean McBride"]},
{"text": "At times the film is so supercharged that it glosses over the story's thematic richness and turns into a very high-grade action picture. But if that's the worst thing you can say about a movie, you're doing all right.", "is_fresh": 1, "author": ["Peter Rainer"]},
{"text": "Cuar\u00f3n also pulls us deep into the engrossing universe he has created. There is a stark absence of gadget porn in this futuristic adventure; the most advanced device we see is a video game, innovation at its most trivial.", "is_fresh": 1, "author": ["Colin Covert"]},
{"text": "The story, despite its nominally fascinating nature, never barrels forth the way it needs to. It plods. How a director as versatile and inventive as Cuar\u00f3n managed that is a mystery greater than any found in the film.", "is_fresh": 0, "author": ["Phoebe Flowers"]},
{"text": "It's as if Cuaron sees a future so hellish that all of us retreat into our self-absorbed worlds, leaving society at large to go hang itself. That's a nightmarish vision indeed.", "is_fresh": 1, "author": ["Lawrence Toppman"]},
{"text": "The year is 2027. Famine and pestilence rage unchecked. Infertility is rampant, and the world's youngest person has died at 18. Worst of all, the movies are dull.", "is_fresh": 0, "author": ["Phil Villarreal"]},
{"text": "As all his films have shown, Cuar\u00f3n is clearly one of the most original filmmakers working today, and Children of Men should solidify his place at the top of those ranks. With a great script, there should be no stopping him.", "is_fresh": 1, "author": ["Marjorie Baumgarten"]},
{"text": "Thrilling, important, and invigoratingly bleak, Children of Men is one of the very best movies to come out in 2006.", "is_fresh": 1, "author": ["Lisa Schwarzbaum"]},
{"text": "A sublime visionary achievement that not only outdoes Cuar\u00f3n's previous high-water mark, Y Tu Mam\u00e1 Tambi\u00e9n, but also manages to rank with other dystopian masterworks.", "is_fresh": 1, "author": ["Brett Buckalew"]},
{"text": "A disturbing glimpse of what would happen in the world if women stopped bearing children, Alfonso Cuaron's harrowing \"Children of Men\" manages to effectively convey the paranoia and despair of a humanity that is about to be extinguished.", "is_fresh": 1, "author": ["Angela Baldassarre"]},
{"text": "There's so much despair and anger and grief layered just into the background of Alfonso Cuar\u00f3n's film that I can't shake its gray grimness -- I've been haunted by this film for weeks now...", "is_fresh": 1, "author": ["MaryAnn Johanson"]},
{"text": "The human race's sudden infertility is unexplained, and that's okay. It's a device, a metaphor for the loss of hope in the face of destruction, a more aggressive extension of today's global issues.", "is_fresh": 1, "author": ["Eric Melin"]},
{"text": "Easy to watch and hard to shake, Children of Men is an action-adventure film/socio-political nightmare.", "is_fresh": 1, "author": ["Bryant Frazer"]},
{"text": "With this panting, ragged chase through the end of the world, Cuar\u00f3n and Lubezski have reinvented the language of the action film.", "is_fresh": 1, "author": ["Sean Burns"]},
{"text": "Dystopian take on a world without children that includes pointed to current abuses in the \"war on terror\" and the xenophobia gripping Great Britain and other countries.", "is_fresh": 1, "author": ["Louis Proyect"]},
{"text": "Even if you don't buy the main conceit, the scumbled texture of the movie makes it feel not just plausible but recognizable, and Cuar\u00f3n takes care never to paint the future as consolingly different.", "is_fresh": 1, "author": ["Anthony Lane"]},
{"text": "This is how humanity ends ... annihilated not all at once, but piecemeal, slowly ground to bits between the codependent ideologies of terror and fascism.", "is_fresh": 1, "author": ["Chris Barsanti"]},
{"text": "Owen's compelling performance combined with Cuaron's inspired sense of doom makes Children of Men thought-provoking at a time when science fact is doing the job that science fiction once did at the movies.", "is_fresh": 1, "author": ["Russell Baillie"]},
{"text": "What an amazing and thought-provoking film!", "is_fresh": 1, "author": ["Kamal 'The Diva' Larsuel"]},
{"text": "Narratively, the film may be an uneasy blend of genres, but technically it's brilliant, with lengthy set pieces-- staged and shot in gritty style with handheld camera by ace lenser Emmanuel Lubezki and his team--that should serve as textbook material.", "is_fresh": 1, "author": ["Emanuel Levy"]},
{"text": "Fans of the novel may argue about Cuar\u00f3n's many departures. Some heighten the story's connections to present-day crises; others cloud James' moral vision.", "is_fresh": 1, "author": ["Jeffrey Overstreet"]},
{"text": "[A] bloated adaptation of P.D. James's thoughtful, compact novel.", "is_fresh": 0, "author": ["Joe Morgenstern"]},
{"text": "While it's best to know as little as possible about this movie going into the theater, the story is so fast-paced that you won't be thinking about this review or any other.", "is_fresh": 1, "author": ["Peter Hartlaub"]},
{"text": "In Cuar\u00f3n's highly-skilled hands, Children of Men continuously threatens to develop into something more fascinating than it is.", "is_fresh": 1, "author": ["Peter Canavese"]},
{"text": "The picture is a conceptual muddle. Fortunately, Cuar\u00f3n is such a talented filmmaker that the movie is interesting on other levels.", "is_fresh": 1, "author": ["Kurt Loder"]},
{"text": "A second viewing, which Children of Men richly rewards, deepens our understanding.", "is_fresh": 1, "author": ["Peter Travers"]},
{"text": "There's nothing like a little doom and gloom to ring in the Holidays.", "is_fresh": 1, "author": ["Scott A. Mantz"]},
{"text": "I did enjoy the film overall, but didn't get bowled over by it as so many other fans have.", "is_fresh": 1, "author": ["JoBlo"]},
{"text": "There is a genuine feel, in the film's look, of a world on the brink of total collapse.", "is_fresh": 1, "author": ["Robin Clifford"]},
{"text": "Alfonso Cuaron's Children of Men is the best film of 2006.", "is_fresh": 1, "author": ["Sara Michelle Fetters"]},
{"text": "Cuaron's script, co-written with Timothy J. Sexton, is incredibly tight, Owen is palpably comfortable in Theodore's skin, and the issues of immigration and cultural ambivalence that the film centers on are more than compelling.", "is_fresh": 1, "author": ["Stephen Saito"]},
{"text": "Filming Children of Men as if it were a war documentary enhances its urgency, but Cuar\u00f3n allows quieter moments to disturb us as well.", "is_fresh": 1, "author": ["Jeffrey Westhoff"]},
{"text": "This is sort of \"Brazil\" without the intentional surrealism.", "is_fresh": 1, "author": ["Eric Lurio"]},
{"text": "This is real movie magic... We know they can create anything in CGI, make anything happen with tricky editing and the like. To actually take that out of an equation may not be obvious to everyone, but it registers.", "is_fresh": 1, "author": ["Fred Topel"]},
{"text": "More amusing than compelling, like a campy episode of Lost in Space where anything goes and nothing makes sense. Oh dear! Oh dear!", "is_fresh": 1, "author": ["Kam Williams"]},
{"text": "This is a heart-thumping thriller with two of the most exciting chase scenes since The Matrix Reloaded. But it is also a thoughtful, provocative, and complex film, each shot packed with details, each scene packed with ideas.", "is_fresh": 1, "author": ["Nell Minow"]},
{"text": "Confusion reigns supreme in this preachy and pretentious picture.", "is_fresh": 0, "author": ["Steve Rhodes"]},
{"text": "Children of Men is one of those very rare movies that actually improves the book upon which it is based.", "is_fresh": 1, "author": ["Scott Nash"]},
{"text": "Children of Men is worth seeing, if for no other reason than the gorgeous vision of the end of the world Cuar\u00f3n has crafted and, as mentioned earlier, some of the most unreal single-take action sequences ever committed to screen.", "is_fresh": 1, "author": ["Mark Bell"]},
{"text": "An audacious, exhilarating futuristic thriller.", "is_fresh": 1, "author": ["Ann Hornaday"]},
{"text": "Cuaron has once again proven that he is a filmmaker to be reckoned with in both technical prowess and keen, quiet observance", "is_fresh": 1, "author": ["Brian Juergens"]},
{"text": "Full-throttle futuristic thriller - a whopper of a heart-kicker!", "is_fresh": 1, "author": ["Susan Granger"]},
{"text": "Children of Men, the superbly directed political thriller by Alfonso Cuar\u00f3n, may be something of a bummer, but it's the kind of glorious bummer that lifts you to the rafters.", "is_fresh": 1, "author": ["Manohla Dargis"]},
{"text": "Even in a picture where the smallest gears all work perfectly and harmoniously, Emmanuel Lubezki's cinematography is a unifying and galvanizing force.", "is_fresh": 1, "author": ["Stephanie Zacharek"]},
{"text": "The screenplay, which differs significantly from the novel, is uneven, but the distorted mirror it holds up to the present is disturbingly clear.", "is_fresh": 1, "author": ["Maitland McDonagh"]},
{"text": "This dystopian masterpiece of misery kept me wound up for hours after the credits rolled.", "is_fresh": 1, "author": ["Mark Rahner"]},
{"text": "As exciting and disturbing as it is in many ways, Children of Men -- based on a novel by P.D. James -- doesn't add up to a credible alternate view of the near-future.", "is_fresh": 1, "author": ["William Arnold"]},
{"text": "Although imperfect, it's engaging, thought-provoking stuff.", "is_fresh": 1, "author": ["James Berardinelli"]},
{"text": "Men presents a provocative proposition, because it is not all that far-fetched in our age of environmental degradation and the potential it has to wreak havoc. The film is also that rare thing, one that entertains even as it leaves you thinking.", "is_fresh": 1, "author": ["Pam Grady"]},
{"text": "Cuar\u00f3n relies on his ample visual style, and he has indeed created a film you cannot tear your eyes away from.", "is_fresh": 1, "author": ["Jack Mathews"]},
{"text": "It's a masterwork on every level -- storytelling, production design, camera work, acting and photography.", "is_fresh": 1, "author": ["Glenn Whipp"]},
{"text": "The story is strong enough, but it's the atmosphere, thick with matter-of-fact doom and guerrilla warfare, that gives the film its quickened pulse.", "is_fresh": 1, "author": ["Chris Vognar"]},
{"text": "The film is a triumph of direction, a collection of long takes so carefully planned out that it seems as if Cuaron had very little work to do in the editing room.", "is_fresh": 1, "author": ["Mary F. Pols"]},
{"text": "It's a sophisticated notion handled fairly deftly in what might be the first film of the 21st century to ponder the end of humanity as it is most likely to occur: slowly with lots of time to think about it.", "is_fresh": 1, "author": ["Tim Cogshell"]},
{"text": "What makes Children work is that camera and the staging of all the physical insanity its lens captures.", "is_fresh": 1, "author": ["Bob Townsend"]},
{"text": "It's definitely worth setting aside your urge for lightweight escapism and diving into this heavy, provocative tale, set so closely to our times and so recognizably an extension of our world that it offers an intriguing chance for reflection.", "is_fresh": 1, "author": ["David Germain"]},
{"text": "Everything comes together in Children of Men, from Owen's white-knuckled performance to the eclectic soundtrack.", "is_fresh": 1, "author": ["Bill Muller"]},
{"text": "This is an extraordinary artistic breakthrough from a Mexican director who was already fearlessly good to begin with.", "is_fresh": 1, "author": ["Wesley Morris"]},
{"text": "A genuine thrill ride with a soul.", "is_fresh": 1, "author": ["Kit Bowen"]},
{"text": "An immersive, transporting experience, both devastating and hopeful, and a film that is emotionally, intellectually, and viscerally exhilarating.", "is_fresh": 1, "author": ["Mark Dujsik"]},
{"text": "Children of Men is about a miracle. Children of Men is, itself, a miracle. It's a movie that can single-handedly remove the scales of cynicism from your eyes, reminding you of what wonders cinema is capable.", "is_fresh": 1, "author": ["Devin Faraci"]},
{"text": "Where some directors might have opted for making a sci-fi action film with flashy chase scenes, nifty futuristic special effects and gadgetry, and artsy camera angles, Cuar\u00f3n ... holds up a mirror to our own worldview, reflecting back to us what we bring", "is_fresh": 1, "author": ["Kim Voynar"]},
{"text": "Now this is a nativity story.", "is_fresh": 1, "author": ["Josh Larsen"]},
{"text": "It's still a lot of fun but it's not as deep and heavy as it probably thinks it is.", "is_fresh": 1, "author": ["Dave White"]},
{"text": "[Children of Men] benefits from Cuar\u00f3n's visual virtuosity -- in his hands, it carries a jaw-dropping immediacy.", "is_fresh": 1, "author": ["Jeffrey Chen"]},
{"text": "Children of Men works as a science-fiction parable, as a social commentary, as an action film, and as a character study. But mostly it works as pure cinematic experience.", "is_fresh": 1, "author": ["Rob Vaux"]},
{"text": "it understands the problems we're undoubtedly going to have to face but it also sees the hope that these challenges will no doubt bring out in some individuals", "is_fresh": 1, "author": ["Chris Cabin"]},
{"text": "Cuaron is proving to be the real thing. It's tremendously exciting to watch.", "is_fresh": 1, "author": ["Eugene Novikov"]},
{"text": "A consistently tense, demanding and altogether exhilarating experience, an instant new classic of the sci-fi genre.", "is_fresh": 1, "author": ["Dustin Putman"]},
{"text": "Cautionary tale and thriller rolled into one, it is a terrifying vision of the future, all the more gripping for ringing so true.", "is_fresh": 1, "author": ["Andrea Chase"]},
{"text": "Though in terms of atmosphere it's a gripping exercise in modern Orwellianism, it's less well realized in human terms.", "is_fresh": 1, "author": ["Frank Swietek"]},
{"text": "Alfonso Cuaron, a master craftsman, creates a unique and totally original vision of this not-too-distant future. It's harrowing.", "is_fresh": 1, "author": ["Pete Hammond"]},
{"text": "Children of Men is a heartbreaking, bullet-strewn valentine to what keeps us human.", "is_fresh": 1, "author": ["Keith Phipps"]},
{"text": "The story, based on P.D. James' novel, grabs you at first, but its grip slackens as the unanswered questions and murky plot developments add up.", "is_fresh": 0, "author": ["Kyle Smith"]},
{"text": "An exhilarating sci-fi action thriller with a powerful social and political message.", "is_fresh": 1, "author": ["Claudia Puig"]},
{"text": "Cuar\u00f3n's Children of Men is a formidably distinguished piece of pop filmmaking.", "is_fresh": 1, "author": ["Geoff Pevere"]},
{"text": "This is one of the best movies of the whole year. And likely one of the best of next year, too.", "is_fresh": 1, "author": ["Liz Braun"]},
{"text": "Instantly up to speed and powered by that rarest of cinematic fuels -- intelligent action -- Children of Men is a nativity story for the ages, this or any other.", "is_fresh": 1, "author": ["Rick Groen"]},
{"text": "My problem with the film was expecting too much, because it kept telling me to expect more.", "is_fresh": 1, "author": ["David Poland"]},
{"text": "Director Alfonso Cuar\u00f3n takes his career to a whole other level here. He expertly preys on our doomsday fears, punctuating scenes with the harsh sounds and images of war we've already heard and seen on the nightly news.", "is_fresh": 1, "author": ["Dezhda Gaubert"]},
{"text": "Outside of Black Christmas -- and aren't we all planning on staying outside of Black Christmas? -- this is probably the feel-not-so-great movie of the holiday season. But if you're in the proper, semi-dark mood, it's a gritty gem.", "is_fresh": 1, "author": ["Richard Roeper"]},
{"text": "Is Children of Men for everyone? I don't know. I haven't asked everyone. I can only say it was for me, and that I found its vision of the future gripping--and hopeful, ultimately.", "is_fresh": 1, "author": ["Michael Phillips"]},
{"text": "The film gradually devolves into action-adventure, then the equivalent of a war movie. But the filmmaking is pungent throughout, and the first half hour is so jaw-dropping in its fleshed-out extrapolation that Cuaron earns the right to coast a bit.", "is_fresh": 1, "author": ["Jonathan Rosenbaum"]},
{"text": "One of the year's most invigorating and adept pieces of filmmaking.", "is_fresh": 1, "author": ["Jeffrey M. Anderson"]},
{"text": "Alfonso Cuar\u00f3n's grim, stark vision of the future is one of the most amazing and original films of its kind.", "is_fresh": 1, "author": ["Edward Douglas"]},
{"text": "One of the most technically brilliant and thematically layered films of the year.", "is_fresh": 1, "author": ["Eric D. Snider"]},
{"text": "A breathtaking and original embodiment of the purity of a child, and the absolute necessity of knowing that life goes on.", "is_fresh": 1, "author": ["Matt Pais"]},
{"text": "Alfonso Cuaron rides it out to the bitter end, creating a harsh mirror of our future with violence and some of the most purely exhilarating moments of cinema to be found in all of 2006.", "is_fresh": 1, "author": ["Erik Childress"]},
{"text": "Made with palpable energy, intensity and excitement, it compellingly creates a world gone mad that is uncomfortably close to the one we live in. It is a Blade Runner for the 21st century, a worthy successor to that epic of dystopian decay.", "is_fresh": 1, "author": ["Kenneth Turan"]},
{"text": "Children of Men, Alfonso Cuar\u00f3n's dense, dark, and layered meditation on fertility, technology, immigration, war, love, and life itself may be the movie of the still-young millennium.", "is_fresh": 1, "author": ["Dana Stevens"]},
{"text": "For those capable of enduring its most gut-wrenching moments, Children of Men offers inventive energy, ferocious intelligence, and yet, affirmation of life against the most calamitous circumstances.", "is_fresh": 1, "author": ["Gene Seymour"]},
{"text": "A portrait of a future society that spotlights the issues we need to be addressing today.", "is_fresh": 1, "author": ["Frederic and Mary Ann Brussat"]},
{"text": "Alfonso Cuar\u00f3n's incredibly bleak peek into the very near future is a huge success on both an emotional and technical level.", "is_fresh": 1, "author": ["Jon Popick"]},
{"text": "Messy, unfocussed sci-fi.", "is_fresh": 0, "author": ["Harvey S. Karten"]},
{"text": "...a gripping tale...", "is_fresh": 1, "author": ["Andy Klein"]},
{"text": "Men moves like a funeral procession; slowly, methodically creeping into the belly of the beast, it's met with equal parts fascination and gut-churning horror.", "is_fresh": 1, "author": ["Brian Orndorf"]},
{"text": "One of the year's most imaginative and uniquely exciting pieces of cinema.", "is_fresh": 1, "author": ["Scott Foundas"]},
{"text": "It's a measure of Cuar\u00f3n's directorial chops that Children of Men functions equally well as fantasy and thriller.", "is_fresh": 1, "author": ["J. Hoberman"]},
{"text": "There's a constant sense of urgency and uncertainty, as anything seemingly can and will happen to the characters.", "is_fresh": 1, "author": ["Kevin N. Laforest"]},
{"text": "Children of Men is filled with scenes which dazzle you with their technical complexity and visual virtuosity. On this level alone, it's easily one of the best films of the year and represents a new level of artistry for Cuar\u00f3n.", "is_fresh": 1, "author": ["Ethan Alter"]},
{"text": "Children of Men is an anecdotal vision of the way the future seems to be headed from a 2006 vantagepoint. There is only a tiny glimmer of hope, and it does not extend to the masses.", "is_fresh": 1, "author": ["Cole Smithey"]},
{"text": "Children of Men leaves too many questions unanswered, yet it has a stunning visceral impact. You can forgive a lot in the face of filmmaking this dazzling.", "is_fresh": 1, "author": ["David Ansen"]},
{"text": "Conta n\u00e3o apenas com um ou dois, mas com tr\u00eas dos planos mais complexos e geniais j\u00e1 concebidos por um cineasta.", "is_fresh": 1, "author": ["Pablo Villa\u00e7a"]},
{"text": "Destined to stand alongside such adult-skewing sci-fi as A Clockwork Orange, Blade Runner, and any other seminal dystopian flick you'd care to name.", "is_fresh": 1, "author": ["Luke Y. Thompson"]},
{"text": "It would be foolish to deny the supreme technical achievements of Children of Men.", "is_fresh": 1, "author": ["Keith Uhlich"]},
{"text": "Strong contender for the best science fiction film of 2006.", "is_fresh": 1, "author": ["James O'Ehley"]},
{"text": "El mundo entero hablar\u00e1 del naturalismo de la cinta, del viaje emocional intenso, y de la grandeza del director y su fot\u00f3grafo.", "is_fresh": 1, "author": ["Alex Ramirez"]},
{"text": "Great science fiction doesn't necessarily need giant freakin robots.", "is_fresh": 1, "author": ["Joshua Tyler"]},
{"text": "Whatever else may or may not work, Children of Men at least has this: a great idea. It is too bad, then, that the movie surrounding the idea is not equally great.", "is_fresh": 1, "author": ["Gabriel Shanks"]},
{"text": "There is much about the film that is impressive, but ultimately we do not care enough about the characters, so our journey is a frustrating one.", "is_fresh": 0, "author": ["Urban Cinefile Critics"]},
{"text": "A freak-show gauntlet in a society gone berserk where screenwriter-director Alfonso Cuaron and his cinematographer Emmanuel Lubezki take matters into the remarkable.", "is_fresh": 1, "author": ["Jules Brenner"]},
{"text": "click here for full review in Greek", "is_fresh": 1, "author": ["Joseph Proimakis"]},
{"text": "A dystopian world like no other.", "is_fresh": 1, "author": ["Raam Tarat"]},
{"text": "There is one scene that will make directors go weak at the knees. It's a full-scale urban battle, shot in a continuous take that lasts perhaps 10 minutes. It's one of the greatest single shots in the history of the medium.", "is_fresh": 1, "author": ["Paul Byrnes"]},
{"text": "This futuristic London thriller is so well filmed and acted that it grabs hold of us and never lets go.", "is_fresh": 1, "author": ["Rich Cline"]},
{"text": "The real power is in the simple contrast of despair and hope, the latter embodied in a pregnant woman who seeks protection from a typically world-weary Clive Owen.", "is_fresh": 1, "author": ["Stella Papamichael"]},
{"text": "This explosively violent future-nightmare thriller, directed by Alfonso Cuar\u00f3n and adapted from the novel by PD James, has simply the most extraordinary look of any movie around.", "is_fresh": 1, "author": ["Peter Bradshaw"]},
{"text": "A visually stunning Swiftian satire, Children Of Men may appear clumsy, but its message is simple, heartfelt and ultimately rather moving.", "is_fresh": 1, "author": ["Damon Wise"]},
{"text": "It's a movie that only sci-fi nerds are going to enjoy.", "is_fresh": 0, "author": ["David Edwards"]},
{"text": "Clive Owen is simply terrific in the lead - he seems to get better and better with every film.", "is_fresh": 1, "author": ["Matthew Turner"]},
{"text": "This is as real and as provocative as the future gets on screen.", "is_fresh": 1, "author": ["Dave Calhoun"]},
{"text": "An ugly mix of contemporary issues is hacked to unrecognizable bits in this tame, at times insipid thriller trying to impress with impossibly generic analogies to our own time.", "is_fresh": 0, "author": ["Boyd van Hoeij"]},
{"text": "A fine but flawed exercise in dystopia.", "is_fresh": 1, "author": ["Derek Elley"]},
{"text": "Alfonso Cuaron takes the classic movie formula of a cynical tough guy required to see an innocent party to safe harbor, and shoots it to pieces.", "is_fresh": 1, "author": ["Ray Bennett"]},
{"text": "", "is_fresh": 1, "author": ["Daniel Kasman"]}
]