[
{"reviews_count": "262", "title": "Coraline", "avg_audience_rating": "3.7", "rotten_count": "25", "tomatometer": "90", "audience_score": "73", "avg_critic_rating": "7.8", "fresh_count": "237", "user_ratings_count": "384,195"},
{"text": "Entertaining, funny and surprisingly suspenseful a times, Coraline is the perfect movie for your little one...and for the child in all of us.", "is_fresh": 1, "author": ["Candice Frederick"]},
{"text": "Having read Neil Gaiman's novella a number of times, I had my own idea of what the little girl who discovers an alternative and terrifying other world in her own home should be like but director Henry Selick's vision knocks spots off my own.", "is_fresh": 1, "author": ["Brigit Grant"]},
{"text": "Coraline is an interesting film that leaves its audience with two thoughts. Normal life is perfect, even when it isn't, and beware of dreams with fangs.", "is_fresh": 1, "author": ["Julie Washington"]},
{"text": "... a gorgeous and imaginative storybook fantasy with nightmare echoes. Think Dr. Seuss by way of Edward Gorey ...", "is_fresh": 1, "author": ["Sean Axmaker"]},
{"text": "Coraline never stops taking artistic risks. I hope there's a brave enough audience out there willing to take the plunge.", "is_fresh": 1, "author": ["Tom Charity"]},
{"text": "All involved in this production deserve praise for turning Coraline into a triumph of storytelling and cinematic technology. Whether you're young, middle-age or older, you'll adore it.", "is_fresh": 1, "author": ["Randy Myers"]},
{"text": "For all its shortcomings, Coraline nevertheless has more imagination, heart and inventiveness in it than most recent animated films.", "is_fresh": 1, "author": ["Jim Vejvoda"]},
{"text": "You know from the very first sequence that Coraline is an extraordinary movie that is going to rattle the bejeezus out of young audience members and -- the truth be told -- their fathers as well.", "is_fresh": 1, "author": ["Jay Stone"]},
{"text": "It would be difficult for any filmmaker to mimic Gaiman's seductively amusing and imaginative writing, and Selick, who also wrote the script, should be commended for not falling back on some golden-tongued narrator. But his Coraline could use more spunk.", "is_fresh": 1, "author": ["Matt Prigge"]},
{"text": "The movie, though, dares not go below the surface. Could the problem be its use of 3-D? Did the filmmakers think that to offset this additional, illusory visual dimension they had to remove all depth from the story itself?", "is_fresh": 0, "author": ["Peter Keough"]},
{"text": "It's the stop-motion figures themselves who steal the show. They're so vivid and expressive, in both body and facial movements, that they cease being mere puppets and take on a life all their own.", "is_fresh": 1, "author": ["Carol Cling"]},
{"text": "The fine details and surreal flourishes Selick lavishes upon Coraline's tentative travels into the unknown are a never-ending delight. Even during the sections of the story that are intended to disturb.", "is_fresh": 1, "author": ["Leigh Paatsch"]},
{"text": "A cinematically inventive, dramatically involving children's adventure that isn't exclusively aimed at children. There's no talking down, no softening of potentially unsettling moments. It's awesome.", "is_fresh": 1, "author": ["Norman Wilner"]},
{"text": "A stunning visual delight, this beautifully-made animated adventure will thrill children of about eight and above.", "is_fresh": 1, "author": ["Roz Laws"]},
{"text": "Coraline offers no broad explanation for its supernatural peculiarities. It doesn't need it. These things exist in the world we know, albeit in more ethereal forms.", "is_fresh": 1, "author": ["John Serba"]},
{"text": "A film so delightfully creative, vibrant and yes, a little dark that it once again proves that Mr. Selick is a rare creature in the world of filmmaking, that rare kind of filmmaker whose creativity and vision knows no bounds.", "is_fresh": 1, "author": ["Neil Miller"]},
{"text": "Coraline proves Selick to be a champion storyteller with stop-motion animation. He resurrects the dark sinisterness of Nightmare and cannily merges it with a touch of Alice in Wonderland and Arachnophobia.", "is_fresh": 1, "author": ["Dann Gire"]},
{"text": "This animated fairytale is visually dazzling, fun and weaves an atmosphere somewhere between magical and creepy.", "is_fresh": 1, "author": ["Leonie Hayden"]},
{"text": "Here's a splendid cautionary tale for any child who has ever, mid-tantrum, wailed, \"I'll just go find my real parents!\"", "is_fresh": 1, "author": ["Leah Rozen"]},
{"text": "This is a wonderful-looking animation with a wafer-thin plot.", "is_fresh": 1, "author": ["Graham Young"]},
{"text": "As in the Grimm Brothers stories, there's something very pagan in Coraline, something that doesn't jibe with our feelings that good always defeats evil. Rather it insists that cleverness and a little treachery is always needed to save our skins.", "is_fresh": 1, "author": ["Richard von Busack"]},
{"text": "A juvenile nightmare that children can gasp and giggle along with and feel a bit braver for surviving.", "is_fresh": 1, "author": ["Steve Persall"]},
{"text": "Whilst the denouement is a little rushed, not meeting the exceptional standards established in the first two thirds of the film, the deconstruction of the other world is fascinating as it unravels in front of your eyes.", "is_fresh": 1, "author": ["Beth Wilson"]},
{"text": "Coraline is one of those films where I was blown away by the complexity of it from the second it began to the moment it ended.", "is_fresh": 1, "author": ["David Sztypuljak"]},
{"text": "You're on your own when it comes to knowing how tolerant your children are for a good scare. Coraline is that rare movie that can be debated by psychiatrists as avidly as it is by third-graders.", "is_fresh": 1, "author": ["Mal Vincent"]},
{"text": "Understated, dark and wonderful, it's a classic for those of Coraline's age.", "is_fresh": 1, "author": ["Sacha Molitorisz"]},
{"text": "Gloriously gothic and deliciously creepy.", "is_fresh": 1, "author": ["Jeff Meyers"]},
{"text": "Coraline's dangerous predicament, coupled with the eye-popping set design, makes for a sinister and menacing universe that provides excitement and thrills, but may be a little too intense for younger viewers used to more sanitised fare.", "is_fresh": 1, "author": ["Terry Staunton"]},
{"text": "The sinister undertones could be unsettling for preschoolers, but Coraline is a rare treat for kids old enough to appreciate its exotic rush of wonder, weirdness and wildly imaginative adventure. ", "is_fresh": 1, "author": ["Neil Pond"]},
{"text": "Freudians, you have our permission to knock yourselves out.", "is_fresh": 1, "author": ["Kelly Vance"]},
{"text": "Coraline looks fantastic and is wonderfully told, but you should probably leave your five and six year olds at home, especially if they get nightmares easily.", "is_fresh": 1, "author": ["Joshua Starnes"]},
{"text": "Will win over older audience with the story and design, rather than 'adult jokes' hidden within a juvenile narrative.", "is_fresh": 1, "author": ["Mike Edwards"]},
{"text": "Kids can enjoy this but they're not the primary target.", "is_fresh": 1, "author": ["Katina Vangopoulos"]},
{"text": "It's wildly inventive, thoroughly amusing and fuelled by unhinged imagination. And it's creepy as all hell.", "is_fresh": 1, "author": ["Simon Miraudo"]},
{"text": "With its silky visuals and breathtaking creativity, Coraline is one of the few modern features to prove that Pixar doesn't have a monopoly on animated excellence.", "is_fresh": 1, "author": ["Sean Edgar"]},
{"text": "Visually, \"Coraline\" rests between Terry Gilliam's rudimentary \"Monty Python\" work and Pixar's prestigious polish. Every background is beautiful in a children's film that's mesmerizing and a bit bothersome at times, just as it should be.", "is_fresh": 1, "author": ["Nick Rogers"]},
{"text": "The Nightmare Before Christmas test required. If the kiddies survive that one without developing an intense fear of the boogeyman or Santa Claus, Coraline gets a green light.", "is_fresh": 1, "author": ["Perri Nemiroff"]},
{"text": "Parents of impressionable littlies should be mindful that the film does descend into a very effective nightmare world in the final reel and some time could be spent shielding eyes from Selick's more confronting creations. ", "is_fresh": 1, "author": ["Simon Foster"]},
{"text": "Gaiman's great story and Selick's direction make it a fun few hours in the theater. Just don't take anybody under eight.", "is_fresh": 1, "author": ["Jean Lowerison"]},
{"text": "Coraline is equal parts funny and frightening. This isn't a cute story for kids... but one of the most sophisticated, rewarding works of American fantasy cinema. ", "is_fresh": 1, "author": ["Jeffrey Overstreet"]},
{"text": "An amazing stop-motion achievement.", "is_fresh": 1, "author": ["Wesley Lovell"]},
{"text": "While Selick's production is not by any stretch graphic or gory, the use of odd and irregular shapes, proportions, and movement creates a dark symphony of macabre images that horrify the psyche and chill the blood all the same.", "is_fresh": 1, "author": ["Jordan Hiller"]},
{"text": "Evokes \"Beetlejuice\" and \"Pan's Labyrinth\" but is much more of a children's movie and a damned good one at that.", "is_fresh": 1, "author": ["Louis Proyect"]},
{"text": "It might be too sophisticated and scary for children, but it at least never insults their intelligence.", "is_fresh": 1, "author": ["Dennis Schwartz"]},
{"text": "With Coraline, Henry Selick and his team of stop-motion animators have created a real wonder, one that will entertain children for years to come.", "is_fresh": 1, "author": ["Sonny Bunch"]},
{"text": "Coraline has enough exhilaration and dread to remind viewers of the first time they read about Gretel pushing the Witch into the oven", "is_fresh": 1, "author": ["Fernando F. Croce"]},
{"text": "This is one of those films that works best if you can forget about the source material. Selick's film is more like a three-ring circus.", "is_fresh": 1, "author": ["Jake Wilson"]},
{"text": "A wonderfully inventive film.", "is_fresh": 1, "author": ["David Stratton"]},
{"text": "The 3-D animation is just superb in Coraline; the imagination of Neil Gaiman has taken flight with director Henry Selick.", "is_fresh": 1, "author": ["Margaret Pomeranz"]},
{"text": "Coraline is a genuinely creepy film that employs 3-D trickery to its best affect. A deliciously entertaining mythological adventure.", "is_fresh": 1, "author": ["Pauline Adamek"]},
{"text": "The visual invention is staggering, ranging from fabulous fantasy to eerie scary", "is_fresh": 1, "author": ["Andrew L. Urban"]},
{"text": "A whimsical fantasy created in stop animation and set in alternate universes, Coraline is a visual treat certain to whisk every age into a magical wonderland.", "is_fresh": 1, "author": ["Louise Keller"]},
{"text": "A whimsical fantasy created in stop animation and set in alternate universes, Coraline is a visual treat certain to whisk every age into a magical wonderland.", "is_fresh": 1, "author": ["Richard Kuipers"]},
{"text": "It takes an extraordinary mind to create a truly original, truly new, truly beautiful fable, Coraline is one such creation.", "is_fresh": 1, "author": ["Giles Hardie"]},
{"text": "Walks the thin line between scary and downright entertaining...", "is_fresh": 1, "author": ["Felix Vasquez Jr."]},
{"text": "A wonderfully weird film, a modern-day Alice in Wonderland that marries technology and good old-fashioned storytelling.", "is_fresh": 1, "author": ["Mike Scott"]},
{"text": "Coraline is near perfect family entertainment - if your family can handle some pretty ghoulish creatures.", "is_fresh": 1, "author": ["Christian Toto"]},
{"text": "At times it was trying too hard to be WHIMSICAL %u2122 and missing the point that whimsy is best taken unselfconsciously. By all means see it if you can also endure the tedious splendor that is Nightmare Before Christmas. They are both stunning to look", "is_fresh": 0, "author": ["Karina Montgomery"]},
{"text": "If you're going to make a movie that doesn't quite add up to the sum of its parts, you might as well make sure those parts are beautifully formed.", "is_fresh": 1, "author": ["Richard Edwards"]},
{"text": "The film combines stunning visuals - there are scenes of incredible beauty - with good old-fashioned storytelling that is funny, inventive and at times scary. Destined to be a classic.", "is_fresh": 1, "author": ["Cosmo Landesman"]},
{"text": "The movie is beautifully crafted, but like the same director's other stop-motion feature, Tim Burton's The Nightmare Before Christmas, it will mystify and in some cases terrify younger children.", "is_fresh": 1, "author": ["Philip French"]},
{"text": "It's easy to admire the film's psychedelic surrealism and its marvellous design, but it's not a great deal of fun.", "is_fresh": 0, "author": ["Nicholas Barber"]},
{"text": "Here the film goes very dark but kids will lap it up, scares and all.", "is_fresh": 1, "author": ["Mickey McMonagle"]},
{"text": "Here's my recommendation, don't let this be your kid's first scary movie, especially in the 3D, which is the only way to see this beautiful, hypnotic film.", "is_fresh": 1, "author": ["Jeff Bayer"]},
{"text": "This dark edge will be the biggest test of the film as a commercial prospect: it may be too terrifying for the target audience. But for braver kids - and parents - this is a thrilling, even challenging ride.", "is_fresh": 1, "author": ["Tom Huddlestone"]},
{"text": "Like the Tin Man of Oz, Coraline is a miracle of engineering - and absolutely heartless.", "is_fresh": 1, "author": ["Ali Catterall"]},
{"text": "Technically, it's impeccable. But it's madly out of synch with the 12A certificate.", "is_fresh": 0, "author": ["James Christopher"]},
{"text": "Some scary fun.", "is_fresh": 1, "author": ["Peter Bradshaw"]},
{"text": "A gorgeously hand-crafted and pleasurably detailed piece of work. It's also genuinely strange, creepy and arresting.", "is_fresh": 1, "author": ["Tim Robey"]},
{"text": "The results are simply astonishing. Selick has created a richly detailed, beautifully realised set of parallel worlds and allows us to become as lost as Coraline herself in and between their exquisite textures.", "is_fresh": 1, "author": ["Anton Bitel"]},
{"text": "Coraline is more of an odd curiosity than a must see, lacking the storytelling innovation to match its visual panache.", "is_fresh": 1, "author": ["Simon Reynolds"]},
{"text": "Endlessly inventive and impeccably realised, it's tough to find fault with this freaky, feisty fable.", "is_fresh": 1, "author": ["Neil Smith"]},
{"text": "It's not really suitable for younger children but their elder brothers and sisters will be fiendishly entranced by the best children's movie this year. Naysayers can button it.", "is_fresh": 1, "author": ["Tim Evans"]},
{"text": "Rich, ingenious and frighteningly close to home, Selick's new nightmare puts him nearer to Guillermo del Toro and David Lynch than Tim Burton. See it in 3D. Then sleep with the light on.", "is_fresh": 1, "author": ["Jonathan Crocker"]},
{"text": "Admirably, it never condescends, and the subtexts about child abduction and the nature of maternal love identify Coraline as something measurably apart from what traditionally passes for \"kids\" films these days.", "is_fresh": 1, "author": ["Michael Bonner"]},
{"text": "Off-beat, weird, original, intense, stunning, jaw-dropping, enthralling and ingenious, this film is a beautiful piece of work that will hold your attention and capture your heart.", "is_fresh": 1, "author": ["Simon Thompson"]},
{"text": "It lacks narrative drive, psychological depth and, most of all, warmth. This is a 'family' movie that offers an extremely dark view of human nature without providing much to relieve it.", "is_fresh": 0, "author": ["Christopher Tookey"]},
{"text": "It may be a little too complex and mildly disturbing for wee ones, but its lush gothic style and amazing effects will impress film fans.", "is_fresh": 1, "author": ["Mark Adams"]},
{"text": "Coraline may end up as a cult classic watched by students rather than their little sisters.", "is_fresh": 1, "author": ["The Sneak"]},
{"text": "The vision of Henry Selick adds a darkness to this sometimes sinister fairy tale.", "is_fresh": 1, "author": ["Martin Hoyle"]},
{"text": "Selick's wonderful stop-motion adaptation of Neil Gaiman's children's novel has a lot to do with distortions, idealisations and celebrations of home.", "is_fresh": 1, "author": ["Donald Clarke"]},
{"text": "A virtuoso piece of storytelling with amazing attention to detail.", "is_fresh": 1, "author": ["Allan Hunter"]},
{"text": "Skittering up goosebumps of wonderment at every turn, this latest spooky stop motion from director Henry Selick is a visual masterpiece - yet misses that magic ingredient: a heart.", "is_fresh": 1, "author": ["Larushka Ivan-Zadeh"]},
{"text": "Beautifully animated, superbly designed and impressively directed, this is a delightfully imaginative tale with strong characters and a great script.", "is_fresh": 1, "author": ["Matthew Turner"]},
{"text": "Based on the Neil Gaiman book, this is another refreshingly dark kids' movie from Selick that never undermines its creepy story to assure undemanding audience members. And it looks utterly fantastic.", "is_fresh": 1, "author": ["Rich Cline"]},
{"text": "This deliciously creepy fairy- tale-penned by Neil Gaiman and adapted by Nightmare Before Christmas director Henry Selick-might just be the best 3D film ever made. It is, without doubt, the best I've seen.", "is_fresh": 1, "author": ["Robbie Collin"]},
{"text": "Imagine Burton's unique, warped, off-kilter vision crossed with the darkest of Roald Dahl's kids tales in 3D and you'll come close to Coraline's warped brilliance. Disney this ain't.", "is_fresh": 1, "author": []},
{"text": "It's weird and wonderful stuff, with Selick using the 3D sparingly to subtly add depth and texture to this magical, macabre world.", "is_fresh": 1, "author": ["Alistair Harkness"]},
{"text": "Unfortunately Coraline is one of those movies that one thought one would have liked more . . .", "is_fresh": 0, "author": ["James O'Ehley"]},
{"text": "Terrifying and beautiful, believable and fantastical, this is one of the best children's films in years and Selick's finest - better even than The Nightmare Before Christmas.", "is_fresh": 1, "author": ["Helen O'Hara"]},
{"text": "Superbly edited and paced just right, Coraline will keep you glued to the screen until the end.", "is_fresh": 1, "author": ["Jennie Kermode"]},
{"text": "A delightfully dark fairy tale!", "is_fresh": 1, "author": ["Julian Roman"]},
{"text": "Inventive visuals and a serious scary streak permeate Coraline, a ripping example of stop-motion animation that's overflowing in wild detail.", "is_fresh": 1, "author": ["Sean P. Means"]},
{"text": "The movie is a visual treat with every color in the crayon box on display.", "is_fresh": 0, "author": ["Keith Cohen"]},
{"text": "...boasts an unapologetically thin storyline that grows increasingly problematic as the movie progresses.", "is_fresh": 0, "author": ["David Nusair"]},
{"text": "The quality of Selick's craft and the dense, haunting nature of Gaiman's morality tale for children collectively make Coraline a resonant visceral experience.", "is_fresh": 1, "author": ["Robert Levin"]},
{"text": "richly creepy, funny and completely confident", "is_fresh": 1, "author": ["Nathaniel Rogers"]},
{"text": "The other mother in Coraline is mother-love gone berserk, all-consuming and self-serving.", "is_fresh": 1, "author": ["Renie Scolaro Mora"]},
{"text": "Ripe with colors and magic and mystery. 3D is very nice. Cools off towards end. Spooky.", "is_fresh": 1, "author": ["Ross Anthony"]},
{"text": "the film starts off in traditional children's fable territory, it does get quite scary towards its end.", "is_fresh": 1, "author": ["Sean McBride"]},
{"text": "Coraline is just dazzling to look at, the kind of film where the frame seems to be bursting with things to discover.", "is_fresh": 1, "author": ["Mike McGranaghan"]},
{"text": "Coraline is meant for children. But it's neither infantile nor condescending. It has a moral... without being preachy or sanctimonious, bypasses the cynical formula that makes so many animated features so headache-inducing.", "is_fresh": 1, "author": ["Maitland McDonagh"]},
{"text": "A vibrant, imaginative, and, above all, unapologetically dark children's horror fantasy.", "is_fresh": 1, "author": ["David Cornelius"]},
{"text": "Creepy and cool", "is_fresh": 1, "author": ["Fr. Chris Carpenter"]},
{"text": "One fantastic entertainment for viewers of any age.", "is_fresh": 1, "author": ["Michael Dequina"]},
{"text": "An eye-popping animated extravaganza.", "is_fresh": 1, "author": ["Matt Brunson"]},
{"text": "Employing stop-motion animation that renders human beings with the distinctive characteristics evident in both The Nightmare Before Christmas and James and the Giant Peach, Selick finds the perfect look to bring Gaiman's vision to life.", "is_fresh": 1, "author": ["James Berardinelli"]},
{"text": "A gift to imagination.", "is_fresh": 1, "author": ["David Denby"]},
{"text": "It's one of the best fantasy stories on the screen in some time, and possibly the most kid-friendly horror movie of all time.", "is_fresh": 1, "author": ["Widgett Walls"]},
{"text": "The artistry on display in Coraline cannot be underestimated.", "is_fresh": 1, "author": ["Jeffrey Westhoff"]},
{"text": "Coraline is a mesmerizing tale with macabre stitching. There's no blood, but Coraline is a haunting horrorfest located in a weird wonderland.", "is_fresh": 1, "author": ["Tony Macklin"]},
{"text": "packed to the brim with evil, hunger, and the reasons we used to leap across the dark at the top of the stairs", "is_fresh": 1, "author": ["Walter Chaw"]},
{"text": "Because Selick remains true to the novel's spirit, the film rises far above being a mere novelty.", "is_fresh": 1, "author": ["Kent Turner"]},
{"text": "The 3D component in Coraline is mostly in the background, but several big scenes explode with vivid color and utilize the technology in awesome ways.", "is_fresh": 1, "author": ["Lori Hoffman"]},
{"text": "Borrowing a bit from Hansel And Gretel, this lush and spooky 3-D enhanced animated world both enchants and disturbs. And with giddy comic interludes by way of peculiar grownups, like the obese Venus on half shell, overstocked with big boob chuckles.", "is_fresh": 1, "author": ["Prairie Miller"]},
{"text": "So dynamically careens between set pieces of elation and dread that one hardly has time to soak in all the twirling, tumbling visual marvels enveloping the screen.", "is_fresh": 1, "author": ["Nick Schager"]},
{"text": "A considerable achievement of visual dread.", "is_fresh": 1, "author": ["Rob Gonsalves"]},
{"text": "It is as though Gaiman's novel were written with Selick's visual approach in mind, and it's hard to imagine the story being told in anything other than the film's seamless blend of tactile and digital media.", "is_fresh": 1, "author": ["James Kendrick"]},
{"text": "Suficientemente fascinante para merecer uma forte e inequ\u00edvoca recomenda\u00e7\u00e3o.", "is_fresh": 1, "author": ["Pablo Villa\u00e7a"]},
{"text": "Selick and his crack team of animators have preserved the essential non-reality of stop-motion while infusing each character, even the scenery, with a wealth of emotions", "is_fresh": 1, "author": ["Andrea Chase"]},
{"text": "The film to beat in the Oscar race for 2009's best animated feature.", "is_fresh": 1, "author": ["John Wirt"]},
{"text": "Doesn't pander to the audience by gratuitiously accenting the heeby-jeebies.", "is_fresh": 1, "author": ["Bryant Frazer"]},
{"text": "Somewhere between Gaiman's writing and the rendering on the screen this film loses coherence with too little happening that makes sense.", "is_fresh": 1, "author": ["Mark R. Leeper"]},
{"text": "This beautifully rendered stop-animated movie is so masterfully realized, it already has staked its claim as one of the animated films to beat at next year's Academy Awards.", "is_fresh": 1, "author": ["Christopher Smith"]},
{"text": "An interesting comment on parent-child relationships ... there's a certain amount of mystery ... and disappointment to [one's] parents.", "is_fresh": 1, "author": ["Eric Melin"]},
{"text": "Coraline, a stop-motion 3-D fantasia, is Alice in Wonderland without an Alice.", "is_fresh": 0, "author": ["Justin Strout"]},
{"text": "Coraline succeeds more so visually than it does in terms of plot and dialogue.", "is_fresh": 1, "author": ["Kevin McCarthy"]},
{"text": "A remarkable work, but it's not without its flaws, nor without its potential perils for younger viewers.", "is_fresh": 1, "author": ["Ken Hanke"]},
{"text": "A charming winner - the 3-D effects have the frozen in place charm of antique stereoscope postcards.", "is_fresh": 1, "author": ["Richard Knight"]},
{"text": "The Wizard of Oz for the 21st century.", "is_fresh": 1, "author": ["Charles Koplinski"]},
{"text": "This is a classic fantasy tale in the great tradition of the brothers Grimm and it is wonderfully visualized.", "is_fresh": 1, "author": ["Robert Roten"]},
{"text": "A comfortably creepy yet modernized Grimm fairy tale in the time-honored tradition of \"be careful what you wish for.\"", "is_fresh": 1, "author": ["Kevin A. Ranson"]},
{"text": "Head and shoulders above any other family fantasy in recent memory.", "is_fresh": 1, "author": ["Tim Brayton"]},
{"text": "[An] elemental tale of childhood fantasies and nightmares... uncomfortabl[y] honesty about the dark side of being a kid...", "is_fresh": 1, "author": ["MaryAnn Johanson"]},
{"text": "Yes, it comes off as an \"Alice in Wonderland\" copy but it's still fun viewing for the whole family. The 3-D gimmick never gets old and director Selick uses it with style.", "is_fresh": 1, "author": ["Ron Wilkinson"]},
{"text": "Neil Gaiman's hugely popular 2002 children's horror novel Coraline has been given the animated 3-D treatment but you may want to keep the toddlers away from this one.", "is_fresh": 1, "author": ["Peter Rainer"]},
{"text": "Be careful what you wish for, kiddies. Your wish might be granted...and with it, your worst nightmares.", "is_fresh": 1, "author": ["Linda Cook"]},
{"text": "Regardless of its esteemed pedigree of writer Neil Gaiman and director/animator Henry Selick (\"The Nightmare Before Christmas\") this creepy gothic kids' movie doesn't approach anything that the Brother Grimm cooked up on a off day.", "is_fresh": 0, "author": ["Cole Smithey"]},
{"text": "[F]or all of its attempted transgressive wonderment and morbid curiosity, Coraline remains firmly grounded in convention.", "is_fresh": 0, "author": ["Jeremy Heilman"]},
{"text": "Coraline is strange and bizarre and undeniably beautiful.", "is_fresh": 1, "author": ["Rebecca Murray"]},
{"text": "Well-crafted and effectively creepy.", "is_fresh": 1, "author": ["Richard Roeper"]},
{"text": "While the 3-D effect is truly spectacular, it's the story that stokes the imaginations of children.", "is_fresh": 1, "author": ["Gary Brown"]},
{"text": "A mastery of inspiration by writer-director Henry Selick. At the finale of this visual delight, every hired hand and technician also deserve acclaim.", "is_fresh": 1, "author": ["Matthew Sorrento"]},
{"text": "Offbeat and wildly imaginative.", "is_fresh": 1, "author": ["Tricia Olszewski"]},
{"text": "[There] are places where [director Henry] Selick and the animators do such a good job that you'll swear it's a four-dimensional movie and not three.", "is_fresh": 1, "author": ["Gary Wolcott"]},
{"text": "Coraline mixes the dark and the light in the perfect amounts; the result is all the sweeter for having dared to tread the bitter path of childhood fears and uncertainties.", "is_fresh": 1, "author": ["Steve Biodrowski"]},
{"text": "A rare animated movie that adults might be tempted to check out with or without kids in tow.", "is_fresh": 1, "author": ["Geoff Berkshire"]},
{"text": "This is sure to be on permanent loop in homes everywhere, and deservedly so.", "is_fresh": 1, "author": ["Peter Paras"]},
{"text": "probably the most refreshing thing I've seen in months and easily the first great film of 2009", "is_fresh": 1, "author": ["Kevin Carr"]},
{"text": "It's a movie of consummate technical sophistication that evokes the half-forgotten terrors of childhood with a spine-tingling precision.", "is_fresh": 1, "author": ["Kurt Loder"]},
{"text": "Selick puts his real faith not in the gimmickry that Coraline's audiences will think they've shown up for, but in the stronger virtues that they'd likely view as old-fashioned: character, and story, and so on.", "is_fresh": 1, "author": ["Bob Mondello"]},
{"text": "A foreboding, whimsical, altogether spectacularly mounted fable.", "is_fresh": 1, "author": ["Dustin Putman"]},
{"text": "A visual stunner that takes animation to thrilling new heights.", "is_fresh": 1, "author": ["Pete Hammond"]},
{"text": "Coraline proves dazzling on the surface, but in the end that's all it is.", "is_fresh": 0, "author": ["Daniel M. Kimmel"]},
{"text": "[The] chilly visual vocabulary, along with a narrative that too often detours into ingenious irrelevancies, makes Coraline an object to be admired, but not embraced.", "is_fresh": 1, "author": ["Richard Corliss"]},
{"text": "There really needs to be more films with smart, mischievous young girls.", "is_fresh": 1, "author": ["Jenni Miller"]},
{"text": "Like Coraline in the doppelg\u00e4nger world, we swoon over all the neat stuff without ever making ourselves at home.", "is_fresh": 1, "author": ["Dana Stevens"]},
{"text": "Coraline is equal parts fanciful, menacing, beautiful, and subversive.", "is_fresh": 1, "author": ["Tracie Cooper"]},
{"text": "A a children's entertainment that's much too scary for little kids (ugly insects provide a pervasive visual motif) and too lifeless to enchant older audiences.", "is_fresh": 0, "author": ["Joe Morgenstern"]},
{"text": "Gorgeously fantastic, in all senses of the word.", "is_fresh": 1, "author": ["Jette Kernion"]},
{"text": "Coraline is a plucky heroine, and director Selig's imagination is indisputable. But the story falters in parts, and its dark tone could be off-putting for children.", "is_fresh": 0, "author": ["Claudia Puig"]},
{"text": "This animated screen rendering of Neil Gaiman's masterful children's horror fantasy is so full of life and texture, it's almost gilding the lily to add the third dimension to it.", "is_fresh": 1, "author": ["Peter Howell"]},
{"text": "The effect is enchanting, and in the best sense of the word, homemade.", "is_fresh": 1, "author": ["Chris Hewitt (St. Paul)"]},
{"text": "What a rich, strange vision it is.", "is_fresh": 1, "author": ["Mick LaSalle"]},
{"text": "Nearly everything in Coraline has been painstakingly handmade.", "is_fresh": 1, "author": ["Stephanie Zacharek"]},
{"text": "This PG-rated film, though visually splendid and thoroughly engaging, is also too eerie for most kids.", "is_fresh": 1, "author": ["Carla Meyer"]},
{"text": "Cool but creepy animated fantasy too scary for young kids.", "is_fresh": 1, "author": ["Sandie Angulo Chen"]},
{"text": "This is perhaps the most effective 3-D movie I have ever seen, with a sophisticated, involving story that will appeal to many adults.", "is_fresh": 1, "author": ["V.A. Musetto"]},
{"text": "An extraordinary achievement that nevertheless falls short of its full potential, Coraline is absolutely worth seeing, for older children and adults alike.", "is_fresh": 1, "author": ["Elizabeth Weitzman"]},
{"text": "A labor of love in every frame.", "is_fresh": 1, "author": ["Colin Covert"]},
{"text": "Coraline is a remarkable feat of imagination, a magical tale with a genuinely sinister edge.", "is_fresh": 1, "author": ["Kenneth Turan"]},
{"text": "What a beautiful world Henry Selick has created with CORALINE.", "is_fresh": 1, "author": ["JimmyO"]},
{"text": "Coraline impresses mightily. It's just not particularly enjoyable.", "is_fresh": 0, "author": ["Robert W. Butler"]},
{"text": "Coraline is a hand-crafted masterpiece of American animation.", "is_fresh": 1, "author": ["Bruce Kirkland"]},
{"text": "It is a sumptuous visual feast and a perfectly enchanting story.", "is_fresh": 1, "author": ["Amy Biancolli"]},
{"text": "Although fairytale, art and cinema references abound, Coraline is thoroughly and excitingly original -- and quite possibly the best 3-D movie ever made.", "is_fresh": 1, "author": ["Jennie Punter"]},
{"text": "Spooky, stunning and savvy, Coraline is one of those kids movies that makes you wonder if all the kids are going to walk out of the theater with hair scared white and eyeballs frozen in awe.", "is_fresh": 1, "author": ["Tom Long"]},
{"text": "While this stop-motion-animated fantasy film might be a little much for some really sensitive young viewers, it's visually inventive and captivating.", "is_fresh": 1, "author": ["Jeff Vice"]},
{"text": "The writer-director and his gifted animators impress with stop-motion detail. Yet Coraline is short on delight", "is_fresh": 0, "author": ["Lisa Kennedy"]},
{"text": "Parents may need to give a reassuring squeeze now and then, but Coraline is the best kind of children's entertainment -- smartly told and deeply felt.", "is_fresh": 1, "author": ["Tom Maurstad"]},
{"text": "I suspect you could turn the sound off and still be terrified, amused and delighted.", "is_fresh": 1, "author": ["Lawrence Toppman"]},
{"text": "Selick catches you, along with Coraline, in a spider's web, and his visual splendor transfixes you, even when you feel the strands tightening around your brain.", "is_fresh": 1, "author": ["Michael Sragow"]},
{"text": "If there has ever been a case of visual style winning out over substance than this is that case, Selick weaving a web of almost ridiculous beauty I can recall moment after moment where I was left ecstatically breathless.", "is_fresh": 1, "author": ["Sara Michelle Fetters"]},
{"text": "This is a rich, intricate world of microscopic detail, nothing short of complete, immersive enchantment.", "is_fresh": 1, "author": ["Brandon Fibbs"]},
{"text": "Parental Content Review", "is_fresh": 1, "author": ["Jim Judy"]},
{"text": "Selick creates a visual wonderland, with a timeless animation style that will make this a favorite for repeat viewings.", "is_fresh": 1, "author": ["Michael Smith"]},
{"text": "On a technical level alone, Coraline is a stunning achievement and may just be the finest example of stop-motion animation yet put onscreen.", "is_fresh": 1, "author": ["Ethan Alter"]},
{"text": "Creative visual effects but little emotional vibrancy in the central story.", "is_fresh": 0, "author": ["Frederic and Mary Ann Brussat"]},
{"text": "Scary and sinister, aimed at children age eight or over...and be sure to view it in 3-D because that's where the creepy magic is hidden.", "is_fresh": 1, "author": ["Susan Granger"]},
{"text": "A fascinating, cautionary tale for those of us who are always thinking the grass is always greener", "is_fresh": 1, "author": ["Jeanne Kaplan"]},
{"text": "Too bad the filmmakers didn't utilize more of the closing credit techniques throughout.", "is_fresh": 0, "author": ["David Kaplan"]},
{"text": "With its dark tale of changeling parents and imprisoned souls, Coraline comes closer to the bracing spirit of the traditional European fairy tale than perhaps any other film, animated or otherwise, in recent memory.", "is_fresh": 1, "author": ["Steven D. Greydanus"]},
{"text": "It's a film for grownups that remember their childhood, and it's a film that takes animation in America to an entirely new level. It's \"dark\" and it's a \"masterpiece.\"", "is_fresh": 1, "author": ["Jeffrey M. Anderson"]},
{"text": "Coraline lingers in an atmosphere that is creepy, wonderfully strange and full of feeling.", "is_fresh": 1, "author": ["A.O. Scott"]},
{"text": "It's not just the 3-D glasses that add an extra dimension to the horror and hilarity of Coraline.", "is_fresh": 1, "author": ["Peter Travers"]},
{"text": "Just the kind of kids' movie I like... It'll scare the crap out of them as well it should. Something's gotta toughen them up.", "is_fresh": 1, "author": ["Fred Topel"]},
{"text": "Writer-director Henry Selick's delightfully imaginative toon delves into another dreamscape.", "is_fresh": 1, "author": ["Susan Tavernetti"]},
{"text": "This is the perfect movie to show a kid who's outgrown the Little Mermaid phase of her or his life, right before you sit the child down in front of Eraserhead for the first time.", "is_fresh": 1, "author": ["Dave White"]},
{"text": "At the dawn of a new age of 3-D filmmaking, the stop-motion/3-D hybrid Coraline is going to make you gasp out loud.", "is_fresh": 1, "author": ["James Verniere"]},
{"text": "The story is always front and center, and it never fails to delight, and at times terrify, the audience.", "is_fresh": 1, "author": ["David Medsker"]},
{"text": "You should go and see it, if only to remind yourself that entertainment for children can be challenging, and beautiful, and brutal, and hard to watch sometimes.", "is_fresh": 1, "author": ["Coco Forsythe"]},
{"text": "After watching it I can only say, if you're curious about this story, read the book, and don't bother with this version.", "is_fresh": 0, "author": ["Scott Nash"]},
{"text": "There is more imagination and invention on display here than in all the films of January put together.", "is_fresh": 1, "author": ["Eric D. Snider"]},
{"text": "Deeply frightening, telling a story that could bore into your kids' nightmares if you're not careful.", "is_fresh": 1, "author": ["Eugene Novikov"]},
{"text": "Anytime one of these [stop-motion animated films] turns up, and turns up well, we should show gratitude for the treasure.", "is_fresh": 1, "author": ["Jeffrey Chen"]},
{"text": "Easily the best movie of the young year so far and the first worthy contender for Best Animated Film of 2009.", "is_fresh": 1, "author": ["Brian Tallerico"]},
{"text": "A visual masterpiece combined with a decent story", "is_fresh": 1, "author": ["Willie Waffle"]},
{"text": "A visually stunning family-oriented fantasy that will simultaneously enchant kids and creep out parents.", "is_fresh": 1, "author": ["Peter Sobczynski"]},
{"text": "The animation is just plain jaw-dropping, and the implementation of 3D gives the film an added boost of visual splendor. You feel like you're living it.", "is_fresh": 1, "author": ["Randy Shulman"]},
{"text": "The creepier it gets, the more mesmerizing the visuals, ravishingly grotesque and dazzlingly inventive.", "is_fresh": 1, "author": ["Nell Minow"]},
{"text": "keeps the welcome resurgence of mildly-intelligent, strangely-topical animated features rolling.", "is_fresh": 1, "author": ["Chris Cabin"]},
{"text": "Is it premature to assign it classic status?", "is_fresh": 1, "author": ["Carrie Rickey"]},
{"text": "Children who like being scared will get a kick out of this wildly creative movie; adults needn't have a child in tow to enjoy it, too.", "is_fresh": 1, "author": ["Moira MacDonald"]},
{"text": "It's easy to take the seamless complexities of stop-motion for granted. But from grand design to the smallest detail, the craftsmanship of Coraline is impeccable.", "is_fresh": 1, "author": ["Duane Dudek"]},
{"text": "For all its visual delights, Coraline remains more an engaging spectacle than a connective drama.", "is_fresh": 0, "author": ["Desson Thomson"]},
{"text": "Nothing short of magical.", "is_fresh": 1, "author": ["Tasha Robinson"]},
{"text": "If you have a 10-and-up who's drawn to alt-comics, smart books, dark clothing, and general pop culture subversion, the movie will be his or her Wonderland.", "is_fresh": 1, "author": ["Ty Burr"]},
{"text": "This is fairy tale stuff right out of the Brothers Grimm .... Think Dr. Seuss by way of Edward Gorey.", "is_fresh": 1, "author": ["Sean Axmaker"]},
{"text": "If 3-D is going to survive in cinemas as more than a carnivalesque gimmick, filmmakers will have to deliver more movies like the macabre and wonderful 'Coraline,' in which... the 'dimensionality' becomes part of the story.", "is_fresh": 1, "author": ["John Beifuss"]},
{"text": "One of the best, biggest mind-blowing experiences you're likely to have in the theater this year -- and normally I hate dead superlatives like 'mind-blowing,' but it's the only sincere phrase I can think of here.", "is_fresh": 1, "author": ["James Rocchi"]},
{"text": "Would the 8-year-old me have fallen for Coraline? Maybe not. Like my own 8-year-old, at that age I was more into comedy than anything designed to give me the comic willies. But the adult me is a big fan.", "is_fresh": 1, "author": ["Michael Phillips"]},
{"text": "Sure, there's no subtext about saving the planet, but for 2009, Pixar's got to play catch-up.", "is_fresh": 1, "author": ["Amy Nicholson"]},
{"text": "...the first 3-D movie that made me forget I was watching 3-D - and that's a good thing.", "is_fresh": 1, "author": ["Josh Larsen"]},
{"text": "The most unnerving kids movie in many a full moon, and also one of the best.", "is_fresh": 1, "author": ["Gary Thompson"]},
{"text": "For a movie that rarely leaves the house, Coraline takes a number of inspired detours.", "is_fresh": 1, "author": ["Scott Von Doviak"]},
{"text": "A stop-motion-animation classic-to-be...both in concept and execution, Coraline is wildly creative stuff.", "is_fresh": 1, "author": ["Peter Canavese"]},
{"text": "A work of wondrous animation with engaging characters, charming dialogue and more than a few intense moments.", "is_fresh": 1, "author": ["Rafer Guzman"]},
{"text": "Coraline, director Henry Selick's adaptation of Neil Gaiman's novel, is essentially a horror movie for kids, but it is also gentle and funny and whimsical, and even in its darkest moments, Selick never forgets who his target audience is.", "is_fresh": 1, "author": ["Rene Rodriguez"]},
{"text": "The problem is Gaiman's story, which keeps accumulating otherworldly mythology but doesn't establish a clear line of action in the home stretch.", "is_fresh": 0, "author": ["J. R. Jones"]},
{"text": "Coraline may prove unsuitably macabre for the youngest viewers. Yet your children and you are unlikely to see a film anytime soon that has more of a handmade feel -- a value unto itself.", "is_fresh": 1, "author": ["Marjorie Baumgarten"]},
{"text": "The incredible stop-motion 3-D animation only magnifies the story. And it's a great story.", "is_fresh": 1, "author": ["Jane Clifford"]},
{"text": "A veritable portfolio of dazzling stop-motion sequences so virtuosic as to lift you not only out of your workaday brain but, sometimes, out of the film itself as well.", "is_fresh": 1, "author": ["Shawn Levy"]},
{"text": "I admire the film mostly because it is good to look at.", "is_fresh": 1, "author": ["Roger Ebert"]},
{"text": "A consistent splendor to behold.", "is_fresh": 1, "author": ["Scott Foundas"]},
{"text": "It's a gorgeous picture to behold, but fails to absorb smoothly, for the surreal nature of the material often overwhelms basic storytelling requirements. Coraline is an easy film to admire, but not always to watch.", "is_fresh": 1, "author": ["Brian Orndorf"]},
{"text": "Elements of this movie are too dark; it feels like Invasion of the Body Snatchers for kids", "is_fresh": 0, "author": ["Diana Saenger"]},
{"text": "The imaginative story makes vivid use of 3-D technology, but beware: It's potentially super-scary for small kids.", "is_fresh": 1, "author": ["Thelma Adams"]},
{"text": "The 3-D isn't a Super Bowl-commercial-style gimmick, but instead a savory essential element, used with restraint and in artfully deliberate contrast to the grounded tactility of Selick's signature stop-motion animation.", "is_fresh": 1, "author": ["Jonathan Kiefer"]},
{"text": "Coraline is a spectacle you'll enjoy from start to finish.", "is_fresh": 1, "author": ["Steve \"Uncle Creepy\" Barton"]},
{"text": "Selick effortlessly immerses the audience in a surreal fantasia.", "is_fresh": 1, "author": ["Josh Bell"]},
{"text": "Mind-blowing, stunningly beautiful and ingenious, I'll risk being struck by lightning and say Coraline far surpasses director Henry Selick's best known work, The Nightmare Before Christmas.", "is_fresh": 1, "author": ["Diva Velez"]},
{"text": "An animated film that might be too good for children. It arrives in time to expose the atrocious Wall-E.", "is_fresh": 1, "author": ["Armond White"]},
{"text": "...a marvel of storytelling and technology melded together into a wonderful whole.", "is_fresh": 1, "author": ["Robin Clifford"]},
{"text": "For all the polished electrons of the latest works from Pixar, Blue Sky or DreamWorks, Selick and Co. show that stop-motion animation still looks, moves and feels like nothing at all the computer animator's terrabytes can mimic.", "is_fresh": 1, "author": ["Roger Moore"]},
{"text": "Coraline, the first stop-motion animated film to be conceived and shot in 3-D, is visually dazzling, as you'd expect -- but strangely joyless.", "is_fresh": 0, "author": ["Christy Lemire"]},
{"text": "Tales of alternate worlds are always fascinating when done right, and Coraline fits that description.", "is_fresh": 1, "author": ["Bill Goodykoontz"]},
{"text": "This thrilling stop-motion animated adventure is a high point in [Henry] Selick's career of creating handcrafted wonderlands of beauty blended with deep, disconcerting creepiness.", "is_fresh": 1, "author": ["Lisa Schwarzbaum"]},
{"text": "The 3-D in Coraline is so low-key that I forgot it was there for much of the film. But maybe that's less a knock on the visuals than it is a compliment to the movie's ability to pull me into its zany world.", "is_fresh": 1, "author": ["Phil Villarreal"]},
{"text": "The first stop-motion animated feature in stereoscopic 3-D is a multi-dimensional show-stopper -- an idiosyncratic adolescent adventure tale as well as its own bright shiny new thing.", "is_fresh": 1, "author": ["Brent Simon"]},
{"text": "Deliciously macabre...an animated film with a true touch of dark poetry.", "is_fresh": 1, "author": ["Frank Swietek"]},
{"text": "In a genre packed with derivative visuals and too hip for homeroom pop culture jibes, Coraline is a welcome return to pure animation splendor.", "is_fresh": 1, "author": ["Bill Gibron"]},
{"text": "A modern fairy tale with visual wonders to spare... Handcrafted, obviously, means something special with a movie like this.", "is_fresh": 1, "author": ["Marshall Fine"]},
{"text": "In the same way that movies like Waltz with Bashir and Persepolis open up the possibilities of animated storytelling for adults, Coraline dares aim above the heads of toddlers.", "is_fresh": 1, "author": ["Alonso Duralde"]},
{"text": "What Coraline has is a plucky and sassy little girl who's a gas to spend time with. After 100 minutes, you'll follow her anywhere.", "is_fresh": 1, "author": ["Mark Keizer"]},
{"text": "Selick's work has always been fascinating, but he has never had better material to work with than Coraline (sorry, Roald Dahl and Tim Burton.)", "is_fresh": 1, "author": ["Jurgen Fauth"]},
{"text": "Coraline works as long as you don't expect it to stick with you.", "is_fresh": 1, "author": ["Joshua Tyler"]},
{"text": "A certain leisurely pace in the first act and a bit of routine mopping up in the third are all that stand between it and genuine masterpiece status.", "is_fresh": 1, "author": ["Rob Vaux"]},
{"text": "The 3-D effects aren't overdone but are used intelligently to make this world come brilliantly to life.", "is_fresh": 1, "author": ["Kirk Honeycutt"]},
{"text": "Although it features some of the most exquisite stop motion animation seen to date, even more glorious to watch in 3D, the tone of the film is curiously unsympathetic.", "is_fresh": 0, "author": ["Mike Goodridge"]},
{"text": "Eerily inhabiting the netherworld where a young girl's wildest dreams become her cruelest nightmares, Coraline is a dark delight.", "is_fresh": 1, "author": ["Justin Chang"]},
{"text": "[Director] Selick has a great fantasy filmmaker's artistry, but he lacks that overflowing Geppetto-esque love that brings puppets to life. In Coraline, he's woozy with his own lyricism.", "is_fresh": 0, "author": ["David Edelstein"]},
{"text": "As fine-looking a 3D stop-motion fantasy that four years of top-flight craftsmanship can produce.", "is_fresh": 1, "author": ["Bill Weber"]}
]