[
{"reviews_count": "206", "title": "Crazy Heart", "avg_audience_rating": "3.6", "rotten_count": "20", "tomatometer": "90", "audience_score": "76", "avg_critic_rating": "7.4", "fresh_count": "186", "user_ratings_count": "124,781"},
{"text": "Truly, the entire cast is tremendous-with the glaring exception of Farrell, who is woefully miscast. But Bridges carries the film on his capable shoulders, appearing in every scene, many times alone.", "is_fresh": 1, "author": ["Debbie Baldwin"]},
{"text": "The earnest charm, the moments of clarity and regret, and the amazing talent he imbues Blake with make us long for the singer's redemption. Sadly, his path of deliverance is not nearly as engaging or authentic as the man himself.", "is_fresh": 0, "author": ["Megan Basham"]},
{"text": "This is a story that's been told a thousand times, sometimes with Kris Kristofferson in it, and sometimes not, and it just doesn't bring anything new to the party.", "is_fresh": 0, "author": ["Deborah Ross"]},
{"text": "Crazy Heart is a wonderful picture that will immediately affect you and hold your interest to the very end. ", "is_fresh": 1, "author": ["Ed Koch"]},
{"text": "With great performances from Bridges and Gyllenhaal, Crazy Heart is a winner and a must-see.", "is_fresh": 1, "author": ["John Hanlon"]},
{"text": "Basically a live-action version of the cliche country-western song with a man down on his luck and losing everything in his life, it comes close to being a joke about itself.", "is_fresh": 0, "author": ["Kevin Carr"]},
{"text": "Bridges' worn down country singer is as well realized as any character he's ever done. It may take a while to get going, and to develop, and to wrap up, but there's enough meat to make Crazy Heart worthwhile, even if it is made to last a while.", "is_fresh": 1, "author": ["Joshua Starnes"]},
{"text": "Played by a gracefully aging Jeff Bridges, Bad is an older, greasier and groggier version of The Dude", "is_fresh": 1, "author": ["Matt Kelemen"]},
{"text": "Cooper is so afraid of being bold and baring some soul, he achieves little more than the anachronistic, cookie-cutter blues that his lead character spent a lifetime trying to avoid.", "is_fresh": 0, "author": ["Simon Miraudo"]},
{"text": "Barry Markowitz's camerawork at times captures the hazy heat of the American southwest, giving it a sepia-toned warmth, while this grainy wash gives Blake's late-night bender scenes a green-about-the-gills feel. ", "is_fresh": 1, "author": ["Cris Kennedy"]},
{"text": "Formidable acting talent aside, this is routine self-destruction-and-recovery TV movie material.", "is_fresh": 0, "author": ["Michael Dequina"]},
{"text": "Don't expect greatness from the man named Bad", "is_fresh": 0, "author": ["Marty Mapes"]},
{"text": "Jeff Bridges finally won his Oscar for Crazy Heart and it was well-earned indeed.", "is_fresh": 1, "author": ["Sean Axmaker"]},
{"text": "A solid (if unremarkable) script presented in a straightforward, restrained manner but enlivened by naturalistic, honest acting, Crazy Heart is more than the sum of its parts.", "is_fresh": 1, "author": ["Philip Martin"]},
{"text": "It isn't perfect and it isn't wholly original in terms of narrative, but the film has a warm heart and a depth of performance that makes it deserving of recommendation.", "is_fresh": 1, "author": ["Martin Roberts"]},
{"text": "If not for the performance of Jeff Bridges, this tedious flick wouldn't be nearly as involving.", "is_fresh": 1, "author": ["Wesley Lovell"]},
{"text": "The simple story of a Merle Haggard-type has been who falls in love with a younger reporter is aided greatly by excellent songs and dazzling performances by Jeff Bridges and Colin Farrell.", "is_fresh": 1, "author": ["Bruce Bennett"]},
{"text": "Bridges raises the bar (har-har) for being shafaced onscreen, stumbling and vomiting his way to the stage in podunk clubs...\"", "is_fresh": 0, "author": ["Sean Burns"]},
{"text": "...an aggressively uneven piece of work that would hardly be worth mentioning were it not for the efforts of Bridges and his stellar cast mates...", "is_fresh": 1, "author": ["David Nusair"]},
{"text": "[Bridges] fully inhabits Blake, slowly revealing the bone-weariness of this singer's extended road trips and even more extended drinking binges.", "is_fresh": 1, "author": ["Sean P. Means"]},
{"text": "As he comes to face consequences of this recklessness, Bad sees that his badness - his success and also the limits on it - are also shaped by the business he's in.", "is_fresh": 1, "author": ["Cynthia Fuchs"]},
{"text": "Tem a sorte de trazer um Jeff Bridges mais do que inspirado em seu centro -- caso contr\u00e1rio, poderia perfeitamente ter se tornado uma produ\u00e7\u00e3o mais apropriada para a televis\u00e3o.", "is_fresh": 1, "author": ["Pablo Villa\u00e7a"]},
{"text": "If you're not fond of country music (I'm not), then Crazy Heart may sound like the kind of cracker-barrel movie you should avoid. Bridges will change your mind.", "is_fresh": 1, "author": []},
{"text": "If you adore country music and have actually been in a band, you'll love Crazy Heart. Despite Bridges' brilliance, non-aficionados might find it underwhelming.", "is_fresh": 1, "author": ["Graham Young"]},
{"text": "The role of a lifetime for Jeff Bridges and he plays it to perfection", "is_fresh": 1, "author": ["Jackie K. Cooper"]},
{"text": "It took an Oscar-chasing role tailored for Bridges to win him this belated respect; the movie itself is hardly worthy of him.", "is_fresh": 1, "author": ["Rob Gonsalves"]},
{"text": "What a treat to see and feel an independent American movie that sifts gently across the Western landscape with a heartfelt touch - albeit dusted over with a hazy drift of nostalgia.", "is_fresh": 1, "author": ["Simon Weaving"]},
{"text": "A phenomenal, heart-breaking performance from Jeff Bridges powers this simple but affecting redemption story.", "is_fresh": 1, "author": ["Nev Pierce"]},
{"text": "Crazy Heart feels familiar, even comforting, offering few surprises but a wealth of lovingly crafted, immaculately judged, wholly authentic emotion.", "is_fresh": 1, "author": ["Tom Huddlestone"]},
{"text": "An affable, entertaining film that rarely surprises but brings a smile to the face through the sheer charisma of its leading man.", "is_fresh": 1, "author": []},
{"text": "This turn from the perennially settled and contented Bridges is pure acting. It is the best performance of the past 12 months, and indeed possibly the next.", "is_fresh": 1, "author": ["Kevin Maher"]},
{"text": "A wonderfully easy, confident and muscular performance from Jeff Bridges - so easy, confident and muscular that it doesn't look like acting at all - saves this movie from being pure sentimental mush.", "is_fresh": 1, "author": ["Peter Bradshaw"]},
{"text": "Cooper's film may not make all the right choices, but it's got Bridges, and it's always got the songs, among which Ryan Bingham's The Weary Kind stands out for its haunting, choked melancholy. It's an experience you want to indulge, and that isn't hard.", "is_fresh": 1, "author": ["Tim Robey"]},
{"text": "It's not possible to flaw Bridges here. Akin to Falstaff, the detail of his characterisation - from stagger to cough to swagger to song - is fascinating. But he needs more thorough contextualisation to fly.", "is_fresh": 0, "author": ["Lorien Haynes"]},
{"text": "It's the brilliance of Bridges that means he can be sad and pathetic, and charismatic and heroic all at the same time.", "is_fresh": 1, "author": []},
{"text": "is terrific in his richest role since The Big Lebowski. But the surprise is Farrell, unexpectedly winning as the successful prot\u00e9g\u00e9 keen to give his mentor a break.", "is_fresh": 1, "author": []},
{"text": "It's a shame then that the all-too-familiar story is never as engaging as the two leads, but with performances this strong, Crazy Heart still brings the house down.", "is_fresh": 1, "author": ["Chris Prince"]},
{"text": "Crazy Heart is a B-grade movie elevated to A-grade status by Bridges' nuanced, heartbreaking performance. Gyllenhaal is terrific too as a smart woman who can't help loving that man.", "is_fresh": 1, "author": ["Neil Smith"]},
{"text": "What makes the film is its attention to detail: the locations are a picture book of Americana; the music, overseen by T-Bone Burnett, is a precise re-creation of 1980s New Country.", "is_fresh": 1, "author": ["Alastair McKay"]},
{"text": "Bridges is totally at ease singing the blues, so much so that it's easy to forget those creaks in the script, as he delivers an iconic performance that's guaranteed to pluck the heartstrings.", "is_fresh": 1, "author": ["Stella Papamichael"]},
{"text": "Bridges can play this kind of role in his sleep, and at times appears to be doing so. If he wins the Best Actor Oscar for this, it will be as a long-service medal, not a reflection of excellence in a demanding role.", "is_fresh": 0, "author": ["Christopher Tookey"]},
{"text": "While you can't quite shake the film's Channel 5 matinee feel, star performances lift Crazy I Heart above the ordinary.", "is_fresh": 1, "author": ["David Edwards"]},
{"text": "Jeff Bridges astounds in this beautifully acted, funny and moving film.", "is_fresh": 1, "author": ["Alex Zane"]},
{"text": "The film's Texas and New Mexico landscapes are ravishing, and the songs are beautifully performed, but these offer little more than occasional relief from a very obvious tale.", "is_fresh": 0, "author": ["Leo Robson"]},
{"text": "You'd have to be crazier than Joaquin Phoenix to see this film as ground-breaking. But when it's good, it ain't too bad at all.", "is_fresh": 1, "author": ["Charlotte O'Sullivan"]},
{"text": "The first-time writer-director Scott Cooper sets a gentle, unhurried pace as he unfolds the story.", "is_fresh": 1, "author": ["Anthony Quinn"]},
{"text": "It feels like we've seen it a million times before but Bridges gives the film raw heart, investing Blake with a mighty appealing charisma and vulnerability.", "is_fresh": 1, "author": ["Allan Hunter"]},
{"text": "Despite being a character study, a May-to-December romance and a slow-moving musical relationship drama, this is still one of those films in which 'nothing much happens' - but, as such, it's a very, very good one.", "is_fresh": 1, "author": ["Anna Smith"]},
{"text": "Although it's a bit like watching Jeff Bridges look you in the eyes, waft his boozy breath in your face and shout \"CAN I HAVE AN OSCAR PLEASE?\", it's difficult not to be charmed by everything about Crazy Heart.", "is_fresh": 1, "author": ["Tom Howard"]},
{"text": "Crazy Heart is a superbly directed, powerfully emotional drama with an unmissable central performance from Jeff Bridges.", "is_fresh": 1, "author": ["Matthew Turner"]},
{"text": "I wasn't excited about Crazy Heart. I'd have bundled it in with The Last Station as a movie that exists only to win Oscars. Luckily, it's not like that. Sure ting the story is a bit formulaic, but it's an easy seven and a half out of ten.", "is_fresh": 1, "author": ["Charlie Lyne"]},
{"text": "This film feels like the cherry on top of Jeff Bridges' fine career, giving him a terrific character who carries us through a fairly straightforward story of regret and redemption.", "is_fresh": 1, "author": ["Rich Cline"]},
{"text": "The narrative does succumb to formula, but Bridges and a terrific cast keep it fresh.", "is_fresh": 1, "author": ["Grant Lauchlan"]},
{"text": "Jeff Bridges as Bad Blake truly embodies the phrase Oscar worthy performance... Crazy Heart is great and wonderfully worth seeing, but Jeff Bridges performance in it, is not to be missed.", "is_fresh": 1, "author": ["Giles Hardie"]},
{"text": "You don't need to be a country music fan to enjoy Crazy Heart but there is a good chance you will become one afterwards thanks to this gracefully restrained and sweet drama.", "is_fresh": 1, "author": ["Thomas Caldwell"]},
{"text": "This is a sad little story, told rather indulgently by the writer-director. Bridges and Gyllenhaal are superior to the film in which they appear.", "is_fresh": 1, "author": ["David Stratton"]},
{"text": "Deeply felt performances, great music and pitch-perfect detail make this a film to be cherished.", "is_fresh": 1, "author": ["Erin Free"]},
{"text": "Jeff Bridges' consuming, complete performance ranks among the finest works of his considerable career.", "is_fresh": 1, "author": ["Ben McEachen"]},
{"text": "The songs are original, blues-fueled country tunes of love and loss that remind of 1970s gems from Waylon Jennings, written in a register that fits Bridges' low tone perfectly.", "is_fresh": 1, "author": ["Michael Smith"]},
{"text": "It's a terrific, satisfying film about redemption, with an outstanding performance by Bridges", "is_fresh": 1, "author": ["Louise Keller"]},
{"text": "The point of Crazy Heart is to showcase [Jeff] Bridges who has been much much, much better in other films. At least this one finally gives him long overdue accolades.", "is_fresh": 1, "author": ["Gary Wolcott"]},
{"text": "I've said it once, and I'll say it again; Farrell's the real deal, and easily one of the best actors to come along in the last decade.", "is_fresh": 1, "author": ["Chris Bumbray"]},
{"text": "The movie serves as a showcase for Bridges. Through his body language and demeanor, you can imagine the toll the years of wear and tear have inflicted.", "is_fresh": 1, "author": ["Bob Bloom"]},
{"text": "For my money, anything short of an Oscar for Bridges would be a sin. I'd also call it the best movie of 2009.", "is_fresh": 1, "author": ["Jeff Otto"]},
{"text": "An impressive debut from director Scott Cooper, but it wouldn't be the movie it is without Jeff Bridges' astonishingly credible performance.", "is_fresh": 1, "author": ["Mike Scott"]},
{"text": "Jeff Bridges wears his character, one-time star Bad Blake, as comfortably as a favorite old cowboy hat.", "is_fresh": 1, "author": ["John Wirt"]},
{"text": "... we can almost taste the sour booze and smell the stale smoke ...", "is_fresh": 1, "author": ["Jim Lane"]},
{"text": "Bridges is perfectly attuned to every nuance of the character he plays in Crazy Heart ...", "is_fresh": 1, "author": ["Lori Hoffman"]},
{"text": "Bridges takes center stage in Crazy Heart.", "is_fresh": 1, "author": ["Charles Koplinski"]},
{"text": "Screenwriter/director Scott Cooper's adaptation of the Thomas Cobb novel is a bit predictable, but it benefits from the casting of Bridges as the self-destructive lead.", "is_fresh": 1, "author": ["Jeff Vice"]},
{"text": "While the screenplay for Crazy Heart doesn't always ring true, Bridges does.", "is_fresh": 1, "author": ["Ken Hanke"]},
{"text": "The low-budget \"Crazy Heart\" is just about perfect at what it does, focusing on a narrow slice of American life with precision, humor and understanding", "is_fresh": 1, "author": ["Rob Thomas"]},
{"text": "This might be Jeff Bridges' best performance. And he might, in fact, just take home the Academy Award for Best Actor.", "is_fresh": 1, "author": ["Christopher Smith"]},
{"text": "This is Bridges' show from start to finish, and he seems to be taking particular glee in letting it all hang out (sometimes literally, as a generous gut is frequently glimpsed bursting through an open shirt).", "is_fresh": 1, "author": ["Matt Brunson"]},
{"text": "Bridges brings all his four decades of deceptively casual charm and unpretentious smarts to what is proving to be a signature role.", "is_fresh": 1, "author": ["John Beifuss"]},
{"text": "Now that I've seen Jeff Bridges' portrayal of Blake ... I can't imagine another actor occupying the role.", "is_fresh": 1, "author": ["Sean O'Connell"]},
{"text": "Parental Content Review", "is_fresh": 1, "author": ["Jim Judy"]},
{"text": "incredibly entertaining and poignant, buoyed by a performance by Jeff Bridges that's entirely deserving of its Oscar buzz", "is_fresh": 1, "author": ["Stephen Silver"]},
{"text": "Cooper lets you experience Blake's gradual reawakening right along with him, and Bridges' superb performance -- not the slight plot -- carries the weight.", "is_fresh": 1, "author": ["Rene Rodriguez"]},
{"text": "If the film itself is slight, there's no diminishing the heft that Bridges brings.", "is_fresh": 1, "author": ["Justin Strout"]},
{"text": "This performance reminds us that Bridges is that rare actor who has never had to make that apology. Crazy Heart lets him be every bit as grand as we'd hope him to be.", "is_fresh": 1, "author": ["Roger Moore"]},
{"text": "If Jeff Bridges earns an overdue Oscar for Crazy Heart it won't be for any charitable reasons. It's arguably the best performance of his career.", "is_fresh": 1, "author": ["Christian Toto"]},
{"text": "It is Bad Blake's tortured complexity that sells 'Crazy Heart,' and Jeff Bridges captures Blake body and soul.", "is_fresh": 1, "author": ["Steve Crum"]},
{"text": "Without an ounce of doubt, Jeff Bridges' portrayal of Bad Blake is superb.", "is_fresh": 1, "author": ["S. James Wegg"]},
{"text": "One of the most underappreciated actors in Hollywood is finally getting the recognition he deserves. Jeff Bridges is the odds-on favorite to finally take home the golden statuette.", "is_fresh": 1, "author": ["Keith Cohen"]},
{"text": "Bridges carries the movie on his back and makes Bad Blake a guy worth getting to know.", "is_fresh": 1, "author": ["Eric Melin"]},
{"text": "What it lacks in originality, Crazy Heart makes up for in delivery.", "is_fresh": 1, "author": ["Robert W. Butler"]},
{"text": "Who needs The Wrestler when you have The Crooner?\"", "is_fresh": 1, "author": ["Kam Williams"]},
{"text": "...Bridges' performance as Blake so transcends the clich\u00e9s that he's one of the favorites for the Best Actor Oscar this year.", "is_fresh": 1, "author": ["Sarah Boslaugh"]},
{"text": "The movie belongs entirely to Bridges, who won the Golden Globe for best actor in a drama. His inimitable Jeff-isms have never been more endearing - the sloppy gait, the whiskey glass balanced on his chest, his general air of discombobulation.", "is_fresh": 1, "author": ["Rafer Guzman"]},
{"text": "...the story here is Bridges and the title of that story is \"Brilliant!\"", "is_fresh": 1, "author": ["Michael A. Smith"]},
{"text": "I wanted to walk out bowled over by Jeff Bridges and his 'performance of a lifetime,' but I was fixated on the Colin Farrell factor.", "is_fresh": 1, "author": ["Gina Carbone"]},
{"text": "Crazy Heart is a familiar tune, but the harmonies reverberate.", "is_fresh": 1, "author": ["Joe Williams"]},
{"text": "Jeff Bridges gives a stumbling, puking, unglamorous performance in Crazy Heart ... in hopes of making it to Hollywood's glammest night.", "is_fresh": 1, "author": ["Josh Larsen"]},
{"text": "In Crazy Heart, Jeff Bridges portrays \"Bad\" Blake, a grizzled, battered, alcoholic country singer living on the frayed edges of his fallow career. Bridges nails the role.", "is_fresh": 1, "author": ["Tony Macklin"]},
{"text": "There is no one I would rather have play an overweight drunk. Bridges nails it.", "is_fresh": 1, "author": ["Jeff Bayer"]},
{"text": "When a movie offers you a couple of hours with a drunk, he better be a charmer. And even then, it's a gamble; we've all known charming drunks, but a little can go a long way. Fortunately for Crazy Heart, it has Jeff Bridges, who brings enough charm and ve", "is_fresh": 1, "author": ["Jonathan F. Richards"]},
{"text": "Ultimately what Crazy Heart will always be remembered for is the genuine and poignant performance from Bridges, who should be rewarded with an Oscar nomination in a couple of weeks. Who knows? Maybe the fifth time will be the charm.", "is_fresh": 1, "author": ["Adam Tobias"]},
{"text": "Bridges is so spectacularly good as Bad Blake, country artist, that he's the whole movie.", "is_fresh": 1, "author": ["Liz Braun"]},
{"text": "In a musical genre where emotional authenticity is essential, Bridges is a great enough actor to make us believe these songs could be his own.", "is_fresh": 1, "author": ["Liam Lacey"]},
{"text": "It's a bit too easy, a bit too familiar, and maybe even a bit too much fun. But the easy magic Bridges brings to the screen makes it all work.", "is_fresh": 1, "author": ["Tom Long"]},
{"text": "Bridges ably does his own guitar playing and singing, another reason Crazy Heart is a gift to those who have long appreciated his talents.", "is_fresh": 1, "author": ["Peter Canavese"]},
{"text": "Bridges plumbs the depths of this alcoholic, his bloated body strewn across a sweat-soaked mattress, clinging to his whiskey bottle as if it were his momma ... it's a knock-out performance, devoid of all vanity.", "is_fresh": 1, "author": ["Kimberly Gadette"]},
{"text": "A showcase for an actor whose deep understanding of his character is evident in every gesture and word.", "is_fresh": 1, "author": ["Chris Hewitt (St. Paul)"]},
{"text": "Some goodwill evaporates in the final reel, when a few false endings lead to a choice that's not the best one for Crazy Heart, but the generosity of Bridge's performance puts us in a forgiving mood.", "is_fresh": 1, "author": ["Linda Barnard"]},
{"text": "All hail the small movie.", "is_fresh": 1, "author": ["Devin Faraci"]},
{"text": "As usual, Bridges makes it look easy, ramblin' along through this ramblin' story as if it takes no effort at all to create a three-dimensional character out of nothing.", "is_fresh": 1, "author": ["Eric D. Snider"]},
{"text": "You can see why Bridges signed on for this low-key, low-budget character study. It isn't every day an actor gets the chance to pitch face-forward into the camera, dead drunk.", "is_fresh": 1, "author": ["Colin Covert"]},
{"text": "Hand the Oscar to Jeff Bridges right now, and let's be done with it.", "is_fresh": 1, "author": ["Steven Rea"]},
{"text": "I admire Cooper's restraint, an attribute I've admired in Bridges for so many years.", "is_fresh": 1, "author": ["Gary Thompson"]},
{"text": "It all goes down as smoothly and enjoyably as a fine whiskey.", "is_fresh": 1, "author": ["Tricia Olszewski"]},
{"text": "Crazy Heart finally disappoints because it's so manifestly a character in search of a movie.", "is_fresh": 0, "author": ["Nick Davis"]},
{"text": "Mediocre awards-season staple with some good acting", "is_fresh": 0, "author": ["Fernando F. Croce"]},
{"text": "In Bridges' protrayal Bad is like a floating candle in a jar of gasoline %u2013 always ready to ignite. Through Jean he learns to hang on with a hope to glow once again.", "is_fresh": 1, "author": ["Diana Saenger"]},
{"text": "The difference between 'Crazy Heart' and 'The Wrestler' is the quality of the female characters.", "is_fresh": 1, "author": ["Stephen Himes"]},
{"text": "Jeff Bridges finds the perfect vehicle for his lazy charm and bitter irony in the role of Bad Blake, a washed-up country star trying to climb out of the bottle and put his life back together.", "is_fresh": 1, "author": ["J. R. Jones"]},
{"text": "While years of VH-1's 'Behind the Music' and TMZ have peeled away the mystique of celebrity musicians by showing the blemishes, warts and mishaps that come with fame, Bridges still manages to make this take on a out of his luck entertainer seem fresh.", "is_fresh": 1, "author": ["Jeffrey Lyles"]},
{"text": "The question then -- and it's been answered a million times before, but rarely with such scruffy, exacting eloquence -- is who is Bad Blake going to love more: the lady or the tequila?", "is_fresh": 1, "author": ["Marc Savlov"]},
{"text": "Like The Wrestler but with more heart, Crazy Heart delivers brilliant performances from both Bridges and Gyllenhaal.", "is_fresh": 1, "author": ["Kevin McCarthy"]},
{"text": "Writer/director Scott Cooper seems to recognize his film never draws us in emotionally, so he diverts our attention by focusing on his lead actor's performance, very obviously the locus of his creative concentration.", "is_fresh": 1, "author": ["Brandon Fibbs"]},
{"text": "Like the songs Blake sings, the story feels completely authentic and fully lived.", "is_fresh": 1, "author": ["Nell Minow"]},
{"text": "First-time writer/director Cooper is a rare talent; he knows how to keep his story fine-boned and small, and to write a truly complex, troubled character who nonetheless enters our hearts.", "is_fresh": 1, "author": ["Moira MacDonald"]},
{"text": "You've seen Crazy Heart before -- many, many times, actually -- but it doesn't much matter.", "is_fresh": 1, "author": ["Ty Burr"]},
{"text": "What distinguishes writer-director Scott Cooper's debut is his storytelling, affecting but never maudlin, and a fearless performance by Bridges.", "is_fresh": 1, "author": ["Rossiter Drake"]},
{"text": "Bridges has re-entered Dude territory and crawled out the other side, ditching the dope, swapping the White Russians for sour mash and his bowling ball for a guitar.", "is_fresh": 1, "author": ["Peter Keough"]},
{"text": "Bad is a tortured, self destructive spirit dead set on being alone and miserable, though because he has ample kindness and softness lingering inside, his addictions are all the more deceptively dangerous and his fall from grace all the more pathetic.", "is_fresh": 1, "author": ["Jordan Hiller"]},
{"text": "Another minimalist exercise seeking verisimilitude when the real goal should be drama.", "is_fresh": 0, "author": ["Louis Proyect"]},
{"text": "There's nothing about the essential content of this film that's artificial.", "is_fresh": 1, "author": ["Jules Brenner"]},
{"text": "Watching alcoholics stumble through their lives is sometimes a little boring, though Jeff Bridges is a warm and detailed enough actor to keep us interested and full of hope for him.", "is_fresh": 1, "author": ["Karina Montgomery"]},
{"text": "Bridges is beyond wonderful.", "is_fresh": 1, "author": ["Sara Michelle Fetters"]},
{"text": "I used to be somebody,\" sings washed up legend Bad Blake, \"but now I'm somebody else.\" Like a C&W song, Crazy Heart makes cliches sound like eternal verites, and Jeff Bridges deserves all the credit.", "is_fresh": 1, "author": ["Maitland McDonagh"]},
{"text": "Better story, better acting, better music than 'Once.'", "is_fresh": 1, "author": ["Robert Roten"]},
{"text": "With the best lead performance of the year, a few great supporting ones, excellent music, and completely genuine characters freed of an ounce of melodrama, Crazy Heart is one of the best dramas of 2009.", "is_fresh": 1, "author": ["Brian Tallerico"]},
{"text": "Jeff Bridges' portrayal of broken-down, liquored-up country singer Bad Blake may be the best of his career, and that's saying something.", "is_fresh": 1, "author": ["Bill Goodykoontz"]},
{"text": "Is Jeff Bridges the most underappreciated actor of his generation?", "is_fresh": 1, "author": ["Christopher Kelly"]},
{"text": "This show belongs to Bridges, who starts off as a magnificent train wreck and then takes a journey with the character.", "is_fresh": 1, "author": ["Mick LaSalle"]},
{"text": "As predictable as any of the old clich\u00e9s about country music and men who write it, although that's mainly because Cooper's script ... uses so many of them without delving any deeper.", "is_fresh": 0, "author": ["Mark Dujsik"]},
{"text": "A simple, rough around the edges character study, buoyed up by some pretty fine performances - despite what you may have heard, there are more people in the cast than just Jeff Bridges.", "is_fresh": 1, "author": ["Tim Brayton"]},
{"text": "The film aspires to such low-key minimalism that it leaves no more than a fleeting emotional effect.", "is_fresh": 0, "author": ["Robert Levin"]},
{"text": "Bridges perfects that wasted hayseed persona growl here and in Open Road this year. But oh, how Jeff and Maggie get those erotic, flirty sparks to fly between them, anyway.", "is_fresh": 1, "author": ["Prairie Miller"]},
{"text": "Some actors are blessed. Jeff Bridges is one of them.", "is_fresh": 1, "author": ["Roger Ebert"]},
{"text": "Bridges is exceptional here; it's the movie itself that's less urgent and awkwardly defined, throttling his impressively discombobulated performance, leaving one to wonder why there's even a plot to Heart in the first place.", "is_fresh": 1, "author": ["Brian Orndorf"]},
{"text": "Takes an ordinary situation and makes it extraordinary. Bad Blake isn't a country singer; he's a country song.", "is_fresh": 1, "author": ["Matt Pais"]},
{"text": "While it showcases Jeff Bridges' extraordinary talents and delivers a couple of decent country music tunes, Crazy Heart is basically a retread that doesn't leave much of a lasting impression.", "is_fresh": 0, "author": ["Kit Bowen"]},
{"text": "While the film isn't quite the timeless gem Lebowski is, Bridges playing the perennially soused is, once again, spectacularly award-worthy.", "is_fresh": 1, "author": ["Mary F. Pols"]},
{"text": "This performance is as good as [Bridges has] ever done.", "is_fresh": 1, "author": ["Michael Phillips"]},
{"text": "Another awards season, another tale of middle-age redemption.", "is_fresh": 0, "author": ["Kent Turner"]},
{"text": "(Bridges) just slips into the faded leather boots of a sad, lost soul, a man we all know even though weve never met him.", "is_fresh": 1, "author": ["Christopher Long"]},
{"text": "The movie as a whole never rings as true as Bridges' lead character, Bad Blake -- but he's appealing enough to keep it from falling apart.", "is_fresh": 1, "author": ["Luke Y. Thompson"]},
{"text": "Although the romance between Bridges and Gyllenhaal didn't pass the smell test, I could overlook that because the acting, music, and cinematography mesmerized me.", "is_fresh": 1, "author": ["Tony Medley"]},
{"text": "In this country ballad%u2013like movie that's earning Jeff Bridges Oscar buzz, he plays a downward-spiraling musician. Bridges offers a great performance, but his hokey romance with Maggie Gyllenhaal clashes with the film's gritty realism,", "is_fresh": 1, "author": ["Thelma Adams"]},
{"text": "Bridges draws us deeply inside Blake's moment-to-moment heartbreaks. He makes us root for him as we would root for a dear friend. Ultimately, his triumphs become our own.", "is_fresh": 1, "author": ["Peter Rainer"]},
{"text": "Charles Bukowski morphs into Dewey Cox in this denunciation of the evils of paralyzing drunkenness.", "is_fresh": 0, "author": ["Ron Wilkinson"]},
{"text": "Scott Cooper...makes his directorial debut with one of America's greatest actors delivering a terrific performance in a story we've seen a thousand times before.", "is_fresh": 1, "author": ["Laura Clifford"]},
{"text": "Has an appealing, easygoing vibe for most of its running time.", "is_fresh": 1, "author": ["Jeffrey M. Anderson"]},
{"text": "A quiet, conventional film with a surprisingly firm grip.", "is_fresh": 1, "author": ["Michelle Orange"]},
{"text": "Some good country music and some people you care about make this film likable if nothing flashy. But Bridges's characterization is first rate.", "is_fresh": 1, "author": ["Mark R. Leeper"]},
{"text": "It's a mark of how fine a performance Bridges gives that it succeeds beautifully even though the besotted, bedeviled country singer has been an overly familiar popular culture staple for forever.", "is_fresh": 1, "author": ["Kenneth Turan"]},
{"text": "Crazy Heart could use more rough edges, but while it's a little too sentimental and tidy, Bridges' humane, deeply empathetic lead performance makes it easy to root for one man's redemption.", "is_fresh": 1, "author": ["Nathan Rabin"]},
{"text": "The film packs a huge emotional punch, and captivates mercilessly", "is_fresh": 1, "author": ["Blake French"]},
{"text": "On first viewing, Crazy Heart seemed like a pretty good movie with one great performance. After a second time through, it's sneaking up on the title of my favorite film of the year.", "is_fresh": 1, "author": ["Dana Stevens"]},
{"text": "Often feels like a half-hearted, half-assed remake of Tender Mercies.", "is_fresh": 0, "author": ["Phil Hall"]},
{"text": "As has so often been the case throughout his career, Bridges becomes the character. He buries himself so thoroughly in the role that there's nothing of the actor remaining.", "is_fresh": 1, "author": ["James Berardinelli"]},
{"text": "Not a great movie, but Bridges definitely finds new territory for those acting skils of his. His washed up country singer finally goes after the help he needs and we like the journey to sobriety. Paul Chambers, CNN", "is_fresh": 1, "author": ["Paul Chambers"]},
{"text": "Not that the modest story makes [Jeff] Bridges' accomplishment any less vital or [T-Bone] Burnett's music any less pleasurable.", "is_fresh": 1, "author": ["Geoff Berkshire"]},
{"text": "Bridges does what he does best in disappearing into a complex character who earns our sympathy the hard way", "is_fresh": 1, "author": ["James Kendrick"]},
{"text": "It's one of the year's best, most deeply felt films.", "is_fresh": 1, "author": ["Kyle Smith"]},
{"text": "Crazy Heart is more of a character study than a plot-driven film, but we've got a genuinely compelling character to examine here.", "is_fresh": 1, "author": ["Mike McGranaghan"]},
{"text": "Gyllenhaal is charming and makes unexpected choices in her performance, but this is Bridges' show, and he's as Best Actor-worthy as he's ever been.", "is_fresh": 1, "author": ["Joe Neumaier"]},
{"text": "Jeff Bridges' character may be called Bad Blake, but his performance is incredibly good, perhaps the best of his career.", "is_fresh": 1, "author": ["Claudia Puig"]},
{"text": "Crazy Heart, written and directed by Scott Cooper, is a small movie perfectly scaled to the big performance at its center.", "is_fresh": 1, "author": ["A.O. Scott"]},
{"text": "A rambling story of a down-and-out country singer (a fine performance by Jeff Bridges) trying to put his life in turnaround.", "is_fresh": 1, "author": ["Frederic and Mary Ann Brussat"]},
{"text": "As the heavily dented Bad Blake, Bridges carries every scene in the picture with a performance that seems to materialize out of pure feeling.", "is_fresh": 1, "author": ["Kurt Loder"]},
{"text": "Gyllenhaal and Bridges are marvelous together, playing their characters' cautious affection for each other as an alluring winding path that's actually laden with minefields.", "is_fresh": 1, "author": ["Stephanie Zacharek"]},
{"text": "Well directed but sketchily written by actor Scott Cooper, the film relies a great deal on the star to flesh out what is only implied. It's a lot of work, but Mr. Bridges is merely miraculous.", "is_fresh": 1, "author": ["Rex Reed"]},
{"text": "What sets this film apart is the superb performance of Jeff Bridges, who brings unending charm and authenticity to broken-down country singer Bad Blake.", "is_fresh": 1, "author": ["Clint O'Connor"]},
{"text": "Everything you see and hear has a modest, gentle quality that insinuates itself into your good graces.", "is_fresh": 1, "author": ["Dave White"]},
{"text": "Modestly mounted but fiercely acted.", "is_fresh": 1, "author": ["Duane Dudek"]},
{"text": "The real star is Bridges, who plays not so much a layered character, but a man whom we instantly identify with and understand and want to watch.", "is_fresh": 1, "author": ["Ross Ruediger"]},
{"text": "Not to say the movie doesn't work; if it didn't hit me like a ton of bricks, at least it did make a favorable impression, and I believe I have Bridges's affability and watchability to thank for that.", "is_fresh": 1, "author": ["Jeffrey Chen"]},
{"text": "No scene feels obligatory, and Crazy Heart shows a pragmatic but tender understanding of the relationship between physical breakdown and the discovery of morality. It's merely a well-done, adult American movie-that is to say, a rarity.", "is_fresh": 1, "author": ["Nick Pinkerton"]},
{"text": "Jeff Bridges realizing one of his most memorable film characters in years with a performance you won't quickly forget.", "is_fresh": 1, "author": ["Edward Douglas"]},
{"text": "An utterly familiar but mostly satisfying character study of a man rescued from the brink of self-destruction, attuned to the rhythm of an eye-catching star performance.", "is_fresh": 1, "author": ["Frank Swietek"]},
{"text": "The songs become anthems inhabited by Bridges, whose Bad Blake may wish his life had turned out differently but is never going to dribble tears in his shot glass so long as he still can find a stage somewhere to belt out a tune.", "is_fresh": 1, "author": ["David Germain"]},
{"text": "This is simply a showcase for Jeff Bridges, and a reasonably decent one at that even when the script thrusts Bad down tediously hackneyed roads.", "is_fresh": 0, "author": ["Nick Schager"]},
{"text": "A compact, economical treat: full of flavor and feeling, wrapped in an unprepossessing package that contains far more than you'd ever imagine.", "is_fresh": 1, "author": ["Marshall Fine"]},
{"text": "Sometimes you don't have to reinvent the wheel to steer right into the heart. Scott Cooper's Crazy Heart does just that.", "is_fresh": 1, "author": ["Joanna Langfield"]},
{"text": "Jeff Bridges channels Hank Williams, Jr. and Kris Kristofferson for his portrayal of an alcohol-addled outlaw country star hoping for one more chance.", "is_fresh": 1, "author": ["Rex Roberts"]},
{"text": "Jeff Bridges' performance elevates this morality-tale concept to a level that makes him a viable, but not surprising, Oscar contender.", "is_fresh": 1, "author": ["Susan Granger"]},
{"text": "It's a juicy, career-crowning role, and Bridges -- a master of subtle brilliance -- plays the hell out of it.", "is_fresh": 1, "author": ["Peter Travers"]},
{"text": "Bridges inhabits Bad fully, and cleverly uses our decades of fondness for him as an actor to give us a way to connect to his troublesome character.", "is_fresh": 1, "author": ["Katey Rich"]},
{"text": "Jeff Bridges continues to astonish, in this case even making an ordinary movie into something better.", "is_fresh": 1, "author": ["Harvey S. Karten"]},
{"text": "Everything about Crazy Heart just feels so very familiar, from any number of other movies about past-their-prime singers hitting the road and trying to make sense of their lives.", "is_fresh": 1, "author": ["Alonso Duralde"]},
{"text": "Bridges' guileless performance makes this piquant little indie tale of country music, redemption, and the love of a pretty younger woman such a sad-song charmer.", "is_fresh": 1, "author": ["Lisa Schwarzbaum"]},
{"text": "Entertainingly zips along the desert highways.", "is_fresh": 1, "author": ["Dennis Schwartz"]},
{"text": "If ever a movie demonstrated how country music emerges from private sorrows, this is it. But something can always be done to make a movie better.", "is_fresh": 1, "author": ["David Denby"]},
{"text": "\"Crazy Heart\" is the best film of 2009. Jeff Bridges smokes--big time.", "is_fresh": 1, "author": ["Cole Smithey"]},
{"text": "Crazy Heart is quiet, gentle, heart-bruised more than heart-broken, and it lingers in the memory after you've seen it, like a song you can't get out of your head.", "is_fresh": 1, "author": ["Drew McWeeny"]},
{"text": "Inevitable comparison will be made to Tender Mercies, for which Duvall (producer here) won an Oscar and Jeff Bridges may earn a nod too; despite being generic, it's enjoyable, well acted and the music both rousing and melancholy.", "is_fresh": 1, "author": ["Emanuel Levy"]},
{"text": "Crazy Heart gets to you like a good country song -- not because it tells you something new, but because it tells it well. It's the singer, not the song.", "is_fresh": 1, "author": ["David Ansen"]},
{"text": "Playing a drunken, washed-up music legend reduced to playing small-town bowling alleys, Jeff Bridges is the whole show here as a cowboy-style crooner who wrestles with his demons in ways that easily engage an audience's sympathies.", "is_fresh": 1, "author": ["Todd McCarthy"]},
{"text": "Jeff Bridges is terrific but the movie only ordinary.", "is_fresh": 1, "author": ["Kirk Honeycutt"]},
{"text": "Crazy Heart is a story of redemption which has been told a thousand times before, but is infused with energy here by Cooper's dialogue and his work with the actors.", "is_fresh": 1, "author": ["Mike Goodridge"]},
{"text": "A richly-realized, deeply-heartfelt character study in the vein of Tender Mercies and Bound for Glory, this sterling directing debut by actor Scott Cooper looks perfectly pitched to finally win Jeff Bridges his very long overdue Best Actor Academy Award.", "is_fresh": 1, "author": ["Wade Major"]},
{"text": "", "is_fresh": 1, "author": ["Joshua Rothkopf"]},
{"text": "", "is_fresh": 1, "author": ["Jason Bailey"]}
]