[
{"reviews_count": "79", "title": "Cruel Intentions", "avg_audience_rating": "3.4", "rotten_count": "41", "tomatometer": "48", "audience_score": "81", "avg_critic_rating": "5.3", "fresh_count": "38", "user_ratings_count": "436,158"},
{"text": "You've got to see it (no, no, that's a figure of speech) to believe the goofiness of French aristocrats recast as pansexual degenerates from a private school on Manhattan's Upper East Side.", "is_fresh": 0, "author": ["Joe Morgenstern"]},
{"text": "Dangerous Liaisons among rich NYC teens.", "is_fresh": 1, "author": ["Sarah Wenk"]},
{"text": "What's both depressing and impressive about Cruel Intentions is the profound misanthropy of its meaning.", "is_fresh": 1, "author": ["Stephen Hunter"]},
{"text": "You won't be able to resist the film's ribaldry and cynicism. Kids these days!", "is_fresh": 1, "author": ["B.J. Sigesmund"]},
{"text": "The film's cheat ending aside, this arch, ridiculous movie heaves, sweats and steams, and for the most part, it delivers what its title promises.", "is_fresh": 1, "author": ["Christopher Smith"]},
{"text": "Every bit of the original's nastiness is retained but none of its wit or elegance.", "is_fresh": 0, "author": ["David Noh"]},
{"text": "Lascivious blackmailers and inveterate immoralists, these characters behave despicably, but the movie affects a tone of urbane detachment which puts sex in its proper perspective.", "is_fresh": 1, "author": []},
{"text": "In the end, the whole shebang comes off like a bunch of snotty, rich white kids screwing each other and screwing each other over.", "is_fresh": 0, "author": ["Ron Wells"]},
{"text": "You sometimes have to giggle at this movie the way you do when you catch 4-year-olds playing dress-up in front of Mom's closet.", "is_fresh": 0, "author": ["Jeff Millar"]},
{"text": "First-time helmer/writer Roger Kumble starts off on the right foot, but stumbles along the way.", "is_fresh": 0, "author": ["Robin Clifford"]},
{"text": "[This] 'guilty pleasure' ends guilty of not living up to its potential.", "is_fresh": 0, "author": ["Dragan Antulov"]},
{"text": "The movie's cinematography, set design, and costume design are all extremely elegant, and the beautiful young actors are shown off to maximum effect, like expensively bred horses.", "is_fresh": 0, "author": ["Jeffrey M. Anderson"]},
{"text": "Egads.", "is_fresh": 0, "author": ["John R. McEwen"]},
{"text": "Cruel Intentions is vapid and mean -- in a good way.", "is_fresh": 1, "author": ["James Rocchi"]},
{"text": "Kumble doesn't dumb down the themes of the novel too much, he just gives them a refreshing, flashy feel Dawson's Creek-style.", "is_fresh": 1, "author": ["Kevin N. Laforest"]},
{"text": "Despite its highly descriptive dialogue, Cruel Intentions features no nudity ... I doubt teenage boys will be satisfied just to hear Buffy talk dirty.", "is_fresh": 0, "author": ["Jeffrey Westhoff"]},
{"text": "The movie never gets past a crucial structural flaw: Behavior that would have scandalized pre-Revolutionary France would scarcely raise an eyebrow among today's drug-dazed and sex-crazed Upper East Side crowd.", "is_fresh": 0, "author": ["James Sanford"]},
{"text": "It is maliciously entertaining, up to a point.", "is_fresh": 0, "author": ["Bob Graham"]},
{"text": "This is the filmic answer to a pack of Spice Girl cards.", "is_fresh": 0, "author": ["Rick Groen"]},
{"text": "A clever reworking of a literary classic.", "is_fresh": 1, "author": ["Edward Lawrenson"]},
{"text": "Cruel Intentions takes the incredible brilliance of de Laclos's 1782 novel and makes it...a teeny bit dull.", "is_fresh": 1, "author": ["Karina Montgomery"]},
{"text": "Rarely has a film elicited more raucous unintended laughter.", "is_fresh": 0, "author": ["Peter Travers"]},
{"text": "The movie as a whole sometimes pushes its own limits and, truth be said, it is pretty sleazy at times. But, it's enjoyable in a trashy, Wild Things kind of way.", "is_fresh": 1, "author": ["James Kendrick"]},
{"text": "A guilty pleasure.", "is_fresh": 1, "author": ["Robert Roten"]},
{"text": "You have the queasy sense that the whole thing is just an elaborate stunt, and in this case an exploitative one.", "is_fresh": 0, "author": ["Stephen Holden"]},
{"text": "A stupid and pandering film!", "is_fresh": 0, "author": ["Scott Renshaw"]},
{"text": "The likes of Glenn Close and John Malkovich have given way to unconvincing actors who can't grasp the concept that roles of this complexity require more than good looks.", "is_fresh": 0, "author": ["James Berardinelli"]},
{"text": "Neither the characters nor the events are exactly the same as those of the novel, but some of the same spirit comes across.", "is_fresh": 1, "author": ["Jonathan Rosenbaum"]},
{"text": "Cruel Intentions is the dirtiest-minded American movie in recent memory -- and an honestly corrupt entertaining picture is never anything to sneeze at.", "is_fresh": 1, "author": ["Charles Taylor"]},
{"text": "Smart and merciless!", "is_fresh": 1, "author": ["Roger Ebert"]},
{"text": "Not quite as clever as it thinks it is, but still oozing more dark wit than most teen movies can dream of.", "is_fresh": 1, "author": ["Caroline Westbrook"]},
{"text": "Bad acting, implausible plot twists and sure-to-be-classic bad lines!", "is_fresh": 0, "author": ["Ernest Hardy"]},
{"text": "Roger Kumble has assembled not just stars, but talent who lend the material and characters the depth they deserve.", "is_fresh": 1, "author": ["Annlee Ellingson"]},
{"text": "One can be especially glad that they are not really teens, and that this cruel tale is only a movie.", "is_fresh": 1, "author": []},
{"text": "Starts off as a twisted, messed up mind game, but ends up a typically sappy love story that, strangely, isn't even about love.", "is_fresh": 0, "author": ["Andrew Manning"]},
{"text": "Foxy, snotty, enjoyably trashy!", "is_fresh": 1, "author": ["Lisa Schwarzbaum"]},
{"text": "Rent Dangerous Liaisons and save yourself the trouble.", "is_fresh": 0, "author": ["Brian Webster"]},
{"text": "Though writer-director Roger Kumble doesn't fully exploit this conceit, Cruel Intentions is still briskly enjoyable, what people might call a 'guilty pleasure' -- only it's the sort of film that would mock anyone who felt guilt in pleasure.", "is_fresh": 1, "author": ["Dennis Lim"]},
{"text": "It's disappointing when movies made by adults treat kids -- as characters and viewers -- with disdain.", "is_fresh": 0, "author": ["Cynthia Fuchs"]},
{"text": "Relief finally comes in the form of ending credits.", "is_fresh": 0, "author": ["Steve Rhodes"]},
{"text": "Roger Kumble gives Cruel Intentions a darkly glossy, upscale look, but he has mixed results with his young cast.", "is_fresh": 0, "author": ["Jack Garner"]},
{"text": "This is the stuff of irresistible cinema, and it's all here: sex, power, and manipulation, mind games, betrayal, revenge.", "is_fresh": 1, "author": ["Urban Cinefile Critics"]},
{"text": "Surprisingly entertaining until the last reel.", "is_fresh": 1, "author": ["Jon Popick"]},
{"text": "I'm surprised by how much fun I had watching it.", "is_fresh": 1, "author": ["Mike McGranaghan"]},
{"text": "The film is pitched too high and too rich to make a solid connection with most young viewers.", "is_fresh": 0, "author": ["Susan Stark"]},
{"text": "Deliciously cunning.", "is_fresh": 1, "author": ["Ian Waldron-Mantgani"]},
{"text": "It works only sporadically, and more as a comic outing than as a vicious battle of sexual predation.", "is_fresh": 0, "author": ["Marc Savlov"]},
{"text": "The teen-age target audience will probably gobble Cruel Intentions right up, but for me this film boarders on creepy.", "is_fresh": 0, "author": ["Paul Clinton (CNN.com)"]},
{"text": "First-time writer-director Roger Kumble has misinterpreted the source material's stinging sense of irony, replacing it it with pure camp in an effort to get cheap laughs. And it will get laughs -- just not the way he intended.", "is_fresh": 0, "author": ["Jeff Vice"]},
{"text": "Solid dialogue, luscious characters, great comic relief, and an admittedly classic story give it wings above the standard teen-oriented dreck on the market.", "is_fresh": 1, "author": ["Christopher Null"]},
{"text": "A sly, silly, mostly well-crafted diversion that's no trash classic, but has little to apologize for.", "is_fresh": 1, "author": ["Bryant Frazer"]},
{"text": "A slick, guileless excuse to get teenagers in movies to behave with the sociosexual decadence network television forbids.", "is_fresh": 0, "author": ["Wesley Morris"]},
{"text": "The themes are intact, and for some fans of the original story, that should be all that matters.", "is_fresh": 1, "author": ["David Keyes"]},
{"text": "The incest, drug use, and sex is there for all to see; unfortunately, the mean spirited characters become downright depressing to watch, especially when intended for a teenage audience.", "is_fresh": 0, "author": ["Gary Brown"]},
{"text": "I fully expected it to be dumbed down beyond all recognition. I expected Dangerous Liaisons 90210. But I can admit when I'm wrong.", "is_fresh": 1, "author": ["Rob Blackwelder"]},
{"text": "This film is not to be taken seriously. Laugh along, and you might just enjoy it!", "is_fresh": 1, "author": ["JoBlo"]},
{"text": "Entertaining. Engaging. A calculated guilty pleasure.", "is_fresh": 1, "author": ["Edward Johnson-Ott"]},
{"text": "You may come to realize that if a bomb suddenly blew up everyone on screen, you wouldn't particularly miss anyone.", "is_fresh": 0, "author": ["Michael Wilmington"]},
{"text": "Witty, raunchy!", "is_fresh": 1, "author": ["Desson Thomson"]},
{"text": "As a serious study of vapid youth, Cruel Intentions vacillates between the cynically pretentious and the shallowly silly.", "is_fresh": 0, "author": ["Bob Fenster"]},
{"text": "Deliciously trashy!", "is_fresh": 1, "author": ["Ken Fox"]},
{"text": "Overbaked, overproduced, and overliterary!", "is_fresh": 0, "author": ["Eleonore Snow"]},
{"text": "A trashy-but-fun film in the spirit of last year's Wild Things.", "is_fresh": 1, "author": ["Sandra Ramani"]},
{"text": "A 90210 rerun on Viagra!", "is_fresh": 0, "author": ["Julie Hinds"]},
{"text": "Vile, vacuous!", "is_fresh": 0, "author": ["Terry Lawson"]},
{"text": "The initial feel of Cruel Intentions is so audacious that the comedown is truly a letdown.", "is_fresh": 0, "author": ["Chris Vognar"]},
{"text": "Kumble's attempt to mine anguish of tragic proportions becomes no more than a display of sappy melodrama.", "is_fresh": 0, "author": ["Harvey S. Karten"]},
{"text": "Just because it's visually appealing doesn't mean that you will fall in love with it.", "is_fresh": 0, "author": ["Sue Pierman"]},
{"text": "Campy and trashy!", "is_fresh": 0, "author": ["Jim Judy"]},
{"text": "Nasty, profane and wickedly entertaining!", "is_fresh": 1, "author": ["Emanuel Levy"]},
{"text": "You may not like what you see, but you will enjoy it.", "is_fresh": 1, "author": ["Bob Bloom"]},
{"text": "It's a lame, trashy teenage soap opera.", "is_fresh": 0, "author": ["Susan Granger"]},
{"text": "What an ingenious concept.", "is_fresh": 1, "author": ["Dustin Putman"]},
{"text": "Gellar exudes a captivatingly carniverous carnality.", "is_fresh": 1, "author": ["Michael Dequina"]},
{"text": "", "is_fresh": 0, "author": ["Mark Halverson"]},
{"text": "", "is_fresh": 0, "author": ["Jeanne Aufmuth"]},
{"text": "", "is_fresh": 0, "author": ["Madeleine Williams"]},
{"text": "", "is_fresh": 1, "author": ["Matt Easterbrook"]},
{"text": "", "is_fresh": 1, "author": ["Matt Prigge"]}
]