[
{"reviews_count": "132", "title": "Don\u2019t Think Twice", "avg_audience_rating": "3.6", "rotten_count": "3", "tomatometer": "98", "audience_score": "69", "avg_critic_rating": "7.8", "fresh_count": "129", "user_ratings_count": "19,136"},
{"text": "Bitingly honest, revealing, insightful and hysterical, Twice is an off-kilter comedy that resonates because it feels like an inside road map into the chaotic lives of the featured troupe members utilizing improvisation as their creative tool of trade.", "is_fresh": 1, "author": ["Frank Ochieng"]},
{"text": "Don't Think Twice runs you through a gamut of emotions without any bitterness, only earnestness.", "is_fresh": 1, "author": ["Sean Mulvihill"]},
{"text": "Through the arguments and the sadness and the jealousy, Don't Think Twice remains a quietly jubilant film, celebrating the way improv makes something - a laugh, a family, a partnership, a career - out of nothing.", "is_fresh": 1, "author": ["Molly Templeton"]},
{"text": "It's a hilarious but moving look at the realities of navigating the stages of adulthood, and one of my favorite films of the year.", "is_fresh": 1, "author": ["Asia Frey"]},
{"text": "\"Don't Think Twice\" is realistic, the characters multi-layered, and the execution admirable and thought-provokingly engaging. ", "is_fresh": 1, "author": ["Mae Abdulbaki"]},
{"text": "While Don't Think Twice shies away from the dark and demented impulses of standup, it exposes the uncomfortable realization that change is a necessary evil when it comes to creating great art.", "is_fresh": 1, "author": ["Glenn Heath Jr."]},
{"text": "If you are a fan of improv comedy, Don't Think Twice is a movie that was made for you.", "is_fresh": 1, "author": ["Danielle Solzman"]},
{"text": "Humorous look at the stalled career of a stand-up comedian.", "is_fresh": 1, "author": ["Harvey S. Karten"]},
{"text": "While it's equal parts funny, poignant and trenchant, the film mostly acts as a pulpit for Birbiglia to vent his frustrations pointedly at the person who eclipsed his career.", "is_fresh": 1, "author": ["Courtney Howard"]},
{"text": "Don't Think Twice actually shows Birbiglia to be in the mold of Robert Altman, a naturalistic filmmaker sympathetic enough to show even the \"bad\" characters in a good light and caustic enough to tarnish the supposed heroes.", "is_fresh": 1, "author": ["Sarah Marrs"]},
{"text": "Don't Think Twice has comedy as its subject, but it is a far more dramatic and perplexing affair than a comic one.", "is_fresh": 1, "author": ["tt stern-enzi"]},
{"text": "The film is not a grand exercise in maturation but in reality.", "is_fresh": 1, "author": ["Martha K. Baker"]},
{"text": "Mostly, it's like a lo-fi cover of Morrissey's \"We Hate It When Our Friends Become Successful.\" Kind of whiny, kind of mean, and kind of true.", "is_fresh": 0, "author": ["Kathy Fennessy"]},
{"text": "Altogether, [Don't Think Twice] makes for a full-blooded study of performing and one of the most honest, most love-filled films of the year.", "is_fresh": 1, "author": ["Brooke Corso"]},
{"text": "Even when Birbiglia's storylines takepredictable turns, he finds the most discomforting way to make those turns. And yet none of the anxiety or awkwardness feels forced. ", "is_fresh": 1, "author": ["Jeffrey Overstreet"]},
{"text": "Both wistful and hilarious, Don't Think Twice is - to borrow from A Chorus Line again - about what we all did/do for love.", "is_fresh": 1, "author": ["Eleanor Ringel Cater"]},
{"text": "A poignant treatise upon friendship, loyalty, ambition and regret.", "is_fresh": 1, "author": ["Brian Donaldson"]},
{"text": "A finely-crafted ensemble piece.", "is_fresh": 1, "author": ["David N. Butterworth"]},
{"text": "The film is nicely structured, gently witty, and it boasts an excellent cast", "is_fresh": 1, "author": ["Christopher Orr"]},
{"text": "I don't look forward to Mike Birbiglia's films, but whenever I see them, I find I like them. ", "is_fresh": 1, "author": ["Kristian M. Lin"]},
{"text": "Don't Think Twice a funny film about very funny people, but finds areas in life that aren't funny and shows the impact that it can have on even the most unexpected people.", "is_fresh": 1, "author": ["Ryan Morris"]},
{"text": "One of the funniest, warmest and best movies of the year.", "is_fresh": 1, "author": ["Brad Keefe"]},
{"text": "Don't Think Twice depicts the travails of a longstanding improv troupe in New York City and it does so with the sort of exacting specificity only possible from a filmmaker who understands that world intimately.", "is_fresh": 1, "author": ["Robert Levin"]},
{"text": "A deeply sincere and literate coming-of-age tale.", "is_fresh": 1, "author": ["Lindsey Bahr"]},
{"text": "[It's] a handsome looking indie that may be too truthful to have wide appeal, but should be a must for anyone looking for a smart and revealing showbiz story that at its heart is wholly -- and unapologetically -- human.", "is_fresh": 1, "author": ["Pete Hammond"]},
{"text": "The drama is honest without getting nasty and it's genuinely funny but not at the expense of the characters. Well, not entirely anyway.", "is_fresh": 1, "author": ["Sean Axmaker"]},
{"text": "While Don't Think Twice is about success, creativity and the struggle with both, it's also an incredibly human movie with a lot of funny moments tossed in to ease that pain. ", "is_fresh": 1, "author": ["Don R. Lewis"]},
{"text": "Don't Think Twice has quite a bit in common with these performances at a structural level. It's an intelligent film with a clear passion for its subject. It just doesn't quite hit the mark.", "is_fresh": 1, "author": ["Jennie Kermode"]},
{"text": "Both a breezy entertainment and a profound statement on the pursuit of the Bitch Goddess success in American capitalists society.", "is_fresh": 1, "author": ["Louis Proyect"]},
{"text": "With Birbiglia at the helm there are plenty of laugh out loud moments, while there remains a certain warmth to proceedings, as a writer who balances comedy and pathos remarkably well.", "is_fresh": 1, "author": ["Stefan Pape"]},
{"text": "Its greatest achievement, though, is its refusal to let the viewer abide by the third rule of improv: don't think.", "is_fresh": 1, "author": ["Kyle Aaronson"]},
{"text": "If you want to make a movie about show business failure you'd better make it funny.", "is_fresh": 1, "author": ["Kelly Vance"]},
{"text": "It's just affable enough to survive a disastrous last 10 minutes.", "is_fresh": 0, "author": ["Daniel Barnes"]},
{"text": "Don't Think Twice, written and directed by Mike Birbiglia, is full of cringe-worthy, oh-no moments. But beyond its subject, jealousy, desperation and sadness run neck-and-neck with the funny stuff.", "is_fresh": 1, "author": ["Maria Sciullo"]},
{"text": "A low-key drama and a surprisingly funny comedy rolled into one, Birbiglia's film suggests that improv and life have something in common.", "is_fresh": 1, "author": ["Margot Harrison"]},
{"text": "A dramedy about the toxic effects of envy, fear, and competition on the hopes and dramas of a band of improv comedians in New York City.", "is_fresh": 1, "author": ["Frederic and Mary Ann Brussat"]},
{"text": "A heavy air of desperation weighs on \"Don't Think Twice.\" The troupe members all frantically seek validation, recognition and - most importantly - praise from each other, celebrities, students, family and audience members.", "is_fresh": 1, "author": ["Bob Bloom"]},
{"text": "An inside story about breaking into show business that rejects simple answers and inspires the audience.", "is_fresh": 1, "author": ["Ron Wilkinson"]},
{"text": "There's an honesty and urgency to the characters' plight that thoughtful viewers can't help recognize.", "is_fresh": 1, "author": ["Molly Laich"]},
{"text": "Appealingly rich and cluttered, as well as fascinating and funny.", "is_fresh": 1, "author": ["Jeffrey M. Anderson"]},
{"text": "\"Don't Think Twice\" is one of the best of the year, an Altman-esque ensemble comedy-drama that blends loose and funny comedy with painfully true insights about the strain that success and failure can put on friendships.", "is_fresh": 1, "author": ["Rob Thomas"]},
{"text": "It has more laughs than any big-studio comedy I've seen this year, but it's dead serious about the difficulty of creating something collectively in a world where everyone's chasing the spotlight.", "is_fresh": 1, "author": ["J. R. Jones"]},
{"text": "It's the truth and commitment of this film that really got to me. It may get to you, too.", "is_fresh": 1, "author": ["Jeff Simon"]},
{"text": "Draws its audience in with the promise of laughs, and then reaches into deeper and more rewarding emotional territory from there.", "is_fresh": 1, "author": ["Josh Bell"]},
{"text": "The ensemble really come together in their weekly performances, where the laughs rise and fall in direct correlation to what's happening to their lives.", "is_fresh": 1, "author": ["Sean P. Means"]},
{"text": "If you're a fan of indie films, comedy, improv comedy, and/or well-textured ensemble acting, then go see Don't Think Twice. Mike Birbiglia's latest is rich and rewarding.", "is_fresh": 1, "author": ["Edward Johnson-Ott"]},
{"text": "Comedy can surely be a barrel of laughs, but writer/director/star Mike Birbiglia wants the audience to look just a little closer and see the frowns behind the painted smiles.", "is_fresh": 1, "author": ["Jon Winkler"]},
{"text": "A film that's at once as magnanimous and volatile as the art form it's celebrating.", "is_fresh": 1, "author": ["J. Olson"]},
{"text": "...honest about its performers in a way that is rare in backstagers..", "is_fresh": 1, "author": ["Sarah Boslaugh"]},
{"text": "One of the best films of this year, no questions asked.", "is_fresh": 1, "author": ["Mike Reyes"]},
{"text": "The most biting comedy of the summer has nothing to do with talking pets.", "is_fresh": 1, "author": ["Mara Reinstein"]},
{"text": "Don't Think Twice is about the creeping realization that you might not live up to that dreaded thing called potential or that the mythical big break might never come your way. It's also about learning to be okay with that.", "is_fresh": 1, "author": ["Max Weiss"]},
{"text": "Each actor [is] given multiple moments to shine, all of these recognizable faces bringing each of their respective characters to life with winsomely authentic determination and grace.", "is_fresh": 1, "author": ["Sara Michelle Fetters"]},
{"text": "A surprising, bitingly honest drama entwining strands of blood, sweat and jokes.", "is_fresh": 1, "author": ["Colin Covert"]},
{"text": "Even if you don't care much for improv-and I really don't-you're going to fall for this movie. (Splice Today) ", "is_fresh": 1, "author": ["Stephen Silver"]},
{"text": "A relatively modest [film], but one that offers some real insight into the world of performers struggling for a degree of recognition most are unlikely to achieve.", "is_fresh": 1, "author": ["Frank Swietek"]},
{"text": "A story that deftly sneaks up on you before grabbing your emotions by the throat. ", "is_fresh": 1, "author": ["Al Alexander"]},
{"text": "Don't Think Twice portrays the distress of love as simply a distraction from Samantha's companions and their good work together - the rare achievement of a collective soul.", "is_fresh": 1, "author": ["Jeffrey Edalatpour"]},
{"text": "Birbiglia has assembled a Murderer's Row of comedic talent, and like any successful improv group they make one another look better throughout. ", "is_fresh": 1, "author": ["Travis Hopson"]},
{"text": "A melancholic ode to comedic suffering.", "is_fresh": 1, "author": ["Noah Gittell"]},
{"text": "Don't Think Twice is hard to watch at times ... but that's a compliment!", "is_fresh": 1, "author": ["Christian Toto"]},
{"text": "Don't think twice, just see it.", "is_fresh": 1, "author": ["Adam Graham"]},
{"text": "Clear-eyed but generous.", "is_fresh": 1, "author": ["Nell Minow"]},
{"text": "Don't Think Twice does a nice job of satirizing this corner of the showbiz world. More than that, it's a celebration of improv, a uniquely American art form.", "is_fresh": 1, "author": ["Tirdad Derakhshani"]},
{"text": "\"Don't Think Twice\" manages the neat trick of remaining sweet-natured while letting absolutely no one off the hook.", "is_fresh": 1, "author": ["Ty Burr"]},
{"text": "Birbiglia's penetrating observational skills make Don't Think Twice an exceptional film about both the comedy world and the plight of young professionals who wonder if they've stalled out before even getting into gear.", "is_fresh": 1, "author": ["Marjorie Baumgarten"]},
{"text": "Paradoxically, \"Don't Think Twice\" feels both dramatically thin and overstuffed.", "is_fresh": 0, "author": ["Alan Zilberman"]},
{"text": "A smart, wistful and very funny movie in which six friends weather difficult times but ultimately realize that they do, indeed, have each other's back, for always.", "is_fresh": 1, "author": ["Moira MacDonald"]},
{"text": "A tiny gem, a delightful film as surprising as it is satisfying.", "is_fresh": 1, "author": ["Bill Goodykoontz"]},
{"text": "This sketch of a group of co-workers coming together and potentially falling apart is at once a knowing glimpse into dashed dreams and a skillful portrait of fraying adult friendships.", "is_fresh": 1, "author": ["Cary Darling"]},
{"text": "While Key's virtuosic comedic talent is fully on display, we also get one of our first looks at his dramatic chops, which are substantial.", "is_fresh": 1, "author": ["Zach Middleton"]},
{"text": "This movie has a few hard feelings and one thrown punch, but Birbiglia prefers to capture a detailed world and its relationships, not hunt for dramatic beats.", "is_fresh": 1, "author": ["Robert Horton"]},
{"text": "While his vision is blurred at times, \"Don't Think Twice\" is accomplished work, clearly identifying the helmer's creative growth. ", "is_fresh": 1, "author": ["Brian Orndorf"]},
{"text": "There are many moments that don't ring true from a narrative standpoint, but they don't detract from the message: Improv is beautiful, difficult, delicate and fleeting, and its practitioners suffer for their art.", "is_fresh": 1, "author": ["Peter Hartlaub"]},
{"text": "Pinpoints a creative community that's never been explored in a narrative film...its wistful, naturalistic presentation of a thirtysomething turning point-a forced maturation of sorts-rings true.", "is_fresh": 1, "author": ["Peter Canavese"]},
{"text": "Intimate but melodramatic and conventional look \"behind the laughter\" at comics who realize \"I might never make it\" when one of their troupe does. ", "is_fresh": 1, "author": ["Roger Moore"]},
{"text": "It's nice to see this group of funny people navigate these more grounded, sometimes heartbreaking roles.", "is_fresh": 1, "author": ["Austin Trunick"]},
{"text": "A heartfelt tribute to improvisational collaboration, this ensemble comedy has plenty of laughs along with its sharply observed examination of the fickle nature of fame.", "is_fresh": 1, "author": ["Todd Jorgenson"]},
{"text": "'Don't Think Twice' does a beautiful job exploring the myriad ways that comedians exploit their own tragic circumstances to score meaningful laughs.", "is_fresh": 1, "author": ["David Sims"]},
{"text": "Don't Think Twice is wise about the way people cling to the dreams of the past, even when the promise of the future could be better.", "is_fresh": 1, "author": ["Mark Dujsik"]},
{"text": "a bittersweet, insightful consideration of the value of the unexamined dream, done with a dash of impudent wit.", "is_fresh": 1, "author": ["Andrea Chase"]},
{"text": "It's an ensemble film in the truest sense, one that gives each of its well-drawn, interdependent characters their due. Think \"The Big Chill\" without the college history.", "is_fresh": 1, "author": ["Gary Goldstein"]},
{"text": "Don't Think Twice is a beautifully realized movie. Its use of familiar comedic faces lends the characters something of an autobiographical feel, even if it's entirely fictional.", "is_fresh": 1, "author": ["Josh Lasser"]},
{"text": "It is a nice slice of life look into these modern day vaudevillians.", "is_fresh": 1, "author": ["Robin Clifford"]},
{"text": "It's a movie that fleshes out the people who entertain us, not with bemusement like a Christopher Guest mockumentary, but with compassion.", "is_fresh": 1, "author": ["Darel Jevens"]},
{"text": "The film is a very specific representation of the comedy scene in New York, but ultimately, the performances, script and direction elevate it to a universal portrait of figuring out who you are.", "is_fresh": 1, "author": ["Lauren Chval"]},
{"text": "\"Don't Think Twice\" is a genuinely charming comedy about real people challenging themselves to create new realities for laughs and a little truth, one made-up scene at a time.", "is_fresh": 1, "author": ["Michael Phillips"]},
{"text": "Don't Think Twice continues Birbiglia's impressive form with a funny and poignant alternative from the typical studio comedy.", "is_fresh": 1, "author": ["Jason Zingale"]},
{"text": "One of the summer's small treasures, in the flood of big-budget dross.", "is_fresh": 1, "author": ["Marshall Fine"]},
{"text": "Birbiglia, a filmmaking talent to watch, lays out the joy, pain, anger, and aching doubt that go into letting an audience in on the joke. You'll laugh till it hurts.", "is_fresh": 1, "author": ["Peter Travers"]},
{"text": "Don't Think Twice is hilarious, yes, but it's also thoughtful and sad and sweet. Birbiglia knows how to communicate those things, too.", "is_fresh": 1, "author": ["Sheila O'Malley"]},
{"text": "Poignant, profound dramedy deals with mature themes. ", "is_fresh": 1, "author": ["S. Jhoanna Robledo"]},
{"text": "Don't Think Twice is a clever comedy, buoyed along by some of the best comics working today who boast both stand-up and acting chops.", "is_fresh": 1, "author": ["Alissa Wilkinson"]},
{"text": "Pleasing genial comedy about a struggling New York six-member improv troupe called the Commune.", "is_fresh": 1, "author": ["Dennis Schwartz"]},
{"text": "So many films about the arts focus on the struggle of making it, but Don't Think Twice works within the struggle of letting go, of changing course instead of driving fruitlessly down an endless road.", "is_fresh": 1, "author": ["Vikram Murthi"]},
{"text": "The truths of human nature in the face of success vs. failure, ambition vs. comfort and spotlight vs. support may apply outside the world of comedy, but they're a little funnier in it.", "is_fresh": 1, "author": ["Laura Clifford"]},
{"text": "A Sweet and Poignant Examination of Finding Solace in the Art World Hustle.", "is_fresh": 1, "author": ["Chase Whale"]},
{"text": "Filmmaker Birbiglia has created his Annie Hall here... Funny, artfully entertaining and with widespread appeal... Don't Think Twice is the perfect movie for anyone on the hunt for a summer movie treat.", "is_fresh": 1, "author": ["Leonard Maltin"]},
{"text": "Rarely does contemporary cinema so bluntly (and accurately) depict envy in its most insidious iteration. It's about the vexing confluence of emotions upon seeing their friends excel while they stagnate, a toxic amalgamation of happiness and jealousy.", "is_fresh": 1, "author": ["Sam Fragoso"]},
{"text": "Don't Think Twice isn't all envy and self-doubt; Birbiglia has also crafted a love letter to improv, capturing the tempestuous and unforgiving art form in a way that only an insider could.", "is_fresh": 1, "author": ["Devan Coggan"]},
{"text": "\"Don't Think Twice,\" which has a warm heart, could have been a much nastier movie. Yet its disappointed show-business hopefuls dreading their expiration dates make no bones about their insecurities.", "is_fresh": 1, "author": ["Stephen Holden"]},
{"text": "A quietly devastating and exacting portrait of a tight-knit group splintering.", "is_fresh": 1, "author": ["Matt Prigge"]},
{"text": "It's alternately hysterical and heartbreaking, comedy by way of John Cassavetes, who gets an appropriate shout-out.", "is_fresh": 1, "author": ["Andrew Lapin"]},
{"text": "\"Don't Think Twice\" really shines as an improv procedural, a film that celebrates, in illuminating detail, the skills and anxieties of this showbiz subgenre.", "is_fresh": 1, "author": ["Joe Morgenstern"]},
{"text": "Amidst its hard truths about the odds of real success in a creative field, it's surprisingly effective at communicating, through Jacobs especially, a kind of clear-eyed improv idealism.", "is_fresh": 1, "author": ["Jesse Hassenger"]},
{"text": "\"Don't Think Twice\" is one of the better movies you'll see about what it takes to establish a viable career in show business.", "is_fresh": 1, "author": ["Kirk Honeycutt"]},
{"text": "Birbiglia continues to mine a scene he knows well, and even though he doesn't strike you as a natural-born filmmaker (some of these scenes are as flatly lensed as the SNL sketches being spoofed), he's evolving as a confrontational dramatist.", "is_fresh": 1, "author": ["Joshua Rothkopf"]},
{"text": "Birbiglia is a keen observer with a laid-back, off-the-cuff demeanor and a big heart. Those assets come through here as he explores juicy themes of success, friendship and moving on.", "is_fresh": 1, "author": ["Joe Dziemianowicz"]},
{"text": "Mike Birbiglia's Don't Think Twice stands as the best, most revealing film about comedy people and one of the best about artistic collaboration.", "is_fresh": 1, "author": ["Alan Scherstuhl"]},
{"text": "There's a generosity of to spirit that the film that seems to draw directly from improv, with everybody getting a turn in the spotlight. ", "is_fresh": 1, "author": ["Will Leitch"]},
{"text": "It depicts comedy folks mining their personal and professional frustrations for laughs, without getting cheesy or schmaltzy, and with jokes that are actually funny.", "is_fresh": 1, "author": ["Vincent Mancini"]},
{"text": "Despite its miscalculations, Don't Think Twice does leave a bitter, lingering aftertaste.", "is_fresh": 1, "author": ["Kenji Fujishima"]},
{"text": "I don't know how Birbiglia pulled it off, but he gets the minutiae of an improv-comedy show thrillingly right while using the form to build a kind of allegory of the corrosive effects of capitalism.", "is_fresh": 1, "author": ["David Edelstein"]},
{"text": "Don't Think Twice is a smart, engaging, hugely entertaining ride that rewards indie fans appreciative of solid comedy and fine craftsmanship.", "is_fresh": 1, "author": ["Doris Toumarkine"]},
{"text": "[An] amiable, lovingly detailed comedy about comedy ...", "is_fresh": 1, "author": ["Richard Brody"]},
{"text": "It displays an intimate chemical understanding of the exhausting and unrelentingly impotent agony of failure.", "is_fresh": 1, "author": ["Chuck Bowen"]},
{"text": "A sweet and poignant examination of finding solace in the art world hustle. Don't Think Twice is one of the best films of the year. ", "is_fresh": 1, "author": ["Chase Whale"]},
{"text": "A mix of scripted and real-time improv performed throughout adds to the film's nuanced emotional playing field-an impressive feat as the Commune struggles with their own understandings and frustrations.", "is_fresh": 1, "author": ["Alicia Lutes"]},
{"text": "Dexterous at distilling that nauseating mix of happiness, enviousness, and fear of losing contact that can accompany a friend's sudden success.", "is_fresh": 1, "author": ["Alison Willmore"]},
{"text": "Mike Birbiglia's second feature takes the focus off himself and shines a spotlight on his extremely talented cast.", "is_fresh": 1, "author": ["Edward Douglas"]},
{"text": "While Don't Think Twice depicts a certain world with incisive specificity, its themes of what success truly means are universal to anyone involved in the arts. ", "is_fresh": 1, "author": ["Jordan Raup"]},
{"text": "A smart, affectionate take on the rivalry, love, ambition, and creative juices that fuel the lives of professional comedians.", "is_fresh": 1, "author": ["Elise Nakhnikian"]},
{"text": "'Don't Think Twice' isn't quite as great as 'Sleepwalk With Me.' Yet it's still a wonderful work, funny and warm, and wise to the ways of creative types.", "is_fresh": 1, "author": ["Jason Bailey"]},
{"text": "The humor and hijinks are met with such genuine, complex feeling that DON'T THINK TWICE will win over the most stubbornly skeptical viewer.", "is_fresh": 1, "author": ["Meredith Borders"]},
{"text": "Don't Think Twice is a heartfelt love-note to passionate dreams, coupled with a sobering story that's not about giving up, but moving on.", "is_fresh": 1, "author": ["Matt Donato"]},
{"text": "[An improv troupe] makes for a solid backdrop for writer-director Mike Birbiglia to explore what happens when individual ambitions and latent jealousy can poison a group.", "is_fresh": 1, "author": ["Matthew Odam"]},
{"text": "The imperfections of Don't Think Twice are fitting for a movie about artistic expression that's never quite finished. ", "is_fresh": 1, "author": ["Eric Kohn"]},
{"text": "An entertaining, thoughtful portrait of friends in crisis when success is near.", "is_fresh": 1, "author": ["Charlie Schmidlin"]},
{"text": "Expanding on the behind-the-curtain Sleepwalk With Me, which focused on the personal life of a stand-up comic, Birbiglia displays a feel for his troupe-minded brethren here.", "is_fresh": 1, "author": ["John DeFore"]},
{"text": "Don't Think Twice is a brisk, engaging watch. It's sweet, it's melancholy, and, perhaps most importantly, it's hilarious.", "is_fresh": 1, "author": ["Randall Colburn"]},
{"text": "Birbiglia has built his comedy brand on telling stories about himself, but in embracing improv's valuing the group over any individual, he's spun his most compelling yarn yet.", "is_fresh": 1, "author": ["Joanna Robinson"]},
{"text": "Portraying a cutthroat business in which little is \"fair,\" \"Don't Think Twice\" acknowledges the bloodshed, but applies the razor with enough empathetic delicacy to earn its cautiously upbeat fade.", "is_fresh": 1, "author": ["Dennis Harvey"]}
]