[
{"reviews_count": "8", "title": "DriverX", "avg_audience_rating": "3.9", "rotten_count": "4", "tomatometer": "50", "audience_score": "57", "avg_critic_rating": "4.7", "fresh_count": "4", "user_ratings_count": "33"},
{"text": "Proves unsatisfying both as drama and satire.", "is_fresh": 0, "author": ["Frank Scheck"]},
{"text": "Sharply observed, warm and generous, this film is a delight from start to finish. ", "is_fresh": 1, "author": ["Jennie Kermode"]},
{"text": "... never establishes a sufficient emotional foothold to make it insightful or dramatically compelling. ", "is_fresh": 0, "author": ["Todd Jorgenson"]},
{"text": "DriverX is a memorable character study, centered around an especially strong performance from Patrick Fabian.", "is_fresh": 1, "author": ["Amanda Mazzillo"]},
{"text": "DriverX is worse than just one of the year's most vapid movies, it's an out-and-out nightmare of late-stage capitalism.", "is_fresh": 0, "author": ["Nick Allen"]},
{"text": "[T]he movie doesn't have much to say, beyond stating the obvious.", "is_fresh": 0, "author": ["Mark Dujsik"]},
{"text": "Drawn from the filmmaker's own experiences, \"DriverX\" is a collection of hit-and-miss anecdotes, organized around the idea of what \"work\" means in the 21st century.", "is_fresh": 1, "author": ["Noel Murray"]},
{"text": "This is not a perfect film, and features maybe one wild night too many. But its outlook - optimistic about human nature yet cynical about the times - lingers.", "is_fresh": 1, "author": ["Ben Kenigsberg"]}
]