[
{"reviews_count": "138", "title": "Enemy At The Gates", "avg_audience_rating": "3.6", "rotten_count": "64", "tomatometer": "54", "audience_score": "82", "avg_critic_rating": "5.7", "fresh_count": "74", "user_ratings_count": "223,603"},
{"text": "Everything in the movie is obstinately stupid.", "is_fresh": 0, "author": ["Mark Steyn"]},
{"text": "more character development and depth would vastly improve this ", "is_fresh": 0, "author": ["John A. Nesbit"]},
{"text": "Tense and violent WWII movie.", "is_fresh": 1, "author": ["Nell Minow"]},
{"text": "it could have held back on the parts featuring boredom because they did tend to drag the suspense down a bit", "is_fresh": 0, "author": ["Kevin Carr"]},
{"text": "While it does have some solid moments of action, the film as a whole is laughable.", "is_fresh": 0, "author": ["Ryan Cracknell"]},
{"text": "Enemy at the Gates won't find too many friends at the box office -- fans of war movies (and of Jude Law) will appreciate it, but there isn't much for everyone else in this mid-March downer.", "is_fresh": 0, "author": []},
{"text": "There's a decent movie buried in here somewhere, but the lousy love triangle and ultimate lack of focus make this WWII drama a bit hard to take.", "is_fresh": 0, "author": ["Bob Grimm"]},
{"text": "Flatulent hero-worship of a man played by a tired-looking actor who deserves funkier roles.", "is_fresh": 0, "author": ["Rob Gonsalves"]},
{"text": "There's never much risk of reality intruding--just a lot of histrionic James Horner music nd plenty of designer stubble on the soldiers' faces.", "is_fresh": 0, "author": ["Jonathan Rosenbaum"]},
{"text": "Set-pieces get you so far (and Annaud delights in blowing this set to pieces), but the script's shortcomings aren't camouflaged by the decision to adopt Home Counties' accents as the film's lingua franca.", "is_fresh": 0, "author": []},
{"text": "Annaud shows a real knack for suspense here, enough to make me hope he will do more action-adventure in the future.", "is_fresh": 1, "author": ["Jeffrey Overstreet"]},
{"text": "If only ambition was the bar at which to measure the quality of motion pictures, Enemy at the Gates could sit atop the best of the year.", "is_fresh": 1, "author": ["Jordan Hiller"]},
{"text": "There's ambition, and then there's pretense. It's a common mistake for both filmmakers and filmgoers to mistake the latter for the former.", "is_fresh": 0, "author": ["Eugene Novikov"]},
{"text": "Worth the trouble, but make sure to leave the history notes at home.", "is_fresh": 1, "author": ["Harry Guerin"]},
{"text": "It generally succeeds at telling a truly heroic story, providing yet another vehicle to showcase the talents of Law and Harris, and of their supporting cast.", "is_fresh": 1, "author": ["John R. McEwen"]},
{"text": "[It's] clearly meant to measure up to or reach past what Steven Spielberg did in Saving Private Ryan. But it is one of the poorest imitations I have seen so far.", "is_fresh": 0, "author": ["David Poland"]},
{"text": "The central thriller element of the film more than compensates for these deficiencies as well as any of the dodgier script moments.", "is_fresh": 1, "author": ["Matthew Turner"]},
{"text": "While Enemy at the Gates aims to do justice to history, it trips and falls on its own romantic pretense.", "is_fresh": 0, "author": ["Margaret A. McGurk"]},
{"text": "Enemy at the Gates is a good movie that could have been great, if not for the inflated running time.", "is_fresh": 1, "author": ["David Nusair"]},
{"text": "It's as if an obsessed movie nut had decided to collect every bad war-movie convention on one computer and program it to spit out a script.", "is_fresh": 0, "author": ["Peter Rainer"]},
{"text": "Time and again the movie feels like it's working toward a Hollywood moment but always retreats before succumbing to the opportunity.", "is_fresh": 1, "author": ["Jon Niccum"]},
{"text": "This movie would be great if the characters would get in character.", "is_fresh": 0, "author": ["Paul Salfen"]},
{"text": "Yawn. Remember when war movies didn't need love triangles?", "is_fresh": 0, "author": ["Sean Burns"]},
{"text": "Although \"Enemy\" is a huge production, with burning cityscapes, hundreds of extras and uncommonly vivid period detail, Annaud's combination of stark realism and contrived romance doesn't always jell", "is_fresh": 0, "author": ["James Sanford"]},
{"text": "It's the Battle of Stalingrad as staged by Masterpiece Theatre.", "is_fresh": 0, "author": ["Jeffrey Gantz"]},
{"text": "Good but not great, marred by a sometimes implausible storyline and an accentuation of a love story that seems grafted onto the real movie.", "is_fresh": 1, "author": ["Michael W. Phillips, Jr."]},
{"text": "Intelligently crafted and thrilling.", "is_fresh": 1, "author": ["Mark Dujsik"]},
{"text": "Underneath it all, there's a decent story, fine acting and astonishing production design.", "is_fresh": 1, "author": ["Rich Cline"]},
{"text": "Its rarely-seen subject matter has real merit, and I suspect will distinguish the production for some time to come, but \"new\" and \"different\" don't necessarily mean \"good.\"", "is_fresh": 0, "author": ["Rob Vaux"]},
{"text": "Bogged down by soap opera melodrama, Russians and Germans that don't sound Russian or German, and a failure to give Ed Harris a more substantial role.", "is_fresh": 0, "author": ["Andrew Manning"]},
{"text": "The real story is the tense, calculated, exciting strategizing of the two snipers. ", "is_fresh": 1, "author": ["Marty Mapes"]},
{"text": "A waste of talent on this scale would, in a just world, earn Annaud and Godard a well-placed bullet apiece.", "is_fresh": 1, "author": ["Andrew Howe"]},
{"text": "You'd have to say this film is a glorious and lovable failure...", "is_fresh": 0, "author": ["Urban Cinefile Critics"]},
{"text": "La cinta es aceptable, tiene sus momentos, y visualmente es impactante.", "is_fresh": 1, "author": ["Alex Ramirez"]},
{"text": "It's hard to get involved in drama when that drama shouldn't be there in the first place.", "is_fresh": 0, "author": ["Ian Waldron-Mantgani"]},
{"text": "With his uncanny gift of leading us from the unfamiliar to the intimate, Jude Law claims his place among Hollywood's leading character actors as he captures our imagination with the innocence, vulnerability, and perseverance of Vassili.", "is_fresh": 1, "author": ["Cornell & Petricelli"]},
{"text": "Pudo haber sido una mucho mejor cinta, de no ser por uno que otro elemento que cae dentro del clich\u00e9 hollywoodense.", "is_fresh": 0, "author": ["Jorge Avila Andrade"]},
{"text": "It certainly looks the part of an important film, but inside it's not prepared to follow through on its grand ambitions.", "is_fresh": 0, "author": ["Michael Dequina"]},
{"text": "A movie that's likely to be its own worst enemy once audiences come into its cross hairs.", "is_fresh": 0, "author": ["David Sterritt"]},
{"text": "Annaud is all at sea, scuppered by a directionless and tension-free script and wooden performances from his British leads.", "is_fresh": 0, "author": ["Neil Smith"]},
{"text": "Enemy at the Gates is a disappointment primarily because it seems so rich with possibilities.", "is_fresh": 0, "author": ["Marjorie Baumgarten"]},
{"text": "Probably worth seeing for the sets, battle scenes, and the questions of patriotism and allegiance it raises early on.", "is_fresh": 1, "author": ["Peter Henne"]},
{"text": "Instead of the swelling score and big Drama, Ememy could have used a little Three Kings sardonicism.", "is_fresh": 0, "author": ["David Forsmark"]},
{"text": "Hackneyed material.", "is_fresh": 0, "author": ["Amy Taubin"]},
{"text": "The filmmakers of Enemy at the Gates haven't solved the \"hearts and minds\" problem -- not for the films' heroes and villains, and certainly not for themselves.", "is_fresh": 0, "author": ["Bridget Byrne"]},
{"text": "The sniper cat-and-mouse is particularly well conceived", "is_fresh": 1, "author": ["Carlo Cavagna"]},
{"text": "With such a grim subject for a movie, one would expect the movie itself to be dark and grim, and it is.", "is_fresh": 1, "author": ["Robert Roten"]},
{"text": "Despite moments of genuine intensity, the film is still hampered by weak character development, sloppy editing, and an inferior script.", "is_fresh": 1, "author": ["Scott A. Mantz"]},
{"text": "Any flaws in execution pale against those moments when the film brings history to vital life.", "is_fresh": 1, "author": ["Peter Travers"]},
{"text": "It eventually falls flat on its face.", "is_fresh": 0, "author": ["Shay Casey"]},
{"text": "What, the actors couldn't manage a few lessons with an accent specialist? Can you even imagine Schindler's List with proper British accents? No. Of course not.", "is_fresh": 0, "author": ["Emily Blunt"]},
{"text": "Since the romance is handled with restraint, it doesn't take away from the tension and it adds reasonably well orchestrated sentiment.", "is_fresh": 1, "author": ["Brian Webster"]},
{"text": "\"Enemy at the Gates\" gives its standoffs historical weight. It really does matter who wins, as the fate of Stalingrad rests in the balance.", "is_fresh": 1, "author": ["Mike McGranaghan"]},
{"text": "What could have been an elaborate cat and mouse game quickly becomes a High Noon rip off.", "is_fresh": 0, "author": ["Tony Toscano"]},
{"text": "At least here's a movie with scope, for God's sake.", "is_fresh": 1, "author": ["Mark Ramsey"]},
{"text": "While the women around me said that they couldn't take their eyes from Jude Law, Ed Harris is the real prize with a controlled performance as a Nazi major.", "is_fresh": 1, "author": ["Harvey S. Karten"]},
{"text": "The sniper sequences, and I mean all of them, are done with incredible precision and tension, arguably, the best we've ever seen.", "is_fresh": 1, "author": ["Erik Childress"]},
{"text": "essentially an old-fashioned war epic, complete with a romantic triangle and thunderous battle sequences on an epic scale.", "is_fresh": 1, "author": ["James Kendrick"]},
{"text": "An effective war epic that will take its unique place in the genre, as a respectful Western telling of a distinctly Eastern battle.", "is_fresh": 1, "author": ["Greg Dean Schmitz"]},
{"text": "Beware of any World War II movie in which you find yourself rooting for the murderous Nazi!", "is_fresh": 0, "author": ["Susan Granger"]},
{"text": "With the epic scope of Saving Private Ryan and the tender heart of Life is Beautiful, this is a film that ponders the hopes and fears of World War II participants in a very personal and meaningful way.", "is_fresh": 1, "author": ["Jim Chastain"]},
{"text": "At its best, it transforms one of the turning points of World War II from a dusty historical footnote into a lean and terrifying visual extravaganza.", "is_fresh": 1, "author": ["Donald Munro"]},
{"text": "The story hits and misses for more than two hours following its opening artillery bloodbath.", "is_fresh": 0, "author": ["Mike Clark"]},
{"text": "If Saving Private Ryan refreshed a tired genre by throwing out old war-movie conventions, it was only a matter of time before other films came along to turn its innovations into clich\u00e9s all over again.", "is_fresh": 0, "author": ["Frank Lovece"]},
{"text": "It's this human understanding of an inhuman conflict that gives Enemy At The Gates so much power, despite its defects.", "is_fresh": 1, "author": ["Peter Howell"]},
{"text": "In the end, we're left with the impression that millions died and countries were decimated, all so these two crazy kids could get it on.", "is_fresh": 0, "author": ["Chris Hewitt (St. Paul)"]},
{"text": "The film, directed by Jean-Jacques Annaud, doesn't stint on mud, corpses, or rubble, but the focus is all screwed-up.", "is_fresh": 0, "author": ["David Edelstein"]},
{"text": "The film is way too big for the story.", "is_fresh": 0, "author": ["John Zebrowski"]},
{"text": "An often riveting, cinematic experience.", "is_fresh": 1, "author": ["Jim Judy"]},
{"text": "After Enemy at the Gates teases us with the promise of something big, it's hard to be happy with a small-scale story.", "is_fresh": 0, "author": ["Mick LaSalle"]},
{"text": "The French director Jean-Jacques Annaud, using an $80 million budget, gives us some sense of the titanic destruction and chaos, but almost no sense of the battle plans.", "is_fresh": 0, "author": ["David Elliott"]},
{"text": "A mainstream movie that works well on three levels -- as a psychological thriller, a love story, and as an epic account of a defining battle of the Second World War.", "is_fresh": 1, "author": ["Bruce Ward"]},
{"text": "Spread out flat on a table, the strengths of Enemy at the Gates decidedly outweigh the weaknesses.", "is_fresh": 1, "author": ["Shawn Levy"]},
{"text": "Airplanes arrive as regularly as the groaners in Enemy at the Gates.", "is_fresh": 0, "author": ["John Anderson"]},
{"text": "Can't easily be dismissed or forgotten.", "is_fresh": 1, "author": ["Lou Lumenick"]},
{"text": "A powerful and gripping story of war depicted on both its grandest and most intimate levels.", "is_fresh": 1, "author": ["Louis B. Hobson"]},
{"text": "Erratic, but sometimes thrilling.", "is_fresh": 1, "author": ["Bob Thompson"]},
{"text": "Impressive visually, with great sets and a grim feel of massive tragedy.", "is_fresh": 1, "author": ["Louis B. Parks"]},
{"text": "Although it is not without flaw, Enemy at the Gates makes its point in compelling fashion.", "is_fresh": 1, "author": ["Susan Stark"]},
{"text": "Worthy tribute to the sacrifice and suffering that such historically necessary hell required.", "is_fresh": 1, "author": ["Bob Strauss"]},
{"text": "It's good enough to make you want to know more.", "is_fresh": 1, "author": ["Mary F. Pols"]},
{"text": "An elaborate, character-driven World War II epic that gets the war right, but pretty much fumbles the characters.", "is_fresh": 0, "author": ["Paul Tatara"]},
{"text": "A tense and artful war film that works both as thrilling spectacle and as intimate drama.", "is_fresh": 1, "author": ["Andrew O'Hehir"]},
{"text": "It's remarkable.", "is_fresh": 1, "author": ["Roger Ebert"]},
{"text": "Ed Harris is great as a reserved, calculating marksman, but always hints at a buried humanity.", "is_fresh": 1, "author": ["Ian Freer"]},
{"text": "Overrun with so many Aaron Spelling-ish drama bits and tangled subplots, that Gates too often plays like Falcon Crest in a bunker.", "is_fresh": 0, "author": []},
{"text": "Large and ungainly, this World War II tale of a sniper duel that parallels the bloody battle for Stalingrad has an indisputable visual power, but it's nothing you'd want to have a conversation with--or, for that matter, about.", "is_fresh": 0, "author": ["Kenneth Turan"]},
{"text": "As an occasionally somber meditation on the toll war takes on the human soul, it's not without its moments.", "is_fresh": 1, "author": ["Mike Ward"]},
{"text": "A beautiful, satisfyingly old-fashioned movie.", "is_fresh": 1, "author": ["MaryAnn Johanson"]},
{"text": "Enemy at the Gates tells a gripping tale of opposing snipers, but sometimes at the expense of the story of the bloodiest siege in World War II.", "is_fresh": 1, "author": ["Jack Garner"]},
{"text": "If Saving Private Ryan didn't thoroughly convince you that war is hell, Enemy at the Gates should complete the job.", "is_fresh": 1, "author": ["Robert W. Butler"]},
{"text": "A big-budget war thriller that sets up a nice little cinematic cat-and-mouse game but manages to fumble it with conventional, clich\u00e9d and unrealistic storytelling.", "is_fresh": 0, "author": ["Jeff Vice"]},
{"text": "If the love triangle is the weakest part of the movie, that is only because the rest of it is so strong.", "is_fresh": 1, "author": ["Nell Minow"]},
{"text": "Throughout the movie I could imagine Annaud, metaphorically speaking, on the brink of shooting himself and his movie in the head. It was nice that he only would up shooting himself, and Enemy at the Gates, in the foot.", "is_fresh": 1, "author": ["Chuck Rudolph"]},
{"text": "This movie may seem to some like little more than boys' war games. But director Annaud, who wrote this with Alain Godard, knows how to milk the suspense.", "is_fresh": 1, "author": ["Desson Thomson"]},
{"text": "Rarely do we get to see ambitious World War II movies from a perspective other than American or British. Thanks to Enemy at the Gates it will probably be a hot day in Stalingrad before we see another one.", "is_fresh": 0, "author": ["Todd Anthony"]},
{"text": "The film is worth the price of admission for its visual aspects alone.", "is_fresh": 1, "author": ["William Arnold"]},
{"text": "The plot is pure Hollywood bunk.", "is_fresh": 0, "author": ["Tor Thorsen"]},
{"text": "Even with its flaws, I guess you could say that this is the best American movie ever made about a heroic Soviet sniper and his propagandist pal.", "is_fresh": 1, "author": ["Jay Boyar"]},
{"text": "Enemy at the Gates has its deficiencies, but the first-rate cast is not among them.", "is_fresh": 1, "author": ["A.O. Scott"]},
{"text": "Marred by an unconvincing love triangle and an insincere d\u00e9nouement, it's a story that nonetheless resonates as much as Saving Private Ryan does.", "is_fresh": 1, "author": ["Lawrence Terenzi"]},
{"text": "Plenty of parts, no excitement. Just dud grenades.", "is_fresh": 0, "author": ["Dave White"]},
{"text": "The new year's single most satisfying movie experience thus far.", "is_fresh": 1, "author": ["Gemma Files"]},
{"text": "If too much of Enemy of the Gates is melodramatic hokum, it is redeemed by the sniper standoffs, which are models of suspense.", "is_fresh": 1, "author": ["Terry Lawson"]},
{"text": "As so often happens, the good stuff gets diluted with requisite pap and banal dialogue a love triangle, lackluster sex, betrayal and redemption.", "is_fresh": 0, "author": ["Jane Sumner"]},
{"text": "Its suspense, though borrowed, remains genuine, and there isn't a bad performance in the film.", "is_fresh": 1, "author": ["Steve Schneider"]},
{"text": "Cornball and sanctimonious, an anticommunist diatribe dolled up like war porn filled with loving shots of bodies being obliterated, reduced to sinew and bone.", "is_fresh": 0, "author": ["Robert Wilonsky"]},
{"text": "As fascinated as I was by the historical backdrop against which the struggle occurs, I found it difficult to care one way or another about which characters lived or died.", "is_fresh": 0, "author": ["James Berardinelli"]},
{"text": "Despite a strong cast and occasional flashes of creativity, the cat-and-mouse action thriller by Annaud... is boring.", "is_fresh": 0, "author": ["Christy Lemire"]},
{"text": "Annaud outdoes Speilberg in creating realistic carnage.", "is_fresh": 1, "author": ["Eric Lurio"]},
{"text": "A simplified 'happy' hero's story.", "is_fresh": 0, "author": ["Lisa Schwarzbaum"]},
{"text": "A tiresome, unconvincing collection of war-movie clich\u00e9s.", "is_fresh": 0, "author": ["Dave Kehr"]},
{"text": "Elaborate, exciting and lavishly shot.", "is_fresh": 1, "author": ["Michael Wilmington"]},
{"text": "The cat-and-mouse scenes between the two snipers are electric.", "is_fresh": 1, "author": ["Eleanor Ringel Cater"]},
{"text": "A grand movie filled with suspense, impressive visuals and an absorbing story line!", "is_fresh": 1, "author": ["JoBlo"]},
{"text": "A fascinating piece of history and an intriguing picture.", "is_fresh": 1, "author": ["Steve Rhodes"]},
{"text": "A very nice piece of work.", "is_fresh": 1, "author": ["Ross Anthony"]},
{"text": "While the ambience is enveloping, the all-too-apparent contrivances keep undermining this outwardly strong war picture until its impact is watered down to the level of lukewarm disappointment.", "is_fresh": 0, "author": ["Rob Blackwelder"]},
{"text": "Really quite interesting.", "is_fresh": 1, "author": []},
{"text": "It might sound exciting, but a 15-minute set piece about two snipers can get pretty tiring.", "is_fresh": 0, "author": ["Jon Popick"]},
{"text": "Enemy never gets to that visceral place -- you're outside looking in, watching a spectacle of someone else's horror.", "is_fresh": 0, "author": ["Arthur Lazere"]},
{"text": "A big hip-hip-hooray for our boys in Red", "is_fresh": 1, "author": ["Jeanne Aufmuth"]},
{"text": "Has impressive moments, but they're buried in a rubble of melodramatic excess that would have seemed corny in a film made while the war was actually being waged.", "is_fresh": 0, "author": ["Frank Swietek"]},
{"text": "An intense combination of action, drama, and love story that makes a memorable and interesting war movie.", "is_fresh": 1, "author": ["Scott Chitwood"]},
{"text": "Where Enemy at the Gates excels is in the depth and breadth of the battlefield production.", "is_fresh": 1, "author": ["Robin Clifford"]},
{"text": "A rousing historical drama and worthy addition to the recent revival of WWII films.", "is_fresh": 1, "author": ["Laura Clifford"]},
{"text": "Works as both a compelling thriller and engaging romance.", "is_fresh": 1, "author": ["Ian Johnston"]},
{"text": "Law's performance is powerful, though Harris's steely-eyed (but friendly-looking) glare makes him a mite better.", "is_fresh": 1, "author": ["Eric D. Snider"]},
{"text": "Ultimately feels empty.", "is_fresh": 0, "author": ["Norm Schrager"]},
{"text": "A considerable achievement, a thinking man's war movie with a more compelling story than that of Saving Private Ryan.", "is_fresh": 1, "author": ["Kirk Honeycutt"]},
{"text": "Shows a consistent inability to generate any kind of drama when characters open their mouths.", "is_fresh": 0, "author": ["Derek Elley"]},
{"text": "It would have been much improved if the filmmakers had shown the courage of Vassilli and jettisoned the familiar subplot and concentrated on the hunter and the hunted.", "is_fresh": 0, "author": ["Bob Bloom"]},
{"text": "The trouble with the film is that it didn't work well for long stretches.", "is_fresh": 0, "author": ["Dennis Schwartz"]},
{"text": "", "is_fresh": 1, "author": []},
{"text": "", "is_fresh": 1, "author": []},
{"text": "", "is_fresh": 1, "author": []},
{"text": "", "is_fresh": 0, "author": []},
{"text": "", "is_fresh": 0, "author": ["Garth Franklin"]}
]