[
{"reviews_count": "72", "title": "Filmworker", "avg_audience_rating": "3.8", "rotten_count": "3", "tomatometer": "96", "audience_score": "83", "avg_critic_rating": "7.7", "fresh_count": "69", "user_ratings_count": "164"},
{"text": "Tony Zierra's documentary is a fascinating insight into the work which goes on behind the scenes. ", "is_fresh": 1, "author": ["Rob Aldam"]},
{"text": "Tony Zierra's Filmworker is a masterwork. The documentary looks at the relationship between Stanley Kubrick and Leon Vitali, the actor who became Kubrick's right-hand man after they met on the set of the 1975 film Barry Lyndon.", "is_fresh": 1, "author": ["Niall Browne"]},
{"text": "Filmworker delivers an invaluable look into his process while introducing this new character whose fingerprints can be seen alongside Stanley's on every frame.", "is_fresh": 1, "author": ["Jared Mobarak"]},
{"text": "It's an excellent background to film history, a must-see for anyone interested in filmmaking and a long-overdue tribute to an unsung hero.", "is_fresh": 1, "author": ["Alexa Dalby"]},
{"text": "If there is a cult around Kubrick, Vitali was the first card carrying member.", "is_fresh": 1, "author": ["Robert Daniels"]},
{"text": "For a doc about Kubrick, one of the most precise film artists ever, it's unforgivable that the narrative would be so messily conceived. Vitali's enduring presence makes Filmworker watchable and sometimes even moving despite these aesthetic shortcomings.", "is_fresh": 1, "author": ["Glenn Heath Jr."]},
{"text": "Candid, insightful.", "is_fresh": 1, "author": ["Sarah Ward"]},
{"text": "A fascinating study in movie lore and human psychology. ", "is_fresh": 1, "author": ["Robert Horton"]},
{"text": "That's where the greatest qualms may come in this stylish and sometimes overly reverential portrait: It's as if Vitali never really existed without the director.", "is_fresh": 1, "author": ["Richard Whittaker"]},
{"text": "Cinephiles seeking insight into Kubrick's personality and process will find plenty of it here, as Vitali spins stories of Stanley's mercurial temperament, technological expertise and devotion to his pets.", "is_fresh": 1, "author": ["Norman Wilner"]},
{"text": "Vitali makes for a sympathetic and intriguing subject. ", "is_fresh": 1, "author": ["Ashley Naftule"]},
{"text": "The demands from Kubrick were \"Kafkaesque\" recalls Vitali's son, Max, but technically rough as it is, Zierra's film not only captures his subject's calling to serve, it illuminates Kubrick as well.", "is_fresh": 1, "author": ["Craig Mathieson"]},
{"text": "Filmworker attempts to get inside Vitali's decision to give up a potentially successful and lucrative acting career to work as an on-set gopher for Stanley Kubrick, successfully painting us a portrait of the allure of such a life-changing decision", "is_fresh": 1, "author": ["Glenn Dunks"]},
{"text": "It's Vitali's frank recollections of his time spent helping someone else's genius that makes this movie such an astonishing film about filmmaking.", "is_fresh": 1, "author": ["Sarah Ward"]},
{"text": "A complex relationship between the two men, Filmworker offers a look at cinematic history that's so rarely discussed with credit to Leon Vitali.", "is_fresh": 1, "author": ["Danielle Solzman"]},
{"text": "... provides valuable insight into Kubrick's obsessive personality and painstaking artistic process through anecdotes and a treasure trove of archival items, through the eyes of a loyal sidekick worthy of the spotlight.", "is_fresh": 1, "author": ["Todd Jorgenson"]},
{"text": "Having worked 18 hour days and being at the beck and call of the master for so many years, this film is a fitting tribute to Leon's stamina and commitment to Kubrick's maddeningly precise demands.", "is_fresh": 1, "author": ["Nigel Watson"]},
{"text": "I thought I knew a lot about Stanley Kubrick, but I didn't know about Leon Vitali. ", "is_fresh": 1, "author": ["Jeffrey M. Anderson"]},
{"text": "Through Filmworker Vitali, we learn Kubrick was human after all.", "is_fresh": 1, "author": ["Sherilyn Connelly"]},
{"text": "Tony Zierra's documentary Filmworker, made with the full cooperation of Vitali, is a curious but fascinating tale, as much an inside portrait of the notoriously private Kubrick as it is a profile of his devoted disciple.", "is_fresh": 1, "author": ["Kelly Vance"]},
{"text": "\"Filmworker\" is a first-rate account of the ongoing creative process some call dysfunctional. Well, anyone would call it that, actually. But some would also call it worth it.", "is_fresh": 1, "author": ["Michael Phillips"]},
{"text": "What did it mean to be Cleopatra and what did it mean to be her slave? What did it mean to be Stanley ----ing Kubrick and what does it mean to be the now-69-year-old Leon \"Who?\" Vitali?", "is_fresh": 1, "author": ["Ray Pride"]},
{"text": "Tony Zierra's insightful documentary Filmmaker details what surely must be the greatest Sancho Panza story in cinematic history.", "is_fresh": 1, "author": ["Dann Gire"]},
{"text": "Filmworker seems to have a more jaundiced view of Kubrick than Vitali does.", "is_fresh": 1, "author": ["Sonny Bunch"]},
{"text": "There's something both immensely touching and sad about Vitali as he is in this documentary.", "is_fresh": 1, "author": ["Mark Dujsik"]},
{"text": "We should thank Vitali the next time we see 2001: A Space Odyssey, even if Filmworker does not bring us any closer to understanding the man most responsible for it.", "is_fresh": 0, "author": ["Alan Zilberman"]},
{"text": "The documentary mildly implies that his obsessive serfdom drove Vitali a bit mad, but it's a masochistic gesture that many a film geek can understand.", "is_fresh": 1, "author": ["Colin Covert"]},
{"text": "Tony Zierra's film is a worthy and interesting one, but I admit to becoming worn down by the endless litany of unglamorous ways that protagonist Vitali worked his butt off for the genius filmmaker.", "is_fresh": 1, "author": ["Gerald Peary"]},
{"text": "Filmworker acts both as a specific act of homage to this unique man as well as a celebration of the thousands of people behind the scenes who might get on the credit roll but long after the audience have shuffled from their seats.", "is_fresh": 1, "author": ["John Bleasdale"]},
{"text": "\"Filmworker's\" greatest value lies in pulling the lens back to allow viewers to understand film as a deeply collaborative medium, one in which even the most venerated auteurs cannot accomplish their greatest feats alone.", "is_fresh": 1, "author": ["Ann Hornaday"]},
{"text": "Vitali emerges as a compelling documentary subject on his own, especially as we realize that his relationship with the temperamental Kubrick was often a curse as much as a blessing", "is_fresh": 1, "author": ["Stephen Silver"]},
{"text": "Though imperfectly shot and assembled, the film is ultimately an engrossing tribute to a man without whom Kubrick's final quarter-century might have proceeded quite differently.", "is_fresh": 1, "author": ["Christopher Llewellyn Reed"]},
{"text": "If you are a Kubrick fan, prepare for bliss.", "is_fresh": 1, "author": ["James Verniere"]},
{"text": "Whether you're fascinated by Kubrick or the human condition this is a minor classic.", "is_fresh": 1, "author": ["Charlotte O'Sullivan"]},
{"text": "Next time you watch a Kubruck movie, take note of the high-contrast black and white, or of how consistent the colors have remained over the decades. Thanks, Mr. Vitale!", "is_fresh": 1, "author": ["Scott Marks"]},
{"text": "Tony Zierra's fond and slightly unsettling film is, among other things, a reminder of the egolessness necessary for great egos to flourish.", "is_fresh": 1, "author": ["Ty Burr"]},
{"text": "At its best, the documentary highlights [Vitali's] boundless zeal for this work that made him so indispensable.", "is_fresh": 1, "author": ["Dominick Suzanne-Mayer "]},
{"text": "Stanley Kubrick was not quite so generous a soul if one reads between the lines of the documentary Filmworker, which tells the salutary story of the director's long-time dogsbody, Leon Vitali.", "is_fresh": 1, "author": ["Paul Whitington"]},
{"text": "Zierra's spunky and well-assembled documentary will be vital for Kubrick completists but also...as a study of a real character who applied grit and determination to a starry-eyed idealism that remains to this day.", "is_fresh": 1, "author": ["Hilary A White"]},
{"text": "This is a cracking yarn - his master's obsessiveness later drove Vitali to illness - and the irony is that, with all its close-up footage of Kubrick, it is he, as always, who takes the spotlight.", "is_fresh": 1, "author": ["Jonathan Dean"]},
{"text": "The interviewees in Filmworker are lit unflatteringly and not always asked the most pertinent of questions... But some of them offer telling glimpses of how this relationship looked from the outside. ", "is_fresh": 1, "author": ["Ryan Gilbey"]},
{"text": "[An] edifying, occasionally troubling documentary...", "is_fresh": 1, "author": ["Simran Hans"]},
{"text": "Anybody with any interest in Kubrick will be diverted by Filmworker, but it remains an oddly clunky piece of work.", "is_fresh": 1, "author": ["Donald Clarke"]},
{"text": "This is an exhilarating insight into the filmmaking process.", "is_fresh": 1, "author": ["Saskia Baron"]},
{"text": "Simultaneously dispels and reinforces various myths about the director and offers some incredible insights into the making of several Kubrick classics.", "is_fresh": 1, "author": ["Alistair Harkness"]},
{"text": "Vitali is now in his late 60s and is a fascinating character whose tales of working with the perfectionist film-maker will have film buffs hooked.", "is_fresh": 1, "author": ["Andy Lea"]},
{"text": "Naturally, excuses are made here, mostly by 69-year-old Vitali himself... but it's difficult not see this film as anything other than a gripping portrait of the worst excesses of an industry that continues to support, and nurture, megalomania.", "is_fresh": 1, "author": ["Kevin Maher"]},
{"text": "But as a portrait of a man who surrendered his career and much of his life to the service of a master, \"Filmworker\" proves compelling, particularly for those with a passing interest in Kubrick. ", "is_fresh": 1, "author": ["Glenn Whipp"]},
{"text": "Would Kubrick be Kubrick without Leon? It is a good question.", "is_fresh": 1, "author": ["Robin Clifford"]},
{"text": "Thanks to the documentary, [Leon Vitali's] contribution is bound now to be acknowledged.", "is_fresh": 1, "author": ["Geoffrey Macnab"]},
{"text": "It's a fascinating movie, hosted largely by Vitali himself, now older, no doubt wiser, though still visibly excited and perplexed by the enigmatic genius whom he served.", "is_fresh": 1, "author": ["Nigel Andrews"]},
{"text": "A beautiful profile of someone who makes movies for the sheer love of it. And he shouldn't remain anonymous.", "is_fresh": 1, "author": ["Rich Cline"]},
{"text": "By revealing the darker side of Kubrick, we're given an original take on his legacy.", "is_fresh": 1, "author": ["Thomas Hobbs"]},
{"text": "Filmworker is an absorbing, important portrait of both a genius at work and the man behind the scenes who made the magic possible, whatever the cost to himself.", "is_fresh": 1, "author": ["Ian Freer"]},
{"text": "A fascinating and illuminating doc. You'll never look at Kubrick film again without thinking about Leon Vitali. Hopefully, Vitali will receive the recognition that he rightfully deserves.", "is_fresh": 1, "author": ["Avi Offer"]},
{"text": "As [Vitali] recalls these experiences, we get behind-the-scenes glimpses of Kubrick at work on his last films, though how substantive these are depends to an extent on who's interviewed (or not).", "is_fresh": 1, "author": ["Godfrey Cheshire"]},
{"text": "Watching Filmworker as a cinephile, it's easy to be awed by the Zen-like devotion of Vitali's life's work. But it's also possible to be simultaneously filled with rage at the way people like him are simply left to run endlessly on their hamster wheels.", "is_fresh": 1, "author": ["Andrew Lapin"]},
{"text": "Compelling, despite its modest and uneven means.", "is_fresh": 1, "author": ["Ignatiy Vishnevetsky"]},
{"text": "\"Filmworker\" amounts to yet another rite of devotion in the ongoing cult of Kubrick-a cult that worked its power not just on Vitali but on all of modern cinema.", "is_fresh": 1, "author": ["Richard Brody"]},
{"text": "The portrait he creates of his former boss reveals a man of great curiosity, generosity and creativity, but also a frequently imperious and unreasonably demanding perfectionist.", "is_fresh": 1, "author": ["Glenn Kenny"]},
{"text": "\"Filmworker\" delivers an extraordinary story of observation and participation.", "is_fresh": 1, "author": ["Brian Orndorf"]},
{"text": "Filmworker is a portrait of an unsung hero, a revealing look at how Kubrick's films were made and a psychological sketch of a would-be Da Vinci determined to keep dusting and polishing someone else's Sistine Chapel.", "is_fresh": 1, "author": ["David Fear"]},
{"text": "Tony Zierra interviews Leon Vitali at length, and he's a commanding camera object with an obvious wellspring of longing and pain.", "is_fresh": 1, "author": ["Chuck Bowen"]},
{"text": "[An] entertaining and informative documentary...", "is_fresh": 1, "author": ["Bilge Ebiri"]},
{"text": "Cinema would be much the poorer without Stanley Kubrick's legacy, but \"Filmworker\" emphatically proves that Stanley Kubrick's legacy would be much the poorer without Leon Vitali.", "is_fresh": 1, "author": ["Jessica Kiang"]},
{"text": "Filmworker isn't simply about Kubrick, or Vitali. In a sense, it's the ultimate fan story: a tale of what it means to live vicariously through a genius.", "is_fresh": 1, "author": ["Ben Kenigsberg"]},
{"text": "An inability to crack the movie's central mystery -- why abandon your dreams to help facilitate someone else's? -- leaves the project feeling a bit like a missed opportunity.", "is_fresh": 0, "author": ["Tim Grierson"]},
{"text": "The film honors the hard-working, often unacknowledged craftsmen in the film industry and stirs provocative questions about the fine line between legitimate devotion to an artist and dangerous hero worship.", "is_fresh": 1, "author": ["Stephen Farber"]},
{"text": "Zierra has found a truly unsung hero here.", "is_fresh": 1, "author": ["Michael Nordine"]},
{"text": "Too bad its story is more interesting than the resulting film. [Full review in Spanish]", "is_fresh": 0, "author": ["Juanma Ruiz"]},
{"text": "It's a portrait of Kubrick's right-hand man, who devoted himself to the religion of all things Kubrick, but beyond that the film has a special value: It ushers you into the world of how Kubrick put his movies together.", "is_fresh": 1, "author": ["Owen Gleiberman"]},
{"text": "A revealing and stirring celebration of one of cinema's unacknowledged heroes.", "is_fresh": 1, "author": ["Gwilym Mumford"]}
]