[
{"reviews_count": "261", "title": "Finding Nemo", "avg_audience_rating": "3.8", "rotten_count": "2", "tomatometer": "99", "audience_score": "86", "avg_critic_rating": "8.7", "fresh_count": "259", "user_ratings_count": "33,356,435"},
{"text": "Finding Nemo offers as much in terms of thrills, frights, humour and psychological insight as it does in pure technical skill, proving that a movie can be art without being an \"art\" movie.", "is_fresh": 1, "author": ["Neil Norman"]},
{"text": "This gem of a film is the one with which Pixar asserted their supremacy over the animated world.", "is_fresh": 1, "author": ["Yasmin Shehab"]},
{"text": "...a good-but-hardly-great animated endeavor from Pixar. ", "is_fresh": 1, "author": ["David Nusair"]},
{"text": "Finding Nemo is ultimately a rewarding, engaging, compelling, and even spiritual adventure that works charismatically on multiple levels.", "is_fresh": 1, "author": ["Glen Oliver"]},
{"text": "It looks great, of course: All the Pixar movies do. But the genius of those other movies lay in their actual stories -- stories as inspired as the animation.", "is_fresh": 1, "author": ["Matt Soergel"]},
{"text": "Beautiful.", "is_fresh": 1, "author": ["Allen O'Brien"]},
{"text": "Visually, Finding Nemo is spectacular. The animators render theses scenes with exquisite detail and vibrant color, reaching beyond mere CGI-wizardry to artistry.", "is_fresh": 1, "author": ["Tim Regan-Porter"]},
{"text": "A beguiling piece of storytelling and creates a magical underwater world through its imaginative graphics and sound effects.", "is_fresh": 1, "author": ["Philip French"]},
{"text": "Artistically, it's up there with the all-time animated greats.", "is_fresh": 1, "author": ["Christopher Tookey"]},
{"text": "A splendid eco-friendly comedy set in the Great Barrier Reef.", "is_fresh": 1, "author": ["Sukhdev Sandhu"]},
{"text": "The animation in Finding Nemo is quite breathtaking and this movie, created by Pixar, the same outfit that made Toy Story, looks like The Undersea World of Jacques Cousteau.", "is_fresh": 1, "author": ["Philip Kerr"]},
{"text": "The tropical pleasure is a beautifully imagined adventure that beguiles children and tickles adults.", "is_fresh": 1, "author": ["James Christopher"]},
{"text": "A spectacular comedy-adventure that's never less than totally immersive. Not quite the masterpiece that Toy Story was, but it's the closest Pixar have come since.", "is_fresh": 1, "author": ["Kevin Harley"]},
{"text": "Finding Nemo is a wonderment, certainly not human, yet humorously humane.", "is_fresh": 1, "author": ["Steve Persall"]},
{"text": "A lavish feast and the best family catch of the summer blockbuster season.", "is_fresh": 1, "author": ["Dennis King"]},
{"text": "Finding Nemo is distributed by Disney, and it has what the most heartfelt Disney animated features used to have: rapturous imagery matched with real wit.", "is_fresh": 1, "author": ["Peter Rainer"]},
{"text": "Deliriously inventive and soaked in a warm and generous wit.", "is_fresh": 1, "author": ["Mike Goodridge"]},
{"text": "Pixar's turned in an instant classic. ", "is_fresh": 1, "author": ["Joel Siegel"]},
{"text": "Pixar's fourth feature for Disney is yet another miracle of computer animation, an instant classic, but with less of the surface brightness of Toy Story or Monsters, Inc.", "is_fresh": 1, "author": ["Leah Rozen"]},
{"text": "Pixar continued its run of superb computer-generated animated features with this jaw-dropping underwater adventure.", "is_fresh": 1, "author": ["Sloan Freer"]},
{"text": "[Dory's] throwaway lines are funnier than anything that comes out of all the other fish combined, balancing out the dull father-son-must-be-reunited story at the core of Nemo that threatens to make this just another cartoon.", "is_fresh": 1, "author": ["Erin Podolsky"]},
{"text": "The latest flood of wizardry from Pixar, whose productions, from Toy Story onward, have lent an indispensable vigor and wit to the sagging art of mainstream animation.", "is_fresh": 1, "author": ["Anthony Lane"]},
{"text": "Finding Nemo is laced with smart humor and clever gags, and buoyed by another cheery story of mismatched buddies: a pair of fish voiced by Albert Brooks and Ellen DeGeneres.", "is_fresh": 1, "author": ["David Germain"]},
{"text": "Like Pixar's previous films, Finding Nemo mines humor from the oddities of an unknown world but stays grounded in a familiar one, finding recognizable elements of heartbreak and happiness amid the ink-jetting octopi and irritable flounders.", "is_fresh": 1, "author": ["Keith Phipps"]},
{"text": "While Mr. Brooks is very funny, Ms. DeGeneres gives a bravura comic performance, as well as a touching one.", "is_fresh": 1, "author": ["Joe Morgenstern"]},
{"text": "The animation is so sleek and the action so perfectly paced that even the sharpest viewer could be forgiven for overlooking some unimportant lapses in internal logic. ", "is_fresh": 1, "author": ["Donald Clarke"]},
{"text": "It looks more stunning than ever.", "is_fresh": 1, "author": ["Derek Malcolm"]},
{"text": "An Easter treat.", "is_fresh": 1, "author": ["Allan Hunter"]},
{"text": "This is a classic - bring on the sequel!", "is_fresh": 1, "author": ["Lewis Bazley"]},
{"text": "Every frond and fin pokes out at you.", "is_fresh": 1, "author": ["Tim Robey"]},
{"text": "Re-releasing Nemo in 3D gives a whole new generation the chance to enjoy it in cinemas for the first time - as well as adding extra depth to the wonderful scenes from the ocean deep.", "is_fresh": 1, "author": ["Graham Young"]},
{"text": "Though some scary parts may make the very young fret unduly, the film also puts forward some thoughtful messages for both children and their parents. [Blu-ray 3D]", "is_fresh": 1, "author": ["Peter Canavese"]},
{"text": "Detail is what holds your attention from frame to frame: the panorama of soft and hard corals, the different textured sea bottoms, the undulating seaweed, and the schooling sardines that look flashy and real as can be.", "is_fresh": 1, "author": ["James Plath"]},
{"text": "I don't exactly worship Pixar, but \"Finding Nemo\" is truly a great film.", "is_fresh": 1, "author": ["Paul Chambers"]},
{"text": "Gill is Platoon's Sgt. Elias if he'd survived Sgt. Barnes' treachery and returned to civilian life weary and hard-bitten from his experiences. And also a fish.", "is_fresh": 1, "author": ["Pete Vonder Haar"]},
{"text": "Finding Nemo 3D is a quality post-conversion experience that successfully enhances the 2003 film's original standout visuals.", "is_fresh": 1, "author": ["Ben Kendrick"]},
{"text": "The 3D gives the images a little more depth but they already had heft and weight. The 3D is a money-making gimmick, nothing more.", "is_fresh": 1, "author": ["Marshall Fine"]},
{"text": "A great blend of storytelling and technology. ", "is_fresh": 1, "author": ["John Wirt"]},
{"text": "It's downright curmudgeonly to remain focused on the negatives when the rest of the picture is saturated with invention and wit.", "is_fresh": 1, "author": ["Matt Brunson"]},
{"text": "It's bright, it's beautiful and it hasn't aged a day. So why, then, do we need to see it in 3-D?", "is_fresh": 1, "author": ["Rob Vaux"]},
{"text": "A rare example of a movie that not only survives its 3-D conversion but benefits from it", "is_fresh": 1, "author": ["Mike Scott"]},
{"text": "It was as funny as I remember and brilliant because it is subtle. It just knocks it out of the park. I love everything about this movie, one of my favorite Pixar movies of all time, 5/5 Schmoes. The new sound/3D adds to the greatness that is Nemo.", "is_fresh": 1, "author": ["Kristian Harloff"]},
{"text": "If you're fishing for fun in an ocean of movie mediocrity, grab the kids or the grandkids, fork out a few extra bucks and see this one in three-dimensions.", "is_fresh": 1, "author": ["Gary Wolcott"]},
{"text": "A genuinely funny and touching film that, in less than a decade, has established itself as a timeless classic.", "is_fresh": 1, "author": ["Stephen Whitty"]},
{"text": "It's a great movie, so much fun, an acheivement that should be enjoyed by children of all ages and worth seeing it in 3D.", "is_fresh": 1, "author": ["Mark Ellis"]},
{"text": "Sea-worthy w/enhanced visual lure and rich, humorous characters set in a double narrative; this 3D revisit allows us to fall overboard all over again.", "is_fresh": 1, "author": ["Kimberly Gadette"]},
{"text": "If ever there was a film that wasn't broke, this is it. So naturally they converted it into 3D for a special re-release this weekend. (Stupid irony.)", "is_fresh": 1, "author": ["William Bibbiani"]},
{"text": "A timeless delight.", "is_fresh": 1, "author": ["Elizabeth Weitzman"]},
{"text": "I believe my sensitivity to certain creative choices of the picture has dulled some, while age has opened my eyes to its complex relationships and tireless sense of exploration.", "is_fresh": 1, "author": ["Brian Orndorf"]},
{"text": "Think of this re-release as an encore, a handy touchstone for you and your kids. \"Finding Nemo\" was and remains the gold standard against which all other modern animated films are measured, a classic from the day it premiered. ", "is_fresh": 1, "author": ["Roger Moore"]},
{"text": "When the blunt head of Bruce the shark slams into the screen like a hammer, everyone -- adults included -- gasps", "is_fresh": 1, "author": ["Amy Nicholson"]},
{"text": "At its best, the added dimension is merely harmless, making the movie blurry enough that you need special glasses to make it sharp again.", "is_fresh": 1, "author": ["Jaime N. Christley"]},
{"text": "[VIDEO ESSAY] Disney/Pixar's 3D upgrade of its classic animated children's movie - using the expensive Xpand 3D format - has the duel effect of darkening the film's vibrant colors while adding considerable depth to the screen. ", "is_fresh": 1, "author": ["Cole Smithey"]},
{"text": "If the Pixar vault was on fire and they could only save one film, it'd be this eminently re-watchable modern fairy tale...Looks all the more stunning with this state-of-the-art 3D retro-fit. ", "is_fresh": 1, "author": ["Jim Schembri"]},
{"text": "I could write an entire dissertation on how much I love this movie.", "is_fresh": 1, "author": ["Liam Maguren"]},
{"text": "Not worth the trip to the cinema but is worth every cent as a home entertainment blu ray purchase.", "is_fresh": 1, "author": ["Blake Howard"]},
{"text": "Sweet father-son tale with some very scary moments.", "is_fresh": 1, "author": ["Nell Minow"]},
{"text": "Tremendously well-made, marshaling the techniques of live-action filmmaking better than any CGI feature up to that point ever had.", "is_fresh": 1, "author": ["Tim Brayton"]},
{"text": "In this seamless blending of technical brilliance and storytelling verve, the Pixar team has made something as marvelously soulful and innately, fluidly American as jazz.", "is_fresh": 1, "author": ["Lisa Schwarzbaum"]},
{"text": "A dynamic and entertaining film for all ages...", "is_fresh": 1, "author": ["Felix Vasquez Jr."]},
{"text": "Wonderful writing generates several layers of humour -- from the innocent joys of childish fun to more complex comedy, but never at anyone's (or any fish's) cruel expense -- as well as an engaging dramatic plot.", "is_fresh": 1, "author": ["Urban Cinefile Critics"]},
{"text": "Nemo, with its ravishing underwater fantasia, manages to trump the design glamour of earlier Pixar films.", "is_fresh": 1, "author": ["Richard Corliss"]},
{"text": "Very clever and imaginative indeed.", "is_fresh": 1, "author": ["Todd McCarthy"]},
{"text": "[An] aquatic joyride.", "is_fresh": 1, "author": ["Ted Shen"]},
{"text": "A visual marvel, every frame packed to the gills with clever details, Finding Nemo is the best big-studio release so far this year.", "is_fresh": 1, "author": ["David Ansen"]},
{"text": "Terrific-looking and sweet, it's certainly up to the superior standard Pixar has set for prime family entertainment.", "is_fresh": 1, "author": ["Angie Errigo"]},
{"text": "I was swept up in its dazzling stream of rainbow corals, amused by the stoner turtles going with the flow, sharks battling their own regressive instincts and DeGeneres' scatterbrained Dory.", "is_fresh": 1, "author": []},
{"text": "a good family film", "is_fresh": 1, "author": ["Kevin Carr"]},
{"text": "Magical. God knows how they do it, but Pixar is easily the most consistent, most intelligent movie shop in Hollywood.", "is_fresh": 1, "author": ["David Medsker"]},
{"text": "A joyous delight for audiences of all ages.", "is_fresh": 1, "author": ["Ethan Alter"]},
{"text": "Enthralling, and gorgeous, from start to finish.", "is_fresh": 1, "author": ["Jeffrey Overstreet"]},
{"text": "Brilliantly conceived Pixar movie is loaded with family values, albeit the salt water variety.", "is_fresh": 1, "author": ["Steve Crum"]},
{"text": "A fish tale the whole family can enjoy.", "is_fresh": 1, "author": ["Mark Sells"]},
{"text": "The creators are cracking themselves up first, the way the Warner Bros. animators did in Bugs Bunny's golden age; it works for anyone with a sense of humor.", "is_fresh": 1, "author": ["Jake Euker"]},
{"text": "Finding Nemo is a triumph, with a different, richer feel than any previous Pixar film. Aided by a smart, evocative score by Thomas Newman, the story is funny, moving and completely engrossing.", "is_fresh": 1, "author": ["Edward Johnson-Ott"]},
{"text": "Fantastic animation, a great cast, and hilarious laughs make Finding Nemo a must see movie for the summer.", "is_fresh": 1, "author": ["Scott Chitwood"]},
{"text": "'... excellent storytelling with superb, eye-popping animation...'", "is_fresh": 1, "author": ["Lori Hoffman"]},
{"text": "Click to read review", "is_fresh": 1, "author": ["Michael Dequina"]},
{"text": "It's all tremendously entertaining stuff, with oodles of wonderful detail and superb direction by Andrew Stanton.", "is_fresh": 1, "author": ["Peter Bradshaw"]},
{"text": "As the voice of the forgetful Dory, Ellen DeGeneres shows us how Memento could have been a comedy in this entertaining and visually stunning family flick.", "is_fresh": 1, "author": ["Andrew Manning"]},
{"text": "Each obstacle is a fabulous set piece with not-always-obvious lessons to be learned and smart, original humor.", "is_fresh": 1, "author": ["Mark Robison"]},
{"text": "If it's not quite a tidal wave of entertainment, it's a welcome dip in the ocean nonetheless. ", "is_fresh": 1, "author": ["Daniel M. Kimmel"]},
{"text": "Debutant writer-director Andrew Stanton, crams the feel-good fable with wondrous visuals while ensuring that the life lessons are schmaltz-free.", "is_fresh": 1, "author": ["Rashid Irani"]},
{"text": "Finding Nemo works terribly hard for every scrap of charm or humor it imparts.", "is_fresh": 0, "author": ["Stephanie Zacharek"]},
{"text": "It's a whale of a tale that's well worth catching. Even if fish isn't usually your dish.", "is_fresh": 1, "author": ["Carol Cling"]},
{"text": "The best father-son story in all of Hollywood animation, and maybe animation generally...exploits the potential of computer animation like no film before it and few films after it.", "is_fresh": 1, "author": ["Steven D. Greydanus"]},
{"text": "This stonking film is a perfect example of Total Cinema, combining tragedy, excitement and humour, all wrapped up in one amazing looking package.", "is_fresh": 1, "author": ["Ed Colley"]},
{"text": "beautiful to look at, and not without humour, but ... its waters are starting to taste just a little stale.", "is_fresh": 1, "author": ["Anton Bitel"]},
{"text": "Finding Nemo may be the most beautiful and detailed animated movie ever made.", "is_fresh": 1, "author": ["John J. Puccio"]},
{"text": "'Like a road movie, only wetter.'", "is_fresh": 1, "author": ["Paul Arendt"]},
{"text": "Ellen Degenerous and Albert Brooks lend their voices to the craziest fish ever to talk on screen, and Dame Edna (Barry Humphries) performs a turn as a vegetarian shark!", "is_fresh": 1, "author": ["David Foucher"]},
{"text": "Fin-tastic -- hilarious, moving and beautiful to look at, this is another instant classic.", "is_fresh": 1, "author": ["Matthew Turner"]},
{"text": "Every single frame of the film is rendered with such detail and warmth that even without a compelling plot it would be a joy to watch.", "is_fresh": 1, "author": ["Josh Bell"]},
{"text": "This is not the first time Pixar's animators have been engaged with the natural world, but they've never been as deeply immersed as they are in this undersea Fantasia.", "is_fresh": 1, "author": ["Sandra Hall"]},
{"text": "Is this kid's stuff? That's a complicated question but the answer is a thing of beauty that will have children enchanted hook, line and sinker.", "is_fresh": 1, "author": ["Shannon J. Harvey"]},
{"text": "There are so many subtle jokes, or little bits of insight into these fish's minds, it proves yet again that Pixar strives to make a complete experience instead of just 'some cool-looking graphics.'", "is_fresh": 1, "author": ["Shawn Bowers"]},
{"text": "There are 3.7 trillion ideas in Hollywood for an animated film; Disney and Pixar have found another one audiences won't be able to resist.", "is_fresh": 1, "author": ["Kevin A. Ranson"]},
{"text": "Finding Nemo will please audiences of all ages with its raucous spirit and outrageous moments.", "is_fresh": 1, "author": ["Wesley Lovell"]},
{"text": "There is beauty and brilliance in every frame.", "is_fresh": 1, "author": ["Nev Pierce"]},
{"text": "La originalidad de sus universos y personajes, lo disparatado y divertido de sus situaciones, la inteligencia de muchos di\u00e1logos, y la reconocible humanidad con que los animadores visten a sus criaturas, son los principales ingredientes que contribuyen a", "is_fresh": 1, "author": ["Enrique Buchichio"]},
{"text": "It was one of those instances where I found myself recounting out loud the funniest moments to someone who just saw the movie with me.", "is_fresh": 1, "author": ["Michael Drakulich"]},
{"text": "A expressividade dos personagens \u00e9 tamanha que os di\u00e1logos tornam-se at\u00e9 mesmo dispens\u00e1veis.", "is_fresh": 1, "author": ["Pablo Villa\u00e7a"]},
{"text": "For obvious reasons (no toys!), this feels like a much more grown-up film than previous Disney-Pixar movies.", "is_fresh": 1, "author": ["Rich Cline"]},
{"text": "Crafted with such care that the story, characters and colours positively pulsate.", "is_fresh": 1, "author": ["Kim Linekin"]},
{"text": "'Entra\u00f1able, divertida y profundamente humana, es una obra de arte imprescindible.'", "is_fresh": 1, "author": ["Jorge Avila Andrade"]},
{"text": "You know exactly how this one ends; yet getting there is such an enjoyable delight.", "is_fresh": 1, "author": ["Tom Meek"]},
{"text": "Beats any Disney animated film through 1960 and probably a good deal later.", "is_fresh": 1, "author": ["Mark R. Leeper"]},
{"text": "If only my hometown Seattle Mariners had batting averages like the group at Pixar does.", "is_fresh": 1, "author": ["Sara Michelle Fetters"]},
{"text": "This movie reaffirmed my love for the cinema.", "is_fresh": 1, "author": ["Matt Easterbrook"]},
{"text": "It's the brilliant animation and witty script that lift this film from retread material to sublime entertainment for kids and - equally - their parents.", "is_fresh": 1, "author": ["Brian Webster"]},
{"text": "Pixar's masterpiece. It feels dizzy with color and drunk on its own otherworldly creation. Sure, it derives most of its splendor from what actually exists on our ocean floors, but that doesn't make it any less wondrous.", "is_fresh": 1, "author": ["Collin Souter"]},
{"text": "Each frame of Finding Nemo is a visual delight.", "is_fresh": 1, "author": ["James Kendrick"]},
{"text": "[Once again Pixar] ensures that the label 'family film' isn't 'a movie only your tots will enjoy' but something that actually is for everyone.", "is_fresh": 1, "author": ["Ryan Cracknell"]},
{"text": "\"Finding Nemo\" was funny and a little scary, at least for the little tykes.", "is_fresh": 1, "author": ["Dan Marcucci and Nancy Serougi"]},
{"text": "The amazing thing about Pixar is that in every film, I go in with incredibly high, unrealistic expectations, & they always excel beyond them.", "is_fresh": 1, "author": ["Karina Montgomery"]},
{"text": "Simply the most entertaining movie you'll see all year.", "is_fresh": 1, "author": ["Garth Franklin"]},
{"text": "I don't know how the staff of Pixar does it, but this is their fifth overwhelming achievement in a row.", "is_fresh": 1, "author": ["Mark Dujsik"]},
{"text": "A clown fish without a punchline, a blue tang without a memory, a scarred prison hero fish, and a stoner dude sea turtle make for this summer's tallest fish tale.", "is_fresh": 1, "author": ["Jeet Thayil"]},
{"text": "...the movie is chock-full of color and fun, ambitiously gliding through one vibrant scene after another as it reveals an engaging and beautiful world...", "is_fresh": 1, "author": ["David Keyes"]},
{"text": "Like Toy Story, A Bug's Life, and Monster's Inc., it features amazing animation, great characters, sharp wit, smart humor, and a story both timeless and timely.", "is_fresh": 1, "author": ["Renie Scolaro Mora"]},
{"text": "An enchanting animated feature.", "is_fresh": 1, "author": ["Jami Bernard"]},
{"text": "Latest computer-animated offering from Pixar is a giant leap forward visually, even if the story treads familiar ground ... uh, water.", "is_fresh": 1, "author": ["James Rocchi"]},
{"text": "Although Finding Nemo reaches a new watermark in animation, it doesn't have the endearing characters or driving plot of Toy Story and Monsters, Inc. But then, classics are tough acts to follow.", "is_fresh": 1, "author": ["Susan Tavernetti"]},
{"text": "...Finding Nemo\" captures the audience with vastly touching characters the audience really cares about.", "is_fresh": 1, "author": ["Tony Toscano"]},
{"text": "A thing of beauty, hugely entertaining and way cool.", "is_fresh": 1, "author": ["Peter Travers"]},
{"text": "The artwork is gorgeous and the characters are strong.", "is_fresh": 1, "author": ["Robert Roten"]},
{"text": "Another extraordinary effort from the unbeatable Disney/Pixar team.", "is_fresh": 1, "author": ["Audrey Rock-Richardson"]},
{"text": "The animation team gives weight and depth to the sea itself, filling it with specks of life and creating a sense of movement with currents and bubbles.", "is_fresh": 1, "author": ["Massimo Commanducci"]},
{"text": "The junior set will most definitely enjoy the jokes and the yarn, but it will be the adults who learn the biggest lessons this time around.", "is_fresh": 1, "author": ["Charlie Brown"]},
{"text": "The peerless partnership of Disney and Pixar is officially five-for-five.", "is_fresh": 1, "author": ["Jonathan R. Perry"]},
{"text": "Pixar respects both kids and parents-which cannot be said for certain big green ogres of animation.", "is_fresh": 1, "author": ["Stephen Himes"]},
{"text": "Several scenes are scarier than Edward Norton's mustache in \"The Italian Job.\"", "is_fresh": 1, "author": ["Beth Jones"]},
{"text": "The latest feature from Pixar Animation is another splendid, eye-filling installment in the studio's unbroken string of classics.", "is_fresh": 1, "author": ["Jim Lane"]},
{"text": "More than just high calorie viscera, Finding Nemo is the best American comedy in two years.", "is_fresh": 1, "author": ["Mark Palermo"]},
{"text": "Finding Nemo is undoubtedly another jewel in the Pixar crown and another example of the Disney conglomerate's ability to ride that company's coattails to success.", "is_fresh": 1, "author": ["John R. McEwen"]},
{"text": "\"Finding Nemo\" is a whale of a treat.", "is_fresh": 1, "author": ["Linda Cook"]},
{"text": "I challenge any adult to ignore the artistry of the amazing opaque jellyfish floating through the ocean. The animation is incredible.", "is_fresh": 1, "author": ["Michael Szymanski"]},
{"text": "Finding Nemo captures a level of wonderment and dark sentiment unmatched even by the previous great works of Pixar. Walt Disney's throne is very much at risk.", "is_fresh": 1, "author": ["Jimmy O"]},
{"text": "Winning, invigorating entertainment for the entire family -- technically brilliant, attentive to detail, and precisely tuned between story and character.", "is_fresh": 1, "author": ["Brent Simon"]},
{"text": "Proof that Pixar is the Babe Ruth of animation. Still batting a thousand.", "is_fresh": 1, "author": ["Eric Lurio"]},
{"text": "Finding Nemo is terrific entertainment.", "is_fresh": 1, "author": ["Richard Roeper"]},
{"text": ". . . the computer animation reimaginings of the undersea orgies of color orchestrated by nature are mind-blowing.", "is_fresh": 1, "author": ["Glenn Kenny"]},
{"text": "C'mon, it's Pixar. Would you expect anything less than perfection?", "is_fresh": 1, "author": ["Elias Savada"]},
{"text": "Visually stunning but dragged down somewhat by insipid dialogue.", "is_fresh": 1, "author": ["Harvey S. Karten"]},
{"text": "There's real heart in this movie without needing lots of superficial whiz-bang stuff.", "is_fresh": 1, "author": ["Mike McGranaghan"]},
{"text": "A surprisingly touching metaphor for how a parent's natural impulse is to be overprotective but one needs to have trust in their kids and let them leave their life.", "is_fresh": 1, "author": ["Kevin N. Laforest"]},
{"text": "Continually floods the viewer with more extraordinary sensory input than anything previously.", "is_fresh": 1, "author": ["Marc Savlov"]},
{"text": "Colorful and entertaining for kids and witty enough to engage adults.", "is_fresh": 1, "author": ["Annlee Ellingson"]},
{"text": "I have never been to Australia, but I just can't imagine scenery more beautiful.", "is_fresh": 1, "author": ["Danny Minton"]},
{"text": "Fast, funny and brackisly beautiful.", "is_fresh": 1, "author": ["Boo Allen"]},
{"text": "If Pixar was fishing for another big catch in their stable of entertaining hits, Nemo is the prized filmmaking flounder that takes the absolute bait.", "is_fresh": 1, "author": ["Frank Ochieng"]},
{"text": "The plot is delightful, the animation spectacular ... the colors gorgeous, the message positive and the score by Thomas Newman fitting.", "is_fresh": 1, "author": ["Jean Lowerison"]},
{"text": "A gem of a movie, and exactly what we expect from our friends at Pixar.", "is_fresh": 1, "author": ["Eric D. Snider"]},
{"text": "It turns out that Pixar does fish like nobody does fish.", "is_fresh": 1, "author": ["David Edelstein"]},
{"text": "Finding Nemo is superlative family entertainment, joyous and alive in a way few films are.", "is_fresh": 1, "author": ["Dustin Putman"]},
{"text": "..the computer animated imagery is once again exquisite... The bad side, the story line is only pleasant.", "is_fresh": 1, "author": ["Josh Gilchrist"]},
{"text": "The computer graphics create a visual world that you would actually see if you dived down 50 feet on a coral reef", "is_fresh": 1, "author": ["Robin Clifford"]},
{"text": "With its phenomenal animation and heart-warming story, Finding Nemo is a resounding hit with this daddy-daughter combo.", "is_fresh": 1, "author": ["Matt Norris"]},
{"text": "My fondest wish is that Pixar doesn't hire or fire anyone for the next 25 years. What these magicians are capable of is nothing less than pure cinematic gold.", "is_fresh": 1, "author": ["Scott Weinberg"]},
{"text": "A hundred different little moments constantly impress either with their use of movement and light or their use of stillness and darkness.", "is_fresh": 1, "author": ["Jeffrey M. Anderson"]},
{"text": "far more sophisticated and ambitious than what typically passes for 'family entertainment.' ...manages to be extremely funny, thrilling and sometimes a little scary as well.", "is_fresh": 1, "author": ["James Sanford"]},
{"text": "As notable for its well-crafted story as it is for its breathtaking animation.", "is_fresh": 1, "author": ["Dan Fazio"]},
{"text": "A captivating and richly resonant aquatic fable, with characters whose gills and fins belie their deliciously human (that is, flawed) personalities.", "is_fresh": 1, "author": ["Michael O'Sullivan"]},
{"text": "Finding Nemo will engross kids with its absorbing story, brightly drawn characters and lively action, and grown-ups will be equally entertained by the film's subtle humor and the sophistication of its visuals.", "is_fresh": 1, "author": ["Ann Hornaday"]},
{"text": "The visuals pop, the fish emote and the ocean comes alive. That's in the first two minutes. After that, they do some really cool stuff.", "is_fresh": 1, "author": ["C.W. Nevius"]},
{"text": "In not just a crowd-grabber but an instant classic, Albert Brooks achieves a new height vocally as Marlin, the dad.", "is_fresh": 1, "author": ["David Elliott"]},
{"text": "DeGeneres does vocal duties by which all future voiceovers and dubs will be judged.", "is_fresh": 1, "author": ["Joe Baltake"]},
{"text": "Strikes the perfect balance between the charm and childlike innocence of Disney animation and the cutting-edge humor and hipness of the old Warner Brothers cartoons.", "is_fresh": 1, "author": ["Jack Garner"]},
{"text": "On its visual elements alone, Finding Nemo could get almost any kid started on a love of nature -- even if us older specimens know that it's a deep understanding of human nature that keeps the whole thing swimming.", "is_fresh": 1, "author": ["Steve Schneider"]},
{"text": "More familiar in its story line and characters than previous Pixar films, it's nevertheless stuffed with wit, energy, charm and clever touches.", "is_fresh": 1, "author": ["Shawn Levy"]},
{"text": "A captivating little adventure that gives its animated characters as much heart as personality and that's a heaping helping in both cases.", "is_fresh": 1, "author": ["Louis B. Hobson"]},
{"text": "PIxar's fifth feature-length film continues an uninterrupted string of winners; and from a visual standpoint, it's the studio's finest effort.", "is_fresh": 1, "author": ["Forrest Hartman"]},
{"text": "Even though Finding Nemo isn't Pixar's best, this animated comedy-adventure is still more imaginative and more clever in any five of its 100 minutes than most films manage in a full 90 minutes... or 120, for that matter.", "is_fresh": 1, "author": ["Jeff Vice"]},
{"text": "An exquisitely touching saga about a father tracking down his lost son.", "is_fresh": 1, "author": ["Lisa Kennedy"]},
{"text": "One of those rare movies where I wanted to sit in the front row and let the images wash out to the edges of my field of vision.", "is_fresh": 1, "author": ["Roger Ebert"]},
{"text": "Finding Nemo isn't quite up there with the company's finest work -- there's finally a sense of formula setting in -- but it's hands down the best family film since Monsters, Inc.", "is_fresh": 1, "author": ["Ty Burr"]},
{"text": "For a computer-generated cartoon to provoke laughs, thrills and a few tears, that's not just a great movie -- that's perfection in pixels.", "is_fresh": 1, "author": ["Sean P. Means"]},
{"text": "Add water and you have an instant Disney/Pixar classic.", "is_fresh": 1, "author": ["Paul Clinton (CNN.com)"]},
{"text": "What's unique and joyous is that it creates a whirl of slapstick and sentiment all its own, in an environment so otherworldly and beautiful that leaving the theater will give you the bends.", "is_fresh": 1, "author": ["Michael Sragow"]},
{"text": "A vivid charmer of a movie that makes a welcome addition to the growing gallery of computer-generated animated features.", "is_fresh": 1, "author": ["Robert Denerstein"]},
{"text": "I really can't remember an animated feature in which the voice work sounded so accomplished, redolent with emotional subtleties and crack comic timing.", "is_fresh": 1, "author": ["Bob Strauss"]},
{"text": "A superb animated film.", "is_fresh": 1, "author": ["Ray Conlogue"]},
{"text": "Absolutely beautiful to look at, even when it has a bad case of the cutes.", "is_fresh": 1, "author": ["Bill Gallo"]},
{"text": "Pixar is so consistent that reviews of their films basically write themselves. Finding Nemo is greatness!", "is_fresh": 1, "author": ["John Venable"]},
{"text": "Just when you thought they couldn't possibly do it again, the guys at Pixar bat it out of the park with Finding Nemo.", "is_fresh": 1, "author": ["Kit Bowen"]},
{"text": "What a catch - this whopper of a fish tale takes you beyond the sea.", "is_fresh": 1, "author": ["Cherryl Dawson and Leigh Ann Palone"]},
{"text": "A gem, popping with cool tropical colors and wondrous sea creatures.", "is_fresh": 1, "author": ["Scott Von Doviak"]},
{"text": "The moment all the gorgeously rendered inhabitants of this beautiful undersea realm open their mouths, they sound surprisingly, and rather depressingly, human.", "is_fresh": 1, "author": ["MaryAnn Johanson"]},
{"text": "One of the strongest releases from Disney in years, thanks to the work of Andrew Stanton, possibly one of the most successful directors you've never heard of.", "is_fresh": 1, "author": ["Daphne Gordon"]},
{"text": "Enchanting; written with an effortless blend of sweetness and silliness, and animated with such rainbow-hued beauty, you may find yourself wanting to freeze-frame it.", "is_fresh": 1, "author": ["Moira MacDonald"]},
{"text": "A near perfect example of movie magic that will appeal to viewers of all ages.", "is_fresh": 1, "author": ["Jim Judy"]},
{"text": "It's business as usual -- the usual being stunning visuals, a charming story, and a dab of emotional resonance thrown in for good measure.", "is_fresh": 1, "author": ["Gary Thompson"]},
{"text": "Constantly delights and refreshes the eye -- it's a summer vacation in itself.", "is_fresh": 1, "author": ["Bob Campbell"]},
{"text": "A dazzling, computer-animated fish tale with a funny, touching script and wonderful voice performances that make it an unqualified treat for all ages.", "is_fresh": 1, "author": ["Lou Lumenick"]},
{"text": "Once again, the team at Pixar proves that the freshest, most entertaining films coming out of Hollywood today are the animated kind.", "is_fresh": 1, "author": ["Joe Lozito"]},
{"text": "As with all of Pixar's earlier efforts, the animation in this movie is superb. They just keep getting better.", "is_fresh": 1, "author": ["Scott Nash"]},
{"text": "A simple test of humanity: If you don't laugh aloud while watching it, you've got a battery not a heart.", "is_fresh": 1, "author": ["Tom Long"]},
{"text": "The creatures in Finding Nemo are more real than some flesh and blood actors.", "is_fresh": 1, "author": ["Rebecca Murray"]},
{"text": "Those Pixar strengths -- story, humor, characters, and art ... shine through, more dependable than rising of the ocean tides.", "is_fresh": 1, "author": ["Jeffrey Chen"]},
{"text": "Saying that Finding Nemo is Pixar's weakest effort to date is like a starving man telling you the third piece of pizza you've given him wasn't as good as the first.", "is_fresh": 1, "author": ["Erik Childress"]},
{"text": "Isn't quite as clever and wonderful as we've come to expect. Even as such, it remains pretty clever and wonderful.", "is_fresh": 1, "author": ["Eugene Novikov"]},
{"text": "Forget about being a great kids movie -- Finding Nemo is just a great movie.", "is_fresh": 1, "author": []},
{"text": "Lives up to Pixar's high standards for wildly creative visuals, clever comedy, solid characters and an involving story.", "is_fresh": 1, "author": ["Bruce Westbrook"]},
{"text": "Basically another winner, though it can't quite muster the kind of emotional tug that appeals to all generations and made several of the earlier Pixar films such instant classics.", "is_fresh": 1, "author": ["William Arnold"]},
{"text": "Pixar has done it again.", "is_fresh": 1, "author": ["Todd Anthony"]},
{"text": "Treats family audiences to a sweet, resonant story and breathtaking visuals.", "is_fresh": 1, "author": ["Claudia Puig"]},
{"text": "As we now expect from Pixar, even the supporting fish in \"Finding Nemo\" are more developed as characters than any human in the Mission: Impossible movies.", "is_fresh": 1, "author": ["Terry Lawson"]},
{"text": "So advanced - with lifelike motion and imagination-tingling artwork stroked with a silicon paintbrush - that it makes its predecessors come off as crude, ancient scrawlings on a cave wall.", "is_fresh": 1, "author": ["Phil Villarreal"]},
{"text": "...a parable for parents terrified at the thought of preschool.", "is_fresh": 1, "author": ["Josh Larsen"]},
{"text": "Rarely matches the emotional depth or richly textured worlds of predecessors Monsters, Inc. and A Bug's Life, but it has a sly sense of humor and evocative voice acting.", "is_fresh": 1, "author": ["Duane Dudek"]},
{"text": "Pixar heads under the sea and finds subject matter that couldn't be more perfectly suited to its vivid style of computer animation.", "is_fresh": 1, "author": ["Angel Cohn"]},
{"text": "There may be plenty of fish in the sea (for now, anyway), but few films can manipulate you like Finding Nemo and have you not mind.", "is_fresh": 1, "author": ["Tor Thorsen"]},
{"text": "Visual imagination and sophisticated wit raise Finding Nemo to a level just below the peaks of Pixar's Toy Story movies and Monsters, Inc..", "is_fresh": 1, "author": ["Stephen Holden"]},
{"text": "Erupts with sea creatures that showcase Stanton and company's gift for character and peerless eye for skewering contemporary culture.", "is_fresh": 1, "author": ["Kenneth Turan"]},
{"text": "A fish story that hooks you from the opening scene.", "is_fresh": 1, "author": ["Bill Muller"]},
{"text": "Delivers with a colorful, lush and witty world under the sea.", "is_fresh": 1, "author": ["Nancy Churnin"]},
{"text": "The best animated underwater picture since The Little Mermaid.", "is_fresh": 1, "author": ["Gregory M. Lamb"]},
{"text": "As eye-popping as Nemo's peepers and as eccentric as this little fish with asymmetrical fins.", "is_fresh": 1, "author": ["Carrie Rickey"]},
{"text": "Parental anxiety may not be the kind of stuff children's films are usually made of, but this perfectly enchanting movie knows how to cater to its kiddie audience without condescending to them.", "is_fresh": 1, "author": ["Rene Rodriguez"]},
{"text": "Pixar's employees, masters of computer-generated animation, capture the look of the ocean like no artists before.", "is_fresh": 1, "author": ["Lawrence Toppman"]},
{"text": "There wasn't one element I didn't love about this captivating movie.", "is_fresh": 1, "author": ["Mary F. Pols"]},
{"text": "Fish, schmish. This is a movie about humanity, and I doubt if we'll see a more compelling father/son relationship this year.", "is_fresh": 1, "author": ["Chris Hewitt (St. Paul)"]},
{"text": "Spectacular visuals, non-stop laughs and action -- plus a PC message. That's some package, no?", "is_fresh": 1, "author": ["Glenn Lovell"]},
{"text": "Pixar's super genius continues to flow with no ebb in sight.", "is_fresh": 1, "author": ["Jeffrey Westhoff"]},
{"text": "Lives up to the proud, relatively new tradition of Monsters, Inc., A Bug's Life and the Toy Story films.", "is_fresh": 1, "author": ["Jay Boyar"]},
{"text": "The underwater backdrops take your breath away. No, really. They're so lifelike, you almost feel like holding your breath while watching.", "is_fresh": 1, "author": ["Gene Seymour"]},
{"text": "Proves that even when Pixar is not at the top of its game, it still produces better animation than some of its competitors on their best days.", "is_fresh": 1, "author": ["Jeff Strickler"]},
{"text": "As gorgeous a film as Disney's ever put out, with astonishing qualities of light, movement, surface and color at the service of the best professional imaginations money can buy.", "is_fresh": 1, "author": ["Hazel-Dawn Dumpert"]},
{"text": "A treasure trove of visual splendor.", "is_fresh": 1, "author": ["James Berardinelli"]},
{"text": "You connect to these sea creatures as you rarely do with humans in big-screen adventures. The result: a true sunken treasure.", "is_fresh": 1, "author": ["Mark Caro"]},
{"text": "It's full of bright visuals, inventive animation and enough cute characters to fill, well, an ocean.", "is_fresh": 1, "author": ["Eleanor Ringel Cater"]},
{"text": "Finding Nemo is a witty and epic adventure packed in unlikely wrapping.", "is_fresh": 1, "author": ["Rachel Deahl"]},
{"text": "Is Pixar capable of making a bad film? Whether a serendipitous confluence of talent or. . .some divine being at work in our world, either way, the answer, I think, must be no.", "is_fresh": 1, "author": ["Andrea Chase"]},
{"text": "There's nothing fishy about its success. It's got intriguing anthropomorphic characters, a compelling story and Pixar's fanciful computer-generated animation. It's fun, bubbly, fantastic. Sea it!", "is_fresh": 1, "author": ["Susan Granger"]},
{"text": "You won't need a map to unearth the treasures buried in Nemo.", "is_fresh": 1, "author": ["Sean O'Connell"]},
{"text": "Thanks to a solid script by director Andrew Stanton (a Pixar regular), many of the human actors who give voices to the computer-generated fish wind up becoming more engaging than when they appear in flesh-and-blood.", "is_fresh": 1, "author": ["Dan Lybarger"]},
{"text": "Unlike the greatest children's films, I never once forgot who the target market for Finding Nemo really was.", "is_fresh": 0, "author": ["Steven Snyder"]},
{"text": "The concept of a fish with short-term memory loss sounded dubiously annoying, but DeGeneres just swims off with it", "is_fresh": 1, "author": ["Laura Clifford"]},
{"text": "It's the give-and-take between DeGeneres and Brooks that gives the saga its big heart.", "is_fresh": 1, "author": ["Sheri Linden"]},
{"text": "Children and adults alike should be enchanted...as quietly charming, cheekily amusing a family feature as you're likely to encounter this summer.", "is_fresh": 1, "author": ["Frank Swietek"]},
{"text": "... with Father's Day just a few weeks away...'Nemo' swims off with hearts of all ages.", "is_fresh": 1, "author": ["John Urbancich"]},
{"text": "With the release of Finding Nemo, the creative team at Pixar has redefined what is known as being 'on a role.'", "is_fresh": 1, "author": ["Alex Sandell"]},
{"text": "Further proof that the folks at Pixar are ceaselessly, unflaggingly more clever and imaginative than anyone else working in big-budget feature animation.", "is_fresh": 1, "author": ["Rob Blackwelder"]},
{"text": "A rousing underwater adventure set in the Great Barrier Reef that celebrates youthful independence and lances the illusion that parents can make the world safe for their children.", "is_fresh": 1, "author": ["Frederic and Mary Ann Brussat"]},
{"text": "It's an ocean of eye candy that tastes fresh even in this ADD-addled era of SpongeBob SquarePants.", "is_fresh": 1, "author": ["Ed Park"]},
{"text": "Yet another quantum leap for the Pixar folk.", "is_fresh": 1, "author": ["J. Robert Parks"]},
{"text": "I can't say that this movie was as exciting, original or captivating as many of its predecessors and would recommend it more to the toddlers.", "is_fresh": 1, "author": ["JoBlo"]},
{"text": "A great film for its timeliness, and a greater film for its timelessness.", "is_fresh": 1, "author": ["Walter Chaw"]},
{"text": "Pixar has interlaced its energetic storyline with the moody strains of a classic Thomas Newman score, lending an element of darkness that ingeniously penetrates the perpetual submarine light.", "is_fresh": 1, "author": ["Jeanne Aufmuth"]},
{"text": "Finding Nemo is cute and clever, but it's no Toy Story, A Bug's Life or Monsters, Inc.", "is_fresh": 1, "author": ["Steve Rhodes"]},
{"text": "Creates a very high benchmark for this summer's other films to strive to best, and I don't think any of them will.", "is_fresh": 1, "author": ["Jon Popick"]},
{"text": "Could have been stronger, but it's still fun and has good heart. Ditto to what Steve Rhodes said.", "is_fresh": 1, "author": ["Ross Anthony"]},
{"text": "Another masterful piece of family entertainment from Pixar.", "is_fresh": 1, "author": ["Daniel Etherington"]},
{"text": "A wonderfully engaging entertainment that is a visual masterpiece as well as a darn good tale with loads of humour and excitement to appeal to the child in all of us.", "is_fresh": 1, "author": ["Clint Morris"]},
{"text": "Finding Nemo merely transplants human suburban anxiety to an underwater realm.", "is_fresh": 1, "author": ["Ed Gonzalez"]},
{"text": "Another terrific Pixar pic for all generations.", "is_fresh": 1, "author": ["Shirley Sealy"]},
{"text": "Finding Nemo is like a great foreign film, its visual and energy having such clarity that subtitles (or words or stories) are almost unnecessary.", "is_fresh": 1, "author": ["David Poland"]},
{"text": "No doubt, Finding Nemo marks yet another huge advance in the world of animation. The technical term for these advances, in layman's language, is \"Holy mackerel!\"", "is_fresh": 1, "author": ["Liz Braun"]},
{"text": "", "is_fresh": 1, "author": ["Emanuel Levy"]},
{"text": "", "is_fresh": 1, "author": ["Daniel Kasman"]},
{"text": "", "is_fresh": 1, "author": []}
]