[
{"reviews_count": "38", "title": "Flash Gordon", "avg_audience_rating": "3.1", "rotten_count": "7", "tomatometer": "82", "audience_score": "69", "avg_critic_rating": "6.4", "fresh_count": "31", "user_ratings_count": "46,613"},
{"text": "While it's not the best of the sci-fi genre, you don't have to go to a galaxy far, far away to enjoy every minute of it.", "is_fresh": 1, "author": ["Jeffrey Lyles"]},
{"text": "There's plenty of colourful fun and an awful lot of men in tights. Don't listen to its pofaced detractors -- for sheer cinema fun, Flash Gordon can't be beaten.", "is_fresh": 1, "author": []},
{"text": "...a terminally underwhelming sci-fi epic that may keep small children amused, admittedly, but will leave adults bored to tears.", "is_fresh": 0, "author": ["David Nusair"]},
{"text": "This is like a drug-induced sexy fever dream of what the 80s had turned into for much of science fiction cinema.", "is_fresh": 1, "author": ["Kevin Carr"]},
{"text": "With gaudy sets and costumes by Fellini's favourite designer, Danilo Donati, and ultra-camp performances throughout, this is a film that positively revels in its cheesiness.", "is_fresh": 1, "author": ["Jason Best"]},
{"text": "Sci-fi comic-strip movie is too violent for younger kids.", "is_fresh": 1, "author": ["Charles Cassady"]},
{"text": "I'm guessing nine out of ten people would rather watch the bearded, barrel-shaped Blessed--strapped to giant wings--bellow, 'Impetuous boy! Oh well, who wants to live forever? Diiiive!' than watch Olivier deliver 'To be or not to be...' [Blu-ray]", "is_fresh": 1, "author": ["Peter Canavese"]},
{"text": "The expensive new version of Flash Gordon is a lot more gaudy, and just as dumb, as the original series starring Buster Crabbe.", "is_fresh": 0, "author": ["Variety Staff"]},
{"text": "a great camp classic", "is_fresh": 1, "author": ["Stefan Birgir Stefansson"]},
{"text": "Taken solely as a pop wedge of cheese, it's beautifully realized. As for the empty-headed dialogue and the puerile plot, isn't it obvious those are both part of the point?", "is_fresh": 1, "author": ["Rob Gonsalves"]},
{"text": "The film literally explodes with a festival of colors and opulent costume design. It lends the movie a majestic spilled-cocaine imprint that's unmistakable and urges the film into distinctive areas of presentation George Lucas could never follow", "is_fresh": 1, "author": ["Brian Orndorf"]},
{"text": "About the only thing that isn't red in this movie is the blood", "is_fresh": 1, "author": ["Shane Burridge"]},
{"text": "Young kids will probably enjoy this one, but anyone over 10 years old can forget it, as Lorenzo Semple's script pokes more fun at the audience's intelligence than at the story.", "is_fresh": 0, "author": []},
{"text": "A respectable time-waster.", "is_fresh": 1, "author": ["Dave Kehr"]},
{"text": "Glossy sci-fi fun, although ultimately pretty empty.", "is_fresh": 1, "author": ["Steve Crum"]},
{"text": "The narrative is a little plodding, but adult punters will soon slip back into areverie for the lost visions of Saturday morning cinema.", "is_fresh": 1, "author": []},
{"text": "Laughably bad and fantastically good all at once, this is a guilty pleasure that everyone can enjoy.", "is_fresh": 1, "author": ["Adam Smith"]},
{"text": "One of the great \"bad\" movies of the decade.", "is_fresh": 1, "author": ["Eric Lurio"]},
{"text": "Is it fun? Yeah, sort of, it is.", "is_fresh": 1, "author": ["Roger Ebert"]},
{"text": "Quite possibly the greatest movie ever made, and I thoroughly distrust anyone who suggests otherwise.", "is_fresh": 1, "author": ["Luke Y. Thompson"]},
{"text": "It's garish goofiness is part of its charm", "is_fresh": 1, "author": ["Jon Niccum"]},
{"text": "Camped up and wrong headed in the extreme.", "is_fresh": 0, "author": ["Ken Hanke"]},
{"text": "A soundtrack by Queen is one of the highlights of this film actualization of the comic strip. The crazy set design and costumes are also dead-on replicas of the strip.", "is_fresh": 1, "author": ["Marjorie Baumgarten"]},
{"text": "If only Ming the Merciless had turned his death ray on the producers...", "is_fresh": 0, "author": ["Rob Vaux"]},
{"text": "For most viewers Flash Gordon is the reason why phrases like 'guilty pleasure' entered vocabularies.", "is_fresh": 1, "author": ["Dragan Antulov"]},
{"text": "a total bomb; an insult to the original serials; not even good camp.", "is_fresh": 0, "author": ["Bob Bloom"]},
{"text": "An irrelevant campy sci-fier.", "is_fresh": 0, "author": ["Dennis Schwartz"]},
{"text": "If you feel like camping it up, then rent this one.", "is_fresh": 1, "author": ["James O'Ehley"]},
{"text": "He will save every one of us!", "is_fresh": 1, "author": ["Christopher Null"]},
{"text": "Camp classic of the colorful kind.", "is_fresh": 1, "author": ["Scott Weinberg"]},
{"text": "This Eighties re-imagining of the classic early matinee series has gone to great lengths to get all the right elements in place.", "is_fresh": 1, "author": ["Jennie Kermode"]},
{"text": "", "is_fresh": 1, "author": ["Emanuel Levy"]},
{"text": "", "is_fresh": 1, "author": ["Robin Clifford"]},
{"text": "", "is_fresh": 1, "author": ["James Hill"]},
{"text": "", "is_fresh": 1, "author": ["Nell Minow"]},
{"text": "", "is_fresh": 1, "author": ["Jeffrey Westhoff"]},
{"text": "", "is_fresh": 1, "author": ["Philip Martin"]},
{"text": "", "is_fresh": 1, "author": ["Rob Blackwelder"]},
{"text": "While it's not the best of the sci-fi genre, you don't have to go to a galaxy far, far away to enjoy every minute of it.", "is_fresh": 1, "author": ["Jeffrey Lyles"]},
{"text": "There's plenty of colourful fun and an awful lot of men in tights. Don't listen to its pofaced detractors -- for sheer cinema fun, Flash Gordon can't be beaten.", "is_fresh": 1, "author": []},
{"text": "...a terminally underwhelming sci-fi epic that may keep small children amused, admittedly, but will leave adults bored to tears.", "is_fresh": 0, "author": ["David Nusair"]},
{"text": "This is like a drug-induced sexy fever dream of what the 80s had turned into for much of science fiction cinema.", "is_fresh": 1, "author": ["Kevin Carr"]},
{"text": "With gaudy sets and costumes by Fellini's favourite designer, Danilo Donati, and ultra-camp performances throughout, this is a film that positively revels in its cheesiness.", "is_fresh": 1, "author": ["Jason Best"]},
{"text": "Sci-fi comic-strip movie is too violent for younger kids.", "is_fresh": 1, "author": ["Charles Cassady"]},
{"text": "I'm guessing nine out of ten people would rather watch the bearded, barrel-shaped Blessed--strapped to giant wings--bellow, 'Impetuous boy! Oh well, who wants to live forever? Diiiive!' than watch Olivier deliver 'To be or not to be...' [Blu-ray]", "is_fresh": 1, "author": ["Peter Canavese"]},
{"text": "The expensive new version of Flash Gordon is a lot more gaudy, and just as dumb, as the original series starring Buster Crabbe.", "is_fresh": 0, "author": ["Variety Staff"]},
{"text": "a great camp classic", "is_fresh": 1, "author": ["Stefan Birgir Stefansson"]},
{"text": "Taken solely as a pop wedge of cheese, it's beautifully realized. As for the empty-headed dialogue and the puerile plot, isn't it obvious those are both part of the point?", "is_fresh": 1, "author": ["Rob Gonsalves"]},
{"text": "The film literally explodes with a festival of colors and opulent costume design. It lends the movie a majestic spilled-cocaine imprint that's unmistakable and urges the film into distinctive areas of presentation George Lucas could never follow", "is_fresh": 1, "author": ["Brian Orndorf"]},
{"text": "About the only thing that isn't red in this movie is the blood", "is_fresh": 1, "author": ["Shane Burridge"]},
{"text": "Young kids will probably enjoy this one, but anyone over 10 years old can forget it, as Lorenzo Semple's script pokes more fun at the audience's intelligence than at the story.", "is_fresh": 0, "author": []},
{"text": "A respectable time-waster.", "is_fresh": 1, "author": ["Dave Kehr"]},
{"text": "Glossy sci-fi fun, although ultimately pretty empty.", "is_fresh": 1, "author": ["Steve Crum"]},
{"text": "The narrative is a little plodding, but adult punters will soon slip back into areverie for the lost visions of Saturday morning cinema.", "is_fresh": 1, "author": []},
{"text": "Laughably bad and fantastically good all at once, this is a guilty pleasure that everyone can enjoy.", "is_fresh": 1, "author": ["Adam Smith"]},
{"text": "One of the great \"bad\" movies of the decade.", "is_fresh": 1, "author": ["Eric Lurio"]},
{"text": "Is it fun? Yeah, sort of, it is.", "is_fresh": 1, "author": ["Roger Ebert"]},
{"text": "Quite possibly the greatest movie ever made, and I thoroughly distrust anyone who suggests otherwise.", "is_fresh": 1, "author": ["Luke Y. Thompson"]}
]