[
{"reviews_count": "152", "title": "Glory Road", "avg_audience_rating": "3.6", "rotten_count": "67", "tomatometer": "56", "audience_score": "81", "avg_critic_rating": "5.9", "fresh_count": "85", "user_ratings_count": "338,641"},
{"text": "If you're a basketball fan, you'll love it. If you're a parent looking for movie inspiration for your offspring, see it as a family outing. For everyone else, Glory Road is an accessible time capsule of American history.", "is_fresh": 1, "author": ["Marcianne Miller"]},
{"text": "Like most sports films Glory Road works best when it is actually showcasing its sport ... off the court, however, it's alternately flat and didactic. Director Gartner goes to great pains to drill the films message in, early and often.", "is_fresh": 0, "author": ["Joshua Starnes"]},
{"text": "Glory Road doesn't have any of the individual moments that humanized Hoosiers, The Rookie, and Miracle. It's a feel-good sports movie by the numbers.", "is_fresh": 0, "author": ["Tony Macklin"]},
{"text": "Playing out like Remember The Titans for basketball fans, Glory Road is yet another would-be inspirational true story that follows sports-movie conventions.", "is_fresh": 0, "author": ["Tim Grierson"]},
{"text": "First-time director James Gartner observes all the rituals--the coach busting chops, the team sneaking out to party--but the players are indifferently characterized and the civil rights story has a fake Black History Month feel.", "is_fresh": 0, "author": ["J. R. Jones"]},
{"text": "Why must Hollywood lace every African-American drama with elements of comedy, as if black people find everything comical?", "is_fresh": 0, "author": ["Kam Williams"]},
{"text": "It isn't meant to be a movie that makes us think, or that makes us uneasy in any way. It's meant to make us feel good.", "is_fresh": 0, "author": ["Jette Kernion"]},
{"text": "Trying to make a sports movie for the entire family is understandable, but it makes a complicated story like Glory Road feel more like Disney than reality.", "is_fresh": 0, "author": ["Brian Tallerico"]},
{"text": "This is the type of story that's better suited to the documentary format.", "is_fresh": 0, "author": ["Dennis Schwartz"]},
{"text": "An underdog sports movie by the numbers.", "is_fresh": 0, "author": ["Scott Tobias"]},
{"text": "Like Hoosiers, this Jerry Bruckheimer film is a David and Goliath sports saga that holds just as much suspense and interest no matter how many times you watch it.", "is_fresh": 1, "author": ["James Plath"]},
{"text": "It's Remember the Titans on the basketball court. Count it right up there with the best of Disney's fine sports flicks. ", "is_fresh": 1, "author": ["Mark Moring"]},
{"text": "History wins in by-the-numbers sports flick ...", "is_fresh": 1, "author": ["Michael Clawson"]},
{"text": "...it's ultimately rather difficult not to get caught up in this inspirational true-life tale.", "is_fresh": 1, "author": ["David Nusair"]},
{"text": "Determinado a ressaltar a import\u00e2ncia da hist\u00f3ria que est\u00e1 contando, o filme mergulha em erros factuais, manique\u00edsmos e clich\u00eas, transformando algo significativo em puro \u00e1gua-com-a\u00e7\u00facar.", "is_fresh": 0, "author": ["Pablo Villa\u00e7a"]},
{"text": "Gartner makes a hash of the game scenes and must resort to voiceover sportscasters to explain what's happening.", "is_fresh": 0, "author": ["Jim Lane"]},
{"text": "A darn good story, told with enough conviction and impact to connect with people who don't know the difference between a three-pointer and a field goal. ", "is_fresh": 1, "author": ["Matt Pais"]},
{"text": "The familiar territory covered here may leave you wishing for something that digs deeper into the soul of a sportsman's passion.", "is_fresh": 1, "author": ["Bruce Bennett"]},
{"text": "The true story is fascinating, groundbreaking and inspirational. It's a shame the cinematic treatment is predictable, conventional and trite.", "is_fresh": 0, "author": ["Todd Jorgenson"]},
{"text": "All you need to know: it's a sports movie about race produced by Jerry Bruckheimer", "is_fresh": 1, "author": ["Marty Mapes"]},
{"text": "The problem is not that they made the wrong movie, but that the movie they decided to make wasn't very good.", "is_fresh": 0, "author": ["Michael W. Phillips, Jr."]},
{"text": "Well-made, well-acted and even well-directed.", "is_fresh": 1, "author": ["Jeff Otto"]},
{"text": "A great documentary could emerge from this story -- a film that deserves it.", "is_fresh": 0, "author": ["Jonathan R. Perry"]},
{"text": "It's a safe and succinct tribute to a powerful true story, a breezy historical drama that aims for the gut more than the heart. And it succeeds in only that dimension, as an inescapably escapist one-course meal. But what history it has to work with.", "is_fresh": 0, "author": ["Steven Snyder"]},
{"text": "This would be a pretty run-of-the-mill sports movie except for one thing, its historically-significant subject matter.", "is_fresh": 1, "author": ["Robert Roten"]},
{"text": "when dealing with the blatant racism depicted here, a film should be held to a higher standard", "is_fresh": 0, "author": ["John A. Nesbit"]},
{"text": "Glory Road is another in a long line of feel-good sports movies about people who beat the odds through hard work and perseverance. We've seen it before, and we'll see it again. But that's OK. These films keep coming back for a reason.", "is_fresh": 1, "author": ["Forrest Hartman"]},
{"text": "Glory Road is a rousing and worthy tribute to one of the most important college basketball teams and one of the most important championship games of all time.", "is_fresh": 1, "author": ["Richard Roeper"]},
{"text": "I highly recommend it.", "is_fresh": 1, "author": ["Dan Marcucci and Nancy Serougi"]},
{"text": "... the real drama of the first all-black starting five to win the NCAA college basketball championship deserves more complexity and character development.", "is_fresh": 1, "author": ["Lori Hoffman"]},
{"text": "\"Glory Road\" is structured as smoothly as a well-executed game plan.", "is_fresh": 1, "author": ["Angela Baldassarre"]},
{"text": "Grappling with cliches, it's a sappy slam-dunk, formulating yet another slick underdog sports story.", "is_fresh": 0, "author": ["Susan Granger"]},
{"text": "It has a vague appeal and a comfortably detached way of storytelling. ", "is_fresh": 1, "author": ["Audrey Rock-Richardson"]},
{"text": "Paved with self-important statements from the opening whistle ... I'm surprised Rosa Parks didn't show up for the bus ride when the Miners make the NCAA tourney to play the all-white Kentucky Wildcats", "is_fresh": 0, "author": ["Thomas Delapa"]},
{"text": "It's a terrific story with great performances and players you care about. They shoot, they score, nothing but net in my book.", "is_fresh": 1, "author": ["Cherryl Dawson and Leigh Ann Palone"]},
{"text": "Despite a noble effort this film comes off as 'Hoosiers' lite", "is_fresh": 0, "author": ["Jackie K. Cooper"]},
{"text": "The team's accomplishments are here diluted into fodder for another of the producer's feel-good man-weepies.", "is_fresh": 0, "author": ["Matt Singer"]},
{"text": "Disney probably issues an instruction manual to directors assigned one of its inspirational sports movies.", "is_fresh": 0, "author": ["Mark Keizer"]},
{"text": "It's a new year, so let's run through those sports movie clich\u00e9s one more time.", "is_fresh": 0, "author": ["Pete Vonder Haar"]},
{"text": "'Glory Road' doesn't achieve cinematic glory because it fails to add personality or connect with anything below the surface.", "is_fresh": 0, "author": ["John P. McCarthy"]},
{"text": "If you've seen all of the holiday releases, and are looking for something which won't make you run out of the theater screaming, this is a good choice.", "is_fresh": 1, "author": ["Jeanne Kaplan"]},
{"text": "It was only a game, but for these seven young men, it was their way to gain respect from a predominantly white society.", "is_fresh": 1, "author": ["David Kaplan"]},
{"text": "Remember the Titans? Of course you do. And here's another great sports movie from Disney.", "is_fresh": 1, "author": ["Linda Cook"]},
{"text": "Disney runs history through the same Hollywood melodramatic redo that made Miracle, the Olympic hockey saga, such a crowd pleaser in 2004 and The Rookie a winning baseball film in 2002.", "is_fresh": 1, "author": ["Larry Ratliff"]},
{"text": "Just a retread of an age old formula. The film had the potential to do something a little different with it, but didn't take the opportunity.", "is_fresh": 0, "author": ["Mike McGranaghan"]},
{"text": "What is difficult to ascertain about Glory Road is where fact ends and fiction begins.", "is_fresh": 1, "author": ["Bob Bloom"]},
{"text": "Glory Road really isn't a bad show - it's just an obvious one - and one wishes material of this historical import had received a more refined rendering.", "is_fresh": 0, "author": ["Kimberley Jones"]},
{"text": "An absorbing film.", "is_fresh": 1, "author": ["Julian Roman"]},
{"text": "Don't demean this picture. This isn't just one of the worst sports movies of all time; it can hold its own with the worst of any genre. If you're not a basketball fan, this film is boring, manipulative, and banal. If you are a basketball fan, it's worse. ", "is_fresh": 0, "author": ["Tony Medley"]},
{"text": "A sweaty package of sports movie cliches.", "is_fresh": 0, "author": ["Christopher Smith"]},
{"text": "Similarities between Glory Road and Remember the Titans (2000) are purely intentional.", "is_fresh": 0, "author": ["Jeff Vice"]},
{"text": "Another true(ish) story of a Vietnam-era sub-Mason-Dixon Line sports team played by and for Crackers, and the topsy-turvy struggle they must all undergo when the Blacks come and make them all feel intermittently uncomfortable and angry.", "is_fresh": 0, "author": ["Jon Popick"]},
{"text": "The fact that it's loosely based on a historical event doesn't change anything. Formula is formula.", "is_fresh": 0, "author": ["Eric Lurio"]},
{"text": "Only a few quibblers are going to point out that Glory Road takes a fantastic real story and muddles it with sloppy storytelling that fails to trust the source material", "is_fresh": 0, "author": ["Dan Fienberg"]},
{"text": "Glory Road becomes that rare sports movie that realizes that buzzer-beating shots aren't the only dramatic moments in a game.", "is_fresh": 1, "author": ["Sean P. Means"]},
{"text": "... Deals with the issue of race about as realistically as can be expected from a Disney movie.", "is_fresh": 1, "author": ["Greg Maki"]},
{"text": "Glory Road, the true-ish story of the first all-black NCAA championship basketball team, throws down a 360 slam dunk in the face of racism.", "is_fresh": 1, "author": ["Gary Thompson"]},
{"text": "An appealing Disney sports movie that underplays its potential, Glory Road is at least a more satisfying basketball saga than last year's Coach Carter.", "is_fresh": 1, "author": ["Mike Clark"]},
{"text": "Even knowing the outcome, sports' fans will cheer the lightning-fast, dynamically edited on-court action that's only slowed by a few lumbering, heavy handed scenes.", "is_fresh": 1, "author": ["Ken Fox"]},
{"text": "Lacking the gritty reality of the 1994 documentary Hoop Dreams, this Jerry Bruckheimer film, directed by newcomer James Gartner, converts a year in the life of a basketball team into a very conventional triumph of the underdogs.", "is_fresh": 0, "author": ["Susan Walker"]},
{"text": "OK, so you really don't need me to tell you about Glory Road if you've ever seen a sports movie before. Just get out your sports-movie-clich\u00e9 checklist and a pencil.", "is_fresh": 0, "author": ["Moira MacDonald"]},
{"text": "Glory Road abandons the clinical and compelling storytelling of the great recent Disney hockey movie Miracle, and aims instead for the contrived sentimentality of the slightly less great Remember the Titans.", "is_fresh": 0, "author": ["Peter Hartlaub"]},
{"text": "The basketball drama Glory Road is about as smoothly predictable as a well-aimed ball arching from a hand toward a net, but is, still, inspiring.", "is_fresh": 1, "author": ["David Elliott"]},
{"text": "Somehow, Bruckheimer keeps the sentimentality to a minimum and keeps his story moving at a very nice pace: four fast quarters and a halftime.", "is_fresh": 1, "author": ["Jeffrey M. Anderson"]},
{"text": "A nice, diverting little picture that takes no risks -- a good movie that could have been a great one.", "is_fresh": 1, "author": ["Pam Grady"]},
{"text": "When a movie this corny still inspires, 'feel good' feels just right. Stay through the credits, when the 'real' coach and players talk, and you'll see the real Glory in this tale.", "is_fresh": 1, "author": ["Roger Moore"]},
{"text": "Heart and verve in surfeit makes the film rise above its flaws often enough to win you over.", "is_fresh": 1, "author": ["Shawn Levy"]},
{"text": "Really, the material is ripe for Hoop Dreams documentary treatment, but instead we get hoop hyperbole from producer Jerry Bruckheimer.", "is_fresh": 0, "author": ["Lisa Rose"]},
{"text": "As Coach Haskins would say, it wins because it sticks to the fundamentals.", "is_fresh": 1, "author": ["Kyle Smith"]},
{"text": "Glory Road is a pure Hollywood fantasy. As movie fiction, however, I guess it is entertaining enough.", "is_fresh": 1, "author": ["Jack Mathews"]},
{"text": "In the end, a sports movie is only as good as the adrenalin rush it provides in the climactic match, and there, finally, Glory Road hits on all cylinders with nonstop action and a powerful emotional impact.", "is_fresh": 1, "author": ["Connie Ogle"]},
{"text": "Glory Road's greatest strength is that it's just a great story, acted well.", "is_fresh": 1, "author": ["Bob Strauss"]},
{"text": "To the credit of everyone involved with Disney's Glory Road, all things familiar still become exhilarating and inspirational.", "is_fresh": 1, "author": ["Louis B. Hobson"]},
{"text": "It's a well-trod path, this 'via de basketball,' but Glory Road makes it worth the trip.", "is_fresh": 1, "author": ["Amy Biancolli"]},
{"text": "If the facts of the story are essentially true, their presentation is as formulaic as ever.", "is_fresh": 0, "author": ["Rick Groen"]},
{"text": "Glory Road doesn't live up to its title, but it plays a good game.", "is_fresh": 1, "author": ["John Wirt"]},
{"text": "Glory Road is a can't-lose slam dunk of a movie, the sort of film that charges right over its minor flaws thanks to good intentions, fine execution and a breathless air of excitement.", "is_fresh": 1, "author": ["Tom Long"]},
{"text": "We've all been down this Glory Road before. But just because we've already traveled it doesn't mean it's not worth a return trip. ", "is_fresh": 1, "author": ["Carol Cling"]},
{"text": "All involved with the project play the game with enthusiasm and purpose, which is all we really require from a committed team and an affirmative movie like this one.", "is_fresh": 1, "author": ["Terry Lawson"]},
{"text": "Where was Stephen A. Smith when you needed him? ", "is_fresh": 1, "author": ["Mike Ward"]},
{"text": "While Bruckheimer and Co. stretch the gospel theme too far and leave no emotional waypoint unmarked, Glory Road largely works.", "is_fresh": 1, "author": ["Michael Booth"]},
{"text": "Glory Road delivers both uplifting drama and exciting sports action in a package that's smarter than it has to be.", "is_fresh": 1, "author": ["Daniel Eagan"]},
{"text": "A well-meaning movie that slides downhill like a runaway ball of cheese.", "is_fresh": 0, "author": ["Chris Vognar"]},
{"text": "Glory Road ranks near the top of recent 'inspirational' sports movies, leaping over such efforts as the unsurprising Dreamer, and the fine but overly directed The Greatest Game Ever Played.", "is_fresh": 1, "author": ["Randy Myers"]},
{"text": "First-time director James Gartner fluidly captures the emotional crests and nadirs of such pivotal match-ups.", "is_fresh": 1, "author": ["Annlee Ellingson"]},
{"text": "Is it time already for another based-on-a-true-story feel-good Disney sports drama? Didn't that golf movie, The Greatest Game Ever Played, just come out?", "is_fresh": 0, "author": ["Wesley Morris"]},
{"text": "the story is convincingly told, and first-time director James Gartner builds it into a crowd-pleaser that belongs in a league with 'Remember the Titans' and 'Coach Carter.'", "is_fresh": 1, "author": ["James Sanford"]},
{"text": "In a day and age that has violent slasher flicks gobbling up movie-goers' box-office bucks, it's refreshing to see a film that stresses cooperation, effort and racial equality over shock value.", "is_fresh": 1, "author": ["Tyler Hanley"]},
{"text": "You know the drill. Enthusiastic, hard-driving coach arrives at a backwater school and inspires his underdog team to athletic and moral victories.", "is_fresh": 1, "author": ["Cynthia Fuchs"]},
{"text": "Interviews with the real-life Haskins and others during the closing credits are more interesting than the movie, and suggest the story of this incredible team will be told best in a future documentary. ", "is_fresh": 0, "author": ["John Beifuss"]},
{"text": "The players and coaches of Texas Western changed the sport of basketball forever; Glory Road accomplishes nothing.", "is_fresh": 0, "author": ["Joshua Tyler"]},
{"text": "...reduces a compelling, complex sports story to a fairy tale.", "is_fresh": 0, "author": ["Philip Martin"]},
{"text": "It is a perfectly nice, often times thrilling, overall remarkably superficial and glossy foray into the sporting world, just barely stepping above the cliches of the genre it so often embraces upon it's way to a feel-good climax.", "is_fresh": 1, "author": ["Sara Michelle Fetters"]},
{"text": "For all its faults, the film brings back a forgotten moment in racial equality more vividly than a documentary on ESPN Classic.", "is_fresh": 1, "author": ["Jeffrey Westhoff"]},
{"text": "Like a moderately exciting amusement ride; occasionally fun, but after years of riding this same plot, the same old twists and turns get awfully tiring.", "is_fresh": 0, "author": ["David Foucher"]},
{"text": "Until inspirational sports films stop making us feel good, expect several more. This is a fun ride that will make you smile.", "is_fresh": 1, "author": ["John Venable"]},
{"text": "Succeeds at bringing an important part of sports -- and American -- history into the minds of today's audiences.", "is_fresh": 1, "author": ["Eric Moro"]},
{"text": "Just substitute a basketball for the Titans' pigskin and the predictable, mildly satisfying formula works just fine.", "is_fresh": 1, "author": []},
{"text": "If you have not already seen Remember the Titans or Miracle or The Rookie or Hoosiers or Coach Carter or Rudy or The Bad News Bears or The Mighty Ducks then perhaps you will love Glory Road.", "is_fresh": 0, "author": ["Eric D. Snider"]},
{"text": "There are far too many \"dramatic music\" cues - you know, the Aaron Copland-influenced ones that creep in just as the actor is about to say something truly important.", "is_fresh": 0, "author": ["Todd Gilchrist"]},
{"text": "This film fails not because it is conventional, but because it is lazy and dumb -- unworthy of its subject matter.", "is_fresh": 0, "author": ["Eugene Novikov"]},
{"text": "Familiar, but fun.", "is_fresh": 1, "author": ["David Cornelius"]},
{"text": "There is simply nothing resembling real life in the film, just basic cable motivations and infantile storytelling that somehow lucked itself into a big screen release pattern and budget.", "is_fresh": 0, "author": ["Brian Orndorf"]},
{"text": "a classic crowd pleasing movie full of predictability, but it comes with some good acting, a little humor and a touching story as well.", "is_fresh": 1, "author": ["Willie Waffle"]},
{"text": "a tepid, artificial, and clich\u00e9-ridden carbon copy of Coach Carter, Friday Night Lights, and Remember the Titans.", "is_fresh": 0, "author": ["Sean O'Connell"]},
{"text": "A fine, family-friendly pic about a white coach who demands perfection from his mostly black basketball team.", "is_fresh": 1, "author": ["Harvey S. Karten"]},
{"text": "Sometimes it takes a sports movie to remind us how far we've come as a country -- and to marvel at how we got here at all, in our awkward combination of leaps and baby steps.", "is_fresh": 1, "author": ["Stephanie Zacharek"]},
{"text": "A scrappy and fast-paced sports flick set in 1966 that also deals with heart and racism.", "is_fresh": 1, "author": ["Frederic and Mary Ann Brussat"]},
{"text": "Exacerbates difficult issues by blowing them into underdog sports cliches and, more damning, race caricatures and slapstick, sitcom misunderstandings and pat rapprochements.", "is_fresh": 0, "author": ["Walter Chaw"]},
{"text": "By knocking the edges off Glory Road, Bruckheimer has turned a raw, compelling story into bland pudding.", "is_fresh": 0, "author": ["Bill Muller"]},
{"text": "The performers serve the story, acting with humility and respect, never going for the glamour or the drama.", "is_fresh": 1, "author": ["Nell Minow"]},
{"text": "When coach Don Haskins sent out five African-American starters to face off against an all-white Wildcat team, barriers were broken, but Glory Road just hits the wall.", "is_fresh": 0, "author": ["Peter Canavese"]},
{"text": "The air of deja vu is thick as molasses in Glory Road, a lively but overly slick and grindingly predictable sports drama that tells the story of the NCAA-winning, Cinderella season of the 1966 Texas Western University Miners.", "is_fresh": 0, "author": ["William Arnold"]},
{"text": "It's one helluva story, and if this moving, and even thrilling little movie finally brings Haskins and a truly great American sports story to light, then three cheers and hooray.", "is_fresh": 1, "author": ["Ann Hornaday"]},
{"text": "The film is engaging, even if it is somewhat lackluster", "is_fresh": 0, "author": ["Sean McBride"]},
{"text": "However inspiring the actual events were, the movie feels like an opportunity lost. A powerful, significant true story like this deserves more than the ordinary.", "is_fresh": 0, "author": ["Paul Doro"]},
{"text": "Viewed as a re-creation of a watershed moment, Glory Road is sturdy, efficient, perhaps even worthy. Taken as cinema, however, it falls far short of inspiring.", "is_fresh": 0, "author": ["David Hiltbrand"]},
{"text": "This season's obligatory inspirational coach-centered sports movie finds its true story at a point where sports history intersects with the struggle for racial equality.", "is_fresh": 1, "author": ["A.O. Scott"]},
{"text": "It's a terrific story of a team of Davids with hoop dreams running a gantlet of patrician Goliaths against a backdrop of momentous social change.", "is_fresh": 1, "author": ["Kevin Crust"]},
{"text": "First-time director James Gartner's movie is less a study of race than it is a fast break of underdog clich\u00e9s and 'inspirational' speeches.", "is_fresh": 0, "author": ["Scott Foundas"]},
{"text": "the fact that this one's a little muddled, a little messy, often works in its favor.", "is_fresh": 1, "author": ["Laura Clifford"]},
{"text": "Glory Road is a rah-rah piece of inspirationalism from Disney and producer Jerry Bruckheimer, who obviously wants to go one better on his Remember the Titans.", "is_fresh": 0, "author": ["Peter Rainer"]},
{"text": "Glory Road, a stand-up-and-cheer basketball tale taken from real life, is a drama that, almost inevitably, falls short of its subject. But what a subject!", "is_fresh": 1, "author": ["Michael Wilmington"]},
{"text": "About as derivative and forgettable as this genre comes.", "is_fresh": 0, "author": ["Dustin Putman"]},
{"text": "Glory Road plays fast and loose with some of the facts leading up to that event. But that certainly gives it dramatic punch.", "is_fresh": 1, "author": ["Bob Townsend"]},
{"text": "At 106 minutes, the slicing off of a slew of choppily interspersed subplots could have made Glory Road a leaner, meaner, message-delivery machine.", "is_fresh": 0, "author": ["Laura Kelly"]},
{"text": "The big game at the end of the film has the momentum and rhythm of a really exciting basketball game. It's just that the 90 minutes that come before that scene aren't so great.", "is_fresh": 0, "author": ["Chris Hewitt (St. Paul)"]},
{"text": "That core audience should be generally pleased with Glory Road, a college basketball story as predictable as North Carolina's old four-corner offense.", "is_fresh": 1, "author": ["Colin Covert"]},
{"text": "Where it succeeds is as the story of a chapter in history, the story of how one coach at one school arrived at an obvious conclusion and acted on it, and helped open college sports in the South to generations of African Americans.", "is_fresh": 1, "author": ["Roger Ebert"]},
{"text": "The movie tries to push every button and please everyone involved, and its expressway of good intentions is little more than just a patchy re-paving job", "is_fresh": 0, "author": ["Nick Rogers"]},
{"text": "Disney's fact-based, sports-movie formula has become so familiar by now that watching another one of these films nearly serves as a sedative - if not outright anesthesia.", "is_fresh": 0, "author": ["Josh Larsen"]},
{"text": "A few sizes too small for the story it wants to tell...a picture that leaves no cliche unturned in its journey to a foreordained conclusion.", "is_fresh": 0, "author": ["Frank Swietek"]},
{"text": "The acting is strong, the games are exciting, and despite the serious message about racial equality, it's actually pretty funny in spots.", "is_fresh": 1, "author": ["Rob Thomas"]},
{"text": "A successful mix of politics, social commentary and sports.", "is_fresh": 1, "author": ["Frank Wilkins"]},
{"text": "Rages with bleacher-stomping, fist-pumping thrills you'd expect from an underdog sports movie.", "is_fresh": 1, "author": ["Phil Villarreal"]},
{"text": "If the prospect of another reality-based Disney sports drama makes you want to pull your fingernails out with pliers, you'll be pleasantly surprised by this bio of the 1966 Texas Western Miners.", "is_fresh": 1, "author": ["Steve Schneider"]},
{"text": "A no frills, by the numbers, formula sports film that will entertain, educate, inspire. Credits include interviews w/ members of the original team, Haskins and Pat Riley. ", "is_fresh": 1, "author": ["Ross Anthony"]},
{"text": "Glory Road is that annual old dependable, always willing to bring inspiration and good cheer to the cold month of January.", "is_fresh": 1, "author": ["Bill Clark"]},
{"text": "A slick package with the wrinkles of real life smoothed clean out of it.", "is_fresh": 0, "author": ["Peter Travers"]},
{"text": "Remember the Titans? Forget about them! Here's a new Jerry Bruckheimer production that places its secular faith in an almighty audience appetite for underdogs, sports, and dramas in which wrongs are righted by good-looking Americans.", "is_fresh": 0, "author": ["Lisa Schwarzbaum"]},
{"text": "A great, true story turned into a very mediocre movie ... It is in the editing room where it was completely destroyed.", "is_fresh": 0, "author": ["Steve Rhodes"]},
{"text": "A disingenuous, disrespectful reduction of a difficult, often-painful plight into a rousing fairy tale.", "is_fresh": 0, "author": ["Nick Schager"]},
{"text": "tells the story in the most compelling way possible. And since it takes place before Queen, at least here's one sports movie where we don't have to hear 'We are the Champions' again.", "is_fresh": 1, "author": ["Fred Topel"]},
{"text": "Debut director James Gartner struggles with solidifying the film's socially explosive period aspects against the exacting demands of recreating a season's worth of hair raising basketball games surging toward the 1966 NCAA tournament.", "is_fresh": 1, "author": ["Cole Smithey"]},
{"text": "Yet another in a string of inspiring true stories told with as little inspiration as possible.", "is_fresh": 0, "author": ["Mark Dujsik"]},
{"text": "Glory Road could potentially be dismissed as trivial but this is a big-hearted piece of entertainment that overcomes its lightweight sanctimonious vibes.", "is_fresh": 1, "author": ["Frank Ochieng"]},
{"text": "A slick enterprise buoyed by a Motown-flavored '60s soundtrack and an appealing ensemble cast.", "is_fresh": 1, "author": ["Brian Lowry"]},
{"text": "Glory Road's strength is the way in which it blends social awareness into the sports genre.", "is_fresh": 1, "author": ["James Berardinelli"]},
{"text": "This Jerry Bruckheimer production, directed by commercial director James Gartner in a solid feature debut, should please male fans as well as those who don't mind a dose of social commentary with their sports heroics.", "is_fresh": 1, "author": ["Kirk Honeycutt"]},
{"text": "", "is_fresh": 1, "author": ["Brian Marder"]},
{"text": "", "is_fresh": 1, "author": []},
{"text": "", "is_fresh": 1, "author": ["Dave White"]}
]