[
{"reviews_count": "249", "title": "Harry Potter and the Goblet Of Fire", "avg_audience_rating": "3.4", "rotten_count": "30", "tomatometer": "88", "audience_score": "74", "avg_critic_rating": "7.5", "fresh_count": "219", "user_ratings_count": "34,153,241"},
{"text": "Goblet of Fire is great, very watchable and re-watchable.", "is_fresh": 1, "author": ["Jeremy Jahns"]},
{"text": "Where Newell really scores is in taking a leaf out of Peter Jackson's book and cranking up the fear factor.", "is_fresh": 1, "author": ["Sukhdev Sandhu"]},
{"text": "For those like me who are outside but sympathetic to the faith, it looks like another handsomely made, good-natured and high-spirited family movie, which is dramatically stymied through being locked within school grounds.", "is_fresh": 1, "author": ["Peter Bradshaw"]},
{"text": "For the first time, adults might actually enjoy a Harry Potter film as much as children.", "is_fresh": 1, "author": ["Victoria Segal"]},
{"text": "Goblet is really just a glorified, 157-minute teaser trailer, an empty epic of proportions that truly stagger.", "is_fresh": 0, "author": ["Jim Schembri"]},
{"text": "The adolescent subplot is treated sweetly by Newell. The awkward dances and dating faux pas at the school ball feel like additions from some other, less mythic series, and form a welcome respite from the intense magic-making of the rest of the film.", "is_fresh": 1, "author": ["Jay Stone"]},
{"text": "Much of the credit goes to Radcliffe and his co-stars, who have become better actors with each film. They have become increasingly adept at conveying great emotion as each film demands more of them.", "is_fresh": 1, "author": ["Michael Kleinschrodt"]},
{"text": "I think this is the best Potter film yet, for one simple reason: it's not like a Harry Potter film.", "is_fresh": 1, "author": ["Cosmo Landesman"]},
{"text": "In its last third, The Goblet of Fire builds to a climax of such overpowering dread that you might just forget the rest. Harry grows up in an instant, and the film does, too.", "is_fresh": 1, "author": ["Amy Biancolli"]},
{"text": "The acting is stronger than ever in this fourth installment.", "is_fresh": 1, "author": ["Matt Soergel"]},
{"text": "By demonstrating to us how Harry and his friends are budding and changing and struggling, the film demonstrates the progressive richness of Rowling's storytelling skills and oddly haunting allure of her writing.", "is_fresh": 1, "author": ["Dennis King"]},
{"text": "All in all, Goblet of Fire is certainly the best Potter yet, with most of the cast doing their roles justice, some great direction and Steven Kloves' screenplay makes the core of Rowling's novel into a fast-paced but easily-comprehensible enjoyable movie.", "is_fresh": 1, "author": ["Daniel Saney"]},
{"text": "Kloves has streamlined J. K. Rowling's 700-plus-page opus into cinematic fighting form. And the special effects, which threatened to overwhelm the first two movies, are seamlessly integrated.", "is_fresh": 1, "author": ["David Ansen"]},
{"text": "Harry Potter and the Goblet of Fire is mostly satisfying, simply because such technical precision and meaningful special effects are rare in fantasy films today.", "is_fresh": 1, "author": ["Steve Persall"]},
{"text": "This fourth segment of now-adolescent Harry Potter's story, while arguably the best made, is also the most gruesome, and dark.", "is_fresh": 1, "author": ["Dan Webster"]},
{"text": "With its grand special effects, many small moments of charm, and continuing development of the characters, Harry Potter and the Goblet of Fire takes us into a world that, evil or not, makes us reluctant to leave.", "is_fresh": 1, "author": ["Nanciann Cherry"]},
{"text": "Newell vividly conjures up a world fraught with real danger.", "is_fresh": 1, "author": []},
{"text": "As young wizard Harry Potter continues to mature, so too does this exciting fantasy franchise.", "is_fresh": 1, "author": ["Sloan Freer"]},
{"text": "Goblet again serves up a delicious who's who of British acting, with hilarious contributions from newcomers Brendan Gleeson as instructor Alastor \"Mad-Eye\" Moody and Miranda Richardson as nosy reporter Rita Skeeter.", "is_fresh": 1, "author": ["Leah Rozen"]},
{"text": "Goblet of Fire is more effective in these smaller, more intimate moments than in the bloated bombast of its larger set pieces.", "is_fresh": 1, "author": ["Christy Lemire"]},
{"text": "Very boring, recycled from the previous installments, and immensely underwhelming.", "is_fresh": 0, "author": ["Felix Vasquez Jr."]},
{"text": "Wait a minute. Sequels aren't supposed to get better.", "is_fresh": 1, "author": ["Roger Moore"]},
{"text": "It's downright scary how good this movie is.", "is_fresh": 1, "author": ["Joe Morgenstern"]},
{"text": "A huge cast, plenty of special effects and Harry gets a battering -- pretty much as you'd expect.", "is_fresh": 1, "author": []},
{"text": "A marked disappointment after Harry Potter and the Prisoner of Azkaban, this fourth installment in the franchise is a 157-minute holding pattern.", "is_fresh": 0, "author": ["J. R. Jones"]},
{"text": "The Goblet of Fire is a more mature story and its young stars prove they have the acting skills to grow with their characters.", "is_fresh": 1, "author": ["Julian Roman"]},
{"text": "Easily the best Harry Potter film so far.", "is_fresh": 1, "author": ["Joshua Starnes"]},
{"text": "The story is engrossing, but Mike Newell's adaption is a little too dull and by-the-numbers following Alfonso Cuaron's visual tour-de-force.", "is_fresh": 1, "author": ["R.L. Shaffer"]},
{"text": "Chapter four in the boy-wizard franchise, and still no good scenes, interesting characters, or true imagination", "is_fresh": 0, "author": ["Fernando F. Croce"]},
{"text": "Followers of the series will find a more mature Harry and a more mature style, less sugary but not actually drier than the previous films.", "is_fresh": 1, "author": ["Mark R. Leeper"]},
{"text": "Goblet has enough sense of real kids maturing and believably facing problems to cast some genuine spells.", "is_fresh": 1, "author": ["Michael Wilmington"]},
{"text": "A solid but mostly uninspired melding of the adventure and fright that have been the benchmarks of the franchise.", "is_fresh": 1, "author": ["Tim Grierson"]},
{"text": "Like a fine wine, Harry Potter continues to improve with age as each succeeding film version of Rowling's books seemingly surpasses the last.", "is_fresh": 1, "author": ["Garth Franklin"]},
{"text": "Finally we're seeing Harry (the character and the series) grow up.", "is_fresh": 1, "author": ["Joe Lozito"]},
{"text": "The action in Goblet of Fire is more exciting and faster-paced than in previous Potter films, and visually, it is by far the most splendid.", "is_fresh": 1, "author": ["Shirley Sealy"]},
{"text": "This new story starts off as just another adventure, more or less, but by the end, the situation faced by its protagonists has become much darker, and much more dire.", "is_fresh": 1, "author": ["Peter T. Chattaway"]},
{"text": "Never feels anything other than a single thread of a larger narrative.", "is_fresh": 0, "author": ["Jonathan Barnes"]},
{"text": "click to read full review [Greek]", "is_fresh": 1, "author": ["Joseph Proimakis"]},
{"text": "The grim tone feels overwrought but, in [Mike] Newell's hands, and in those of his cast and screenwriter's, the movie remains dramatically solid", "is_fresh": 1, "author": ["Jay Antani"]},
{"text": "Newell handles this unfamiliar material competently enough, but the film never picks up any true momentum.", "is_fresh": 0, "author": ["Anthony Quinn"]},
{"text": "It's refreshing that Potter 4 aspires to be a paranoid thriller rather than yet another detective mystery. House points, too, for the movie's terrific effects and considerable charm.", "is_fresh": 1, "author": ["Angie Errigo"]},
{"text": "The series is now being treated as it should be, with the right mix of magic, danger, and drama, without watering anything down just so a younger audience can be snagged.", "is_fresh": 1, "author": ["Rory L. Aronsky"]},
{"text": "Anything but a disappointment. Even if it doesn't achieve the lyrical enchantment of Prisoner of Azkaban, it nonetheless makes good on Rowling's darker turn in the series.", "is_fresh": 1, "author": ["James Kendrick"]},
{"text": "For me, the best entry in the series--the sweetest, the most exciting, the most moving, and the most touching.", "is_fresh": 1, "author": ["John J. Puccio"]},
{"text": "Goblet is deliciously dark, wickedly funny and superbly mounted.", "is_fresh": 1, "author": ["Derek Adams"]},
{"text": "In the book this is a wholly engrossing story -- an epic tale of good and evil and loss and yearning. Transported to the screen, however, it has sustained a few dinks and dents. ", "is_fresh": 1, "author": ["Kurt Loder"]},
{"text": "It's too episodic, relying on action rather than emotion. The pace is headlong, so that the characterisation suffers.", "is_fresh": 0, "author": ["Paul Byrnes"]},
{"text": "The film's quick pace and near-constant action carries you along quite nicely.", "is_fresh": 1, "author": ["Pete Vonder Haar"]},
{"text": "So bloated and joyless that it makes one pine for the bland mediocrity of Chris Columbus.", "is_fresh": 0, "author": ["Nick Schager"]},
{"text": "Even though Goblet of Fire clocks in at a robust 157 minutes, Newell handles the massive story with seeming ease, keeping the pace taut and intensifying the pervasive menace that lurked more subtly in the previous films.", "is_fresh": 1, "author": ["Sara Brady"]},
{"text": "With the Triwizard Tournament as the centerpiece, director Mike Newell fashions an action film for children that may be without any reasonable challengers.", "is_fresh": 1, "author": ["Mark Pfeiffer"]},
{"text": "Closer kin to numbers one and two in the series, in both massive running time and playing like more of a book-on-film than the artistic peak achieved by Alfonso Cuar\u00f3n in the third installment.", "is_fresh": 1, "author": ["Jon Popick"]},
{"text": "Without ever losing sight of what makes a Potter film truly magical, [director Mike] Newell provides an aura of genuine dramatic gravity.", "is_fresh": 1, "author": ["Randy Shulman"]},
{"text": "The most focused Potter movie yet... it's all about puberty and death.", "is_fresh": 1, "author": ["Sean Burns"]},
{"text": "Newell not only does Harry Potter right but eclipses the scope, scares and drama of his J.K. Rowling source novel.", "is_fresh": 1, "author": ["Ian Grey"]},
{"text": "It emphasizes the emotional development of its characters with dramatic interplay rather than expressionistic, atmospheric gloom.", "is_fresh": 1, "author": ["Marrit Ingman"]},
{"text": "Thankfully we have the increasingly interesting characters and their interactions to provide the bulk of the entertainment.", "is_fresh": 1, "author": ["Michelle Thomas"]},
{"text": "Newell has always been a capable showman, and he doesn't cheat the Potter audience. Yet I don't think he wows it, either.", "is_fresh": 1, "author": ["Michael Sragow"]},
{"text": "Whenever it hits its stride, it's a well-acted, vividly executed, full-speed-ahead special-effects extravaganza that puts as much bang as possible into every remaining scene.", "is_fresh": 1, "author": ["Tasha Robinson"]},
{"text": "What does work, as in the last film, is how richly the filmmakers dive into Harry's growing and evolving adolescent personality.", "is_fresh": 1, "author": ["Sara Michelle Fetters"]},
{"text": "An overlong film.", "is_fresh": 0, "author": ["Philip French"]},
{"text": "Works as a piece of blockbuster entertainment.", "is_fresh": 1, "author": ["Ethan Alter"]},
{"text": "The film's real pleasure is in the connections it makes (whether intentional or not) to current 'real world' questions about the beneficence of institutional authority.", "is_fresh": 1, "author": ["Todd R. Ramlow"]},
{"text": "Newell proves -- well, wizardly in depicting Hogwarts' inner workings.", "is_fresh": 1, "author": ["Carol Cling"]},
{"text": "A focussed, efficient film that lacks charm but gets the job done.", "is_fresh": 1, "author": ["Paul Arendt"]},
{"text": "Let the adjectives roll \u0096 this is the most thrilling, exciting, magical kids movie I\u0092ve seen since, well, since the last Harry Potter film.", "is_fresh": 1, "author": ["David Edwards"]},
{"text": "It feels a little rushed, and although it is still a picture worth seeing, it stands as one of the weaker chapters in the Potter series.", "is_fresh": 1, "author": ["Bob Grimm"]},
{"text": "Once again Grint, who has grown up to be a talented comic actor, is the scene stealer here. If I had a crystal ball, I'd say he's the actor whose post-Potter future seems most certain.", "is_fresh": 1, "author": ["James Verniere"]},
{"text": "The human element is never overshadowed by the flashy stuff.", "is_fresh": 1, "author": ["Joyce Millman"]},
{"text": "Enjoyable sequel that should please fans of both the books and the films %u2013 it looks as gorgeous as the last one did and this time they've even tightened up the plot a bit.", "is_fresh": 1, "author": ["Matthew Turner"]},
{"text": "Goblet has some truly stunning moments, especially the pitch black finale.", "is_fresh": 1, "author": ["David Medsker"]},
{"text": "Harry Potter and the Goblet of Fire is yet another solid entry into the Harry Potter franchise.", "is_fresh": 1, "author": ["Scott Chitwood"]},
{"text": "The first Potter film to improve on the book", "is_fresh": 1, "author": ["Shane Burridge"]},
{"text": "A sombre and dark entry into the series, but one that is well-worth seeing.", "is_fresh": 1, "author": ["Cheryl DeWolfe"]},
{"text": "Wondrous to behold.", "is_fresh": 1, "author": ["Forrest Hartman"]},
{"text": "Goblet of Fire is largely about the growing pains as the children inch towards adulthood, including love and all that comes with it, and Newell does a strong job of painting adolescent jealousy, crushes, and discomfort.", "is_fresh": 1, "author": ["Gabe Leibowitz"]},
{"text": "The exhilarating Harry Potter and the Goblet of Fire takes the best parts of J.K. Rowling's fourth installment and serves them up in one heck of an action-packed, albeit darker, film. Parents, be forewarned--this isn't kid's stuff anymore. ", "is_fresh": 1, "author": ["Kit Bowen"]},
{"text": "An overstuffed plot doesn't slow down the proceedings as much as convey that there's much at stake in Harry's increasingly sinister world.", "is_fresh": 1, "author": ["Matt Brunson"]},
{"text": "For someone who has read the book, the film is very satisfying; glosses over important information for the uninitiated.", "is_fresh": 1, "author": ["Karina Montgomery"]},
{"text": "Harry Potter ha crecido y para bien, lo que abre el apetito para la pr\u00f3xima cinta de la serie. Encantadora y m\u00e1gica, es sin duda una de las m\u00e1s gratas sorpresas del a\u00f1o.", "is_fresh": 1, "author": ["Jorge Avila Andrade"]},
{"text": "The best part, I think, is that this fourth Harry Potter film goes further than its predecessors in setting out a moral map that reaffirms the values of human decency, loyalty and selflessness - and does so with great flair and endless entertainment.", "is_fresh": 1, "author": ["Urban Cinefile Critics"]},
{"text": "Tenso e envolvente, embora substitua a complexidade psicol\u00f3gica e emocional do filme anterior por uma montagem mais preocupada com a hist\u00f3ria do que com os personagens.", "is_fresh": 1, "author": ["Pablo Villa\u00e7a"]},
{"text": "For once, Harry Potter is pushed to his limits. He doesn't just wave his flippin' wand and win the day.", "is_fresh": 1, "author": ["Robert Roten"]},
{"text": "Has the curious distinction of being perhaps the best of the Harry Potter series, while not being quite the best film in its own right. ", "is_fresh": 1, "author": ["Ken Hanke"]},
{"text": "My cup runneth over with tedium during this 2 1/2-hour supernatural slog.", "is_fresh": 0, "author": ["Thomas Delapa"]},
{"text": "The billion-dollar franchise continues its reliable mix of youthful wonder, charm, and sense of adventure, all while making it accessible to adults and children alike.", "is_fresh": 1, "author": ["Paul Salfen"]},
{"text": "Hits all the right spots but there's crucial context missing at times that leaves a vastly different impression with those who have followed the films but not read the books.", "is_fresh": 1, "author": ["Jeffrey Bruner"]},
{"text": "Harry Potter fans will not be disappointed by the happenings at Hogwarts. Gone are the 'cute' little wizards and witches-to-be, but it's still magical.", "is_fresh": 1, "author": ["Cherryl Dawson and Leigh Ann Palone"]},
{"text": "Once again, the young wizard has audiences enchanted.", "is_fresh": 1, "author": ["Linda Cook"]},
{"text": "...nothing much can dim this material.", "is_fresh": 1, "author": ["Andy Klein"]},
{"text": "...another year has passed at Hogwarts and Ron Weasley is another year uglier.", "is_fresh": 1, "author": ["Dan Marcucci and Nancy Serougi"]},
{"text": "The Harry Potter series just keeps getting better and more interesting.", "is_fresh": 1, "author": ["Mike McGranaghan"]},
{"text": "Si dejamos de lado el tratar de forma recalcitrante de hacer una copia del libro, la pel\u00edcula es una buena muestra de diversi\u00f3n y cine de fantas\u00eda.", "is_fresh": 1, "author": ["Luis Martinez"]},
{"text": "Time drags between the feats of abdacadbra.", "is_fresh": 0, "author": ["John P. McCarthy"]},
{"text": "Kloves has successfully streamlined the 734-page novel into a concise adaptation which focuses on the driving dynamic of the story but still feels coherent.", "is_fresh": 1, "author": ["Mark Dujsik"]},
{"text": "The latest episode of JK's wonderful allegory of childhood maturity demands your muggle attention", "is_fresh": 1, "author": ["Mike Sage"]},
{"text": "It's sweet, it's charming, it's endlessly involving... the best yet of the Potter films.", "is_fresh": 1, "author": ["David Cornelius"]},
{"text": "As exhilarating as it is daunting, 'Goblet of Fire' is all grown up.", "is_fresh": 1, "author": ["Mark Sells"]},
{"text": "What will allow the remaining films to prosper, is the words that we hear at the start, from an elderly caretaker: \"Bloody kids.\"", "is_fresh": 1, "author": ["Anthony Lane"]},
{"text": "Stylistically, the most stylistically stunning film of the series ceases to be wondrous ... once its characters enter the painfully petty years of adolescence.", "is_fresh": 1, "author": ["Jonathan R. Perry"]},
{"text": "The special effects are first rate but I think it's always going to be about the characters. And they're great characters.", "is_fresh": 1, "author": ["Richard Roeper"]},
{"text": "It's always a treat to see what big-studio-franchise cash can produce in the way of top-flight British (and Irish) actors.", "is_fresh": 1, "author": ["David Edelstein"]},
{"text": "La srie Harry Potter ne deviendrait-elle que l'quivalent magique des films de James Bond?", "is_fresh": 1, "author": ["Nicolas Lacroix"]},
{"text": "The ball is coming. It's a 'night of well-mannered frivolity,' as Maggie Smith puts it, 'much like the splendidly impetuous time I had with Harry Hamlin in Clash of the Titans.'", "is_fresh": 1, "author": ["Mark Ramsey"]},
{"text": "A film with such fiercely written source material, the best effects money can buy, and the support of J.K. Rowling, can't be bad.", "is_fresh": 1, "author": ["Audrey Rock-Richardson"]},
{"text": "Think of it as a sort of Sixteen Wands, and you won't be disappointed.", "is_fresh": 1, "author": ["Josh Bell"]},
{"text": "Harry Potter and the Goblet of Fire is more competent than inspired, but that's still not bad.", "is_fresh": 1, "author": ["Dan Fienberg"]},
{"text": "Masterful storytell[ing], ceaselessly and effortlessly tantalizing and satisfying", "is_fresh": 1, "author": ["Les Wright"]},
{"text": "Of the several strange and thrilling sights in Harry Potter and the Goblet of Fire, a noseless Ralph Fiennes may be the strangest and most thrilling.", "is_fresh": 1, "author": ["Cynthia Fuchs"]},
{"text": "Overall, Goblet is a feistier, darker and more suspenseful extension of a cherished film franchise that oddly prospers with cinematic age.", "is_fresh": 1, "author": ["Frank Ochieng"]},
{"text": "One of the best in the impressive Potter series.", "is_fresh": 1, "author": ["Boo Allen"]},
{"text": "This is really cool!", "is_fresh": 1, "author": ["Eric Lurio"]},
{"text": "While a must-see for rabid fans, Harry Potter and the Goblet of Fire will impress nondevotees only with its seamless special effects and captivating action sequences.", "is_fresh": 1, "author": ["Larry Ratliff"]},
{"text": "... to finally watch the key scenes so vividly described by the author realized perfectly onscreen is worth admission alone (and even a few extra viewings besides).", "is_fresh": 1, "author": ["Kevin A. Ranson"]},
{"text": "[Mike] Newell turns the spine-tingling and well-crafted world J.K. Rowling created for the novel into a lump of flat banality.", "is_fresh": 0, "author": ["Alex Sandell"]},
{"text": "It's nearly as epic in its scope and deep in its philosophy as the 'Lord of the Rings' films were -- the first film in this series to even approach such heights.", "is_fresh": 1, "author": ["Eric D. Snider"]},
{"text": "Wow! Harry and his pals are back and they are better than ever.", "is_fresh": 1, "author": ["Jeanne Kaplan"]},
{"text": "Maybe if I had read one of the books first, seeing it come alive on the big screen would be a more seductive and satisfying experience.", "is_fresh": 1, "author": ["David Kaplan"]},
{"text": "As a whole, [it] is the least impressive of the four Potter films.", "is_fresh": 0, "author": ["Eric Melin"]},
{"text": "This is the best \"Harry Potter,\" yet, and should be the benchmark that all the rest, past and future, should be compared", "is_fresh": 1, "author": ["Robin Clifford"]},
{"text": "You feel the durable franchise (now on its third director, Mike Newell) has a promising future, since its young principals have developed skills.", "is_fresh": 1, "author": ["Gary Thompson"]},
{"text": "Inventive visuals and funny bits abound, but the film's gritty look and unsentimental characterizations -- Harry, Hermione and Ron are far from golden teens -- ominously foreshadow the truly wicked shape of things to come.", "is_fresh": 1, "author": ["Maitland McDonagh"]},
{"text": "Screenwriter Kloves deserves a tip of the wizard's hat for cutting Rowling's immense tome (636 pages) down to size, and for keeping the story moving despite a surfeit of characters and incidents.", "is_fresh": 1, "author": ["Peter Howell"]},
{"text": "Not just an efficient babysitter but a wizard of a movie.", "is_fresh": 1, "author": ["Richard Corliss"]},
{"text": "With Harry Potter and the Goblet of Fire, director Mike Newell offers a fine addition to the Harry Potter film franchise without presenting any truly spectacular elements.", "is_fresh": 1, "author": ["Carla Meyer"]},
{"text": "Swiftly paced and wonderfully atmospheric, Harry Potter and the Goblet of Fire will satisfy both the most ardent Potter-philes and newcomers to the Rowling franchise.", "is_fresh": 1, "author": ["Timothy Knight"]},
{"text": "Visually exciting and dramatically flaccid, Harry Potter and the Goblet of Fire seems destined to separate the faithful from the phonies.", "is_fresh": 0, "author": ["Robert W. Butler"]},
{"text": "If there's a Harry Potter fan at your house, you're going to this movie regardless of what anybody says about it. Fortunately, what most people are saying about Harry Potter And The Goblet Of Fire is, 'wow!'", "is_fresh": 1, "author": ["Liz Braun"]},
{"text": "The real hero of the fourth Harry Potter film isn't the teenage wizard but screenwriter Steve Kloves, who has magically transformed J.K. Rowling's bloated, 734-page novel into a more swiftly paced, entertaining script.", "is_fresh": 1, "author": ["Connie Ogle"]},
{"text": "The special effects blend impeccably with a robust, forward-driving sense of action.", "is_fresh": 1, "author": ["Donald Munro"]},
{"text": "Like Chris Columbus, Newell delivers what is essentially an illustrated condensation of Rowling's novel.", "is_fresh": 0, "author": ["John Beifuss"]},
{"text": "There is still some subtle and unexpected levity.", "is_fresh": 1, "author": ["Duane Dudek"]},
{"text": "...likely will be enjoyed by those who read the 734-page book -- and were smart enough to bring it into the theater with them for quick reference.", "is_fresh": 0, "author": ["Josh Larsen"]},
{"text": "Newell deftly mixes in sweet teenage angst and lighter moments of physical humor.", "is_fresh": 1, "author": ["Lisa Kennedy"]},
{"text": "This edition advances the Potter saga through the presentation of a variety of set pieces, some quite spectacular. And if the movie sometimes loses momentum, it contains enough grand sights and magical mayhem to stir even skeptical imaginations.", "is_fresh": 1, "author": ["Robert Denerstein"]},
{"text": "It boasts some strong performances. Irish character actor Brendan Gleeson steals the show as the appropriately named Alastor 'Mad-Eye' Moody, and the three young leads show increasing confidence in front of the camera (especially Grint).", "is_fresh": 1, "author": ["Jeff Vice"]},
{"text": "A brisk, darkly-tinged adventure yarn that boosts the action quota considerably and as such becomes a whirlwind blast of post-summer escapism.", "is_fresh": 1, "author": ["Spence D."]},
{"text": "With more melodrama, meatier magic and much malevolence, the latest film foray into J.K. Rowling's wizard world proves the fourth time can be a charm, too.", "is_fresh": 1, "author": []},
{"text": "Frankly, the entire film felt like the cinematic version of Hamburger Helper -- too little meat trying to do too much.", "is_fresh": 0, "author": ["Paul Clinton (CNN.com)"]},
{"text": "Mike Newell does an exceptional job translating the fourth book to the screen, showing a remarkable flair for cutting-edge visuals.", "is_fresh": 1, "author": ["Christine James"]},
{"text": "Newell snags Cuar\u00f3n's cinematic baton and sprints, maintaining the dark tone of Azkaban while sprinkling in healthy doses of humor and humanity.", "is_fresh": 1, "author": ["Tyler Hanley"]},
{"text": "The most frightening Potter film and the best. ", "is_fresh": 1, "author": ["John Wirt"]},
{"text": "An acceptable but far from challenging adaptation that almost any director could duplicate.", "is_fresh": 1, "author": ["Sean O'Connell"]},
{"text": "What was a sneaking suspicion after the first three movies has become irrefutable proof [here]: if you are not a fan of, and intimately familiar with, the Harry Potter novels, you're not welcome here", "is_fresh": 0, "author": ["Edward Havens"]},
{"text": "\"Harry Potter and the Goblet of Fire\" will satisfy the older fans who have read the book:", "is_fresh": 1, "author": ["Angela Baldassarre"]},
{"text": "Although the plot of this installment explores 'three unforgivable curses,' the sequel avoids the 'curse of the fourth film,' proving there is still a heap of charm left in this young wizard's tale.", "is_fresh": 1, "author": ["Jon Niccum"]},
{"text": "A rare film that does it all and never loses itself along the way. Successfully blends drama, action, comedy, romance, and mystery to form an almost flawless movie.", "is_fresh": 1, "author": ["Michelle Alexandria"]},
{"text": "The days of cheesy basilisks and house-elves are gone -- things have taken a sharp turn into Bleaksville.", "is_fresh": 1, "author": ["Brian Juergens"]},
{"text": "Dark and daring; the novel takes a shockingly violent turn in its final pages, and the PG-13 rated film doesn't shy away.", "is_fresh": 1, "author": ["Eugene Novikov"]},
{"text": "\"Goblet of Fire\" is the first film in the series to mark a turning point in terms of quality of direction and storytelling.", "is_fresh": 1, "author": ["Christopher Smith"]},
{"text": "Does a fine job consolidating all the important elements of J.K. Rowling's book. You get the same arc for every character and it doesn't take a month and a half to finish.", "is_fresh": 1, "author": ["Fred Topel"]},
{"text": "The latest entry... leaves out subplots and entire characters, yet gets it exactly right. It doesn't lose what's crucial to the story...", "is_fresh": 1, "author": ["Daniel M. Kimmel"]},
{"text": "Cuaron's film still ranks as the best...but not by much.", "is_fresh": 1, "author": ["Collin Souter"]},
{"text": "Forget battling dragons or dealing with mer-people in the dangerous tournament, Goblet of Fire is as much about the angst of young love as it is about wizardry.", "is_fresh": 1, "author": ["Bob Bloom"]},
{"text": "What sets this outing apart from the three that have come before it is its darker tone.", "is_fresh": 1, "author": ["Eric Moro"]},
{"text": "As we come to the midpoint of J.K. Rowling's tales, it may have finally turned the page for the better.", "is_fresh": 1, "author": ["Erik Childress"]},
{"text": "Goblet of Fire is easily the most confident of the series, with the production finally comfortable with the demands of the divided audience, and not afraid to please both.", "is_fresh": 1, "author": ["Brian Orndorf"]},
{"text": "Offers some of the series' most magical imagery\u2026 Alas, with so much territory to cover, some characters get short shrift.", "is_fresh": 1, "author": ["Steven D. Greydanus"]},
{"text": "Director Mike Newell has brought majesty and magic back", "is_fresh": 1, "author": ["Willie Waffle"]},
{"text": "Although Valdemort is a bad guy, this is a good thing for movie audiences. He's set up to be the new Darth Vader of pop culture.", "is_fresh": 1, "author": ["Kevin Carr"]},
{"text": "Newell expertly makes the smallest moment of adolescent longing as vivid and meaningful as the WOW-worthy special effects. ", "is_fresh": 1, "author": ["Nell Minow"]},
{"text": "has succeeded in doing one big thing that the first three movies completely failed at: For the first time, I'm actually looking forward to the next in the series.", "is_fresh": 1, "author": ["Christopher Null"]},
{"text": "Although last year's installment, The Prisoner of Azkaban, was supposed to the be the darkest in the series I daresay Goblet of Fire is darker still.", "is_fresh": 1, "author": ["Staci Layne Wilson"]},
{"text": "Another solid chapter in an eminently reliable franchise.", "is_fresh": 1, "author": ["Rob Vaux"]},
{"text": "There is a good movie here, but there is too much story for such little time. ", "is_fresh": 1, "author": ["Danny Minton"]},
{"text": "Flawed and too long, but not bad", "is_fresh": 1, "author": ["Marty Mapes"]},
{"text": "In his scheme of things, fighting a dragon is nothing compared to the terrors of a first date.", "is_fresh": 1, "author": ["William Arnold"]},
{"text": "There's ample reason to stay with this series. When Harry says 'I love magic,' you believe it.", "is_fresh": 1, "author": ["Peter Rainer"]},
{"text": "Goblet of Fire promises fans of both the film franchise and the book series a wonderful time in the theater.", "is_fresh": 1, "author": ["Wesley Lovell"]},
{"text": "Newell's film, unlike its predecessors, fails to generate fresh wonder...but on balance Rowling's creative opus--roiling with hormonal consequences and eye-popping effects--continues to earn its crowds. [Blu-ray]", "is_fresh": 1, "author": ["Peter Canavese"]},
{"text": "a superb, swiftly paced fantasy that cleverly balances its incredible events with plenty of adolescent aches and pains that even Muggles can identify with.", "is_fresh": 1, "author": ["James Sanford"]},
{"text": "For all its small delights and impressive effects..., there's no big payoff -- only the promise of more to come in the fifth movie.", "is_fresh": 1, "author": ["Sean P. Means"]},
{"text": "Harry's cup...er goblet... runneth over with magic, suspense, humor and even a hint of romantic tension", "is_fresh": 1, "author": ["Jackie K. Cooper"]},
{"text": "There's little to feel wonder towards this time, as danger, insecurity, and awkwardness loom large and overshadow any magical discoveries.", "is_fresh": 1, "author": ["Jeffrey Chen"]},
{"text": "Once Potter ditches scenes that feel taken from Beverly Hills 90210 meets Scooby-Doo, I will approach the series with more than just guarded optimism.", "is_fresh": 0, "author": ["Brett Buckalew"]},
{"text": "This is another great movie for Mom and Dad to watch with the kids, BUT be warned it is PG-13 this time. I susect the death of a character and the increase of evil acts is the reason for this. If you think your children are prepared for these topics, the", "is_fresh": 1, "author": ["Kamal 'The Diva' Larsuel"]},
{"text": "The fourth installment (yes, it never ends) in the series about the little wizard with the round glasses grows so violent and ghoulish that it drains the appeal of stories that are best when they stay innocuous.", "is_fresh": 0, "author": ["Bill Muller"]},
{"text": "Harry Potter and the Goblet of Fire is probably the most engaging Potter film of the series thus far.", "is_fresh": 1, "author": ["Desson Thomson"]},
{"text": "Goblet of Fire is the second-best of the Potter films.", "is_fresh": 1, "author": ["Chris Hewitt (St. Paul)"]},
{"text": "The strongest film of the bunch.", "is_fresh": 1, "author": ["Jeff Strickler"]},
{"text": "It's the first Potter movie in which the student characters and their emotional situation is the equal of the special effects, the elaborate settings and the gallery of brilliant British actors in supporting roles.", "is_fresh": 1, "author": ["Shawn Levy"]},
{"text": "it's still a lot of fun, but you can sense all of the missing material which makes this Harry Potter not quite up to par with the other three installments.", "is_fresh": 1, "author": ["Sean McBride"]},
{"text": "This is the darkest and most adventurous Potter film to date. Its 156 minutes fly by.", "is_fresh": 1, "author": ["Jack Garner"]},
{"text": "Harry Potter and the Goblet of Fire, fourth in the string, has a heated darkness.", "is_fresh": 1, "author": ["David Elliott"]},
{"text": "Goblet offers its own brew of wondrous chimera combined with the wonders of human nature.", "is_fresh": 1, "author": ["Ruthe Stein"]},
{"text": "Though the special effects in this film are often breathtaking, the real drama is here is exactly where it should be: in a young man's frightened but resolute eyes.", "is_fresh": 1, "author": ["Moira MacDonald"]},
{"text": "It's scarier than the previous three movies and more poignant.", "is_fresh": 1, "author": ["Claudia Puig"]},
{"text": "In Harry's world, it turns out that the everyday struggles of adolescence are scarier than anything a dark lord -- even one raised from the dead -- can muster. But then, any teenager could tell you that.", "is_fresh": 0, "author": ["Glenn Whipp"]},
{"text": "It's not until Harry Potter and the Goblet of Fire that a film has successfully re-created the sense of stirring magical adventure and engaged, edge-of-your-seat excitement that has made the books such an international phenomenon.", "is_fresh": 1, "author": ["Kenneth Turan"]},
{"text": "A movie that assures us that the journey we are on will be worth the time and emotion that's been invested in it.", "is_fresh": 1, "author": ["Terry Lawson"]},
{"text": "More impressive than wondrous, it won't transform the series, but it moves it along, pushing its charges toward adulthood and the mean sorcery of the grown-up world.", "is_fresh": 1, "author": ["Tom Long"]},
{"text": "Easily the most involving of the movies so far.", "is_fresh": 1, "author": ["Liam Lacey"]},
{"text": "The best thing about the picture is Harry's new maturity: For the first time, he dominates a picture named for him.", "is_fresh": 1, "author": ["Lawrence Toppman"]},
{"text": "There's a darkness on the edge of Hogwarts, and its name is adolescence.", "is_fresh": 1, "author": ["Ty Burr"]},
{"text": "As Harry, Ron and Hermione enter the awkward stage, the young people portraying them -- Daniel Radcliffe, Rupert Grint, Emma Watson -- grow ever more confident as professional actors.", "is_fresh": 1, "author": ["Chauncey Mabe"]},
{"text": "The visual magic of the story, as well as some enormously welcome glimmerings of humor, gives it the solid feel of a well-tended franchise.", "is_fresh": 1, "author": ["Bruce Newman"]},
{"text": "Harry Potter and the Goblet of Fire, fourth in the fantasy franchise, is the most fun and the most fraught with conflict.", "is_fresh": 1, "author": ["Carrie Rickey"]},
{"text": "The film follows in the fantasy tradition of stretching perceptions of the possible, and it does so in a richly realized and recognizably human universe.", "is_fresh": 1, "author": ["Chris Vognar"]},
{"text": "It balances the exhilaration of independence -- one of the great joys of growing up -- with the sobering realization that being a grown-up means there's no one around to protect you.", "is_fresh": 1, "author": ["Stephanie Zacharek"]},
{"text": "A model of exhilarating, economic storytelling.", "is_fresh": 1, "author": ["Jeffrey M. Anderson"]},
{"text": "Harry Potter and the Goblet of Fire might be the best time you have at the movies all year.", "is_fresh": 1, "author": ["Matt Pais"]},
{"text": "Adolescence is no less sticky a situation for multibillion-dollar movie franchises than it is for young witches and wizards, and what is a Part 4 if not the cinematic equivalent of those awkward tween years?", "is_fresh": 0, "author": ["Scott Foundas"]},
{"text": "Goblet shifts effortlessly from dark to light to dark again.", "is_fresh": 1, "author": ["Jami Bernard"]},
{"text": "Goblet of Fire is indisputably the best movie in the franchise thus far.", "is_fresh": 1, "author": ["Eleanor Ringel Cater"]},
{"text": "[Newell] balances delicately between whimsy and the ominous, on the uncertain middle ground where Harry lives, poised between fun at school, teenage romance and the dark abyss.", "is_fresh": 1, "author": ["Roger Ebert"]},
{"text": "Newell continues to improve on a world that's enthralling to explore ... in spite of the pouting, cheating little dullard at the center of it all.", "is_fresh": 1, "author": ["Jeffrey Overstreet"]},
{"text": "Here, finally, is a Harry Potter movie that approaches the timelessness of J.K. Rowling's novels.", "is_fresh": 1, "author": ["Jeffrey Westhoff"]},
{"text": "Harry Potter puts away childish things in Goblet of Fire.", "is_fresh": 1, "author": ["Lori Hoffman"]},
{"text": "The greatest magic of this book - and this film - is that it doesn't pretend that growing up won't change everything. It's the first Potter film where reality and fantasy are equally fascinating.", "is_fresh": 1, "author": ["Nick Rogers"]},
{"text": "While [it] doesn't come close to matching the magic of its predecessor...it's slick and exciting enough to satisfy the fans of the series.", "is_fresh": 1, "author": ["Frank Swietek"]},
{"text": "True to the form of previous Potter films, the busy story tends to lose track of characters, hyperactively vaulting from one plotline to the next without satisfying resolutions or transitions.", "is_fresh": 0, "author": ["Phil Villarreal"]},
{"text": "The first wholly dispensable installment.", "is_fresh": 0, "author": ["Walter Chaw"]},
{"text": "The actors play second fiddle to the special effects, and that's not how I like my Harry Potter movies. ", "is_fresh": 1, "author": ["Rebecca Murray"]},
{"text": "It's like this: The book is sensational. The movie is sensationalistic. Both are enjoyable. The book is better.", "is_fresh": 1, "author": ["Gregory Weinkauf"]},
{"text": "There is a level of horror operating here that raises this beyond escapist family fare and into the realm of cutting -- heh -- metaphor for teenhood: the agony of adolescence.", "is_fresh": 1, "author": ["MaryAnn Johanson"]},
{"text": "Harry Potter's not just for kids anymore. Director Mike Newell has reset the bar for the series and delivered a smashingly dark and dramatic film", "is_fresh": 1, "author": ["Laura Clifford"]},
{"text": "The part with the dragon is really cool.", "is_fresh": 1, "author": ["Luke Y. Thompson"]},
{"text": "These films just keep getting better and better.", "is_fresh": 1, "author": ["Devin Faraci"]},
{"text": "Marvelously directed and artistically without fault, it's the series' most complete and satisfying entry to date on all counts.", "is_fresh": 1, "author": ["Dustin Putman"]},
{"text": "The fourth and most boring entry in the franchise.", "is_fresh": 0, "author": ["Rex Reed"]},
{"text": "The direction is phenomenal! Seldom does even a 90-min production come along with such a vibrant pace (this is 150!). A strong film overall, though the climax is a bit weak.", "is_fresh": 1, "author": ["Ross Anthony"]},
{"text": "Childhood ends for the young wizard with the zigzag scar in the happily satisfying film adaptation of the fourth book in J. K. Rowling's series.", "is_fresh": 1, "author": ["Manohla Dargis"]},
{"text": "Harry Potter and the Goblet of Fire does have its quota of antic marvels.", "is_fresh": 1, "author": ["Owen Gleiberman"]},
{"text": "A first-class adventure story loaded with spectacle, character, and heart.", "is_fresh": 1, "author": ["Bill Clark"]},
{"text": "Radcliffe is literally and figuratively growing into his role, while Watson shows greater fire and depth. And Grint's rubbery charm is intact.", "is_fresh": 1, "author": ["Gene Seymour"]},
{"text": "Harry Potter has become a rare cinematic constant -- something to be anticipated every year or two.", "is_fresh": 1, "author": ["James Berardinelli"]},
{"text": "All about how Harry completes three difficult challenges and deals with the rollercoaster ride of adolescent emotions and energies.", "is_fresh": 1, "author": ["Frederic and Mary Ann Brussat"]},
{"text": "Cute no more, Goblet of Fire enchants with a darker aura of suspense and welcomed menace.", "is_fresh": 1, "author": ["Victoria Alexander"]},
{"text": "This overly long reading from the Rowling scriptures [is] a certain recipe for slumber.", "is_fresh": 0, "author": ["Steve Rhodes"]},
{"text": "Not just the best Harry Potter movie so far. It's also one of the most entertaining movies of the year.", "is_fresh": 1, "author": ["Scott Nash"]},
{"text": "To this viewer and reader, the decade-old juggernaut is as deeply felt as it is flawed, dense and illogical and laudably weird.", "is_fresh": 1, "author": ["Ed Park"]},
{"text": "effortlessly sweeps the audience into that enchanted world of Hogwarts School of Witchcraft and Wizardry, where good and evil are more than just abstract concepts in a dusty old philosophy book", "is_fresh": 1, "author": ["Andrea Chase"]},
{"text": "What's amazing about the Harry Potter franchise is that the films get better and better! Or, as Harry puts it, 'I love magic!'", "is_fresh": 1, "author": ["Susan Granger"]},
{"text": "The best Harry Potter picture yet.", "is_fresh": 1, "author": ["Kevin N. Laforest"]},
{"text": "Exactly what fans are looking for, offering eye-boggling spectacle and lots of well-executed action scenes.", "is_fresh": 1, "author": ["Kyle Smith"]},
{"text": "Now that puberty has struck the Harry Potter universe, the series ought to move away from the insipid kid stuff.", "is_fresh": 0, "author": ["Jeremiah Kipp"]},
{"text": "Harry Potter And The Goblet Of Fire is an endurance test for its audience.", "is_fresh": 0, "author": ["Cole Smithey"]},
{"text": "It's hard to resist.", "is_fresh": 1, "author": ["Peter Travers"]},
{"text": "Despite the skill and spectacle of the special effects, the prosaic storytelling is never interesting as cinema.", "is_fresh": 0, "author": ["Mark Palermo"]},
{"text": "Welcome to Potter in PG-13... hip, heroic, humorous and... dare I say it? Harry's a hottie!", "is_fresh": 1, "author": ["David Foucher"]},
{"text": "The first [Potter film] to really get under the skin of these characters. Strip away the CG dragons and sweeping vistas and you'll find Goblet of Fire has just as much impact.", "is_fresh": 1, "author": ["Joe Utichi"]},
{"text": "Newell sees to it that the characters who made the 147 minute final cut fully realize Rowling's invention.", "is_fresh": 1, "author": ["Jules Brenner"]},
{"text": "The best one yet.", "is_fresh": 1, "author": ["Kirk Honeycutt"]},
{"text": "The filmmakers keep the narrative screws fastened tight, which gives The Goblet of Fire an intensity that rarely flags.", "is_fresh": 1, "author": ["Todd McCarthy"]},
{"text": "The first Brit to direct Harry Potter, Newell brings a sense of anarchy to the school scenes and centers on the rites of passage of his adolescent protags", "is_fresh": 1, "author": ["Emanuel Levy"]},
{"text": "It seems like only yesterday the three wizardy sprigs were battling giant spiders and cracking conspiracies in the girls' toilets. That knowing comedy keeps this episode sharp.", "is_fresh": 1, "author": ["James Christopher"]},
{"text": "Newell deftly avoids the mistake of making a kids' movie in which even the worst threat feels safe.", "is_fresh": 1, "author": ["Rich Cline"]},
{"text": "This is a good movie, and a fun movie, but not a great movie. I think Harry's fans are pretty happy with mediocre. At least mediocre isn't bad.", "is_fresh": 1, "author": ["Joshua Tyler"]},
{"text": "", "is_fresh": 0, "author": ["Daniel Kasman"]}
]