[
{"reviews_count": "177", "title": "Howl\u2019s Moving Castle", "avg_audience_rating": "4.1", "rotten_count": "23", "tomatometer": "87", "audience_score": "93", "avg_critic_rating": "7.5", "fresh_count": "154", "user_ratings_count": "255,225"},
{"text": "The rich landscapes and colours just jump off the screen at you in the best possible ways. Each character has such unique features and expressions that make them truly stand out.", "is_fresh": 1, "author": ["Stephanie Cooke"]},
{"text": "Howl's Moving Castle has the logic of a dream: behind every door lie multiple realities, one more astonishing than the next.", "is_fresh": 1, "author": ["David Ansen"]},
{"text": "One of Hayao Miyazaki's strengths is the sense of wonderment and magic that he's able to bring to his films.", "is_fresh": 1, "author": ["Austin Trunick"]},
{"text": "The story is almost the least of it, more important is what is beyond the story: genuine emotion, beauty, a meditation on age and love.", "is_fresh": 1, "author": ["Dorothy Woodend"]},
{"text": "[Miyazaki] may have made better films than Howl's Moving Castle, but it still exhibits his amazing imagination and astonishing detail.", "is_fresh": 1, "author": ["Derek Malcolm"]},
{"text": "There is little of the magic and Japanese flavour of such Miyazaki masterpieces as Spirited Away.", "is_fresh": 0, "author": ["Philip French"]},
{"text": "Howl's Moving Castle is Japanese and anime, and therefore automatically more artistic than its US counterparts. The right cultural cachet gives you a lot of leeway.", "is_fresh": 0, "author": ["John Lyttle"]},
{"text": "Like Tiepolo, Miyazaki is a winged artist who flies in his own space, taking gravity with him. He can put us into a childish stupor of anticipation, then satisfaction. His vision is so free that it captivates.", "is_fresh": 1, "author": ["David Elliott"]},
{"text": "A floatingly delightful fairytale with its heart set on repealing the law of gravity.", "is_fresh": 1, "author": ["Peter Bradshaw"]},
{"text": "It is so intriguing.", "is_fresh": 1, "author": ["Margaret Pomeranz"]},
{"text": "Miyazaki's vision is an extraordinary one, and Howl's Moving Castle confirms his fascination for transformations, for dangerous journeys and strange adventures.", "is_fresh": 1, "author": ["David Stratton"]},
{"text": "The film, as expected, is a feast for the eyes.", "is_fresh": 1, "author": ["Jeff Elbel"]},
{"text": "Howl's Moving Castle is a graceful fantasy that builds on the strengths Hayao Miyazaki displayed in Princess Mononoke and Spirited Away.", "is_fresh": 1, "author": ["Andrew Dowler"]},
{"text": "Miyazaki isn't interested in the jolts of surrealism so much as imbuing his audience with the idea that reality can change at any moment, and change back just as quickly.", "is_fresh": 1, "author": ["Sam Adams"]},
{"text": "Even if the plot leaves something to be desired in terms of explanation, it can be followed if you stay on your toes. Either way, Howl's Moving Castle is a marvel to watch.", "is_fresh": 1, "author": ["Daniel Saney"]},
{"text": "I've only recently started scratching the surface of Japanese anim\u00e9 as an art form, an acquired taste still, but it is works of full wonder and beauty like this one that keep pushing me into acquiring it.", "is_fresh": 1, "author": ["Fernando F. Croce"]},
{"text": "A very good fantasy epic about life, war, and a young learning to live through old age.", "is_fresh": 1, "author": ["Felix Vasquez Jr."]},
{"text": "Despite the muddy narrative... It's the more intimate character relationships that ultimately make Howl's Moving Castle work as a whole.", "is_fresh": 1, "author": ["Christopher Runyon"]},
{"text": "What you get, above all, is some enchanting flashes of classic Miyazaki and the nagging sense that something essential is missing.", "is_fresh": 1, "author": ["Jeff Shannon"]},
{"text": "Although his latest film, Howl's Moving Castle, features astonishing imagery, it's a less complete package than Spirited Away or its predecessor, Princess Mononoke.", "is_fresh": 1, "author": ["Jeff Meyers"]},
{"text": "Prepare to be dazzled: Hayao Miyazaki is back.", "is_fresh": 1, "author": []},
{"text": "The story grows more complicated (sometimes too much so) but the heart, humor and luscious, mostly hand-drawn animation remain constant.", "is_fresh": 1, "author": ["Leah Rozen"]},
{"text": "Howl's Moving Castle is a visually wondrous, invigorating work of breathless invention and grandiosity, full of hushed pastoral glens, zeppelin blitzkriegs, whimsical machines, and blobs that wear straw hats. And it's not Miyazaki's finest.", "is_fresh": 1, "author": ["Christopher Borrelli"]},
{"text": "What a moveable feast of delights.", "is_fresh": 1, "author": ["Joe Morgenstern"]},
{"text": "A strange delight awash in visual splendor, understated humor and clever body-and-soul transmogrifications among its bonny band of weirdos.", "is_fresh": 1, "author": ["David Germain"]},
{"text": "By turns funny, exhilarating and touching, it lacks only one thing: the spiritual and metaphysical depth that made Spirited Away such a haunting experience.", "is_fresh": 1, "author": ["Lee Marshall"]},
{"text": "The incredible imagination of Spirited Away director Hayao Miyazaki runs wild once again in this delightful animated adventure.", "is_fresh": 1, "author": ["Sloan Freer"]},
{"text": "A richly inventive and enchanting delight.", "is_fresh": 1, "author": ["Anthony Lane"]},
{"text": "A handsome fantasy movie with only a nod in the direction of the rich, all-encompassing humanity and emotionality of Miyazaki's greatest work.", "is_fresh": 1, "author": ["Tim Brayton"]},
{"text": "Howl's Moving Castle is a perfect epitome of Miyazaki's work, in all its strengths and weaknesses: it's filled with heart-felt themes...but how these elements connect on a plot level is subjugated to how beautifully they are rendered on screen.", "is_fresh": 1, "author": ["Steve Biodrowski"]},
{"text": "A stunning example of a pure, disorienting dream logic that cinema provides all too rarely.", "is_fresh": 1, "author": ["Joshua Rothkopf"]},
{"text": "Palaces and shimmering lakes, warplanes and fire sprites all come to life at the breath of Miyazaki's graphic genius.", "is_fresh": 1, "author": ["Richard Corliss"]},
{"text": "Another work of great imagination and beauty from Hiyao Miyazaki.", "is_fresh": 1, "author": ["Daniel Etherington"]},
{"text": "The film gains a sense of visual wonder almost completely freed from the strains of a narrative-driven film.", "is_fresh": 1, "author": ["Rob Humanick"]},
{"text": "few other films, or indeed filmmakers, would dare take a scene in which two elderly women struggle to climb a staircase and turn it into an extravagant and memorable set piece.", "is_fresh": 1, "author": ["Anton Bitel"]},
{"text": "Another example of how this film maven easily holds the crown in the sadly ever-shrinking traditional animation genre.", "is_fresh": 1, "author": ["Garth Franklin"]},
{"text": "A delightfully fanciful movie with engaging storytelling, visual wonders, and such worthwhile themes as contrasting wisdom and perspective with age.", "is_fresh": 1, "author": ["Russ Breimeier"]},
{"text": "The risibly cloying closing scenes are likely to nix any remaining goodwill, blotting out such delicate early touches as a stroll through the air far above a town square.", "is_fresh": 1, "author": ["Ben Walters"]},
{"text": "Miyazaki's stunning animation and characteristically vivid colors make the film a visual feast...", "is_fresh": 1, "author": ["Jim Lane"]},
{"text": "Miyazaki has done better, and his epic style might get the best of him in this film a bit. Still, it is nonetheless a journey worth taking.", "is_fresh": 1, "author": ["Kevin Carr"]},
{"text": "If it weren't for \"Wallace & Gromit: The Curse of the Were-Rabbit,\" \"Howl's Moving Castle\" would be your winner for this year's Academy Award for Best Animated Picture.", "is_fresh": 1, "author": ["Christopher Smith"]},
{"text": "As a lover of Fantasy and Sci-Fi books and movies, this cartoon appealed me to with its detailed plot and unique world.", "is_fresh": 1, "author": ["Scott Nash"]},
{"text": "Miyazaki has an appeal that crosses generations. Adult audiences are drawn to the depth and variety of his vision, but so are kids, and for exactly the same reasons.", "is_fresh": 1, "author": ["Philippa Hawker"]},
{"text": "There is giggling, belly-laughing, and gasping to be done watching Howl's Moving Castle.", "is_fresh": 1, "author": ["Ken Tucker"]},
{"text": "A compelling story is the main ingredient missing from Howl's Moving Castle.", "is_fresh": 1, "author": ["Pete Vonder Haar"]},
{"text": "If you're in the market for a brilliant piece of family animation you'd be hard-pressed to find anything better this year.", "is_fresh": 1, "author": ["Joe Utichi"]},
{"text": "Miyazaki's animated adaptation of Jones' book is a charming and thoroughly absorbing treat.", "is_fresh": 1, "author": ["Tasha Robinson"]},
{"text": "The hand-drawn animation is breathtakingly gorgeous and there's a huge amount of detail that will reward repeated viewings.", "is_fresh": 1, "author": ["Matthew Turner"]},
{"text": "As much of a hand-drawn treat as Spirited Away, chock-full of numinous sunsets, fabulous organic machinery and gratuitously delightful touches.", "is_fresh": 1, "author": ["Andrew Osmond"]},
{"text": "A terrific little fantasy that will arouse one's childlike curiosity.", "is_fresh": 1, "author": ["Todd Gilchrist"]},
{"text": "Youngsters and Miyazaki fans will coo at the world's depth and rich surreality, but opaque plotting, and a tendency to mope with Sophie whilst Howl is off affecting events let the momentum of the first act vanish into thin air.", "is_fresh": 0, "author": ["Jonathan Trout"]},
{"text": "There are some truly inspired moments, although this new animation from Japanese writer / director Hayao Miyazaki never reaches the heights of the brilliant Spirited Away.", "is_fresh": 1, "author": ["Urban Cinefile Critics"]},
{"text": "Positively sings with color and light.", "is_fresh": 1, "author": ["Bryant Frazer"]},
{"text": "It's Miyazaki's most difficult work to get a grip on.", "is_fresh": 1, "author": ["Mark Palermo"]},
{"text": "Strange and beautiful, \"Howl's Moving Castle\" is the latest anime offering from Hayao Miyazaki.", "is_fresh": 1, "author": ["Linda Cook"]},
{"text": "Miyazaki and his team of crazy geniuses at world-renowned Studio Ghibli have once again produced an animated film of joy and beauty.", "is_fresh": 1, "author": ["Michelle Thomas"]},
{"text": "a visual delight and a reminder of the continuing power of two-dimensional animation done right", "is_fresh": 1, "author": ["James Kendrick"]},
{"text": "Puts forth a sensitive and well-meaning story that makes sense for today's troublesome world.", "is_fresh": 1, "author": ["Dennis Schwartz"]},
{"text": "Japanese filmmaker Hayao Miyazaki continues to show there's still a world of wonder to be found in traditional hand-drawn animation.", "is_fresh": 1, "author": ["Daniel M. Kimmel"]},
{"text": "It is worth seeing a second time simply to focus on the incredible artistry. ", "is_fresh": 1, "author": ["David Kaplan"]},
{"text": "It's the combination of the characterizations, the of truths dropped here and there in the dialogue, and the sheer visual dazzlement that truly make the film what it is. ", "is_fresh": 1, "author": ["Ken Hanke"]},
{"text": "The story is old-fashioned ... much like a Grimm fairytale, complex and with a dark edge.", "is_fresh": 1, "author": ["Lori Hoffman"]},
{"text": "Howl's Moving Castle may not be Miyazaki's best work, but anything he gives us is something to be cherished and enjoyed.", "is_fresh": 1, "author": ["Andy Kurtz"]},
{"text": "The moving castle alone is worth the price of admission.", "is_fresh": 1, "author": ["Ethan Alter"]},
{"text": "What I love so far about Miyazaki is how he never fails to take advantage of the fact that his entertainment medium of choice is animation.", "is_fresh": 1, "author": ["Jeffrey Chen"]},
{"text": "Don't wait for video. See Howl on the big screen.", "is_fresh": 1, "author": ["Marty Mapes"]},
{"text": "If you like anime even a little, prepare to be stunned.", "is_fresh": 1, "author": ["J. Bowers"]},
{"text": "One of the most unusual and involving animated epics ever put on screen.", "is_fresh": 1, "author": ["Rich Cline"]},
{"text": "A beguiling, visually fanciful diversion", "is_fresh": 1, "author": ["Susan Granger"]},
{"text": "Yes, there are moments of great beauty here, but boy, the story could have used some editing.", "is_fresh": 0, "author": ["Luke Y. Thompson"]},
{"text": "While the plot of Howl's Moving Castle doesn't always take off, Miyazaki's flights of artistic fancy dazzle, frame by exhilarating frame.", "is_fresh": 1, "author": ["Brian Gibson"]},
{"text": "The story ... carries a weak narrative thread that gets lost in the shuffle of magic and mayhem.", "is_fresh": 0, "author": ["Sean O'Connell"]},
{"text": "Far from being a masterpiece of storytelling like its predecessor was, it is instead a perfectly acceptable, pleasantly diverting fairy tale for old and young alike.", "is_fresh": 1, "author": ["Eric D. Snider"]},
{"text": "It's not Miyazaki's best work, but it is leagues beyond any traditional 2-D animation out of 3-D-mad Hollywood lately, and more beguiling than anything Disney's done in ages.", "is_fresh": 1, "author": ["Marc Savlov"]},
{"text": "A gorgeous, life-affirming piece whose anti-war message is particularly timely.", "is_fresh": 1, "author": ["Dan Jardine"]},
{"text": "Emphatically passionate and fraught with greater meaning.", "is_fresh": 1, "author": ["Audrey Rock-Richardson"]},
{"text": "The visual power of Miyazaki's animation is as strong as ever, but it's all for naught when you can't make heads or tails of the story on screen.", "is_fresh": 0, "author": ["Mark Pfeiffer"]},
{"text": "Glitches in storytelling and stunt casting cannot overshadow the wondrous sights that Miyazaki doles out for our approval.", "is_fresh": 1, "author": ["Matt Brunson"]},
{"text": "The story works on many levels, including as an anti-war fable, but its central theme is about the matchless power of love.", "is_fresh": 1, "author": ["Robert Roten"]},
{"text": "While there's no denying Miyazaki's visual flair and tip-top draughtsmanship, I found myself less than enchanted by the mile-high convolutions of the plot, and frankly bored by the final half-hour.", "is_fresh": 0, "author": ["Anthony Quinn"]},
{"text": "Miyazaki's expertise at drafting, along with his eye for detail and ability to infuse a story with heart, results in a wonderfully entertaining film.", "is_fresh": 1, "author": ["Diana Saenger"]},
{"text": "Howl's Moving Castle moves -- in short, choppy, jumpy jerks that will never make anyone forget how fluid the truly great hand-drawn cartoons look by comparison.", "is_fresh": 0, "author": ["Roger Moore"]},
{"text": "With such an unfocused, impenetrable center, the film grows dull.", "is_fresh": 0, "author": ["Rene Rodriguez"]},
{"text": "So richly detailed and colorful that one almost aches from the beauty.", "is_fresh": 1, "author": ["Bruce Westbrook"]},
{"text": "It's entrancing, with more magical and laugh-out-loud moments than any other animated feature so far this year.", "is_fresh": 1, "author": ["Jeff Vice"]},
{"text": "The world's leading animator has come back with a movie that's even more complicated and just as visually dazzling and heartfelt.", "is_fresh": 1, "author": ["Lawrence Toppman"]},
{"text": "It's almost a disappointment that a Miyazaki film engages the eyes better than the brain, but it's hard to be disappointed with images this radiant and gorgeous.", "is_fresh": 1, "author": ["Sean P. Means"]},
{"text": "I've seen the best anime movies of my generation destroyed by bad writing.", "is_fresh": 0, "author": ["Thomas Delapa"]},
{"text": "Not only flies over the head of anyone whose expectations have been stunted by animated Hollywood fare, it soars.", "is_fresh": 1, "author": ["Duane Dudek"]},
{"text": "If you've yet to take the anime plunge, this is a fine place to start; if you're an old hand, you will not be disappointed.", "is_fresh": 1, "author": ["Terry Lawson"]},
{"text": "When it comes to magnificence in anime imagineering, Miyazaki continues to be the man.", "is_fresh": 1, "author": ["Larry Ratliff"]},
{"text": "Increasingly hard to follow, with too many dull patches along the way.", "is_fresh": 0, "author": ["Scott Von Doviak"]},
{"text": "Fantasy tale from master animator Hayao Miyazaki is a feast for the senses ... that makes no sense.", "is_fresh": 0, "author": ["James Rocchi"]},
{"text": "The world it gives us to live in, for a couple of hours, is pure magic. It is one of those places we might wish never to leave.", "is_fresh": 1, "author": ["Richard Nilsen"]},
{"text": "Choppy story lines and threadbare characterization often hamper live-action adventures, and Mr. Miyazaki's newest anime endeavor suffers from similar handicaps.", "is_fresh": 0, "author": ["Philip Wuntch"]},
{"text": "The whole thing has the heavenly whimsy of Ludwig Bemelmans' illustrations from the classic French children's books.", "is_fresh": 1, "author": ["Rex Reed"]},
{"text": "It's Miyazaki all the way.", "is_fresh": 1, "author": ["Eric Lurio"]},
{"text": "It's hard to imagine a film more imaginative and creative than this latest work from the world's premier animator.", "is_fresh": 1, "author": ["Boo Allen"]},
{"text": "Miyazaki's work is so refreshingly engaging, even his recycled ideas seem as if they spring brand new from his kaleidoscopic imagination.", "is_fresh": 1, "author": ["Jeffrey Overstreet"]},
{"text": "An insanely creative work.", "is_fresh": 1, "author": ["Richard Roeper"]},
{"text": "The weirdest dream or acid trip you'll ever experience, broadcasted on the big screen by a team of creative craniums", "is_fresh": 1, "author": ["Lexi Feinberg"]},
{"text": "One of the summer's tastiest treats...a beautifully wrought, intoxicatingly dreamlike parable of personal and social maturation.", "is_fresh": 1, "author": ["Frank Swietek"]},
{"text": "The director's grasp of animation techniques is as impressive as the depth and substance of his imaginary worlds.", "is_fresh": 1, "author": ["Daniel Eagan"]},
{"text": "...heartfelt humanism once again enlivens the filmmaker's craft, yet this time around the film seems quieter, more charming and eccentric than awing.", "is_fresh": 1, "author": ["Doug Cummings"]},
{"text": "Absurdly engaging narrative and surreal visuals.", "is_fresh": 1, "author": ["Jeanne Aufmuth"]},
{"text": "The procession of enchanting and spectacular images is intoxicating.", "is_fresh": 1, "author": ["Eleanor Ringel Cater"]},
{"text": "Miyazaki, now in his mid-60s, has a refreshing and persuasive way of relating youth to old age and callowness to wisdom. Rather than presenting them succeeding each other and fighting for supremacy, he shows them coexisting peacefully.", "is_fresh": 1, "author": ["Jonathan Rosenbaum"]},
{"text": "Meanders so listlessly that its details become less and less charming. Miyazaki's storytelling style resembles that of a breathless young tot who's fearlessly exercising his newfound powers of expression.", "is_fresh": 0, "author": ["Stephanie Zacharek"]},
{"text": "Miyazaki continues to astonish with the sheer artistry and breadth of his vision.", "is_fresh": 1, "author": ["Timothy Knight"]},
{"text": "A feast of images and ideas for those who still cling to the idea that animation ought to be every bit as expressive as anything that begins with a blank page, a sharp pencil and an unharnessed imagination.", "is_fresh": 1, "author": ["Geoff Pevere"]},
{"text": "In the animated worlds of Hayao Miyazaki, the border between the domestic and the magical, between the everyday and the astounding, lies no further away than the nearest broom closet or backyard.", "is_fresh": 1, "author": ["Peter Keough"]},
{"text": "The film is beautiful to look at, with stunningly rendered landscapes and fanciful creations.", "is_fresh": 1, "author": ["Sharon Knolle"]},
{"text": "Howl's Moving Castle is one animated epic that has it all: poetic intensity, potent storytelling, vivid and surprising characters, and intoxicating powers of visual imagination.", "is_fresh": 1, "author": ["Michael Sragow"]},
{"text": "Miyazaki may not have achieved the level of Spirited Away, but he's still ahead of the curve.", "is_fresh": 1, "author": ["James Berardinelli"]},
{"text": "Speaking of enchantment, that's the ultimate thing missing from Howl's Moving Castle. That and soul.", "is_fresh": 0, "author": ["Michael O'Sullivan"]},
{"text": "There is no story, or rather, there's no force to the story, which meanders almost casually this way and that for no apparent reason.", "is_fresh": 0, "author": ["Stephen Hunter"]},
{"text": "This magical adventure delivers the goods.", "is_fresh": 1, "author": ["Ken Fox"]},
{"text": "Miyazaki is like a soulful cartographer of the soul, mapping our inner landscape, leaving us bedazzled.", "is_fresh": 1, "author": ["David Edelstein"]},
{"text": "A wise and wonderful parable of the passing moments of life, and dealing with both the advantages and burdens that make us individuals.", "is_fresh": 1, "author": ["G. Allen Johnson"]},
{"text": "There's a word for the kind of comic, dramatic, romantic, transporting visions Miyazaki achieves in Howl's: bliss.", "is_fresh": 1, "author": ["Peter Travers"]},
{"text": "Another stunningly beautiful and beguiling work of animation from Japan's Hayao Miyazaki.", "is_fresh": 1, "author": ["Lou Lumenick"]},
{"text": "Unnerving and quietly profound.", "is_fresh": 1, "author": ["M.E. Russell"]},
{"text": "The visuals cast a spell as wondrous as those that the wizards in the movie create, so the film is well worth seeing.", "is_fresh": 1, "author": ["Bruce Kirkland"]},
{"text": "With its bold screen-filling imagery, this is definitely a movie to be relished on the big screen.", "is_fresh": 1, "author": ["Liam Lacey"]},
{"text": "Those who appreciate Miyazaki's artistry will find much to savor, even in a work that may not rank among the director's best.", "is_fresh": 1, "author": ["Robert Denerstein"]},
{"text": "So good that it shames virtually every animated film made since Miyazaki's last film, Spirited Away, graced movie screens in 2002.", "is_fresh": 1, "author": ["Jeffrey M. Anderson"]},
{"text": "Dazzlingly imaginative, carefully observed, and suffused with a rare generosity of spirit.", "is_fresh": 1, "author": ["Jurgen Fauth"]},
{"text": "The film is at its worst when trying to outright engage you and at its best when it doesn't pay the audience much mind.", "is_fresh": 0, "author": ["Matt Caracappa"]},
{"text": "At its best, Howl's Moving Castle offers a rich fantasy of adolescent escape, of romance in the old and epic sense.", "is_fresh": 1, "author": ["Ty Burr"]},
{"text": "No amount of description can prepare you for the visceral nature of the visual astonishments Miyazaki has created.", "is_fresh": 1, "author": ["David Kronke"]},
{"text": "There's also a pervasive, intoxicating sense of enchantment. It's magic.", "is_fresh": 1, "author": ["Jami Bernard"]},
{"text": "A Miyazaki film couldn't breathe in a world already populated and established. It exists on its own as a fantasy whose only constraint is that it has to eventually end.", "is_fresh": 1, "author": ["Erik Childress"]},
{"text": "Charming, peculiar, and occasionally ingenious, Howl's Moving Castle tilts between fantastical beauty and philosophical pondering.", "is_fresh": 1, "author": ["Cynthia Fuchs"]},
{"text": "It's like a combination of Beauty And The Beast and The Wizard Of Oz with an extra dose of comedy - not a bad mix for an entertaining fairy tale.", "is_fresh": 1, "author": ["Cherryl Dawson and Leigh Ann Palone"]},
{"text": "This is a film meant for more mature youngsters, teens and adults and is best viewed on the big screen.", "is_fresh": 1, "author": ["Robin Clifford"]},
{"text": "Docter's English vocal cast make \"Howl\" possibly Miyazaki's funniest outing without diluting any of Miyazaki's artistry. ", "is_fresh": 1, "author": ["Laura Clifford"]},
{"text": "Miyazaki doesn't push children down a familiar path. He takes off the training wheels and dares to ask young viewers to imagine alongside him.", "is_fresh": 1, "author": ["Jeffrey Westhoff"]},
{"text": "Too abstruse for general American audiences. But if sheer animated beauty is up your alley, Miyazaki's latest is an inviting daydream, easily worth your time.", "is_fresh": 1, "author": ["Brent Simon"]},
{"text": "Even a lesser Miyazaki effort is superior to 99 percent of its American contemporaries.", "is_fresh": 1, "author": ["Nick Schager"]},
{"text": "Exhibits an Alice in Wonderland puckishness in its characters and their absurd situations, and an underlying spiritual calm [unlike] the usual animated franticness.", "is_fresh": 1, "author": ["Peter Canavese"]},
{"text": "Miyazaki's engaging touch for the surreal counterpoints the film's antiwar message nicely.", "is_fresh": 1, "author": []},
{"text": "Decades from now Howl's Moving Castle will be looked back at as a classic.", "is_fresh": 1, "author": ["Devin Faraci"]},
{"text": "Another charming and inventive fairy tale every bit as good as [Miyazaki's] past offerings. ", "is_fresh": 1, "author": ["Edward Douglas"]},
{"text": "Howl's Moving Castle is a wildly imaginative and artistic adventure, but one that isn't easily understood.", "is_fresh": 0, "author": ["Willie Waffle"]},
{"text": "This movie often soars, blending a childlike sense of wonder with sophisticated emotions and motives.", "is_fresh": 1, "author": ["Claudia Puig"]},
{"text": "Movie magic is only as powerful as the imagination that casts it. Japanese master Hayao Miyazaki's imagination is the most creative in animated filmmaking.", "is_fresh": 1, "author": ["Sean Axmaker"]},
{"text": "A regression for Miyazaki from his last two films in almost every sense.", "is_fresh": 0, "author": ["Walter Chaw"]},
{"text": "even a lesser Miyazaki effort is superior to 99 percent of its American contemporaries", "is_fresh": 1, "author": ["Christopher Null"]},
{"text": "...only the most die-hard fans of director Hayao Miyazaki will find something here worth embracing.", "is_fresh": 0, "author": ["David Nusair"]},
{"text": "A parade of weird characters comes onstage to do their turns, but the underlying plot grows murky and, amazingly for a Miyazaki film, we grow impatient at spectacle without meaning.", "is_fresh": 0, "author": ["Roger Ebert"]},
{"text": "Confirms that Miyazaki is one of the most brilliant practitioners of the cartoon feature form ever.", "is_fresh": 1, "author": ["Michael Wilmington"]},
{"text": "Miyazaki once again takes the breath away with his bizarre imagination and richly painted scenes.", "is_fresh": 1, "author": ["Janos Gereben"]},
{"text": "The latest animated tour de force from the Japanese director Hayao Miyazak is a fitting introduction to one of modern cinema's great enchanters.", "is_fresh": 1, "author": ["A.O. Scott"]},
{"text": "Miyazaki's gift for wonder, an ease with fantasy that makes enchantment second nature, is so great it obliterates differences in language.", "is_fresh": 1, "author": ["Kenneth Turan"]},
{"text": "An eye-popping, mind-bending phantasmagoria from one of the greatest living film artists.", "is_fresh": 1, "author": ["Carrie Rickey"]},
{"text": "The tireless volley of ideas and inventions make this a delight that should connect with kids and adults in both dubbed and original-language versions.", "is_fresh": 1, "author": ["David Rooney"]},
{"text": "It benefits from Miyazaki's abundant visual imagination, which fills the screen with eye-dazzling wonders.", "is_fresh": 1, "author": ["David Sterritt"]},
{"text": "An overly familiar affair that will strain young attention spans with its plodding lessons about greed (it's bad) and nature (it's good).", "is_fresh": 0, "author": ["Chris Hewitt (St. Paul)"]},
{"text": "The characters are reserved and distant...the objects -- a flame, a scarecrow, even the machines -- seem to have more personality than the humans.", "is_fresh": 1, "author": ["Nell Minow"]},
{"text": "For the first time, the Master's wondrous imagination feels slightly... familiar.", "is_fresh": 1, "author": ["Andrew Wright"]},
{"text": "One of the best films of the year with its rousing treatment of caretaking, aging, anti-war sentiments, and the bounties of the heart.", "is_fresh": 1, "author": ["Frederic and Mary Ann Brussat"]},
{"text": "Prepare to be thoroughly enchanted. Prepare also to be challenged in ways that few current movies bother with, live action or otherwise.", "is_fresh": 1, "author": ["Gene Seymour"]},
{"text": "The visuals are stunning, bursting with vivid colors and surreal inventiveness.", "is_fresh": 1, "author": ["Jeff Strickler"]},
{"text": "Howl is often impish -- the slimy black things the Witch of Waste sends after Howl wear Panama hats -- but Miyazaki never panders to moviegoers with Eddie Murphy asides.", "is_fresh": 1, "author": ["Ella Taylor"]},
{"text": "Technologically adept, fevered imagination.", "is_fresh": 1, "author": ["Harvey S. Karten"]},
{"text": "The inhabitants of Miyazaki's enchanted universe understand that spirits are as much a part of everyday life as the fishmongers and soldiers and airplanes crowding the confines of the movie frame in set-piece scenes of spectacular detail.", "is_fresh": 1, "author": ["Lisa Schwarzbaum"]},
{"text": "Magical send off, but overstays and over-resolves just a bit. That said, some gorgeous imagery, charming to look at, and a cast of endearingly animated characters.", "is_fresh": 1, "author": ["Ross Anthony"]},
{"text": "After about 20 leisurely minutes, I swore that I could watch this movie forever, or at least several times over.", "is_fresh": 1, "author": ["Eugene Novikov"]},
{"text": "In anim\u00e9, Miyazaki has secured the high ground.", "is_fresh": 1, "author": ["Jules Brenner"]},
{"text": "The film is an organic, childlike wonder, fabulously unpredictable and seethingly inventive.", "is_fresh": 1, "author": ["Michael Atkinson"]},
{"text": "The straightforward narrative constantly seems at odds with Miyazaki's dreamy landscapes and fanciful flourishes.", "is_fresh": 0, "author": ["Gabriel Shanks"]},
{"text": "A treasure. Its wonders come so constantly that one can almost start to take them for granted.", "is_fresh": 1, "author": ["Jeremy Heilman"]},
{"text": "Miyazaki exerts a strong command over a wide-ranging story line and skillfully seduces the viewer into deciphering the subtle motivations of the characters.", "is_fresh": 1, "author": ["Richard James Havis"]},
{"text": "Howl's Moving Castle is a Hayao Miyazaki film through and through, but the film's meta momentum is bound to disappoint fans of the director's more conventional work.", "is_fresh": 1, "author": ["Ed Gonzalez"]},
{"text": "", "is_fresh": 1, "author": ["James Verniere"]},
{"text": "", "is_fresh": 1, "author": ["Daniel Kasman"]},
{"text": "", "is_fresh": 1, "author": []}
]