[
{"reviews_count": "233", "title": "Kill Bill", "avg_audience_rating": "3.4", "rotten_count": "36", "tomatometer": "85", "audience_score": "81", "avg_critic_rating": "7.7", "fresh_count": "197", "user_ratings_count": "32,557,636"},
{"text": "Watching Tarantino's films-and none more than Kill Bill-is like being stuck in a room with someone who, like so many of this director's characters, can't stop talking about the really neat parts in the movies he's seen.", "is_fresh": 0, "author": ["Daniel Mendelsohn"]},
{"text": "... Kill Bill confirms [Quentin Tarantino] as a filmmaker of astonishing invention and aplomb... ", "is_fresh": 1, "author": ["Geoffrey O'Brien"]},
{"text": "There's nothing like a good 'ole revenge heist (complete with a hit list) to make this film one of Tarantino's best.", "is_fresh": 1, "author": ["Candice Frederick"]},
{"text": "The tale is pure pulp, a catalogue of seventies martial arts revenge dramas and American B-movie action thrillers, and the style is pure Tarantino...", "is_fresh": 1, "author": ["Sean Axmaker"]},
{"text": "delivers on every classic Tarantino brand that you'd come to expect ", "is_fresh": 1, "author": ["Kevin Carr"]},
{"text": "Visually striking, but also very violent.", "is_fresh": 1, "author": ["Nell Minow"]},
{"text": "A head-spinning dream project of extraordinarily bi-polar, nutso invention, Vol. 1 is a candy store rampage, cheering on Tarantino's fetishes as he built a colorful war machine of ideal double-feature dementia.", "is_fresh": 1, "author": ["Brian Orndorf"]},
{"text": "Quentin Tarantino's long awaited fourth film finds the pop culture carnivore of filmmaking reinvigorating cinema a second time over with a single-plot-trajectory revenge movie that utilizes samurai sword action with a shifting score of infectious guitar d", "is_fresh": 1, "author": ["Cole Smithey"]},
{"text": "With its eclectic use of music and inventive mix of genres, Kill Bill is a striking and enigmatic revenge film visually and culturally rich and relentless in its action.", "is_fresh": 1, "author": ["Urban Cinefile Critics"]},
{"text": "Something borrowed, something bloody. [Blu-ray]", "is_fresh": 1, "author": ["Peter Canavese"]},
{"text": "Tarantino instead relies on delirious, high-octane, imaginative camera work; an anime sequence; and an exhilarating musical soundtrack to punch up a story that loses its intoxicating magnetism well before the final credits roll.", "is_fresh": 1, "author": ["Mark Halverson"]},
{"text": "A strange, fun and densely textured work that gets better as it goes along.", "is_fresh": 1, "author": ["Todd McCarthy"]},
{"text": "Even more gory and adolescent than its models, which explains both the fun and the unpleasantness of this globe-trotting romp.", "is_fresh": 0, "author": ["Jonathan Rosenbaum"]},
{"text": "I didn't leave the cinema aching to see Volume Two (out in February), though I'm interested to learn how things work out.", "is_fresh": 1, "author": ["Philip French"]},
{"text": "Kill Bill is a temple of worship -- a devout hymn of praise to crap cinema (which isn't always crappy).", "is_fresh": 1, "author": ["Rob Gonsalves"]},
{"text": "Kill Bill is pretty stupid, but there are also moments of beauty and brilliance.", "is_fresh": 1, "author": ["Joe Lozito"]},
{"text": "Unfolding as a book the film is conceived in chapters, each boasting the look and pulse of a specific genre; as expected of Tarantino, there are references to music, literature, fashion, and above all movies and pop culture, both American and foreign.", "is_fresh": 1, "author": ["Emanuel Levy"]},
{"text": "It's all bang, bang; no kiss, kiss. But this is still bravura film-making from a prodigious talent, and Thurman may yet prove its saving grace.", "is_fresh": 1, "author": []},
{"text": "One of the best films of the year, and, when it's all said and done, probably the decade.", "is_fresh": 1, "author": ["Jason Zingale"]},
{"text": "Tarantino is back with his most polished and yet slightly empty effort yet.", "is_fresh": 1, "author": ["Garth Franklin"]},
{"text": "A movie that, without Uma, would have ultimately been a stylistic masterpiece, but never the stirring epic that it is shaping up to be. ", "is_fresh": 1, "author": ["Jordan Hiller"]},
{"text": "Perhaps the funniest thing about Kill Bill: Volume One is the realization that this ode to ultraviolence and Uma Thurman's feet is probably Quentin Tarantino's most personal film.", "is_fresh": 1, "author": ["Ethan Alter"]},
{"text": "Volume One is, above all, a parade of fantastic fight scenes, each one bloodier than the one that came before ... bloody in the Looney-Toons/Monty-Python sense.", "is_fresh": 0, "author": ["Jeffrey Overstreet"]},
{"text": "Different enough from Tarantino's previous work to finally win over even an inveterate Tarantino-sceptic like me.", "is_fresh": 1, "author": ["Maximilian Le Cain"]},
{"text": "There is no ironic overlay in Tarantino's movies, no 'commenting' on the pop schlock he's replicating. He simply wants to remake in his own way the kinds of movies he's always loved, and he's about as uncynical as a movie geek can be.", "is_fresh": 1, "author": ["Peter Rainer"]},
{"text": "Kill Bill isn't human. It's cinema as cinema. Tarantino is like a hyper, too-bright child, worrying you for your attention, jumping from thought to thought in his brain", "is_fresh": 0, "author": ["Jake Euker"]},
{"text": "Blood spews from bodies like fountains of Chinese fireworks throughout the movie.", "is_fresh": 1, "author": ["Judith Egerton"]},
{"text": "It may be violent but it also has a joy for life and music and movies.", "is_fresh": 1, "author": ["Mark Robison"]},
{"text": "Volume 1 is a pure sugar-rush, an adrenaline-packed needle that injects wild fun into almost every conceivable vein.", "is_fresh": 1, "author": ["Gabe Leibowitz"]},
{"text": "...a gymnastic ballet of violence and a veritable orgy in blood.", "is_fresh": 1, "author": ["John J. Puccio"]},
{"text": "Tarantino is no dilettante. He smartly sticks to what he knows, steals from the best, and makes his films his own.", "is_fresh": 1, "author": ["Matt Kelemen"]},
{"text": "As kung fu films go, this is one of the best I've ever seen.", "is_fresh": 1, "author": ["Jeff Otto"]},
{"text": "Tarantino returns to the silver screen with the first installment of a bloody two-part tribute to the samurai stories of old... and we're all better for it!", "is_fresh": 1, "author": ["Blake Wright"]},
{"text": "A bloody, bubble-gum epic with as much dramatic weight as a powder puff.", "is_fresh": 0, "author": ["James Verniere"]},
{"text": "'Filmmaking genius or blood-loving freak? Tarantino is a bit of both ...'", "is_fresh": 1, "author": ["Lori Hoffman"]},
{"text": "Brutally bloody and thrillingly callous from first to last.", "is_fresh": 1, "author": ["Peter Bradshaw"]},
{"text": "An audacious, inventive and relentless action movie.", "is_fresh": 1, "author": ["Jason Anderson"]},
{"text": "...a movie with such raw ambition and spirit that it literally reinvents the standards of everything it can be associated with.", "is_fresh": 1, "author": ["David Keyes"]},
{"text": "'Tarantino logra un buen trabajo a secas. Ninguna obra maestra, pero si una buena cinta para pasar el rato y re\u00edrse de las exageraciones mostradas'", "is_fresh": 1, "author": ["Jorge Avila Andrade"]},
{"text": "Confesso que ri ao perceber que daria 5 estrelas para este longa - mas qualquer outra cota\u00e7\u00e3o seria injusta e preconceituosa.", "is_fresh": 1, "author": ["Pablo Villa\u00e7a"]},
{"text": "It's all about energy. It's constant and, for me, addicting.", "is_fresh": 1, "author": ["Ryan Cracknell"]},
{"text": "If genre imitation is at epidemic levels, Tarantino still holds the title of original master, and the guy most likely to be stolen from.", "is_fresh": 1, "author": ["Prairie Miller"]},
{"text": "[Tarentino]'s back in high style, drawing on such sources as martial arts movies and Japanese animation to create a vivid world all his own.", "is_fresh": 1, "author": ["Daniel M. Kimmel"]},
{"text": "Quentin Tarantino makes terrible movies really, really well.", "is_fresh": 0, "author": ["Joshua Tanzer"]},
{"text": "(...) una fiesta, una org\u00eda de sangre, humor y locura desmedida, excesiva y caprichosa, seguramente no del gusto de todos.", "is_fresh": 1, "author": ["Enrique Buchichio"]},
{"text": "But if Kill Bill: Volume 1 is the creation of a director with a lot to show, it's also the work of one with not very much to say.", "is_fresh": 1, "author": ["Harry Guerin"]},
{"text": "Kill Bill, Volume 1 is Quentin Tarantino's amazing fourth film and the first chapter of a tantalizing homage to 1970s action and blaxploitation.", "is_fresh": 1, "author": ["Wesley Lovell"]},
{"text": "Tarantino has constructed a highly artificial screen world in which to unfold his funky baroque bloodbath.", "is_fresh": 1, "author": ["Nik Huggins"]},
{"text": "Really, it seemed to me that Tarantino was merely trying to shock people into forgetting the idiocracy of what was happening on screen.", "is_fresh": 0, "author": ["Dan Marcucci and Nancy Serougi"]},
{"text": "Divided we fall. What \"Kill Bill Vol. 1\" loses in plot, tension, and character development it (almost) makes up for in terms of sheer unadulterated style.", "is_fresh": 1, "author": ["David N. Butterworth"]},
{"text": "Quentin Tarantino, Uma Thurman and Lucy Liu take us to the edge of taste, over the cliffs of gore, and right into pop culture sublime.", "is_fresh": 1, "author": ["David Foucher"]},
{"text": "Simply beautiful to look at and listen to.", "is_fresh": 1, "author": ["Anton Bitel"]},
{"text": "An impressive exercise in style but little more.", "is_fresh": 0, "author": ["Steve Rhodes"]},
{"text": "If you can't stand violence in movies, please don't even read this review.", "is_fresh": 1, "author": ["Linda Cook"]},
{"text": "As wacky action-adventure movies go, this is a good film. But it's the type of work that more than a dozen Hollywood filmmakers could have turned out in less time than it took [director Quentin] Tarantino.", "is_fresh": 1, "author": ["Forrest Hartman"]},
{"text": "There is more cinematic thrill per minute up on the screen here than I've seen in a very long time.", "is_fresh": 1, "author": ["Jim Shelby"]},
{"text": "Six years and this is all that Quentin Tarantino can come up with?", "is_fresh": 0, "author": ["Paul Byrnes"]},
{"text": "It's impossible to tell whether all of this adds up to anything. The piles and piles of allusions... certainly enrichens the texture of the film, and to his credit, Tarantino manages to agglomerate these styles into a unique cinematic voice.", "is_fresh": 1, "author": ["Stephen Himes"]},
{"text": "Tarantino throws every trick he knows at the screen, including an animated sequence, in an effort to make a pure B-movie. He's succeeded.", "is_fresh": 1, "author": ["Michael W. Phillips, Jr."]},
{"text": "A psychotically enjoyable murderous massacre of epic proportions.", "is_fresh": 1, "author": ["Audrey Rock-Richardson"]},
{"text": "One of the great gorefests of cinematic history.", "is_fresh": 1, "author": ["Eric Lurio"]},
{"text": "Takes Tarantino's trademark brand of excessive violence in an over-the-top direction that mimics the fun but cheesy kung fu revenge films of yesteryear.", "is_fresh": 1, "author": ["Andrew Manning"]},
{"text": "It is the distilled essence of everything that kicks a** about the extravagantly violent genres of Kung fu, Samurai, and Anime", "is_fresh": 1, "author": ["Brian Mckay"]},
{"text": "An indulgent, outlandish, and thoroughly entertaining ballet of blood.", "is_fresh": 1, "author": ["Eric D. Snider"]},
{"text": "Hell hath no fury like a Tarantino heroine scorned.", "is_fresh": 1, "author": ["Kevin A. Ranson"]},
{"text": "Quentin Tarantino's most wild-*** effort yet.", "is_fresh": 1, "author": ["Glenn Kenny"]},
{"text": "After nearly two hours of bloodshed (no matter how artfully presented), Tarantino owes us a little more than a \"to be continued . . .\" tease.", "is_fresh": 1, "author": ["Sean P. Means"]},
{"text": "Ripping off and rearranging moves, ideas, and codes from seemingly countless sources, Kill Bill is a careful film that looks glib, a nuanced film that looks shallow.", "is_fresh": 0, "author": ["Cynthia Fuchs"]},
{"text": "Has all the coolness and daring and wit through which Tarantino made his name. It delivers what we expected, and packs some shocking punches on top.", "is_fresh": 1, "author": ["Ian Waldron-Mantgani"]},
{"text": "I would argue that, in a bizarre way, Mr. Tarantino empowers women as no action-genre director before him ever has.", "is_fresh": 1, "author": ["Andrew Sarris"]},
{"text": "Visually inventive, strangely beautiful and poetic, in a bare-bones, samurai-warrior way. A movie that, while dealing with death, is joyfully alive with surprises.", "is_fresh": 1, "author": ["Nick Rogers"]},
{"text": "Quentin Tarantino is a joyous filmmaker, one whose love of film is clear in every frame of Kill Bill: Vol. 1 and one whose euphoria is absolutely infectious.", "is_fresh": 1, "author": ["Mark Dujsik"]},
{"text": "Uma Thurman's performance breaks down the emotional barriers that often keep an audience at a distance.", "is_fresh": 1, "author": ["Josh Gilchrist"]},
{"text": "Tarantino is totally in charge at every second. He knows exactly what he's doing, exactly what he wants to convey from moment to moment.", "is_fresh": 1, "author": ["Mike McGranaghan"]},
{"text": "Cinematically exhilerating... This is the most elated action filmmaking I've seen in ages.", "is_fresh": 1, "author": ["Mark Palermo"]},
{"text": "It may not be great, but it is if not true filmmaking, very, very true movie making.", "is_fresh": 1, "author": ["Ken Hanke"]},
{"text": "When people tell you it's bloody, they're not exaggerating. Unfortunately, there isn't a whole lot more. (And I loved Pulp Fiction)", "is_fresh": 0, "author": ["Ross Anthony"]},
{"text": "I can't wait for Volume 2.", "is_fresh": 1, "author": ["Tony Toscano"]},
{"text": "A hyper-violent, hyper-gory, kung-fu grindhouse flick. And there's nothing at all wrong with that.", "is_fresh": 1, "author": ["Jim Agnew"]},
{"text": "Kill Bill Vol. 1 is one entertaining and stylish thrill ride, no more, no less.", "is_fresh": 1, "author": ["Michael Dequina"]},
{"text": "A giddy, gory, beautifully mounted trash spectacle ... at least so far.", "is_fresh": 1, "author": ["James Kendrick"]},
{"text": "Glorious cinematic pulp.", "is_fresh": 1, "author": ["Lewis Beale"]},
{"text": "A brash, bloody and simply exhilarating revenge melodrama and stylistic indulgence inspired by an imagination that spent thousands of hours absorbing pulp paperbacks, comic books, 'Kung Fu,' the mythology of Bruce Lee and Hong Kong chop-socky epics while", "is_fresh": 1, "author": ["Jonathan R. Perry"]},
{"text": "A movie of confident, professional showmanship; it uses the screen as a conduit to directly transfer the enthusiasm its creator feels to the audience, delivering giddy energy.", "is_fresh": 1, "author": ["Jeffrey Chen"]},
{"text": "Despite all the cinematic tricks employed in this film, it ends up being a just another action film at heart. As such, it is good, but not among the best of the genre.", "is_fresh": 1, "author": ["Robert Roten"]},
{"text": "This is one dangerously fun and ridiculously well made samurai homage meets pop culture pastiche that you'll kill yourself for missing if you even dare try.", "is_fresh": 1, "author": ["Mike Sage"]},
{"text": "Despite the (for some) outrageous amount of violence, Tarantino manages to stage these fight scenes with panache, opting for a tongue-in-cheek tone that elicits more chuckles than gasps of horror.", "is_fresh": 1, "author": ["Ignatz Ratskiwatski"]},
{"text": "The end result: a reckless and rollicking gem that purposely swims in its inane and preposterous frivolity...this high-powered assault of fast-paced foolishness is infectious", "is_fresh": 1, "author": ["Frank Ochieng"]},
{"text": "It's recommended for fighting enthusiasts and die-hard film-buffs who will appreciate the audacious allusions.", "is_fresh": 1, "author": ["Susan Granger"]},
{"text": "If Tarantino's previous films had one foot set in the real world and one in the realm of pulp fiction, this pop culture fever dream represents blissful surrender to unreality...", "is_fresh": 1, "author": ["John Beifuss"]},
{"text": "Tarantino the Genius is long gone; we'll have to settle for Tarantino the Fairly Interesting.", "is_fresh": 1, "author": ["Rob Vaux"]},
{"text": "Tarantino combines babes, steel, revenge and cinematic artistry into something elemental.", "is_fresh": 1, "author": ["Jules Brenner"]},
{"text": "One of the greatest action escapist films ever made by a nerd.", "is_fresh": 1, "author": ["Dennis Schwartz"]},
{"text": "Killer thriller.", "is_fresh": 1, "author": ["Gerry Shamray"]},
{"text": "Do I feel cheated by having to buy another movie ticket to see how 'Kill Bill' ends? You betcha.", "is_fresh": 0, "author": ["Betty Jo Tucker"]},
{"text": "Kill Bill is trash made beautiful, sometimes extraordinarily so.", "is_fresh": 1, "author": ["Katrina Onstad"]},
{"text": "Simultaneously a spectacular act of movie-making and a slight movie.", "is_fresh": 1, "author": ["Rick Groen"]},
{"text": "The chocolate eclair of fall films: a delicious, yet empty treat.", "is_fresh": 1, "author": ["Boo Allen"]},
{"text": "And even if the film is a bloody, violent mess that borders on incoherence, it's still a brilliant, bloody mess that energizes the spirit like few pictures can.", "is_fresh": 1, "author": ["Sara Michelle Fetters"]},
{"text": "So palpably exciting you'll want to watch it again immediately after the first viewing.", "is_fresh": 1, "author": ["Kim Morgan"]},
{"text": "Even half of a Tarantino film is twice as good as any thriller we've seen all year.", "is_fresh": 1, "author": []},
{"text": "It all adds up to an epic pop artefact of indescribable soullessness.", "is_fresh": 0, "author": ["Neil Norman"]},
{"text": "Tarantino's fusion of action genres may result in a new sub-genre: the adult comic book adventure.", "is_fresh": 1, "author": ["Jonathan W. Hickman"]},
{"text": "Kill Bill is an entirely problematic film. On one hand it's a very difficult to recommend ... But on the other hand I could never warn people away from Kill Bill Vol 1.", "is_fresh": 1, "author": ["Geoffrey Kleinman"]},
{"text": "Kill Bill is one long yakkety-yak about Tarantino's passions. He's the samurai who won't shut up.", "is_fresh": 0, "author": ["Stephanie Zacharek"]},
{"text": "Kill Bill: Volume One falters by placing Tarantino's cracker-jack dialogue in the back seat and placing style in front. But the killer story and Thurman's performance leaves the audience begging for Volume Two", "is_fresh": 1, "author": ["Jimmy O"]},
{"text": "A marvel of strikingly original action setpieces and tight plotting, surrounded by a visual lyricism difficult to translate into words.", "is_fresh": 1, "author": ["Dustin Putman"]},
{"text": "Tarantino wants you to have a good time, and he'd be the first to admit that it isn't Citizen Kane.", "is_fresh": 1, "author": ["Gabriel Shanks"]},
{"text": "Does not come within a thousand miles of Pulp Fiction for philosophy, story and character development, but for style it blows every other movie this year out of the water.", "is_fresh": 1, "author": ["Harvey S. Karten"]},
{"text": "Delivered with such high panache and brio, it's mesmerizing.", "is_fresh": 1, "author": ["Stephen Hunter"]},
{"text": "Has matched, if not eclipsed, the power and scope of 1994's Pulp Fiction.", "is_fresh": 1, "author": ["Desson Thomson"]},
{"text": "Whatever Bill's limitations, style isn't one of them.", "is_fresh": 1, "author": ["Mike Clark"]},
{"text": "If your sensibilities are in line with Tarantino's, the result is sheer sleaze Nirvana.", "is_fresh": 1, "author": ["Maitland McDonagh"]},
{"text": "Not only is this the work of a major and vital talent in full bloom, it's the most thrillingly entertaining American movie so far this year.", "is_fresh": 1, "author": ["Geoff Pevere"]},
{"text": "This is some glorious filth -- in the most flattering, arterial-spraying sense of filth.", "is_fresh": 1, "author": ["Mark Rahner"]},
{"text": "With no real characters or ideas in sight, it seemed ultimately tiresome and forgettable.", "is_fresh": 0, "author": ["William Arnold"]},
{"text": "It boggles the mind that after six years of silence, all Tarantino has to offer is this garbage.", "is_fresh": 0, "author": ["Mick LaSalle"]},
{"text": "The film is a caravan of Tarantino enthusiasms, from Hong Kong quickies to film noir to Kurosawa's joyous Hidden Fortress.", "is_fresh": 1, "author": ["David Elliott"]},
{"text": "The biggest, baddest B-movie ever made.", "is_fresh": 1, "author": ["Joe Baltake"]},
{"text": "An awesome explosion of visceral energy.", "is_fresh": 1, "author": ["Jack Garner"]},
{"text": "It took Tarantino six years to come up with this?", "is_fresh": 0, "author": ["Gary Thompson"]},
{"text": "For the first time, Tarantino has made a film that validates almost every charge his detractors have leveled against him.", "is_fresh": 0, "author": ["Steve Schneider"]},
{"text": "Kill Bill would be the easiest thing in the world to dismiss if it weren't so much nasty fun.", "is_fresh": 1, "author": ["Jay Boyar"]},
{"text": "A diverting but sanitized space-saver.", "is_fresh": 1, "author": ["Shawn Levy"]},
{"text": "QT's back and damn if the wait wasn't well worth it. Get ready for oodles of violence and swashbucklung humor!", "is_fresh": 1, "author": ["Emily Blunt"]},
{"text": "An eye-popping, blood-soaked, ingeniously choreographed thriller and Hong Kong homage that ultimately adds up to ... not much.", "is_fresh": 1, "author": ["John Anderson"]},
{"text": "A tribute both scrupulously authentic and wildly original.", "is_fresh": 1, "author": ["Stephen Whitty"]},
{"text": "A maddeningly uneven spaghetti Eastern that's well worth seeing for his technical mastery, even as it challenges you with the geeky auteur's boundless self-indulgence.", "is_fresh": 1, "author": ["Lou Lumenick"]},
{"text": "There's a lot to admire in Kill Bill, and a lot that should have been lopped off like the arms and legs and scalps that go flying.", "is_fresh": 0, "author": ["Jami Bernard"]},
{"text": "Kill Bill: Vol. 1 is self-indulgent, overwrought, shallow and ridiculous. It is also brilliant, a blast of cinematic lunacy and as much of a guilty pleasure as the schlocky movies Tarantino adores.", "is_fresh": 1, "author": ["Rene Rodriguez"]},
{"text": "Content? Not important. Here delivery is everything, and Tarantino delivers like a man born with film developer pumping through his veins.", "is_fresh": 1, "author": ["Robert W. Butler"]},
{"text": "With Kill Bill, the film geek has made a movie for other film geeks, students of film and critics.", "is_fresh": 1, "author": ["Louis B. Hobson"]},
{"text": "A brilliant tour de force of trash cinema.", "is_fresh": 1, "author": ["Bruce Kirkland"]},
{"text": "Despite a draggy section and a problem with proportion, Kill Bill bristles with such vitality it hardly matters that -- at least at the halfway point -- it feels inconsequential.", "is_fresh": 1, "author": ["Eric Harrison"]},
{"text": "Kill Bill may be mindless fun, but it is the most mindless fun in memory.", "is_fresh": 1, "author": ["Tom Long"]},
{"text": "An adrenaline-fueled thrill ride that will satisfy even the most carnage-crazed action fan.", "is_fresh": 1, "author": ["Jeff Vice"]},
{"text": "An action movie with fantastic music, considerable style and the mentality of a director refusing to leave the sanctuary in his 1970s childhood.", "is_fresh": 0, "author": ["Mary F. Pols"]},
{"text": "The violence, blood levels -- and just plain cheesy gore -- in this film are extreme, but Tarantino's sharp dialogue and expert editing leaves you breathless.", "is_fresh": 1, "author": ["Paul Clinton (CNN.com)"]},
{"text": "A bloated, simplistic, cartoonishly violent film.", "is_fresh": 0, "author": ["Lawrence Toppman"]},
{"text": "A feverish, exhilarating collision of '70s film genres.", "is_fresh": 1, "author": ["Wade Major"]},
{"text": "...an epic of influences.", "is_fresh": 1, "author": ["Josh Larsen"]},
{"text": "The year's most important unimportant movie.", "is_fresh": 1, "author": ["Wesley Morris"]},
{"text": "It's worth paying for if it's what you're into; otherwise any neophytes will probably feel a little turned off.", "is_fresh": 1, "author": ["Karina Montgomery"]},
{"text": "Tarantino's filmmaking prowess has been honed like one of Sonny Chiba's blades and...his homage to chop socky goodness is flawless.", "is_fresh": 1, "author": ["Widgett Walls"]},
{"text": "Quentin Tarantino is back - with a vengeance!", "is_fresh": 1, "author": ["Staci Layne Wilson"]},
{"text": "Kill Bill takes a cue from Spaghetti Western master Sergio Leone and turns every little twist and turn into a giant-sized operatic odyssey.", "is_fresh": 1, "author": ["Jeffrey M. Anderson"]},
{"text": "Just as only NBA fanatics can justify watching the first three quarters of a game, only Tarantino fanatics will be satisfied with the first installment of Kill Bill.", "is_fresh": 0, "author": ["Jeffrey Westhoff"]},
{"text": "With an ounce of restraint, Tarantino could've had a masterpiece on his hands.", "is_fresh": 1, "author": ["Sean O'Connell"]},
{"text": "Uma and her foes were once on the same side. They were the \"Deadly Viper Assassination Squad,\" or D.I.V.A.S. In a fit of me-too inspiration, the powers-that-be over at the Playboy mansion formed their own death squad: \"Women Hefner Owns Rarely Enjoy Se", "is_fresh": 1, "author": ["Mark Ramsey"]},
{"text": "A wondrous ode to the joie de vivre of filmmaking, paying homage to great '60s and '70s action flicks from around the globe.", "is_fresh": 1, "author": ["Dan Jardine"]},
{"text": "Kill Bill Vol. 1 is a great film", "is_fresh": 1, "author": ["D.K. Holm"]},
{"text": "Kill Bill: Volume 1 shows Quentin Tarantino so effortlessly and brilliantly in command of his technique that he reminds me of a virtuoso violinist racing through Flight of the Bumble Bee ...", "is_fresh": 1, "author": ["Roger Ebert"]},
{"text": "If you're one of those movie fans who are looking for a great big smorgasbord of vengeance, Kill Bill will shred resistance.", "is_fresh": 1, "author": ["Robert Denerstein"]},
{"text": "A movie that will separate the true cinema lovers from ... well, just about everyone who has another set of values.", "is_fresh": 1, "author": ["Bob Strauss"]},
{"text": "A gift for action fans.", "is_fresh": 1, "author": ["Chris Hewitt (St. Paul)"]},
{"text": "Kill Bill ranks just behind Pulp Fiction in terms of strutting the director's storytelling gifts.", "is_fresh": 1, "author": ["Lisa Kennedy"]},
{"text": "For dangerously fun kung-fu action, Bill's the man.", "is_fresh": 1, "author": []},
{"text": "Kill Bill is about nothing more (or less) than its director's passion for the mindless action pictures that got him through adolescence.", "is_fresh": 1, "author": ["David Edelstein"]},
{"text": "Vol. 1 is a shot of pure adrenalin on celluloid, headed for the heart and the gut, not the head.", "is_fresh": 1, "author": ["Terry Lawson"]},
{"text": "Quentin Tarantino comes out of the box with a vengeance, intent on the idea of parlaying hardcore grind-house into trendy art-house.", "is_fresh": 1, "author": ["Jeanne Aufmuth"]},
{"text": "Celluloid maestro Quentin Tarantino returns with a limb-hacking, blood-spewing, epic tale of revenge that utilizes every cinematic trick in his formidable arsenal.", "is_fresh": 1, "author": ["Jon Niccum"]},
{"text": "Doesn't stack up to Tarantino's earlier works, because they actually have a story, but it's still pretty entertaining stuff if you're into funny, sick, classic movie violence.", "is_fresh": 1, "author": ["Cherryl Dawson and Leigh Ann Palone"]},
{"text": "Busby Berkeley would be proud of its choreography and imagination, as would Roger Corman for the splatter fest", "is_fresh": 1, "author": ["Robin Clifford"]},
{"text": "A flick so knee-deep in its own genre-worship that it should thrill movie fans the world over while giving the action junkies a few extended sequences that they'll want to watch again and again.", "is_fresh": 1, "author": ["Scott Weinberg"]},
{"text": "Tarantino is like a bull in a video shop, knocking over shelves and letting the genres fall where they may.", "is_fresh": 1, "author": ["Scott Von Doviak"]},
{"text": "But perhaps the film's greatest achievement is not its celebration of cult film, but the fact that Tarantino has apparently found the street cred he's been searching for as he doesn't use the N-word even once.", "is_fresh": 1, "author": ["James Hill"]},
{"text": "Ectomorph goddess Uma Thurman gives a dazzling performance. The stars have the acting and action chops to more than hold their own in fight scenes with eye-popping visuals that would overwhelm most performers.", "is_fresh": 1, "author": ["Nell Minow"]},
{"text": "While the picture oozes style (and blood), it comes up short on substance - which is what has always set Tarantino's grindhouse homages head and shoulders above the pulp pictures that inform them.", "is_fresh": 0, "author": ["Rob Blackwelder"]},
{"text": "Like the first time you saw \"Pulp Fiction\" at the theatre, you walk out not quite sure what to think...but one thing you do know is that you loved it, and you'll definitely be coming back for more", "is_fresh": 1, "author": ["Clint Morris"]},
{"text": "A whole lot of movie, more than what your average 5 or 6 flicks deliver.", "is_fresh": 1, "author": ["Kevin N. Laforest"]},
{"text": "Embarrassingly masturbatory...", "is_fresh": 0, "author": ["MaryAnn Johanson"]},
{"text": "Tarantino's talent rests with the ability to click into the viewer's movie-going experience like a TV remote and rekindle memories of earlier film favorites.", "is_fresh": 1, "author": ["Bob Bloom"]},
{"text": "With Kill Bill, Tarantino has belatedly made the self-indulgent mess many expected from him years ago.", "is_fresh": 0, "author": ["Josh Bell"]},
{"text": "Quentin Tarantino goes forward to the past -- and reclaims the cinematic style that he defined.", "is_fresh": 1, "author": ["James Rocchi"]},
{"text": "This is the only episodic film that actually leaves you wanting more. The final revelation makes you re-evaluate the entire journey, which is what a good cliffhanger should do.", "is_fresh": 1, "author": ["Fred Topel"]},
{"text": "Kill Bill is an electrifying invocation of the mysterious cathartic power of the lowdown genre potboiler.", "is_fresh": 1, "author": ["Bryant Frazer"]},
{"text": "A film that tells an essentially simple story in such a wonderfully flashy fashion and Tarantino's intoxication with the joys of movie magic, like Francis Coppola's, is so giddy and contagious that the audience becomes as excited with watching it as he cl", "is_fresh": 1, "author": ["Peter Sobczynski"]},
{"text": "By god, this could have been great. Spectacular. A masterpiece. If only Quentin had decided to make an epic rather than an epic joke.", "is_fresh": 1, "author": ["Eugene Novikov"]},
{"text": "Maybe when Tarantino 'Godfather sagas-it' God knows when, Kill Bill will be the masterpiece we hope it is and he surely believes it to be", "is_fresh": 1, "author": ["Erik Childress"]},
{"text": "Even when geysers of gore are erupting onscreen, Tarantino finds a strange kind of grace amidst the chaos. He's cherishing every carefully calculated second of this experience and he wants to share the joy with his viewers.", "is_fresh": 1, "author": ["James Sanford"]},
{"text": "Yes, yes, yes, yes, yes!!!!!", "is_fresh": 1, "author": ["John Venable"]},
{"text": "While Hollywood was catching up with Hong Kong, Tarantino was studying Japanese pulp fiction", "is_fresh": 1, "author": ["Marty Mapes"]},
{"text": "Structurally and narratively amputated, Volume 1 retains head and guts but loses its heart and gams to the second installment.", "is_fresh": 0, "author": ["Carrie Rickey"]},
{"text": "An exercise in style.", "is_fresh": 0, "author": ["A.O. Scott"]},
{"text": "Meticulously structured, self-referential and kinetic, Kill Bill is as impeccably crafted as a graphic Amelie.", "is_fresh": 1, "author": ["Duane Dudek"]},
{"text": "For the first time in Tarantino's filmmaking career, the written story -- both in word and development -- proves the least interesting part of the whole equation.", "is_fresh": 0, "author": ["Manohla Dargis"]},
{"text": "A feast of bravura filmmaking, thoroughly engaging and unique in even its most derivative elements.", "is_fresh": 1, "author": ["Chris Vognar"]},
{"text": "A smorgasbord of slam-bang mayhem, certain to tantalize young men, and with its ultratough heroine, perhaps young women, too.", "is_fresh": 1, "author": ["David Sterritt"]},
{"text": "The most gorgeous B-movie ever made.", "is_fresh": 1, "author": ["Mark Caro"]},
{"text": "Kill Bill not only lives up to the hype, it exceeds it, with some of the most amazing fight sequences ever filmed.", "is_fresh": 1, "author": ["Bill Muller"]},
{"text": "In the wake of Crouching Tiger, Hidden Dragon, the Matrix series, even the recent So Close, Tarantino's movie comes off as been there, kicked that.", "is_fresh": 0, "author": ["Eleanor Ringel Cater"]},
{"text": "A rampaging hurricane of a chop socky revenge flick.", "is_fresh": 1, "author": ["Phil Villarreal"]},
{"text": "Tarantino pays tribute to so many other films, you'd need a doctorate in cinema with a minor in pop culture references to catch it all.", "is_fresh": 1, "author": ["Jon Popick"]},
{"text": "If the second volume is anything like this one, Miramax might want to consider changing its name to Overkill Bill.", "is_fresh": 0, "author": ["Matt Brunson"]},
{"text": "Reckless? Perhaps. Indulgent? Sure. But it's never boring.", "is_fresh": 1, "author": ["Brian J. Arthurs"]},
{"text": "This is the movie we've been waiting for from Quentin Tarantino, it combines everything he loves about movies and what he does best.", "is_fresh": 1, "author": ["Michael Szymanski"]},
{"text": "One of the most intense, violent and breathtaking American epics ever filmed.", "is_fresh": 1, "author": ["Phoebe Flowers"]},
{"text": "This is Tarantino the ultimate movie geek, channeling all the best tee-hee-GROSS! moments from Hong Kong and Japanese splatter movies.", "is_fresh": 1, "author": ["Glenn Lovell"]},
{"text": "In Kill Bill, Tarantino brings delicious sin back to movies -- the thrill you get from something down, dirty and dangerous.", "is_fresh": 1, "author": ["Peter Travers"]},
{"text": "At a time when most movies are watery soup, Tarantino has served us a two-inch steak, bloody and sizzling.", "is_fresh": 1, "author": ["Colin Covert"]},
{"text": "Although the towering Thurman is usually treated as something of an eroticized force of nature, her sly, angry, heartfelt performance here brings humanity to an otherwise shallow tale that risks being all blood and no passion.", "is_fresh": 1, "author": ["John Powers"]},
{"text": "One of this year's most entertaining flicks.", "is_fresh": 1, "author": ["Bill Pearis"]},
{"text": "It may be nothing but style without substance--but what style! And it certainly beats the vast majority of pictures, which offer neither.", "is_fresh": 1, "author": ["Frank Swietek"]},
{"text": "[T]he cinematic equivalent of karaoke or bad photocopies, mindlessly adopting style while forgetting the basic precepts of storytelling.", "is_fresh": 0, "author": ["Jeremiah Kipp"]},
{"text": "In Kill Bill, the allusions are the text rather than the subtext, and the movie never quite develops a life of its own.", "is_fresh": 1, "author": ["Ben Kenigsberg"]},
{"text": "...Most certainly based more on old movies than on life itself - unabashedly so, gloriously so, entertainingly so....This is simply a great \"movie movie.\"", "is_fresh": 1, "author": ["Andy Klein"]},
{"text": "Kill Bill Vol. 1 is contemporary Tarantino out Tarantino-ing classic Tarantino.", "is_fresh": 1, "author": ["Rebecca Murray"]},
{"text": "This is one killer kick-*** of a movie!", "is_fresh": 1, "author": ["Kamal 'The Diva' Larsuel"]},
{"text": "Kill Bill: Volume 1 is essentially a pop culture wanker's failed multimedia experiment, a vacuous junk heap of dorky gags and riffs, violent anime and offensive slapstick.", "is_fresh": 0, "author": ["Ed Gonzalez"]},
{"text": "Kill Bill may have little on its mind besides pop extravagance, yet you can feel the movie tracing a transition in the world -- from West to East, from male to female rule.", "is_fresh": 1, "author": ["Owen Gleiberman"]},
{"text": "Fun and smart, but undeniably thin.", "is_fresh": 1, "author": ["J. Hoberman"]},
{"text": "See the film if you love the movies--it's the old iron for a new day.", "is_fresh": 1, "author": ["Walter Chaw"]},
{"text": "The dialogue is as sharp as the swords used to slice off the mountains of body parts.", "is_fresh": 1, "author": ["Danny Minton"]},
{"text": "Half-a-movie at full-price -- it's annoyingly unsatisfying. Also self-indulgent, sadistic, juvenile, pretty to look at, and empty as a beer can on my front porch.", "is_fresh": 0, "author": ["Sean Burns"]},
{"text": "As a whole, Kill Bill might be an entertaining product, but, after seeing Volume 1, I was insulted.", "is_fresh": 0, "author": ["James Berardinelli"]},
{"text": "It lacks the trademark snappy dialogue but delivers fantastic fight scenes, a cool soundtrack and a dizzying array of cinematic tricks.", "is_fresh": 1, "author": ["Matthew Turner"]},
{"text": "Guaranteed to blow you away.", "is_fresh": 1, "author": ["Stella Papamichael"]},
{"text": "... inventive, exciting, ballsy, violent, entertaining, stylized and brilliant.", "is_fresh": 1, "author": ["JoBlo"]},
{"text": "A barely watchable mess, a tangled montage of fashion gloss streaked in gore, a cocktail party in an abattoir.", "is_fresh": 0, "author": ["Paul Arendt"]},
{"text": "Kill Bill is, at long last, the revolution Pulp Fiction fans hoped Jackie Brown was going to be ... leaves the stomach turning, the tongue lolling and the mind reeling.", "is_fresh": 1, "author": ["Todd Gilchrist"]},
{"text": "This isn't just the movie you've been waiting for from Quentin Tarantino. This is the movie you've been waiting for, period.", "is_fresh": 1, "author": ["Alex Sandell"]},
{"text": "Awesome! Breathtaking! Tarantino shows off his libido and his id.", "is_fresh": 1, "author": ["Victoria Alexander"]},
{"text": "This is the ultimate movie for kung-fu drive-in geeks ...", "is_fresh": 1, "author": ["Richard Roeper"]},
{"text": "Kill Bill: Vol. 1 is Quentin Tarantino set on '11.'", "is_fresh": 1, "author": ["Marjorie Baumgarten"]},
{"text": "The characters are vivid enough to rise above [Tarantino's] cinematic nerdiness. Thurman is shockingly good.", "is_fresh": 1, "author": ["Rich Cline"]},
{"text": "The film is hugely watchable.", "is_fresh": 1, "author": ["Kirk Honeycutt"]},
{"text": "Picture Monty Python's Black Knight sketch spread over the course of an entire movie.", "is_fresh": 1, "author": ["Joshua Tyler"]},
{"text": "Weinstein seems to be letting Tarantino have his way with a double release, turning one potentially great film into two flashy mediocrities.", "is_fresh": 0, "author": ["David Poland"]},
{"text": "A blood-stained love letter to exploitation movies that seems to be missing a few pages.", "is_fresh": 1, "author": ["Matthew De Abaitua"]},
{"text": "", "is_fresh": 1, "author": ["Jennie Kermode"]},
{"text": "", "is_fresh": 1, "author": ["Daniel Kasman"]},
{"text": "", "is_fresh": 1, "author": []},
{"text": "", "is_fresh": 1, "author": []}
]