[
{"reviews_count": "72", "title": "Kin", "avg_audience_rating": "3.4", "rotten_count": "50", "tomatometer": "31", "audience_score": "57", "avg_critic_rating": "4.9", "fresh_count": "22", "user_ratings_count": "564"},
{"text": "The movie nicely captures an America at the fringes. It is rare - and rarer still in science fiction - to find a film that does that without a sense of pity or parody.", "is_fresh": 1, "author": ["Tim Stevens"]},
{"text": "All these positives aren't enough to make this movie good, since it's let down by an incredibly dated story full of some of the most tired clich\u00e9s, without even attempting to add something new or fresh to spice things up. ", "is_fresh": 0, "author": ["Ryan Pollard"]},
{"text": "Kin ends up feeling like a pilot for a TV show that didn't deserve to be commissioned.", "is_fresh": 0, "author": ["Eddie Harrison"]},
{"text": "Kin lays out a lot of half-baked baggage and outright fog instead of the promised artful understatement.", "is_fresh": 0, "author": ["Nguyen Le"]},
{"text": "The high concept and visual effects add a bit of science fiction to Kin, but don't let that fool you. This is a film about family and loyalty, and it tells that tale well.", "is_fresh": 1, "author": ["Deirdre Crimmins"]},
{"text": "The sci-fi film Kin has a potentially interesting central relationship between two brothers, but how it positions a gun as something that gives a boy confidence is less than ideal.", "is_fresh": 0, "author": ["Roxana Hadadi"]},
{"text": "A Misfire.", "is_fresh": 0, "author": ["Dennis Schwartz"]},
{"text": "Until it reaches that bewildering ending, Kin is mostly just a snooze fest. It drags along, finding the energy to come to life only intermittently. ", "is_fresh": 0, "author": ["Josh Martin"]},
{"text": "This somewhat ambitious but mostly misguided potpourri of disparate genre elements is more noteworthy for its intriguing concept than its slapdash execution. ", "is_fresh": 0, "author": ["Todd Jorgenson"]},
{"text": "If the Baker boys truly were fabulous, they'd have had the guts to go all the way and earn an R rating.", "is_fresh": 0, "author": ["Scott Marks"]},
{"text": "For a film built around an enormous space gun, Kin boasts precious little action. ", "is_fresh": 0, "author": ["Andrew Parker"]},
{"text": "Overall, KIN views like a 2-hour prequel meant to whet your appetite, but instead is a foul-smelling warning to stay away from whatever comes next. ", "is_fresh": 0, "author": ["Jordan Calhoun"]},
{"text": "In trying to be so much more than what Bag Man was, Kin feels strained past its limits and when you try to appreciate the film for what it is and what it's trying to do, you can't help but notice its weaknesses.", "is_fresh": 0, "author": ["Charles Pulliam-Moore"]},
{"text": "The different styles sit uneasily together, and coherence isn't helped by a script that slows the pacing right down by putting long talky scenes where the action should be.", "is_fresh": 0, "author": ["Richard James Havis"]},
{"text": "The idea of superior firepower and how it changes one's place in the world is what this movie seems to be about, yet it never actually addresses it... It's as if we're just supposed to think the ray-gun is cool, and wait for Eli to use it.", "is_fresh": 0, "author": ["Katherine Monk"]},
{"text": "Advertised as an adolescent SciFi adventure where a 'tween finds an intergalactic gun and all his problems are solved, the film is much more than that. And also much less.", "is_fresh": 0, "author": ["Hope Madden"]},
{"text": "Enough parts of it worked just okay enough that I sort of dug what transpired, at least in the various individual moments. (Full Content Review for Parents - Violence, Profanity, etc. - also Available) ", "is_fresh": 1, "author": ["Jim Judy"]},
{"text": "...a fun little modernized throwback that appreciates sci-fi action flicks the way \"Stranger Things\" idolizes 1980s horrors films.", "is_fresh": 1, "author": ["Kevin A. Ranson"]},
{"text": "What it lacks in dramatic impact it makes up being original. That's a real plus in these days of sequels, prequels, remakes and reboots.", "is_fresh": 1, "author": ["Jackie K. Cooper"]},
{"text": "It awkwardly combines a working class family drama, a crime thriller and a science fiction yarn. Because the characters are so thin and hackneyed, it's impossible to get worked up over any of the plotlines.", "is_fresh": 0, "author": ["Dan Lybarger"]},
{"text": "Even for the realm of YA sci-fi, the boy-befriends-a-gun storyline of Kin is pretty messed up. ", "is_fresh": 0, "author": ["Roxana Hadadi"]},
{"text": "A wrinkle in the film's final moments ... sets up a franchise that's ... given this movie's frustrating shortfalls, unlikely to ever see the light of a projector.", "is_fresh": 0, "author": ["Annlee Ellingson"]},
{"text": "Could have been so much more had it kept its focus on being really good at one or two things rather than shooting to be something for everyone.", "is_fresh": 0, "author": ["Frank Wilkins"]},
{"text": "The ending... stop trying to play me for a sequel that you are never gonna have, that nobody's interested in.", "is_fresh": 0, "author": ["Martin Thomas"]},
{"text": "The smartest character in this movie is that gun.", "is_fresh": 0, "author": ["Korey Coleman"]},
{"text": "Kin proves to not be one thing or the other, defying any clear genre or demographic boundaries. It's not a blockbuster or a heroic young adult tale, just a devastatingly sad and terrible story...", "is_fresh": 1, "author": ["Katie Walsh"]},
{"text": "The movie is a mess, a tonal nightmare that never manages to create an authentic time or place that's even moderately believable.", "is_fresh": 0, "author": ["Sara Michelle Fetters"]},
{"text": "Thriller about brothers has realistic violence, language. ", "is_fresh": 1, "author": ["Michael Ordo\u00f1a"]},
{"text": "Kin isn't a great movie. The narrative gets a bit too wonky at the end. But it's a refreshing change of pace from super-budgeted sci-fi.", "is_fresh": 1, "author": ["Christopher Lawrence"]},
{"text": "Altogether, \"Kin\" is 30 percent awesome and 70 percent hot mess. It's difficult to recommend in good conscience, at least to its presumed target audience, but Team Baker still deserves credit for putting together a unique experience. ", "is_fresh": 0, "author": ["Josh Terry"]},
{"text": "Kin goes wrong almost from the start. Trying to treat a 14-year-old's visit to a strip club as a fun adventure (at least for a while) and then allowing the same kid to blast away at various foes shatters any sense of propriety the movie might have had. ", "is_fresh": 0, "author": ["Robert Denerstein"]},
{"text": "If the best films from which to steal boast a recognizable vibrancy, consider \"Kin\" the lifeless dolt sleeping it off in a back alley. It won't wake up in the event that future filmmakers riffle its pockets, but they'll find only a frayed, worn hole.", "is_fresh": 0, "author": ["Nick Rogers"]},
{"text": "The picture is trying to do something a little different -- a rare thing, as you've probably noticed.", "is_fresh": 1, "author": ["Kurt Loder"]},
{"text": "Kin's core themes and Elijah's strength as the embodiment of them creates real emotional attachment that even the goofiest character choices cannot undermine.", "is_fresh": 1, "author": ["Joshua Starnes"]},
{"text": "Intriguing and entertaining, a rare original sci-fi flick that leaves audiences wanting to know more.", "is_fresh": 1, "author": ["Sonny Bunch"]},
{"text": "Because of this having so many poorly-written and unlikable characters that cramp the screen, the story and the emotions get muddled and leave you feeling empty. ", "is_fresh": 0, "author": ["Rendy Jones"]},
{"text": "Billed as science-fiction, it's more about brother-bonding. Once the sci-fi gets there, it is sometimes in the way of a much better movie. ", "is_fresh": 1, "author": ["Gary Wolcott"]},
{"text": "The plot is tied together so loosely that just about anything goes. ", "is_fresh": 0, "author": ["Phil Villarreal"]},
{"text": "Given the film's title, and that the filmmakers are themselves twins, you would expect the brother relationship at the heart of the movie to be something more than it is.", "is_fresh": 0, "author": ["Jake Coyle"]},
{"text": "At times dull and plodding and at other times cartoonishly silly, Kin rarely works and, when it does, it's often for the wrong reasons.", "is_fresh": 0, "author": ["James Berardinelli"]},
{"text": "An unconvincing mishmash of genre tropes that never takes advantage of obvious retro elements that might have endeared the movie with nostalgic viewers. Remember \"Laserblast?\"", "is_fresh": 0, "author": ["Jonathan W. Hickman"]},
{"text": "[It] wastes a talented cast in a road movie tarted-up with some superficial science fiction trappings. ", "is_fresh": 0, "author": ["Daniel M. Kimmel"]},
{"text": "Eli's decision is much less about which role model he'll follow. It's much, much more about whether or not he'll be able to kill a bunch of goons...", "is_fresh": 0, "author": ["Mark Dujsik"]},
{"text": "Feels very \"streaming TV\", but well acted and modestly entertaining with a few dynamic moments. ", "is_fresh": 1, "author": ["Chris Bumbray"]},
{"text": "A morose drama about two delinquent brothers, Kin occasionally stops to check in on an underdeveloped sci-fi movie, and neither approach is particularly satisfying.", "is_fresh": 0, "author": ["Josh Bell"]},
{"text": "...the Bakers' ambition ultimately pays off in a genre film with more emotional investment than this time of year normally affords.", "is_fresh": 1, "author": ["Travis Hopson"]},
{"text": "It all culminates in a slam-bang ending that genuinely surprises, and makes Kin a fun buried treasure to finish the summer.", "is_fresh": 1, "author": ["Sean P. Means"]},
{"text": "Will probably serve as a promising calling card for the Baker brothers, but by attempting to cover so many genre bases in a single outing, it eventually stumbles due to an overabundance of half-baked ideas and the lack of a decisive resolution.", "is_fresh": 0, "author": ["Frank Swietek"]},
{"text": "Although \"Kin\" doesn't cut it, some of its ideas are worthy of further development.", "is_fresh": 0, "author": ["Jane Horwitz"]},
{"text": "A disjointed and at times off-putting mess that veers wildly and unconvincingly between a road movie, a family drama, a violent crime film and an offbeat sci-fi thriller.", "is_fresh": 0, "author": ["Peter Sobczynski"]},
{"text": "In the hands of more playful creators, this adolescent fantasy could have been fun.", "is_fresh": 0, "author": ["Glenn Kenny"]},
{"text": "The performances are solid, and Quaid's presence lends an extra solemnity to the family-drama aspect of the film. Franco's performance, however, may prove distracting to those familiar with his turn in Spring Breakers.", "is_fresh": 1, "author": ["Marjorie Baumgarten"]},
{"text": "Random ideas, vague characters, stolen plot-points -- this thing barely qualifies as a movie.", "is_fresh": 0, "author": ["Rafer Guzman"]},
{"text": "Truitt's quiet wariness is the finest thing in a movie full of good acting.", "is_fresh": 1, "author": ["Ty Burr"]},
{"text": "It's to the credit of the Bakers, screenwriter Daniel Casey, and the solid cast that this character-based core does hold the movie together, mostly sidestepping pat sentimentality and too-easy narrative solutions.", "is_fresh": 1, "author": ["Dennis Harvey"]},
{"text": "We grant the movie wide latitude to be goofy. It's meant to be out there. Even by those lax standards, though, Kin tries the patience.", "is_fresh": 0, "author": ["Gary Thompson"]},
{"text": "A few dramatic dead-ends don't bring \"Kin\" down, as most of the feature finds fresh ways to cover old business.", "is_fresh": 1, "author": ["Brian Orndorf"]},
{"text": "\"Kin\" is not a snoozer, at least, and the Baker brothers are certainly not untalented, but their genre-mashing experiment doesn't work on any emotional level.", "is_fresh": 0, "author": ["David Lewis"]},
{"text": "Kin is proof positive that people who play too many video games shouldn't be allowed to make feature-length films.", "is_fresh": 0, "author": ["Edward Douglas"]},
{"text": "Kin is that rare combination of science fiction and suspense that truly holds your attention throughout. The pieces build to a final act with an absolute whopper payoff.", "is_fresh": 1, "author": ["Julian Roman"]},
{"text": "Jonathan and Josh Baker's Kin, a feature that comprises little more than an extended introduction to its characters, resembles a TV pilot that's been released into theaters as a standalone property.", "is_fresh": 0, "author": ["Jake Cole"]},
{"text": "Josh and Jonathan Baker's feature length expansion on their acclaimed sci-fi short is big on SFX, but lacks in almost every other department.", "is_fresh": 0, "author": ["Jacob Knight"]},
{"text": "The sound design not withstanding, Kin leaves so much potential to be desired in spite of the 1980s vibe.", "is_fresh": 0, "author": ["Danielle Solzman"]},
{"text": "Kin definitely has some exciting bits, but commits too many cinema sins.", "is_fresh": 0, "author": ["Robert Kojder"]},
{"text": "Probably could have worked as a straightforward drama about two troubled brothers, or as a road trip that slowly takes on mythic sci-fi proportions, but its chocolate-and-peanut-butter combination of the two feels disjointed and unsatisfying.", "is_fresh": 0, "author": ["Todd Gilchrist"]},
{"text": "SOMEbody got fired for greenlighting this", "is_fresh": 0, "author": ["Roger Moore"]},
{"text": "...a lo-fi character-driven crime drama with just a hint of science fiction...", "is_fresh": 1, "author": ["Travis Johnson"]},
{"text": "Kin sets up a star-stacked sequel with plenty of promise. If the franchise even gets that far.", "is_fresh": 1, "author": ["Simon Miraudo"]},
{"text": "Having lit the narrative fuse, the helmers don't always manage to keep it burning, and the intended emotional payoff arrives more as tacked-on explanation than revelatory sock to the solar plexus.", "is_fresh": 0, "author": ["Sheri Linden"]},
{"text": "Kin poses more questions than it answers, and they're not the cool, speculative kind.", "is_fresh": 0, "author": ["Jesse Hassenger"]},
{"text": "Kin is a movie about a child with an all-powerful firearm that makes him feel important and special and powerful. On a one-to-ten scale of moral fecklessness, this ranks about a thousand.", "is_fresh": 0, "author": ["Chris Nashawaty"]},
{"text": "All the genre elements play like an afterthought, and that's frustrating because the rest of the movie isn't quite spry enough to stay interesting without action, adventure, or at least little more weirdness.", "is_fresh": 0, "author": ["William Bibbiani"]}
]