[
{"reviews_count": "109", "title": "L A Confidential", "avg_audience_rating": "3.8", "rotten_count": "1", "tomatometer": "99", "audience_score": "94", "avg_critic_rating": "8.8", "fresh_count": "108", "user_ratings_count": "150,341"},
{"text": "A sublimely complex story.", "is_fresh": 1, "author": ["Paul Chambers"]},
{"text": "L.A. Confidential is a movie bull's-eye: noir with an attitude, a thriller packing punches. It gives up its evil secrets with a smile.", "is_fresh": 1, "author": ["Michael Wilmington"]},
{"text": "There are so many things to enjoy here. Director Curtis Hanson... keeps a complex story coherent and absorbing -- if bloody at the end.", "is_fresh": 1, "author": ["Desson Thomson"]},
{"text": "At the center of the movie are three mismatched cops with separately fueled ambitions, ferociously played by Kevin Spacey, Russell Crowe and Guy Pearce. Their combined charisma almost smashes through the screen.", "is_fresh": 1, "author": ["Jami Bernard"]},
{"text": "L.A. Confidential isn't quite up there with Chinatown, but it's the closest thing to come down the Santa Monica Freeway in the last 23 years.", "is_fresh": 1, "author": ["Steven Rea"]},
{"text": "Hanson has made the film noir setting virtually another starring character.", "is_fresh": 1, "author": ["Jeff Strickler"]},
{"text": "Spicy and boiling-hot, this sensational early-'50s crime drama is a morality play disguised as pulp fiction -- a sprawling saga of corruption and redemption set against a flashy West Coast backdrop.", "is_fresh": 1, "author": ["Jay Boyar"]},
{"text": "Hanson delivers something ever rarer in film culture, not a new film noir but an old-fashioned total movie, somehow of a single piece.", "is_fresh": 1, "author": ["Stephen Hunter"]},
{"text": "The story is so complicated that the movie can't quite make it clear, but the picture has impressive energy and high-intensity performances from Kevin Spacey, Danny DeVito, and Guy Pearce.", "is_fresh": 1, "author": ["David Sterritt"]},
{"text": "Like Chinatown before it, this twisted and twisting tale of cops, crime, corruption and hangers-on in 1950s Los Angeles artfully evokes the flip side of the City of Dreams.", "is_fresh": 1, "author": ["Leah Rozen"]},
{"text": "While not reaching the twisted heights of the superbly sinister Chinatown, L.A. Confidential is smart, complex and engrossing.", "is_fresh": 1, "author": ["Serena Donadoni"]},
{"text": "It doesn't let up for a second, cramming James Ellroy's sprawling novel into a mere 98 minutes. That's both good and bad. The good? It's an exhilarating, breakneck ride. The bad? It's over far too soon.", "is_fresh": 1, "author": ["Matt Soergel"]},
{"text": "L.A. Confidential is a satisfyingly plotted film with echoes of the 1974 classic Chinatown.", "is_fresh": 1, "author": ["Tonya Pendleton"]},
{"text": "The result is a powerful work of art. Seldom has a study of sleaze said more about what makes us all tick.", "is_fresh": 1, "author": ["Dan Webster"]},
{"text": "This superlative filming of James Ellroy's complex 1950s detective story by director Curtis Hanson fuses period authenticity, fluid direction and searing, full-blooded performances.", "is_fresh": 1, "author": ["Jason Caro"]},
{"text": "This may be the best movie of the year; it's definitely one of the greatest crime films of all time.", "is_fresh": 1, "author": ["John Krewson"]},
{"text": "Though their spirits may seem all but entombed by sin, these men are vividly human, this film savagely alive.", "is_fresh": 1, "author": ["Rod Dreher"]},
{"text": "The genius of the film -- and it is a film of genius, without a doubt -- is that it holds an investigation into the human soul's capacity for evil, while somehow still managing to be funny, thrilling, lively, shocking and unremittingly entertaining.", "is_fresh": 1, "author": []},
{"text": "A glamorous, alluring entertainment that revels in the artifice of Hollywood while exposing its corrupt heart, L.A. Confidential pays stylish homage to some of the great film noirs of the distant and recent past.", "is_fresh": 1, "author": ["Ann Hornaday"]},
{"text": "Hanson's achievement as director cannot be overrated. He moves swiftly from scene to scene, yet he allows the actors space to define their characters. Producers will be adding his name to their most-wanted list.", "is_fresh": 1, "author": ["Bob Thomas"]},
{"text": "The multi-layered plot keeps you riveted for the best possible reason -- you can't start to imagine where the story is leading you, and the fiercely intense payoffs are repeatedly worth the extra concentration.", "is_fresh": 1, "author": ["Paul Tatara"]},
{"text": "This 1950s-era crime drama has it all, and does it all with a casual mastery that Hollywood once owned but had seemingly misplaced or lost.", "is_fresh": 1, "author": ["Joe Morgenstern"]},
{"text": "With its plot that zigs and zags like knife slashes, its cynicism stoked to the melting point, the movie brings the thrill of corruption crackingly to life.", "is_fresh": 1, "author": ["Owen Gleiberman"]},
{"text": "This is a movie that both deconstructs what it means to be a noir film and is a film noir itself in the best ways possible.", "is_fresh": 1, "author": ["Matthew Razak"]},
{"text": "Writer-director Curtis Hanson's adaptation of the James Ellroy novel wasn't merely one of the two or three greatest movies of the 1990s; it stands as a masterpiece for the ages.", "is_fresh": 1, "author": ["Matt Brunson"]},
{"text": "L.A. Confidential understands that men don't always respond to evil with good and that the question of whom society regards as heroes isn't always a clear cut as it seems.", "is_fresh": 1, "author": ["Matt Noller"]},
{"text": "Everything Angelinos love and hate about their city is here, as well as anything a movie fan could possibly wish for.", "is_fresh": 1, "author": ["Rob Vaux"]},
{"text": "A modern cinematic classic...the alchemical reaction of a director and a charmed collaboration of actors, writers, and design artists...[Blu-ray]", "is_fresh": 1, "author": ["Peter Canavese"]},
{"text": "...one of the most absorbing, compelling, most thoroughly enjoyable crime thrillers to have come along in the past decade.", "is_fresh": 1, "author": ["John J. Puccio"]},
{"text": "A neo-noir masterpiece in the league of \"Double Indemnity\"...", "is_fresh": 1, "author": ["Felix Vasquez Jr."]},
{"text": "Taut, atmospheric, acted with confident ease -- this is one of the greatest American movies of the 1990s.", "is_fresh": 1, "author": []},
{"text": "You have to pay close attention to follow the double-crossing intricacies of the plot, but the reward for your work is dark and dirty fun.", "is_fresh": 1, "author": ["David Ansen"]},
{"text": "Stop reading. Put this review on hold until after you've seen L.A. Confidential.", "is_fresh": 1, "author": ["David Edelstein"]},
{"text": "Spacey's Vincennes is the standout in a just about flawless ensemble, and director Curtis Hanson keeps the hugely complicated story zooming along the boulevard of broken dreams without losing sight of the details that make the trip worthwhile.", "is_fresh": 1, "author": ["Maitland McDonagh"]},
{"text": "An irresistible treat with enough narrative twists and memorable characters for a half-dozen films.", "is_fresh": 1, "author": ["Todd McCarthy"]},
{"text": "This movie restores genre elements to a level of potency that's disturbing, satisfying, and rare as hell.", "is_fresh": 1, "author": ["Lisa Alspector"]},
{"text": "Dizzying and powerful.", "is_fresh": 1, "author": ["Rob Gonsalves"]},
{"text": "A parlor game has already begun as to whether the supreme acting revelation in L.A. Confidential is provided by Mr. Crowe, Mr. Spacey or Mr. Pearce.", "is_fresh": 1, "author": ["Andrew Sarris"]},
{"text": "Representing the best of Classic Hollywood Cinema, this noir policier is marked by densely-plotted narrative, psychological depth, moral ambiguity, emotional complxity. ", "is_fresh": 1, "author": ["Emanuel Levy"]},
{"text": "As the emotional nexus, a Veronica Lake lookalike trapped in a web of male desires, Basinger is arguably the pick of a perfect cast. Subtle, shocking, compelling and immensely assured.", "is_fresh": 1, "author": ["Tom Charity"]},
{"text": "You could call it a huge epic, but it's also a scrappy movie, full of energy as well as style.", "is_fresh": 1, "author": ["Jeffrey M. Anderson"]},
{"text": "I dug it big-time, baby!", "is_fresh": 1, "author": ["JoBlo"]},
{"text": "In doing away with manners, Hanson's hardboiled detective stories craft a more hard-hitting picture of the time than any filmmaker who worked in the 1950s could have dreamed ", "is_fresh": 1, "author": ["Phil Villarreal"]},
{"text": "There is a gritty, hard-boiled feel to 'L.A. Confidential' that is so audience satisfying.", "is_fresh": 1, "author": ["Steve Crum"]},
{"text": "With every corner turned, the viewer feels that sinking feeling sink even deeper: everything's poisoned, everything's suspicious, everything's going down.", "is_fresh": 1, "author": ["Jeffrey Overstreet"]},
{"text": "This police corruption thriller, based on a James Ellroy novel, drags in places and ultimately fails in its film noir genre, but it's tops in art direction and photography.", "is_fresh": 1, "author": ["Judith Egerton"]},
{"text": "One of the more polished dramas to emerge from Hollywood in the last twenty years, it remains Hanson's best film to date.", "is_fresh": 1, "author": ["Jay Richardson"]},
{"text": "A hard-boiled cops and crime story that is at once viscerally entertaining and intellectually satisfying.", "is_fresh": 1, "author": ["Leonard Schwarz"]},
{"text": "Acted to perfection with more twists than you can shake a stick at.", "is_fresh": 1, "author": ["Bob McCabe"]},
{"text": "It is an intriguing whodunit, but nothing really unpredictable. Good work by Pierce and Crowe, though.", "is_fresh": 1, "author": ["John R. McEwen"]},
{"text": "A wondrous troika of actors lends L.A. Confidential its slippery but distinctive erotic poignancy.", "is_fresh": 1, "author": ["Nick Davis"]},
{"text": "It's dark stuff, all right. But it's good dark.", "is_fresh": 1, "author": ["Margaret A. McGurk"]},
{"text": "L.A. Confidential is the closest thing to a classic cop movie you could imagine, a throwback to a few decades ago.", "is_fresh": 1, "author": ["Kevin N. Laforest"]},
{"text": "It demands that the viewer pay attention, not assuming for one second that its audience may consist of dummies. That audience is rewarded with an environment oozing with atmosphere.", "is_fresh": 1, "author": ["Jeffrey Chen"]},
{"text": "How good is \"L.A. Confidential\"? Kim Basinger gives a convincing performance - that's how good.", "is_fresh": 1, "author": ["Jeffrey Westhoff"]},
{"text": "A top-notch thriller, an intricate tale of corruption, lust and betrayal that thematically recalls vintage film noir while stylistically coming closer to Roman Polanski's Chinatown.", "is_fresh": 1, "author": ["Lael Loewenstein"]},
{"text": "Pode parecer imposs\u00edvel, mas ainda se pode fazer um \u00f3timo filme noir hoje em dia.", "is_fresh": 1, "author": ["Pablo Villa\u00e7a"]},
{"text": "A rattling good police story and a dark, laughing tone poem to the never-innocent city of illusions.", "is_fresh": 1, "author": ["Liam Lacey"]},
{"text": "Rousing and superbly executed, with a climactic shootout that's one of the most ingenious and jolting of its kind.", "is_fresh": 1, "author": ["Peter Keough"]},
{"text": "A riveting crime story about the shadowy side of city life where things are never what they seem.", "is_fresh": 1, "author": ["Frederic and Mary Ann Brussat"]},
{"text": "Exhilarating entertainment that sacrifices not a scrap of intelligence.", "is_fresh": 1, "author": ["Shay Casey"]},
{"text": "Against all odds, L.A. Confidential succeeds brilliantly, right down to Jerry Goldsmith's score, which evokes his haunting theme from Chinatown without being haunted by it.", "is_fresh": 1, "author": ["Peter Travers"]},
{"text": "Director Curtis Hanson's elegant film is faithful to Ellroy's multi-layered and labyrinthine book, requiring some concentration to keep up with the subtle plot twists and coded dialogue.", "is_fresh": 1, "author": ["Jane Crowther"]},
{"text": "Destined to be one of the best, if not the best, of the year.", "is_fresh": 1, "author": ["James Kendrick"]},
{"text": "Its intricate plot is so nihilistic and cold around the heart, its nominal heroes so amoral, so willing to sell out anyone and everyone, that the film is as initially unnerving as it is finally irresistible.", "is_fresh": 1, "author": ["Kenneth Turan"]},
{"text": "One of the best films of the year, an excellent film noir murder mystery brimming with style and atmosphere and topped off with fine acting.", "is_fresh": 1, "author": ["Robert Roten"]},
{"text": "Curtis Hanson's resplendently wicked L.A. Confidential is a tough, gorgeous, vastly entertaining throwback to the Hollywood that did things right.", "is_fresh": 1, "author": ["Janet Maslin"]},
{"text": "Crooked cops. The mystery and allure of Hollywood in the '50s. Death, double-crossing, and secret alliances. Paparazzi waiting to get that one breakthrough picture.", "is_fresh": 1, "author": ["James Berardinelli"]},
{"text": "It's the story of good white actors stranded, in the name of noir, in a movie that refuses to kick into gear until it's far too late.", "is_fresh": 0, "author": ["Dwight Garner"]},
{"text": "L.A. Confidential is immersed in the atmosphere and lore of film noir, but it doesn't seem like a period picture--it believes its noir values and isn't just using them for decoration.", "is_fresh": 1, "author": ["Roger Ebert"]},
{"text": "Hanson has directed a number of clever suspense films, but this one puts everything else he's done in the shade. L.A. Confidential is at the same time his most personal movie and Hollywood filmmaking at its best.", "is_fresh": 1, "author": ["John Hartl"]},
{"text": "L.A. Confidential walks on the dark side, enticingly daring us to follow.", "is_fresh": 1, "author": ["Sean P. Means"]},
{"text": "There's something of The Big Sleep in director Curtis Hanson's unfashionably pre-postmodern tour de force of early-'50s atmosphere, tight plotting, snappy dialogue, and sharply edited action--you know, all those quaint virtues from the old noirs.", "is_fresh": 1, "author": ["Rob Nelson"]},
{"text": "L.A. Confidential is a tour de (police) force. With characters as intricate as any you'll find on film this year, and performances that rise to the occasion.", "is_fresh": 1, "author": []},
{"text": "It may be set almost 45 years ago but it's as urgently up-to-date as tomorrow.", "is_fresh": 1, "author": ["Bruce Kirkland"]},
{"text": "L.A. Confidential follows idealistic young policeman Ed Exley (Pearce) as a multiple homicide he is investigating turns into something much more insidious", "is_fresh": 1, "author": ["MaryAnn Johanson"]},
{"text": "Take strong performances, an involved story and period atmosphere, then throw in sex, violence, corruption and politics to make one hell of a crime drama.", "is_fresh": 1, "author": ["Elspeth Haughton"]},
{"text": "The feel of the movie is of nostalgia for the Hollywood glamorous life of [the 1950s]...", "is_fresh": 1, "author": ["Dennis Schwartz"]},
{"text": "Speaking strictly on the record, and not at all hush-hush: Don't miss L.A. Confidential.", "is_fresh": 1, "author": ["Jack Garner"]},
{"text": "All of the characters are finely detailed and fascinating. Crowe and Pearce give exceptionally good performances. Their vibrant portrayals bring immediacy to their characters and actions.", "is_fresh": 1, "author": ["Madeleine Williams"]},
{"text": "Brilliant, bold entertainment with complex characters that burn into the psyche. The most satisfying film of the year.", "is_fresh": 1, "author": ["Urban Cinefile Critics"]},
{"text": "this movie is such a satisfying whole", "is_fresh": 1, "author": ["Marty Mapes"]},
{"text": "Every scene in the movie is good.", "is_fresh": 1, "author": ["Mike McGranaghan"]},
{"text": "Intricate in design, bold in execution, and rife with thrilling acting especially by Russell Crowe as a tough cop with a complex code of morality, L.A. Confidential scores as one of the great police dramas of our time.", "is_fresh": 1, "author": ["Harvey S. Karten"]},
{"text": "L.A. Confidential is a rarity, a major Hollywood film with smart acting, dialogue and production values that actually works from beginning to end.", "is_fresh": 1, "author": ["Edward Johnson-Ott"]},
{"text": "There are no surprises about who dies, but the ingenuity of the good cops and the director's perfect timing combine to produce the best scene in the movie.", "is_fresh": 1, "author": ["Steve Rhodes"]},
{"text": "It's a film that has substance and sweep to match its high sense of style.", "is_fresh": 1, "author": ["Susan Stark"]},
{"text": "Kudos to director Curtis Hanson and co-screenwriter Brian Helgeland for whipping James Ellroy's seminal novel of 1950s Los Angeles police corruption and noir sexuality into recognizable shape for this distinguished film adaptation.", "is_fresh": 1, "author": ["Marc Savlov"]},
{"text": "They all contribute to a movie that's unusually delicate, understated and searching -- a movie that catches us up in the faded '50s beauty of Los Angeles.", "is_fresh": 1, "author": ["Joe Baltake"]},
{"text": "There wasn't a moment where I wasn't amazed, bowled over by its greatness. This film just shows that one can still do noir and make it non-Tarantino-esque.", "is_fresh": 1, "author": ["Ted Prigge"]},
{"text": "Hanson cast two actors from Down Under, Crowe and Pearce, in the lead roles of Bud White and Ed Exley, respectively. This decision works wonders for the film; if it had had big name stars in the lead, the viewer would most possibly be distracted by this.", "is_fresh": 1, "author": ["Matt Easterbrook"]},
{"text": "This is very rough stuff, with more than a little violence and profanity - enough to please just about any Tarantino fan.", "is_fresh": 1, "author": ["Jeff Vice"]},
{"text": "Admiration will likely extend for years to come.", "is_fresh": 1, "author": ["Mike Clark"]},
{"text": "Director Hanson's convoluted plot -- tracing the rise, fall, and redemption of L.A. cops played by Guy Pearce, Russell Crowe, Kevin Spacey, and James Cromwell -- is all over the map until its handy, bloody ending (body count > 25).", "is_fresh": 1, "author": ["Christopher Null"]},
{"text": "If the critics overrate this one, it's only because it looks so damned good in contrast to the rest of what's out there.", "is_fresh": 1, "author": ["Bryant Frazer"]},
{"text": "Fun, if you have the stomach for it.", "is_fresh": 1, "author": ["Jeff Millar"]},
{"text": "This is the rare film that displays a perfect sense of star power, and how it plays to an audience.", "is_fresh": 1, "author": ["David Luty"]},
{"text": "This is about one of the best crime dramas in years.", "is_fresh": 1, "author": ["Mick LaSalle"]},
{"text": "Curtis Hanson has captured the flinty, sweaty days of post-World War II Los Angeles in his slick policier, L.A. Confidential.", "is_fresh": 1, "author": ["Barbara Shulgasser"]},
{"text": "Brilliant, complex, cinematic noir-inspired cop drama L.A. Confidential an instant classic.", "is_fresh": 1, "author": ["Rob Blackwelder"]},
{"text": "Try to imagine this: a mainstream American movie, rife with violent and often murderous behavior, yet so densely plotted, so richly peopled, that you can't summarize it in a sentence.", "is_fresh": 1, "author": ["Richard Schickel"]},
{"text": "The script has the type of deft plotting that made films like The Crying Game and The Usual Suspects so popular.", "is_fresh": 1, "author": ["Tom Trinchera"]},
{"text": "One of the best stories I have seen on the screen in a long time.", "is_fresh": 1, "author": ["Widgett Walls"]},
{"text": "you won't be able to take your eyes off Kevin Spacey as a cop who yearns for notoriety, or Crowe and Pearce, playing morally challenged officers who represent two sides of the same coin.", "is_fresh": 1, "author": ["James Sanford"]},
{"text": "Hollywood moviemaking at its finest--a classy piece of entertainment made with equal parts passion, style, and fun.", "is_fresh": 1, "author": ["Michael Dequina"]},
{"text": "Pearce, Crowe and Spacey do solid work with solid characters. They're never boring, and never fascinating.", "is_fresh": 1, "author": ["Scott Renshaw"]},
{"text": "A solid, confident thriller.", "is_fresh": 1, "author": ["David N. Butterworth"]},
{"text": "Objectively this film probably ranks with Chinatown and The Maltese Falcon.", "is_fresh": 1, "author": ["Mark R. Leeper"]},
{"text": "The look of the film is terrific and is filled with period details. The clothes, the cars, sets and dialogue all weave together to form a great background tapestry to the story.", "is_fresh": 1, "author": ["Scott Nash"]}
]