[
{"reviews_count": "6", "title": "La Sierra", "avg_audience_rating": "  4", "rotten_count": "0", "tomatometer": "100", "audience_score": "92", "avg_critic_rating": "7.5", "fresh_count": "6", "user_ratings_count": "587"},
{"text": "An eye-opening documentary that just lays the truth out there without making any judgments about the way these people live.", "is_fresh": 1, "author": ["Cherryl Dawson and Leigh Ann Palone"]},
{"text": "This is no well-meaning, Western-interventionist Born Into Barrios with a sweet ending. . . . La Sierra is devastating, mournful, and unshakeable.", "is_fresh": 1, "author": ["Brian Gibson"]},
{"text": "This courageous documentary takes viewers to a small hillside community in Medell\u00edn where an illegal right-wing paramilitary group holds power.", "is_fresh": 1, "author": ["Jeannette Catsoulis"]},
{"text": "Eschewing both cool detachment and exploitative sentimentality, Dalton and Martinez find the ideal emotional distance from their subjects, depicting La Sierra as a sociological nightmare, while never letting us forget that real people actually live there.", "is_fresh": 1, "author": ["Joshua Land"]},
{"text": "A quality documentary by courageous filmmakers.", "is_fresh": 1, "author": ["Donald J. Levit"]},
{"text": "", "is_fresh": 1, "author": ["V.A. Musetto"]}
]