[
{"reviews_count": "107", "title": "Life Itself", "avg_audience_rating": "  4", "rotten_count": "93", "tomatometer": "13", "audience_score": "78", "avg_critic_rating": "3.6", "fresh_count": "14", "user_ratings_count": "601"},
{"text": "Through its five stories, this choral film tries to convey a profound existential message at all times. [Full review in Spanish]", "is_fresh": 0, "author": ["Gaspar Zimerman"]},
{"text": "A movie whose universe has rules lax enough to allow almost anything to happen. [Full Review in Spanish]", "is_fresh": 0, "author": ["N\u00e9stor Burtone"]},
{"text": "The all-too-tidy web by which Fogelman's ensemble of characters interconnect plays as hackneyed and contrived.", "is_fresh": 0, "author": ["James Marsh"]},
{"text": "Life Itself is proposed as an accomplished melodramatic exercise, powerful, honest, with some very lucid dialogues, about links and their derivatives.", "is_fresh": 1, "author": ["Rolando Gallego"]},
{"text": "Life itself captures all of this in the worst way possible, offering no respite. It's sad to see a terrific cast so woefully underserved.", "is_fresh": 0, "author": ["Bernard Boo"]},
{"text": "Life Itself celebrates the human condition and all of its complications with humuor, poignancy and love.", "is_fresh": 1, "author": ["Masego Panyane"]},
{"text": "In its attempts to find some level of relatable sincerity Life Itself completely misses the mark and instead is only able to be overwrought and tiresome.", "is_fresh": 0, "author": ["Kt Schaefer"]},
{"text": "About 15 minutes of Life Itself is truly special, unique and beautiful cinema. The rest of the film, however, is plain difficult to watch without cringing either for the plight of the characters or the pretentiousness of the screenplay.", "is_fresh": 0, "author": ["Matt Ward"]},
{"text": "Fogelman spans entire generations to tell this single story, offering simplistic platitudes about the human condition which he believes to be profound - a Hallmark greetings card that thinks it's Plato.", "is_fresh": 0, "author": ["Alistair Ryder"]},
{"text": "If only all movies could begin like \"Life Itself.\" A single camera shot but one that is narrated by Samuel L. Jackson in all his glory! You can't help but laugh during the first five minutes of this film.", "is_fresh": 1, "author": ["Michael A. Smith"]},
{"text": "Fogelman flips between... more cinematic elements and the soapy dynastic drama he is good at, which detracts from the positives considerably.", "is_fresh": 0, "author": ["Lewis Knight "]},
{"text": "This movie is so awful, I almost want to cancel my Amazon subscription out of principle ", "is_fresh": 0, "author": ["Nate Adams"]},
{"text": "\"Life Itself\" is one of those movies that thinks it's saying something much more philosophical than it actually is at any point. In fact, the movie is barely saying anything at all.", "is_fresh": 0, "author": ["Matthew Passantino"]},
{"text": "The film actually feels much better suited to a television series which would have allowed it time to delve more deeply into the subsequent lives and characters. This superficial grazing makes it feel more like a soap opera sped up.", "is_fresh": 0, "author": ["Pamela Powell"]},
{"text": "The attempt by Life Itself to pretend it's anything other than another piece of \"Nice men have feelings too, love us for being so nice!\" propaganda is just exhausting.", "is_fresh": 0, "author": ["Roxana Hadadi"]},
{"text": "Insufferable.", "is_fresh": 0, "author": ["Linda Cook"]},
{"text": "Fogelman's film has heart, but it's ultimately too shallow in execution to support his grander ambitions.", "is_fresh": 0, "author": ["David Fontana"]},
{"text": "A multi-generational, international Ancestry: the Movie type of thing. It's plotted into chapters that are short, rapid and yet intimate as a family grows and morphs and shrinks and morphs over decades. ", "is_fresh": 1, "author": ["Anne Brodie"]},
{"text": "Dan Fogelman assuredly had Tarantino in mind when he constructed Life Itself as five intertwined, overlapping chapters, each brandishing a Hallmark card message of hope and light...", "is_fresh": 0, "author": ["Dann Gire"]},
{"text": "Almost admirably insane. ", "is_fresh": 0, "author": ["Andrew Parker"]},
{"text": "The sort of sprawling saga meant to make audiences laugh, cry, and nod approvingly at moments they might recognize from their own roller coaster lives. Unfortunately, a deep sigh and a dismissive shrug will be all that many folks might be able to muster.", "is_fresh": 0, "author": ["Matt Brunson"]},
{"text": "Women have quite a bit more sophistication than what Fogelman's statement allows of us-it's possible to tell an eloquent story of familial history without layering on tragedy in an exploitative fashion.", "is_fresh": 0, "author": ["Maria Sherman"]},
{"text": "Fogelman's work is a little like listening to James Taylor's \"Fire and Rain\" while shopping for candles in a Pier One: It never stops to question its economic comfort, its upper-class value system, or its essential whiteness.", "is_fresh": 0, "author": ["Todd VanDerWerff"]},
{"text": "Life itself can be a mess, this movie didn't have to be.", "is_fresh": 0, "author": ["Alci Rengifo"]},
{"text": "Even with an incredible cast, the film seeks to be more than what it is, is far more concerned with its ending, and neglects and uses all of the characters on its way there.", "is_fresh": 0, "author": ["Mae Abdulbaki"]},
{"text": "...feels like an entire television season's worth of story crammed into an awkward and ungainly two-hour picture.", "is_fresh": 0, "author": ["David Nusair"]},
{"text": "Excruciatingly contrived and ill-conceived...", "is_fresh": 0, "author": ["Richard Brody"]},
{"text": "Capricious and existentially contrived, it revolves around fate's frustrating unpredictability.", "is_fresh": 0, "author": ["Susan Granger"]},
{"text": "Give me a minute ... I feel nauseated.", "is_fresh": 0, "author": ["Dana Barbuto"]},
{"text": "Even in failure, it's clear that Fogelman has talent and can work with actors - it's just that his story is so unwieldy that it doesn't allow us to relate to his characters.", "is_fresh": 0, "author": ["David Lewis"]},
{"text": "Fogelman wants audiences to feel his love, but the only tools at his disposal are sap and cheese, which he hits viewers with like an errant bus driver.", "is_fresh": 0, "author": ["Adam Graham"]},
{"text": "Relentlessly cruel, unbelievably cloying, unabashedly sentimental and frustratingly facile.", "is_fresh": 0, "author": ["Sara Michelle Fetters"]},
{"text": "Fogelman's latest is just another example of what his popular television drama has been for two seasons (and will be for its upcoming third). That is to say a commercially viable form of tragedy porn.", "is_fresh": 0, "author": ["Andrew Husband"]},
{"text": "This is a film that has been custom-designed to give viewers all of the feels and jerk as many tears as allowed by law but the only thing I felt while watching it was utter contempt.", "is_fresh": 0, "author": ["Peter Sobczynski"]},
{"text": "Mawkish and manipulative, although well-acted.", "is_fresh": 0, "author": ["Chris Bumbray"]},
{"text": "Too-emotional melodrama has violence, language, drinking.", "is_fresh": 0, "author": ["Sandie Angulo Chen"]},
{"text": "It's a movie made for people who can't be trusted to understand any storytelling unless it's not just spoon-fed but ladled on, piled high, and explained via montage and voiceover. ", "is_fresh": 0, "author": ["Kate Erbland"]},
{"text": "The cast is on point -- particularly Oscar Isaac... and the witty, tender and curious structure of the narrative kept me engaged.", "is_fresh": 1, "author": ["Sean O'Connell"]},
{"text": "Life Itself is nothing like you expect. ", "is_fresh": 1, "author": ["Scott Menzel"]},
{"text": "Aimless incoherent treacle. ", "is_fresh": 0, "author": ["Roger Moore"]},
{"text": "This is a film that understands that life is messy but doesn't understand how to express that in any way that even remotely resembles life as we know it.", "is_fresh": 0, "author": ["Steve Katz"]},
{"text": "...if your attitude is that life is meaningless and then you die, you may want to give this one a pass. Fogelman clearly believes life has meaning, even if we can't always see it for ourselves.", "is_fresh": 1, "author": ["Daniel M. Kimmel"]},
{"text": "None of the characters in Life Itself are interesting on their own, so Fogelman attempts to gin them up some fake pathos through death, either theirs or someone near them. ", "is_fresh": 0, "author": ["Will Leitch"]},
{"text": "There is about as much honesty and genuine emotion in this film as you would find in a damage-control ExxonMobil commercial.", "is_fresh": 0, "author": ["April Wolfe"]},
{"text": "The less said about Life Itself -- a truly zany multi-timeline melodrama from the creator of that NBC show that makes everyone cry -- the better. ", "is_fresh": 0, "author": ["Hunter Harris"]},
{"text": "In Life Itself, everyone's fate is in the hands of Fogelman, and he wields that power with terrible cruelty. ", "is_fresh": 0, "author": ["David Sims"]},
{"text": "The worst thing about Life Itself is not that it is emotionally sadistic. It's just how much it wants to be emotionally sadistic, while missing the mark by a mile.", "is_fresh": 0, "author": ["Katie Walsh"]},
{"text": "One almost has to admire how perfectly awful Life Itself is.", "is_fresh": 0, "author": ["Sean P. Means"]},
{"text": "Overall, his movie feels like an entire season of This Is Us compressed into two frustratingly uneven hours of tearjerking and grief porn.", "is_fresh": 0, "author": ["Michael Gingold"]},
{"text": "If you are up for a good cry - in fact, if you crave one - you will probably get it. But it may be more of a reflex than anything.", "is_fresh": 0, "author": ["Linda Holmes"]},
{"text": "Fogelman tries to tug on the heartstrings by giving us a story full of people who go through some harrowing, emotional ordeals, but it constantly rings hollow. ", "is_fresh": 0, "author": ["Craig D. Lindsey"]},
{"text": "The film views emotions in the same way a sociopath would-not as something to be felt, but something to be mimicked and manipulated.", "is_fresh": 0, "author": ["Matt Goldberg"]},
{"text": "It's all so overwhelming -- not emotionally, mind you, but more in the vein of an irritating itch that you just can't reach.", "is_fresh": 0, "author": ["Mark Dujsik"]},
{"text": "I've seen Life Itself twice already, and I may even watch it a third time someday, not because it's perfect-it isn't-but because just as with my own life, I like to revisit the high points.", "is_fresh": 1, "author": ["Andrea Gronvall"]},
{"text": "Life Itself... comes across as a ghoulish, five-alarm fire of a movie.", "is_fresh": 0, "author": ["Richard Roeper"]},
{"text": "The whole film is rather consumed with itself...", "is_fresh": 0, "author": ["Peter Howell"]},
{"text": "Bad move, this.", "is_fresh": 0, "author": ["Harry Haun"]},
{"text": "What the viewer is left with... is the curious sensation of having just watched a ninety-minute prologue to something that they're no longer interested in.", "is_fresh": 0, "author": ["Dana Schwartz"]},
{"text": "Much like life itself, This Is Us creator Fogelman's decades-spanning, multigenerational mashup of intertwined, tragic romances is, in the end, much ado about nothing much at all.", "is_fresh": 0, "author": ["Marc Savlov"]},
{"text": "So perversely jaw-dropping in its attempts to extort feelings out of us that it could almost be a black comedy. But no, this one is playing it straight.", "is_fresh": 0, "author": ["Stephanie Zacharek"]},
{"text": "Fogelman's \"Life Itself\" seems to include almost every single thought and feeling he has ever had.", "is_fresh": 0, "author": ["Rafer Guzman"]},
{"text": "A glib, noxious, airplane-unworthy melodrama so insecure about its time-hopping, tragedy-strewn events and heart-stricken characters that, in its naked manipulation and narrative condescension, it resembles anything but the words of its title.", "is_fresh": 0, "author": ["Robert Abele"]},
{"text": "Fogelman pretends to offer the random kaleidoscope of real life, but his movie is riddled with the rankest Dickensian contrivances -- without Dickens' flair for vivid characters. ", "is_fresh": 0, "author": ["Jim Lane"]},
{"text": "Life Itself feels weighted down by its sense of self-importance.", "is_fresh": 0, "author": ["Brian Lowry"]},
{"text": "Dan Fogelman's blithering botch job doesn't rate a single star. Try five eyerolls. A talented cast goes up in a hellish blaze of leaden dialogue that lands like a blunt force trauma. But the real tragedy strikes when you buy a ticket.", "is_fresh": 0, "author": ["Peter Travers"]},
{"text": "Wallowing in a cinematic abyss of tragedy, pain and victimization is better suited for fans of the Saw franchise.", "is_fresh": 0, "author": ["Kiko Martinez"]},
{"text": "This movie made me feel the full range of human emotions, all in the space of two hours, and left me contemplating who and what people and circumstances affect me personally in my own life.", "is_fresh": 1, "author": ["Carl Kozlowski"]},
{"text": "A pretentious, sappy drama of interlinking stories [that] will have its intended tear-jerking effect only on viewers who remain convinced that Forrest Gump's observation about chocolates is an earth-shaking profundity.", "is_fresh": 0, "author": ["Frank Swietek"]},
{"text": "Despite its title, Life Itself doesn't revel so much in the joys and travails of life as it does in the shameless emotional manipulation stemming from the ham-fisted tendencies of its own maker. ", "is_fresh": 0, "author": ["Derek Smith"]},
{"text": "\"Life Itself\" makes the crazy creative decision to be completely unlikable. Downright odious at times.", "is_fresh": 0, "author": ["Brian Orndorf"]},
{"text": "Too many stray touches here belong to a Fidelity Investments ad, or a pushy yet empathetic marketing campaign for a pain reliever.", "is_fresh": 0, "author": ["Michael Phillips"]},
{"text": "As someone who appreciates attempts to channel difficult material into mainstream appeal, I similarly appreciate what Fogelman was trying to do with Life Itself.", "is_fresh": 1, "author": ["Edward Douglas"]},
{"text": "A slow and sappy slog through every emotionally manipulative device known to filmkind.", "is_fresh": 0, "author": ["Lisa Johnson Mandell"]},
{"text": "Never trust a movie that uses the term \"unreliable narrator\" more than six times. ", "is_fresh": 0, "author": ["Chris Knight"]},
{"text": "Movies should invite viewers in, taking them on a journey together with the characters on-screen. Unfortunately, \"Life Itself\" is less journey than lecture.", "is_fresh": 0, "author": ["Kristen Page-Kirby"]},
{"text": "Isn't it amazing how human destinies intertwine? This movie seems intent on persuading you that the answer is \"no.\"", "is_fresh": 0, "author": ["A.O. Scott"]},
{"text": "A stuffed turkey that wastes most of its noteworthy ingredients...", "is_fresh": 0, "author": ["Brian Truitt"]},
{"text": "...Life Itself is a tonally uneven mess...", "is_fresh": 0, "author": ["Danielle Solzman"]},
{"text": "An overwrought tearjerker that shoves trite life lessons down your throat along with a vat of sugar. ", "is_fresh": 0, "author": ["Mara Reinstein"]},
{"text": "This isn't easy stuff to pull off, but Fogelman succeeds in luring us in and keeping us genuinely involved with all these character.", "is_fresh": 1, "author": ["Pete Hammond"]},
{"text": "Though you wouldn't know it from its gauzy marketing, Life Itself is an R-rated film with several incredibly jarring moments of bloody violence.", "is_fresh": 0, "author": ["Caroline Siede"]},
{"text": "The worst thing about \"Life Itself\" is not that it is emotionally sadistic. It's just how much it wants to be emotionally sadistic, while simultaneously missing the mark by a mile. ", "is_fresh": 0, "author": ["Katie Walsh"]},
{"text": "Perhaps it's the contradictions that unravel everything. Life Itself opens with an elaborate unreliable narrator sequence, but then wants us to believe all the convoluted drama that ensues.", "is_fresh": 0, "author": ["Fred Topel"]},
{"text": "Life, it seems, can be summarized as Terrible Things Keep Happening to Nice, Attractive People, Especially the Women.", "is_fresh": 0, "author": ["Inkoo Kang"]},
{"text": "Life itself may be unpredictable yet sadly Life Itself is anything but.", "is_fresh": 0, "author": ["Travis Hopson"]},
{"text": "Unfortunately, Fogelman seems to have bitten off more than the audience can chew here. By the time the third act rolls around, the first act is all but forgotten, as if it was another movie. ", "is_fresh": 0, "author": ["Michael Heaton"]},
{"text": "A vapid exercise in narrative kitsch that spans two languages and multiple decades and love stories.", "is_fresh": 0, "author": ["Ignatiy Vishnevetsky"]},
{"text": "Life Itself is this year's Collateral Beauty ", "is_fresh": 0, "author": ["Courtney Howard"]},
{"text": "It's actually funny that Fogelman enjoys referencing Tarantino so much in this movie because the script kills off more characters than Reservoir Dogs. ", "is_fresh": 0, "author": ["Kristen Lopez"]},
{"text": "Dan Fogelman proves that gimmicks like his all-these-people-are-connected surprise of the 'This Is Us' pilot work when they can be expanded upon on TV but not when that's all he's got within a theatrical run time.", "is_fresh": 0, "author": ["Laura Clifford"]},
{"text": "\"Life Itself\" is one of the worst kind of bad movies, because it achieves nothing that it sets out to do.", "is_fresh": 0, "author": ["Randy Cordova"]},
{"text": "Wait: What???? I have seen Dan Fogelman's talky, mawkish melodrama and I have questions. ", "is_fresh": 0, "author": ["Joanna Langfield"]},
{"text": "An ambitious exploration of multi-generational pain and suffering, intertwining character arcs and maintaining optimism in the face of hopelessness, all of which fly off the rails further and further with each passing scene", "is_fresh": 0, "author": ["Robert Kojder"]},
{"text": "To describe its plot in detail is to betray the game of the film, but suffice it to say that the sum of its parts are exhilarating.", "is_fresh": 1, "author": ["Matt Donnelly"]},
{"text": "Life Itself will devastate and delight audiences the world over bringing universal messages of hope amongst tragedy.", "is_fresh": 1, "author": ["Ashley Menzel"]},
{"text": "This unwieldy mess of a film starts out with a glorious unpredictability and without warning never again approaches that impressive vitality.", "is_fresh": 0, "author": ["Jared Mobarak"]},
{"text": "The emotions are there, but they don't feel real.", "is_fresh": 0, "author": ["Michelle da Silva"]},
{"text": "It's as if Fogelman took the entire trash bin of rejected ideas from his \"This is Us\" writer's room and used those unwanted ideas as the basis of this manipulative drama. ", "is_fresh": 0, "author": ["Rendy Jones"]},
{"text": "As evidenced by the title, Life Itself has grand ambitions... What it actually delivers, though, is a big sloppy pile of WTF.", "is_fresh": 0, "author": ["Angie Han"]},
{"text": "The movie wants so desperately to be clever, and just comes off looking lame. All this adds up to a film that thinks it's being charming and inspiring, but is instead merely a cruel joke on its audience.", "is_fresh": 0, "author": ["Esther Zuckerman"]},
{"text": "You rarely get the sense of Fogelman's characters being complex figures with internal lives - instead they're merely there to smile weakly through whatever trauma their sadistic creator puts them through.", "is_fresh": 0, "author": ["Gwilym Mumford"]},
{"text": "Actually less realistic and more manipulative than the director's monster NBC TV hit, \"This Is Us.\"", "is_fresh": 0, "author": ["Gregory Ellwood"]},
{"text": "Barely a moment seems to pass without a birth, a death, a betrayal, a starling revelation or a life-changing bombshell.", "is_fresh": 0, "author": ["Allan Hunter"]},
{"text": "Life Itself plays like a soap opera squeezed into two hours.", "is_fresh": 0, "author": ["Monica Castillo"]},
{"text": "It is sentimental and sprawling, which are not necessarily bad things, but also manipulative and contrived, which very much are.", "is_fresh": 0, "author": ["Jessica Kiang"]},
{"text": "It's both schematic and self-important.", "is_fresh": 0, "author": ["David Rooney"]},
{"text": "You may want to keep some tissues on hand while watching Life Itself. The tears will flow and there's no way to stop them.", "is_fresh": 1, "author": ["Jamie Broadnax"]}
]