[
{"reviews_count": "228", "title": "Lost In Translation", "avg_audience_rating": "3.6", "rotten_count": "12", "tomatometer": "95", "audience_score": "85", "avg_critic_rating": "8.4", "fresh_count": "216", "user_ratings_count": "336,746"},
{"text": "A marvellous, exquisite movie.", "is_fresh": 1, "author": ["Neil Norman"]},
{"text": "Sofia Coppola's sophomore film (following the gently assured The Virgin Suicides) is another exploration of delicate relationships and uncommunicated frustrations, this one in a beautifully composed atmosphere of isolation.", "is_fresh": 1, "author": ["Sean Axmaker"]},
{"text": "Depicts a very specific mental state too shaded and delicate for most movies to feel comfortable approaching it.", "is_fresh": 1, "author": ["Tim Brayton"]},
{"text": "Excellent but mature film about finding a connection.", "is_fresh": 1, "author": ["Nell Minow"]},
{"text": "A relationship picture with elegant connective tissue; it's brittle and real, focused on the nuances of body language and unspoken desire, while indulging in a cheeky bit of knowing absurdity when the mood strikes.", "is_fresh": 1, "author": ["Brian Orndorf"]},
{"text": "...a deceptively simple study in unrequited attraction that succeeds in spite of minor problems with neglected sub-plots.", "is_fresh": 1, "author": ["Cole Smithey"]},
{"text": "An excellent top notch gem with beautiful direction courtesy of Sofia Coppola...", "is_fresh": 1, "author": ["Felix Vasquez Jr."]},
{"text": "Wonderfully warm and witty.", "is_fresh": 1, "author": ["Urban Cinefile Critics"]},
{"text": "Lost in Translation revels in contradictions. It's a comedy about melancholy, a romance without consummation, a travelogue that rarely hits the road.", "is_fresh": 1, "author": ["Richard Corliss"]},
{"text": "Very much a mood piece, the film's deft balance of humor and poignancy makes it both a pleasurable and melancholy experience.", "is_fresh": 1, "author": ["David Rooney"]},
{"text": "Transcends its initial culture clash comic riffs to evolve into something altogether more moving by the end. As a result, it's a work of considerable power and pathos.", "is_fresh": 1, "author": ["James Mottram"]},
{"text": "With this film it becomes clear that Sofia Coppola is a filmmaker with eyes all her own.", "is_fresh": 1, "author": ["David Ansen"]},
{"text": "Working this time with her own story, Coppola lets it relax and breathe, devoting herself to moods and moments.", "is_fresh": 1, "author": ["Rob Gonsalves"]},
{"text": "This is another step in Mr. Murray's career and one that hopefully gets him the recognition he deserves.", "is_fresh": 1, "author": ["Joe Lozito"]},
{"text": "The whole tale is told with a dreamy, jet-lagged feel, that part wonder, part nasueous feeling brought about by significant travel. Jet lag as a metaphor for love, a delicious combination. Simply a must-see film.", "is_fresh": 1, "author": ["Jason Gorber"]},
{"text": "Alternately laugh-out-loud silly and profoundly moving, kudos to Sofia Coppola for managing to capture an undeniable chemistry between Murray and his 18 year-old co-star, despite a certain asexuality.", "is_fresh": 1, "author": ["Kam Williams"]},
{"text": "Sofia Coppola's accomplished sophomore work is a personal, melancholy film, based on her own experience, and benefiting from strong chemistry between Bill Murray and Scarlett Johansson.", "is_fresh": 1, "author": ["Emanuel Levy"]},
{"text": "Perfectly acted. Immeasurably funny. A great second outing for director Sofia Coppola.", "is_fresh": 1, "author": ["Wesley Lovell"]},
{"text": "So far as the central relationship goes, the film is almost European in its subtlety and nuance. Cinematic cherry blossom.", "is_fresh": 1, "author": ["Geoff Andrew"]},
{"text": "From the casting choices to the soul-soothing musical score to glimpses into Japanese visual culture, it's obvious that Sofia pays careful attention that each element of the film stands strong alone, but can also contribute to the whole.", "is_fresh": 1, "author": ["Stina Chyn"]},
{"text": "Like so many things made in Japan, Sofia Coppola's new film is smaller and less costly than its standard American counterpart while at the same time superior in most important respects.", "is_fresh": 1, "author": ["Rick Kisonak"]},
{"text": "A magnificent picture because it specifically goes out of its way to avoid the clich\u00e9s and elements would usually expect to see when watching this kind of boy meets girl movie.", "is_fresh": 1, "author": ["Peter Lowry"]},
{"text": "[Murray] can still do more with a raised eyebrow than anyone since Groucho Marx, but he's mellower and sometimes slightly poignant.", "is_fresh": 1, "author": ["Eleanor Ringel Cater"]},
{"text": "This is an exquisite movie on every possible level, from the script and direction to the performances to the cinematography.", "is_fresh": 1, "author": ["Ethan Alter"]},
{"text": "...charged with some of the same inchoate longing of Hiroshima, Mon Amour and employs some of the same guerilla production tactics of Godard's Breathless", "is_fresh": 1, "author": ["Philip Martin"]},
{"text": "Johansson [plays Charlotte] perfectly, with the kind of intelligent beauty that could bring Krzysztof Kieslowski out of his grave to cast her in a new Colors film.", "is_fresh": 1, "author": ["Jeffrey Overstreet"]},
{"text": "The performances are a bit too underplayed to suit me, but the melancholy film is both funny and fascinating.", "is_fresh": 1, "author": ["Steve Crum"]},
{"text": "If you've got patience, you might enjoy it, but this is S-L-O-W.", "is_fresh": 1, "author": ["Tony Medley"]},
{"text": "By far, one of the best films of the year.", "is_fresh": 1, "author": ["Mark Sells"]},
{"text": "In Japan, the most extreme delicacy goes hand in hand with garishness, and Coppola offers up both for our delectation. It's a heady, hallucinatory combo.", "is_fresh": 1, "author": ["Peter Rainer"]},
{"text": "As in Rushmore...kindness is the underlying trait of Murray's character.", "is_fresh": 1, "author": ["Judith Egerton"]},
{"text": "The intensity of Lost in Translation lies in its smaller, seemingly insignificant, quieter moments. In many ways Coppola's film exhibits marks of classic European art cinema.", "is_fresh": 1, "author": ["Wendy Haslem"]},
{"text": "May-December romances have been done to death, but Coppola's tender touch and knack for nuance practically reinvents the genre.", "is_fresh": 1, "author": ["Matt Kelemen"]},
{"text": "Like the sort of fleeting, quietly intense relationship that it portrays, Sofia Coppola's Lost in Translation amounts to a handful of stolen moments -- and a lot more than the sum of them.", "is_fresh": 1, "author": ["Rob Nelson"]},
{"text": "The ending packs an emotional wallop, a moment as magical as anything you will see at the movies this year.", "is_fresh": 1, "author": ["Jim Chastain"]},
{"text": "The movie should have been a masterpiece of mood and character, and it almost is, revolving as it does around two wonderful performances.", "is_fresh": 1, "author": ["Ian Waldron-Mantgani"]},
{"text": "Lost in Translation will bring in the new wave of young filmmakers who realise the power of emotion and introspection and the audience thinking for themselves.", "is_fresh": 1, "author": ["Oz"]},
{"text": "It captures uncapturable feelings on film.", "is_fresh": 1, "author": ["Mark Robison"]},
{"text": "Murray has been singing songs to us ever since his old days on Saturday Night Live, but never like this.", "is_fresh": 1, "author": ["Austin O'Connor"]},
{"text": "'Una cinta tierna, emotiva, estupendamente bien actuada y agradablemente honesta. Uno de los mejores filmes del a\u00f1o, sencillamente inolvidable'", "is_fresh": 1, "author": ["Jorge Avila Andrade"]},
{"text": "El detalle del susurro pasar\u00e1 a la historia como uno de los elementos narrativos m\u00e1s hermosos que se han filmado jam\u00e1s...", "is_fresh": 1, "author": ["Alex Ramirez"]},
{"text": "Ser\u00eda terrible quedarse en la superficie y no dejarse arrastrar por las sensaciones que propone esta pel\u00edcula.", "is_fresh": 1, "author": ["Enrique Buchichio"]},
{"text": "Ms. Coppola is well on her way to becoming a talent in her own right, and Lost in Translation is a great next step in that journey.", "is_fresh": 1, "author": ["Edward Douglas"]},
{"text": "... A brilliant meditation on loneliness and life itself ...", "is_fresh": 1, "author": ["Greg Maki"]},
{"text": "Coppola...tugs at that feeling of weightlessness you get when you're in a foreign country, the sense of discovery but also the solitude", "is_fresh": 1, "author": ["Thomas Delapa"]},
{"text": "...director Sofia Coppola does a laudable - but ultimately unsatisfying - job of presenting a ships-that-pass-in-the-night scenario...", "is_fresh": 0, "author": ["Lori Hoffman"]},
{"text": "Coppola somehow gets to the essence of human wanting with an amazing efficiency of style.", "is_fresh": 1, "author": ["John R. McEwen"]},
{"text": "Despite momentary lags in taste, Coppola's film is funny and sweet, while Murray and Johannson are, in turn, sublime and affecting.", "is_fresh": 1, "author": ["Dan Jardine"]},
{"text": "'There is a pronounced bitchiness about the film that sits oddly with the gentle subject matter.'", "is_fresh": 0, "author": ["Paul Arendt"]},
{"text": "Coppola reigns in Murray's usual sarcastic schtick and as a result he delivers a truly wonderful performance that is warm, understated and charming.", "is_fresh": 1, "author": ["Adrian MacKinder"]},
{"text": "Bill Murray is one of the greatest, least ingratiating comic actors at work today: appropriately enough he once played a modern version of Scrooge.", "is_fresh": 1, "author": ["Philip French"]},
{"text": "Quiet, solemn, and introspective, Lost in Translation conveys so much emotion with so few words.", "is_fresh": 1, "author": ["Andrew Manning"]},
{"text": "The best film of 2003.", "is_fresh": 1, "author": ["Michael W. Phillips, Jr."]},
{"text": "A smart, stylish portrait of a romance that never happens, with excellent performances and a message delivered in restrained whisper rather than Hollywood shout.", "is_fresh": 1, "author": ["Anton Bitel"]},
{"text": "It's a film of few words, not a wacky SNL Bill Murray. An abstract meditation on life, self, marriage w/ a few accents of humor shot entirely in Japan. ", "is_fresh": 1, "author": ["Ross Anthony"]},
{"text": "Lost In Translation is a subtly moving movie that stays with you longer than you expect.", "is_fresh": 1, "author": ["Matt Easterbrook"]},
{"text": "... a film that explores the boundaries and responsibilities of a relationship free of the judgment that outsiders would inevitably impose upon it.", "is_fresh": 1, "author": ["Kevin A. Ranson"]},
{"text": "It tells a clear story with a humorous voice, sharp imagery and an eye for nuance.", "is_fresh": 1, "author": ["Ryan Cracknell"]},
{"text": "it's as if someone in Blade Runner decided to take a left turn away from the part of town where all those robots are killing people, and took time out to be alone", "is_fresh": 1, "author": ["Luke Y. Thompson"]},
{"text": "A movie of observation and discovery that gives its audience plenty of time to think. Not everyone considers this type of experiential film a fun night of entertainment.", "is_fresh": 1, "author": ["Bruce Bennett"]},
{"text": "There's not a word or a wistful glance out of place in Sofia Coppola's offbeat comedy drama.", "is_fresh": 1, "author": ["Stella Papamichael"]},
{"text": "Extraordinary in its beautiful, lyrical simplicity...Coppola's seemingly effortless, flawlessly fluid command of the film's moods and unspoken emotions is cinematic bliss.", "is_fresh": 1, "author": ["Rob Blackwelder"]},
{"text": "In interviews, writer/director Sofia Coppola has said she wrote the part of Harris for Murray, and it makes sense. He's the perfect candidate to paint a portrait of resignation and still render it funny.", "is_fresh": 1, "author": ["Lisa Rosman"]},
{"text": "This Bill Murray is not only the most human, but in many ways the funniest.", "is_fresh": 1, "author": ["Brian Mckay"]},
{"text": "...[an] intimate glossy project with a solid purpose...[a] compellingly warm and intuitive narrative...imaginative and inherently heartfelt", "is_fresh": 1, "author": ["Frank Ochieng"]},
{"text": "It's one of those unique, introverted gems, like The Accidental Tourist or The Piano, that either enfolds you with its generosity of spirit or leaves you cold.", "is_fresh": 1, "author": ["Matt Brunson"]},
{"text": "The power of Lost in Translation is in the way it sneaks up on you.", "is_fresh": 1, "author": ["Mark Dujsik"]},
{"text": "A fidelidade de Sofia Coppola \u00e9 devotada a seus personagens, e n\u00e3o ao espectador. E esta \u00e9, mais uma vez, a decis\u00e3o correta.", "is_fresh": 1, "author": ["Pablo Villa\u00e7a"]},
{"text": "A thoughtful, moving film that's a pure delight from beginning to end.", "is_fresh": 1, "author": ["Matthew Turner"]},
{"text": "How sorry can you feel for rich, unadventurous Americans in a major funk?", "is_fresh": 0, "author": ["Susan Tavernetti"]},
{"text": "There's an almost ethereal rawness to this film that gets way under the skin.", "is_fresh": 1, "author": ["Rich Cline"]},
{"text": "As a character study, the film works very well. As a romance or drama, however, it is nearly inert.", "is_fresh": 1, "author": ["Robert Roten"]},
{"text": "A lovely, evocative film...[but] Coppola insulates her depiction of Bob and Charlotte as earnest, delicate souls by making everyone else look pretty foolish.", "is_fresh": 1, "author": ["Nick Davis"]},
{"text": "a beautiful, lyrical cinematic ode to lost souls finding each in an unlikely place", "is_fresh": 1, "author": ["James Kendrick"]},
{"text": "Director Sofia Coppola's second feature film is so smart and, yet, simple that it is nearly perfect.", "is_fresh": 1, "author": ["Jonathan W. Hickman"]},
{"text": "It's that perfect movie that you watch in order to feel that you may not be alone in the world after all. It works like a dream.", "is_fresh": 1, "author": ["Collin Souter"]},
{"text": "[O]ne of the most astonishing films I've ever seen... [d]elicate and longing, tender and bittersweet...", "is_fresh": 1, "author": ["MaryAnn Johanson"]},
{"text": "Of course, Mr. Murray gets all the laughs with his exquisite timing and wry delivery, but Ms. Johansson makes an eloquent and charismatic listener.", "is_fresh": 1, "author": ["Andrew Sarris"]},
{"text": "Has the languid intensity of a dream.", "is_fresh": 1, "author": ["Christopher Smith"]},
{"text": "I wasn't quite as impressed as I was apparently supposed to be, and I feel oddly left out because of that.", "is_fresh": 1, "author": ["Ken Hanke"]},
{"text": "\"Lost in Translation\" is a movie about almost nothing at all except a tenuous connection between two lost souls.", "is_fresh": 1, "author": ["Linda Cook"]},
{"text": "Before you know it, Sophia Coppola has wrapped you in a warm, fluffy blanket and you'll find yourself looking out the window wondering about what's going to happen with your life.", "is_fresh": 1, "author": ["Blake Davis"]},
{"text": "Sofia Coppola has made the kind of movie that I love to see most.", "is_fresh": 1, "author": ["Marcy Dermansky"]},
{"text": "Lost in Translation finds something that occasionally happens between people and presents it realistically...one of the best pictures of the year.", "is_fresh": 1, "author": ["Mike McGranaghan"]},
{"text": "At this rate, writer-director Sofia Coppola is poised to become a classic storyteller who is more subtle, if not as grand-scale, as her father.", "is_fresh": 1, "author": ["Jimmy O"]},
{"text": "Nothing happens and there is nowhere to go in Tokyo.", "is_fresh": 0, "author": ["Victoria Alexander"]},
{"text": "The film is poetically austere in dialogue but thoughtful. Like a walk on a spring day, Lost in Translation is not momentous but rather pleasantly freeing.", "is_fresh": 1, "author": ["Shirley Klass"]},
{"text": "It's a movie about disconnection: from your family, from the world around you, even from yourself. It's a movie about being trapped in that high chair and wanting so badly to be able to reach that floor.", "is_fresh": 1, "author": ["James Sanford"]},
{"text": "A film about catharsis, the kind that exists outside of movies: the slow reawakening, triggered by the compassion and like-mindedness of another, that everyone craves.", "is_fresh": 1, "author": ["Kimberley Jones"]},
{"text": "...Coppola's more interested in establishing the mood of this foreign land, instead of allowing us to really get to know the two central characters.", "is_fresh": 1, "author": ["David Nusair"]},
{"text": "Murray, as Bob, gives the performance of his career.", "is_fresh": 1, "author": ["Steven Snyder"]},
{"text": "In a manner that is leisurely in pace, ruminative in nature and quiet in tone ... Coppola gives her lonely travellers all the space they need to make this tentative and ultimately magical connection.", "is_fresh": 1, "author": ["Jason Anderson"]},
{"text": "The film crackles with the energy of Bob and Charlotte's connection, and their adventures in the hurry-and-flurry Tokyo nightlife are glittery, dreamlike, meditative and beautiful.", "is_fresh": 1, "author": ["Nick Rogers"]},
{"text": "An effective mood piece about cultural dislocation and personal alienation...", "is_fresh": 1, "author": ["John Beifuss"]},
{"text": "Bob and Charlotte's relationship in particular is exquisitely portrayed; a sort of platonic romance, it's a relationship that exists because of the things that aren't said between them just as much as the things that are", "is_fresh": 1, "author": ["Vanessa Sibbald"]},
{"text": "the best film of the year...it's time to see what Bill Murray's really capable of. If he isn't nominated for Oscars for the film, it'll be a disgrace.", "is_fresh": 1, "author": ["Clint Morris"]},
{"text": "Bill's performance is just fantastic - filled with a confident vulnerability that only he is capable of.", "is_fresh": 1, "author": ["Danny Minton"]},
{"text": "An amazing mood piece that captures the characters' inner turmoil, confusion, restlessness and the strange, surreal surroundings that are the cause for their discord.", "is_fresh": 1, "author": ["Derek Smith"]},
{"text": "Sometimes the experience of seeing a film so powerful in its presentation of human character is worth the arguable sacrifice of narrative tension", "is_fresh": 1, "author": ["Mike Sage"]},
{"text": "It's touching and hilarious, a tour de force for both actors.", "is_fresh": 1, "author": ["Peter Keough"]},
{"text": "Bill Murray is perfectly cast and his performance is understated, like the entire film. He deserves an Oscar nomination.", "is_fresh": 1, "author": ["Jeffrey Bruner"]},
{"text": "A film of dazzling style and gentle triumph.", "is_fresh": 1, "author": ["Jack Garner"]},
{"text": "A wistful little film that gradually insinuates itself upon your consciousness.", "is_fresh": 1, "author": ["Steve Schneider"]},
{"text": "[A] rich and funny film.", "is_fresh": 1, "author": ["Roger Moore"]},
{"text": "[Murray] is effortlessly superb.", "is_fresh": 1, "author": ["Duane Dudek"]},
{"text": "Lost in Translation offers such a wealth of wonderful themes that one hardly knows where to begin.", "is_fresh": 1, "author": ["Robert W. Butler"]},
{"text": "With Lost in Translation, director Sofia Coppola makes a serious bid to claim her last name for herself.", "is_fresh": 1, "author": ["Jeff Vice"]},
{"text": "Coppola lacks a firm grip on this material, and it starts to get away from her midway through.", "is_fresh": 0, "author": ["Lawrence Toppman"]},
{"text": "A brilliantly understated romantic comedy.", "is_fresh": 1, "author": ["Dennis Schwartz"]},
{"text": "It's as if Murray opens the front door to his psyche wide and lets the whole neighborhood in.", "is_fresh": 1, "author": ["Donald Munro"]},
{"text": "A movie as good as anything [Sofia Coppola's] daddy ever made -- and yet Lost in Translation is a movie he could not have made if he tried.", "is_fresh": 1, "author": ["Sean P. Means"]},
{"text": "Lost In Translation inspires a unique feeling of optimism, a sense that there are more people than we expect who understand our lifelong conundrums.", "is_fresh": 1, "author": ["Todd Gilchrist"]},
{"text": "Sofia Coppola is a rising star, and this is definitely one of the best films of 2003.", "is_fresh": 1, "author": ["Jamie Gillies"]},
{"text": "Lost in Translation is delicate, heartfelt, and mesmerizing.", "is_fresh": 1, "author": ["Joshua Tyler"]},
{"text": "What could have been one of the year's best films is tripped up by a couple of sloppy contrivances.", "is_fresh": 1, "author": ["Phil Villarreal"]},
{"text": "Murray is outstanding as the bearer of flawed maturity and gnawing melancholy.", "is_fresh": 1, "author": ["Mark Halverson"]},
{"text": "Esoteric, atmospheric, and far more concerned with mood than it is with telling a legitimate story", "is_fresh": 1, "author": ["Sean O'Connell"]},
{"text": "A film for any lost soul, anyone trying to figure where their life is headed and if they're happy about it.", "is_fresh": 1, "author": ["Josh Bell"]},
{"text": "Another elusive non-story about oh-so-existential beautiful misfits", "is_fresh": 0, "author": ["Kevin N. Laforest"]},
{"text": "Never missing a step, it continues The Virgin Suicide's vision of the world as a dreamscape of intangible longings.", "is_fresh": 1, "author": ["Mark Palermo"]},
{"text": "The title doesn't refer to a misunderstanding so much as a state of being.", "is_fresh": 1, "author": ["Walter Chaw"]},
{"text": "\"Lost in Translation\" is one of the year's best films, an intelligent, beautifully rendered mood piece that features Bill Murray at his absolute best.", "is_fresh": 1, "author": ["David N. Butterworth"]},
{"text": "The film works best when the two [leads] are having talks together with Murray playing it quiet and sincere. Sadly there are fewer of such moments than the film needed.", "is_fresh": 1, "author": ["Mark R. Leeper"]},
{"text": "This is a quiet, contemplative comedy whose comedic moments seem secondary in importance to its deeper, more beautiful ones.", "is_fresh": 1, "author": ["Eric D. Snider"]},
{"text": "Tender and amazing.", "is_fresh": 1, "author": ["Karina Montgomery"]},
{"text": "Sofia has almost surpassed her dad.", "is_fresh": 1, "author": ["Eric Lurio"]},
{"text": "Never rushed, never pushed, Coppola's steady hand is felt in almost every frame, gently coaxing her subjects and story to a deeper, invigorating resolution.", "is_fresh": 1, "author": ["Gabriel Shanks"]},
{"text": "The best movie about cosmic jet lag not directed by Wim Wenders.", "is_fresh": 1, "author": ["Bryant Frazer"]},
{"text": "It's a sharp, funny, tender and surprising film that pivots on Murray.", "is_fresh": 1, "author": ["David Elliott"]},
{"text": "A gemlike movie that's intimate and moody but never sentimental.", "is_fresh": 1, "author": ["Joe Baltake"]},
{"text": "The first movie to fully exploit Murray's value in a leading role (Groundhog Day came close), and to get Murray to hit a poignant note in the bargain.", "is_fresh": 1, "author": ["Gary Thompson"]},
{"text": "It's a true triumph of observation, evocation, allusion and delicate craft.", "is_fresh": 1, "author": ["Shawn Levy"]},
{"text": "Coppola clearly loves these characters, and so we do, too.", "is_fresh": 1, "author": ["Katrina Onstad"]},
{"text": "Murray has never been better than he is here, but then he's never had a part that fit him so well, either.", "is_fresh": 1, "author": ["Rene Rodriguez"]},
{"text": "A stylish meditation on alienation and ennui.", "is_fresh": 1, "author": ["Eric Harrison"]},
{"text": "Textured, thoughtful and touching.", "is_fresh": 1, "author": ["Tom Long"]},
{"text": "There is real magic afoot in Lost in Translation -- the sort that is created not at the wave of a wizard's wand, but by the coming together of two wayward souls.", "is_fresh": 1, "author": ["Terry Lawson"]},
{"text": "In Lost in Translation, [Murray] emerges as a complete character -- honourable and venal, fallible and funny, adding vulnerability to the panache.", "is_fresh": 1, "author": ["Liam Lacey"]},
{"text": "It's about time someone gave Bill Murray a leading juicy role the talented actor could sink his teeth into.", "is_fresh": 1, "author": ["Kit Bowen"]},
{"text": "A superbly crafted movie, with knowing dialogue, fine performances and characters that you grow to care deeply for.", "is_fresh": 1, "author": ["Derek Tse"]},
{"text": "How instinctively we react -- and connect -- when a film captures a feeling that is all too common, and all too real.", "is_fresh": 1, "author": ["Peter Howell"]},
{"text": "Although Translation is only [Coppola's] second feature, she already shows signs of being a sensei, as the Japanese call a master.", "is_fresh": 1, "author": ["Carrie Rickey"]},
{"text": "For anyone who has ever felt linguistic, emotional or psychic dislocation. That should cover just about all of us.", "is_fresh": 1, "author": ["Jean Lowerison"]},
{"text": "Think of Lost in Translation as a beautifully told short story. It doesn't have the resonance or heft of a good novel, but it's slyly seductive and intensely moody.", "is_fresh": 1, "author": ["Robert Denerstein"]},
{"text": "It's no news that Murray is a creative comic actor, with films like Groundhog Day and Rushmore on his resume. Here he's at his very best.", "is_fresh": 1, "author": ["David Sterritt"]},
{"text": "Expertly captures a feeling of woozy bewilderment.", "is_fresh": 1, "author": ["Chris Hewitt (St. Paul)"]},
{"text": "How to sing the praises of Lost in Translation without drowning out its subtle pleasures?", "is_fresh": 1, "author": ["Lisa Kennedy"]},
{"text": "Personally, I had simply read/heard way too much hyperbole about this movie before my screening, so I couldn't help but feel a little let down afterwards.", "is_fresh": 1, "author": ["JoBlo"]},
{"text": "This film would've worked really well as a short film, it's not terribly satisfying as a full length feature.", "is_fresh": 1, "author": ["John Venable"]},
{"text": "You don't need an interpreter to get that this a good movie.", "is_fresh": 1, "author": ["Cherryl Dawson and Leigh Ann Palone"]},
{"text": "Bill Murray and Scarlett Johansson make the first classic romance of the new century glow with gorgeous, luminous grace.", "is_fresh": 1, "author": ["James Rocchi"]},
{"text": "The weight of Sofia Coppola's circuitous script is carried on the shoulders of the career-defining performances given by Bill Murray and Scarlett Johansson.", "is_fresh": 1, "author": ["Alex Sandell"]},
{"text": "Imbued with a blissful nostalgia for things that can never be recaptured, Lost in Translation is already poised to be one of the best movies of the year.", "is_fresh": 1, "author": ["Phoebe Flowers"]},
{"text": "Lost in Translation's artful blend of romance and cross-cultural comedy is just the tonic for audiences weary of big, dumb, loud summer blockbusters.", "is_fresh": 1, "author": ["Timothy Knight"]},
{"text": "It's a wonderful film, all subtlety and grace, from the delicate script of writer-director Sofia Coppola to the finely tuned efforts of Bill Murray, who gives a still, laconic yet mesmerizing performance.", "is_fresh": 1, "author": ["Bill Muller"]},
{"text": "Lost in Translation is a fortunate encounter between a young talent on the rise and an old pro still hitting his stride.", "is_fresh": 1, "author": ["Chris Vognar"]},
{"text": "By the end of Lost in Translation, we don't know much about Japan, but we know a lot more about the human condition.", "is_fresh": 1, "author": ["Jeff Strickler"]},
{"text": "Bill Murray and Scarlett Johansson give performances that will be talked about for years.", "is_fresh": 1, "author": ["Peter Travers"]},
{"text": "This picture moved me to tears three times. There's a world of hurt under them there laughs.", "is_fresh": 1, "author": ["Sean Burns"]},
{"text": "Subtly realized and finely nuanced, this is fresh and unspoiled filmmaking.", "is_fresh": 1, "author": ["Jeanne Aufmuth"]},
{"text": "Clever and refined.", "is_fresh": 1, "author": ["Cynthia Fuchs"]},
{"text": "When work this potentially satisfying remains flatly obvious, it's almost worse than being flat-out bad.", "is_fresh": 0, "author": ["Gregory Weinkauf"]},
{"text": "Sofia Coppola's stealthy romance about two Americans stranded in Tokyo is a work of marvelous delicacy -- and offers the performance of Bill Murray's career.", "is_fresh": 1, "author": ["Stephanie Zacharek"]},
{"text": "Coppola, who wrote and directed, creates the perfect languorous mood to match these characters' emotional limbo.", "is_fresh": 1, "author": ["Marshall Fine"]},
{"text": "Although a small character piece, everything about Lost in Translation is world-class.", "is_fresh": 1, "author": ["Lewis Beale"]},
{"text": "For me, the movie's best moments revel in the actor's rabid wit and acerbic facial acrobatics, none more so insanely funny and devastating as his battle of wills with an obnoxious commercial director.", "is_fresh": 1, "author": ["Sara Michelle Fetters"]},
{"text": "A terrific balance of comedy, drama and lyrical moments.", "is_fresh": 1, "author": ["Jim Judy"]},
{"text": "Bill Murray keeps \"Lost in Translation\" entertaining and does a fine job of emoting the exhaustion and frustration of being so far from home and helpless...", "is_fresh": 1, "author": ["Robin Clifford"]},
{"text": "A brave and accomplished study of love and human connections that establishes the young Coppola as one of the most acute talents of her generation.", "is_fresh": 1, "author": ["Wade Major"]},
{"text": "Murray is only one of many superb elements in Coppola's new film, a masterpiece on a level with her father's best work at the same age: namely, The Godfather.", "is_fresh": 1, "author": ["Jeffrey M. Anderson"]},
{"text": "Coppola, an assured and confident young filmmaker, has crafted a small poem, about being lost and being found.", "is_fresh": 1, "author": ["Moira MacDonald"]},
{"text": "[Coppola] gives us a film so poignant, so funny, so free of self-satisfied bravado, that one can't help but look forward to her next work.", "is_fresh": 1, "author": ["Edward Guthmann"]},
{"text": "The old adage says that poetry is what's lost in translation, but the poetry is all that survives in Sofia Coppola's wispy art film.", "is_fresh": 0, "author": ["Bob Campbell"]},
{"text": "Sublimely romantic and subtle.", "is_fresh": 1, "author": ["Lou Lumenick"]},
{"text": "Sweet and sad at the same time it is sardonic and funny.", "is_fresh": 1, "author": ["Roger Ebert"]},
{"text": "It allows Scarlett Johansson to arrive as an actress at the same time it finally gives Bill Murray the great role that has always eluded him.", "is_fresh": 1, "author": ["Ty Burr"]},
{"text": "...a tender visual poem about unexpected friendship, traveler's angst and the disassociating allure of Tokyo.", "is_fresh": 1, "author": ["Josh Larsen"]},
{"text": "Sofia Coppola's sophomore film is another exploration of delicate relationships and uncommunicated frustrations, this one in a beautifully composed atmosphere of isolation.", "is_fresh": 1, "author": ["Sean Axmaker"]},
{"text": "It gets at something exquisitely human.", "is_fresh": 1, "author": ["Stephen Hunter"]},
{"text": "If Murray has an imposing corner on the comic dynamism in this movie, Johansson is no less compelling for her mysticism, self-assurance and charm.", "is_fresh": 1, "author": ["Desson Thomson"]},
{"text": "A smartly written, confidently directed film that delivers big laughs while developing two of the year's most earnest characters and some of its most rewarding sentiments.", "is_fresh": 1, "author": ["Jack Mathews"]},
{"text": "As fine a look at dislocation as you're ever going to see, and it has the nice bonus of boasting Bill Murray's greatest performance.", "is_fresh": 1, "author": ["Glenn Whipp"]},
{"text": "An entrancing mood piece.", "is_fresh": 1, "author": ["David Edelstein"]},
{"text": "One of the bests of 2003 with stellar performances by Bill Murray and Scarlett Johansson as Americans who reach across the age barrier to connect with each other in Tokyo.", "is_fresh": 1, "author": ["Frederic and Mary Ann Brussat"]},
{"text": "The man who once stole every film he did, bending it to his comic will, tranquilly inhabits LOST IN TRANSLATION... Understatement is his tool now.", "is_fresh": 1, "author": ["Carlo Cavagna"]},
{"text": "You'll see it because you love Bill Murray. But somewhere about halfway through you'll realize that you're watching something much more than a dramatic vehicle for Hollywood's clown prince.", "is_fresh": 1, "author": ["Scott Weinberg"]},
{"text": "Baubles of humor, gorgeous shots of the city and sparse use of dialogue relay the warm tale, as Johansson and Murray gracefully embrace the concept.", "is_fresh": 1, "author": []},
{"text": "Absolutely one of the funniest films of the year, and also one of the most deeply sad", "is_fresh": 1, "author": ["Eugene Novikov"]},
{"text": "Coppola's mood-setting is pitch-perfect ... to be lost and alone in a strange place, full of strangers, feeling kind of sad and wistful.", "is_fresh": 1, "author": ["Jeffrey Chen"]},
{"text": "Something truly special.", "is_fresh": 1, "author": ["Jon Popick"]},
{"text": "'Lost in Translation' is like a beautiful short story - low-key, smart, direct and, in its own distinct way, close to perfection.", "is_fresh": 1, "author": ["Peter Sobczynski"]},
{"text": "The details, which flow like a simple string of pearls, are what make the movie endearing from start to finish.", "is_fresh": 1, "author": ["Leslie Katz"]},
{"text": "If there were any doubts left as to Ms. Coppola's abilities [as a filmmaker]... \"Lost in Translation\" should smash down the snickering walls of her doubters once and for all.", "is_fresh": 1, "author": ["Edward Havens"]},
{"text": "Coppola is a master of moments and details, and here they add up to a story that is beautifully bittersweet.", "is_fresh": 1, "author": ["Nell Minow"]},
{"text": "Lightweight and a bit of a let-down, Sofia Coppola's follow-up to the marvelous Virgin Suicides is nevertheless an interesting development in what's shaping up to be an interesting career.", "is_fresh": 1, "author": ["Ken Fox"]},
{"text": "One of the purest and simplest examples ever of a director falling in love with her star's gifts.", "is_fresh": 1, "author": ["Elvis Mitchell"]},
{"text": "Tart and sweet, unmistakably funny and exceptionally well observed.", "is_fresh": 1, "author": ["Kenneth Turan"]},
{"text": "Because it lacks focus, as well as confidence in its story and stars, 'Lost in Translation' squanders a good opportunity.", "is_fresh": 0, "author": ["Donald J. Levit"]},
{"text": "The joys of Sofia Coppola's Lost in Translation come from watching Murray modify his trademark passive- aggressive style into played-straight comic bewilderment -- and to marvel at his slim new picture- of-health appearance.", "is_fresh": 1, "author": ["Mike Clark"]},
{"text": "It's certainly edgier, smarter, than much of what passes for culture-clash comedy these days, even if the phlegmatic Murray sometimes resembles every Ugly American abroad, mocking waiters and sushi chefs who struggle to get his deadpan humor.", "is_fresh": 1, "author": ["Glenn Lovell"]},
{"text": "This is one of the year's most subtly moving films, and a strong affirmation of Coppola's substantial talent.", "is_fresh": 1, "author": ["Glenn Kenny"]},
{"text": "Remarkably sophisticated, honest, consistently hilarious and very real.", "is_fresh": 1, "author": ["John Anderson"]},
{"text": "Mysterious and complex, as it muses bittersweetly on marriage, longing and the disconnectedness one can feel from another culture or people.", "is_fresh": 1, "author": ["Mark Caro"]},
{"text": "They'll always have Tokyo.", "is_fresh": 1, "author": ["Dan Fazio"]},
{"text": "Though the year is 2003 and the world is, in so many ways, at its smallest ... we are, this extraordinary new movie reminds us, ever more diffused, ever less able to make meaningful connections.", "is_fresh": 1, "author": ["Scott Foundas"]},
{"text": "This study into the unfathomable depths of human relationships has more honesty than 95% of the movies I have seen this year.", "is_fresh": 1, "author": ["James Berardinelli"]},
{"text": "Exquisite study in emotional and geographical dislocation.", "is_fresh": 1, "author": ["Lisa Schwarzbaum"]},
{"text": "Writer/director Sofia Coppola has crafted a mood poem about isolation in a strange environment and the temporary relationships that linger in memory that can be born there", "is_fresh": 1, "author": ["Laura Clifford"]},
{"text": "Sofia Coppola developed the concept from a sketchy four-page outline into a 65-page script, which left lots of room for improvisation. And that's what's brilliant here. Patiently, she trusts her actors and cinematographer Lance Accord.", "is_fresh": 1, "author": ["Susan Granger"]},
{"text": "Coppola -- who wrote as well as directed -- gives Murray room to stretch and is rewarded with some remarkably melancholy clowning.", "is_fresh": 1, "author": ["J. Hoberman"]},
{"text": "A lovely, loopy modern-day 'Brief Encounter' that has the wisdom not to push too hard or linger too long.", "is_fresh": 1, "author": ["Frank Swietek"]},
{"text": "Lost in Translation is a witty laugh out-loud tale of friendship. Coppola breaks through and stands firmly at the edge of her future.", "is_fresh": 1, "author": ["Emily Blunt"]},
{"text": "Johansson is lovely and funny and sarcastic and sincere, and Murray is nothing short of great.", "is_fresh": 1, "author": ["Richard Roeper"]},
{"text": "The film's greatest strength comes from its sad wisdom about relationships and the way its protagonists recognize how precarious their connection is.", "is_fresh": 1, "author": ["Rob Vaux"]},
{"text": "You'll think. You'll laugh. You'll be marvelously entertained. And you'll be touched.", "is_fresh": 1, "author": ["Steve Rhodes"]},
{"text": "Attractive and pleasant as it is, there's no escaping the impression that it feels like an overly hip exercise in soul-searching for those who thought American Beauty really did \"look closer\" at life.", "is_fresh": 0, "author": ["Jeremy Heilman"]},
{"text": "Lyrical and deeply touching...as intimate, humane, and heartfelt as any love story this year.", "is_fresh": 1, "author": ["Dustin Putman"]},
{"text": "In only her second feature, Coppola has made a poised, intelligent film that nicely balances laughs with a poignancy rarely seen in American movies.", "is_fresh": 1, "author": ["Kirk Honeycutt"]},
{"text": "a joy to watch", "is_fresh": 1, "author": ["Rachel Gordon"]},
{"text": "This tedious vanity piece is enlivened only by the charm of its leading man, Bill Murray", "is_fresh": 0, "author": ["Andrea Chase"]},
{"text": "Like a favorite and enthralling CD soundtrack that takes you places magical.", "is_fresh": 1, "author": ["Keith Uhlich"]},
{"text": "The film's characters see their every disaffection hauntingly reflected onto the sounds and landscapes of the city they inhabit.", "is_fresh": 1, "author": ["Ed Gonzalez"]},
{"text": "Coppola's technique of trusting the actors to find and deliver their moments scores big in telling her story and overcoming its deficiencies.", "is_fresh": 1, "author": ["Jules Brenner"]},
{"text": "By the conclusion of the story, you'll think of the strange and sometimes amazing relationships you've had during your life.", "is_fresh": 1, "author": ["Harvey S. Karten"]},
{"text": "", "is_fresh": 1, "author": ["Daniel Kasman"]},
{"text": "", "is_fresh": 1, "author": ["James Verniere"]},
{"text": "", "is_fresh": 1, "author": []},
{"text": "", "is_fresh": 0, "author": []}
]