[
{"reviews_count": "158", "title": "Man on the Wire", "avg_audience_rating": "4.1", "rotten_count": "0", "tomatometer": "100", "audience_score": "87", "avg_critic_rating": "8.4", "fresh_count": "158", "user_ratings_count": "30,073"},
{"text": "Some of the on-the-spot footage of the eccentric French thrillseeker's exploits truly boggle the mind (including a controversial stroll Petit once took across the Sydney Harbour Bridge).", "is_fresh": 1, "author": ["Leigh Paatsch"]},
{"text": "Man on Wire is 80 minutes of white-knuckled suspense followed by a surprisingly emotional climax.", "is_fresh": 1, "author": ["Annie Wagner"]},
{"text": "Exhilarating docu about high-wire feat has some edgy scenes.", "is_fresh": 1, "author": ["Brian Costello"]},
{"text": "...captures the mysterious beauty of Petit's obsession, without ever being so gauche as to 'explain' it.", "is_fresh": 1, "author": ["Josh Larsen"]},
{"text": "The triumph of Man on Wire is its archival footage, including the stunning scenes of Petit dancing and tumbling 1,350 feet above the pavement. They put the most dizzying shots of The Dark Knight to shame.", "is_fresh": 1, "author": ["Stuart Klawans"]},
{"text": "The pains of the public eye are acknowledged just as much as the joy this artistic endeavour brought people.", "is_fresh": 1, "author": ["Mike Edwards"]},
{"text": "Despite a known outcome, James Marsh's documentary offers sublime thrills - grafting the tense suspense of a heist film onto an existential dissection of artistic accomplishment and true friendship.", "is_fresh": 1, "author": ["Nick Rogers"]},
{"text": "The tension builds incrementally, reaching almost unbearable heights at its dizzying climax.", "is_fresh": 1, "author": ["Catherine Wheatley"]},
{"text": "click to read full review", "is_fresh": 1, "author": ["Joseph Proimakis"]},
{"text": "It all makes for an absorbing, mischievously amusing yarn, whose climax unfolds with unexpected emotional force.", "is_fresh": 1, "author": ["Ann Hornaday"]},
{"text": "Interviewed today, Petit is a whale of a storyteller, and he recalls with relish the chilling details of that amazing day.", "is_fresh": 1, "author": ["Gerald Peary"]},
{"text": "Man On Wire's cinematic tension that in the wire Philippe Petit balanced on as he walked between the Twin Towers in the history-making high wire stunt shown in this compelling documentary. The film's also a poignant memorial to the hallowed Twin To", "is_fresh": 1, "author": ["Jennifer Merin"]},
{"text": "Not only a fun heist movie but also a moving tale of spiritual uplift and beauty.", "is_fresh": 1, "author": ["Devin Faraci"]},
{"text": "The details of how the event was planned and staged are fascinating, but a crucial element missing from the film is good cinematography of the actual event.", "is_fresh": 1, "author": ["Robert Roten"]},
{"text": "A feat like the one Philippe Petit pulled off deserves to be documented.", "is_fresh": 1, "author": ["Jeffrey Chen"]},
{"text": "I would have found it easier to get emotionally invested in Le Coup (rather than abstractly awed) if I had a better sense of his coup de foudre.", "is_fresh": 1, "author": ["Karina Montgomery"]},
{"text": "Petit transforms his stories into mini-masterpieces of performance.", "is_fresh": 1, "author": ["David Cornelius"]},
{"text": "Man on Wire is absolutely breathtaking, a documentary as life-affirming as it is artistically intoxicating.", "is_fresh": 1, "author": ["Brandon Fibbs"]},
{"text": "Present-day interviews and modern re-enactments provide the piece with its structure, but it's the awe-inspiring archival footage that makes this a giddy watch.", "is_fresh": 1, "author": ["Matt Brunson"]},
{"text": "It's a great deal of fun, playing not unlike a crafty caper film with loads of spine-tingling suspense.", "is_fresh": 1, "author": ["Jeffrey M. Anderson"]},
{"text": "In this exhilarating, palm-moistening documentary by British filmmaker James Marsh (Wisconsin Death Trip), the twin towers are back to celebrate one of their finest moments.", "is_fresh": 1, "author": ["Jonathan F. Richards"]},
{"text": "Une oeuvre d'une puissance dramatique inou\u00efe", "is_fresh": 1, "author": ["Jean-Fran\u00e7ois Vandeuren"]},
{"text": "The erasure of the towers adds poignance and irony to a documented event that is inherently thrilling and beautiful.", "is_fresh": 1, "author": ["Joe Williams"]},
{"text": "This is a fascinating account of a moment from history that will never be repeated.", "is_fresh": 1, "author": ["Tony Medley"]},
{"text": "A highly entertaining and extremely accessible film.", "is_fresh": 1, "author": ["Allan Hunter"]},
{"text": "James Marsh's documentary is the story of the dreaming and scheming that went into the walk, which I hesitate to call a stunt. It seems too glib a word for a feat that inspired the poignant complex of emotions uncovered by Marsh's narrative.", "is_fresh": 1, "author": ["Sandra Hall"]},
{"text": "Though we know how it ends, it unfolds with suspense. And though it lacks any discussion of the towers' destruction, it succeeds as a tribute to their birth.", "is_fresh": 1, "author": ["Amy Biancolli"]},
{"text": "It's a story worth telling, yes -- but after 90 minutes, it's hard not to wonder if the storyteller can talk about anything else.", "is_fresh": 1, "author": ["Noel Murray"]},
{"text": "By any rational gauge, Petit's WTC obsession was flat-out crazy, but Marsh takes a limpid, nonjudgmental view of it all.", "is_fresh": 1, "author": ["Peter Rainer"]},
{"text": "This is the story of a group of conspirators bent on shocking humanity with an outrageous plot regarding the World Trade Center, a plot involving an act so mind-boggling it staggers the imagination.", "is_fresh": 1, "author": ["James Verniere"]},
{"text": "Director James Marsh assembles this material into an offbeat but often unbearably exciting heist movie -- a white-knuckle ride of a thriller that can stand up against such classics of the genre as Rififi, Topkapi and Robbery.", "is_fresh": 1, "author": ["William Arnold"]},
{"text": "Marsh uses a combination of interviews, film of Petit as a young man, authentic newsreels and enacted reconstructions to produce an unforgettable experience.", "is_fresh": 1, "author": ["Evan Williams"]},
{"text": "This film is a treasure.", "is_fresh": 1, "author": ["Julie Rigg"]},
{"text": "The simplicity of Philippe's vision is intoxicating, as is his self-assurance.", "is_fresh": 1, "author": []},
{"text": "It's a hell of a story, and Petit is a mesmerising storyteller, with an extravagantly poetic turn of phrase and the glittering eye of the Ancient Mariner.", "is_fresh": 1, "author": ["Jake Wilson"]},
{"text": "Marsh stitches his story together with a seamless melding of interviews, stills, re-enactments and archival footage augmented by a wonderful score by Michael Nyman and the New York composer J. Ralph.", "is_fresh": 1, "author": ["Sandra Hall"]},
{"text": "Sufferers from vertigo be warned: Man on Wire contains some of the most amazing scenes of hire-wire brilliance ever filmed.", "is_fresh": 1, "author": ["David Stratton"]},
{"text": "Man on Wire is a film with everything: truth, drama, suspense, tension, sex, heartbreak, humour, crime and triumph", "is_fresh": 1, "author": ["Louise Keller"]},
{"text": "Part re-enactment, part archival home movie, part historical and part social document, the subject is ideal as a story more fantastic than fiction", "is_fresh": 1, "author": ["Andrew L. Urban"]},
{"text": "As cops waited to arrest him, he laughed, kneeled, laid down on the wire and spoke with a seagull. Wonder if its name was Jonathan Livingston?", "is_fresh": 1, "author": ["Phil Villarreal"]},
{"text": "A film that's suspenseful, fun, inspiring and finally, even moving. In other words, see this movie.", "is_fresh": 1, "author": ["Ken Hanke"]},
{"text": "A model of documentary storytelling, 'Man on Wire' is as gripping and suspenseful as a good heist film...", "is_fresh": 1, "author": ["John Beifuss"]},
{"text": "As the subject of James Marsh's brilliant documentary Man on Wire, Petit proves that there can be joy in doing what others would consider to be insane.", "is_fresh": 1, "author": ["Bill Gibron"]},
{"text": "Petit is such an ebullient guy it's hard not to get sucked into his high-wire antics.", "is_fresh": 1, "author": ["Meg Jones"]},
{"text": "Are these people inspiring, talented stars, pursuing a difficult and dangerous athletic feat, or are there they disturbed nuts with a death wish? The film doesn't judge and doesn't take sides.", "is_fresh": 1, "author": ["Stephen Silver"]},
{"text": "Marsh finds Petit is as puckish today as he was 34 years ago.", "is_fresh": 1, "author": ["Sean P. Means"]},
{"text": "The film really puts you in the shoes of those New Yorkers who looked up from their daily lives one day and saw something utterly unimaginable.", "is_fresh": 1, "author": ["Rob Thomas"]},
{"text": "Art and deviltry combine and permeate this ode to a man's dream.", "is_fresh": 1, "author": ["Jules Brenner"]},
{"text": "It mines recent history in a way that makes it seem new and invigorating, reminding us of how wonderfully, blissfully deranged human behavior can be", "is_fresh": 1, "author": ["James Kendrick"]},
{"text": "James Marsh tells Petit's story, the most inspiring 'heist' in modern history, a Frenchman's stroll between two 110 story buildings in lower Manhattan.", "is_fresh": 1, "author": ["Roger Moore"]},
{"text": "In archival photos Petit seems to float between the towers, a tiny black figure against a vivid blue sky; the images are all the more poignant for the unstated fact that Petit is still around when the buildings aren't.", "is_fresh": 1, "author": ["J. R. Jones"]},
{"text": "Surprisingly thrilling and enthralling, and it does give you an appreciation for the sort of enthusiasm and craziness that it took for them to have done this in the first place.", "is_fresh": 1, "author": ["Jeff Vice"]},
{"text": "James Marsh's remarkable documentary is a reminder that in a rigid world filled with rules and regulations, true beauty can come from the most indefinable of acts.", "is_fresh": 1, "author": ["Eric Melin"]},
{"text": "Director James Marsh approaches this subject with a childlike sense of wonder in his documentary, delighting in the skulduggery behind the event.", "is_fresh": 1, "author": ["Lawrence Toppman"]},
{"text": "If Man on Wire were fiction it would be hailed as a terrific suspense film, a fascinating character study and an awesome spectacle. But it's true, which makes it all the more remarkable.", "is_fresh": 1, "author": ["Robert W. Butler"]},
{"text": "Man On Wire is an engrossing film that captures the imagination and never ceases to entertain.", "is_fresh": 1, "author": ["Kevin Craft"]},
{"text": "We know it didn't end with Petit falling to his death, but darned if it isn't still compelling to see the caper laid out.", "is_fresh": 1, "author": ["Eric D. Snider"]},
{"text": "The story that looks back at the incident plays like a great caper film. The operation to get into the tower and string the wire was a combination of ingenuity, planning and exquisite timing since the top of the building was still a construction site.", "is_fresh": 1, "author": ["Adam Fendelman"]},
{"text": "More, Marsh manages to capture the imagination and make it soar to heights you usually only associate with powerful Grade-A literature, not with a documentary feature.", "is_fresh": 1, "author": ["Sara Michelle Fetters"]},
{"text": "Maintains a sense of excitement and poetry.", "is_fresh": 1, "author": ["Dennis Schwartz"]},
{"text": "Astonishing. Daring. Mind-boggling. Visually stunning. A true heart-stopper. And, oh yeah, the movie's pretty good, too.", "is_fresh": 1, "author": ["Tom Long"]},
{"text": "A talking-heads documentary has no business working as a nerve-wracking thriller, but here we have Man on Wire....one of the most exciting movies to come out all year.", "is_fresh": 1, "author": ["Tim Brayton"]},
{"text": "Petit himself is a bundle of energy, passion, and enthusiasm as he describes his dreams and the nuts and bolts details of achieving it. Marsh lets the story play out like a heist film.", "is_fresh": 1, "author": ["Beth Accomando"]},
{"text": "grasps just what it means to be human and to express it fully", "is_fresh": 1, "author": ["John A. Nesbit"]},
{"text": "Fascinating documentary with an added white knuckle component.", "is_fresh": 1, "author": ["Boo Allen"]},
{"text": "One of the most amazing cinematic experiences and achievements in terms of recreating a single event in history in the most comprehensive way.", "is_fresh": 1, "author": ["Edward Douglas"]},
{"text": "The man is clearly a nut, but he's also a great storyteller with a heck of a story, and Man on Wire gives him a chance to tell it.", "is_fresh": 1, "author": ["Robert Davis"]},
{"text": "It's a rare tale of dangerous obsession rapturously fulfilled, a reminder that even the most quixotic of undertakings can knock over a windmill now and then.", "is_fresh": 1, "author": ["Christopher Orr"]},
{"text": "The word 'documentary' doesn't begin to do justice to [director] Marsh's achievement.", "is_fresh": 1, "author": ["Christy Lemire"]},
{"text": "Spellbinding, and a model of the documentary form.", "is_fresh": 1, "author": ["Marc Savlov"]},
{"text": "This movie about Petit's achievement is a gust of fresh air, offering the inner workings of a lark that put a man's life at risk -- and also made him immortal.", "is_fresh": 1, "author": ["Michael Sragow"]},
{"text": "A documentary about a towering act of daring proves a spine-tingling memorial to recklessness as art.", "is_fresh": 1, "author": ["Ty Burr"]},
{"text": "A gift of a documentary.", "is_fresh": 1, "author": ["Lisa Kennedy"]},
{"text": "Man On Wire is surprising and entertaining, an unexpected adventure story for the modern world.", "is_fresh": 1, "author": ["Liz Braun"]},
{"text": "A definite candidate for documentary of the year.", "is_fresh": 1, "author": ["Glenn Whipp"]},
{"text": "They say that seeing is believing, but Man on Wire will make you doubt what your eyes are telling you -- it really will -- as you shake your head in amazement and awe.", "is_fresh": 1, "author": ["Kenneth Turan"]},
{"text": "There's nothing on movie screens now that can compare with the footage of Petit's performance.", "is_fresh": 1, "author": ["Colin Covert"]},
{"text": "The recollections of Petit and his crew, as well as cleverly staged re-creations of the illicit preparations for the walk, form the backbone of Marsh's compelling and at times awe-inspiring film.", "is_fresh": 1, "author": ["Marc Mohan"]},
{"text": "Man on Wire, the delightful documentary about French tightrope walker Philippe Petit's incroyable early-morning trip between the World Trade Center towers in 1974, is an interesting film to watch from the front row.", "is_fresh": 1, "author": ["Reyhan Harmanci"]},
{"text": "Man on Wire should be watched on the biggest screen possible; it's an utterly thrilling exploration of one man's mad dream.", "is_fresh": 1, "author": ["Moira MacDonald"]},
{"text": "Mesmerizing, heart-stopping and overpoweringly beautiful.", "is_fresh": 1, "author": ["Chris Hewitt (St. Paul)"]},
{"text": "This film is a celebration of human achievement; it soars with the promise that we are shackled to the ground only by lack of imagination and will.", "is_fresh": 1, "author": ["Peter Howell"]},
{"text": "Part of what makes Man on Wire so enthralling, and so entertaining, is the filmmaker's skill in laying out the illegal caper's logistics, mainly through interviews with Philippe and his support team.", "is_fresh": 1, "author": ["Joe Morgenstern"]},
{"text": "Engrossing...rich and visually well-documented telling of a fascinating story.", "is_fresh": 1, "author": ["Peter Canavese"]},
{"text": "Man on Wire is another refreshing film from 2008 that proves that even if Hollywood is running out of ideas, we can still count on documentaries.", "is_fresh": 1, "author": ["Kevin McCarthy"]},
{"text": "[Petit is] such an impassioned and energetic interview subject that it's remarkable that someone didn't make Man on Wire earlier.", "is_fresh": 1, "author": ["Brian Tallerico"]},
{"text": "Exhilarating and engrossing", "is_fresh": 1, "author": ["Susan Granger"]},
{"text": "Constructed like a first-rate thriller.", "is_fresh": 1, "author": ["Roger Ebert"]},
{"text": "[Director] Marsh creates a transfixing documentary feature that doubles as a celebration of one man and an elegy to two buildings that are no more.", "is_fresh": 1, "author": ["Kamal Al-Solaylee"]},
{"text": "[A] heart-stopping, knee-buckling and transcendent account.", "is_fresh": 1, "author": ["Carrie Rickey"]},
{"text": "The film's soaring climax becomes surprisingly emotional thanks to testimony from those lucky enough to have witnessed it.", "is_fresh": 1, "author": ["Rafer Guzman"]},
{"text": "A documentary every bit as entertaining and rebellious as the real life figure at its center.", "is_fresh": 1, "author": ["Geoff Berkshire"]},
{"text": "Beautifully put together, it is every bit as suspenseful as even the best Hollywood heist films, which is even more remarkable when you consider that we know, from the first frame, that Petit will survive.", "is_fresh": 1, "author": ["Andy Klein"]},
{"text": "Robert Zemeckis is developing a feature film based on Petit's life and high crimes. Good luck to all concerned, but I can't see how a fictionalized treatment could exceed the achievement of director James Marsh's documentary, which unfolds like a dream.", "is_fresh": 1, "author": ["Michael Phillips"]},
{"text": "Outrageously entertaining and perfectly profound.", "is_fresh": 1, "author": ["Jeanne Aufmuth"]},
{"text": "A fascinating time capsule: a combination of talking-head interviews, actual footage, and re-creations that evokes a kinder, gentler world and provides insight into one of the most audacious stunts of the 20th century.", "is_fresh": 1, "author": ["James Berardinelli"]},
{"text": "...a must see movie, period.", "is_fresh": 1, "author": ["Robin Clifford"]},
{"text": "Without bombast or pathos -- as gracefully as a tightrope walker -- Man on Wire brings back a time when the towers were still symbols of aspiration and possibility.", "is_fresh": 1, "author": ["Dana Stevens"]},
{"text": "Cleverly assembled like a heist thriller, this film documents the 1974 wire-walking stunt between the twin towers of the World Trade Center. Not only does it have a remarkable resonance seven years after 9/11, but it's a cracking good story.", "is_fresh": 1, "author": ["Rich Cline"]},
{"text": "Marsh presents Petit as a kind of acrobatic Werner Herzog, talented, eccentric and perhaps slightly crazy.", "is_fresh": 1, "author": ["Derek Malcolm"]},
{"text": "Deftly balancing honesty, poignancy, sensationalism and humour, it's a palm-sweating story - and the excitable Petit is a born storyteller.", "is_fresh": 1, "author": ["Larushka Ivan-Zadeh"]},
{"text": "James Marsh's film is brilliantly achieved and assembled.", "is_fresh": 1, "author": []},
{"text": "The astonishing tale, told like a well-paced heist movie, is illustrated by film footage and breathtaking photographs taken by the group.", "is_fresh": 1, "author": []},
{"text": "Gripping stuff, for sure, but you may fall asleep waiting for that big walk, while the juicy stuff - a fall-out between Petit and his co-conspirators - is glossed over at the end.", "is_fresh": 1, "author": []},
{"text": "Marsh's film is an achievement in itself, beautifully constructed and carried off; and that's only fitting when his subject epitomises the soul-lifting power of that perpetual human hunger to do the impossible.", "is_fresh": 1, "author": ["Matt Mueller"]},
{"text": "Marsh ably captures the irresistible story of a visionary and a dreamer, a man who was defined by this one act. If there's one gripe, it's a shame there's no film footage of Petit conquering the towers.", "is_fresh": 1, "author": ["Tim Evans"]},
{"text": "It's an incredible story, and in Man on Wire, Marsh has made a documentary that's worthy of his walk.", "is_fresh": 1, "author": ["Chris Tilly"]},
{"text": "I've watched this film four times and I still can't believe what he did or what I'm seeing. Each viewing intensifies the galvanising joy and the heartbreakingly unrepeatable nature of his walk.", "is_fresh": 1, "author": ["Sukhdev Sandhu"]},
{"text": "What Marsh shows us is Petit's childlike innocence and almost transcendental faith: faith in himself, faith in his leadership abilities, faith that the escapade would be a success, and faith that he would not fall.", "is_fresh": 1, "author": ["Peter Bradshaw"]},
{"text": "The attacks of 9/11 are never mentioned, and rightly so - this is a film about the life of the towers, not the death. But their inevitable destruction gives the movie a poignant weight, and reminds us of a time when they weren't morbid geopolitical symbol", "is_fresh": 1, "author": ["Kevin Maher"]},
{"text": "Much of Marsh's focus is on the practical details and build up of the caper, but the last third stretches out for poetic resonance.", "is_fresh": 1, "author": ["Amy Nicholson"]},
{"text": "A quietly inspirational true-life tale of a larger-than-life oddball told with measure and restraint.", "is_fresh": 1, "author": ["Hannah Forbes Black"]},
{"text": "A generous, visionary gesture supplanting the communal memory of the site's unspeakable horrors with an image of human achievement that's head-spinning, heart-leaping in its absurd purity.", "is_fresh": 1, "author": ["Trevor Johnston"]},
{"text": "Mike Martin - Man On Wire is an amazingly emotional journey to the heart of one man's constant battle with his mortality.", "is_fresh": 1, "author": ["Victor Olliver"]},
{"text": "Recounting the simple story of a complicated character, this scales giddy emotional heights, revealing a portrait of a man teetering on the brink, in more ways than one...", "is_fresh": 1, "author": ["Will Lawrence"]},
{"text": "James Marsh's rollicking documentary Man on Wire asks not 'Why?' but 'How the hell?'", "is_fresh": 1, "author": ["David Edelstein"]},
{"text": "This is a documentary that speaks for itself, so mind-blowing is Petit's feat that words do not do it justice.", "is_fresh": 1, "author": ["Laura Clifford"]},
{"text": "Admirable in not pandering to World Trade Center gut sentiment, the James Marsh 'Man on Wire' details Philippe Petit's 1974 wirewalk between the 110-storey structures.", "is_fresh": 1, "author": ["Donald J. Levit"]},
{"text": "A celebration of athleticism, architecture, random beauty and crazy ambition.", "is_fresh": 1, "author": ["Bryant Frazer"]},
{"text": "Warning: this film will produce vertigo.", "is_fresh": 1, "author": ["Kent Turner"]},
{"text": "Properly promoted -- this festival fave will have crossover crowds on the edges of their seats, as well.", "is_fresh": 1, "author": ["Chad Greene"]},
{"text": "Director James Marsh's hypnotic movie documents French wire walker Philippe Petit's unauthorized, 45-minute balancing act 110 stories above New York in August 1974.", "is_fresh": 1, "author": ["Joe Neumaier"]},
{"text": "[An] engrossing and exhilarating documentary Man on Wire, which uses vintage footage, interviews and re-creations.", "is_fresh": 1, "author": ["Lou Lumenick"]},
{"text": "The film runs 95 minutes, and you'll be holding your breath for most of them.", "is_fresh": 1, "author": ["Ken Fox"]},
{"text": "Thorough, understated and altogether enthralling documentary.", "is_fresh": 1, "author": ["A.O. Scott"]},
{"text": "Sits alongside \"The Thin Blue Line\" and \"Hoop Dreams\" as a non-fictional narrative which changes the rules of its genre.", "is_fresh": 1, "author": ["Edward Havens"]},
{"text": "...cheekily irreverent.", "is_fresh": 1, "author": ["Chris Barsanti"]},
{"text": "The resolution may not surprise, but the journey surely will, resulting in a magnificent, often breathtaking document of a man who desired a moment to touch the heavens. Literally.", "is_fresh": 1, "author": ["Brian Orndorf"]},
{"text": "A compelling and subtle documentary about Philippe Petit's sensational walk on a wire between the World Trade Center Twin Towers in 1974 and the missteps he made on earth afterwards.", "is_fresh": 1, "author": ["Frederic and Mary Ann Brussat"]},
{"text": "[A] breathtaking documentary about that mad-genius coup achieved over three decades ago.", "is_fresh": 1, "author": ["Lisa Schwarzbaum"]},
{"text": "What ultimately reverberates is [the film's] potent central association between Petit's endeavor and the Twin Towers' erection.", "is_fresh": 1, "author": ["Nick Schager"]},
{"text": "Armed with the standard operating tools of documentary filmmaking, James Marsh leads audiences through Petit & Co.'s preparation and execution of this incredible feat of performance art.", "is_fresh": 1, "author": ["David Fear"]},
{"text": "As the film traces how he plotted his Word Trade Center walk, it starts to feel almost like a heist movie, as Mr. Petit and his cronies map out each minute detail over the course of month.", "is_fresh": 1, "author": ["Sara Vilkomerson"]},
{"text": "Marsh's film may not probe very deeply into Petit's character, or try to conjecture what his accomplishment means in a post-9/11 environment, but it does make for a wonderful caper, which is exactly how Petit envisioned it.", "is_fresh": 1, "author": ["Simon Abrams"]},
{"text": "Builds a remarkable degree of suspense...and along the way it manages a good deal of humor and charm as well.", "is_fresh": 1, "author": ["Frank Swietek"]},
{"text": "Part caper movie, part real-life superhero saga, and entirely engrossing.", "is_fresh": 1, "author": ["Jim Ridley"]},
{"text": "An exhilarating film for the ages not to be missed, either for its enlightening peek inside the elite mind of an extraordinary individual or for its ethereal tribute to the Twin Towers.", "is_fresh": 1, "author": ["Kam Williams"]},
{"text": "Man on Wire becomes a thrilling study in contrast, succeeding not only at extolling Philippe's superhuman performance but attesting to the achievements of those who similarly defied death to give the man the stage he walked on.", "is_fresh": 1, "author": ["Ed Gonzalez"]},
{"text": "Brilliantly directed, hugely entertaining documentary that tells a genuinely stunning story and paints a fascinating portrait of an extraordinary man.", "is_fresh": 1, "author": ["Matthew Turner"]},
{"text": "A riveting portrait of the unusually obsessed, gifted, charismatic and downright gutsy Petit.", "is_fresh": 1, "author": ["Doris Toumarkine"]},
{"text": "Acrophobics beware: just watching Philippe Petit walk across Twin Towers will make you dizzy.", "is_fresh": 1, "author": ["Harvey S. Karten"]},
{"text": "A giddy dream, a suspenser, a harrowing surreal comedy of the possible--like Dog Day Afternoon told by Amelie.", "is_fresh": 1, "author": ["Kyle Smith"]},
{"text": "Even if what the very idea of such a stunt gives you is a knot in your stomach rather than a lump in your throat, Man on Wire is pure delight.", "is_fresh": 1, "author": ["Tricia Olszewski"]},
{"text": "Context is crucial for this stranger than fiction docu: It's impossiblle to watch Marsh's exciting chronicle of a unique adventure in the summer of 1974 without thinking of 9/11 and its aftermath.", "is_fresh": 1, "author": ["Emanuel Levy"]},
{"text": "No amount of description can transmit the passion and joy in this wonderful picture, assisted by a lyrical musical score by composer Michael Myman. See this movie.", "is_fresh": 1, "author": ["Cole Smithey"]},
{"text": "In a city synonymous with hustle and bustle, the image of a stony-faced Frenchman gracefully dancing across a wire suspended between the Twin Towers, with no safety net or harness, is an overwhelmingly beauteous juxtaposition.", "is_fresh": 1, "author": ["Marlow Stern"]},
{"text": "Delightful and finally transcendent documentary.", "is_fresh": 1, "author": ["Andrew O'Hehir"]},
{"text": "A great example of truth being better than fiction---a combination of \"Mission Impossible\", Billy Wilder's \"Spirit of St. Louis\" and Charlie Chaplin's \"Modern Times.\"", "is_fresh": 1, "author": ["Ron Wilkinson"]},
{"text": "A surprisingly entertaining, poignant documentary about the most notorious high-wire walk ever.", "is_fresh": 1, "author": ["Frank Scheck"]},
{"text": "Man on Wire is thrilling in a way few documentaries about such a light subject ever get to be.", "is_fresh": 1, "author": ["Joshua Tyler"]},
{"text": "Exhilarating... a crowd-pleaser in such witty, poetic ways that even an art-house curmudgeon couldn't deny its tidy vigor.", "is_fresh": 1, "author": ["Aaron Hillis"]},
{"text": "James Marsh's Man on Wire erupts onscreen as one of the most wildly entertaining docs of recent years.", "is_fresh": 1, "author": ["Robert Koehler"]},
{"text": "Petit showed us that a dream, no matter how risky or dangerous, is often its own reward. It's an important lesson, but one that's obviously easy to forget, and Man on Wire is a stunning reminder.", "is_fresh": 1, "author": ["Jeff Giles"]},
{"text": "It's magical stuff.", "is_fresh": 1, "author": ["Paul Gallagher"]},
{"text": "It is one of the most suspenseful, white-knuckled films of the year.", "is_fresh": 1, "author": ["Richard Nilsen"]},
{"text": "", "is_fresh": 1, "author": ["Nell Minow"]},
{"text": "", "is_fresh": 1, "author": ["Ben Kenigsberg"]},
{"text": "", "is_fresh": 1, "author": []}
]