[
{"reviews_count": "215", "title": "Midnight in Paris", "avg_audience_rating": "  4", "rotten_count": "15", "tomatometer": "93", "audience_score": "83", "avg_critic_rating": "7.8", "fresh_count": "200", "user_ratings_count": "82,130"},
{"text": "A gear shift for a director whose weathered career is jolted back to life, matching bouncy dialogue and a whimsically comical plot with the glossy climes of the sepia toned city of love.", "is_fresh": 1, "author": ["Edward Frost"]},
{"text": "Midnight in Paris intoxicates you, and it's hard not to fall under its spell.", "is_fresh": 1, "author": ["Drew Taylor"]},
{"text": "Adding depth to the comedy is a smart thematic idea: that golden ages are never golden to those living through them, who merely hanker to escape their own period too.", "is_fresh": 1, "author": ["Lynden Barber"]},
{"text": "Midnight in Paris is a very unselfish and lovely approach to inspiration, love, and the written word. A must watch.", "is_fresh": 1, "author": ["Candice Frederick"]},
{"text": "Overall, Midnight in Paris is so d'lightful, so d'lovely, you're liable to forgive it anything. If you weren't in love with Paris before, prepare to be seduced.", "is_fresh": 1, "author": ["Eleanor Ringel Cater"]},
{"text": "... Allen brings his fantasy to life with such affection and joy that he transports us into his dream come true as a shared fantasy. ", "is_fresh": 1, "author": ["Sean Axmaker"]},
{"text": "Mr. Allen's habitual romanticizing of the wealthy has grown stale and is especially problematic in this recession.", "is_fresh": 0, "author": ["Martin Tsai"]},
{"text": "Breezy and casually profound, with a killer gimmick that keeps on giving.", "is_fresh": 1, "author": ["Sean Burns"]},
{"text": "I continue to be utterly taken with Midnight in Paris. ", "is_fresh": 1, "author": ["Blake Howard"]},
{"text": "It's charming and smart, and riddled with little joys.", "is_fresh": 1, "author": ["Dann Gire"]},
{"text": "It's attractive and easy to slip into, but [Allen] didn't put enough thought into the design, and it soon falls apart.", "is_fresh": 1, "author": ["Lawrence Toppman"]},
{"text": "It lacks the humor of Annie Hall. It lacks the depth of Manhattan. But it manages to entertain, mainly as an homage to Paris - a romp through the city's intellectual and artistic history. ", "is_fresh": 1, "author": ["Charles Ealy"]},
{"text": "Souffle light and long on charm, one of Allen's wittiest and certainly his most literary", "is_fresh": 1, "author": ["Roger Moore"]},
{"text": "The blend of charm, magic, wit, and characterization come together to make this an engaging and intellectually stimulating experience. This is a great film and one of the best of the year thus far.", "is_fresh": 1, "author": ["Jeff Beck"]},
{"text": "The fact that Allen never explains how Bender bends time is a wise choice, there's no bogging down of the narrative which allows the flick to keep skipping along at a effervescent pace.", "is_fresh": 1, "author": ["Erick Weber"]},
{"text": "Nostalgic fluff (for all its faux rejection thereof), but it's my brand of fluff", "is_fresh": 1, "author": ["Dan Jardine"]},
{"text": "[A] work of genius... [B]ecomes the butt of its own gentle joke... one that wraps up a paralyzing self-awareness in a redemptive self-deprecation to, finally and splendidly, laugh with great good humor at itself.", "is_fresh": 1, "author": ["MaryAnn Johanson"]},
{"text": "As on-screen Allen stand-ins go, Wilson is definitely one of the more effective ones, recognizably channelling those Allen neuroses within his own established persona and distinct comic rhythms.", "is_fresh": 1, "author": ["Michael Dequina"]},
{"text": "Woody Allen seemed to have lost his fizz as a filmmaker of late - and then he uncorked the sparkling Midnight in Paris, a comic fantasy with all the effervescence of vintage champagne.", "is_fresh": 1, "author": ["Jason Best"]},
{"text": "Woody Allen's comedy Midnight in Paris is a superior late-period work precisely because it appears that age and wisdom have finally allowed him to discover that his romantic streak can acknowledge his realist/cynical side without succumbing to it.", "is_fresh": 1, "author": ["Perry Seibert"]},
{"text": "An accomplished film that's as entertaining as it is deliciously offbeat.", "is_fresh": 1, "author": ["James Plath"]},
{"text": "Watchable, and on a certain level, it's quite enjoyable.", "is_fresh": 1, "author": ["Michael W. Phillips, Jr."]},
{"text": "[Woody] Allen brings his fantasy to life with such affection and joy that he transports us into his dream come true as a shared fantasy.", "is_fresh": 1, "author": ["Sean Axmaker"]},
{"text": "A surprise treat from Woody Allen who has spent too much energy selling his films to mainstream audiences...", "is_fresh": 1, "author": ["Felix Vasquez Jr."]},
{"text": "einai apo aytes tis tainies poy se xaideyoyne epibrabeytika sto kefali, h anamesa sta mpoytia, giati exeis akoysta ton Cole Porter kai ton F. Scott Fitzgerald", "is_fresh": 0, "author": ["Joseph Proimakis"]},
{"text": "Allen wants you to love Paris as much as Gil does and wants to show you the magic, the romance and the spark the city holds for him.", "is_fresh": 1, "author": ["Matt Neal"]},
{"text": "Filled with light-hearted fancy and a dazzling cast, Woody Allen's latest film is a magical stroll through a magnificent city", "is_fresh": 1, "author": ["Tom Clift"]},
{"text": "Although the film suggests that we should enjoy the present for all it's worth, we have a great time enjoying this brief episode in a literate and beauty-filled past", "is_fresh": 1, "author": ["Andrew L. Urban"]},
{"text": "The magic of Paris and the mystique of an era gone-by are the stars of Midnight in Paris - Woody Allen's best film for years", "is_fresh": 1, "author": ["Louise Keller"]},
{"text": "So light and breezy you might not recognize this Paris postcard comes by way of the ever-relevant Woody Allen, who mixes time travel and nostalgia to delightful effect...", "is_fresh": 1, "author": ["Bruce Bennett"]},
{"text": "It's not a bad film -- it just could have been a lot better. ", "is_fresh": 0, "author": ["Adam Bub"]},
{"text": "Midnight In Paris is clever, watchable, mildly entertaining and quite amusing. Unfortunately -- after its initial gimmick -- it's also pretty predictable, and amounts to a lot less than the sum of its parts. ", "is_fresh": 1, "author": ["Mark Demetrius"]},
{"text": "The most acceptable Woody Allen film in a long time.", "is_fresh": 1, "author": ["Margaret Pomeranz"]},
{"text": "This combination of whimsy and romance is, for me, much more successful than Allen's previous European city film, Vicky Cristina Barcelona.", "is_fresh": 1, "author": ["David Stratton"]},
{"text": "It's passable Woody waffle designed strictly for fans. ", "is_fresh": 1, "author": ["Jim Schembri"]},
{"text": "His assembly of a beautiful montage of Parisian scenery that precedes the opening credits sets the unique tone Allen chases to perfection.", "is_fresh": 1, "author": ["Leigh Paatsch"]},
{"text": "Call it a fantasy or a rom-com or a satire or a travelogue - with this film, Allen's fearlessness declares he is past whatever label people place on his work. If you still feel the need, call it a love story - with a city, a memory, an art and a self. ", "is_fresh": 1, "author": ["Simon Foster"]},
{"text": "If you don't leave the cinema with a smile on your face, I'll be very, very surprised. ", "is_fresh": 1, "author": ["Matthew Toomey"]},
{"text": "Midnight in Paris is Allen's most charming, romantic and funny film in a long time.", "is_fresh": 1, "author": ["Thomas Caldwell"]},
{"text": "Beguiling, bewitching, enchanting, enthralling; Woody Allen has offered us a glimpse into his imagination, exorcised some (rather amiable) demons and shared with us one of the frothiest, funniest and most heart-warming films in years.", "is_fresh": 1, "author": ["Simon Miraudo"]},
{"text": "Bravo, monsieur Woody!", "is_fresh": 1, "author": ["Trevor Johnston"]},
{"text": "Midnight In Paris radiates positivity with its call to live life to the full and in the now.", "is_fresh": 1, "author": ["Russell Lewin"]},
{"text": "Recent Allen films have tended towards the perfunctory, often looking like a succession of clumsy first takes. In Midnight in Paris he is relaxed and confident.", "is_fresh": 1, "author": ["Philip French"]},
{"text": "Allen at his sentimental best.", "is_fresh": 1, "author": []},
{"text": "Wilfully silly and heart-warming, this film is very easy viewing.", "is_fresh": 1, "author": ["Alex Zane"]},
{"text": "Nostalgic and achingly beautiful, this is Allen's best since Husbands And Wives.", "is_fresh": 1, "author": ["David Edwards"]},
{"text": "A well put together exercise in the pleasures and pitfalls of nostalgia...", "is_fresh": 1, "author": ["Derek Malcolm"]},
{"text": "Witty, featherlight and openly sentimental, this is Woody's love letter to Paris and the most relaxed, likeable movie he's made in years.", "is_fresh": 1, "author": ["Philip Kemp"]},
{"text": "It could have been shot down a country lane in Rutland, but Allen naturally preferred the charms, history and passions of Paris for a story that's both timeless and topical.", "is_fresh": 1, "author": ["Graham Young"]},
{"text": "An effervescent, witty and absorbing tale lost in time ... Allen rekindles his character love affair that made him such a satisfying film-maker a couple of decades ago ...", "is_fresh": 1, "author": ["Lisa Giles-Keddie"]},
{"text": "Midnight in Paris contains sequences happier than can be described.", "is_fresh": 1, "author": ["Antonia Quirke"]},
{"text": "Just when Woody Allen seemed to have written and directed himself out, he comes up with his biggest hit.", "is_fresh": 1, "author": ["Christopher Tookey"]},
{"text": "Midnight in Paris is a breeze: a bauble, but a jolly one.", "is_fresh": 1, "author": ["Tim Robey"]},
{"text": "A delightful exercise in wish-fulfillment, the picture is one of the most unashamedly romantic of Allen's career - if not the most - with hardly a trace of his cynical, caustic and darkly ironic take on the world.", "is_fresh": 1, "author": ["Henry Fitzherbert"]},
{"text": "Only first-time visitors to Paris are in for disappointment: it simply can't live up to this.", "is_fresh": 1, "author": ["Elliott Noble"]},
{"text": "The time flies by, which is always a good sign. When it ends you realise that the plot is fairly insubstantial, but it's still a watchable, enchanting 90 minutes.", "is_fresh": 1, "author": ["Roz Laws"]},
{"text": "If Allen's next stop on his Euro tour is anywhere near this enjoyable, consider our bags packed.", "is_fresh": 1, "author": ["Adam Woodward"]},
{"text": "In the face of a decade of cynical misanthropy, the optimistic and effervescent Midnight in Paris is Allen's most purely enjoyable work in years.", "is_fresh": 1, "author": ["Shaun Munro"]},
{"text": "Beautifully shot, wonderfully acted and superbly written, this is a hugely enjoyable, frequently funny and sweetly surreal comedy that marks a long-awaited return to form for Woody Allen.", "is_fresh": 1, "author": ["Matthew Turner"]},
{"text": "Like much of Allen's best work, this is an ensemble film with a terrific supporting cast.", "is_fresh": 1, "author": ["Jennie Kermode"]},
{"text": "It's fun and it's most welcome.", "is_fresh": 1, "author": ["Dave Calhoun"]},
{"text": "Light, assured, and utterly charming: Woody Allen's sublime gifts are still intact.", "is_fresh": 1, "author": ["Ian Nathan"]},
{"text": "After a run of loose, uneven films, Allen hits the right notes in this funny, astute comedy about artistic creation and personal dreams. And Wilson turns out to be one of the best on-screen Allen surrogates in years.", "is_fresh": 1, "author": ["Rich Cline"]},
{"text": "Sadly, this movie made me want to go back in time to a glorious period in New York City in the 1970s and '80s when a filmmaker named Woody Allen ruled the movie world.", "is_fresh": 0, "author": ["Lori Hoffman"]},
{"text": "Allen's finest film since 2005's Match Point and a comedy to boot.", "is_fresh": 1, "author": ["Chris Knight"]},
{"text": "Midnight in Paris finds exactly the right groove for its story and stays there. It's a winner.", "is_fresh": 1, "author": ["Mike McGranaghan"]},
{"text": "A few rough patches aside, I found Midnight in Paris to be a delight", "is_fresh": 1, "author": ["Ethan Alter"]},
{"text": "\"Midnight in Paris,\" a parable about romanticism and nostalgia, recalls Early Owen as much as Early Woody. ", "is_fresh": 1, "author": ["Stephen Himes"]},
{"text": "This is [Allen's] most satisfying film in decades, a film with wit and ideas that is primarily about romanticism, illusion, and nostalgia.", "is_fresh": 1, "author": ["Mark R. Leeper"]},
{"text": "What an enchanting movie - almost as enchanting as its location.", "is_fresh": 1, "author": ["Linda Cook"]},
{"text": "As befits Woody Allen, Midnight in Paris. is chock-full of cultural homages: Hemingway and Stein are just a small sample of the legends Allen parades onscreen.", "is_fresh": 1, "author": ["Gabe Leibowitz"]},
{"text": "A trifle filled with nostalgia and fantasy touristy fare.", "is_fresh": 0, "author": ["Dennis Schwartz"]},
{"text": "Go in blind, and let it gobsmack you into euphoria.", "is_fresh": 1, "author": ["Rob Humanick"]},
{"text": "A beautiful little jewel of a movie, and I'm thrilled to realize that Woody Allen still has films this good inside of him.", "is_fresh": 1, "author": ["Scott Weinberg"]},
{"text": "Literate and funny, light-hearted yet frequently eloquent", "is_fresh": 1, "author": ["James Kendrick"]},
{"text": "In the end it's about seeing through the illusion of nostalgia and yet not being disillusioned \u2014 about cherishing the past, while living in the present.", "is_fresh": 1, "author": ["Steven D. Greydanus"]},
{"text": "Allen in top form with Midnight in Paris.", "is_fresh": 1, "author": ["Charles Koplinski"]},
{"text": "Woody Allen's most entertaining comedy in years...", "is_fresh": 1, "author": ["David Nusair"]},
{"text": "Ao abordar a insatisfa\u00e7\u00e3o do protagonista com o presente em fun\u00e7\u00e3o de seu romantismo irrecuper\u00e1vel, o veterano diretor garante o sucesso tem\u00e1tico de Meia-Noite em Paris.", "is_fresh": 1, "author": ["Pablo Villa\u00e7a"]},
{"text": "'Midnight in Paris' is rewarding if not fully satisfying and indicates that, now closer to 80 than 70, the writer-director has found peace with life as he finds it. ", "is_fresh": 1, "author": ["Donald J. Levit"]},
{"text": "This isn't a good Woody Allen movie. No, this is one of the great Woody Allen films.", "is_fresh": 1, "author": ["Ken Hanke"]},
{"text": "Let's face it, Woody Allen makes some bad movies or at least only slightly entertaining movies. He might have been great in the past but that day has long gone.", "is_fresh": 0, "author": ["Jackie K. Cooper"]},
{"text": "Paris: C'est magnifique", "is_fresh": 1, "author": ["James Verniere"]},
{"text": "Allen holds onto his vision of a Golden Age better than anyone else, even while readily acknowledging that it's just a grand illusion.", "is_fresh": 1, "author": ["Eric Kohn"]},
{"text": "Woody's most inspired comedy in years. Charming, and very enjoyable- even if you're not normally a Woody Allen fan.", "is_fresh": 1, "author": ["Chris Bumbray"]},
{"text": "Woody's last picture, 2010's You Will Meet a Tall Dark Stranger, managed to sneak onto my year-end \"10 Worst\" list, so color me stunned that Midnight in Paris exudes both charm and cleverness in equal measure.", "is_fresh": 1, "author": ["Matt Brunson"]},
{"text": "This comedic masterpiece by one of America's legendary filmmaking geniuses is a fitting companion to \"Paris, Je T'Aime\" and like a fine wine should be savored by Allen's legion of loyal cinephiles.", "is_fresh": 1, "author": ["Keith Cohen"]},
{"text": "It's an entertaining and sometimes hilarious film that belongs squarely in Allen's \"hit\" column.", "is_fresh": 1, "author": ["Michael Dunaway"]},
{"text": "Gil still believes in magic and Golden Ages and idolizes the writers and artists of the Lost Generation the way some boys worship Kobe Bryant and Peyton Manning. ", "is_fresh": 1, "author": ["Sarah Boslaugh"]},
{"text": "Woody Allen's unhurried tribute to the art, passion and power of the written word and to Paris is fabulous. His best film in a decade. ", "is_fresh": 1, "author": ["Gary Wolcott"]},
{"text": "\"Midnight in Paris\" is a bonbon to ease the craving for Allen's earlier, funnier films.", "is_fresh": 1, "author": ["Joe Williams"]},
{"text": "Though Wilson is considerably younger, blonder, more handsome and more Gentile than the Woody we know, he's somehow a natural in the role anyway. ", "is_fresh": 1, "author": ["Stephen Silver"]},
{"text": "A charming, lighthearted little lark of a film.", "is_fresh": 1, "author": ["Clint O'Connor"]},
{"text": "Midnight in Paris is a loving embrace of the city, of art and of life itself.", "is_fresh": 1, "author": ["Tom Long"]},
{"text": "Considering Allen hasn't made an unqualified success since 1999's Sweet and Lowdown, it's easy to shrug off Midnight in Paris' occasional fumble when weighed against so much cleverness and canniness and, bien s\u00fbr, irresistible charm.", "is_fresh": 1, "author": ["Kimberley Jones"]},
{"text": "A clever and fun cinematic postcard that can transport susceptible romantics to the City of Light. ", "is_fresh": 1, "author": ["John Wirt"]},
{"text": "Directed with the wan functionality that has become Allen's trademark, the movie is a somewhat stale bonbon with a delicious time-travel center.", "is_fresh": 1, "author": ["John Beifuss"]},
{"text": "It's a charming, fanciful comedy in the vein of \"Bullets over Broadway\" and \"The Purple Rose of Cairo,\" the kind of movie I honestly thought Woody had lost the knack for. But you can never count him out.", "is_fresh": 1, "author": ["Rob Thomas"]},
{"text": "... the most fun to be had at a Woody Allen movie in a long time. ", "is_fresh": 1, "author": ["Daniel M. Kimmel"]},
{"text": "At a time when wedding parties gone wild is the plot du jour in movie comedies, it's reassuring to know that Woody Allen's cerebral absurdity is still intact.", "is_fresh": 1, "author": ["Steve Persall"]},
{"text": "It isn't a BAD movie. It has some good jokes. The gimmick of the film does have its charms... for a while. ", "is_fresh": 1, "author": ["David Poland"]},
{"text": "Allen and Wilson dip their toes into the golden age", "is_fresh": 1, "author": ["Marty Mapes"]},
{"text": "Allen's 41st is slender but entertaining", "is_fresh": 1, "author": ["Robert Denerstein"]},
{"text": "'Midnight in Paris' is a dream Woody Allen, and most importantly you, won't want to wake up from.", "is_fresh": 1, "author": ["Jeff Bayer"]},
{"text": "Woody Allen soars in Midnight in Paris. He suggests that no matter what era you're in you are unaware of its value, so you look back and see a better past. And the past, of course, is a selective illusion.", "is_fresh": 1, "author": ["Tony Macklin"]},
{"text": "Amusing, whimsical, time-traveling cinematic celebration of the iconic City of Lights", "is_fresh": 1, "author": ["Susan Granger"]},
{"text": "Allen will probably never rekindle the magic of his earlier movies, [but] he comes pretty close with Midnight in Paris.", "is_fresh": 1, "author": ["Jason Zingale"]},
{"text": "With everyone having fun, both in front of and behind the camera, it's hard for a viewer not to find the whimsy contagious.", "is_fresh": 1, "author": ["Eric D. Snider"]},
{"text": "A delightful piece of fantasy escapism that should entertain both art house crowd and mainstream viewers if they give Allen and the track record of his previous films a second chance. (Full Content Parental Review also available)", "is_fresh": 1, "author": ["Jim Judy"]},
{"text": "As confections go, this one is pure meringue, sweet and melting. And mostly air.", "is_fresh": 1, "author": ["Liz Braun"]},
{"text": "Our hero has found his groove among the Lost Generation and, for us, there's some amusement to be had in sharing Gil's thrills -- it's like stepping into a Classic Comics version of A Moveable Feast. ", "is_fresh": 1, "author": ["Rick Groen"]},
{"text": "Midnight in Paris is charming and clever, at times wickedly astute and hopeful.", "is_fresh": 1, "author": ["Lisa Kennedy"]},
{"text": "Woody Allen attracts promising players and does nothing with them.", "is_fresh": 0, "author": ["David Thomson"]},
{"text": "There is breezy comedy to be made of a YouTube-age writer meeting the icons and idols of a bygone, classical era, but Allen goes deeper, expanding on his time-travel device to make unexpected and unexpectedly generous observations.", "is_fresh": 1, "author": ["Gary Thompson"]},
{"text": "I find this upfront fantasy to be his funniest, most agreeable comedy in years.", "is_fresh": 1, "author": ["J. R. Jones"]},
{"text": "Woody Allen's beleaguered heroes have never been reluctant to indulge in a little fantasy to get what they want.", "is_fresh": 1, "author": ["Chris Vognar"]},
{"text": "It makes us happily remember the movies we thought Allen wasn't able to make anymore, even while the filmmaker reaches into the past to add one more great one to the list.", "is_fresh": 1, "author": ["Moira MacDonald"]},
{"text": "It succeeds because Allen's muse is completely activated, unlike last year's time-waster You Will Meet a Tall Dark Stranger, in which thought ran no deeper than the title joke.", "is_fresh": 1, "author": ["Peter Howell"]},
{"text": "[Allen's] most purely delightful film in many years.", "is_fresh": 1, "author": ["Shawn Levy"]},
{"text": "It is less that Allen is repeating himself with \"Midnight in Paris\" than that he has once again crafted a work, about the enduring and ephemeral power of the artist, in his own image.", "is_fresh": 1, "author": ["Duane Dudek"]},
{"text": "What's Wilson doing in a Woody Allen movie about a B-list screenwriter who time-travels from the present to the Jazz Age? Disarming the audience with his wistful joie de vivre, that's what.", "is_fresh": 1, "author": ["Carrie Rickey"]},
{"text": "Midnight in Paris is a terrific picture -- an appealing, bubbly, intelligent fantasy made by a director in an unusually playful mood.", "is_fresh": 1, "author": ["Rene Rodriguez"]},
{"text": "Midnight in Paris is light, quick and pleasant, the kind of movie that boomers, their parents and their kids will eat up like cheese fondue.", "is_fresh": 1, "author": ["Justin Strout"]},
{"text": "Minor ... a one-sided infatuation that always looks fancy, thanks to Darius Khondji's exquisite Parisian cinematography, but isn't as fanciful as its dreamy foundation suggests.", "is_fresh": 0, "author": ["Sean O'Connell"]},
{"text": "A fantastic manipulation, taking viewers to a tranquil place of immense culture and beauty while studying the enticing ease of nostalgia. And here's something I never thought I'd write again: Owen Wilson is marvelous here.", "is_fresh": 1, "author": ["Brian Orndorf"]},
{"text": "Allen's best, or at any rate by a considerable margin his most pleasurable, since at least Sweet and Lowdown.", "is_fresh": 1, "author": ["Tim Brayton"]},
{"text": "One of Allen's most charming projects in years, despite all odds.", "is_fresh": 1, "author": ["Kelly Vance"]},
{"text": "Bittersweet whimsy pervades the biting humor as Allen once again examines the subject of romance and the bumbling, self-destructive ways people go about trying to find it and then to hang on to it", "is_fresh": 1, "author": ["Andrea Chase"]},
{"text": "Allen's self-directed criticism of nostalgia worshippers could still come off as hypocritical, but his inventive approach instead results in one of the most charming, funny, and genuinely likable films that he's made in years.", "is_fresh": 1, "author": ["Ian Buckwalter"]},
{"text": "Allen's most insightful and enjoyable screenplay since the mid-'90s, Midnight in Paris is a lovely summer surprise.", "is_fresh": 1, "author": ["Brian Tallerico"]},
{"text": "A very cute, whimsical idea even if it is not completely developed.", "is_fresh": 1, "author": ["Willie Waffle"]},
{"text": "I want to shake each and every one of these actor's hands.", "is_fresh": 1, "author": ["Grae Drake"]},
{"text": "It's the funniest comedy he's delivered in years.", "is_fresh": 1, "author": ["Dave White"]},
{"text": "\"Midnight in Paris\" finds Allen in a larky, slightly tart and altogether bountiful mood, giving filmgoers a movie that, while unabashedly funny and playful, provides a profiterole or two for thought.", "is_fresh": 1, "author": ["Ann Hornaday"]},
{"text": "Wilson, as a man who's trying to right the course of his off-track life, turns out to be a surprisingly good fit for Allen's signature rhythms.", "is_fresh": 1, "author": ["Chris Hewitt (St. Paul)"]},
{"text": "It may be an obvious punch line ... but Midnight in Paris, with its charming, imaginative sense of fancy, still manages to cull some truth out of it.", "is_fresh": 1, "author": ["Mark Dujsik"]},
{"text": "Easily Woody Allen's most enjoyable work since Small Time Crooks and his most lovely since Everyone Says I Love You.", "is_fresh": 1, "author": ["Erik Childress"]},
{"text": "The opening and closing moments of \"Midnight in Paris\" are visually resplendent. The movie in the middle gets in the way.", "is_fresh": 0, "author": ["Dustin Putman"]},
{"text": "Those midnight excursions for Gil are what movies like this one are for us, an emotional vacation that, if we are lucky, inspires respite, clarity, and renewal. ", "is_fresh": 1, "author": ["Nell Minow"]},
{"text": "Woody Allen's latest movie gift ... combines blithe romantic comedy with fantasy, adds a touch of insight and wraps it all up in a beautiful Parisian bow.", "is_fresh": 1, "author": ["Emily S. Mendel"]},
{"text": "A movie that's loving and wistful and often hysterically funny.", "is_fresh": 1, "author": ["Mick LaSalle"]},
{"text": "While Allen may not be reinventing any wheels, he still has it.", "is_fresh": 1, "author": ["Michael Phillips"]},
{"text": "A sweet-natured trifle, as flavorful and as thin as a crepe.", "is_fresh": 1, "author": ["Ty Burr"]},
{"text": "A delicious trifle for anyone who has ever dreamt of bantering about the cinema with Luis Bu\u00f1uel or lounging at the piano to hear Cole Porter sing \"Let's Do It.\"", "is_fresh": 1, "author": ["Kerry Lengel"]},
{"text": "\"Midnight in Paris\" makes you yearn for the time when brainy larks weren't a once-a-year occasion.", "is_fresh": 1, "author": ["Colin Covert"]},
{"text": "Very funny and deeply charming, Midnight in Paris is a living dream about feeling at home somewhere else, with someone else.", "is_fresh": 1, "author": ["Matt Pais"]},
{"text": "Cotillard makes for a generic muse, and the grass-is-always-greener theme creaks, but Paris might still be Woody's new Manhattan.", "is_fresh": 1, "author": ["Peter Keough"]},
{"text": "Woody Allen must have had a great time writing this screenplay.", "is_fresh": 1, "author": ["Roger Ebert"]},
{"text": "A frail conceit that Allen fills out with humor that's surprisingly obvious and broad...a mildly diverting fantasy, executed without much style.", "is_fresh": 0, "author": ["Frank Swietek"]},
{"text": "Woody Allen sketches out a roundelay that tackles with warmth and a playful intelligence the gulf between heart and head in matters of nostalgia and love.", "is_fresh": 1, "author": ["Brent Simon"]},
{"text": "Wilson is a surprisingly good conduit for for the [Woody] Allen persona.", "is_fresh": 1, "author": ["Ignatiy Vishnevetsky"]},
{"text": "As a conceit, the visit with literary celebrities may be thin, and the episodes are brief and sketchy, but wish fulfillment is part of the movie's charm.", "is_fresh": 1, "author": ["David Denby"]},
{"text": "Jaunty romcom mines adult themes of marriage and career.", "is_fresh": 1, "author": ["S. Jhoanna Robledo"]},
{"text": "Smart, funny, whimsical--one of the best romantic comedies in recent years.", "is_fresh": 1, "author": ["Richard Roeper"]},
{"text": "sweet, not altogether satisfying variation on the fantasy-becomes-reality conceit he used in his Depression-era The Purple Rose of Cairo.", "is_fresh": 1, "author": ["Peter Rainer"]},
{"text": "The story and dialogue are funny and striking; the costumes exceptional; the ambience superb. Wilson, Cotillard, and Stoll give award-quality performances.", "is_fresh": 1, "author": ["Tony Medley"]},
{"text": "\"Midnight in Paris\" holds a springtime sense of romantic desire. So much the better if you happen to walk out of the cinema, as I did, onto a rainy urban street after seeing it. ", "is_fresh": 1, "author": ["Cole Smithey"]},
{"text": "A huge part of the charm of Midnight in Paris derives from the finely calibrated casting, long one of Allen's superpowers as a director.", "is_fresh": 1, "author": ["Dana Stevens"]},
{"text": "I had a smile on my face from the moment Woody Allen's latest film began, with an idyllic series of Parisian street scenes set to the music of jazz great Sidney Bechet...and the film maintained that lovely quality all the way to...", "is_fresh": 1, "author": ["Leonard Maltin"]},
{"text": "A sweet and lively story, and a nicely packaged new outing from a past master who has done little more than repeat himself for at least two decades.", "is_fresh": 1, "author": ["Ella Taylor"]},
{"text": "...strikes a nice balance between starry-eyed romanticism and cynical detachment.", "is_fresh": 1, "author": ["Josh Larsen"]},
{"text": "Above all, Allen manages to capture something warm and wonderful about the love of a city, similar to the feeling he captured about New York in his early films Annie Hall and Manhattan.", "is_fresh": 1, "author": ["Jeffrey M. Anderson"]},
{"text": "Owen Wilson, an unusual choice, is fine here and the great supporting cast, from the present day characters to the actors who play the noted writers and artists from yesteryear, all relish their roles and are a joy to watch.", "is_fresh": 1, "author": ["Neil Rosen"]},
{"text": "This is not the best by Woody Allen but it sure is clever and entertaining and Paris looks great.", "is_fresh": 1, "author": ["Robin Clifford"]},
{"text": "As a filmmaker, Allen has grappled with the temptations of repeating himself instead of forging a fresh path. You can feel that conflict here, and watching him work it out is exhilarating.", "is_fresh": 1, "author": ["Peter Travers"]},
{"text": "In Woody Allen's beguiling and then bedazzling new comedy, nostalgia isn't at all what it used to be -- it's smarter, sweeter, fizzier and ever so much funnier.", "is_fresh": 1, "author": ["Joe Morgenstern"]},
{"text": "Allen's new \"Midnight in Paris\" is a lot like his earlier, funnier movies. And it's far and away his sunniest effort since \"Mighty Aphrodite.\"", "is_fresh": 1, "author": ["Stephen Whitty"]},
{"text": "Midnight in Paris is as light as a souffl\u00e9, and almost as sweet.", "is_fresh": 1, "author": ["Claudia Puig"]},
{"text": "Though it never ventures past the tourist quarters of Paris, this is one of Woody's most handsomely photographed movies.", "is_fresh": 1, "author": ["Lou Lumenick"]},
{"text": "The idea has likely been in Allen's head since forever, but it's arrived at the right moment.", "is_fresh": 1, "author": ["Joe Neumaier"]},
{"text": "celebrates the timeless allure of the City of Light to the cinematic image without apology but it never goes as far as to overstate that allure", "is_fresh": 1, "author": ["Chris Cabin"]},
{"text": "While not the laughfest that was Vicky Christina Barcelona, Midnight reveals a different side of Woody Allen, one that's kinda magical.", "is_fresh": 1, "author": ["Peter Paras"]},
{"text": "It's an entertaining trifle that is at least as engaging as, and perhaps more likeable than, a majority of the filmmaker's recent excursions.", "is_fresh": 1, "author": ["James Berardinelli"]},
{"text": "...a charming bon-bon, a bookend to his \"Purple Rose of Cairo.\" But it is also a refreshing take to hear the septuagenarian filmmaker who has shown a predilection for embracing the past push an alter ego so firmly into the future.", "is_fresh": 1, "author": ["Laura Clifford"]},
{"text": "Here's a sentence I never thought I'd write again: Woody Allen has made a wonderful new picture, \"Midnight in Paris,\" and it's his best, most enjoyable work in years.", "is_fresh": 1, "author": ["Kenneth Turan"]},
{"text": "Entertaining enough, but unmistakably the work of a later, lesser era.", "is_fresh": 1, "author": ["Keith Phipps"]},
{"text": "Glorious, sophisticated, very funny. Allen knowingly toys with romanticism as Manhattan meets Purple Rose of Cairo, with Paris and the 20's instead of NY and the Depression. ", "is_fresh": 1, "author": ["Caryn James"]},
{"text": "It is marvelously romantic, even though - or precisely because - it acknowledges the disappointment that shadows every genuine expression of romanticism.", "is_fresh": 1, "author": ["A.O. Scott"]},
{"text": "The tone is a welcome throwback to ... \"The Purple Rose of Cairo\" and the other fantasy-tinged films he made in the '80s. It's also the funniest film he's directed in 10 or 15 years.", "is_fresh": 1, "author": ["Andy Klein"]},
{"text": "Having sampled London and Barcelona in recent films, Woody Allen continues his grand tour of European cities with Midnight in Paris, an ingratiating, tourist-oriented exercise in nostalgia for a city that doesn't exist.", "is_fresh": 1, "author": ["Lisa Schwarzbaum"]},
{"text": "The groupie-like celebration of Allen's doubled-up cultural insecurity and ambition represents a global degradation of culture standards.", "is_fresh": 0, "author": ["Armond White"]},
{"text": "A Woody Allen classic with Paris as an enchanting backdrop, some appealing characters, and a potpourri of witty one-liners. ", "is_fresh": 1, "author": ["Frederic and Mary Ann Brussat"]},
{"text": "A comedy for smart people. Allen's humor prizes cultural literacy, a rarity in these times. It's magical, in all the right ways.", "is_fresh": 1, "author": ["Marshall Fine"]},
{"text": "This is prime Woody Allen -- insightful, philosophical and very funny.", "is_fresh": 1, "author": ["Keith Uhlich"]},
{"text": "In a film so ripe with temptations for posturing, exaggeration and satirical overacting, nobody is anything less than natural, unpretentious and funny as hell.", "is_fresh": 1, "author": ["Rex Reed"]},
{"text": "Enjoyable and funny and lovely to look at, not all we could ask from Allen, but the kind of fanciful and well-acted movie he still does better than anybody. ", "is_fresh": 1, "author": ["Katey Rich"]},
{"text": "A deceptively light time-travel romance, Midnight in Paris uses fairy-tale devices as a way to get to the filmmaker's familiar, real-life-sourced themes.", "is_fresh": 1, "author": ["Karina Longworth"]},
{"text": "Woody Allen's Parisian fantasia time-travels around the City of Light with great fun and affection. It hasn't the depth (or heart) of Manhattan, but it's a delirious ride.", "is_fresh": 1, "author": ["Harry Haun"]},
{"text": "Woody Allen has found the right time and the right place with \"Midnight in Paris,\" his lightest, funniest and most-satisfying movie in a long time.", "is_fresh": 1, "author": ["David Germain"]},
{"text": "Rather surprisingly... Midnight is an absolutely terrific film, fleet and brisk and as charming as it wants to be.", "is_fresh": 1, "author": ["Glenn Kenny"]},
{"text": "Has a beauty, a frothiness and a wink-wink sense of humor that's enlivening.", "is_fresh": 1, "author": ["Nick Schager"]},
{"text": "With Midnight in Paris, Allen may convince even those who have given up on him that there's life in the old dog yet.", "is_fresh": 1, "author": ["Stephen Applebaum"]},
{"text": "This supernatural comedy isn't just Allen's best film in more than a decade; it's the only one that manages to rise above its tidy parable structure and be easy, graceful, and glancingly funny, as if buoyed by its befuddled hero's enchantment.", "is_fresh": 1, "author": ["David Edelstein"]},
{"text": "A witty and whimsical big screen Bon Voyage, with the director's guy Cinderella body double geek on board. As Woody time travel meets tourist traps, and flying coach to Paris with head in the clouds, turns into eventual pumpkins for all. ", "is_fresh": 1, "author": ["Prairie Miller"]},
{"text": "Woody Allen's latest film is a pleasant, if very undercharged affair, which unashamedly basks in every last clich\u00e9 about Paris as a city of artists, intellectuals, gourmands and lovers.", "is_fresh": 1, "author": ["Geoffrey Macnab"]},
{"text": "Woody Allen's time-travelling comedy Midnight In Paris is a valentine to Paris and an absolute delight.", "is_fresh": 1, "author": ["Pete Hammond"]},
{"text": "Midnight in Paris is a welcome addition to the Allen oeuvre, an affectionate love letter to France that'll leave you grinning at its silliness and sweetness from ear to ear.", "is_fresh": 1, "author": ["Simon Reynolds"]},
{"text": "Allen seems to be paying attention in a way he hasn't always done in recent films, and has found a way to channel his often-caustic misanthropy, half-comic fear of death and anti-American bitterness into agreeable comic whimsy.", "is_fresh": 1, "author": ["Andrew O'Hehir"]},
{"text": "Pure Woody Allen. Which is not to say great or even good Woody, but a distillation of the filmmaker's passions and crotchets, and of his tendency to pass draconian judgment on characters the audience is not supposed to like.", "is_fresh": 0, "author": ["Richard Corliss"]},
{"text": "Midnight in Paris is Allen's strongest movie in at least 10 years, a fantasy about delusion rather than a deluded fantasy itself, but it's no masterwork.", "is_fresh": 1, "author": ["Ed Gonzalez"]},
{"text": "Maybe if I paid more attention in high school English I'd get it.", "is_fresh": 0, "author": ["Fred Topel"]},
{"text": "Woody Allen's latest venture takes him into new territory and moving locations has inspired him to deliver one of his strongest premises in years.", "is_fresh": 1, "author": ["Edward Douglas"]},
{"text": "A comic gem with an exquisitely photographed Paris forming an elegant backdrop.", "is_fresh": 1, "author": ["Harvey S. Karten"]},
{"text": "Midnight It Paris is an amusing and elegantly constructed love letter to Paris, rich on romance, humour and culture and driven by a nicely pitched performance by Owen Wilson as a would-be writer in-love with the city and its cultural past.", "is_fresh": 1, "author": ["Mark Adams"]},
{"text": "Like a swoony lost chapter from Paris, je t'aime agreeably extended to feature length.", "is_fresh": 1, "author": ["Peter Debruge"]},
{"text": "Woody's in good form and Paris looks glorious in this droll time-traveling fantasy.", "is_fresh": 1, "author": ["Todd McCarthy"]},
{"text": "The narrative trajectory of Midnight in Paris may be one-note, but it's a lovely and charming one that directly contrasts with Allen's recent studies of human frigidity. ", "is_fresh": 1, "author": ["Glenn Heath Jr."]},
{"text": "Fresh and fast-moving, light but deeply-felt, a work of charm, imagination, and even surprise.", "is_fresh": 1, "author": ["Jon Frosch"]},
{"text": "It's far too ponderous. Still, it's not wholly terrible, and that's not something you can say about Allen's films very often these days.", "is_fresh": 0, "author": ["Sukhdev Sandhu"]},
{"text": "As cinematic froth, Midnight in Paris passes the time prettily enough. But neither its characters nor its sense of place really stands up in the light of day.", "is_fresh": 0, "author": ["Nick Roddick"]},
{"text": "For my money, the best Allen movie in 10 years, or maybe even close to 20...", "is_fresh": 1, "author": ["Stephanie Zacharek"]},
{"text": "Light and gimmicky, self-reflexive and shallow, Allen's time-travel romantic comedy is an amusing, occasionally witty love letter to Paris the city and the myth.", "is_fresh": 1, "author": ["Emanuel Levy"]},
{"text": "... as second-tier Allen goes, it is a lovely reminder of just how effortless he can make it all seem.", "is_fresh": 1, "author": ["Drew McWeeny"]},
{"text": "Sporadically entertaining, light, shallow, self-plagiarising.", "is_fresh": 1, "author": ["Peter Bradshaw"]},
{"text": "Sweet, sentimental, and vibrant, Woody Allen's \"Midnight in Paris\" rightfully points out that yesterday's frolicking bar might be today's laundry mat ... but we can always visit the good times in our memories.", "is_fresh": 1, "author": ["Laremy Legel"]}
]