[
{"reviews_count": "247", "title": "Minority Report", "avg_audience_rating": "3.4", "rotten_count": "23", "tomatometer": "91", "audience_score": "80", "avg_critic_rating": "8.1", "fresh_count": "224", "user_ratings_count": "480,981"},
{"text": "By turning Dick's ironic little story into a gargantuan thriller celebrating free choice, Spielberg has been true to his character: He's transformed something dark and scary into something softer and more comfortable.", "is_fresh": 1, "author": ["John Powers"]},
{"text": "If less poetic than AI, Minority Report is much more confidently directed, with a firmer sense of its maker's own urge to entertain and stimulate rather than bemuse.", "is_fresh": 1, "author": ["Alexander Walker"]},
{"text": "Even if he belabors the ending and can't resist tempering the darkness with a strained ray of hopefulness, Minority Report is a document that proves Spielberg among the top ranks in a minority of film geniuses.", "is_fresh": 1, "author": ["Dennis King"]},
{"text": "The worst thing about the new Steven Spielberg picture is the title, Minority Report. The best thing about it is pretty much everything else.", "is_fresh": 1, "author": ["Anthony Lane"]},
{"text": "This is a grown-up movie by men who've suddenly realised that their inner Peter Pans have deserted them.", "is_fresh": 1, "author": []},
{"text": "Too much of Minority Report is facile, albeit at a very high level.", "is_fresh": 0, "author": ["Michael Sragow"]},
{"text": "Though his movie wraps challenging ideas and ingenious visual conceits in a futurist film-noir style, it's pretentious, didactic and intentionally but mercilessly bleak.", "is_fresh": 0, "author": ["Joe Morgenstern"]},
{"text": "This masterfully sleek vision of the future from director Steven Spielberg is an awesome mix of skewed science fiction, twisty Hitchcock-style thrills, stunning blue-grey tinged photography and outstanding design.", "is_fresh": 1, "author": ["Alan Jones"]},
{"text": "[Minority Report] takes themes from Blade Runner, Total Recall and especially the little seen Gary Fleder-directed Impostor and stirs them up into an absorbing thriller.", "is_fresh": 1, "author": ["Mike Goodridge"]},
{"text": "High-concept science-fiction escapades often try to impose new ways of seeing, but Spielberg seems intent on blistering our optic nerves.", "is_fresh": 0, "author": ["Peter Rainer"]},
{"text": "For its stunning visuals and standout performances, Minority Report -- or at least the first three-fourths of it -- might just be the best movie so far this year.", "is_fresh": 1, "author": ["Christy Lemire"]},
{"text": "The movie's combination of old and new influences energizes its believable futuristic elements.", "is_fresh": 1, "author": ["Cole Smithey"]},
{"text": "Not simply Steven Spielberg's most prescient sci-fi work but also one of his finest.", "is_fresh": 1, "author": ["Nick Schager"]},
{"text": "Violent sci-fi detective movie isn't for kids.", "is_fresh": 1, "author": ["Nell Minow"]},
{"text": "Vigorously entertaining and tremendously weird, \"Minority Report\" feels like a vintage Action Comics adventure spiked with acid. It's an uncommonly melancholy blockbuster about demons ruthlessly determining our fate even as we relentlessly flee them.", "is_fresh": 1, "author": ["Nick Rogers"]},
{"text": "Ferociously intense, furiously kinetic, it's expressionist film noir science fiction that, like all good sci-fi, peers into the future to shed light on the present.", "is_fresh": 1, "author": ["David Ansen"]},
{"text": "One of the few films I've seen so far this year that I would recommend and it is one to see on the big screen.", "is_fresh": 1, "author": ["Garth Franklin"]},
{"text": "While the way in which Minority Report presents these ideas makes them far more incredible and fantastical, it's their truth...that turns the film into something far more dark and sinister.", "is_fresh": 1, "author": ["Bill Gibron"]},
{"text": "...a stylish, thoughtful, and thought-provoking future-noir thriller.", "is_fresh": 1, "author": ["John J. Puccio"]},
{"text": "This has to be one of Spielberg's best ever...", "is_fresh": 1, "author": ["Felix Vasquez Jr."]},
{"text": "The most fun a Spielberg film has been for a long while.", "is_fresh": 1, "author": ["Daniel Etherington"]},
{"text": "The most exciting piece of work Spielberg has delivered in ages.", "is_fresh": 1, "author": ["Rob Gonsalves"]},
{"text": "Brilliantly realised, complex and humane, Minority Report is easily on a par with Blade Runner as one of the best adaptations of Philip K Dick's work ever made.", "is_fresh": 1, "author": ["Jennie Kermode"]},
{"text": "It is exciting to watch a director who is in such complete control of storytelling and vision.", "is_fresh": 1, "author": ["Joe Lozito"]},
{"text": "A highly effective thriller whose futuristic panoramas rival those of A.I. Artificial Intelligence.", "is_fresh": 1, "author": ["J. R. Jones"]},
{"text": "Hugely ambitious and wildly successful in parts, only a tricky third act trips up a master director clearly enjoying himself in virgin territory. Nonetheless this stands as the best future noir since Blade Runner.", "is_fresh": 1, "author": ["Colin Kennedy"]},
{"text": "The fashionably fussy, funky veneer may convince some that the film's serious, but it's finally another chase pic, murky in detail, muddled in ideology and strangely predictable in dramatic thrust.", "is_fresh": 0, "author": ["Geoff Andrew"]},
{"text": "Despite its moldy story twists, this Steven Spielberg spectacular ranks as the best thing he's done since the Indiana Jones films...", "is_fresh": 1, "author": ["Jeffrey M. Anderson"]},
{"text": "If you enjoyed Cruise's Mission: Impossible, multiply it by five!", "is_fresh": 1, "author": ["Clint Morris"]},
{"text": "The movie's ponderousness is relieved only by Samantha Morton's uncanny portrayal of the psychic Agatha and by Lois Smith's turn as Dr. Hineman...", "is_fresh": 0, "author": ["Stuart Klawans"]},
{"text": "Minority Report is Spielberg's visual masterpiece.", "is_fresh": 1, "author": ["Jeffrey Overstreet"]},
{"text": "Never gains enough momentum to get into fifth and out of Cruise control.", "is_fresh": 1, "author": ["Mark Sells"]},
{"text": "Tom cruise plays a fine flawed hero glossed to perfection by a director who knows how to treat his cast to their matinee idol advantage.", "is_fresh": 1, "author": ["Jordan Hiller"]},
{"text": "Lacking a consistent view of his source material, Spielberg pulls out all the stops by attempting to roll three wildly different genres -- action-adventure, psychological thriller, and futuristic tone poem -- into one film.", "is_fresh": 0, "author": ["Amy Taubin"]},
{"text": "There is much to praise here, as Spielberg's onscreen technical wizardry represents, in many ways, the apex of this art form. He seamlessly blends CGI and live action in a series of action sequences that are among the best he has ever filmed.", "is_fresh": 1, "author": ["Dan Jardine"]},
{"text": "Minority Report is a film for the critical cognoscenti as much as it is for the Goober-munching masses, and succeeds for all audiences.", "is_fresh": 1, "author": ["Todd Gilchrist"]},
{"text": "Amazingly, Spielberg... has managed to suppress his own worst excesses and create a movie that does justice to Dick's ideas.", "is_fresh": 1, "author": ["Daniel M. Kimmel"]},
{"text": "The first two thirds of the flick are astounding...but that last half hour or so is completely and utterly superfluous.", "is_fresh": 1, "author": ["David Nusair"]},
{"text": "O roteiro inteligente e a dire\u00e7\u00e3o en\u00e9rgica transformam o filme em uma obra intensa, ambiciosa e surpreendente. Os \u00fanicos equ\u00edvocos dizem respeito ao excesso de al\u00edvios c\u00f4micos e ao for\u00e7ado final, mas s\u00f3.", "is_fresh": 1, "author": ["Pablo Villa\u00e7a"]},
{"text": "Spielberg fuses his ability to create astounding images to thought-provoking material...", "is_fresh": 1, "author": ["Susan Tavernetti"]},
{"text": "Spielberg [seems to] tack on a happy ending to every film lately, as if he wants to apologize for making a film that was so dark and dystopian for the previous 90 minutes.", "is_fresh": 1, "author": ["Brian Mckay"]},
{"text": "Spielberg, working with futurists who speculated about how we'll live in 50 years, comes up with a considerable amount of eye candy that also adds heft and believability to his story.", "is_fresh": 1, "author": ["Matt Soergel"]},
{"text": "Minority Report adds yet another jewel to director Spielberg's crown, and another entry to the short list of truly thoughtful and intelligent films in the futuristic science fiction genre.", "is_fresh": 1, "author": ["John R. McEwen"]},
{"text": "A twisting thriller that brings Spielberg back into fine form.", "is_fresh": 1, "author": ["Wesley Lovell"]},
{"text": "During the movie my mouth dropped to the floor in shock at what I was seeing: Steven Spielberg playing again....finally.", "is_fresh": 1, "author": ["Blake Davis"]},
{"text": "The action is fun, but the more you think about it, the slighter it feels and the more holes show.", "is_fresh": 0, "author": ["Mark Robison"]},
{"text": "Visually stunning and imaginative, this otherwise generic cop drama totally drops the ball when it comes to its most interesting and unique aspects of free will vs. pre-determination.", "is_fresh": 0, "author": ["Andrew Manning"]},
{"text": "Spielberg apparently can't resist throwing in a cheerful, make-em-weep ending, which pretty much ruins the movie.", "is_fresh": 0, "author": ["Matt Easterbrook"]},
{"text": "A memorable futuristic thriller that will leave viewers wanting to see it again and again.", "is_fresh": 1, "author": ["Terri Clark"]},
{"text": "Minority Report is proof that a real science fiction can still be made in Hollywood.", "is_fresh": 1, "author": ["KJB"]},
{"text": "Enjoy the first two hours of Minority Report and then prepare for what may be a disappointing wrap-up.", "is_fresh": 1, "author": ["Rebecca Murray"]},
{"text": "Perhaps not the best possible marriage between entertainment and serious content, but it nevertheless represents step in good direction for Spielberg.", "is_fresh": 1, "author": ["Dragan Antulov"]},
{"text": "Top-notch summer entertainment.", "is_fresh": 1, "author": ["Michael Dequina"]},
{"text": "Spielberg's fable of crime and punishment in tomorrowland is imperfect but still impressive.", "is_fresh": 1, "author": ["James Rocchi"]},
{"text": "This is an intelligent, immensely enjoyable sci-fi thriller that's head and shoulders above the usual summer blockbuster nonsense.", "is_fresh": 1, "author": ["Matthew Turner"]},
{"text": "Making good on the best aspects of A.I., namely that stark and singular look of a future dominated but not quite overwhelmed by technology, Spielberg creates a stunning world where the past and present collide.", "is_fresh": 1, "author": ["Rachel Deahl"]},
{"text": "Smart, ambitious, fast and fascinating, Minority Report is a movie to restore your faith in Hollywood.", "is_fresh": 1, "author": ["Margaret A. McGurk"]},
{"text": "Minority Report is undeniably a visual feast. There's so much eye candy to digest, so many little details to drink in.", "is_fresh": 1, "author": ["Jason Solomons"]},
{"text": "Cruise and Spielberg did the right thing\u0097not just the commercial thing \u0097in merging their talents. Minority Report is extraordinary.", "is_fresh": 1, "author": ["D.K. Holm"]},
{"text": "I too have seen the future and Minority Report is going to be the best science fiction movie of 2002 . . .", "is_fresh": 1, "author": ["James O'Ehley"]},
{"text": "Steven Spielberg brings us another masterpiece", "is_fresh": 1, "author": ["Stefan Birgir Stefansson"]},
{"text": "Impactante, espectacular e inteligente. Sentencia Previa es la mejor pel\u00edcula en lo que va del a\u00f1o. Un nuevo cl\u00e1sico del g\u00e9nero.", "is_fresh": 1, "author": ["Jorge Avila Andrade"]},
{"text": "Wraps a detective thriller and a paranoid Orwellian future into a metaphor for the submissive act of viewing film.", "is_fresh": 1, "author": ["Mark Palermo"]},
{"text": "Minority Report embraces rather than avoids its fundamental paradox: 'It's not the future if it didn't happen.'", "is_fresh": 1, "author": ["Jon Niccum"]},
{"text": "Minority Report is exactly what the title indicates, a report.", "is_fresh": 0, "author": ["Joshua Tyler"]},
{"text": "The director creates a vision of the future that's richly detailed and fascinating.", "is_fresh": 1, "author": ["Robert Denerstein"]},
{"text": "Minority Report is ultimately more of a popcorn flick than a debate movie, but it's a spellbinding film nonetheless.", "is_fresh": 1, "author": ["Ben Kenigsberg"]},
{"text": "The entertainment value in this entire escapade is as much the design and detail of a future world as it is in the immersion of good actors into the dramatic folds of the dark and sometimes confusing storyline.", "is_fresh": 1, "author": ["Jules Brenner"]},
{"text": "Un monumento a la Ciencia Ficci\u00f3n; una joya influenciada por cl\u00e1sicos como Blade Runner y una profunda admiraci\u00f3n por el film noir; Minority Report brilla en la pantalla.", "is_fresh": 1, "author": ["Luis Martinez"]},
{"text": "A very good film for all of its running time, fascinating for most of it and visionary for some of it.", "is_fresh": 1, "author": ["Eugene Novikov"]},
{"text": "...one of those rare movies with commercial aspirations that invites and even rewards thought.", "is_fresh": 1, "author": ["Philip Martin"]},
{"text": "Spielberg's most unpleasant and derivative film, a nasty, tired, predictable affair that makes Hook look comparable to Schindler's List.", "is_fresh": 0, "author": ["Chuck Rudolph"]},
{"text": "Cruise brings just the right shading of depth to his performance. He allows glimpses into Anderton's emotions but doesn't forget that, when all is said and done, this is an action movie.", "is_fresh": 1, "author": ["Jeff Strickler"]},
{"text": "Terrific action sequences, seamless special effects, devilishly underhanded humor, and an excellent supporting cast.", "is_fresh": 1, "author": ["Shay Casey"]},
{"text": "There are flaws, but also stretches of impact and moments of awe; we're wrapped up in the characters, how they make their choices, and why.", "is_fresh": 1, "author": ["Ian Waldron-Mantgani"]},
{"text": "The overall experience of this film is a powerful one.", "is_fresh": 1, "author": ["Marshall Fine"]},
{"text": "Great action sequences follow, of a type Spielberg has not done since the \"Indiana Jones\" series - fast paced while also a bit tongue-in-cheek and even morbid.", "is_fresh": 1, "author": ["Josh Gilchrist"]},
{"text": "If Steven Spielberg is the heart of Minority Report, Tom Cruise is the muscle, Philip K. Dick is the brain and Stanley Kubrick is the spirit hanging over them.", "is_fresh": 1, "author": ["Gina Carbone"]},
{"text": "Packed to the gills with juicy movie ingredients.", "is_fresh": 1, "author": ["Jeffrey Chen"]},
{"text": "My own minority report is that it stinks.", "is_fresh": 0, "author": ["Andrew Sarris"]},
{"text": "A fantastically confident and exhilarating thrill-ride into the future which far more satisfactorily combines Kubrick's chilly sense of the alienating and the bizarre with Spielberg's own mastery of sugar-rush suspense tactics.", "is_fresh": 1, "author": ["Peter Bradshaw"]},
{"text": "Final Report: Good, yes; great, no.", "is_fresh": 1, "author": ["Peter Travers"]},
{"text": "An accomplished genre flick.", "is_fresh": 1, "author": ["Kim Linekin"]},
{"text": "Spielberg is back on track with one of the best sci-fi films to come along in quite some time.", "is_fresh": 1, "author": ["Paul Salfen"]},
{"text": "Minority Report gets an 'A.'", "is_fresh": 1, "author": ["Kamal 'The Diva' Larsuel"]},
{"text": "Spielberg has managed to marry science fiction with film noir and action flicks with philosophical inquiry.", "is_fresh": 1, "author": ["Jeet Thayil"]},
{"text": "It's simply wonderful to see Spielberg in charge of a tightly wound popcorn movie again, though in his words Report is more 'gourmet popcorn.'", "is_fresh": 1, "author": ["Brian Orndorf"]},
{"text": "The most detailed creation of a future society since Blade Runner.", "is_fresh": 1, "author": ["Mark R. Leeper"]},
{"text": "Minority Report makes The Matrix look tame. This is big studio, commercial filmmaking at its best.", "is_fresh": 1, "author": ["Leah Rozen"]},
{"text": "Shallow, noisy and pretentious.", "is_fresh": 0, "author": ["Rex Reed"]},
{"text": "The action sequences are first-rate summer fare, and the art direction is superb.", "is_fresh": 1, "author": ["Jim Chastain"]},
{"text": "Much of Minority Report is inspired, but the movie is also packed with oddball, overdone acting, the occasional clunker cliche and the feeling that Spielberg couldn't leave well enough alone.", "is_fresh": 0, "author": ["Jami Bernard"]},
{"text": "a thinking person's action flick that grips you on the basic popcorn level but also leaves you with something to think about in the end", "is_fresh": 1, "author": ["James Kendrick"]},
{"text": "This is a great film. I can think of only one flaw, although the passage of time or subsequent viewings might bring up more.", "is_fresh": 1, "author": ["Michael W. Phillips, Jr."]},
{"text": "Where George Lucas' characters are geeky, Spielberg's are freaky, where Lucas offers fantasy, Spielberg offers flesh, where Lucas makes you wonder, Spielberg makes you ponder.", "is_fresh": 1, "author": ["Bruce Bennett"]},
{"text": "Not only is it Spielberg's best, but it could have been one of Kubrick's as well.", "is_fresh": 1, "author": ["Peter Keough"]},
{"text": "Unlike other summer fantasy entertainments, Minority Report offers no escape from thought -- just what the majority of movies ought to be doing.", "is_fresh": 1, "author": ["Kevin Lally"]},
{"text": "the most interesting, successful, and basically honest work this director has done for a long, long time.", "is_fresh": 1, "author": ["Mark Freeman"]},
{"text": "Likely to be remembered alongside Blade Runner as one of the most influential and stunning pieces of science fiction to open up the imagination of audiences everywhere.", "is_fresh": 1, "author": ["Erik Childress"]},
{"text": "It has more substance than most Spielberg films and definitely more of an edge. Looks like the director's kid gloves are off. This is a good thing.", "is_fresh": 1, "author": ["Cory Cheney"]},
{"text": "This excellent film, following the beautiful and under appreciated AI: Artificial Intelligence, establishes Spielberg as the current master of the genre.", "is_fresh": 1, "author": ["Bob Grimm"]},
{"text": "Spielberg has not just infused the movie with action and intelligence, but with grace and elegance as well...one of the best sci-fi movies ever!", "is_fresh": 1, "author": ["Mike McGranaghan"]},
{"text": "This is so markedly superior to almost everything else that's been in theaters over the past several months, it reduces the competition to also-ran status.", "is_fresh": 1, "author": ["Matt Brunson"]},
{"text": "Director Steven Spielberg proves he's more than just a big name; he actually is a top-notch director.", "is_fresh": 1, "author": ["Marty Mapes"]},
{"text": "An occasionally breathtaking work of uncommon vision, beauty and insight.", "is_fresh": 1, "author": ["Bryant Frazer"]},
{"text": "That Spielberg has crafted a deliberately unpleasant film with a strong moral, but no real emotional center, is the price you pay when a filmmaker takes the risk of trying something very different.", "is_fresh": 1, "author": ["Ken Hanke"]},
{"text": "'As dark and delightful as an iced espresso.'", "is_fresh": 1, "author": ["Paul Arendt"]},
{"text": "It is one of the few summer films that has lived up to its own hype.", "is_fresh": 1, "author": ["Robert Roten"]},
{"text": "What Stanley Kubrick might think of John Ashcroft's Justice Department.", "is_fresh": 1, "author": ["Stephen Himes"]},
{"text": "A movie of haunting images and mindless thrills.", "is_fresh": 1, "author": ["J. Hoberman"]},
{"text": "Quite possibly [Spielberg's] darkest, coldest, most socially pertinent, subversive, and reactionary film to date.", "is_fresh": 1, "author": ["Mark Dujsik"]},
{"text": "This is Spielberg at work with a wry sense of humor.", "is_fresh": 1, "author": ["Marie Asner"]},
{"text": "The film's futuristic vision is dazzling yet remains unnervingly dark, wowing the eyes whilst challenging the mind.", "is_fresh": 1, "author": ["Laura Bushell"]},
{"text": "Any Orwellian cautionary tale will fall upon more ears if Spielberg delivers the goods for the popcorn crowd in a tidily concluded package - but those ears will be deaf ones.'", "is_fresh": 1, "author": ["Jonathan R. Perry"]},
{"text": "Fairly similar to A.I. -- filled with provocative ideas and technically flawless, but somewhat disjointed.", "is_fresh": 1, "author": ["Paul Clinton (Boxoffice)"]},
{"text": "A powerful and entertaining story.", "is_fresh": 1, "author": ["Tony Toscano"]},
{"text": "Nothing short of a masterpiece, breathlessly suspenseful, dazzlingly exciting, subversively profound, and punctuated with just the right flashes of light and dark humor.", "is_fresh": 1, "author": ["Jim Lane"]},
{"text": "Spielberg is a great storyteller, but when he starts pontificating by trying to throw meaning into his movies, he just comes off pretentious. Unlike A.I., in Minority Report he sticks to the plot and the action.", "is_fresh": 1, "author": ["Scott Nash"]},
{"text": "Minority Report is the action film Kubrick never made. While at times amusing, it is truly a horrifying and fascinating piece of art. This is not only a document of our future, but a film for the future.", "is_fresh": 1, "author": ["Jimmy O"]},
{"text": "... director Steven Spielberg once again presents a glimpse of the future while Tom Cruise redeems himself along the way for 'Vanilla Sky'.", "is_fresh": 1, "author": ["Kevin A. Ranson"]},
{"text": "Spielberg is like a father who tells his kids scary bedtime stories but can't bear it if they have nightmares.", "is_fresh": 0, "author": ["Nathaniel Rogers"]},
{"text": "It's not the crowning achievement in Steven Spielberg's oeuvre, but Minority Report stands on its own sturdy sci-fi legs.", "is_fresh": 1, "author": ["Marc Savlov"]},
{"text": "Mainstream films don't get any better than this one.", "is_fresh": 1, "author": ["Dennis Schwartz"]},
{"text": "Cold, unmoving, and desperately in need of a beating heart and a soaring soul, Minority Report is one of the most depressing disappointments of the year.", "is_fresh": 0, "author": ["Dustin Putman"]},
{"text": "Minority Report is the best sci-fi film since Blade Runner.", "is_fresh": 1, "author": ["Laura Clifford"]},
{"text": "Steven Spielberg has given us so much to think about and gone about it in an entertaining way. Don't miss this film.", "is_fresh": 1, "author": ["Gary Brown"]},
{"text": "The film dissolves into a predictable who-dunit, but as a movie of ideas -- religion! technology! free will! -- it's ambitious and breathtaking. Great toys, too: robot spiders and magnetic cars. ", "is_fresh": 1, "author": ["Katrina Onstad"]},
{"text": "While it strays from Dick's narrative, it nails the basic premise and some quintessential Dickian motifs.", "is_fresh": 1, "author": ["David Edelstein"]},
{"text": "Minority Report is seemingly structured as a very liberal attack on the orderly disorder of our own judicial system.", "is_fresh": 1, "author": ["Ed Gonzalez"]},
{"text": "Minority Report aspires to more than mere mindlessness, but fails miserably, and as a result crystallizes nearly everything that I dislike about Spielberg's films.", "is_fresh": 0, "author": ["Jeremy Heilman"]},
{"text": "...a sea of fresh ideas and approaches, expertly crafted not just to keep the audience engaged, but to nourish their senses in the process.", "is_fresh": 1, "author": ["David Keyes"]},
{"text": "Smart science fiction for grown-ups, with only a few false steps along the way.", "is_fresh": 1, "author": ["Brian Webster"]},
{"text": "An amazing picture with both the excitement of the \"Indiana Jones\" trilogy and the thought-provoking vision of \"Close Encounters of the Third Kind\".", "is_fresh": 1, "author": ["Kevin N. Laforest"]},
{"text": "Offers generous servings of food for thought along with breakneck excitement and eye-popping special effects.", "is_fresh": 1, "author": ["Joe Leydon"]},
{"text": "If it loses in the inevitable comparison to Blade Runner, it does establish a world of chilling risk, in which the main murder victim is privacy.", "is_fresh": 1, "author": ["David Elliott"]},
{"text": "A classy, chilly quasi-Hitchcockian affair.", "is_fresh": 1, "author": ["Desson Thomson"]},
{"text": "Steven Spielberg creates a ghastly, frightening world in Minority Report, a world light -- or, rather, dark -- years away from the honeyed allegories and adventures he made earlier in his career.", "is_fresh": 1, "author": ["Ann Hornaday"]},
{"text": "As with A.I., Spielberg's admirable intent is to create a prescient, serious science-fiction movie. But neither A.I. nor this film comes close.", "is_fresh": 0, "author": ["Frank Lovece"]},
{"text": "The most intelligently fun movie Spielberg has ever made.", "is_fresh": 1, "author": ["Geoff Pevere"]},
{"text": "Intelligent, exciting, funny and emotionally involving, Minority Report shows you can have your popcorn and eat it, too.", "is_fresh": 1, "author": ["Chris Hewitt (St. Paul)"]},
{"text": "Say hello to the new-millennial Steven Spielberg of Minority Report. For the second consecutive movie the uber-director infuses artsy sci-fi with macabre humor and sociological pretension.", "is_fresh": 1, "author": ["Todd Anthony"]},
{"text": "Minority Report won't go down as one of Spielberg's greatest films -- there are a few gaping holes in the plot, and some awkward attempts at humor. But it's a wonderfully chilly thrill ride while it lasts.", "is_fresh": 1, "author": ["Moira MacDonald"]},
{"text": "While not perfect, this sci-fi flick and its various scenes and sequences are likely to grow on viewers hours or days after seeing them, which is always a good sign.", "is_fresh": 1, "author": ["Jim Judy"]},
{"text": "This is the kind of pure entertainment that, in its fullness and generosity, feels almost classic.", "is_fresh": 1, "author": ["Mick LaSalle"]},
{"text": "Steven Spielberg outdoes himself with a vivid, troubling depiction of a futuristic society where lawlessness, of all things, has become the latest form of pollution.", "is_fresh": 1, "author": ["Joe Baltake"]},
{"text": "The story is undeniably engrossing, thanks in part to Cruise's strong performance as an emotionally scarred protagonist fighting for his life.", "is_fresh": 1, "author": ["Jack Garner"]},
{"text": "The two main women in this film make the Pre-Crime Unit possible, but don't benefit themselves. Guess the future isn't that much different. The guys are still having all the fun, while the girls either make that possible or sit by and watch.", "is_fresh": 0, "author": ["Luanne Brown"]},
{"text": "While the film, deftly imagined by screenwriters Scott Frank and Jon Cohen, doesn't entirely hold together, its dark, twisty chases and tricky puzzles have much more going for them than Spielberg's last foray onto similar turf.", "is_fresh": 1, "author": ["Steven Rea"]},
{"text": "Spielberg is the rare director who does not want to invite viewers to gawk at or applaud his special effects. He just wants them to be part of the action, the wallpaper of his chosen reality. Here, thankfully, they are.", "is_fresh": 1, "author": ["Gary Thompson"]},
{"text": "Spielberg's visual imagination has never been more splendid.", "is_fresh": 1, "author": ["Jay Boyar"]},
{"text": "Strong on atmospherics and ideas but dissolves into a series of routine, plot-heavy endings.", "is_fresh": 1, "author": ["Shawn Levy"]},
{"text": "A fast-moving, entertaining, thought-provoking film that leaves you feeling vaguely empty because it might have been a classic.", "is_fresh": 1, "author": ["John Anderson"]},
{"text": "The result is uneven, particularly as a thriller, but with flashes of brilliance.", "is_fresh": 1, "author": ["Duane Dudek"]},
{"text": "As thought-provoking and visionary as it is flat-out entertaining.", "is_fresh": 1, "author": ["Eric D. Snider"]},
{"text": "The movie is a joy to watch.", "is_fresh": 1, "author": ["Rene Rodriguez"]},
{"text": "You can think and have fun.", "is_fresh": 1, "author": ["Robert W. Butler"]},
{"text": "A fast, dark and entirely engrossing movie that ... doesn't quite add up. Never mind. It's a trip just to look at the thing.", "is_fresh": 1, "author": ["Liz Braun"]},
{"text": "Minority Report is the perfect balance between the work of Stanley Kubrick's vision and Steven Spielberg's own vision of film storytelling.", "is_fresh": 1, "author": ["David Poland"]},
{"text": "The film reaches toward greatness but fails because it is too perfect a projection of its creator. Nevertheless, we should celebrate it, because this makes it -- flaws and all -- more valuable than 1,000 soulless, committee-hatched flicks.", "is_fresh": 1, "author": ["Eric Harrison"]},
{"text": "Cold and scattered, Minority Report commands interest almost solely as an exercise in gorgeous visuals. That's not vintage Spielberg and that, finally, is minimally satisfying.", "is_fresh": 0, "author": ["Susan Stark"]},
{"text": "Minority Report isn't Spielberg's best film by a long laser shot. But it may be an even bolder statement than his mostly brilliant yet roundly rejected A.I. Artificial Intelligence.", "is_fresh": 1, "author": ["Terry Lawson"]},
{"text": "The result is somewhat satisfying -- it still comes from Spielberg, who has never made anything that wasn't at least watchable. But it's also disappointing to a certain degree.", "is_fresh": 1, "author": ["Jeff Vice"]},
{"text": "Spielberg's realization of a near-future America is masterful. This makes Minority Report necessary viewing for sci-fi fans, as the film has some of the best special effects ever.", "is_fresh": 1, "author": ["Steven Rosen"]},
{"text": "Thrilling, provocative and darkly funny, this timely sci-fi mystery works on so many different levels that it not only invites, it demands repeated viewings.", "is_fresh": 1, "author": ["Glenn Whipp"]},
{"text": "Spielberg remains under Stanley Kubrick's directorial spell, but Report has almost none of the mawkishness that crippled the last fourth of A.I.", "is_fresh": 1, "author": ["Lawrence Toppman"]},
{"text": "Cruise will never be a master thespian, but there's no one better at putting across the charisma of control, and the opening sequence of Report is an astonishingly fluid demonstration of his gifts.", "is_fresh": 1, "author": ["Ty Burr"]},
{"text": "The effort is less surprising than the impressive and often spectacular way in which it succeeds. ", "is_fresh": 1, "author": ["Rob Vaux"]},
{"text": "Spielberg has managed to pick from all his best attributes as a director and combined them to make this roller coaster ride through a fantastically detailed future world.", "is_fresh": 1, "author": ["John Oliver"]},
{"text": "Despite minor weaknesses, \"Minority Report\" is the work of an inspired director, and is definitely deserving of a complete and thorough investigation by viewers.", "is_fresh": 1, "author": ["Vanessa Sibbald"]},
{"text": "Minority Report is more humdrum than horrible. It isn't futuristic film noir; it's just everyday film beige.", "is_fresh": 0, "author": ["Rick Groen"]},
{"text": "An entertaining yet challenging blend of action, social commentary, some uneasy comic moments and a fascinating, plausible extrapolation of the way we might be living 50 years hence.", "is_fresh": 1, "author": ["Ron Weiskind"]},
{"text": "A terrifically entertaining specimen of Spielbergian sci-fi.", "is_fresh": 1, "author": ["Ella Taylor"]},
{"text": "The plot is captivating and the story is solid; unfortunately, Spielberg wields the philosophical subtext with such a heavy hand that it feels as if you've been beaten over the head with it.", "is_fresh": 1, "author": ["Leigh Johnson"]},
{"text": "This film is such a virtuoso high-wire act, daring so much, achieving it with such grace and skill.", "is_fresh": 1, "author": ["Roger Ebert"]},
{"text": "Minority Report is major entertainment and truly mesmerizing science fiction! This may be...Tom Cruise's finest role.", "is_fresh": 1, "author": ["Emily Blunt"]},
{"text": "A heart-pounding experience that makes you think and contains a gallery of characters that will haunt your nightmares for years to come.", "is_fresh": 1, "author": ["Lou Lumenick"]},
{"text": "It's hard to imagine wanting anything more -- even from a Cruise-Spielberg matchup.", "is_fresh": 1, "author": ["Mike Clark"]},
{"text": "Definitively ambitious, aggressively affected and strangely affecting...", "is_fresh": 1, "author": ["Cynthia Fuchs"]},
{"text": "Spielberg's picture is smarter and subtler than [Total Recall and Blade Runner], although its plot may prove too convoluted for fun-seeking summer audiences.", "is_fresh": 1, "author": ["David Sterritt"]},
{"text": "The Minority Report card gets a solid 'A' for top-notch movie escapism, amazingly tense and kick-ass action scenes.", "is_fresh": 1, "author": []},
{"text": "Spielberg conveys adult vulnerability in our over-saturated information age. Minority Report is a futuristic adventure with a humanistic, spiritual pulse.", "is_fresh": 1, "author": ["Jeremiah Kipp"]},
{"text": "...starts as a desperate, suspenseful chase through a technologically spasmodic city, but seamlessly evolves into a chilling commentary on the ethics of life, death and the dangerous game of playing God.", "is_fresh": 1, "author": ["Audrey Rock-Richardson"]},
{"text": "For his first attempt at film noir, Spielberg presents a fascinating but flawed look at the near future.", "is_fresh": 1, "author": ["Betty Jo Tucker"]},
{"text": "The craftsman quality of the work, fine cast, good writing and superior F/X may make this a member of the best, ever, sci-fi flicks.", "is_fresh": 1, "author": ["Robin Clifford"]},
{"text": "The best movie of its kind since 'Brazil.' Lucas, take notes. This is how you use special effects.", "is_fresh": 1, "author": ["Collin Souter"]},
{"text": "A first-rate sci-fi, action thriller with great futuristic toys and a premise that has more substance than your average sci-fi film.", "is_fresh": 1, "author": ["Cherryl Dawson and Leigh Ann Palone"]},
{"text": "The long-range appeal of \"Minority Report\" should transcend any awards it bags. This is one for the ages.", "is_fresh": 1, "author": ["Phil Villarreal"]},
{"text": "The ideal marriage of bravura storytelling, rip-roaring action, dazzling visuals, moody atmosphere, masterful effects, and evocative social and philosophical implications.", "is_fresh": 1, "author": ["Steven D. Greydanus"]},
{"text": "Oh yeah, it's that good, in that shivery, transporting way that makes you wonder how flickering images viewed in the dark can be so damn powerful.", "is_fresh": 1, "author": ["MaryAnn Johanson"]},
{"text": "A timely antidote to the comic-book mindlessness of Spider-Man and repetitive space fantasy of Star Wars.", "is_fresh": 1, "author": ["William Arnold"]},
{"text": "Breathtaking and disturbing.", "is_fresh": 1, "author": ["Andrew O'Hehir"]},
{"text": "The film is magnificently creepy, a calculated bad dream that stays with you like the best of Roger Corman.", "is_fresh": 1, "author": ["Elvis Mitchell"]},
{"text": "This film works on so many levels that it blows my fragile little mind.", "is_fresh": 1, "author": ["Danny Minton"]},
{"text": "It's cool, but it's also good, in the way Oscar winning movies are good. Go see it.", "is_fresh": 1, "author": ["Karina Montgomery"]},
{"text": "Only the latest Spielberg film to work best as an analogy for his middle-late career.", "is_fresh": 0, "author": ["Walter Chaw"]},
{"text": "A complex, compelling, provocative vision with the sleek, stylish suspense of a quirky whodunit.", "is_fresh": 1, "author": ["Susan Granger"]},
{"text": "An audacious sci-fi thriller about the dangerous consequences of fear-based living where we sacrifice our freedoms for the pipe dream of safety.", "is_fresh": 1, "author": ["Frederic and Mary Ann Brussat"]},
{"text": "Much better than AI or Amistad, and doesn't have any of that 'educational baggage' that some of his later movies have had a bit too much of.", "is_fresh": 1, "author": ["Eric Lurio"]},
{"text": "Some may quibble that the 144-minute length accommodates at least one too many endings. But such quibbling will diminish in view of the film's overall impact.", "is_fresh": 1, "author": ["Philip Wuntch"]},
{"text": "It's rare to find a film that dazzles the eye, challenges the brain, AND satisfies our lust for fast-paced action, but Minority Report delivers all that and a whole lot more.", "is_fresh": 1, "author": ["Scott Weinberg"]},
{"text": "Easily outperforms A.I. as the most enjoyable film Kubrick never made.", "is_fresh": 1, "author": ["Steve Schneider"]},
{"text": "he first two-thirds of Minority Reportare such a good time that what happens at film's end doesn't quite obliterate it.", "is_fresh": 1, "author": ["Robert Wilonsky"]},
{"text": "Gives us a lot to chew on, but not all of it has been properly digested.", "is_fresh": 1, "author": ["Kenneth Turan"]},
{"text": "A mesmerizing whodunit.", "is_fresh": 1, "author": ["Dan Fazio"]},
{"text": "As a science fiction movie, \"Minority Report\" astounds.", "is_fresh": 1, "author": ["Jeffrey Westhoff"]},
{"text": "A cerebral film noir for the 21st century that's constantly reinventing itself visually in the hands of a multi-faceted director still unsure of his current voice.", "is_fresh": 1, "author": ["Sean O'Connell"]},
{"text": "This one blends the best aspects of the mature Spielberg's often warring personality.", "is_fresh": 1, "author": ["Glenn Lovell"]},
{"text": "Despite a few dangling plot points, Minority Report actually improves upon Dick's work in its narrative complexity.", "is_fresh": 1, "author": ["Mary Kalin-Casey"]},
{"text": "It's a festival of cool, from its virtual this and virtual that to its black-clad, angst-ridden hero.", "is_fresh": 1, "author": ["Mary F. Pols"]},
{"text": "Spielberg does a masterful job of building the dramatic tension while drawing us deeper and deeper into Anderton's nightmare. The futuristic touches in the film are wonderful.", "is_fresh": 1, "author": ["Paul Clinton (CNN.com)"]},
{"text": "A film that can get you high on the sheer magic and exhilaration of making movies.", "is_fresh": 1, "author": ["Michael Wilmington"]},
{"text": "Spielberg and Cruise are back to top form.", "is_fresh": 1, "author": ["Eleanor Ringel Cater"]},
{"text": "This is finally Spielberg stripped of sentimentality and pulsating with a cruel edge.", "is_fresh": 1, "author": ["Victoria Alexander"]},
{"text": "Mr. Spielberg, you have restored my faith in sci-fi -- and more importantly, you have restored my faith in you.", "is_fresh": 1, "author": ["Christopher Null"]},
{"text": "As we debate what personal rights to sacrifice for the sake of national security, `Minority Report' makes for a fascinating, if fanciful, case study.", "is_fresh": 1, "author": ["Josh Larsen"]},
{"text": "Candy for the brain as well as the eye.", "is_fresh": 1, "author": ["Harvey S. Karten"]},
{"text": "Script care, sweet visuals, etc. and strong pace all keep the film fun, strikingly compelling and the viewers from slipping into a few holes in logic.", "is_fresh": 1, "author": ["Ross Anthony"]},
{"text": "Working as both a thriller and a mystery, the movie has all eyes glued to the screen and all brains in overdrive.", "is_fresh": 1, "author": ["Steve Rhodes"]},
{"text": "A summer entertainment adults can see without feeling embarrassed, but it could have been more.", "is_fresh": 1, "author": ["Scott Von Doviak"]},
{"text": "Rivals some of Spielberg's top adventure/science fiction epics, such as Close Encounters and Raiders of the Lost Ark.", "is_fresh": 1, "author": ["James Berardinelli"]},
{"text": "This is one of those rare blockbusters that satisfies both in its big spectacle and in the small, intimate moments.", "is_fresh": 1, "author": ["Rich Cline"]},
{"text": "There's something auspicious, and daring, too, about the artistic instinct that pushes a majority-oriented director like Steven Spielberg to follow A.I. with this challenging report so liable to unnerve the majority.", "is_fresh": 1, "author": ["Lisa Schwarzbaum"]},
{"text": "For all its gee-whiz special effects and cool stunts, the film is really a dark mystery; it's Hitchcock version 2.0.", "is_fresh": 1, "author": ["James Hill"]},
{"text": "All goes well until Tom's balls pop out. Is this a setup or just a gratuitous mental image?", "is_fresh": 1, "author": ["Mark Ramsey"]},
{"text": "If this movie isn't a hit, there really is no God ... either that, or he has extremely bad taste in film.", "is_fresh": 1, "author": ["Alex Sandell"]},
{"text": "It is a kickass, dense sci-fi action thriller hybrid that delivers and then some. I haven't seen one in so long, no wonder I didn't recognize it at first.", "is_fresh": 1, "author": ["Widgett Walls"]},
{"text": "What a concept, what an idea, what a thrill ride. This is a more fascinating look at the future than \"Bladerunner\" and one of the most high-concept sci fi adventures attempted for the screen.", "is_fresh": 1, "author": ["Michael Szymanski"]},
{"text": "Although...visually striking and slickly staged, it's also cold,grey, antiseptic and emotionally desiccated.", "is_fresh": 0, "author": ["Frank Swietek"]},
{"text": "Violent, graphic, and breathtaking in its emotional ugliness, this is a classic, ambitious film that restores diminishing faith in the world's most influential medium.", "is_fresh": 1, "author": ["Jeanne Aufmuth"]},
{"text": "Though this film is a little long, it is still very entertaining and a fun summer mystery set against an incredible sci-fi background.", "is_fresh": 1, "author": ["Scott Chitwood"]},
{"text": "The film's success is in line with what American films historically have done best, which is to excitingly tell a strong story with high style and just enough substance.", "is_fresh": 1, "author": ["Todd McCarthy"]},
{"text": "Spielberg's sharpest, brawniest, most bustling entertainment since Raiders of the Lost Ark and the finest of the season's action epics.", "is_fresh": 1, "author": ["Richard Corliss"]},
{"text": "Minority Report seems to rush by with very little letup. It combines action and intelligence and at times will have you on the edge of your seats.", "is_fresh": 1, "author": ["Bob Bloom"]},
{"text": "A masterful work infused with beautiful and haunting visuals, outstanding performances from Tom Cruise and a gifted supporting cast -- and a story that challenges the mind and engages the spirit.", "is_fresh": 1, "author": ["Richard Roeper"]},
{"text": "As spectacular as the film may be on so many levels, its Achilles' heel is the few brief but positively pivotal flaws in the plot.", "is_fresh": 1, "author": ["Rob Blackwelder"]},
{"text": "The jetpack chase scene alone is worth the price of admission...whatta rush! Run, baby, run!", "is_fresh": 1, "author": ["JoBlo"]},
{"text": "...Spielberg has at last decided to make his audience's pulse pound rather than need the assistance of a life support system as in last year's A.I. Artificial Interlligence.", "is_fresh": 1, "author": ["Spyder Darling"]},
{"text": "This thing is so good it's ridiculous. I feel like an embarrassed schoolgirl with a crush.", "is_fresh": 1, "author": ["Sean Burns"]},
{"text": "Pulses with fascinating ideas, memorable images and thrilling action sequences.", "is_fresh": 1, "author": ["Edward Johnson-Ott"]},
{"text": "a provocative message about free will ought to be a formidable challenge, yet the movie sails along astonishingly smoothly under Spielberg's control.", "is_fresh": 1, "author": ["James Sanford"]},
{"text": "Astonishing... [frames] profound ethical and philosophical questions in the form of dazzling pop entertainment.", "is_fresh": 1, "author": ["Scott Tobias"]},
{"text": "Minority Report is moviemaking at its best and what movie going is all about.", "is_fresh": 1, "author": ["Steven Snyder"]},
{"text": "One of [Spielberg's] most compelling and entertaining films ever.", "is_fresh": 1, "author": ["Kirk Honeycutt"]},
{"text": "An exhilarating futuristic thriller-noir, Minority Report twists the best of technology around a gripping story, delivering a riveting, pulse intensifying escapist adventure of the first order", "is_fresh": 1, "author": ["Urban Cinefile Critics"]},
{"text": "Should knock the socks off anyone who enjoyed Spielberg's \"A.I.\"", "is_fresh": 1, "author": ["Jon Popick"]},
{"text": "There's no doubt that the sci-fi thriller is an ambitious, complex, visually stunning and periodically exciting piece of futuristic film noir, but it's labored down by a heartless, contrived and very talky storyline...", "is_fresh": 1, "author": ["Scott A. Mantz"]},
{"text": "", "is_fresh": 1, "author": ["Daniel Kasman"]}
]