[
{"reviews_count": "68", "title": "Reservoir Dogs", "avg_audience_rating": "4.1", "rotten_count": "6", "tomatometer": "91", "audience_score": "94", "avg_critic_rating": "8.8", "fresh_count": "62", "user_ratings_count": "445,310"},
{"text": "Tarantino's jumbling of his chronology and the clever changes of context from the claustrophobic warehouse section to various character origin flashbacks are sly and electric", "is_fresh": 1, "author": ["PJ Nabarro"]},
{"text": "There are good performances all around as Reservoir Dogs veers to its ironic, almost absurdist climax. In addition to his clever plotting, Tarantino has given his cast sharp, acrid, sometimes witty dialogue.", "is_fresh": 1, "author": ["Malcolm Johnson"]},
{"text": "And while Tarantino never quite succeeds in putting around each character the sense of isolation that marks the best noirs, he carries off this exercise in lively fashion. It's more purple than noir, but it's got juice.", "is_fresh": 1, "author": ["Jay Carr"]},
{"text": "No one should go to Reservoir Dogs without prior thought. But what they will see is a riveting treatise on the theme of betrayal set in an urban wasteland that murders hope and makes redemption virtually impossible.", "is_fresh": 1, "author": ["Derek Malcolm"]},
{"text": "As QT's first film as both writer and director, Reservoir Dogs indicates a remarkably fully formed cinematic sensibility.", "is_fresh": 1, "author": ["Chuck Bowen"]},
{"text": "The exaggerated raw violence of \"Reservoir Dogs\" leaves one feeling cheated in the end. For this movie isn't really about anything. It's just a flashy, stylistically daring exercise in cinematic mayhem.", "is_fresh": 0, "author": ["Kathleen Carroll"]},
{"text": "Perhaps it's a bit too knowing in places, and perhaps it packs in one pop cultural reference too many, but this is an in-your-face, look-at-me kind of debut, designed to function as the calling-card of a major new talent.", "is_fresh": 1, "author": ["Anne Billson"]},
{"text": "...one of the most impressive debut features in cinematic history.", "is_fresh": 1, "author": ["David Nusair"]},
{"text": "No matter how many times you've freeze-framed the bit at the end, it's still up there with Die Hard and Taxi Driver as one of the great once-a-year indulgences.", "is_fresh": 1, "author": []},
{"text": "Brash, abrasive and unrelenting, this is a must-see.", "is_fresh": 1, "author": ["David Parkinson"]},
{"text": "This movie is not for everybody. It's for hardly anybody. Fans of this kind of paperback-style bloodbath, however, will be held by the promise of a resolution as outlandish and as the rest of the picture.", "is_fresh": 1, "author": ["Gary Thompson"]},
{"text": "The film ends without a satisfying resolution, since these characters are so ugly only an agonizing affliction would qualify as just deserts. Crime doesn't exactly pay in this case, but it doesn't cost enough either.", "is_fresh": 0, "author": ["Ralph Novak"]},
{"text": "A superb character study of tough guys turning on each other, it is also an edgy drama about the dissolution of trust.", "is_fresh": 1, "author": ["Candice Russell"]},
{"text": "The film, for all its mayhem and fury, is too distant to be truly disturbing; it treats everything with an impatient, born-too-late shrug.", "is_fresh": 0, "author": ["Terrence Rafferty"]},
{"text": "A brash, brutal crime-caper film, Reservoir Dogs has enough raw energy for 10 motion pictures and more than enough rough stuff to traumatize the sensitive. But not only does Dogs have teeth, it has brains.", "is_fresh": 1, "author": ["Jay Boyar"]},
{"text": "Tarantino's palpable enthusiasm, his unapologetic passion for what he's created, reinvigorates this venerable plot and, mayhem aside, makes it involving for longer than you might suspect.", "is_fresh": 1, "author": ["Kenneth Turan"]},
{"text": "A much-acclaimed revisionist gangster film that I found to have more style than substance.", "is_fresh": 0, "author": ["Gene Siskel"]},
{"text": "Reservoir Dogs is hideously ugly in its materials, but in the sure way it's made and the vividness of the performances, it's a thing of beauty.", "is_fresh": 1, "author": ["Stephen Hunter"]},
{"text": "Exuberance over violence is mostly reined in. Coiled male panic and ricocheting accusations carry the action. At its best, at a time before Tarantino became all show, Reservoir Dogs reveals masculinity as a bloody, savage, two-faced performance.", "is_fresh": 1, "author": ["Brian Gibson"]},
{"text": "Undoubtedly one of the best films of the 1990s, and probably one of the best directorial debuts of all time, Reservoir Dogs announced the arrival of one of contemporary cinema's hottest talents -- and he came out shooting.", "is_fresh": 1, "author": []},
{"text": "Tarantino, in Reservoir Dogs, has made a nihilist comedy about how human nature will always undercut the best-laid plans.", "is_fresh": 1, "author": ["Owen Gleiberman"]},
{"text": "Raw and bloody. For adults.", "is_fresh": 1, "author": ["David Gurney"]},
{"text": "An action movie comprised almost entirely of words.", "is_fresh": 1, "author": ["Josh Larsen"]},
{"text": "In 1992 Quentin Tarantino did something that hadn't been done since 1986 with David Lynch's \"Blue Velvet;\" he reinvented cinema.", "is_fresh": 1, "author": ["Cole Smithey"]},
{"text": "memorable", "is_fresh": 1, "author": ["Blake French"]},
{"text": "Tarantino was slated to direct the masterpiece that was True Romance but took on this project which might be the best directorial debut in years!", "is_fresh": 1, "author": ["Kevin McCarthy"]},
{"text": "Reservoir Dogs is a bad boy's movie, show-offy and more than a little decadent. Its saving grace, and its limitation, is in its cool cartoonishness. It never invites any real emotional identification with these crooks.", "is_fresh": 1, "author": ["David Ansen"]},
{"text": "Undeniably impressive pic grabs the viewer by the lapels and shakes hard, but it also is about nothing other than a bunch of macho guys and how big their guns are.", "is_fresh": 1, "author": ["Todd McCarthy"]},
{"text": "It's unclear whether this macho thriller does anything to improve the state of the world or our understanding of it, but it certainly sets off enough rockets to hold and shake us for every one of its 99 minutes.", "is_fresh": 1, "author": ["Jonathan Rosenbaum"]},
{"text": "It's dynamite on a short fuse.", "is_fresh": 1, "author": ["Rick Groen"]},
{"text": "You may not like the terms Tarantino sets, but you have to admit he succeeds on them.", "is_fresh": 1, "author": ["Ty Burr"]},
{"text": "A highly cinematic blast for those who can stomach its brutality...Like Glengarry Glen Ross with guns.", "is_fresh": 1, "author": ["Chuck O'Leary"]},
{"text": "Structurally, Tarantino may have borrowed from Kubrick's crimers and Hong Kong films, but for a debut, it's brilliantly written and acted and it captures the paranoia of white working-class men, threatened by gays, women and other groups.", "is_fresh": 1, "author": ["Emanuel Levy"]},
{"text": "A tour de force.", "is_fresh": 1, "author": ["Wally Hammond"]},
{"text": "Quentin Tarantino came out of nowhere with perhaps the most astonishing, explosive American debut film since John Cassavetes' Shadows.", "is_fresh": 1, "author": ["Jeffrey M. Anderson"]},
{"text": "This is a savage gangster story with all the Tarantino trappings, including enough blood for a couple of Jaws movies.", "is_fresh": 1, "author": ["Mike Barkacs"]},
{"text": "You don't have to love it to be impressed with its riveting treatment of criminals in action.", "is_fresh": 1, "author": ["Dennis Schwartz"]},
{"text": "The one QT film that always manages to rope a knot in my stomach and keep a firm grip, pulling, twisting, tightening and re-tying it.", "is_fresh": 1, "author": ["Dan Jardine"]},
{"text": "For Tarantino, the age of heroic competence is as dead as his characters are at the fadeout.", "is_fresh": 1, "author": []},
{"text": "Grandes atua\u00e7\u00f5es em um filme chocante, mas engra\u00e7ado em sua viol\u00eancia estilizada.", "is_fresh": 1, "author": ["Pablo Villa\u00e7a"]},
{"text": "Fantastic crime movie. Awesome dialogue, plot structure and acting. Doesn't get much better.", "is_fresh": 1, "author": ["Fred Topel"]},
{"text": "A small, modestly budgeted crime movie of sometimes dazzling cinematic pyrotechnics and over-the- top dramatic energy.", "is_fresh": 1, "author": ["Vincent Canby"]},
{"text": "A nasty, unchained beast with teeth as sharp as razors. And it's a dog that proudly leads the pack of the very finest crime films.", "is_fresh": 1, "author": ["Phil Villarreal"]},
{"text": "While Reservoir Dogs is probably Tarantino's most unpolished work, it strongly contends for the distinction of being his best.", "is_fresh": 1, "author": ["Brian Mckay"]},
{"text": "I can't remember a movie getting me so excited about what you could do with a little bit of money, some fine actors, and lots of beautifully profane rhythmic dialogue.", "is_fresh": 1, "author": ["Brad Laidman"]},
{"text": "Tarantino's debut is a wildly entertaining, thrilling, upsetting and hilarious movie, shot and performed with verve, go-for-broke energy and gritty charisma.", "is_fresh": 1, "author": ["James Rocchi"]},
{"text": "Those who survive it emerge in a shell-shocked euphoria -- so good and so blunt is the writing.", "is_fresh": 1, "author": ["Duane Byrge"]},
{"text": "[O]nly a nutcase with a keen creative intellect could have made Reservoir Dogs.", "is_fresh": 1, "author": ["Nate Yapp"]},
{"text": "Riveting from start to finish.", "is_fresh": 1, "author": ["Kevin N. Laforest"]},
{"text": "After watching this film for the zillionth time, there's no doubt in my mind that this 'little doggy' belongs at the top echelon of any list having to do with great crime pictures.", "is_fresh": 1, "author": ["JoBlo"]},
{"text": "Tarantino's camera has instinct.", "is_fresh": 1, "author": ["Bill Chambers"]},
{"text": "Like many young directors, Quentin Tarantino is overly infatuated with Scorsese, but he shows talent -- in his work with the actors, and in his staging of some of the action scenes.", "is_fresh": 1, "author": ["Stephen Farber"]},
{"text": "Tarantino exploits audience savvy, preferring to build anticipation, mesmerise, and then cut away at the climax.", "is_fresh": 1, "author": ["Almar Haflidason"]},
{"text": "A ballet of macho posturing, gun-pointing, and the creative uses of every four-letter word imaginable.", "is_fresh": 1, "author": ["James Kendrick"]},
{"text": "The writing is crisp and clean, providing line after line of snappy dialogue designed to leave the viewer alternately pondering and laughing aloud.", "is_fresh": 1, "author": ["James Berardinelli"]},
{"text": "The movie feels like it's going to be terrific, but Tarantino's script doesn't have much curiosity about these guys.", "is_fresh": 0, "author": ["Roger Ebert"]},
{"text": "It's extremely well-acted, written with flair and directed by a 29-year-old first-timer, Quentin Tarantino, who always knows where to put the camera, when to cut to a flashback and how to draw the best work from his brilliant cast.", "is_fresh": 1, "author": ["John Hartl"]},
{"text": "It's brutal, it's funny and you won't forget it.", "is_fresh": 1, "author": ["Hal Hinson"]},
{"text": "A nod to such noir crime classics as Stanley Kubrick's \"The Killing,\" the movie's more than savvy sensationalism. Suspense, horror and humor are expertly interwoven.", "is_fresh": 1, "author": ["Desson Thomson"]},
{"text": "A classic well worth watching.", "is_fresh": 1, "author": ["Brian Webster"]},
{"text": "[A] remarkable macho crime caper that is at once violent, sickeningly funny and utterly compelling.", "is_fresh": 1, "author": ["Jeff Dawson"]},
{"text": "Tarantino has created a movie with all the gritty punch of a .44 in the belly.", "is_fresh": 1, "author": ["Marc Savlov"]},
{"text": "Tarentino has the craft down but lacks the depth and moral wisdom to avoid merely gleeful bloodletting.", "is_fresh": 0, "author": ["Chris Hicks"]},
{"text": "Chock full of witty and quotable dialogue and eye-popping scenes.", "is_fresh": 1, "author": ["Christopher Null"]},
{"text": "", "is_fresh": 1, "author": ["Peter Travers"]},
{"text": "", "is_fresh": 1, "author": ["Michael Szymanski"]},
{"text": "", "is_fresh": 1, "author": ["Jeffrey Westhoff"]},
{"text": "", "is_fresh": 1, "author": ["Linda Cook"]}
]