[
{"reviews_count": "136", "title": "Shakespear in Love", "avg_audience_rating": "3.4", "rotten_count": "11", "tomatometer": "92", "audience_score": "80", "avg_critic_rating": "8.3", "fresh_count": "125", "user_ratings_count": "226,771"},
{"text": "....the echoes of passionate Shakespeare will linger in the memory and the most pleasant memories of the spectator. [Full review in Spanish]", "is_fresh": 1, "author": ["Clar\u00edn Staff"]},
{"text": "It almost defies you not to have fun.", "is_fresh": 1, "author": ["Anthony Quinn"]},
{"text": "...very well calculated and balanced. [Full Review in Spanish] ", "is_fresh": 1, "author": ["\u00c1ngel Fern\u00e1ndez-Santos"]},
{"text": "Shakespeare in Love lives up to its name with its joyous sensuality.", "is_fresh": 1, "author": ["Malcolm Johnson"]},
{"text": "A good cast, if you can forget for a moment the protagonist, Joseph Fiennes. [Full Review in Spanish] ", "is_fresh": 0, "author": ["Diana Albizu"]},
{"text": "The play within the movie rings false, methinks", "is_fresh": 1, "author": ["S. James Wegg"]},
{"text": "A sprightly valentine to the heady world of comedy, drama, romance, art, commerce and language that is the theater.", "is_fresh": 1, "author": ["Dennis King"]},
{"text": "There's so much to like about this film, which is giddily romantic, funny and clever, chock-full of Shakespearean touches like doomed love, mistaken identity and men dressing as women and women dressing as men.", "is_fresh": 1, "author": ["Matt Soergel"]},
{"text": "There is plenty to be thrilled about.", "is_fresh": 1, "author": ["James Christopher"]},
{"text": "Sometimes it's the small things that provide the biggest delights. That's certainly the case with Shakespeare in Love, a tongue-in-cheek romance about the greatest romance ever written.", "is_fresh": 1, "author": ["Jeff Strickler"]},
{"text": "[A] cheeky, delightfully playful romantic comedy.", "is_fresh": 1, "author": ["M.V. Moorhead"]},
{"text": "All these funny, frenetic performances make for an enjoyable romp.", "is_fresh": 1, "author": ["Quentin Curtis"]},
{"text": "[An] inordinately clever, sprightly romantic comedy.", "is_fresh": 1, "author": ["Jami Bernard"]},
{"text": "It restores to centrality of consciousness one of the great geniuses of our civilization. It makes us care for his greatness, for his passion, for his worth. In no uncertain terms, it tells us Willie Boy is still here.", "is_fresh": 1, "author": ["Stephen Hunter"]},
{"text": "Scene after scene engages us as cheerful groundlings, tosses us jokes, toys with our expectations, then sweeps away the boundaries between film and stage, comedy and tragedy so we're open to the power of language and the feelings behind it.", "is_fresh": 1, "author": ["Joe Morgenstern"]},
{"text": "A triumph of talent and style over silliness.", "is_fresh": 1, "author": ["John Hartl"]},
{"text": "Hilarious, sexy, clever, playful and as initially teasing as it is ultimately satisfying.", "is_fresh": 1, "author": ["Jay Boyar"]},
{"text": "I just wish that the script wasn't so insistent on showing off. Shakespeare, even when he kowtowed to the peasants, knew when to quit.", "is_fresh": 0, "author": ["Paul Tatara"]},
{"text": "Shakespeare In Love delivers the goods, if the goods you're in the market for happen to be a clever romance concerning William Shakespeare that's unlikely to cause anyone to reassess their notions of Shakespeare, romance, or enjoyment.", "is_fresh": 1, "author": ["Keith Phipps"]},
{"text": "This romantic farce has a talented cast and energy to spare, but somehow the ingredients don't burn as brightly as one would expect from such promising ingredients.", "is_fresh": 0, "author": ["David Sterritt"]},
{"text": "You can't miss with a movie that speaks the language of love with such hotblooded delight. And in iambic pentameter, too.", "is_fresh": 1, "author": ["Peter Travers"]},
{"text": "Get thee to the nearest movie theater showing Shakespeare in Love, a delightful comedy that sparkles with wit, literary smarts, passionate romance and expert acting by a glossy, enthusiastic cast.", "is_fresh": 1, "author": ["Leah Rozen"]},
{"text": "In addition to Fiennes, who does a star-making job here, and the radiant Paltrow, Shakespeare in Love teems with wonderful performances.", "is_fresh": 1, "author": ["Steven Rea"]},
{"text": "Taking the writing process behind Shakespeare's Romeo and Juliet as its inspiration, John Madden's follow-up to Mrs Brown combines contemporary humour with a convincing 16th-century setting.", "is_fresh": 1, "author": ["Lorien Haynes"]},
{"text": "Shakespeare in Love crackles with the in-jokey brilliance that we associate with the playwright Tom Stoppard.... And you don't have to be a Shakespeare scholar to appreciate this movie's wit and easygoing references to the entertainment world today.", "is_fresh": 1, "author": ["Ann Hornaday"]},
{"text": "Sniping at what's already been celebrated as a major national triumph always looks not-quite-cricket, but Madden's film is transparently one of those things that the British Do So Well, and the Americans fund so handsomely.", "is_fresh": 0, "author": ["Jonathan Romney"]},
{"text": "The film is literate without being pretentious, bawdy without being gross and grounded in historical fact without being constricted by it.", "is_fresh": 1, "author": ["Todd Anthony"]},
{"text": "Shakespeare in Love stands on its wonderful cast, its solid direction and very clever script.", "is_fresh": 1, "author": ["Francis Leach"]},
{"text": "Entertaining, witty and acutely funny, with the ability to appeal to more than Shakespeare buffs. But for real fans of the Bard, it's a glorious treat that's smart and humorous, with highly appealing performances all round.", "is_fresh": 1, "author": []},
{"text": "A ripely emotional comedy-fantasia.", "is_fresh": 1, "author": ["David Denby"]},
{"text": "A brilliant and witty script by Tom Stoppard is brought to life by a great cast.", "is_fresh": 1, "author": ["Scott Nash"]},
{"text": "A cleverly scripted reworking of a period comedy.", "is_fresh": 1, "author": []},
{"text": "Accessible, entertaining and fun for modern audiences. Exquisitely acted, tightly directed and impressively assembled, this lively period piece is the kind of arty gem with potentially broad appeal that Miramax certainly knows how to sell.", "is_fresh": 1, "author": ["Lael Loewenstein"]},
{"text": "Wastes no time setting itself up as a rowdy, colloquial piece of popular entertainment -- the furthest thing from a fussy biopic of the Bard.", "is_fresh": 1, "author": ["Rob Gonsalves"]},
{"text": "Marc Norman and Tom Stoppard have written one of the year's smartest scripts, and Mrs. Brown director John Madden gets a chance to show a funny side that's previously been submerged.", "is_fresh": 1, "author": ["Mike Clark"]},
{"text": "It is clear that everyone in the film is having a great time with the material, and it is contagious.", "is_fresh": 1, "author": ["Joe Lozito"]},
{"text": "Henslowe may be onto something when he jokes that all audiences want is love and a bit with the dog, but this film delivers much more.", "is_fresh": 1, "author": ["Sandra Contreras"]},
{"text": "It's easy to suspend disbelief and embrace this historically creative fiction, whose clever relationship to what's known and what's unresolved is part of what makes it so intriguing and so romantic.", "is_fresh": 1, "author": ["Lisa Alspector"]},
{"text": "A sumptuous fictional glimpse into the creative mind of one of history's most brilliant theatrical minds.", "is_fresh": 1, "author": ["Wesley Lovell"]},
{"text": "A rare crowd pleasing movie that's smartly written and splendidly acted, representing a combination of poetry, art, and entertainment that does justice to the Bard's own comedies.", "is_fresh": 1, "author": ["Emanuel Levy"]},
{"text": "It's the performances which push this to a very high level.", "is_fresh": 1, "author": ["Garth Franklin"]},
{"text": "It's Tom Stoppard's witty, intelligent script which proves so satisfying.", "is_fresh": 1, "author": ["Nick Bradshaw"]},
{"text": "Shakespeare in Love moves fast, and may deserve multiple viewings. It's a delicious feast of lowbrow and highbrow mixed with romance.", "is_fresh": 1, "author": ["Jeffrey M. Anderson"]},
{"text": "It's a literary burlesque, remarkably clever and quick on its feet. It is ardently romantic but is at its best when it is funny. And it's funny.", "is_fresh": 1, "author": ["Jeff Millar"]},
{"text": "The matter of fact telling of just how young Will got many of his ideas is leavened with all the elements of great film and [director John] Madden balances them all with grace, style and skill.", "is_fresh": 1, "author": ["Robin Clifford"]},
{"text": "Although Shakespeare in Love benefits from a delightful screenplay by Marc Norman and Tom Stoppard -- and a flattering one, for viewers who can congratulate themselves on recognizing this or that tatter of the Bard -- the film's virtues peter out.", "is_fresh": 0, "author": ["Stuart Klawans"]},
{"text": "It has powerful language and a wealth of talent as its distinguishing marks, but it shies away, curiously, from poetry, subtlety, and art whenever the lovers embrace, and we're left with no heroes or heroines worth swooning for.", "is_fresh": 1, "author": ["Jeffrey Overstreet"]},
{"text": "A nothing movie. Gossamer-thin, the slightest breeze will blow it from our collective memories.", "is_fresh": 0, "author": ["Martin Scribbs"]},
{"text": "The greatest enjoyment of the film is for those who are familiar with Shakespeare's plays.", "is_fresh": 1, "author": ["Dragan Antulov"]},
{"text": "Glowing with the incandescence of a true movie star, the magnificent Gwyneth illuminates this entire, many-splendored production.", "is_fresh": 1, "author": ["Rod Dreher"]},
{"text": "A tale of infinite jest, of most excellent fancy.", "is_fresh": 1, "author": ["Jeffrey Westhoff"]},
{"text": "It is a mature, adult romantic comedy, with enough swashbuckling, humor and love scenes to keep everyone interested.", "is_fresh": 1, "author": ["Eugene Novikov"]},
{"text": "Amusing, romantic, historic and immensely clever.", "is_fresh": 1, "author": ["Jeanne Aufmuth"]},
{"text": "Shakespeare In Love is funny, tragic, romantic... I love it; should I count the ways?", "is_fresh": 1, "author": ["John R. McEwen"]},
{"text": "John Madden's first film after the stately but exceptionally closed-off Mrs. Brown is as lively and engaging a comedy as one could want from the inspired material.", "is_fresh": 1, "author": ["Nick Davis"]},
{"text": "Shakespeare in Love is a great date movie; that rarest of 'chick flicks' that all can enjoy. Even crabby cynics.", "is_fresh": 1, "author": ["Merle Bertrand"]},
{"text": "This film is very entertaining, and it's the most sophisticated and mature romance of the year.", "is_fresh": 1, "author": ["Kevin N. Laforest"]},
{"text": "Hardly deserving of 13 Oscar nominations and 7 Oscars, this film is nevertheless an entertaining bit of fluff.", "is_fresh": 1, "author": ["Marty Mapes"]},
{"text": "Seems the Bard is badly blocked.", "is_fresh": 1, "author": ["Rick Groen"]},
{"text": "Although determinedly lightweight, Shakespeare in Love is a self-reflexive ode to the power of art and love that at times is worthy of its namesake.", "is_fresh": 1, "author": ["Peter Keough"]},
{"text": "A rich but satisfying plum-pudding.", "is_fresh": 1, "author": ["Philip Kemp"]},
{"text": "A beautifully realized tribute to the rush of imagination as one of the great creative force fields in the universe.", "is_fresh": 1, "author": ["Frederic and Mary Ann Brussat"]},
{"text": "la pasi\u00f3n como elemento creativo y fundamento para vivir", "is_fresh": 1, "author": ["Alex Ramirez"]},
{"text": "Shakespeare in Love is a delight on every level of movie-going...This is why people go to the movies.", "is_fresh": 1, "author": ["Karina Montgomery"]},
{"text": "This is a joyous and quite brilliant comedy.", "is_fresh": 1, "author": ["Nev Pierce"]},
{"text": "...it works wonderfully, giving audiences that wouldn't normally sit through an Elizabethan play the chance to understand and be amused by something fairly close.", "is_fresh": 1, "author": ["John J. Puccio"]},
{"text": "Funny, sexy, romantic, and intelligent.", "is_fresh": 1, "author": ["Jim Chastain"]},
{"text": "Given slight twistings and tweakings for a 1990s audience, this Shakespeare is true to its inspirational muse without taking itself too seriously.", "is_fresh": 1, "author": ["James Kendrick"]},
{"text": "A happy conceit smoothly executed, this is one of those entertaining confections that's so pleasing to the eye and ear you'd have to be a genuine Scrooge to struggle against it.", "is_fresh": 1, "author": ["Kenneth Turan"]},
{"text": "Shakespeare in Love has to be one of the most irresistible movies I have ever seen.", "is_fresh": 1, "author": ["Robert Roten"]},
{"text": "Gwyneth Paltrow, in her first great, fully realized starring performance, makes a heroine so breathtaking that she seems utterly plausible as the playwright's guiding light.", "is_fresh": 1, "author": ["Janet Maslin"]},
{"text": "One of the many brilliant twists in Shakespeare in Love is how it treats its protagonists' love with both utter sincerity and an ironic wink.", "is_fresh": 1, "author": ["Scott Renshaw"]},
{"text": "Shakespeare in Love is not a great film, but it's an excuse to have an evening of pure enjoyment with a little culture painlessly mixed in.", "is_fresh": 1, "author": ["James Berardinelli"]},
{"text": "Not even Stoppard is Shakespeare, and the end result resembles one of Neil Simon's middlebrow romps more than it does As You Like It.", "is_fresh": 0, "author": ["Laura Miller"]},
{"text": "I was carried along by the wit, the energy and a surprising sweetness.", "is_fresh": 1, "author": ["Roger Ebert"]},
{"text": "A rom-com with added smarts for the literature scholars, which doesn't alienate everyone else.", "is_fresh": 1, "author": ["Ian Nathan"]},
{"text": "The costumes delight, the period evocation in the scenery and photography is rich and pleasing, and the cutting keeps the pace racing forward.", "is_fresh": 1, "author": ["Norman Green"]},
{"text": "A rollicking good time, full of genuine emotional pull and incandescent acting, and anchored by a passionate love for the theater itself which puts most human liaisons--including Shakespeare and Viola's -- to shame.", "is_fresh": 1, "author": ["Gemma Files"]},
{"text": "Occasionally profound and frequently hilarious!", "is_fresh": 1, "author": ["Peter Brunette"]},
{"text": "An inspired re-imagining of history and a deft look at the relationship between art and life.", "is_fresh": 1, "author": ["L.J. Strom"]},
{"text": "Huzzah! What a delightful romantic comedy director Madden doth make!", "is_fresh": 1, "author": []},
{"text": "This is a movie full of moments, and performances, to savor.", "is_fresh": 1, "author": ["Owen Gleiberman"]},
{"text": "Delicious and sensual.", "is_fresh": 1, "author": ["Bruce Kirkland"]},
{"text": "The film's humor ranges from the wonderfully intellectual to snarky movie and theater in-jokes, from sight gags to rapid-fire, reference-laden dialogue.", "is_fresh": 1, "author": ["MaryAnn Johanson"]},
{"text": "Delightful!", "is_fresh": 1, "author": ["Jim Judy"]},
{"text": "Quite accessible even if you haven't seen or read any of Shakespeare's work.", "is_fresh": 1, "author": ["Carlo Cavagna"]},
{"text": "Takes us out of ourselves, immerses us in another world, introduces us to people we'd love to call friends and tells us a story we can't forget.", "is_fresh": 1, "author": ["Dan Jardine"]},
{"text": "At first, the breakneck pace is entertaining (all these people knocking themselves out for our pleasure), but it soon becomes evident just how inane a film this is.", "is_fresh": 0, "author": ["Amy Taubin"]},
{"text": "The film grants a kind of insiders' knowledge, assuming certain educational, class and cultural parameters (much like those assumed by public television).", "is_fresh": 1, "author": ["Cynthia Fuchs"]},
{"text": "Full of life.", "is_fresh": 1, "author": ["Dennis Schwartz"]},
{"text": "Cheers all around for such an inspired tale about inspiration.", "is_fresh": 1, "author": ["Jack Garner"]},
{"text": "Not merely a period piece, Shakespeare in Love is the rival of many a modern-day romantic comedy.", "is_fresh": 1, "author": ["Madeleine Williams"]},
{"text": "The stars have done their job with devastatingly good aplomb.", "is_fresh": 1, "author": ["Oz"]},
{"text": "Shakespeare in Love is rollicking entertainment on a grand scale.", "is_fresh": 1, "author": ["Urban Cinefile Critics"]},
{"text": "Shakespeare has now finally arrived onscreen... in the right hands -- those of director John Madden and stars Joseph Fiennes and Gwyneth Paltrow.", "is_fresh": 1, "author": ["Michael Dequina"]},
{"text": "The script will sweep you away.", "is_fresh": 1, "author": ["Steve Rhodes"]},
{"text": "Shakespeare in Love is one of those great movies, the kind of film that makes me clack away furiously at my keyboard, telling people just how much I loved this movie.", "is_fresh": 1, "author": ["Mike McGranaghan"]},
{"text": "With glittering shows of erudition and playfulness, Shakespeare in Love mixes history, fiction, comedy and romance to create a pure joy of a movie!", "is_fresh": 1, "author": ["Susan Stark"]},
{"text": "The film walks a tightrope between Pythonesque satire and heart-felt romance, and generally keeps its footing.", "is_fresh": 1, "author": []},
{"text": "A frothy romantic comedy that is equally nourished with truisms of historic lore and modern sensibility.", "is_fresh": 1, "author": ["Marjorie Baumgarten"]},
{"text": "Paltrow and Fiennes make an irresistible team.", "is_fresh": 1, "author": ["Joe Baltake"]},
{"text": "Get out and see this.", "is_fresh": 1, "author": ["Emily Blunt"]},
{"text": "Like some of Shakespeare's own, unclassifiable plays that bounce between comedy and tragedy, it's a wonderful mess.", "is_fresh": 1, "author": ["Steve Murray"]},
{"text": "The storyline works on so many different levels that it doesn't matter whether you teach Shakespeare at Oxford, or left school after grade 10 to work on the farm.", "is_fresh": 1, "author": ["Matt Easterbrook"]},
{"text": "As overrated as Shakespeare himself.", "is_fresh": 0, "author": ["Alex Sandell"]},
{"text": "Delightfully clever.", "is_fresh": 1, "author": ["Jeff Vice"]},
{"text": "Easily the best comedy of the year.", "is_fresh": 1, "author": ["Christopher Null"]},
{"text": "Smart, cute, mooningly expressive and swooningly romantic.", "is_fresh": 1, "author": ["Bryant Frazer"]},
{"text": "The screenplay is a glorious pastiche.", "is_fresh": 1, "author": ["David Noh"]},
{"text": "The cast is near perfect.", "is_fresh": 1, "author": ["Ruthe Stein"]},
{"text": "The movie is accessible but not insulting, and transcends easy categories.", "is_fresh": 1, "author": ["Walter V. Addiego"]},
{"text": "A rollicking good time, full of genuine emotional pull and incandescent acting, and anchored by a passionate love for the theatre itself that puts to shame most human liaisons.", "is_fresh": 1, "author": ["Gemma Files"]},
{"text": "The writing is brilliant; the acting is masterful; the direction is breathtaking; the costumes are beautiful; and every little detail in the film is charming and witty.", "is_fresh": 1, "author": ["David Keyes"]},
{"text": "The most deliciously witty film of the year.", "is_fresh": 1, "author": ["Rob Blackwelder"]},
{"text": "One would have to be a melancholy Dane not to enjoy Shakespeare in Love's ample pleasures.", "is_fresh": 1, "author": ["Tor Thorsen"]},
{"text": "Let the kids toy with their Rugrats and hold their Sandler high. Shakespeare in Love is a movie to please the rest of us.", "is_fresh": 1, "author": ["Richard Corliss"]},
{"text": "Don't let the hype fool ya, cause this puppy pees just like the rest of them!", "is_fresh": 0, "author": ["JoBlo"]},
{"text": "A film that will amuse and beguile, and doubtlessly create a generation of new fans for Will Shakespeare.", "is_fresh": 1, "author": ["Arthur Lazere"]},
{"text": "Visually elegant.", "is_fresh": 1, "author": ["Harvey S. Karten"]},
{"text": "If, for the playwright himself, all the world's a stage and all the men and women merely players, then this splendrous new movie gives as much of his world as a simple stage or screen can hold.", "is_fresh": 1, "author": ["Michael Wilmington"]},
{"text": "Shakespeare in Love is really two love stories: one a heady human romance and one a paean to the art of the play, a special Christmas present for anyone who is passionate about showmanship.", "is_fresh": 1, "author": ["Michael O'Sullivan"]},
{"text": "A feel-great movie!", "is_fresh": 1, "author": ["Philip Wuntch"]},
{"text": "A smart, rollicking romantic comedy that strikes a rare pitch comprising witty wordplay, bawdy fun, and passionate romance.", "is_fresh": 1, "author": ["Eleonore Snow"]},
{"text": "It entertainingly teaches us about Shakespeare, the glory of the arts, the role of theater in English life at the time, and the eternal vanity of show-business types.", "is_fresh": 1, "author": ["Steven Rosen"]},
{"text": "Clever, profound.", "is_fresh": 1, "author": ["Darren D'Addario"]},
{"text": "Exhilarating!", "is_fresh": 1, "author": ["Lawrence Toppman"]},
{"text": "Smart crowd-pleasers are rare. So are romantic comedies that soar with genuine passion. This movie succeeds as both.", "is_fresh": 1, "author": ["Julie Hinds"]},
{"text": "Shakespeare in Love weaves all of these strands into an exciting, nimble, funny story that moves at a breakneck pace -- a story that is instantly understandable because the language has been contemporized to make it easy on modern ears.", "is_fresh": 1, "author": ["Gary Thompson"]},
{"text": "Shakespeare in Love is a wonder to behold, and to cherish.", "is_fresh": 1, "author": ["Ian Waldron-Mantgani"]},
{"text": "A comedy that Shakespeare would truly be proud to have his name in lights above.", "is_fresh": 1, "author": ["Widgett Walls"]},
{"text": "Like any good Shakespearean work, \"Shakespeare in Love\" is filled with love, sex, villainy, despair, tears, sword fights, men dressed as women, women dressed as men, buffoonery, ribald humor, intimidating penmanship... and a dog!", "is_fresh": 1, "author": ["David N. Butterworth"]},
{"text": "Shakespeare in Love is a luminous, entertaining tale.", "is_fresh": 1, "author": ["Bob Bloom"]},
{"text": "A thin, predictable plot that is only carried by the portrayal of people that we revere in our history books.", "is_fresh": 0, "author": ["Mac Verstandig"]},
{"text": "There's more to the film than just making light of Shakespeare's early career.", "is_fresh": 1, "author": ["Matt Prigge"]},
{"text": "At last, a juicy, funny, romantic comedy -- aimed at adults!", "is_fresh": 1, "author": ["Susan Granger"]},
{"text": "One does not have to be a fan of Shakespeare to enjoy it, but bardophiles will get more out of it.", "is_fresh": 1, "author": ["Mark R. Leeper"]}
]