[
{"reviews_count": "202", "title": "Shrek", "avg_audience_rating": "3.9", "rotten_count": "24", "tomatometer": "88", "audience_score": "90", "avg_critic_rating": "7.8", "fresh_count": "178", "user_ratings_count": "1,378,528"},
{"text": "But this ogre, Shrek is in a film that is hilarious, original and absolutely brilliant.", "is_fresh": 1, "author": ["Staff"]},
{"text": "The first Oscar for Best Animated Feature went to Shrek, an absurd choice to those of us who believe that Pixar's Monsters, Inc. was that year's best toon flick. Still, this is nevertheless a snappy comedy that manages to stick it to the entire genre.", "is_fresh": 1, "author": ["Matt Brunson"]},
{"text": "Murphy steals every scene he's in with equal parts bounce and warmth.", "is_fresh": 1, "author": ["Paul Malcolm"]},
{"text": "Here is a movie of the times, funny, enjoyable, perfect-looking, and altogether original in a way that might cause us to look again at the meaning of the word.", "is_fresh": 1, "author": ["Andrew O'Hagan"]},
{"text": "Adults will find plenty to laugh at. Children will love it.", "is_fresh": 1, "author": ["Christopher Tookey"]},
{"text": "Shrek is alive, and with dark, sly and absolutely hilarious irreverence lampooning every once-sacred characteristic of the nursery kingdom. Shrek is a subversive joy..", "is_fresh": 1, "author": ["Alexander Walker"]},
{"text": "With improbable finesse it buffs up some of the oldest tropes of storytelling and then gives them a mischievous tilt, so that we appear to be watching a celebration of a genre and a sneaky subversion of it at the same time.", "is_fresh": 1, "author": ["Anthony Quinn"]},
{"text": "Even more amazing, for a movie with its share of flatulence gags, it also has a real heart. Few films have had their cake and eaten it so gleefully.", "is_fresh": 1, "author": ["Mark Steyn"]},
{"text": "The best jokes in Shrek spoof Disney tradition; the villain's lair looks suspiciously like a certain theme park's Main Street USA, and a bluebird of happiness explodes during a sugary crescendo.", "is_fresh": 1, "author": ["Steve Persall"]},
{"text": "Shrek qualifies as a classic animated movie, and one of the more charming films to grace screens in a long time.", "is_fresh": 1, "author": ["Bob Grimm"]},
{"text": "The story's simple, the quest not that complicated. But the joy of Shrek is in the telling, in the details along the way.", "is_fresh": 1, "author": ["Matt Soergel"]},
{"text": "The sarcastic, nasty tone of smug hipness clashes mightily with the film's shrill attempts at sincerity and lesson-learning.", "is_fresh": 0, "author": ["Tim Brayton"]},
{"text": "A a computer-animated burlesque fairy tale that generates more belly laughs than any live-action comedy since Best in Show.", "is_fresh": 1, "author": ["Michael Sragow"]},
{"text": "The animation, with its dimensional verisimilitude, is beguiling and the whole package ends with a noncloying dash of uplift.", "is_fresh": 1, "author": ["Richard C. Walls"]},
{"text": "What the film lacks is the faintest glimmer of charm.", "is_fresh": 0, "author": ["Anthony Lane"]},
{"text": "Shrek may not have the class of Buzz Lightyear, but he's a lovable great lunk, and you could do a lot worse this summer than see this.", "is_fresh": 1, "author": ["Peter Bradshaw"]},
{"text": "There's no denying that the monster-as-hero device has 90-odd-minutes worth of entertainment mileage, and the delivery of the story's moral is handled well enough to avoid tweeness.", "is_fresh": 1, "author": []},
{"text": "This animated fantasy comedy from DreamWorks is an irreverent, occasionally scatological fairy tale with state-of-the-art computer-generated images that almost steal a march on Toy Story.", "is_fresh": 1, "author": ["Andrew Collins"]},
{"text": "No matter which level of the movie a viewer responds to, anyone past the age of 5 who doesn't laugh repeatedly while seeing Shrek needs to have his funny bone examined.", "is_fresh": 1, "author": ["Leah Rozen"]},
{"text": "The brilliance of the voice work, script, direction and animation all serve to make Shrek an adorable, infectious work of true sophistication.", "is_fresh": 1, "author": ["Jami Bernard"]},
{"text": "The story has rollicking moments and the visuals are amazingly realistic.", "is_fresh": 1, "author": ["David Sterritt"]},
{"text": "Shrek's ability to fit in a number of touching, funny moments says much about the intelligence and wit behind it. It's just a shame that the film is never as clever or as hip as it so desperately feels the need to be.", "is_fresh": 0, "author": ["Nathan Rabin"]},
{"text": "After a 90-minute onslaught of in-jokes, here's the real punch line: Shrek strives to have a heart. Supposedly there's a message about beauty coming from within, but somehow it rings hollow.", "is_fresh": 0, "author": ["Christy Lemire"]},
{"text": "The charms of Shrek, which is based on the children's book by William Steig, go far beyond in-jokes for adults.", "is_fresh": 1, "author": ["Joe Morgenstern"]},
{"text": "This romantic fantasy complicates the roles of beauty and beast, making it hard to guess what form a sensitive resolution will take.", "is_fresh": 1, "author": ["Lisa Alspector"]},
{"text": "animation is hardly groundbreaking", "is_fresh": 0, "author": ["John A. Nesbit"]},
{"text": "Gross-out laughs meet a marvelous fairytale mix.", "is_fresh": 1, "author": ["Nell Minow"]},
{"text": "Though imperfect, \"Shrek\" offers enough diversions from animation's go-go-go that it's been sad - after lackluster third and fourth installments - to see the lovable green guy turn the way of impersonal franchise cash-grabbing.", "is_fresh": 1, "author": ["Nick Rogers"]},
{"text": "It doesn't take long to figure out that Shrek is not going to be your ordinary animated fairy tale.", "is_fresh": 1, "author": ["David Ansen"]},
{"text": "A real highlight of the year, certainly the one to beat this summer.", "is_fresh": 1, "author": ["Garth Franklin"]},
{"text": "The only things it takes seriously are the notions of true love and beauty-is-only-skin-deep, good things for kids to soak up after they've had their fill of flatulence.", "is_fresh": 1, "author": ["Kelly Vance"]},
{"text": "A very good and weird animated comedy adventure...", "is_fresh": 1, "author": ["Felix Vasquez Jr."]},
{"text": "It's one of the best fairytale films ever made, right up there with The Princess Bride.", "is_fresh": 1, "author": ["Jennie Kermode"]},
{"text": "No one has ever made a funnier jackass of himself than Murphy.", "is_fresh": 1, "author": ["Richard Schickel"]},
{"text": "Hugely entertaining, sassy and great-looking.", "is_fresh": 1, "author": ["Daniel Etherington"]},
{"text": "Unique brand of entertainment: Simple and straightforward in its textal surface, but sophisticated and witty in subtextual connotations, including racy barbs addressed at Disney, which until recently had monopoly on animation fare, but not anynmore.", "is_fresh": 1, "author": ["Emanuel Levy"]},
{"text": "What gives Shrek its special artistic distinction is its witty and knowingly sassy dialogue, delivered by vocally charismatic performers whose voices remind us of their stellar screen personae in live-action movies.", "is_fresh": 1, "author": ["Andrew Sarris"]},
{"text": "Shrek is amusing and charming and it stands on it's own, but it does not rival Disney's best and I'm not saying it needs to, but that simply is the bar.", "is_fresh": 1, "author": ["Jordan Hiller"]},
{"text": "Gag by gag -- and there's a stream -- it's merrily irreverent, visually and vocally. The bigger picture, though, is rather more conventional.", "is_fresh": 0, "author": ["Nick Bradshaw"]},
{"text": "I seem to be the only one in the world unimpressed by this so-so animated feature.", "is_fresh": 0, "author": ["Jeffrey M. Anderson"]},
{"text": "Absolute perfection!", "is_fresh": 1, "author": ["John Venable"]},
{"text": "Bottom line: the story satisfies and the jokes avoid juvenile cliches.", "is_fresh": 1, "author": ["Chris Gore"]},
{"text": "What saves this movie are the performances by the actors, particularly Murphy and Myers.", "is_fresh": 1, "author": ["Scott Nash"]},
{"text": "Truth be told, it's damn enjoyable. ", "is_fresh": 1, "author": ["Philip Martin"]},
{"text": "Shrek's pros outweigh its cons, making this overall a delightful and fun entertainment with a refreshingly honest message.", "is_fresh": 1, "author": ["Jeffrey Overstreet"]},
{"text": "A solid second outing by DreamWorks/PDI, with truly biting entertaining moments scattered throughout the film.", "is_fresh": 1, "author": ["Alex Keen"]},
{"text": "The animation...is amazing.", "is_fresh": 1, "author": ["Andrea Chase"]},
{"text": "Excelente f\u00e1bula que encanta tanto crian\u00e7as quanto adultos gra\u00e7as ao seu humor \u00e1cido e ao seu visual impressionante.", "is_fresh": 1, "author": ["Pablo Villa\u00e7a"]},
{"text": "Not coincidentally, most of the really good stuff here will go over young kids' heads.", "is_fresh": 1, "author": ["Eugene Novikov"]},
{"text": "...Altogether hip and clever, and the computer-generated 3-D animation is impeccably crisp and colorful.", "is_fresh": 1, "author": ["John R. McEwen"]},
{"text": "A fresh twist on the fairytale humor genre.", "is_fresh": 1, "author": ["Wesley Lovell"]},
{"text": "Shrek isn't even as good, much less good-willed, than the more mediocre output of the Disney dynasty it wants so thirstily to topple.", "is_fresh": 0, "author": ["Nick Davis"]},
{"text": "A wonderful fairy tale, made for today's audiences.", "is_fresh": 1, "author": ["Staci Layne Wilson"]},
{"text": "This is one of the funniest movies I've seen in years.", "is_fresh": 1, "author": ["Rebecca Murray"]},
{"text": "There is something for everyone here.", "is_fresh": 1, "author": ["Matthew Turner"]},
{"text": "A delightful computer-generated romp that's every bit as much fun for adults as it is for kids.", "is_fresh": 1, "author": ["Jean Lowerison"]},
{"text": "Big-hearted, silly, wicked and loaded with laughs.", "is_fresh": 1, "author": ["Margaret A. McGurk"]},
{"text": "Sure, there's fun in the premise of a self-conscious fairy tale, mixing adventure and satire, but the film really got me when it eased up a bit on the cynicism and proved to have a big heart after all.", "is_fresh": 1, "author": ["Kevin N. Laforest"]},
{"text": "A wickedly delightful animated parody about fairy tales and all those characters that we cut our teeth on.", "is_fresh": 1, "author": ["Urban Cinefile Critics"]},
{"text": "Shrek is one of the best films of 2001.", "is_fresh": 1, "author": ["Joshua Tyler"]},
{"text": "The importance of friendship and true love are explored with unusual sensitivity in scenes between Shrek and Fiona and between Donkey and Shrek.", "is_fresh": 1, "author": ["Betty Jo Tucker"]},
{"text": "A movie that adults will easily enjoy every bit as much as the kids, maybe even more so.", "is_fresh": 1, "author": ["Jeffrey Chen"]},
{"text": "A funny, well-paced, and satisfying twisted fairy tale.", "is_fresh": 1, "author": ["Brian Webster"]},
{"text": "If \"Beauty and the Beast\" and \"The Little Mermaid\" were banquets for the eyes and ears, \"Shrek\" is an out of control food fight that's so invigorating to watch you wish it could go on forever.", "is_fresh": 1, "author": ["James Sanford"]},
{"text": "I think Shrek sucks.", "is_fresh": 0, "author": ["Jimmy O"]},
{"text": "A contemporary, yet sophisticated, concoction that throws almost every clich\u00e9...yet casts a spell over us with its charm and inventiveness.", "is_fresh": 1, "author": ["Collin Souter"]},
{"text": "Sort of like The Princess Bride, if Andr\u00e9 the Giant had been the hero, and had worn Lou Ferrigno body paint.", "is_fresh": 1, "author": ["Steven D. Greydanus"]},
{"text": "At least half a dozen flatulence and poop jokes percolate through the opening credits alone. Far be it from me to poo-poo a good fart joke, but there is an art to these things, and in Shrek they just sit there.", "is_fresh": 0, "author": ["Peter Keough"]},
{"text": "There are numerous faults in Shrek, enough to addle the brain. Chief among these are the narrative infirmities, which begin with the attempt at creating a fairytale that subverts the storytelling conventions of tradition.", "is_fresh": 0, "author": ["Jon Lap"]},
{"text": "Forget Pinocchio or Snow White: children will want their parents to read them the adventures of Shrek when it's time to pick a bedtime story.", "is_fresh": 1, "author": ["Robert Sims"]},
{"text": "There is really something for everyone in this movie.", "is_fresh": 1, "author": ["Michael W. Phillips, Jr."]},
{"text": "Has a diabolical sense of humor and a really big heart.", "is_fresh": 1, "author": ["Mark Dujsik"]},
{"text": "It delivers what the founders of DreamWorks Pictures originally promised -- alternative yet accessible entertainment.", "is_fresh": 1, "author": ["Ian Waldron-Mantgani"]},
{"text": "It's the story itself that makes the film so endearing -- we actually start to care for the characters, even though we know from the start how it will all end.", "is_fresh": 1, "author": ["Rich Cline"]},
{"text": "Nothing in the world of fairy-tale cartoons appears to have been sacred.", "is_fresh": 1, "author": ["John J. Puccio"]},
{"text": "A fun movie that should elicit smiles from even the most jaded of moviegoers.", "is_fresh": 1, "author": ["Sabadino Parker"]},
{"text": "Smart, funny, technically proficient... and taking no prisoners. Bless its twisted little heart.", "is_fresh": 1, "author": ["Rob Vaux"]},
{"text": "There is so much to enjoy all the way along that you'd have to be an ogre not to have a good time.", "is_fresh": 1, "author": ["Jay Stone"]},
{"text": "Mother Goose meets Mad Magazine in easily one of the year's most entertaining movies.", "is_fresh": 1, "author": ["Scott Weinberg"]},
{"text": "...one of the most delightful, charming, imaginative and superlative endeavors that computer animation has offered since the original 'Toy Story'...", "is_fresh": 1, "author": ["David Keyes"]},
{"text": "Whether or not you love Shrek or find it to be only a pleasant diversion depends on how much of a purist you are when it comes to fairly tales.", "is_fresh": 1, "author": ["Carlo Cavagna"]},
{"text": "A funny, sweet, snappy fairy tale about misfits, for misfits -- or anybody who's ever felt like a misfit.", "is_fresh": 1, "author": ["Glenn Kenny"]},
{"text": "The movie is a constant delight for its exuberant simplicity, its avoidance of sensational effects, its wit and a true feeling that transcends sentimentality.", "is_fresh": 1, "author": ["Philip French"]},
{"text": "La m\u00e1s jocosa, m\u00e1gica y deslumbrante experiencia f\u00edlmica del a\u00f1o", "is_fresh": 1, "author": ["Jorge Avila Andrade"]},
{"text": "Beautifully written, gloriously animated and tastily subversive.", "is_fresh": 1, "author": ["Ian Nathan"]},
{"text": "It's too bad about the computer animation, which works at cross-purposes to the characterization.", "is_fresh": 1, "author": ["Bryant Frazer"]},
{"text": "If you have any sense of humor, you won't leave the theater disappointed.", "is_fresh": 1, "author": ["Alex Sandell"]},
{"text": "This fable structure is allied to both a witty cynicism and sense of fun, which pervades the entire movie in equal measure.", "is_fresh": 1, "author": ["Ben Falk"]},
{"text": "This movie is like a donkey eating a waffle.", "is_fresh": 1, "author": ["Andrew Manning"]},
{"text": "At the heart of it lies a little story about love and acceptance that is actually rather bonny.", "is_fresh": 1, "author": ["Jason Anderson"]},
{"text": "An extremely funny movie.", "is_fresh": 1, "author": ["Joe Leydon"]},
{"text": "\"Shrek\" is more than just a dazzling technical achievement in digital animation, it is a witty, clever, charming romantic comedy about heroism, love and friendship.", "is_fresh": 1, "author": ["Robert Roten"]},
{"text": "A clever and adventurous combination of The Princess Bride and Beauty and the Beast.", "is_fresh": 1, "author": ["David Forsmark"]},
{"text": "\"SHREK was good. SHREK was funny. SHREK kept me entertained. I had a blast.\"", "is_fresh": 1, "author": ["Matt Easterbrook"]},
{"text": "There are so many in-jokes and general mirth in \"Shrek,\" you need to view it more than once for the full effect.", "is_fresh": 1, "author": ["Robin Clifford"]},
{"text": "A delightfully irreverent fairy tale.", "is_fresh": 1, "author": ["James Kendrick"]},
{"text": "The new technology is opening up entire worlds for moviegoers. Shrek is a prime example of this new movie magic.", "is_fresh": 1, "author": ["Mike McGranaghan"]},
{"text": "A genuinely funny film with a lot of heart that is also visually amazing", "is_fresh": 1, "author": ["Marshall Fine"]},
{"text": "The script's details are gleefully impish, constantly poking fun at Disney", "is_fresh": 1, "author": ["Laura Clifford"]},
{"text": "\"Fresh, funny, irreverent with the message that there's something wonderful in all of us.\"", "is_fresh": 1, "author": ["Susan Granger"]},
{"text": "The animation? Superb, stunning, gorgeous, Pixar-quality, fantastic, wow, man...I myself am totally surprised at how much I laughed - both times I saw it!", "is_fresh": 1, "author": ["Karina Montgomery"]},
{"text": "There was some violence that might be considered over-the-top for young viewers along with the usual flatulence humor, but the little kids sitting next me seemed to be having the time of their lives.", "is_fresh": 1, "author": ["Gary Brown"]},
{"text": "A wonderfully funny and touching film.", "is_fresh": 1, "author": ["Tony Toscano"]},
{"text": "The script, instead of being what we tolerate in order to savor the visuals, is a delight all by itself.", "is_fresh": 1, "author": ["Peter Rainer"]},
{"text": "A sly comic gem, combining a genuinely clever, very well-written story with definitive computer animation and a subversive spin.", "is_fresh": 1, "author": ["Marc Savlov"]},
{"text": "The characters are so three-dimensional you forget you're watching painted digital creatures thought up by animation wizards.", "is_fresh": 1, "author": ["Emily Blunt"]},
{"text": "The millennium's first great animated classic has been born. Long live Shrek!", "is_fresh": 1, "author": ["Elias Savada"]},
{"text": "A visually stunning animation masterpiece - Shrek is one heck of a movie.", "is_fresh": 1, "author": ["Kamal 'The Diva' Larsuel"]},
{"text": "A clever, amusing little film, but its smugness about being more politically correct than Disney is misplaced.", "is_fresh": 0, "author": ["Scott Renshaw"]},
{"text": "You may not want young, impressionable kids seeing it and reveling in the gross stuff, but everyone else should find it a wickedly funny diversion.", "is_fresh": 1, "author": ["Eric D. Snider"]},
{"text": "The best animated movie to hit the big screen since Toy Story.", "is_fresh": 1, "author": ["Scott A. Mantz"]},
{"text": "It's still a squabble over money and reputation that matters very little to most of us.", "is_fresh": 0, "author": ["Cynthia Fuchs"]},
{"text": "There's enough for the whole family to enjoy.", "is_fresh": 1, "author": []},
{"text": "The total package is magical to behold, clever and hugely entertaining for all ages.", "is_fresh": 1, "author": ["Bob Aulert"]},
{"text": "The story wasn't absolutely magical, but it was interesting, quite funny, and different, which is just what the doctor ordered.", "is_fresh": 1, "author": ["Jim Chastain"]},
{"text": "The humor -- much of it slyly adult -- never overwhelms.", "is_fresh": 1, "author": ["Donald Munro"]},
{"text": "This is beautiful work.", "is_fresh": 1, "author": ["Mick LaSalle"]},
{"text": "Too long on slick, too short on magic.", "is_fresh": 0, "author": ["David Elliott"]},
{"text": "An effort that deserves to be lumped in with the modern day classics of animation.", "is_fresh": 1, "author": ["Jim Judy"]},
{"text": "An exuberant Eddie Murphy gives the comic performance of his career.", "is_fresh": 1, "author": ["Susan Wloszczyna"]},
{"text": "Isn't so much a fractured spoof of everything Disney, but actually a Monty Python flick for kids -- kids of all ages.", "is_fresh": 1, "author": ["Joe Baltake"]},
{"text": "A movie that appeals to the eye, mind, heart and funny bone.", "is_fresh": 1, "author": ["Desson Thomson"]},
{"text": "Despite all its high-tech weirdness, is really that most perdurable of human constructions, a tale told well and true.", "is_fresh": 1, "author": ["Stephen Hunter"]},
{"text": "Funny, irreverent and moving, the unconventional Shrek may mock fairy tales, but in the process, creates its own.", "is_fresh": 1, "author": ["Kim Morgan"]},
{"text": "Any of TV animator Jay Ward's five-minute Fractured Fairy Tales has more laughs than you get here.", "is_fresh": 0, "author": ["Dave White"]},
{"text": "As low as some of the humor stoops, it can't spoil this imaginative, often clever film.", "is_fresh": 1, "author": ["Jeff Vice"]},
{"text": "Jolly and wicked, filled with sly in-jokes and yet somehow possessing a heart.", "is_fresh": 1, "author": ["Roger Ebert"]},
{"text": "In the end, Shrek is just as warm and fuzzy as any of the Disney films that it mocks, playing both sides of the fence without necessarily tearing the fence down.", "is_fresh": 1, "author": ["Wade Major"]},
{"text": "In an era when much on film seems old, Shrek seems new and fresh and clever.", "is_fresh": 1, "author": ["Jay Carr"]},
{"text": "Combines superb storytelling with state-of-the-art animation.", "is_fresh": 1, "author": ["Peter Howell"]},
{"text": "The movie is helped immensely by its cast, who carry it through some of the early, sluggish scenes. But this is Murphy's movie. Donkey gets most of the good lines, and Murphy hits every one.", "is_fresh": 1, "author": ["John Zebrowski"]},
{"text": "Its characters are delightful enough and the film is just sweet-natured and visually sophiscated enough to avoid sinking into the swamp.", "is_fresh": 1, "author": ["Paula Nechak"]},
{"text": "Am I alone in thinking that computer animation is the work of the antichrist?", "is_fresh": 0, "author": ["Stephanie Zacharek"]},
{"text": "An animated gem, on a par with the best of the modern era.", "is_fresh": 1, "author": ["Jack Garner"]},
{"text": "Not just a good 'kids' film,' but a genuinely funny comedy.", "is_fresh": 1, "author": ["Mary Kalin-Casey"]},
{"text": "The kind of movie that will entertain everyone of every age and probably for ages to come.", "is_fresh": 1, "author": ["John Anderson"]},
{"text": "A fat green ogre with a grouchy disposition and worse manners, Shrek is the sort of unlikely hero that nobody could love -- except just about everyone who sees this hip and hilarious animated delight. ", "is_fresh": 1, "author": ["Lou Lumenick"]},
{"text": "A brightly colored, fast-moving diversion.", "is_fresh": 1, "author": ["Duane Dudek"]},
{"text": "A gleefully fractured fairy tale that never becomes cynical or crass.", "is_fresh": 1, "author": ["Rene Rodriguez"]},
{"text": "Truly what a family film was meant to be -- a vehicle that has something for everyone.", "is_fresh": 1, "author": ["Drew McAnulty"]},
{"text": "A subversive little delight which turns the whole notion of the classic fairy tale on end.", "is_fresh": 1, "author": ["Louis B. Hobson"]},
{"text": "Our Beast is a beauty in his own right -- and in his own wonderfully entertaining movie.", "is_fresh": 1, "author": ["Bruce Kirkland"]},
{"text": "DreamWorks' first animated film to blow Disney out of the water.", "is_fresh": 1, "author": ["Bruce Westbrook"]},
{"text": "Swift, sweet, irreverent, rangy and as spirited in the writing and voice work as it is splendid in design.", "is_fresh": 1, "author": ["Susan Stark"]},
{"text": "It has the big green earmarks of a classic.", "is_fresh": 1, "author": ["Bruce Newman"]},
{"text": "The rendering of the displaced fairy-tale gang is wonderfully done.", "is_fresh": 1, "author": ["Mary F. Pols"]},
{"text": "One of those rare animated films that will delight and engage children while entertaining adults to no end.", "is_fresh": 1, "author": ["Terry Lawson"]},
{"text": "DreamWorks Pictures again proves a name to trust for imaginative, funny animated movies that delight kids and adults equally.", "is_fresh": 1, "author": ["Steven Rosen"]},
{"text": "A heck of a lot of fun -- even if you don't believe in fairy tales.", "is_fresh": 1, "author": ["Paul Tatara"]},
{"text": "It's possible to groan, chuckle, wince and be moist-eyed, sometimes in a span of seven or eight minutes.", "is_fresh": 1, "author": ["Lawrence Toppman"]},
{"text": "Much of it seems a little sad, a deconstructivist overlay of jaded irony.", "is_fresh": 0, "author": ["Rick Groen"]},
{"text": "Not quite as clever as the Toy Story films, but still features some first-rate vocal performances by Mike Myers, Eddie Murphy and John Lithgow.", "is_fresh": 1, "author": ["Joe Lozito"]},
{"text": "The lack of manipulative sentimentality in Shrek allows for the more serious moments to be genuinely touching and meaningful.", "is_fresh": 1, "author": ["Thomas Caldwell"]},
{"text": "A creative lark from start to finish.", "is_fresh": 1, "author": ["Frederic and Mary Ann Brussat"]},
{"text": "Takes everything Disney and stands it on his head without being very condescending or particularly spiteful.", "is_fresh": 1, "author": ["Eric Lurio"]},
{"text": "Peppered with the best fairytale spoofs since Jay Ward's Fractured Fairy Tales.", "is_fresh": 1, "author": ["Sean P. Means"]},
{"text": "A work of art, destined to take its place alongside the classics that it playfully parodies.", "is_fresh": 1, "author": ["Glenn Whipp"]},
{"text": "Fast, irreverent and magnificently animated and acted.", "is_fresh": 1, "author": ["Frank Lovece"]},
{"text": "Points the way toward some new uses of enchantment.", "is_fresh": 1, "author": ["Chris Hewitt (St. Paul)"]},
{"text": "It's no classic, but it's cute.", "is_fresh": 1, "author": ["Todd Anthony"]},
{"text": "A picture that truly is a perfect family film.", "is_fresh": 1, "author": ["Desmond Ryan"]},
{"text": "Shrek is a charmingly ornery green crank, and Murphy makes a funny sidekick.", "is_fresh": 1, "author": ["Gary Thompson"]},
{"text": "Spends so much time being cleverly hip and spoofing all things Disney that it struggles to find its own identity.", "is_fresh": 0, "author": ["Cameron Meier"]},
{"text": "It's a pleasure to be able to report that the movie both captures and expands upon the book's playful spirit of deconstruction.", "is_fresh": 1, "author": ["Jay Boyar"]},
{"text": "Shrek isn't clever or smart. It just wants you to think it is, through wink after wink after wink.", "is_fresh": 0, "author": ["Robert Wilonsky"]},
{"text": "Shrek's self-reflexive silliness is in nearly perfect counterpoint to its giddy spirit of adventure, friendship, and romance.", "is_fresh": 1, "author": ["Cody Clark"]},
{"text": "A hoot, a flat-out laugh riot of equal parts charm and cheekiness.", "is_fresh": 1, "author": ["Robert W. Butler"]},
{"text": "A kind of palace coup, a shout of defiance, and a coming of age for DreamWorks.", "is_fresh": 1, "author": ["Lisa Schwarzbaum"]},
{"text": "Mischievous enchantment with something to titillate all ages.", "is_fresh": 1, "author": ["Jane Sumner"]},
{"text": "The film's real qualities are its warmth and wit, developed without any digital assistance.", "is_fresh": 1, "author": ["Dave Kehr"]},
{"text": "Toy Story 2 had a higher in-jokes/laughs ratio without straining to demonstrate its hipness or to evoke heartfelt emotions.", "is_fresh": 0, "author": ["Mark Caro"]},
{"text": "When it's good, it's very, very good, but when it's bad, it's horrid.", "is_fresh": 0, "author": ["Eleanor Ringel Cater"]},
{"text": "A drolly satirical but genuinely enchanting animated adventure.", "is_fresh": 1, "author": ["Rob Blackwelder"]},
{"text": "A rollicking good time.", "is_fresh": 1, "author": ["Edward Johnson-Ott"]},
{"text": "Torturing the Gingerbread Man? I'm sold.", "is_fresh": 1, "author": ["Max Messier"]},
{"text": "Summer's most lovable lug.", "is_fresh": 1, "author": []},
{"text": "Desperately avoiding the risk of even a half-second of boredom, the movie is wall-to-window-to-door noise, babbling, and jokes (the first minute sees the first fart gag), and demographically it's a hard-sell shotgun spray.", "is_fresh": 0, "author": ["Michael Atkinson"]},
{"text": "Shrek may very well be the first film I've seen that has failed to live up to expectations, and then go on to exceed them.", "is_fresh": 1, "author": ["Jeffrey Huston"]},
{"text": "Beating up on the irritatingly dainty Disney trademarks is nothing new; it's just that it has rarely been done with the demolition-derby zest of Shrek.", "is_fresh": 1, "author": ["Elvis Mitchell"]},
{"text": "The witty, fractured fairy tale Shrek has a solid base of clever writing.", "is_fresh": 1, "author": ["Kenneth Turan"]},
{"text": "This is fairy tale deconstruction the whole family will get a kick out of.", "is_fresh": 1, "author": ["MaryAnn Johanson"]},
{"text": "Even though Shrek never enters Pixar's rarified league, it is an imaginative and side-splitting movie that is a treat for young and old.", "is_fresh": 1, "author": ["Steve Rhodes"]},
{"text": "On its own merits, it's great fun.", "is_fresh": 1, "author": ["Jim Lane"]},
{"text": "This isn't just a fractured fairy tale, it's a storybook vision in a mushroom cloud of imagination and fun.", "is_fresh": 1, "author": ["Erik Childress"]},
{"text": "Big hit with kids AND adults but didn't gratify me.", "is_fresh": 0, "author": ["Harvey S. Karten"]},
{"text": "Shrek turns dozens of fairy tales inside out and upside down to hilarious effect.", "is_fresh": 1, "author": ["Mark Ramsey"]},
{"text": "Not to say that the film isn't amusing, but if you were looking for the Disney-killer, keep looking.", "is_fresh": 1, "author": ["Widgett Walls"]},
{"text": "This isn't your grandmother's animated movie.", "is_fresh": 1, "author": ["Jeanne Aufmuth"]},
{"text": "A fresh fruitatious smorgasbord of laughter that has but one disappointing blemish. ", "is_fresh": 1, "author": ["Ross Anthony"]},
{"text": "The animation is absolutely incredible.", "is_fresh": 1, "author": ["Scott Chitwood"]},
{"text": "Shrek is not a guilty pleasure for sophisticated movie-goers; it is, purely and simply, a pleasure.", "is_fresh": 1, "author": ["James Berardinelli"]},
{"text": "A world-class charmer.", "is_fresh": 1, "author": ["Peter Travers"]},
{"text": "This postmodern Dreamworks cartoon takes brilliant, albeit infrequenet, jabs at Disney's totalitarian control of the fairy tale genre.", "is_fresh": 0, "author": ["Ed Gonzalez"]},
{"text": "Smart, sassy and chockablock with witty references to pop culture past and present.", "is_fresh": 1, "author": ["Frank Swietek"]},
{"text": "Chalk this sucker up with Toy Story 2 and Chicken Run in the 'fun for the whole family' category.", "is_fresh": 1, "author": ["JoBlo"]},
{"text": "However much Shrek might expand the visual palette of computer animation, much more important is the wit and compassion the CG animators at PDI/DreamWorks bring to this fractured fairy tale.", "is_fresh": 1, "author": ["Kirk Honeycutt"]},
{"text": "An instant animated classic.", "is_fresh": 1, "author": ["Todd McCarthy"]},
{"text": "Fast-paced and filled with enough cheeky humor to keep parents as entertained as their kids.", "is_fresh": 1, "author": ["Kevin Lally"]},
{"text": "A quality production, from its appearance to its voice work and even to its laughably predictable story.", "is_fresh": 1, "author": ["Jon Popick"]},
{"text": "The same low-tech requirements hold in the high-tech world of digital cinema: it all starts with the script.", "is_fresh": 1, "author": ["Michael Dequina"]},
{"text": "A new animated classic has been born.", "is_fresh": 1, "author": ["Dustin Putman"]},
{"text": "", "is_fresh": 1, "author": ["Greg Dean Schmitz"]}
]