[
{"reviews_count": "104", "title": "Soul Surfer", "avg_audience_rating": "3.9", "rotten_count": "57", "tomatometer": "45", "audience_score": "75", "avg_critic_rating": "5.3", "fresh_count": "47", "user_ratings_count": "41,590"},
{"text": "Soul Surfer's family-friendly lesson in perseverance is marred by an inability to connect with the audience or subject matter on either an emotional or intellectual level.", "is_fresh": 0, "author": ["Patrick Gamble"]},
{"text": "Soul Surfer is a heavy-handed plea for sympathy that doesn't do the real-life story justice.", "is_fresh": 0, "author": ["Anna Smith"]},
{"text": "From the production values to the savvy delivery of its Christian message, Soul Surfer is a champ.", "is_fresh": 1, "author": ["Brandy McDonnell"]},
{"text": "A solid and inspiring story about faith and family.", "is_fresh": 1, "author": ["John Hanlon"]},
{"text": "A well-intentioned, big-hearted, wannabe-crowd-pleaser that just happens to be so incompetently made that it might be rejected by Oprah's channel.", "is_fresh": 0, "author": ["Will Leitch"]},
{"text": "The best faith-based film ever made, an uplifting, entertaining and wonderfully-acted account of surfer Bethany Hamilton's life before and after a shark bit her arm off in the waters off her favorite Hawaiian beach.", "is_fresh": 1, "author": ["Roger Moore"]},
{"text": "All that separates this from made-for-TV territory is another strong turn from gifted young lead AnnaSophia Robb.", "is_fresh": 0, "author": ["Michael Dequina"]},
{"text": "A well-meaning, handsomely staged biopic of the top Hawaii-based surfing star Bethany Hamilton who lost her arm to a shark in 2003 at the age of 13...", "is_fresh": 1, "author": ["Philip French"]},
{"text": "It's ultimately let down by some heavy-handed sentimentality, an over-abundance of Bible-bashing and some dodgy CGI sequences.", "is_fresh": 0, "author": ["Matthew Turner"]},
{"text": "Essential viewing for any injured armed forces veteran or contender for next year's Paralympics.", "is_fresh": 1, "author": ["Graham Young"]},
{"text": "Sure, the film has its mawkish moments, but it's a remarkable, well-intentioned tale that deserves to ride its wave rather than to wipe out on it.", "is_fresh": 1, "author": ["David Aldridge"]},
{"text": "The film is sincere and even a little sanctimonious in the way it depicts Hamilton's family, strong Christian values and work with post-tsunami orphans in Phuket.", "is_fresh": 0, "author": ["Caroline Jowett"]},
{"text": "Clearly Bethany was quite a girl but this film prompts one simply to say \"Amen\".", "is_fresh": 0, "author": ["Derek Malcolm"]},
{"text": "With a tale this strong, what could go wrong? Pretty much everything, as it turns out, with the story buffeted into oblivion by a tidal wave of syrup.", "is_fresh": 0, "author": ["David Edwards"]},
{"text": "The film that follows is thin and frothy, though watch out for that final sentimental upsurge. It could drag and lift you against your will.", "is_fresh": 0, "author": ["Xan Brooks"]},
{"text": "It's clear that Quaid learned nothing from Jaws 3.", "is_fresh": 0, "author": ["Tim Robey"]},
{"text": "A surf film employing massive amounts of CG is incredible for all the wrong reasons.", "is_fresh": 0, "author": ["Martyn Conterio"]},
{"text": "In the end, the platitudes take over completely, but the inspirational story is still worth telling.", "is_fresh": 1, "author": ["Rich Cline"]},
{"text": "Unless you like your inspiration in heavy-handed doses, you might be better off watching the real thing - on YouTube.", "is_fresh": 0, "author": ["Francesca Steele"]},
{"text": "A succession of would-be rousing clich\u00e9s.", "is_fresh": 0, "author": ["Trevor Johnston"]},
{"text": "An amazing true story for sure, but this earnest dramatisation is so wholesome, it feels like being stuck in a never-ending Activia advert.", "is_fresh": 0, "author": ["James Mottram"]},
{"text": "Inspiring true story wipes out on underdog clich\u00e9s and waves of melodramatic Hollywood cheese. ", "is_fresh": 0, "author": ["Neil Pond"]},
{"text": "Faith-based...With its sports-movie structure and Hollywood production values, Soul Surfer is a creditable crossover picture; it just could've done with more nuance. [Blu-ray]", "is_fresh": 0, "author": ["Peter Canavese"]},
{"text": "Like Bethany's sunshine filled life, once a great white takes the talented girl's left arm, the film takes a dramatic turn in both tone and artistic execution. ", "is_fresh": 1, "author": ["Bruce Bennett"]},
{"text": "Hamilton's story is a human one with spiritual underpinnings, yet to the detriment of the inherent drama, the filmmaker tells it the other way around. ", "is_fresh": 0, "author": ["Simon Foster"]},
{"text": "Beyond the Hollywood gloss and PG rating, there is no denying the power of this gritty true story about a teenage champion surfer who defies the odds to get back on her surfboard and win again after losing her arm in a shark attack", "is_fresh": 1, "author": ["Louise Keller"]},
{"text": "It would be a lie to say that this movie rises above sports film clich\u00e9s.", "is_fresh": 0, "author": ["Dave White"]},
{"text": "As inspiring as expected.", "is_fresh": 0, "author": ["Grae Drake"]},
{"text": "Soul Surfer seems simply too sugar-coated to be true.", "is_fresh": 0, "author": ["Christine Champ"]},
{"text": "Ah, paradise -- the opening credits end and Bethany heads out of the water to church, a tent on the beach where Carrie Underwood is singing. Wait! Carrie Underwood?", "is_fresh": 0, "author": ["Michael Abernethy"]},
{"text": "Director Sean McNamara's relentlessly shiny, happy outlook crosses the line between believable and artificial by about the 10-minute mark", "is_fresh": 0, "author": ["Mike Scott"]},
{"text": "... an inspiring story, extremely well told.", "is_fresh": 1, "author": ["Jim Lane"]},
{"text": "An uplifting and utterly traditional exploration of faith in the face of death that also happens to have some terrific surfing footage and Carrie Underwood.", "is_fresh": 1, "author": ["Lori Hoffman"]},
{"text": "This would have made a better documentary than a live-action re-creation. Still, 'Soul Surfer,' despite its flaws, tells the real-life inspirational story of Bethany Hamilton, a professional surfer who lost her arm in a shark attack.", "is_fresh": 1, "author": ["Linda Cook"]},
{"text": "The brazenly cheap look to the special effects sends the film into MST3K territory, and it's certainly the most hilariously awful surprise attack by a shark since Samuel L. Jackson got devoured by one in Deep Blue Sea. ", "is_fresh": 0, "author": ["Glenn Heath Jr."]},
{"text": "The film offers motivational catch phrases instead of any real insights into Hamilton's character or the religion that the film constantly reminds us is so central to her life.", "is_fresh": 0, "author": ["Ignatiy Vishnevetsky"]},
{"text": "Robb makes an appealing screen presence; the dodgy effects work on her shape-changing stump? Not so much.", "is_fresh": 0, "author": ["Brett Michel"]},
{"text": "The movie glides by easily -- like surfing looks -- which is the result of genuine and strong filmmaking craft.", "is_fresh": 1, "author": ["Armond White"]},
{"text": "It may seem overly brave and religious but remember it is a true story.", "is_fresh": 1, "author": ["Jackie K. Cooper"]},
{"text": "An inspiring story about the amazing Bethany Hamilton, with some terrifc surfing footage. Why oh why did it have to be drenched in Disney Channel Cheery?", "is_fresh": 0, "author": ["Clint O'Connor"]},
{"text": "Soul Surfer is a rare film these days, truly heartwarming and inspirational. The performances are wonderful and true and the movie itself is exciting and lovely to look at. It's a perfect family film.", "is_fresh": 1, "author": ["Diva Velez"]},
{"text": "This inspiring movie about courage and faith offers a wonderful role model for everyone -- not just teenage girls.", "is_fresh": 1, "author": ["Betty Jo Tucker"]},
{"text": "You wonder why this movie isn't a documentary, rather than a synthetic feature film with the heroine's arm digitally removed.", "is_fresh": 0, "author": ["Moira MacDonald"]},
{"text": "Hamilton is played, blandly, by Anna Sophia Robb, and her devoted parents, less bland, are played by Dennis Quaid and Helen Hunt. The surfing footage, much of it shot off the coast of Kauai, is not bland at all.", "is_fresh": 0, "author": ["Peter Rainer"]},
{"text": "On-the-nose dramatically but marked by invested-in performances, feel-good movie of genial deification Soul Surfer should play quite well in Red State rural and suburban areas.", "is_fresh": 1, "author": ["Brent Simon"]},
{"text": "Slick, visually exciting, inspirational Christian drama based on the true comeback story of a teen surfer who loses her arm to a shark.", "is_fresh": 1, "author": ["Doris Toumarkine"]},
{"text": "It's Bethany and Alana's friendship - its sturdiness and vulnerability, its laughs and sincere apologies - that rules the day.", "is_fresh": 1, "author": ["Lisa Kennedy"]},
{"text": "A by-the-numbers biopic about young surfer Bethany Hamilton.", "is_fresh": 0, "author": ["Joe Neumaier"]},
{"text": "For plenty of family viewers, this film will catch a wave.", "is_fresh": 1, "author": ["Stephen Whitty"]},
{"text": "An inspiring tale, even when true, doesn't necessarily make for an inspiring movie.", "is_fresh": 0, "author": ["Rick Groen"]},
{"text": "Surprisingly I came out of Soul Surfer without that sticky sweet feeling you get from too much schmaltz and only a strong desire to see AnnaSophia Robb in more moves and Carrie Underwood in far fewer.", "is_fresh": 1, "author": ["Matthew Razak"]},
{"text": "There are good stories and there are good movies. Soul Surfer is a good story.", "is_fresh": 1, "author": ["Jim Slotek"]},
{"text": "Earnest sports biopic tugs at heart despite cliches.", "is_fresh": 1, "author": ["S. Jhoanna Robledo"]},
{"text": "Although the question of why God allows bad things to happen is sometimes handled clumsily, it is approached sincerely, and it clearly points to the difference faith can make.", "is_fresh": 1, "author": ["Carolyn Arends"]},
{"text": "Should be especially engrossing to young girls eager for purposeful role models and be especially appealing to parents seeking wholesome but not inane entertainment for their daughters.", "is_fresh": 1, "author": ["John Beifuss"]},
{"text": "Feels like a TV movie, something you'd see on Lifetime or WE - with the exception of the surfing footage itself.", "is_fresh": 0, "author": ["Marshall Fine"]},
{"text": "Robb delivers an intensity and ferocity that would make Kobe Bryant quake in his sneakers, which makes up for a simple story and film. ", "is_fresh": 1, "author": ["Willie Waffle"]},
{"text": "The film is not perfect - the narration is unnecessary, the surfing special effects look cheap and Carrie Underwood is unsteady in her cameo - but it's moving, anyway.", "is_fresh": 1, "author": ["Chris Hewitt (St. Paul)"]},
{"text": "Given the heroic subject, the movie is as thrilling as a dish of rice pudding, a made-for-TV-style effort that rides a wave of religious sentiment into theatres.", "is_fresh": 0, "author": ["Linda Barnard"]},
{"text": "The swells of inspirational storytelling sometimes threaten to swamp the underlying inspirational story.", "is_fresh": 0, "author": ["Michael O'Sullivan"]},
{"text": "The flaw in the storytelling strategy of \"Soul Surfer\" is that it doesn't make Bethany easy to identify with. She's almost eerie in her optimism. Her religious faith is so unshaken, it feels taken for granted.", "is_fresh": 0, "author": ["Roger Ebert"]},
{"text": "Shamelessly pandering to the elusive Christian family audience, a committee of 18 producers and seven writers has removed nearly every trace of grit from this airbrushed portrait.", "is_fresh": 0, "author": ["Lou Lumenick"]},
{"text": "Its presumed audience would be surfing enthusiasts, teenage girls, and religious conservatives - particularly Christians - who wish to see a movie reflecting their values.", "is_fresh": 1, "author": ["Daniel M. Kimmel"]},
{"text": "It's a compelling tale of surf and survival.", "is_fresh": 1, "author": ["Joe Williams"]},
{"text": "Does nearly everything you expect it to, but it does it more likably and satisfyingly than you might think it would.", "is_fresh": 1, "author": ["Steven D. Greydanus"]},
{"text": "Its bubbling optimism and spectacular scenery are hard not to like.", "is_fresh": 1, "author": ["John Anderson"]},
{"text": "...incredibly satisfying (and surprisingly suspenseful)...", "is_fresh": 1, "author": ["David Nusair"]},
{"text": "Whether or not the theatrical arena was the appropriate medium with which to tell Bethany Hamilton's story is up for debate, but it is nonetheless one that deserved to be told.", "is_fresh": 1, "author": ["Dustin Putman"]},
{"text": "Bethany's determination and faith are remarkable. It's too bad this movie made a brave young woman's life appear like an unremarkable soap opera.", "is_fresh": 0, "author": ["Claudia Puig"]},
{"text": "The surfer's story is so made-for-cinema that a complete wipeout seems almost impossible. And yet the filmmakers come pretty close.", "is_fresh": 0, "author": ["Peter Hartlaub"]},
{"text": "Sports fine performances from AnnaSophia Robb, Dennis Quaid and Helen Hunt.", "is_fresh": 1, "author": ["Peter Paras"]},
{"text": "As a portrait of a spirited, resilient athlete, the movie succeeds best, unafraid to face its heroine's daunting challenges directly.", "is_fresh": 1, "author": ["Andy Webster"]},
{"text": "Soul Surfer is the kind of sturdy, satisfying family drama that doesn't get made very often anymore. But even beyond that, at crucial moments it shows there's actually a brain behind the camera.", "is_fresh": 1, "author": ["Stephanie Zacharek"]},
{"text": "An earnest family movie that practically drowns in uplift and good intentions.", "is_fresh": 0, "author": ["Frank Swietek"]},
{"text": "A movie of easily digestible truths and canned inspirational messages, taking every possible easy route though a story that could have used a few more thorns.", "is_fresh": 0, "author": ["Katey Rich"]},
{"text": "Though it flirts with saccharine Sunday-school uplift, there's a redeeming core of sincerity in this story of real-life tragedy and perseverance.", "is_fresh": 1, "author": ["Colin Covert"]},
{"text": "like its main character, it really comes alive when it catches the waves. ", "is_fresh": 1, "author": ["Nell Minow"]},
{"text": "This is an inspirational sports drama stuffed full of Christian values and CGI that draws the eye in ways both good and bad.", "is_fresh": 0, "author": ["Laura Clifford"]},
{"text": "The best moments come when Robb's all-purpose toughness experiences vulnerable doubt. These moments are flickers, but they're bright and human.", "is_fresh": 0, "author": ["Wesley Morris"]},
{"text": "A solid inspirational story that takes seriously a couple of things often made trivial in popular entertainment: surfing and religion. ", "is_fresh": 1, "author": ["Matt Soergel"]},
{"text": "Somewhere not far beneath the glossy pop skin of Soul Surfer, the true story of Bethany Hamilton is struggling to get out.", "is_fresh": 0, "author": ["Tasha Robinson"]},
{"text": "That \"Soul Surfer\" rates as a giant leap for this team speaks well about the conviction the movie's actors bring to the material as well as the respect afforded the Hamilton family and their faith.", "is_fresh": 1, "author": ["Glenn Whipp"]},
{"text": "The movie feels emotionally distant, as if director Sean McNamara was so busy setting up gorgeous surfing footage that he forgot to bring the story to the audience.", "is_fresh": 0, "author": ["Jason Heck"]},
{"text": "AnnaSophia Robb is too subdued as the teenage heroine; one might expect more affect from a young woman fighting to overcome disability and return to competitive surfing.", "is_fresh": 0, "author": ["Andrea Gronvall"]},
{"text": "There's nothing overtly disastrous about Soul Surfer, and its Christian worldview is, if anything, too timidly touched upon.", "is_fresh": 0, "author": ["Marc Savlov"]},
{"text": "Just goes to show that the Gospel isn't always right. Faith clearly does not assure a good movie.", "is_fresh": 0, "author": ["David Hiltbrand"]},
{"text": "\"Soul Surfer\" aims for the sophisticated true-life uplift of \"127 Hours,\" but plays more like \"Gigdet Loses an Arm.\"", "is_fresh": 0, "author": ["Gary Thompson"]},
{"text": "Hamilton's life is already uplifting; there's no need to add more melodrama.", "is_fresh": 1, "author": ["Meg Jones"]},
{"text": "This movie relies on cheese when it could have striven for heart.", "is_fresh": 0, "author": ["Alexandra Cavallo"]},
{"text": "a simpering, insipid wannabe-tearjerker that rings so false it's amazing that its story is actually true", "is_fresh": 1, "author": ["Blake French"]},
{"text": "The true story of a talented Hawaiian surfer who demonstrates great courage in the face of a setback to her dreams and discovers how she is meant to serve.", "is_fresh": 1, "author": ["Frederic and Mary Ann Brussat"]},
{"text": "Plays like a commercial for inspiration. Basic events have been recreated, but actual feeling has been replaced by montage after montage after montage.", "is_fresh": 0, "author": ["Matt Pais"]},
{"text": "There's a beatific quality to AnnaSophia Robb's performance as Bethany: it's as if the character is being canonized onscreen rather than plausibly feeling her way through a massive loss.", "is_fresh": 0, "author": ["Adam Nayman"]},
{"text": "What does it mean that this sports melodrama made for tweens shows more craft and heart than most of the year's grown-up Hollywood fare?", "is_fresh": 1, "author": ["Joshua Rothkopf"]},
{"text": "Soul Surfer takes that story of complex emotions, determination and faith and turns it into overly simplistic mush.", "is_fresh": 0, "author": ["Christy Lemire"]},
{"text": "The sincere message -- perseverance is essential when faced with life's setbacks -- is a good one, but the movie is a bit of a chore to watch.", "is_fresh": 0, "author": ["Thelma Adams"]},
{"text": "Soul Surfer, while formulaic in design, is an authentic and heartfelt movie.", "is_fresh": 1, "author": ["Owen Gleiberman"]},
{"text": "Soul Surfer is so spiritually sincere that complaining about its flaws could be an expressway to Hell.", "is_fresh": 0, "author": ["Steve Persall"]},
{"text": "Nearly every conflict is built on market-tested platitudes of empowerment and registers as insincere.", "is_fresh": 0, "author": ["Aaron Hillis"]},
{"text": "Too bad that no-talent director Sean McNamara and a committee of screenwriters have dumbed down Soul Surfer to a simplistic mishmash of youth fellowship homily and Hawaii tourism ad. ", "is_fresh": 0, "author": ["Kathleen Murphy"]},
{"text": "Soul Surfer has enough integrity and surprise to lift it past a few canned moments, creating a substantial film when a cinematic disaster was all but assured.", "is_fresh": 1, "author": ["Brian Orndorf"]},
{"text": "Sappy melodrama, clumsy dialogue and heavy-handed proselytizing derail the inspirational story of teen surfer Bethany Hamilton.", "is_fresh": 0, "author": ["Steve Ramos"]},
{"text": "The true story of one-armed surfer girl Bethany Hamilton keeps its balance in Soul Surfer, a kind-hearted coming-of-age drama with killer waves.", "is_fresh": 1, "author": ["Rob Nelson"]},
{"text": "An inspiring true-life story gets a less-than-inspired film dramatization.", "is_fresh": 0, "author": ["Kirk Honeycutt"]}
]