[
{"reviews_count": "36", "title": "Spellbound", "avg_audience_rating": "3.8", "rotten_count": "6", "tomatometer": "83", "audience_score": "82", "avg_critic_rating": "7.2", "fresh_count": "30", "user_ratings_count": "16,866"},
{"text": "Today this seems above all a forward-thinking portrait of a woman battling for authority in a man's world.", "is_fresh": 1, "author": ["Jake Wilson"]},
{"text": "...a rare misfire within Hitch's otherwise solid body of work.", "is_fresh": 0, "author": ["David Nusair"]},
{"text": "I don't agree with her much, but Pauline Kael was right about this one.", "is_fresh": 0, "author": ["Walter Chaw"]},
{"text": "It may not be first-rank Hitchcock, but even second-tier Hitchcock is better than what most other directors produce.", "is_fresh": 1, "author": ["John J. Puccio"]},
{"text": "Made in an age when master shots often became a standard scene style, Hitchcock shows some real thought behind his composition.", "is_fresh": 1, "author": ["Kevin Carr"]},
{"text": "A commercial and critical hit in its day, this Best Picture Oscar nominee has seen its standing slip in the ensuing decades, as it's never mentioned on any list of Alfred Hitchcock's best works. That's a shame.", "is_fresh": 1, "author": ["Matt Brunson"]},
{"text": "It has a lot of great stuff, not least of which is the odd dream sequence, designed by none other than Salvador Dali.", "is_fresh": 1, "author": ["Jeffrey M. Anderson"]},
{"text": "Uneven film, with fascinating dream images.", "is_fresh": 1, "author": ["Michael E. Grost"]},
{"text": "One of Hollywood's most explicit films about psychoanalysis, Spellbound takes a dubious and contrived approach to the subject, but the stars (Ingrid Bergman and Gregory Peck)shine and their love story is enjoyable.", "is_fresh": 1, "author": ["Emanuel Levy"]},
{"text": "One of the director's most laughably dated films.", "is_fresh": 0, "author": ["Nick Schager"]},
{"text": "Severely dated but supremely entertaining psychological thriller", "is_fresh": 1, "author": ["James Sanford"]},
{"text": "Stylish psychodrama", "is_fresh": 1, "author": ["Daniel Eagan"]},
{"text": "Second-tier Hitchcock, notable mainly for Salvador Dali's hallucinogenic landscapes.", "is_fresh": 1, "author": ["Rob Vaux"]},
{"text": "Mid-range Hitchcock thriller with standout dream sequence.", "is_fresh": 1, "author": ["Ken Hanke"]},
{"text": "For fans of Hitchcock, it will be obvious that this isn't one of his best, but, as always, the atmosphere of suspense and mystery that he creates makes the film worth seeing.", "is_fresh": 1, "author": ["Derek Smith"]},
{"text": "Spellbound lands as one of Hitchcock's classics but it's far from his best work.", "is_fresh": 1, "author": ["Christopher Null"]},
{"text": "an incessantly talky film, with every significant action being explained in long-winded speeches about guilt and repression", "is_fresh": 0, "author": ["James Kendrick"]},
{"text": "once again Hitchcock's camera is the star of the film, elevating its status", "is_fresh": 1, "author": ["John A. Nesbit"]},
{"text": "The pat psychoanalytic answers seem all too easy by today's standards, but that really doesn't take away from enjoyment of this classic film.", "is_fresh": 1, "author": ["Brian Webster"]},
{"text": "It sounds utterly schematic, but this top-notch production redeems the majority of the clich\u00e9s.", "is_fresh": 1, "author": ["Jeremy Heilman"]},
{"text": "A syrupy serving of Freudian analysis that looks tempting but tastes of too much superego, id, and subconscious jive to be taken seriously.", "is_fresh": 0, "author": ["Dennis Schwartz"]},
{"text": "Not to be speechless about it, David O. Selznick has a rare film in Spellbound.", "is_fresh": 1, "author": ["Bosley Crowther"]},
{"text": "The best suspense film dealing with psychoanalysis that I can remember.", "is_fresh": 1, "author": ["Ted Prigge"]},
{"text": "All in all, Spellbound is more than solid, although still overrated psychological thriller. Its true importance lies not in its quality, but in the roads Hitchcock paved for future filmmakers in it.", "is_fresh": 1, "author": ["Dragan Antulov"]},
{"text": "", "is_fresh": 1, "author": ["Cole Smithey"]},
{"text": "", "is_fresh": 1, "author": ["Jake Euker"]},
{"text": "", "is_fresh": 1, "author": ["Jonathan R. Perry"]},
{"text": "", "is_fresh": 1, "author": ["Eric Melin"]},
{"text": "", "is_fresh": 0, "author": ["Sarah Chauncey"]},
{"text": "", "is_fresh": 1, "author": []},
{"text": "", "is_fresh": 1, "author": ["Frank Swietek"]},
{"text": "", "is_fresh": 1, "author": ["Rebecca Murray"]},
{"text": "", "is_fresh": 1, "author": ["Philip Martin"]},
{"text": "", "is_fresh": 1, "author": []},
{"text": "", "is_fresh": 1, "author": ["Mark Palermo"]},
{"text": "", "is_fresh": 1, "author": ["David Poland"]},
{"text": "Today this seems above all a forward-thinking portrait of a woman battling for authority in a man's world.", "is_fresh": 1, "author": ["Jake Wilson"]},
{"text": "...a rare misfire within Hitch's otherwise solid body of work.", "is_fresh": 0, "author": ["David Nusair"]},
{"text": "I don't agree with her much, but Pauline Kael was right about this one.", "is_fresh": 0, "author": ["Walter Chaw"]},
{"text": "It may not be first-rank Hitchcock, but even second-tier Hitchcock is better than what most other directors produce.", "is_fresh": 1, "author": ["John J. Puccio"]},
{"text": "Made in an age when master shots often became a standard scene style, Hitchcock shows some real thought behind his composition.", "is_fresh": 1, "author": ["Kevin Carr"]},
{"text": "A commercial and critical hit in its day, this Best Picture Oscar nominee has seen its standing slip in the ensuing decades, as it's never mentioned on any list of Alfred Hitchcock's best works. That's a shame.", "is_fresh": 1, "author": ["Matt Brunson"]},
{"text": "It has a lot of great stuff, not least of which is the odd dream sequence, designed by none other than Salvador Dali.", "is_fresh": 1, "author": ["Jeffrey M. Anderson"]},
{"text": "Uneven film, with fascinating dream images.", "is_fresh": 1, "author": ["Michael E. Grost"]},
{"text": "One of Hollywood's most explicit films about psychoanalysis, Spellbound takes a dubious and contrived approach to the subject, but the stars (Ingrid Bergman and Gregory Peck)shine and their love story is enjoyable.", "is_fresh": 1, "author": ["Emanuel Levy"]},
{"text": "One of the director's most laughably dated films.", "is_fresh": 0, "author": ["Nick Schager"]},
{"text": "Severely dated but supremely entertaining psychological thriller", "is_fresh": 1, "author": ["James Sanford"]},
{"text": "Stylish psychodrama", "is_fresh": 1, "author": ["Daniel Eagan"]},
{"text": "Second-tier Hitchcock, notable mainly for Salvador Dali's hallucinogenic landscapes.", "is_fresh": 1, "author": ["Rob Vaux"]},
{"text": "Mid-range Hitchcock thriller with standout dream sequence.", "is_fresh": 1, "author": ["Ken Hanke"]},
{"text": "For fans of Hitchcock, it will be obvious that this isn't one of his best, but, as always, the atmosphere of suspense and mystery that he creates makes the film worth seeing.", "is_fresh": 1, "author": ["Derek Smith"]},
{"text": "Spellbound lands as one of Hitchcock's classics but it's far from his best work.", "is_fresh": 1, "author": ["Christopher Null"]},
{"text": "an incessantly talky film, with every significant action being explained in long-winded speeches about guilt and repression", "is_fresh": 0, "author": ["James Kendrick"]},
{"text": "once again Hitchcock's camera is the star of the film, elevating its status", "is_fresh": 1, "author": ["John A. Nesbit"]},
{"text": "The pat psychoanalytic answers seem all too easy by today's standards, but that really doesn't take away from enjoyment of this classic film.", "is_fresh": 1, "author": ["Brian Webster"]},
{"text": "It sounds utterly schematic, but this top-notch production redeems the majority of the clich\u00e9s.", "is_fresh": 1, "author": ["Jeremy Heilman"]}
]