[
{"reviews_count": "245", "title": "Star Wars: Attack of the clones", "avg_audience_rating": "3.3", "rotten_count": "84", "tomatometer": "66", "audience_score": "56", "avg_critic_rating": "6.7", "fresh_count": "161", "user_ratings_count": "851,042"},
{"text": "... for me, it is definitely an improvement over the childish and irregular first episode. [Full review in Spanish]", "is_fresh": 1, "author": ["Sebastian Zavala Kahn"]},
{"text": "So what else works, besides [Ewan] McGregor's performance? Darn little, even compared to The Phantom Menace.", "is_fresh": 0, "author": ["Tim Brayton"]},
{"text": "His characters, as is now his norm, are plastic puppets, even in the confectionary love scenes. Most of their dialogue is so doughy that it could be spooned into comic-strip balloons. Lucas simply has no interest in these people.", "is_fresh": 0, "author": ["Stanley Kauffmann"]},
{"text": "As perpetually uneven as its underwhelming predecessor...", "is_fresh": 1, "author": ["David Nusair"]},
{"text": "The film is touching, spectacular and surprisingly coherent. It also has something the others lacked entirely: old-fashioned charm. This time, The Force is with us.", "is_fresh": 1, "author": ["Evan Williams"]},
{"text": "The technical wizardry of the action scenes are ultimately more important than the story and reason enough for nonbelievers to see and enjoy the movie.", "is_fresh": 1, "author": ["Joe Williams"]},
{"text": "Easily the most polarizing Star Wars film -- all but 5% of the fan base loathes Phantom Menace -- Attack of the Clones remains the most underrated entry in the saga.", "is_fresh": 1, "author": ["Jeffrey Lyles"]},
{"text": "Attack of the Clones is indeed a pleasant surprise. It's fine.", "is_fresh": 1, "author": ["Tim Robey"]},
{"text": "All in all, no one gets anything to do here.", "is_fresh": 0, "author": ["Glen Oliver"]},
{"text": "Attack Of The Clones lacks the light heart of the \"old\" trilogy but this deliberate throwback to matinee movie serials is still fun.", "is_fresh": 1, "author": ["Rob Lowing"]},
{"text": "On points, this beats the underwhelming Episode I: more action, less politics and better gags.", "is_fresh": 1, "author": ["Andrew Collins"]},
{"text": "It's the sheer scale of the storytelling that makes this episode superior to its immediate predecessor, and then of course there's the look of the movie. The production design is superb, with a real sense of cinematic wonder.", "is_fresh": 1, "author": ["Christopher Tookey"]},
{"text": "Allowing for some dull moments, this movie has considerable visual style.", "is_fresh": 1, "author": ["David Denby"]},
{"text": "The latest entry in George Lucas' transgalactic saga of the moral rise and fall of Anakin Skywalker and the deterioration of democracy into despotism has an electric visual majesty and boasts Lucas' best direction since American Graffiti.", "is_fresh": 1, "author": ["Michael Sragow"]},
{"text": "Attack of the Clones is the best Star Wars installment since The Empire Strikes Back, hurtling along so quickly that you hardly notice the many moments when the story fails to make sense -- even on its own fantastical terms.", "is_fresh": 0, "author": ["David Sterritt"]},
{"text": "Lucas' obsession with digital technology has obliterated the saga's last remnants of human purpose and turned his once mesmerizing space opera into a pure, dehumanized cartoon.", "is_fresh": 0, "author": ["Jack Mathews"]},
{"text": "In lieu of a proper climax, Attack Of The Clones ends with a tantalizing cliffhanger for the next episode, but Lucas' lumbering series is presenting fewer and fewer reasons to tune in.", "is_fresh": 0, "author": ["Scott Tobias"]},
{"text": "Better than Phantom, but still inferior to Episodes IV, V and VI.", "is_fresh": 1, "author": []},
{"text": "It's the last 20 minutes that save the film from too much visual information (though it is state-of-the-art awesome) and too much exposition (without the humor that made episodes IV-VI three of the best films ever made).", "is_fresh": 1, "author": ["Joel Siegel"]},
{"text": "George Lucas puts away childish things and gets down to business with Star Wars Episode II: Attack of the Clones, the movie Jedi disciples waited 16 years to see and got Episode I instead.", "is_fresh": 1, "author": ["Steve Persall"]},
{"text": "It's frustrating to watch a movie which has been so painstakingly crafted and is so extraordinarily designed and yet in which the storytelling is so sloppy, as if lost in the prosthetic and mechanical clutter on the screen.", "is_fresh": 0, "author": ["Mike Goodridge"]},
{"text": "It's still a rush to sit in a packed theater (equipped with THX, naturally) when that first blast of John Williams' fanfare sounds. Then you have to endure the rest of the movie.", "is_fresh": 0, "author": ["Christy Lemire"]},
{"text": "You can't blame actors, particularly young ones, when the words put in their mouths are almost unspeakable and the direction seems to suck them dry of energy or spontaneity. ", "is_fresh": 0, "author": ["Joe Morgenstern"]},
{"text": "Sit back and enjoy fantastic, imaginative visuals.", "is_fresh": 1, "author": ["Nell Minow"]},
{"text": "It starts off briskly with some fantastic special effects and a great high-speed chase but then founders on the shores of bad script writing.", "is_fresh": 0, "author": ["Amber Wilkinson"]},
{"text": "Though, lacking in plotline it makes up for in action and entertainment.", "is_fresh": 1, "author": ["Felix Vasquez Jr."]},
{"text": "Lucas does not always recognize his limitations. This tends to make films of mixed quality. Still, there is always enough that is excellent to make them worth seeing.", "is_fresh": 1, "author": ["Mark R. Leeper"]},
{"text": "Attack of the Clones emerges looking as bad as if not worse than its 1999 predecessor, thanks to the lame romantic subplot, which is so badly written, directed and performed that it surpasses Jar-Jar Binks as the all-time low point in the series.", "is_fresh": 0, "author": ["Steve Biodrowski"]},
{"text": "Makes The Phantom Menace seem like one long clearing of the throat before Lucas could begin to tell the real story.", "is_fresh": 1, "author": ["Matthew De Abaitua"]},
{"text": "This time the exposition is so thick that everyone except acolytes may tune out.", "is_fresh": 0, "author": ["Jonathan Rosenbaum"]},
{"text": "The special effects are remarkable, yet somehow numbing, and the film only partly lives up to the promise in the title of Lucas's company, Industrial Light and Magic.", "is_fresh": 0, "author": ["Philip French"]},
{"text": "While it lacks the quality of Empire's script and performances, Clones is the most visually enthralling of the series so far.", "is_fresh": 1, "author": ["Jeffrey Overstreet"]},
{"text": "It is certainly better than the childish Phantom Menace and the final 45 minutes of straight action beat the editing nightmare at the end of the last film.", "is_fresh": 1, "author": ["Joe Lozito"]},
{"text": "Christensen is a winning mix of sultry and sulky as the now older Anakin, while McGregor is finally beginning to relax as the mentor who understandably refuses to treat his moody pupil like a grown-up.", "is_fresh": 1, "author": ["Dominic Wells"]},
{"text": "The magic has definitely been recaptured.", "is_fresh": 1, "author": ["Chris Gore"]},
{"text": "As convincing a job as they, Christensen, and Lee do, they all end up being upstaged by the jaw-dropping skills of a CGI creation: Yoda (again voiced by Frank Oz), who finally gets a chance to show exactly why he has such a legendary reputation.", "is_fresh": 1, "author": ["Michael Dequina"]},
{"text": "The muppet steals what's otherwise an underwhelming show.", "is_fresh": 0, "author": ["Christopher Smith"]},
{"text": "Clones is far from perfect, but when it clicks, it revives the old spirit that made a generation become so obsessed with all things Star Wars in the first place.", "is_fresh": 1, "author": ["Mark Pfeiffer"]},
{"text": "It's impossible...to dismiss a film with this much stuff: exotic production design, imaginative characters, and a wide variety of digital jedi fu.", "is_fresh": 1, "author": ["Peter Canavese"]},
{"text": "It would be easy to say that this film is fantastic and blows away the others, but unfortunately I cannot.", "is_fresh": 1, "author": ["Mark Sells"]},
{"text": "Superior to Episode I -- The Phantom Menace, with its annoying Jar Jar Binks and its dull, galaxy-hopping story line. ", "is_fresh": 1, "author": ["Judith Egerton"]},
{"text": "Enjoy this film they will.", "is_fresh": 1, "author": ["Todd Gilchrist"]},
{"text": "Alternately excites and bores.", "is_fresh": 1, "author": ["Jim Shelby"]},
{"text": "I'll call it nearly good, based mostly on one hell of a last half-hour.", "is_fresh": 0, "author": ["Michael W. Phillips, Jr."]},
{"text": "It's no Empire Strikes Back but then you won't have to worry about Jar Jar too much either.", "is_fresh": 1, "author": ["Harry Guerin"]},
{"text": "How I wish I could say something other than ho-hum.", "is_fresh": 0, "author": ["Andrea Chase"]},
{"text": "You will most likely end up sitting through this latest installment - even if the series has become a shadow of its former self", "is_fresh": 0, "author": ["Brian Mckay"]},
{"text": "My God, how wonderful it would be if it just even pretended to not be so commercialized.", "is_fresh": 1, "author": ["John R. McEwen"]},
{"text": "The Star Wars franchise continues to slip into obscurity with another underwhelming entry. ", "is_fresh": 1, "author": ["Wesley Lovell"]},
{"text": "When George Lucas learns to make his audience feel the way he does about creating his worlds and the living things that populate them, he just might be more at one with a larger creative force as well. The new films are good, but they're still clones.", "is_fresh": 1, "author": ["Blake Davis"]},
{"text": "Lucas has delivered new worlds, characters, and creatures but has left in little of the humor that sparkled throughout the original Star Wars.", "is_fresh": 1, "author": ["Rebecca Murray"]},
{"text": "At least it's better than Return of the Jedi. If that sounds like faint praise... then line up and find out for yourself.", "is_fresh": 1, "author": ["Tim Merrill"]},
{"text": "I feel ambivalent about it and I'm still going to pay to see it again. It's just that important to our collective dorkitude.", "is_fresh": 1, "author": ["Ron Wells"]},
{"text": "Yes, it's better than The Phantom Menace. Think for a minute about how little that means.", "is_fresh": 0, "author": ["James Rocchi"]},
{"text": "Star Wars fans, prepare to weep with joy.", "is_fresh": 1, "author": ["Matthew Turner"]},
{"text": "It has all the moves; it never quite catches the rhythm.", "is_fresh": 1, "author": ["Margaret A. McGurk"]},
{"text": "...open your eyes and ears and disengage your mind...it's a splendid film, and enjoying it for its sheer beauty is much more fun than having to think about it.", "is_fresh": 1, "author": ["John J. Puccio"]},
{"text": "It's the breakdown of genre influences that expresses Clones' melodrama in grandiose, exciting terms.", "is_fresh": 1, "author": ["Mark Palermo"]},
{"text": "If Phantom Menace resulted in mindless boredom, then Attack of the Clones at least offers mindless entertainment.", "is_fresh": 1, "author": ["Jon Niccum"]},
{"text": "The Force is indeed with George Lucas.", "is_fresh": 1, "author": ["Urban Cinefile Critics"]},
{"text": "A tale full of sound and fury, sucking the life out of cinema.", "is_fresh": 0, "author": ["Karina Montgomery"]},
{"text": "The second half of this film is almost a different movie. Everything about it is better. Everything.", "is_fresh": 1, "author": ["Joshua Tyler"]},
{"text": "The least of the Star Wars series, but that is pretty damn good.", "is_fresh": 1, "author": ["Stefan Birgir Stefansson"]},
{"text": "Star Wars fans will be in heaven.", "is_fresh": 1, "author": ["Emily Blunt"]},
{"text": "...less irritating than its immediate predecessor - but it may be going too far to say it's a better movie. It may be going too far to say it's a movie at all", "is_fresh": 0, "author": ["Philip Martin"]},
{"text": "Basically, it's pretty but dumb.", "is_fresh": 0, "author": ["Catherine Cantieri"]},
{"text": "Es divertida, visualmente espectacular y muy entretenida. Simple y sencillamente te sorprender\u00e1.", "is_fresh": 1, "author": ["Jorge Avila Andrade"]},
{"text": "Lucas returns the series to its roots, delivering a cartoon-like adventure that uses special effects to enhance rather than replace storytelling.", "is_fresh": 1, "author": ["Forrest Hartman"]},
{"text": "Meant for Star Wars fans. It is there to give them a good time.", "is_fresh": 1, "author": ["Jeffrey Chen"]},
{"text": "While it's not quite what the first three were, it's on the right track. This one definitely is an improvement from `Episode 1'.", "is_fresh": 1, "author": ["Paul Salfen"]},
{"text": "If you fell asleep within the first fifteen minutes or so of this movie, and only woke up before the last forty minutes or so, the truth is that you wouldn't miss much.", "is_fresh": 0, "author": ["James O'Ehley"]},
{"text": "Se Obi-Wan e Yoda continuarem a brilhar desta forma, duvido que o Imp\u00e9rio dos Pessimistas consiga derrubar o trabalho do Mestre Lucas.", "is_fresh": 1, "author": ["Pablo Villa\u00e7a"]},
{"text": "The film is probably worth seeing for the sheer spectacle of it all, for the sake of obtaining valuable information, and for finding more closure on a story that has always been missing several pieces.", "is_fresh": 1, "author": ["Jim Chastain"]},
{"text": "This is the film Star Wars fans have been waiting for since 1980.", "is_fresh": 1, "author": ["Edward Havens"]},
{"text": "It's still got enough magic to coast on sheer goodwill.", "is_fresh": 1, "author": ["Shay Casey"]},
{"text": "As bright as a light saber, George Lucas strikes back with stunning imagery and the best ending yet to his popular series.", "is_fresh": 1, "author": ["Gerry Shamray"]},
{"text": "The battling Yoda looks ludicrous, like Kermit the Frog in a Matrix fight scene.", "is_fresh": 0, "author": ["Jeffrey Westhoff"]},
{"text": "less Jar Jar, no discussion of taxes and trade blockades, and more Jedis, violence, and sex appeal", "is_fresh": 1, "author": ["James Kendrick"]},
{"text": "Lucas has never been able to conjure another Han Solo, a character who could, with simply a wink, remind us that this was just an overgrown Saturday afternoon serial.", "is_fresh": 1, "author": ["Bill Muller"]},
{"text": "In the end, what I appreciated most was the unpredictability of it all.", "is_fresh": 1, "author": ["Steven Snyder"]},
{"text": "Clones largely brings everything together, deepening the arc of the entire story ... and restoring the mythological grandeur that helped establish the series in the first place.", "is_fresh": 1, "author": ["Matt Brunson"]},
{"text": "What Lucas needs to wrap up this franchise properly is a return to the fundamentals: less overplotted hooey, more thick blue liquid.", "is_fresh": 0, "author": ["Jonathan R. Perry"]},
{"text": "Action Good! Love Bad!", "is_fresh": 1, "author": ["Bob Grimm"]},
{"text": "Attack of the Clones is light years ahead of its predecessor and a return to the fun Saturday matinee feel that the original films possessed. There's a bunch of surprises, and a good mix of action, laughs, romance, and suspense.", "is_fresh": 1, "author": ["Clint Morris"]},
{"text": "Mostly it flatlines.", "is_fresh": 0, "author": ["Bryant Frazer"]},
{"text": "Ewan McGregor neither sings, dances nor takes off his clothes in Star Wars: Episode 2. There are millions of dollars worth of often breathtaking special effects and about $1.75 worth of dialogue.", "is_fresh": 1, "author": ["Ken Hanke"]},
{"text": "My precious new Star Wars movie is a lumbering, wheezy drag...", "is_fresh": 0, "author": ["Sean Burns"]},
{"text": "If you ignore the cheesy dialog and the political mumbo-jumbo, the power of the force has returned to the franchise.", "is_fresh": 1, "author": ["Cherryl Dawson and Leigh Ann Palone"]},
{"text": "This might be the most visually stunning motion picture I have ever seen.", "is_fresh": 1, "author": ["Danny Minton"]},
{"text": "Episode II has a stronger storyline than Episode I, but suffers from weak performances and poor romantic chemistry.", "is_fresh": 1, "author": ["Robert Roten"]},
{"text": "\"Attack of the Clones\" is a substantial improvement over \"Episode I,\" with more action, less downtime, a potent dose of Jedi master Yoda and -- best of all -- only a couple of brief appearances by the idiotic amphibian Jar Jar Binks.", "is_fresh": 1, "author": ["James Sanford"]},
{"text": "Two hours of nonsense and fifteen minutes that may sell a couple more bags of Yoda-endorsed Sour Cream and Onion Ruffles.", "is_fresh": 0, "author": ["Stephen Himes"]},
{"text": "Preposterous love story aside, Clones is really not that bad.", "is_fresh": 0, "author": ["Carlo Cavagna"]},
{"text": "Why does Lucas even bother planting the seeds if he refuses to let them sprout?", "is_fresh": 0, "author": ["David Keyes"]},
{"text": "The good news? Star Wars: Episode II -- Attack of the Clones is eons better than Star Wars: Episode I -- The Phantom Menace. The bad news? It's still not very good.", "is_fresh": 0, "author": ["Hazel-Dawn Dumpert"]},
{"text": "Falls to new depths of narrative incoherence, torturous banality, and acting incompetence.", "is_fresh": 0, "author": ["Peter Keough"]},
{"text": "Stunning Visuals Overcome Stunted Emotion", "is_fresh": 1, "author": ["David Poland"]},
{"text": "Ewan McGregor simply oozes wisdom and integrity as Obi-Wan Kenobi.", "is_fresh": 1, "author": ["Betty Jo Tucker"]},
{"text": "It's good, but before you get all trendy on me and skip a week of work to stand in line, I should really tell you that Attack of the Clones is (gasp!) not worth waiting in endless lines for.", "is_fresh": 1, "author": ["Audrey Rock-Richardson"]},
{"text": "It's an ambitious film, and as with all ambitious films, it has some problems. But on the whole, you're gonna like this movie.", "is_fresh": 1, "author": ["Cory Cheney"]},
{"text": "Just watching the little fuzzy guy doing stuff that would put Cirque du Soleil to shame was a blast in and of itself.", "is_fresh": 1, "author": ["Matt Easterbrook"]},
{"text": "If Attack of the Clones struggles harder than its predecessors, its triumphs still shine through.", "is_fresh": 1, "author": ["Rob Vaux"]},
{"text": "A riot of sterility, with planetscape after stunning planetscape swallowing up its characters and their petty concerns.", "is_fresh": 0, "author": ["Catharine Tunnacliffe"]},
{"text": "Attack of the mildly engaging plot.", "is_fresh": 1, "author": ["Kamal 'The Diva' Larsuel"]},
{"text": "As [Lucas] gained expensive digital wizardry, he... lost something more important: the power of myth, the draw of character, the appeal of a simple, riveting story.", "is_fresh": 0, "author": ["Eugene Novikov"]},
{"text": "The magic of the original films cannot be recaptured, but this is a marvelous ride nonetheless.", "is_fresh": 1, "author": ["Eric D. Snider"]},
{"text": "Abounds in A-budget variations of Saturday-matinee B-movie excitement.", "is_fresh": 1, "author": ["Joe Leydon"]},
{"text": "With Clones, the series takes a giant leap forward, even if it hasn't managed to get back where it was two decades ago.", "is_fresh": 1, "author": ["Sam Adams"]},
{"text": "Delivers the requisite goods, but no more, to fans of the spectacularly popular sci-fi saga.", "is_fresh": 1, "author": ["Doris Toumarkine"]},
{"text": "Isn't it sad that these movies no longer sweep us away, but force us to sit making mental checklists of what George Lucas has done right and what he has done wrong?", "is_fresh": 0, "author": ["Ian Waldron-Mantgani"]},
{"text": "As one of the millions of so-called fan-geeks out there, Episode II was all I hoped it would be.", "is_fresh": 1, "author": ["Mike McGranaghan"]},
{"text": "\"Star Wars Episode II: Attack of the Clones\" is the most stunningly beautiful, visually dazzling and fiercely action-packed of all the \"Star Wars\" films.", "is_fresh": 1, "author": ["Michael Szymanski"]},
{"text": "Well, it's better than The Phantom Menace. But George Lucas' latest chapter suffers from onerous self-importance.", "is_fresh": 0, "author": ["Jim Lane"]},
{"text": "George Lucas, unwilling to relinquish control over this universe he created, is solely to blame for this celluloid garbage. ", "is_fresh": 0, "author": ["Scott Nash"]},
{"text": "The diverging plot lines and the rich, expansive and incredibly beautiful scenery and planets -- not to mention the constant action -- almost make up for Lucas' deficiency with the spoken word.", "is_fresh": 1, "author": ["Noah Davis"]},
{"text": "Attack of the Clones, while rallying in its final third, is as talky and long-winded as the bickering Jedi Council.", "is_fresh": 0, "author": ["Marc Savlov"]},
{"text": "A commendable example of the sort of movie we once loved and then outgrew.", "is_fresh": 1, "author": ["Peter Rainer"]},
{"text": "There's an amazing gladiator-like confrontation in a coliseum followed by a rip-roaring battle scene between the Jedi warriors and the army of clones.", "is_fresh": 1, "author": ["Gary Brown"]},
{"text": "The richness of its world -- the production design is marvelous, especially in the spaceships and interiors -- is fantastic to behold.", "is_fresh": 1, "author": ["J. Robert Parks"]},
{"text": "Inteligente, llena de acci\u00f3n, con toque de romance como elemento adicional, y en un mundo de ficci\u00f3n que amamos... Star Wars ha regresado.", "is_fresh": 1, "author": ["Alex Ramirez"]},
{"text": "THX Digital sound and some great visual fury...signifying nothing. ", "is_fresh": 0, "author": ["Collin Souter"]},
{"text": "The script is weak, the dialogue is flat, the acting is stiff, and most of all, the all-important love story that's supposed to give the film its emotional core just doesn't work.", "is_fresh": 0, "author": ["Scott A. Mantz"]},
{"text": "By far the best movie to be released so far in 2002.", "is_fresh": 1, "author": ["Phil Villarreal"]},
{"text": "Attack of the Clones will likely be remembered as cluttered with inconsequential character and plot details and excessive special effects.", "is_fresh": 0, "author": ["Todd R. Ramlow"]},
{"text": "The film is not as bad as the mainstream critics are making it out to be. Unfortunately, it's not as good as the hardcore fan critics are saying, either.", "is_fresh": 1, "author": ["Widgett Walls"]},
{"text": "Despite some weaknesses, Attack of the Clones redeems the franchise.", "is_fresh": 1, "author": ["Mike DeWolfe"]},
{"text": "The scale of the enterprise is thrilling; it's too bad the movie is so muddled on so many different levels.", "is_fresh": 1, "author": ["David Edelstein"]},
{"text": "Now THIS is a Star Wars movie. Attack of the Clones has much more rooted into the Star Wars universe as we know it.", "is_fresh": 1, "author": ["Eric Campos"]},
{"text": "The Phantom Menace and Attack of the Clones have reduced the franchise to, well, a franchise.", "is_fresh": 0, "author": ["Desson Thomson"]},
{"text": "Hold on to your No-Doz: Another Star Wars is here.", "is_fresh": 0, "author": ["Rex Reed"]},
{"text": "This is a special effects extravaganza.", "is_fresh": 1, "author": ["Bob Bloom"]},
{"text": "Beautifully majestic...often awe-inspiring...five times better than Episode I.", "is_fresh": 1, "author": ["Dustin Putman"]},
{"text": "Fans have a fix, audiences have an adventure, and Lucas has another blockbuster; what's not to love?", "is_fresh": 1, "author": ["Kevin A. Ranson"]},
{"text": "It plays like an infomercial plugging the newest in digital filmmaking.", "is_fresh": 1, "author": ["Dennis Schwartz"]},
{"text": "You might check your watch a couple of times during the long, long set-up, but that last act will have you riveted to your seat!", "is_fresh": 1, "author": ["Kevin N. Laforest"]},
{"text": "It's just fun, pure and simple.", "is_fresh": 1, "author": ["David Cornelius"]},
{"text": "May qualify as the third-best episode yet -- behind The Empire Strikes Back and Star Wars.", "is_fresh": 1, "author": ["Duane Dudek"]},
{"text": "An entertainment so in love with its overinflated mythology that it no longer recognizes the needs of moviegoers for real characters and compelling plots.", "is_fresh": 0, "author": ["Robert W. Butler"]},
{"text": "I'm all over the action in the movie, and the last half hour alone is literally worth the price of admission.", "is_fresh": 1, "author": ["Steve Tilley"]},
{"text": "A solid summer movie worth its admission price.", "is_fresh": 1, "author": ["Louis B. Hobson"]},
{"text": "A better movie than the clumsy Phantom Menace.", "is_fresh": 1, "author": ["Bruce Kirkland"]},
{"text": "It at least delivers the goods, full of the requisite explosions, duels, sci-fi landscapes and action set-pieces that the average moviegoer expects.", "is_fresh": 1, "author": ["Luke Y. Thompson"]},
{"text": "Back are the old-fashioned movie-serial thrills, breathtaking action sequences, elaborate mythology and vivid imagination that made his original Star Wars trilogy such a success back in the 1970s and '80s.", "is_fresh": 1, "author": ["Jack Garner"]},
{"text": "This film is too busy hitting all of its assigned marks to take on any life of its own.", "is_fresh": 0, "author": ["Joe Baltake"]},
{"text": "With Clones, it is abundantly clear that the Force just isn't with [Lucas] any longer.", "is_fresh": 0, "author": ["John Paul Powell"]},
{"text": "The old charm is mostly left behind, a twinkle in Princess Leia's eyes, while Lucas clones films with industrial fervor.", "is_fresh": 0, "author": ["David Elliott"]},
{"text": "Unlike the first Star Wars, made for a general audience in search of a good time, Attack of the Clones is pitched to a cult audience.", "is_fresh": 0, "author": ["Mick LaSalle"]},
{"text": "Watching Attack of the Clones is like getting rapped on the head with a rubber mallet -- no lasting damage (I pray and hope), but bad enough to bring on an acute bout of dizziness and disorientation.", "is_fresh": 0, "author": ["Rick Groen"]},
{"text": "Yes, Episode II is beautifully rendered and better than the last. It's also duller than Tatooine's desert landscape until the last half-hour.", "is_fresh": 0, "author": ["Melanie McFarland"]},
{"text": "Takes itself on a dazzling, digital tear.", "is_fresh": 1, "author": ["Geoff Pevere"]},
{"text": "To borrow from Yoda-speak: Much to desire we still have.", "is_fresh": 0, "author": ["Terry Lawson"]},
{"text": "It's too long, it's too dull, it's too lame.", "is_fresh": 0, "author": ["Stephen Hunter"]},
{"text": "By going forward into the past to create a 'prequel' trilogy, Lucas has trapped himself in a fundamentally anticlimactic venture.", "is_fresh": 0, "author": ["Steven Rosen"]},
{"text": "Lucas trumps himself with the coolest lightsaber fight since the first Luke-vs.-Vader face-off in The Empire Strikes Back.", "is_fresh": 1, "author": ["Sean P. Means"]},
{"text": "A cosmic letdown to watch this new film and realize that Lucas still doesn't know how to write dialogue or direct flesh- and-blood actors and, even more significantly, has largely forgotten how to evoke wonder and have a little fun.", "is_fresh": 0, "author": ["Glenn Whipp"]},
{"text": "Instead of zesty and daring, Attack of the Clones is often labored and stiff.", "is_fresh": 0, "author": ["Renee Graham"]},
{"text": "This didn't feel like Star Wars. It felt like a movie ripping off Star Wars. Something wasn't right.", "is_fresh": 0, "author": ["Alex Sandell"]},
{"text": "Christensen succeeds because he reveals the flashes of evil within Anakin's character: a word, a gesture, a youthful burst of impatience.", "is_fresh": 1, "author": ["Donald Munro"]},
{"text": "This is a fantasy with no poetry in it, which explains why barely a frame of it stuck with me after I left the theater.", "is_fresh": 0, "author": ["Stephanie Zacharek"]},
{"text": "Lucas has recaptured and accentuated the elements that made the original films such a joy to experience.", "is_fresh": 1, "author": ["Mark Dujsik"]},
{"text": "Well, it's not as bad as the last one.", "is_fresh": 0, "author": ["Edward Johnson-Ott"]},
{"text": "While it was always clear that Lucas cared more about special effects than acting, here his lack of interest has produced phenomenally wooden performances from newcomers and veterans alike.", "is_fresh": 0, "author": ["Maitland McDonagh"]},
{"text": "Just entertaining enough to warrant a bit more than a passing grade, the film is better than Menace, but not by a great deal and still has too many glaring problems to make it as good or just plain enjoyable as it could and should have been.", "is_fresh": 1, "author": ["Jim Judy"]},
{"text": "Not quite as good as you'd hope, but Clones marches in the right direction.", "is_fresh": 1, "author": []},
{"text": "Bristles with excitement in every frame making this installment a high-energy adventure.", "is_fresh": 1, "author": ["Tony Toscano"]},
{"text": "Simply put, the 'good stuff' in Attack of the Clones so outweighs the bad...that the bad is hardly worth mentioning.", "is_fresh": 1, "author": ["Scott Weinberg"]},
{"text": "The emphasis on computer-generated effects ultimately robs the movie of much of its energy.", "is_fresh": 0, "author": ["Mary F. Pols"]},
{"text": "Clones is more star chores than Star Wars.", "is_fresh": 0, "author": ["Glenn Lovell"]},
{"text": "Episode II is certainly flawed, but Lucas gets enough things right to give even disillusioned Star Wars fans new hope for Episode III.", "is_fresh": 1, "author": ["Mary Kalin-Casey"]},
{"text": "George Lucas isn't going to recapture the magic of the original trilogy. It's just not going to happen, not with this series -- after Clones, there's no doubt.", "is_fresh": 0, "author": ["Gary Thompson"]},
{"text": "[T]here's nothing new to the picture, no creative chance taken.", "is_fresh": 0, "author": ["Steve Schneider"]},
{"text": "At its best, it recaptures the sense of fun we got from the first movie.", "is_fresh": 1, "author": ["Eric Harrison"]},
{"text": "Will it win new Star Wars acolytes? Probably not. Will it please Star Wars loyalists? Without a doubt.", "is_fresh": 1, "author": ["Philip Wuntch"]},
{"text": "It's a mixed bag, but not as dreadfully mixed as the last one.", "is_fresh": 0, "author": ["Paul Tatara"]},
{"text": "It's dark but has wonderfully funny moments; you care about the characters; and the action and special effects are first-rate.", "is_fresh": 1, "author": ["Paul Clinton (CNN.com)"]},
{"text": "No screen fantasy-adventure in recent memory has the showmanship of Clones' last 45 minutes.", "is_fresh": 1, "author": ["Mike Clark"]},
{"text": "This is not another Phantom Menace franchise; it's a phenomenal, eye-popping feast for the senses.", "is_fresh": 1, "author": ["Blake French"]},
{"text": "These days Star Wars is all backstory and no front story.", "is_fresh": 0, "author": ["Mark Steyn"]},
{"text": "It's better than The Phantom Menace. But unless you're an absolute raving Star Wars junkie, it isn't much fun.", "is_fresh": 0, "author": ["Todd Anthony"]},
{"text": "It's exactly the big fix of Saturday-matinee adventure, blazing special effects, inside humor and sly self-references for which its fans have been lusting.", "is_fresh": 1, "author": ["William Arnold"]},
{"text": "George, hire a real director and good writers for the next installment, please.", "is_fresh": 0, "author": ["Robin Clifford"]},
{"text": "The computer generated sets may amaze, and computer-generated characters blend seamlessly with live actors. But it is the return of the humans that makes Clones work.", "is_fresh": 1, "author": ["Roger Moore"]},
{"text": "A rollicking ride, with jaw-dropping action sequences, striking villains, a gorgeous color palette, astounding technology, stirring music and a boffo last hour that leads up to a strangely sinister happy ending.", "is_fresh": 1, "author": ["Shawn Levy"]},
{"text": "Attack of the Clones is a triumph of technology over humanity, and if it falls short of a completely fulfilling experience, it also achieves the kind of primal emotion movies were invented for: wonder.", "is_fresh": 1, "author": ["Rene Rodriguez"]},
{"text": "It may not be a perfect film, but Attack of the Clones is close to what we've come to expect from a Star Wars movie.", "is_fresh": 1, "author": ["Jeff Vice"]},
{"text": "The film isn't without flaws -- acting is wooden early on, at least one action scene could be cut and certain computer effects look phony. But it's worthy of this compliment: Clones is a real Star Wars movie.", "is_fresh": 1, "author": ["Dan Fazio"]},
{"text": "The saga regains its grandeur with a complicated but easy-to-follow story. The characters are as satisfying as the effects.", "is_fresh": 1, "author": ["Lawrence Toppman"]},
{"text": "Too close to Phantom Menace for comfort.", "is_fresh": 0, "author": ["Eleanor Ringel Cater"]},
{"text": "Star Wars is back in a major way.", "is_fresh": 1, "author": ["Larry Carroll"]},
{"text": "Lucas may have the tin ear for dialogue of a dime-store pulp novelist, but he's still got the visionary eye of a technological Tolkien...", "is_fresh": 1, "author": ["Steven D. Greydanus"]},
{"text": "If you're not a long-standing admirer there's little reason to join the queues on opening night.", "is_fresh": 1, "author": ["Andrew Howe"]},
{"text": "The words 'star wars' set off an ingrained Pavlovian reaction to embrace unconditionally. You might as well ask me to critique my mother.", "is_fresh": 1, "author": ["MaryAnn Johanson"]},
{"text": "Lucas has in fact come closer than anyone could desire to the cheap, graceless, hackneyed sci-fi serials of the '30s and '40s.", "is_fresh": 0, "author": ["Michael Atkinson"]},
{"text": "Matches and even trumps some of the finer elements of the original, revered sci-fi adventures.", "is_fresh": 1, "author": ["Sean O'Connell"]},
{"text": "Consistently thrilling and massively enjoyable, Clones redeems Lucas' reputation after Menace.", "is_fresh": 1, "author": ["Danny Graydon"]},
{"text": "One thing you notice about the new Star Wars movie is how people who did little but stand around in the previous story now get up and get down and actually do something.", "is_fresh": 1, "author": ["Matt Soergel"]},
{"text": "The persistent shadow of Darth Vader is the most interesting aspect in a movie that fails to live up to its potential.", "is_fresh": 1, "author": ["Andrew Manning"]},
{"text": "It's a lot of fun and there's a lot of great action sequences.", "is_fresh": 1, "author": ["Richard Roeper"]},
{"text": "For those of us who respond more strongly to storytelling than computer-generated effects, the new Star Wars installment hasn't escaped the rut dug by the last one.", "is_fresh": 0, "author": ["Mark Caro"]},
{"text": "This movie should thoroughly please old fans and even create new ones, even if it probably won't win over critics who believe the series has turned into the movie equivalent of a slick, vacuous theme park.", "is_fresh": 1, "author": ["Michael Wilmington"]},
{"text": "The picture looks absolutely gorgeous...but quite simply, it's difficult to decide what's flatter--Lucas' helming or his writing.", "is_fresh": 0, "author": ["Frank Swietek"]},
{"text": "A gloriously fun last 30 minutes isn't enough to hide a preceding two hours of bland entertainment", "is_fresh": 0, "author": ["Garth Franklin"]},
{"text": "Dozens of moments catch you up and take your breath away.", "is_fresh": 1, "author": ["Jeffrey M. Anderson"]},
{"text": "A decidedly mixed bag.", "is_fresh": 0, "author": ["David Ansen"]},
{"text": "In a time when, more often than not, sequels disappoint, it's refreshing to uncover something this high-profile that fulfils the promise of its name and adds another title to a storied legacy.", "is_fresh": 1, "author": ["James Berardinelli"]},
{"text": "This thing will have your mind glazed over faster than a glob of dough in a Krispy Kreme plant.", "is_fresh": 0, "author": ["Steven Rea"]},
{"text": "Much-anticipated and ultimately lackluster movie.", "is_fresh": 0, "author": ["John Anderson"]},
{"text": "Lucas' gift for animating the inanimate turns out to be paralleled by a tendency to deaden what should be completely alive.", "is_fresh": 0, "author": ["Kenneth Turan"]},
{"text": "A vast improvement on the last episode in the Star Wars franchise, The Phantom Menace.", "is_fresh": 1, "author": ["Annlee Ellingson"]},
{"text": "On a purely visceral level, Clones is a delightfully rousing, eye-popping, crowd-pleasing homage to Saturday-morning serials of the '30s and '40s.", "is_fresh": 1, "author": ["Lou Lumenick"]},
{"text": "Exalts the character of former Queen, now Senator Padm\u00e9 Amidala (Natalie Portman), whose impressive array of attractive costumes appropriate the young actress' natural beauty.", "is_fresh": 1, "author": ["Yazmin Ghonaim"]},
{"text": "While the first Star Wars will always be a sentimental favorite, Attack of the Clones may well be the best in the series overall.", "is_fresh": 1, "author": ["Staci Layne Wilson"]},
{"text": "Lucas' slickest trick is how by the end--in spite of any snickers or groans one may have uttered along the way--one finds oneself invested in the fates of these characters.", "is_fresh": 1, "author": ["Michael Dequina"]},
{"text": "Christensen shines at the centre.", "is_fresh": 1, "author": ["Rich Cline"]},
{"text": "Millions of dollars heaped upon a project of such vast proportions need to reap more rewards than spiffy bluescreen technique and stylish weaponry.", "is_fresh": 0, "author": ["Jeanne Aufmuth"]},
{"text": "All...Lucas appears to be capable of these days is producing enough fireworks in his last act to elicit hope in his audience that his next installment will be better", "is_fresh": 0, "author": ["Laura Clifford"]},
{"text": "Lucas is a toymaker and merchandising mogul who has long since lost the human touch.", "is_fresh": 0, "author": ["Scott Von Doviak"]},
{"text": "The Force against dullness is finally goosing George Lucas.", "is_fresh": 1, "author": ["Peter Travers"]},
{"text": "Altogether, the movie is enjoyable despite its nagging script inadequacies and crummy 'down' scenes.", "is_fresh": 1, "author": ["Christopher Null"]},
{"text": "It's worth the price of a ticket. You're going to see the damn thing anyway, have a clear conscience.", "is_fresh": 1, "author": ["Eric Lurio"]},
{"text": "Funny, complex and enormous fun.", "is_fresh": 1, "author": ["Chris Hewitt (UK)"]},
{"text": "Episode II-- Attack of the Clones is a technological exercise that lacks juice and delight.", "is_fresh": 0, "author": ["Roger Ebert"]},
{"text": "George Lucas has reached deep into the trove of his self-generated mythological world to produce a grand entertainment that offers a satisfying balance among the series' epic, narrative, technological and emotional qualities.", "is_fresh": 1, "author": ["Todd McCarthy"]},
{"text": "Enjoyable stuff, and a new, if short-lived, hope.", "is_fresh": 1, "author": ["Peter Bradshaw"]},
{"text": "Do we really have to wait another three years?", "is_fresh": 1, "author": ["Brian Orndorf"]},
{"text": "Wonder, hope and magic can never escape the heart of the boy when the right movie comes along, especially if it begins with the name of Star Wars", "is_fresh": 1, "author": ["Erik Childress"]},
{"text": "Its screenplay serves as auto-critique, and its clumsiness as its own most damning censure.", "is_fresh": 0, "author": ["Walter Chaw"]},
{"text": "I'm tempted to quote an evergreen Public Enemy song: don't believe the hype.", "is_fresh": 0, "author": ["A.O. Scott"]},
{"text": "It's all about Anakin ... and the lustrous polished visuals rich in color and creativity and, of course, special effect.", "is_fresh": 1, "author": ["Ross Anthony"]},
{"text": "...as the story congeals you feel the pieces of the Star Wars saga falling into place in a way that makes your spine tingle with revelation and excitement.", "is_fresh": 1, "author": ["Rob Blackwelder"]},
{"text": "In the end, Clones bests Menace on most levels... acting, story, effects, score.", "is_fresh": 1, "author": ["Blake Wright"]},
{"text": "Star Wars fans should be entertained and general audiences should get a kick out of it too.", "is_fresh": 1, "author": ["Scott Chitwood"]},
{"text": "Thanks to all the bang-bang, this tale rollicks.", "is_fresh": 1, "author": ["Mark Ramsey"]},
{"text": "Other than McGregor, who continues to cut a dashing figure as the sagacious Jedi, the movie is plagued by bad acting.", "is_fresh": 0, "author": ["Kirk Honeycutt"]},
{"text": "An action-packed, fun-filled adventure.", "is_fresh": 1, "author": ["Susan Granger"]},
{"text": "Nothing more than a decent action flick with great effects and a silly story that happens to be blessed by a very good pedigree.", "is_fresh": 1, "author": ["Jon Popick"]},
{"text": "Move over Spidey, George Lucas is bringing out a sci-fi movie with a little more gravitas to knock you off your perch.", "is_fresh": 1, "author": ["Steve Rhodes"]},
{"text": "George Lucas returns as a visionary with a tale full of nuance and character dimension.", "is_fresh": 1, "author": ["Victoria Alexander"]},
{"text": "Here we are again: not entertained, not nearly enough, by an installment of the Star Wars epic that, for the first time, exhibits symptoms of... nerves.", "is_fresh": 0, "author": ["Lisa Schwarzbaum"]},
{"text": "Here's the good news: the latest toy from George Lucas's soulless Star Wars factory is better than The Phantom Menace. Now the bad: it's not much better.", "is_fresh": 0, "author": ["Ed Gonzalez"]},
{"text": "Impeccable visuals, intriguing characters, awesome action sequences, a surprising romance and a generally more \"adult\" feel..", "is_fresh": 1, "author": ["JoBlo"]},
{"text": "While the film is clearly a step up from Menace, it still has its weak points.", "is_fresh": 1, "author": ["Alex Keen"]},
{"text": "At the end, when the now computerized Yoda finally reveals his martial artistry, the film ascends to a kinetic life so teeming that even cranky adults may rediscover the quivering kid inside.", "is_fresh": 1, "author": ["Richard Corliss"]},
{"text": "", "is_fresh": 1, "author": ["Daniel Kasman"]},
{"text": "", "is_fresh": 1, "author": ["Scott Feschuk"]}
]