[
{"reviews_count": "87", "title": "Star Wars: Return Of The Jedi", "avg_audience_rating": "4.1", "rotten_count": "17", "tomatometer": "80", "audience_score": "94", "avg_critic_rating": "7.2", "fresh_count": "70", "user_ratings_count": "1,010,639"},
{"text": "\"Return of the Jedi,\" the final act of George Lucas' first \"Star Wars\" trilogy, is the best one yet. ", "is_fresh": 1, "author": ["Michael Blowen"]},
{"text": "It's not a total disappointment, but compared to its two predecessors, it's definitely a minor film. [Full review in Spanish]", "is_fresh": 1, "author": ["Sebastian Zavala Kahn"]},
{"text": "It's largely captivating at gigantic SFX and VFX spectacle; it's good at family movie and it's trivial at adult movie.", "is_fresh": 1, "author": ["Tim Brayton"]},
{"text": "'Jedi' takes a little longer to get going, but once it does, the Star Wars finale ends on a satisfying and rewarding note for fans who watch it for the first of 50th time.", "is_fresh": 1, "author": ["Jeffrey Lyles"]},
{"text": "...a capper to a solid trilogy that's nevertheless not quite the flawless work its reputation would seem to indicate.", "is_fresh": 1, "author": ["David Nusair"]},
{"text": "There are all sorts of hints in the latest escapade (notionally directed by Richard Marquand) that we are meant to be taking it seriously.", "is_fresh": 0, "author": ["Evan Williams"]},
{"text": "It's everything it ought to be -- glorious, exhilarating, exciting, absorbing, technically wondrous. But there also is something bittersweet in the knowledge that, with Jedi, we are bidding a fond farewell to all of the characters we got to know so well.", "is_fresh": 1, "author": ["Rena Andrews"]},
{"text": "The characters and dialogue get lost somewhere between the bug-eyed monsters and the exploding spaceships, but it is all so much fun it probably really does not matter a whole lot.", "is_fresh": 1, "author": ["Harper Barnes"]},
{"text": "The film has special effects so incredible that it will become the standard by which future efforts are measured, and it leaves the audience cheering and happy.", "is_fresh": 1, "author": ["Robert W. Butler"]},
{"text": "With this last of the central Star Wars cycle, there is the sense of the closing of a circle, of leaving behind real friends. It is accomplished with a weight and a new maturity that seem entirely fitting, yet the movie has lost none of its sense of fun.", "is_fresh": 1, "author": ["Sheila Benson"]},
{"text": "Lucas has once again recycled the B movies of his youth: jungle movies, gangster movies, pirate movies, you name it. He culls bits from them that still have oomph and mounts them with a Sesame-Street zap.", "is_fresh": 1, "author": ["Joy Gould Boyum"]},
{"text": "Highly entertaining.", "is_fresh": 1, "author": ["Desson Thomson"]},
{"text": "Though the 1983 film's effects seem almost quaint by today's awesome standards, Jedi has something the newer movies don't: characters we care about, not to mention a plot that involves both them and us.", "is_fresh": 1, "author": ["Rita Kempley"]},
{"text": "Unfortunately, it conveys the sense that the machinery has already started to wear down, and the inventiveness to wear thin.", "is_fresh": 0, "author": ["Arthur Knight"]},
{"text": "The trilogy is superior entertainment that, have assimilated its sources, has itself become the real thing, making movie history.", "is_fresh": 1, "author": ["Ernest Leogrande"]},
{"text": "...when Luke and Darth Vader face off before the drooling Emperor, the franchise comes to its rightful fruition.", "is_fresh": 1, "author": ["Josh Larsen"]},
{"text": "The appeal, perhaps, will be strongest to the young.", "is_fresh": 0, "author": ["Patrick Gibbs"]},
{"text": "For all its faults and goofy plot holes, \"Return of the Jedi\" is a solid finisher.", "is_fresh": 1, "author": ["Felix Vasquez Jr."]},
{"text": "The Force was always with it, and time, though not entirely kind, still affirms that most important truth.", "is_fresh": 1, "author": ["Rob Vaux"]},
{"text": "Though slow to pick up the pace and saddled with an anticlimatic sequence at the finish, Jedi is nonetheless reasonably fast paced for its 133-minute length, a visual treat throughout.", "is_fresh": 1, "author": ["James Harwood"]},
{"text": "With every Jedi disappointment comes a new appreciation: for the genius of John Williams' music; for all that father-son stuff that once felt so mushy and now, with maturity, feels elemental; for Han's ironic-hero stance.", "is_fresh": 1, "author": ["Lisa Schwarzbaum"]},
{"text": "This installment is deemed by some fans to be the best of the first Star Wars trilogy in technical accomplishment and narrative involvment, but other critics disagree.", "is_fresh": 1, "author": ["Emanuel Levy"]},
{"text": "Ewok-filled finale less Force-ful than previous.", "is_fresh": 1, "author": ["Charles Cassady"]},
{"text": "A fragilidade de Marquand como diretor e a crescente infantiliza\u00e7\u00e3o da narrativa s\u00e3o facilmente constat\u00e1veis, mas ainda assim o filme consegue fechar satisfatoriamente a trilogia original.", "is_fresh": 1, "author": ["Pablo Villa\u00e7a"]},
{"text": "It is not as exciting as Star Wars itself, which had the advantage of novelty. But it is better and more satisfying than The Empire Strikes Back...", "is_fresh": 1, "author": ["Gerald Clarke"]},
{"text": "Return is such a dud that no amount of [Special Edition] reworking could have saved it.", "is_fresh": 0, "author": ["Steve Biodrowski"]},
{"text": "The finale to the saga's first chapter wobbles from time to time and the mythology grows a little woolly, but that spectacular conclusion is hard to resist.", "is_fresh": 1, "author": []},
{"text": "The space battles are well-staged and various loose narrative threads are pulled together neatly.", "is_fresh": 1, "author": []},
{"text": "With its feints at horror and pathos, the third Star Wars film is the most Disney-esque in its emotional outline, yet that outline is buried beneath an obnoxiously hyped-up pace that reduces the emotions to rubble.", "is_fresh": 0, "author": ["Dave Kehr"]},
{"text": "The third Star Wars film, and the sixth in the series, begins with a bang as our heroes try to wrap up the threads left hanging at the end of The Empire Strikes Back.", "is_fresh": 1, "author": ["Jeffrey M. Anderson"]},
{"text": "In scope and ambition, Jediresembles nothing so much as the next level of a computer game, with a new environment, new gadgets and new creatures.", "is_fresh": 0, "author": ["Steve Grant"]},
{"text": "The problems with Jedi cannot be fixed even with the best digital software in the galaxy: the weak story, the bad performances, the burp jokes, and Luke's bizarre-looking hair mop.", "is_fresh": 0, "author": ["Chris Gore"]},
{"text": "First-class entertainment.", "is_fresh": 1, "author": ["Michael Dequina"]},
{"text": "Along with some equally captivating special effects and a heavy dose of action, Return of the Jedi is still a solid combination of everything you love about the first two movies.", "is_fresh": 1, "author": ["Jason Zingale"]},
{"text": "Return of the Jedi est en bout de ligne juste assez satisfaisant [...] pour que cette trilogie se boucle comme \u00e9tant marquante.", "is_fresh": 1, "author": ["Louis-J\u00e9r\u00f4me Cloutier"]},
{"text": "Among the cinema's most iconic villains \u0097 the Wicked Witch of the West; Hannibal Lecter; Nosferatu\u0085 \u0097 Vader's story arc stands strikingly alone in its climax.", "is_fresh": 1, "author": ["Steven D. Greydanus"]},
{"text": "Like Star Wars and The Empire Strikes Back, this film is a lot of fun -- colorful, energetic to the point of being manic, good-humored and full of marvelous invention.", "is_fresh": 1, "author": []},
{"text": "...Lucas's first serious decline into juvenilia for the Star Wars saga.", "is_fresh": 1, "author": ["John J. Puccio"]},
{"text": "fantastic", "is_fresh": 1, "author": ["Stefan Birgir Stefansson"]},
{"text": "Scores with its imaginative sweep, colorful characters, and ambitious mythology", "is_fresh": 1, "author": ["Frederic and Mary Ann Brussat"]},
{"text": "The beginning of George's tilt towards the dark side.", "is_fresh": 1, "author": ["Widgett Walls"]},
{"text": "The weakest of the original trilogy, but far easier to watch than Episode I or II", "is_fresh": 1, "author": ["Brian Mckay"]},
{"text": "Falls short of the high standards set by the opening chapters.", "is_fresh": 0, "author": ["Margaret A. McGurk"]},
{"text": "Even a lesser Star Wars movie has a lot to offer visually.", "is_fresh": 1, "author": ["Kevin N. Laforest"]},
{"text": "Though it looks almost too polished, a handful of eye-smacking action scenes were breakthroughs in precomputer cinematic graphics. And when the film moves, it does so with blazing energy and awesome noise.", "is_fresh": 1, "author": ["Peter Stack"]},
{"text": "la esencia est\u00e1 en los duelos asociados a la filosof\u00eda Jedi y la esperanza en que el bien terminar\u00eda venciendo...", "is_fresh": 1, "author": ["Alex Ramirez"]},
{"text": "The episodic plot and abundant spectacle do not drown out the human interest.", "is_fresh": 1, "author": ["Nick Cramp"]},
{"text": "the least of the three, but it is still a magnificent experience in its own right", "is_fresh": 1, "author": ["James Kendrick"]},
{"text": "The old Star Wars gang are back doing what they've done before, but this time with a certain evident boredom.", "is_fresh": 0, "author": ["Vincent Canby"]},
{"text": "A film-making which still out-classes most of the attempts at chase scenes you'll see in contemporary films!", "is_fresh": 1, "author": ["Scott Renshaw"]},
{"text": "The acting in Return of the Jedi is stronger than in the previous films.", "is_fresh": 1, "author": ["James Berardinelli"]},
{"text": "At the end of it all, after the three movies, we've taken an epic fantasy journey. Lucas has in common with all great storytellers the ability to create a complete world.", "is_fresh": 1, "author": ["Roger Ebert"]},
{"text": "A mediocre Star Wars is better than no Star Wars at all.", "is_fresh": 1, "author": ["Sean P. Means"]},
{"text": "Return of the Jedi wraps up the Star Wars trilogy with a bang by delivering everything audiences expect and more.", "is_fresh": 1, "author": ["Jimmy Summers"]},
{"text": "Jedi couldn't end the Star Wars trilogy on a happier note.", "is_fresh": 1, "author": ["Gary Arnold"]},
{"text": "The force isn't entirely with the re-release of this computer- altered, warm-and-fuzzy Star Wars sequel.", "is_fresh": 0, "author": []},
{"text": "Sequels are usually a case of diminishing returns, but this third installment of the Star Wars saga is still essential viewing.", "is_fresh": 1, "author": ["John Ferguson"]},
{"text": "Despite George Lucas's 'improvements,' Jedi is still a better ride than last year's Event Movies Twister or Independence Day.", "is_fresh": 1, "author": ["Christopher Brandon"]},
{"text": "The script descends into soap-opera melodrama.", "is_fresh": 0, "author": ["Louis B. Hobson"]},
{"text": "The film is a huge, rousing finale that resolves all plot twists, settles all accounts, reunites old friends and sweeps to a climax that all but blows the theater apart.", "is_fresh": 1, "author": ["Michael Wilmington"]},
{"text": "Before this portion of the Star Wars saga is history, let us take time to praise the principal performers.", "is_fresh": 1, "author": ["Gene Siskel"]},
{"text": "Chewbacca doesn't have enough dialogue.", "is_fresh": 0, "author": ["Cynthia Fuchs"]},
{"text": "The most disappointing of the original three episodes but still charming and thrilling.", "is_fresh": 1, "author": ["Christopher Hemblade"]},
{"text": "Return of the Jedi is pure, swashbuckling adventure in the Errol Flynn Hollywood tradition.", "is_fresh": 1, "author": ["Jack Garner"]},
{"text": "[Hamill] gives what is immediately recognizable as the most irritating lead performance in a blockbuster film in recent memory.", "is_fresh": 0, "author": ["Rob Gonsalves"]},
{"text": "Slower, longer and less powerful than Episodes IV and V, Return of the Jedi closes this extraordinary trilogy more with a whimper than a bang,", "is_fresh": 0, "author": ["Urban Cinefile Critics"]},
{"text": "Delightfully imaginative!", "is_fresh": 1, "author": ["Steve Rhodes"]},
{"text": "The magic is still there, the effects crisp and spectacular.", "is_fresh": 1, "author": ["James O'Ehley"]},
{"text": "Has twice as many visual effects than the original first film.", "is_fresh": 1, "author": ["Joe Baltake"]},
{"text": "A terrific wrapup to a terrific series.", "is_fresh": 1, "author": ["Chris Hicks"]},
{"text": "People ask me what they should go see in the theaters right now, and I always point them to the Star Wars trilogy.", "is_fresh": 1, "author": ["Christopher Null"]},
{"text": "Jedi may not be George Lucas's crown jewel, but his trilogy as a whole is as good as film fantasy gets.", "is_fresh": 1, "author": ["Bruce Westbrook"]},
{"text": "Darth Vader is one of the most magnificent villains in movie history.", "is_fresh": 1, "author": ["Bob Stephens"]},
{"text": "One dynamo of a climax!", "is_fresh": 1, "author": ["Rob Blackwelder"]},
{"text": "Quite entertaining to say the least, and while the Ewoks were pretty childish, I did still enjoy their goofy presence, and Leia in a skimpy belly-dancer's outfit was just, well....inspirational!", "is_fresh": 1, "author": ["JoBlo"]},
{"text": "The film reaches a density of emotion in its last 20 minutes that the cycle itself -- and few other movies -- can approach.", "is_fresh": 1, "author": ["Stephen Hunter"]},
{"text": "While much of the action is perfunctory and overdone, director Richard Marquand has managed some thrilling sequences as well, and the family drama centering on Luke Skywalker and Darth Vader lends depth to the colorful proceedings.", "is_fresh": 1, "author": ["David Sterritt"]},
{"text": "Jedi is downright repetitive!", "is_fresh": 0, "author": ["David Ansen"]},
{"text": "Let's not pretend we're watching art!", "is_fresh": 0, "author": ["Rex Reed"]},
{"text": "Jedi still has its grand moments.", "is_fresh": 1, "author": ["Roger Moore"]},
{"text": "A good piece of cinema. It is far from perfection, and far from the heights reached by its two predecessors, but it still can entertain the audience -- not just the children who would enjoy Ewoks.", "is_fresh": 1, "author": ["Dragan Antulov"]},
{"text": "", "is_fresh": 1, "author": ["Robert Roten"]},
{"text": "", "is_fresh": 1, "author": ["Susan Stark"]},
{"text": "", "is_fresh": 1, "author": ["Matt Brunson"]},
{"text": "", "is_fresh": 1, "author": ["Jeffrey Westhoff"]},
{"text": "", "is_fresh": 1, "author": ["Rebecca Murray"]},
{"text": "", "is_fresh": 0, "author": ["Dan Jardine"]}
]