[
{"reviews_count": "60", "title": "Starship Troopers", "avg_audience_rating": "3.1", "rotten_count": "22", "tomatometer": "63", "audience_score": "69", "avg_critic_rating": "6.1", "fresh_count": "38", "user_ratings_count": "223,992"},
{"text": "In its early scenes, 'Troopers 'is basically a goofy high school movie, complete with love triangles, a big game, and a school dance (and sex) after. Once they've begun infantry training, the flexing of machismo so over the top, it can only be satire.", "is_fresh": 1, "author": ["Jason Bailey"]},
{"text": "Massive, hilarious and thrilling. I went to lunch a few times with a girl who despised this movie. I was forced to conclude that she's not very smart.", "is_fresh": 1, "author": ["Gregory Weinkauf"]},
{"text": "Gory, scary, violent sci-fi is too intense for kids.", "is_fresh": 1, "author": ["Charles Cassady"]},
{"text": "\"Starship Troopers\" is a war satire that outshines even Kubrick's great film Dr. Strangelove or: How I Learned to Stop Worrying and Love the Bomb.\"", "is_fresh": 1, "author": ["Cole Smithey"]},
{"text": "...boasts a tongue-in-cheek, downright campy sensibility that ultimately pervades every aspect of the proceedings.", "is_fresh": 1, "author": ["David Nusair"]},
{"text": "Insanely subversive...functions as a visually dazzling science-fiction action picture, a philosophical challenge, and a hilarious, incisive comedy. [Blu-Ray]", "is_fresh": 1, "author": ["Peter Canavese"]},
{"text": "Paul Verhoeven's satiric, 1997, sci-fi, war-movie romance is admittedly an acquired taste.", "is_fresh": 1, "author": ["John J. Puccio"]},
{"text": "Are these ever mean bugs!", "is_fresh": 0, "author": ["Gary Brown"]},
{"text": "More effective as a satire than as an action extravaganza.", "is_fresh": 1, "author": ["Nick Schager"]},
{"text": "Utter stupidities and other scientific impossibilities litter the script like trooper body parts . . . [yet] the film does something right", "is_fresh": 1, "author": ["Brian Mckay"]},
{"text": "What galls me is the film's marketing, moral and ideological cynicism.", "is_fresh": 0, "author": ["Robert Roten"]},
{"text": "Lacks the courage of the book's fascist conclusions.", "is_fresh": 0, "author": ["Scott Rosenberg"]},
{"text": "Cut Paul Verhoeven some slack!", "is_fresh": 1, "author": ["Christopher Null"]},
{"text": "Lacking the sophistication of the average comic book, it compensates with panoramic attack sequences, reminiscent of the Japanese swarm attacks in American war movies.", "is_fresh": 0, "author": ["Liam Lacey"]},
{"text": "It's fun and empty but so much less vacuous than Men In Black.", "is_fresh": 0, "author": ["Karina Montgomery"]},
{"text": "Repulsively thrilling and often downright hilarious.", "is_fresh": 1, "author": ["James Kendrick"]},
{"text": "A jaw-dropping experience, so rigorously one-dimensional and free from even the pretense of intelligence it's hard not to be astonished and even mesmerized by what is on the screen.", "is_fresh": 1, "author": ["Kenneth Turan"]},
{"text": "As written by Ed Neumeier, who also wrote Verhoeven's much tighter Robocop, Starship Troopers never gets over its 180-degree swivel from teen-age love story to murderous destruction.", "is_fresh": 0, "author": ["Janet Maslin"]},
{"text": "Flawed but fun.", "is_fresh": 1, "author": ["James Berardinelli"]},
{"text": "The action sequences are heavily laden with special effects, but curiously joyless.", "is_fresh": 0, "author": ["Roger Ebert"]},
{"text": "Though the movie's internal logic is a bit shaky (machine guns are the futuristic weapons for exterminating giant bugs), this mammoth production is the most satisfying adventure film of the year.", "is_fresh": 1, "author": []},
{"text": "Nobody objects to a simple gross-out proposition on the big screen. But here too, Starship Troopers doesn't quite make it.", "is_fresh": 0, "author": ["Liz Braun"]},
{"text": "Paul Verhoeven is exactly the wrong man to have made Starship Troopers.", "is_fresh": 0, "author": ["MaryAnn Johanson"]},
{"text": "If viewed as a comedy, Starship Troopers is quite enjoyable...", "is_fresh": 1, "author": ["Carlo Cavagna"]},
{"text": "Enjoyable despite the little redemption it offers humankind, Troopers fits every Hollywood convention while simultaneously breaking each one.", "is_fresh": 1, "author": ["Elspeth Haughton"]},
{"text": "It's not rocket science, but its cynicism is simultaneously smarmy and smart, exacting a cost for any pleasure you may take in its nasty-ass violence.", "is_fresh": 1, "author": ["Cynthia Fuchs"]},
{"text": "I don't think you'll get much bang for your money out of this sophomoric satire.", "is_fresh": 0, "author": ["Dennis Schwartz"]},
{"text": "It is pure Verhoeven -- broad, brash and ultraviolent, and all up there on the screen.", "is_fresh": 1, "author": ["Ian Nathan"]},
{"text": "It's a cynical wasteland from beginning to end.", "is_fresh": 0, "author": ["Jack Garner"]},
{"text": "The enjoyment you get from watching Starship Troopers is similar to the pleasure felt from a loud 'ZAP' from a bug zapper. And about as deep.", "is_fresh": 0, "author": ["Madeleine Williams"]},
{"text": "Intellectually, I can't really condone that message, but I have to admit that this will be a guilty pleasure of mine for years to come.", "is_fresh": 1, "author": ["Marty Mapes"]},
{"text": "In the hands of Verhoeven, the mammoth sci-fi battle flick is one of the most astonishingly bad films ever made, a monument to inept filmmaking on a colossal scale.", "is_fresh": 0, "author": ["Edward Johnson-Ott"]},
{"text": "The battle scenes are phenomenal, both for the realistic and clever special effects and for the humor.", "is_fresh": 1, "author": ["Steve Rhodes"]},
{"text": "Not the return to form for Verhoeven many have called it -- in the end, it is just a step in the right direction.", "is_fresh": 0, "author": ["Michael Dequina"]},
{"text": "It's a sci-fi gorefest, and a fun one at that.", "is_fresh": 1, "author": ["Ted Prigge"]},
{"text": "May just be the bug movie to end all bug movies.", "is_fresh": 1, "author": ["Susan Stark"]},
{"text": "Terrific entertainment.", "is_fresh": 1, "author": ["Joe Baltake"]},
{"text": "A nonstop splatterfest so devoid of taste and logic that it makes even the most brainless summer blockbusters look intelligent.", "is_fresh": 0, "author": ["Jeff Vice"]},
{"text": "Director Paul Verhoeven is back in his subversively nimble RoboCop groove with the uproariously cheeky Starship Troopers.", "is_fresh": 1, "author": ["Mike Clark"]},
{"text": "rship Troopers its moments, and it's certainly not stupid. But there are only so many places the movie can go without tipping its hand, and Verhoeven seems dead set against allowing his film to consciously acknowledge its own subtext.", "is_fresh": 0, "author": ["Bryant Frazer"]},
{"text": "The most audacious pop-cultural amalgam since Star Wars.", "is_fresh": 1, "author": ["Bruce Westbrook"]},
{"text": "If Showgirls represented Verhoeven's bid to become Hollywood's most shameless vulgarian, that sound you hear in Starship Troopers is the other shoe dropping.", "is_fresh": 0, "author": ["Bob Satuloff"]},
{"text": "Manages to be both fun and shocking -- sometimes in the same shot.", "is_fresh": 1, "author": ["Mick LaSalle"]},
{"text": "This is powerful entertainment that appeals to our most basic instincts.", "is_fresh": 1, "author": ["George Powell"]},
{"text": "This flick wallows in just about every moth-ridden cliche known to the film industry and relies almost entirely on naked teenage girls and recycled special effects for what it deems excitement.", "is_fresh": 0, "author": ["Rob Blackwelder"]},
{"text": "Maybe the filmmakers are so lost in their slambang visual effects that they don't give a hoot about the movie's scariest implications.", "is_fresh": 0, "author": ["Richard Schickel"]},
{"text": "Just enjoy the fun of watching Neil Patrick Harris in his audition for Apt Pupil and roll with it, baby.", "is_fresh": 1, "author": ["Widgett Walls"]},
{"text": "As a brainless bubblegum movie, it's an exhilarating adrenaline rush.", "is_fresh": 1, "author": ["David N. Butterworth"]},
{"text": "The acting by all concerned makes the cast of 'Melrose Place' look like the Royal Shakespeare Company, as statuesque model-types bark out lines like 'Everyone fights, no one quits!' and 'Kill 'em! Kill 'em all!' with clueless conviction.", "is_fresh": 0, "author": ["James Sanford"]},
{"text": "", "is_fresh": 1, "author": ["Owen Gleiberman"]},
{"text": "", "is_fresh": 1, "author": ["Dragan Antulov"]},
{"text": "", "is_fresh": 1, "author": ["Jim Shelby"]},
{"text": "", "is_fresh": 0, "author": ["John R. McEwen"]},
{"text": "", "is_fresh": 0, "author": ["Jonathan Rosenbaum"]},
{"text": "", "is_fresh": 1, "author": ["Ian Waldron-Mantgani"]},
{"text": "", "is_fresh": 1, "author": ["Russell Smith"]},
{"text": "", "is_fresh": 1, "author": ["Scott Renshaw"]},
{"text": "", "is_fresh": 1, "author": ["Mark R. Leeper"]},
{"text": "", "is_fresh": 1, "author": []},
{"text": "", "is_fresh": 1, "author": ["Jennie Kermode"]}
]