[
{"reviews_count": "171", "title": "Super Size Me", "avg_audience_rating": "3.3", "rotten_count": "13", "tomatometer": "92", "audience_score": "72", "avg_critic_rating": "7.7", "fresh_count": "158", "user_ratings_count": "271,770"},
{"text": "For all the film's lecturing about the rise in diabetes and good and bad fats, you suspect that its director is secretly just having a laugh with the whole thing.", "is_fresh": 0, "author": ["Antonia Quirke"]},
{"text": "Fascinating documentary on American fast food.", "is_fresh": 1, "author": ["Nell Minow"]},
{"text": "May affect how you eat and will serve as a rude awakening...", "is_fresh": 1, "author": ["Felix Vasquez Jr."]},
{"text": "I'm willing to believe Spurlock's hypothesis ... but someday I'd like to see a well-researched documentary as lively as this one on the harmful effects of pseudo-science in the media.", "is_fresh": 1, "author": ["Robert Davis"]},
{"text": "Through the use of quirky art work, animation, a barrage of facts and figures, plus an incredibly dry wit, Spurlock shines a light on America's attitudes to weight gain.", "is_fresh": 1, "author": ["Amber Wilkinson"]},
{"text": "The 'What Would Jesus Buy?' project, broader than digestion issues, is the brainchild of Morgan Spurlock, who in a less spiritual frame of mind, lost the junk food battle of the bulge against McDonald's with this high calorie investigative documentary.", "is_fresh": 1, "author": ["Prairie Miller"]},
{"text": "Underscores the need for individuals to take responsibility for their own health, and it does so in a frequently humorous and self-deprecating way. Plenty of food for thought.", "is_fresh": 1, "author": ["Peter T. Chattaway"]},
{"text": "full review in Greek", "is_fresh": 1, "author": ["Joseph Proimakis"]},
{"text": "Might help shake the Mcfaithful out of their special sauce stupors.", "is_fresh": 1, "author": ["Nick Schager"]},
{"text": "It's rare the film that changes someone's life; Super Size Me may indeed change many.", "is_fresh": 1, "author": ["David Cornelius"]},
{"text": "...it's unfortunate that the place of pride belongs to Spurlock's self-mortification.", "is_fresh": 1, "author": ["Philip Martin"]},
{"text": "...invaluable, putting the hard truth in our face like never before", "is_fresh": 1, "author": ["Luke Y. Thompson"]},
{"text": "Spurlock's adventure in not-so-fine dining may be extreme, but it makes its point in a shocking way...", "is_fresh": 1, "author": ["MaryAnn Johanson"]},
{"text": "One of only a handful of select films that I can recall as being as important as it is entertaining.", "is_fresh": 1, "author": ["Brent Simon"]},
{"text": "Instead of making a calm, reasonable case, Spurlock dazzles us with sensational details. [But] most of his arguments are properly persuasive.", "is_fresh": 1, "author": ["Jeffrey Overstreet"]},
{"text": "It goes several extra miles to interview nutritionists, educators and media experts about the epidemic of obesity.", "is_fresh": 1, "author": ["Robert Roten"]},
{"text": "The movie delivers loads of facts, food for thought and a heaping serving of laughs. ", "is_fresh": 1, "author": ["Mark Robison"]},
{"text": "Absolutamente deliciosa.", "is_fresh": 1, "author": ["Alex Ramirez"]},
{"text": "It's the film and its hero's honest approach that make the package so persuasive.", "is_fresh": 1, "author": ["Leslie Felperin"]},
{"text": "Every schoolchild should be brought to see it - with no popcorn during or burgers afterwards.", "is_fresh": 1, "author": ["Harry Guerin"]},
{"text": "Super Size Me is, on one level, a cinematic stunt in the tradition of Michael Moore's populist, anti-corporate crusades.", "is_fresh": 1, "author": ["Jeannette Catsoulis"]},
{"text": "Super Size Me is a one of an ever-expanding list of shock-doc films that are definitely worth the admission.", "is_fresh": 1, "author": ["Joe Utichi"]},
{"text": "Consumption will lead to possible nausea and certain amusement.", "is_fresh": 1, "author": []},
{"text": "Spurlock has ventured what few social commentators bother with these days, especially in the burgeoning field of pop-documentary: the possibility for real change.", "is_fresh": 1, "author": ["Nick Davis"]},
{"text": "A wonderful achievement -- entertaining, engrossing, and never far from grossing out.", "is_fresh": 1, "author": ["Jonathan Trout"]},
{"text": "Afinal de contas, qual \u00e9 o grande argumento de Spurlock? O de que comer sandu\u00edches e batatas fritas em excesso provoca aumento de peso? Como diria Homer Simpson: 'Duh!'.", "is_fresh": 0, "author": ["Pablo Villa\u00e7a"]},
{"text": "I'm less certain that super smug Spurlock is a man with a mission than I am resolutely convinced that he's a man out to draw attention to himself.", "is_fresh": 0, "author": ["Ken Hanke"]},
{"text": "[Spurlock] presents some interesting, if non-shocking, facts about our addiction to fast food.", "is_fresh": 1, "author": ["Eric Melin"]},
{"text": "As entertaining as Super Size Me sometimes is, I'm not sure what Spurlock's escapade really accomplishes, except to emphasize that eating 5,000 calories a day, and exercising little, is bad for you.", "is_fresh": 0, "author": ["Peter Rainer"]},
{"text": "Bet you don't head to the Golden Arches after seeing \"Super Size Me.\"", "is_fresh": 1, "author": ["Linda Cook"]},
{"text": "Something like a public service announcement about a country-wide health problem that is presented with a comic edge.", "is_fresh": 1, "author": ["Dennis Schwartz"]},
{"text": "often hilarious -- Spurlock makes fine use of... such soundtrack selections as 'Yummy Yummy Yummy, I've Got Love in My Tummy' -- and also more than a little upsetting. ", "is_fresh": 1, "author": ["James Sanford"]},
{"text": "Branches out to make some extremely compelling arguments about America's poor eating habits.", "is_fresh": 1, "author": ["Sean O'Connell"]},
{"text": "[an] irreverent and revealing contemporary creep show about our country's forbidden love affair with unhealthy dining...worth chewing on as \"reel\" food for thought", "is_fresh": 1, "author": ["Frank Ochieng"]},
{"text": "While more entertaining as a gimmick than a film, Spurlock still reveals telling truth about our fast food nation.", "is_fresh": 1, "author": ["Jimmy O"]},
{"text": "Beyond any contention is Morgan Spurlock's gift for metabolizing common knowledge into uncommonly entertaining cinema.", "is_fresh": 1, "author": ["Rick Kisonak"]},
{"text": "Spurlock comes across as a kinder, gentler, less egomaniacal and -- not irrelevant, in this context -- thinner Michael Moore.", "is_fresh": 1, "author": ["John Beifuss"]},
{"text": "Filled with big laughs...Yet even the guffaws don't diminish the periodic bouts of anger, depression and horror we experience as we watch a nation eating itself into oblivion.", "is_fresh": 1, "author": ["Matt Brunson"]},
{"text": "Spurlock doesn't deliver [his] message sternly but with bracing humor, a sure command of the facts, a lack of pretention and a stunning act of illustrative self-destruction.", "is_fresh": 1, "author": ["Sean P. Means"]},
{"text": "A well-crafted comedy.", "is_fresh": 1, "author": ["Roger Moore"]},
{"text": "Spurlock is considerably more charismatic and more endearing than documentarian Michael Moore, to whom he's already been compared. And as narrator and subject, he has considerable screen presence.", "is_fresh": 1, "author": ["Jeff Vice"]},
{"text": "My arteries hardened just watching Super Size Me.", "is_fresh": 1, "author": ["Jeffrey Bruner"]},
{"text": "[You'll] be captivated by the deeper issues that cling tenaciously to its main storyline.", "is_fresh": 1, "author": ["Steve Schneider"]},
{"text": "Fast food and the perils of commodification", "is_fresh": 1, "author": ["Louis Proyect"]},
{"text": "...great flick, great points, great man.", "is_fresh": 1, "author": ["JoBlo"]},
{"text": "This reviewer, for one, hasn't been back to the Golden Arches since seeing the film.", "is_fresh": 1, "author": ["Annlee Ellingson"]},
{"text": "It's a highly effective [gimmick], one that speaks directly to those of us who can't resist a double-cheeseburger with an extra-large helping of fries once in a while.", "is_fresh": 1, "author": ["Michael W. Phillips, Jr."]},
{"text": "Spurlock constructs the film brilliantly, maintaining a darkly hilarious tone while continually jolting us.", "is_fresh": 1, "author": ["Rich Cline"]},
{"text": "I'd have been happy to simply sit and watch Morgan eat for a few hours, but the guy has a point to make.", "is_fresh": 1, "author": ["Joshua Tyler"]},
{"text": "One measure of a great film is the impact it has on one\u2019s daily life, and the film that has most adjusted my outlook in 2004 is Morgan Spurlock\u2019s Super Size Me.", "is_fresh": 1, "author": ["Forrest Hartman"]},
{"text": "Entertaining and informative.", "is_fresh": 1, "author": ["Connie Ogle"]},
{"text": "Proves something many of us suspected - that fast food is poison. Tantalizing, low-cost poison. Oversaturated, grease-sopped poison. Mass-marketed, addictive poison.", "is_fresh": 1, "author": ["Phil Villarreal"]},
{"text": "If you need just a little extra incentive to keep you away from the drive-thrus, this movie is for you.", "is_fresh": 1, "author": ["Jeffrey Chen"]},
{"text": "Although Spurlock's movie is thought-provoking and downright funny, he doesn't exactly play fair.", "is_fresh": 1, "author": ["Bill Muller"]},
{"text": "Will wipe the smile right off your Happy Meal.", "is_fresh": 1, "author": ["Thomas Delapa"]},
{"text": "Super Size Me can be frivolous and slightly smug, but it certainly puts the question of America's health squarely on the table -- and in a wonderfully entertaining way.", "is_fresh": 1, "author": ["Eleanor Ringel Cater"]},
{"text": "This documentary is shocking although it seems comical to watch.", "is_fresh": 1, "author": ["Vince Koehler"]},
{"text": "Divertissant et horrifiant en proportions justes...", "is_fresh": 1, "author": ["Nicolas Lacroix"]},
{"text": "Right after I left the theater, I drove past Krispy Kreme and the \"HOT\" light was on. I kept right on driving past it and headed straight for the produce section.", "is_fresh": 1, "author": ["Brian Mckay"]},
{"text": "Super Size Me is more important for what it brings to the table outside of the film rather than the film itself. ", "is_fresh": 1, "author": ["Ryan Cracknell"]},
{"text": "Morgan Spurlock goes on an exclusive McDonalds' diet to prove that their food is high in fat & cholesterol. His experiment was as pointless then as his documentary is today.", "is_fresh": 0, "author": ["David Foucher"]},
{"text": "Super Size Me is an unnerving, highly entertaining wake-up call.", "is_fresh": 1, "author": ["Kyle Counts"]},
{"text": "A film that not only works as a documentary but as an endlessly intriguing and grin-inducing narrative.", "is_fresh": 1, "author": ["Dustin Putman"]},
{"text": "A film that's every bit as tasty as junk food but without any of the refined flour, processed sugar, sodium overload, saturated fats or potentially lethal calories of your average fast-food meal.", "is_fresh": 1, "author": ["Joe Baltake"]},
{"text": "Offers food for thought, as well as a perverse sort of entertainment.", "is_fresh": 1, "author": ["Jack Garner"]},
{"text": "[In addition to] undeniable food for thought, Morgan Spurlock's account of his foray into fast-food hell also serves up a heaping helping of bitingly subversive humor.", "is_fresh": 1, "author": ["Carol Cling"]},
{"text": "If you decide to go see 'Super Size Me'--not a bad idea--you might want to skip that stop at the concession stand on the way into the auditorium.", "is_fresh": 1, "author": ["Frank Swietek"]},
{"text": "When people do this to themselves over the course of several years, you don't always notice the effects right away. When a young man in perfect health speeds up the process, it all comes into very sharp focus.", "is_fresh": 1, "author": ["Loey Lockerby"]},
{"text": "It's easy to hit the broad side of a barn, but few do it with as much flair and humor as director Morgan Spurlock.", "is_fresh": 1, "author": ["Duane Dudek"]},
{"text": "Engaging, horrifying, and hilarious all at once. A must-see.", "is_fresh": 1, "author": ["Karina Montgomery"]},
{"text": "The film may not be definitive, but it should be a must-watch in every junior high health class.", "is_fresh": 1, "author": ["Kelly Borgeson"]},
{"text": "It's one thing to know that fast food is bad for you. It's another to see that 'badness' demonstrated.", "is_fresh": 1, "author": ["James Berardinelli"]},
{"text": "More than a 98-minute episode of Fear Factor, Spurlock's movie is a remarkably thorough and hilarious examination of our alarming eating habits.", "is_fresh": 1, "author": ["Collin Souter"]},
{"text": "Fun to watch, even while it shows us something we need to do something about.", "is_fresh": 1, "author": ["Jean Lowerison"]},
{"text": "The truth is, the delicious fun (forgive me) of Super Size Me resides in watching the lanky, affable Spurlock get intentionally fat.", "is_fresh": 1, "author": ["Karen Karbo"]},
{"text": "After seeing this movie, it's hard to think about fast food the same way again.", "is_fresh": 1, "author": ["Eric Harrison"]},
{"text": "Funny, sickening, scary, entertaining and undeniably educational.", "is_fresh": 1, "author": ["Tom Long"]},
{"text": "Blatantly unfair and completely winning documentary.", "is_fresh": 1, "author": ["Michael Booth"]},
{"text": "Those who see the film will think twice before succumbing to that next Big Mac attack.", "is_fresh": 1, "author": ["John Monaghan"]},
{"text": "A gimmick film that uses an upbeat style to create laughs, and, in truth, a distaste for fast food.", "is_fresh": 1, "author": ["Robert Denerstein"]},
{"text": "As enormously entertaining as it is appalling.", "is_fresh": 1, "author": ["Robert Wilonsky"]},
{"text": "Uses a \"reality show\" gimmick to get us into the theater, but winds up teaching us something and may even cause us to re-examine our habits and beliefs.", "is_fresh": 1, "author": ["Jeffrey M. Anderson"]},
{"text": "A controversial, entertaining and stomach-turning nonfiction comedy that will cause many viewers to put down their topping-drenched jumbo buckets of popcorn.", "is_fresh": 1, "author": ["Colin Covert"]},
{"text": "What makes all this work is that the charming Mr. Spurlock, unlike combative Michael Moore, is winning, witty and completely at ease before the camera.", "is_fresh": 1, "author": ["Jane Sumner"]},
{"text": "Fast-food restaurants are not looking after their customers, Spurlock argues, and his film does a fine job of delineating, as he says, 'where personal responsibility stops and corporate responsibility begins.'", "is_fresh": 1, "author": ["Chris Hewitt (St. Paul)"]},
{"text": "Fat City", "is_fresh": 0, "author": ["Rob Nelson"]},
{"text": "No [kidding], Spurlock.", "is_fresh": 0, "author": ["Sean Burns"]},
{"text": "A terrific film that takes the seemingly not-so-sexy subjects of health, nutrition, and corporate greed and turns them into informative entertainment.", "is_fresh": 1, "author": ["Marcy Dermansky"]},
{"text": "Feeds us the message quite literally that we are all poisoning ourselves to death in such a charming, hilarious, self-deprecating manner that you actually enjoy hearing it.", "is_fresh": 1, "author": ["Larry Carroll"]},
{"text": "A striking comic assault on the fast-food nation.", "is_fresh": 1, "author": ["Rob Vaux"]},
{"text": "Non-stop overeating causes him to gain weight and feel terrible. Shocking!", "is_fresh": 0, "author": ["Steve Rhodes"]},
{"text": "Spurlock picks apart a serious issue in a highly entertaining way.", "is_fresh": 1, "author": ["Jeffrey Westhoff"]},
{"text": "A Swiftian portrait of America the Rotund.", "is_fresh": 1, "author": ["James Verniere"]},
{"text": "In a way it functions as the mental, emotional, and aesthetic equivalent of junk food; two hours after you see it, you're hungry again, even though your brain has gotten fatter.", "is_fresh": 0, "author": ["Jonathan Rosenbaum"]},
{"text": "An anti-junk-food screed that manages to entertain even as it informs and alarms.", "is_fresh": 1, "author": ["Michael O'Sullivan"]},
{"text": "A compelling cautionary tale hot-wired to your gag reflex.", "is_fresh": 1, "author": ["Desson Thomson"]},
{"text": "While not the all-encompassing, hard-facts indictment Fast Food Nation readers might hope for, this more entertainment-oriented package does throw in enough disturbing figures and informative side trips to provide an educational-value meal.", "is_fresh": 1, "author": ["Dennis Harvey"]},
{"text": "[Has] road-accident appeal.", "is_fresh": 1, "author": ["Maitland McDonagh"]},
{"text": "Spurlock manages to make a documentary about a guy eating burgers for a month compelling -- a tall order he manages to fill.", "is_fresh": 1, "author": ["D. Parvaz"]},
{"text": "If you feel hungry for fast food after seeing this, you must enjoy living dangerously.", "is_fresh": 1, "author": ["Peter Howell"]},
{"text": "Provides plenty of food for thought.", "is_fresh": 1, "author": ["Moira MacDonald"]},
{"text": "Full of interesting facts about the American diet.", "is_fresh": 1, "author": ["Mick LaSalle"]},
{"text": "Morgan Spurlock's much-heralded Big Mac attack is way more fun than it is preachy.", "is_fresh": 1, "author": ["Stephanie Zacharek"]},
{"text": "[A] funny, scary, and altogether fascinating film.", "is_fresh": 1, "author": ["Pam Grady"]},
{"text": "Super Size Me produces more laughs than a man's gastrointestinal distress should.", "is_fresh": 1, "author": ["Jack Mathews"]},
{"text": "An entertaining look at America's obesity epidemic and a lively exploration of personal versus corporate responsibility.", "is_fresh": 1, "author": ["Megan Lehmann"]},
{"text": "A wild and wicked film that should make anyone think twice before grabbing that Egg McMuffin on the way to work or 'treating' their kids to a meal almost engineered to make them sick.", "is_fresh": 1, "author": ["Stephen Whitty"]},
{"text": "So fast and funny that you almost forget how fundamentally stupid the whole thing is.", "is_fresh": 1, "author": ["Glenn Whipp"]},
{"text": "[A] gripping, often funny, unfailingly gut-wrenching burp of a documentary about America's fast-food industry and one man's (his) greasy descent into its cholesterol-clogged bowels.", "is_fresh": 1, "author": ["James Adams"]},
{"text": "This is the documentary that caused a sensation at Sundance 2004 and allegedly inspired McDonald's to discontinue its 'super size' promotions as a preemptive measure.", "is_fresh": 1, "author": ["Roger Ebert"]},
{"text": "Outrageously amusing.", "is_fresh": 1, "author": ["Ty Burr"]},
{"text": "...a sobering experience for the french-fry junkie in all of us.", "is_fresh": 1, "author": ["Josh Larsen"]},
{"text": "[Spurlock's] like a jovial frat boy bingeing on burgers instead of beer.", "is_fresh": 1, "author": ["Kent Turner"]},
{"text": "Completely satisfying.", "is_fresh": 1, "author": []},
{"text": "One thing you'll definitely think twice about is going out and grabbing a burger on the way home.", "is_fresh": 1, "author": ["Cherryl Dawson and Leigh Ann Palone"]},
{"text": "At once both hysterical and stomach turning, Morgan Spurlock's documentary about living on fast food is a poignant achievement.", "is_fresh": 1, "author": ["Jeff Otto"]},
{"text": "Hilarious, honest and heartfelt documentary about America's obsession with fast food offers plenty of food for thought.", "is_fresh": 1, "author": ["James Rocchi"]},
{"text": "Super Size Me packs a lot of good information, witty visual aids and expert testimonials into its fast 96 minutes, and all the bad eating certainly makes for compelling if at times repugnant viewing.", "is_fresh": 1, "author": ["Manohla Dargis"]},
{"text": "Works despite itself, both as sensationalist, occasionally nauseating entertainment, and as an emphatic condemnation of the golden arches.", "is_fresh": 1, "author": ["Eugene Novikov"]},
{"text": "Riveting and darkly comic.", "is_fresh": 1, "author": ["Claudia Puig"]},
{"text": "For all of the huffing and puffing and hurling, the film doesn't really make the sort of lasting impact that a truly effective work might have.", "is_fresh": 0, "author": ["Peter Sobczynski"]},
{"text": "An entertaining, and occasionally horrifying, statement of the obvious.", "is_fresh": 1, "author": ["A.O. Scott"]},
{"text": "Tasty while you take it in, but larded down with empty cinematic calories.", "is_fresh": 0, "author": ["David Sterritt"]},
{"text": "A vital shock to the system. It will prop your eyes wide open.", "is_fresh": 1, "author": ["David Edelstein"]},
{"text": "Super Size Me is a creative documentary exploring the link between junk food and the obesity epidemic in America.", "is_fresh": 1, "author": ["Frederic and Mary Ann Brussat"]},
{"text": "Mordantly funny and trenchantly sobering, this is a Big Mac attack you can sink your teeth into. And then it will bite you back.", "is_fresh": 1, "author": ["Nell Minow"]},
{"text": "Ingenious and entertaining cautionary tale about the evils of fast food, film is fast-paced and accessible without being preachy and precious.", "is_fresh": 1, "author": ["Angela Baldassarre"]},
{"text": "Have holes in its arguments the height and width of the Golden Arches.", "is_fresh": 0, "author": ["John Anderson"]},
{"text": "The speed with which a healthy, relatively young stud can morph into a tub of lard is as horrifying as it is entertaining to watch.", "is_fresh": 1, "author": ["Ella Taylor"]},
{"text": "If the idea is not so new, it's delivered in a manner that's refreshingly aggressive, at once deliberate and antic. ", "is_fresh": 1, "author": ["Cynthia Fuchs"]},
{"text": "Witty, gross, smart, outrageous, and so clever it just about pops.", "is_fresh": 1, "author": ["Owen Gleiberman"]},
{"text": "You'll never think the same way about those two all-beef patties.", "is_fresh": 1, "author": ["Mark Caro"]},
{"text": "I haven't touched a Big Mac since.", "is_fresh": 1, "author": ["David Thomas"]},
{"text": "More than just a cautionary tale or insane sociology experiment. It's a real look at one of the most pressing issues in our times.", "is_fresh": 1, "author": ["Edward Havens"]},
{"text": "Morgan Spurlock has crafted the ultimate contemporary horror story.", "is_fresh": 1, "author": ["Jeanne Aufmuth"]},
{"text": "Morgan Spurlock's self-starring documentary has nothing new to say about America's fast-food addiction and obesity epidemic, but there's no denying its grotesque effectiveness.", "is_fresh": 1, "author": ["Dennis Lim"]},
{"text": "Super Size Me is McBrilliant and may be one of the most important documentaries you'll ever see. Read on->", "is_fresh": 1, "author": ["Emily Blunt"]},
{"text": "Spurlock's an intelligent guy with a wicked sense of humor and a deft sense of how to get a point across so that it resonates with more than just the funny bone", "is_fresh": 1, "author": ["Andrea Chase"]},
{"text": "Spurlock proves himself a supersize talent; he makes you choke on every laugh.", "is_fresh": 1, "author": ["Peter Travers"]},
{"text": "Spurlock reveals himself to be as savvy and self-interested as that clown who's feeding your children everyday.", "is_fresh": 0, "author": ["Ed Gonzalez"]},
{"text": "Spurlock's light touch keeps Super Size Me entertaining and educational, without sacrificing one for the other. ", "is_fresh": 1, "author": ["Gabriel Shanks"]},
{"text": "Fast, funny and caustic, this is everything a documentary should be.", "is_fresh": 1, "author": ["Harvey S. Karten"]},
{"text": "Super Size Me is essentially the perfect documentary...", "is_fresh": 1, "author": ["David Nusair"]},
{"text": "One of the most terrifying reality checks I've ever seen, predominantly horrifying yet frequently hilarious (that Spurlock's girlfriend is a Vegan chef is the topper).", "is_fresh": 1, "author": ["Gabe Leibowitz"]},
{"text": "At once hugely entertaining -- and hugely scary.", "is_fresh": 1, "author": ["Steven Rea"]},
{"text": "The real power of this film will be felt for years to come.", "is_fresh": 1, "author": ["Danny Minton"]},
{"text": "Excellent and engaging documentary.", "is_fresh": 1, "author": ["Gabriel Cohen DeVries"]},
{"text": "[B]ig thumbs up. This was one of the most talked about films at Sundance, and I can understand why.", "is_fresh": 1, "author": ["Richard Roeper"]},
{"text": "When a documentary can not only sinfully entertain & inform on your greatest suspicions & worst fears but also change your life, that's a feat that few parents can accomplish.", "is_fresh": 1, "author": ["Erik Childress"]},
{"text": "Half comedy and half gastronomical tragedy, Super Size Me is absolutely one of the most enjoyable documentaries I've ever seen. Yeah, ever.", "is_fresh": 1, "author": ["Scott Weinberg"]},
{"text": "Thanks to Spurlock's oversized and buoyant personality and some pretty nifty filmmaking, the results are as entertaining as they are sobering.", "is_fresh": 1, "author": ["James Greenberg"]},
{"text": "What could have been just an anti-fast food screed is instead a remarkably watchable, high-spirited, persuasive film that is as entertaining as it is alarming.", "is_fresh": 1, "author": ["Eric D. Snider"]},
{"text": "A hilarious and often terrifying look at the effects of fast food on the human body.", "is_fresh": 1, "author": ["Pete Vonder Haar"]},
{"text": "", "is_fresh": 1, "author": ["Joe Lozito"]},
{"text": "", "is_fresh": 1, "author": []},
{"text": "", "is_fresh": 1, "author": []},
{"text": "", "is_fresh": 1, "author": []},
{"text": "", "is_fresh": 1, "author": ["Ethan Alter"]},
{"text": "", "is_fresh": 1, "author": ["Vic Holtreman"]},
{"text": "", "is_fresh": 1, "author": ["Rob Blackwelder"]},
{"text": "", "is_fresh": 1, "author": ["Anton Bitel"]},
{"text": "", "is_fresh": 1, "author": ["Matthew Turner"]},
{"text": "", "is_fresh": 1, "author": ["Susan Granger"]},
{"text": "", "is_fresh": 1, "author": []},
{"text": "", "is_fresh": 1, "author": ["Steven Snyder"]},
{"text": "", "is_fresh": 1, "author": ["Louis B. Hobson"]},
{"text": "", "is_fresh": 1, "author": ["Mark Halverson"]},
{"text": "", "is_fresh": 1, "author": ["Kimberley Jones"]},
{"text": "", "is_fresh": 1, "author": []},
{"text": "", "is_fresh": 1, "author": ["Liz Braun"]},
{"text": "", "is_fresh": 1, "author": ["Scott A. Mantz"]}
]