[
{"reviews_count": "248", "title": "Suspiria", "avg_audience_rating": "3.9", "rotten_count": "93", "tomatometer": "63", "audience_score": "74", "avg_critic_rating": "6.7", "fresh_count": "155", "user_ratings_count": "1,233"},
{"text": "This new Suspiria is chilly and cerebral, a thesis on all the unsettled atrocities of the past and present, couched in the vocabulary of feminist theory and body horror.", "is_fresh": 1, "author": ["Andrew Wyatt"]},
{"text": "Camera movements and a disturbing sound design join forces to build a new language of the sinister in this lucid nightmare. [Full Review in Spanish]", "is_fresh": 1, "author": ["Jordi Costa"]},
{"text": "'Suspiria' is Its Own Beast, Casting a Hypnotic Spell That's Sure to Divide Audiences", "is_fresh": 1, "author": ["Meagan Navarro"]},
{"text": "Guadagnino's horrors are aggressively grotesque, but also easy to shake off.", "is_fresh": 0, "author": ["Rob Gonsalves"]},
{"text": "Guadagnino does not use terror to draw an artistic discourse; like Dreyer, Bu\u00f1uel, Bergman, Argento or Kubrick before him, he draws terror out of art. [Full review in Spanish]", "is_fresh": 1, "author": ["Daniel de Partearroyo"]},
{"text": "At 152 minutes, one's appreciation for Guadagnino's approach has a lot of time to waver and those moments of brilliance can become overshadowed by the self-indulgent, art house elements that appeal to a more niche audience.", "is_fresh": 1, "author": ["Sarah Gopaul"]},
{"text": "A stylishly directed and superbly acted slow-burner that gets under your skin and delivers genuine chills.", "is_fresh": 1, "author": ["Matthew Turner"]},
{"text": "A wonky, surreal, bizarre, and yet overstuffed six act horror film that never quite knows when to call it quits.", "is_fresh": 1, "author": ["Felix Vasquez Jr."]},
{"text": "This film makes a conscious decision to reveal its hand early on. That decision is a bold one, and one that I think ultimately pays off.", "is_fresh": 1, "author": ["Martin Roberts"]},
{"text": "Moody, nightmarish... The goal is to unnerve and fascinate us... A bit overstuffed, but often transfixing in its dreamy weirdness and macabre possibilities.", "is_fresh": 1, "author": ["Eric D. Snider"]},
{"text": "In the end, I cannot recommend SUSPIRIA wholeheartedly as a film. As a theatrical experience though, to appreciate the acting and Guadagnino's command of the lens, it is very much worth at least one watch.", "is_fresh": 1, "author": ["Tim Stevens"]},
{"text": "A posturing and pretentious bore...Half-way through you'll be hoping Leatherface will appear and liven things up.", "is_fresh": 0, "author": ["Jim Schembri"]},
{"text": "This isn't some serious comment on feminism, or motherhood or anything else, this is a film so absorbed in the concept of its own greatness, that it loses sight of its own theme, until it withers and dies on screen before us.", "is_fresh": 0, "author": ["Michael Lee"]},
{"text": "Suspiria is a technically exquisite remake of Dario Argento's classic Italian horror film of 1977 and clearly a labour of love for its director, Luca Guadagnino. ", "is_fresh": 1, "author": ["Matthew Bond"]},
{"text": "As with 99pc of horror outings, Suspiria unravels in its final acts into a wheezing farce. A bit of a missed opportunity, you feel.", "is_fresh": 0, "author": ["Hilary A White"]},
{"text": "Besides the purely visual, the film's great strength, unless it is the film's most terrible failure, is its absolutely wild, aggressively indistinct structure.", "is_fresh": 1, "author": ["Tim Brayton"]},
{"text": "A beautiful, slow, startling, surprising, and bloody experience all at once.", "is_fresh": 1, "author": ["Matt Hudson"]},
{"text": "Kajganich is a purveyor of pretentious piffle.", "is_fresh": 0, "author": ["Charlotte O'Sullivan"]},
{"text": "A beguiling, macabre, at times feverish remake with more to admire than enjoy. It'll churn your soul. ", "is_fresh": 1, "author": ["Cameron Frew"]},
{"text": "Difficult and self-indulgent but also fascinatingly probing and endlessly ambitious in structure, themes and the out-there places it's willing to take the audience.", "is_fresh": 1, "author": ["Ross Miller"]},
{"text": "It sounds intriguing (and at times it is), yet too often the result is clunkily mechanical, tending occasionally toward the risible.", "is_fresh": 0, "author": ["Mark Kermode"]},
{"text": "The current Suspiria is always on the point of becoming interesting, but it never fails to squander that potential.", "is_fresh": 0, "author": ["Donald Clarke"]},
{"text": "Sincere, personal and impacted like a bullet lodged in a wall, Luca Guadagnino's passion project... is many things, including difficult to write about. A proper consideration would be a mad, scrabbling hypertext object and it still wouldn't satisfy.", "is_fresh": 1, "author": ["Ray Pride"]},
{"text": "Whilst the Argento was a movie that leapt and flew, this is a movie that sits there and tells you off. ", "is_fresh": 0, "author": ["Mark Kermode"]},
{"text": "At times beautiful, at others grotesque, it's ultimately superficial. ", "is_fresh": 0, "author": ["Paul Whitington"]},
{"text": "Weirdly entertaining, supremely stylish, and somewhat surprisingly superbly acted, even as it baffles at every turn ... deliberately disorienting and perhaps deliberately obtuse; it's never very scary, but it's often beautiful and always fun.", "is_fresh": 1, "author": ["CJ Johnson"]},
{"text": "The original lasted a little over 90 minutes. This drags on even more weirdly for almost an hour longer, becoming as much an endurance test as a piece of entertainment.", "is_fresh": 0, "author": ["Brian Viner"]},
{"text": "Grotesque and problematic, but gets the thumbs up.", "is_fresh": 1, "author": ["Jamie East"]},
{"text": "A cerebral essay that doesn't deny its visual exuberance. [Full Review in Spanish] ", "is_fresh": 1, "author": ["Marcos Gand\u00eda"]},
{"text": "A deliriously pretentious and utterly dreadful movie, Suspiria amounts to an unnecessary reworking of the cult 1977 Italian horror freak-out of the same name.", "is_fresh": 0, "author": ["Leigh Paatsch"]},
{"text": "However lopsided Suspiria is, it builds to a satisfyingly nutso conclusion with lots of righteous fury. And it sticks with you, demanding you reckon with its themes at least one more time.", "is_fresh": 1, "author": ["Eric Melin"]},
{"text": "Always bonkers, often brilliant and best seen in good company. Hopefully you'll still be talking afterwards.", "is_fresh": 1, "author": ["Harry Guerin"]},
{"text": "Suspiria is a classy, tinglingly stylish, charismatically acted yet chilly affair that crescendos madly in the final act (surged on by Thom Yorke's score) into a frenzied, full-frontal, Grand Guignol finale. ", "is_fresh": 1, "author": ["Larushka Ivan-Zadeh"]},
{"text": "Guadagnino seems too earthbound for his subject's magic, until he suffuses it with emotion. There was a shimmer in the light when I left the cinema, a little extra leaking into reality, like an after-image, or a spell.", "is_fresh": 1, "author": ["Nick Hasted"]},
{"text": "A film that seems to be grappling - albeit abstractly - with the complex ways in which guilt and denial are inextricably bound up in any attempts to break the spell of the past.", "is_fresh": 1, "author": ["Alistair Harkness"]},
{"text": "Luca (not one for subtlety or brevity) ups the wildness and outrageousness to such a pitch of hysteria that it's almost tedious at times.", "is_fresh": 0, "author": ["David 'Mad Dog' Bradley"]},
{"text": "Over-the-top and a little goofy, but in a good way: this is a film without limits, and you never know what's coming.", "is_fresh": 1, "author": ["Elena Lazic"]},
{"text": "Suspiria is too long, too empty with false fullness - those big themes that swell the stomach while providing no nutrition - and too keen to be visually and viscerally delinquent at every opportunity.", "is_fresh": 0, "author": ["Nigel Andrews"]},
{"text": "Guadagnino must be applauded for the sheer ambition he displays here -- this is a gloriously nuts film, and there aren't enough of those on this scale.", "is_fresh": 1, "author": ["Dominic Corry"]},
{"text": "A beautiful, resonant feminist fairy tale at least half grounded in German postwar realities.", "is_fresh": 1, "author": ["Anton Bitel"]},
{"text": "The beads of sweat coming off my brow and from my pits made for some discomfort but didn't rival the uncomfortable horror, the unnerving attractiveness, and ultimately the deeply embedded sounds and images the film put forth.", "is_fresh": 1, "author": ["Bill Arceneaux"]},
{"text": "This isn't an atrocity on the level of, say, Rob Zombie's Halloween - but it is a horror designed to test your patience rather than your nerves.", "is_fresh": 1, "author": ["Kim Newman"]},
{"text": "What's the point of remaking a classic only to turn it into a mess?", "is_fresh": 0, "author": ["John McDonald"]},
{"text": "A lot of people have already refused this, calling it wasted potential and time. I'm not ready to go that far, even if I come out still preferring the compact simplicity of Argento's take. This Suspiria still has legs to dance on.", "is_fresh": 1, "author": ["Tomas Trussow"]},
{"text": "A slow-moving, feminist fable with injections of bonkers madness that will transfix and repel. But these frenzied set-pieces have to act as the film's supports, and are placed too far apart to do that. Johnson is impressive as the ambivalent Susie.", "is_fresh": 1, "author": ["Sarah Cartland"]},
{"text": "\"No one is alone\" becomes the film's concluding moral, which feels false, in so far as it cuts against a harder truth suggested elsewhere by the pile-up of symbols and subplots.", "is_fresh": 0, "author": ["Anwen Crawford"]},
{"text": "What makes the new film compelling viewing is the extraordinary contribution of Swinton, who plays three roles in the movie.", "is_fresh": 1, "author": ["David Stratton"]},
{"text": "If you let yourself be taken over by its sinister spell, you'll be in for an unforgettable experience.", "is_fresh": 1, "author": ["Wenlei Ma"]},
{"text": "It's as though Kajganich wanted to shake any style over substance gripes so vehemently that he overcompensated by putting in too much substance.", "is_fresh": 0, "author": ["Jared Mobarak"]},
{"text": "It took some chutzpah to remake Dario Argento's '77 shocker, but somehow--despite its questionable length, stodgy pacing, and multitudinous plot threads--Luca Guadagnino manages to pull the whole thing off.", "is_fresh": 1, "author": ["David N. Butterworth"]},
{"text": "Guadagnino's brand of horror isn't shock and awe, it's rooted in suspense. The magic aims to be \"realistic\". The film lives and dies by this approach.", "is_fresh": 1, "author": ["Jorge Castillo"]},
{"text": "I defy you to take any delight in Suspiria, or to explain what on earth is going on in that final set piece...", "is_fresh": 0, "author": ["Taylor Antrim"]},
{"text": "Luca Guadagnino's Suspiria is a genuine mindbender, a psychological melodrama in every sense of the term, a many-chambered nautilus of shocks and shudders that takes us from the sublime to the horrific and back again with each new scene.", "is_fresh": 1, "author": ["Kelly Vance"]},
{"text": "If \"Suspiria\" 1977 was the world's most decadent Cherries Jubilee, \"Suspiria\" 2018 is an oversized glob of gray mystery dessert. Dig in at your own peril.", "is_fresh": 0, "author": ["J. Olson"]},
{"text": "A sustained death rattle in dread-inducing cinematic form, a tale of thematically loaded suggestion and ominous fate, of deep-seated guilt and haunting premonition. Seeing it once isn't nearly enough.", "is_fresh": 1, "author": ["Dustin Putman"]},
{"text": "Popular genres start to die the moment they become respectable and in that light, Luca Guadagnino's gory Suspiria is all the confirmation needed that the golden era of the splatter movie belongs to the past. ", "is_fresh": 0, "author": ["Jake Wilson"]},
{"text": "This Suspiria is more of an homage and a companion piece to the original.", "is_fresh": 1, "author": ["Graeme Tuckett"]},
{"text": "Indulgent opaque ickiness ", "is_fresh": 0, "author": ["Roger Moore"]},
{"text": "It could throw you into the entire gamut of emotions on a massive scale or it could leave you scaling up the cinema steps due to sheer boredom. Either way, there really isn't a remake like this out there. For that alone, Suspiria is to be applauded.", "is_fresh": 1, "author": ["Harris Dang"]},
{"text": "The whole thing feels like a tormented fever dream-intoxicating and at times barely coherent. But that's why it's great. Argento's Suspiria sucks you in and traps you within, woozy and disoriented from some unknown spell.", "is_fresh": 1, "author": ["Ciara Dolan"]},
{"text": "... the payoff gleefully self-flagellates itself into exhaustive pointlessness. Had it been shorter, a subplot less, or both these things, it would have again become what inspired it - a clear case of never needing to have bothered in the first place.", "is_fresh": 0, "author": ["Kevin A. Ranson"]},
{"text": "Genuinely mesmerising, sustaining a two-and-a-half-hour duration with lashings of camp, rhapsodic dance choreography and wildly unpleasant body-horror.", "is_fresh": 1, "author": ["Aaron Yap"]},
{"text": "Luca's remake of Dario Argento's much shorter 1977 version (which I never saw) occasionally comes across as a self-indulgent overstatement by a talented filmmaker who cares more about art than story.", "is_fresh": 1, "author": ["John Urbancich"]},
{"text": "An entirely ambitious piece, Suspiria will either leave you completely captivated or nauseatingly bored. I'm in the latter group.", "is_fresh": 0, "author": ["Doug Jamieson"]},
{"text": "Guadagnino has made less a riddle and more of a performance art piece, with a touch of louche elegance.", "is_fresh": 1, "author": ["Kent Turner"]},
{"text": "Guaranteed to divide audiences, this iteration is gleaming, gorgeous and gory.", "is_fresh": 1, "author": ["Courtney Howard"]},
{"text": "[The new element] that resonated with me the most was the sense of history and survival -- the strength and resolve of this [female] collective making quite political art for 30 years.", "is_fresh": 1, "author": ["Adam Kempenaar"]},
{"text": "Suspiria is a statement and a question, at once. And, one of the best films of the year.", "is_fresh": 1, "author": ["Robert Daniels"]},
{"text": "This Suspiria isn't something that everyone will find entertaining, but it's audacious and uncompromising.", "is_fresh": 1, "author": ["Kong Rithdee"]},
{"text": "A dark fantasy shimmering with the dusty luster of the past...Suspiria holds a whispered decree: believe women. But also: don't underestimate them.", "is_fresh": 1, "author": ["Natalia Winkelman"]},
{"text": "Still, no amount of-minor spoiler alert-blood geysers can quell the feeling that the whole of Suspiria doesn't add up to the sum of its witchy parts.", "is_fresh": 0, "author": ["Eliza C. Thompson"]},
{"text": "Ambitious, grandiose, occasionally compelling but far more often irritating and laughable.", "is_fresh": 0, "author": ["Richard Roeper"]},
{"text": "The Argento is a marvel of style-as-subject; Guadagnino subjects audiences to second-hand shocks. ", "is_fresh": 0, "author": ["Scott Marks"]},
{"text": "The filmmakers' insatiable curiosity and grandiose sense of spectacle keeps Suspiria from becoming half as annoying as it should be.", "is_fresh": 1, "author": ["Barry Hertz"]},
{"text": "Luca Guadagnino's remake of Dario Argento's 1977 cult fave is so utterly nuts I had to love it. Densely atmospheric. Thom Yorke's music a big plus.", "is_fresh": 1, "author": ["James Verniere"]},
{"text": "It's more ambitious than Argento's predilection for lecherous male bloodlust, but it's ultimately confusing.", "is_fresh": 0, "author": ["Joule Zelman"]},
{"text": "But this clear failure of vision mirrors the trajectory of the film itself, which bounces along at a medium pace until the sixth act, in which it not only drops the ball, it chucks the ball completely out the window. ", "is_fresh": 0, "author": ["Kim Selling"]},
{"text": "A lugubrious exercise in pretension both narrative and stylistic that snuffs the life out of the tawdry source material and renders it well-nigh unwatchable. ", "is_fresh": 0, "author": ["Frank Swietek"]},
{"text": "Suspiria lacks any semblance of humour or playfulness, making it an absolute chore to sit through unless you're predisposed to adore cinematic formalism.", "is_fresh": 0, "author": ["Andrew Parker"]},
{"text": "Luca Guadagnino ... has adapted the original work of giallo horror (by the similarly elegant Dario Argento) into a wholly original, stone-cold masterpiece.", "is_fresh": 1, "author": ["Sean Collier"]},
{"text": "Even as it juggles too many balls in the air, \"Suspiria\" methodically wraps its tendrils around you. The film's bursts of graphic bloodletting, punctuated by eerie nightmare sequences that feel like something out of a queasy art installation.", "is_fresh": 1, "author": ["Ruben Rosario"]},
{"text": "Definitely not for the squeamish. ", "is_fresh": 0, "author": ["Dana Barbuto"]},
{"text": "The final half hour of Suspiria suggests there's a brash, mad movie buried somewhere under all this pretense, one that could have rivaled Mandy for most-[crazy]-fun movie of the year.", "is_fresh": 0, "author": ["Sonny Bunch"]},
{"text": "Suspiria grows more and more unwatchable as it slowly progresses through its absolutely absurd 152 minute running time...", "is_fresh": 0, "author": ["David Nusair"]},
{"text": "Lush, ghastly, and unnecessary.", "is_fresh": 0, "author": ["Chris Barsanti"]},
{"text": "We are ... at the end, left with a bloody mess, emphasis on guts. No thank you.", "is_fresh": 0, "author": ["Christopher Llewellyn Reed"]},
{"text": "A fascinating, moody landscape ripe for horror. This \"remake\" is far more interesting, challenging and demanding then its little-seen, poorly-reviewed original.", "is_fresh": 1, "author": ["Victoria Alexander"]},
{"text": "Dull-witted ostentation abounds in Guadagnino's Suspiria... Suspiria 2018 assaults the eye, distresses the ear, and maligns the mind.", "is_fresh": 0, "author": ["Melissa Anderson"]},
{"text": "The re-imagining of \"Suspiria\" is weird and, at times, positively revolting, but hardly scary.", "is_fresh": 0, "author": ["Jonathan W. Hickman"]},
{"text": "In the absence of substance is the mirage of art.", "is_fresh": 0, "author": ["Matt Oakes"]},
{"text": "This is likely the love it-hate it event epic of 2018, and I can't imagine we'll see its like again soon at any point in the foreseeable future.", "is_fresh": 1, "author": ["Sara Michelle Fetters"]},
{"text": "Guadagnino is so intent on fulfilling his vision he doesn't seem to have room for any perspective besides his own, leaving the women in his narrative underserved in spite of his incredibly skilled efforts.", "is_fresh": 0, "author": ["Andrea Thompson"]},
{"text": "\"Suspiria\" casts quite a spell.", "is_fresh": 1, "author": ["Adam Graham"]},
{"text": "\"It's a mess, isn't it?\" Susie says at one point, and she's certainly got that right.", "is_fresh": 0, "author": ["Peter Howell"]},
{"text": "There's no doubt... that the new Suspiria will leave an impression: thanks to its glamorous cast and contemporary trendsetting... it is sure to inspire a new generation to take up dance or witchcraft, or both.", "is_fresh": 1, "author": ["Tina Hassannia"]},
{"text": "One weird ride of a movie -- at times freaky, foolish, creepy, laughable, ambitious, pretentious, proudly feminist, borderline misogynist, overblown, undercooked, slyly amusing, brutally pretentious and generally compelling to watch.", "is_fresh": 1, "author": ["Peter Sobczynski"]},
{"text": "This artsy reinterpretation of horror maestro Dario Argento's 1977 danse macabre is creepy, violent and, at points, outright appalling. But it isn't frightening. It is a case of wasted arterial spray.", "is_fresh": 0, "author": ["Colin Covert"]},
{"text": "From its captivating first moments to its mind-bending conclusion, \"Suspiria\" shows Guadagnino is deliberate in his desire to unsettle the audience and rewrite the rules of supernatural horror.", "is_fresh": 1, "author": ["Sean P. Means"]},
{"text": "When multiple exploding heads barely register as shocking, then something has gone awry.", "is_fresh": 0, "author": ["Alan Zilberman"]},
{"text": "Luca Guadagnino's Suspiria remake is an outlandishly theatrical and grotesque take on the cult classic original film. Kinetic body horror mixed with surprisingly feminist undertones make for a fresh interpretation of the source material.", "is_fresh": 1, "author": ["Michelle Kisner"]},
{"text": "Set to the lilting vocals and haunting strings composed and arranged by Radiohead's Thom Yorke, Susie's victory over the witches is, this time, a crimson orgy of a Dervish dance perhaps inspired by Brian DePalma's Cuisinart.", "is_fresh": 1, "author": ["Rubin Safaya"]},
{"text": "Guadagnino's flavorless film is less a straight remake than a dreaded \"homage,\" with subtext becoming text, the unspoken getting spoken and tantalizing assumptions transforming into leaden story points. ", "is_fresh": 0, "author": ["Daniel Barnes"]},
{"text": "At 151 minutes, \"Suspiria\" is a commitment. But Luca Guadagnino is the kind of director who knows how to use the time he takes.", "is_fresh": 1, "author": ["Karen M. Peterson"]},
{"text": "The movie is logy and feels interminable. ", "is_fresh": 0, "author": ["Sean Burns"]},
{"text": "By its bizarre final sequence... the viewer feels lost in a sea of blood and pretension.", "is_fresh": 0, "author": ["Moira MacDonald"]},
{"text": "Painstakingly calculated and chock-full of Tilda Swinton, Luca Guadagnino's bloated remake of Dario Argento's 1977 classic is a textbook example of pretension and historically cavalier.", "is_fresh": 0, "author": ["Liam Lacey"]},
{"text": "Focused so much on the head that it almost forgets that the heart exists. It's more nauseating than frightening and far more conceptional than it is terrifying.", "is_fresh": 0, "author": ["Johnny Gayzmonic"]},
{"text": "A sensory onslaught with layers of narrative depth, indulging in graphic violence both elegant and hellish", "is_fresh": 1, "author": ["Robert Kojder"]},
{"text": "Argento managed to capture a widescreen nightmare in a distinctive, thrilling manner. Guadagnino turns cinematic fear into multiplex imprisonment.", "is_fresh": 0, "author": ["Brian Orndorf"]},
{"text": "We know we're in trouble when the credits describe what we're about to watch as \"Six Acts and an Epilogue in a Divided Berlin.\" Woof.", "is_fresh": 0, "author": ["John Shipley"]},
{"text": "When art-minded film directors stoop to genre-minded filmmaking, it's generally a good idea to duck. Despite sequences that may lodge in your memory forever, Luca Guadagnino's \"Suspiria\" is no exception to this rule.", "is_fresh": 0, "author": ["Ty Burr"]},
{"text": "In the end, there's nothing as chilling as the scene featuring Timothee Chalamet and the apricot in Call Me By Your Name.", "is_fresh": 0, "author": ["Gary Thompson"]},
{"text": "It attempts to expand upon its predecessor with underwhelming results.", "is_fresh": 0, "author": ["Mark Dujsik"]},
{"text": "...tries to bring too much meaning to its horror conceit.", "is_fresh": 0, "author": ["Josh Larsen"]},
{"text": "Suspiria is a nightmare told in great spurts of blood across black canvases and great slashing movements by its dancers.", "is_fresh": 1, "author": ["Kristian M. Lin"]},
{"text": "Suspiria is a gentle drift through some unsettling ideas about gender, destiny and evil that intellectualizes them into abstractions. It's interesting, sure, and occasionally quite striking... but it's never as upsetting as it wants to be, or as profound.", "is_fresh": 0, "author": ["Norman Wilner"]},
{"text": "Call it an art-house slasher film. Call it a beautiful mess. Just don't call me with questions about what any of it means.", "is_fresh": 0, "author": ["Michael O'Sullivan"]},
{"text": "Luca Guadagnino has created a visually arresting , if overlong, remake of the 1977 cult horror classic. It's worth seeing for those without weak stomachs, if only to once again experience the wonders of Tilda Swinton.", "is_fresh": 1, "author": ["Pete Hammond"]},
{"text": "There's nothing prudent about Suspiria; it dares to tread on hallowed cinematic ground, altering and deepening source material that most horror pundits have long deemed untouchable... There's more than enough room in this evil world for both versions.", "is_fresh": 1, "author": ["Glenn Heath Jr."]},
{"text": "Whatever you may feel about Luca Guadagnino's remake of Dario Argento's Suspiria - whether you love it or hate it, find bits of it dull and other bits illuminating - you really have never seen anything like it.", "is_fresh": 1, "author": ["Lauren Humphries-Brooks"]},
{"text": "Suspiria has \"divisive\" written all over it, and will surely be a film that some find to be a true work of art while others, like me, write it off as pretentious nonsense.", "is_fresh": 0, "author": ["Travis Hopson"]},
{"text": "Many who were unsettled by the original will find a far darker film this time out. With many more viewings to come, this might be the very best horror film of 2018.", "is_fresh": 1, "author": ["Alan French"]},
{"text": "A ravishing, frenetic fever dream that flounders dangerously close to turning into a cinematic nightmare.", "is_fresh": 1, "author": ["Jon Espino"]},
{"text": "It takes the charred bones and ash of Argento's witches and roots them in a reality entirely familiar to our own.", "is_fresh": 1, "author": ["Garrett Mitchell"]},
{"text": "It is almost an hour longer than Argento's 1977 film and while this one actually spotlights dancing...much of that time has been given over to clunky subplots that detract rather than add.", "is_fresh": 0, "author": ["Laura Clifford"]},
{"text": "Sordid, flimsy Holocaust kitsch, fanatical chic, with all the actual political substance of a designer Che T-shirt.", "is_fresh": 0, "author": ["Richard Brody"]},
{"text": "I loved it. But I did not love all of it.", "is_fresh": 1, "author": ["Peg Aloi"]},
{"text": "I'm honestly not sure if Suspiria is (or isn't) schlock pretending to be high art pretending to be schlock inspired by schlock (that may or may not also have been art) - and to what degree that matters - but I dug it.", "is_fresh": 1, "author": ["Bob Chipman"]},
{"text": "Suspiria is a movie you can't take you eyes off of, even when it doesn't make a damn lick of sense.", "is_fresh": 1, "author": ["Jason Bailey"]},
{"text": "Guadagnino is a captivating and stylish filmmaker: Suspiria's cavalcade of grotesquery is expertly shot (the notable exception being its ugly, chaotic climax), and the sullen atmosphere of its world is richly rendered.", "is_fresh": 1, "author": ["Kristen Yoonsoo Kim"]},
{"text": "Suspiria isn't just a brilliant and defining horror classic anymore. It's two.", "is_fresh": 1, "author": ["Simon Miraudo"]},
{"text": "The sharp modern choreography is entrancing and adds a physicality to the magic that gave it impact, even more so than in the original.", "is_fresh": 1, "author": ["Jenna Stoeber"]},
{"text": "Guadagnino updates the plot with horror-movie clich\u00e9s and modern political conceits.", "is_fresh": 0, "author": ["Armond White"]},
{"text": "An effort to spin high art out of a guilty-pleasure cult classic, it's off-the-charts bonkers. But it's also off-the-charts unpleasant.", "is_fresh": 0, "author": ["Mike Scott"]},
{"text": "If life were infinite and leisure eternal and if the only challenge were how to fill the endless hours with something, anything, that might divert us even slightly, \"Suspiria\" would still be something to miss.", "is_fresh": 0, "author": ["Mick LaSalle"]},
{"text": "It's unforgettable, as ravishing as anything Guadagnino's lazily captured in the italian countryside, as disturbing as any horror film you've seen this year. What Argento only pointed to, Gudagnino covers in viscera.", "is_fresh": 1, "author": ["Dom Sinacola"]},
{"text": "Malgr\u00e9 ses qualit\u00e9s, non n\u00e9gligeables, ce remake demeure inf\u00e9rieur \u00e0 l'original, comme c'est souvent le cas. [Full review in French]", "is_fresh": 0, "author": ["Kevin N. Laforest"]},
{"text": "Sure to polarize audiences, Suspiria (2018) is a movie to be savored and feared.", "is_fresh": 1, "author": ["J.R. Kinnard"]},
{"text": "A feminine and feminist horror experience that isn't for the faint of heart. ", "is_fresh": 1, "author": ["Yolanda Machado"]},
{"text": "This new Suspiria is an astonishing film and one that general audiences will most likely reject wholesale.", "is_fresh": 1, "author": ["Sean Mulvihill"]},
{"text": "Suspiria is a wild phantasmagoria that gets into your bones and requires multiple viewings to even begin to understand its dark heart", "is_fresh": 1, "author": ["Kristen Lopez"]},
{"text": "SUSPIRIA is a masterpiece. However, it is a divisive one.", "is_fresh": 1, "author": ["JimmyO"]},
{"text": "Suspiria is an alluring blend of sociopolitical allegory and visceral supernatural horror that yields imperfect, yet all the same fascinating results.", "is_fresh": 1, "author": ["Sandy Schaefer"]},
{"text": "...a gorgeously shot art film with striking imagery and solid performances...", "is_fresh": 1, "author": ["Anthony O'Connor"]},
{"text": "Adding 45 minutes to the adaptation doesn't improve it, especially in the protracted epilogue. The most egregious addition is a Holocaust subplot that may be poignant, but it is entirely extraneous.", "is_fresh": 0, "author": ["Fred Topel"]},
{"text": "A meandering 153 minute take on Argento's horror film, Guadagnino's re-imagining doesn't stir up the creative juices that made the original so formidably and artfully disturbing.", "is_fresh": 0, "author": ["Jordan Ruimy"]},
{"text": "Hits you between the eyes with its primal witch entreaties.", "is_fresh": 1, "author": ["Dennis Schwartz"]},
{"text": "Guadagnino and Kajganich have taken Argento's abstract fairy tale and grounded it in reality, while keeping it just as lush and overwhelmingly strange.", "is_fresh": 1, "author": ["Josh Bell"]},
{"text": "It is primarily a visceral, unsettling experience, one that remains somewhere out of total grasp but nonetheless clear in the notion that a strange, terrifying and altogether meaningful awakening is occurring inside Susie within the Markos walls.", "is_fresh": 1, "author": ["Robert Levin"]},
{"text": "At the very end, in the big climax, is where it actually says what it has to say. And It's pretty sophomoric what it has to say.", "is_fresh": 0, "author": ["Martin Thomas"]},
{"text": "This remake runs a full hour longer than Dario Argento's original 1977 horror masterpiece, and it eventually loses its way, but it also has powerful, unsettling imagery that's hard to dismiss. ", "is_fresh": 1, "author": ["Jeffrey M. Anderson"]},
{"text": "Suspiria is a meditation on the dangers of pedagogy and the perils of placing your art above all else, but it never quite fights its way to the surface.", "is_fresh": 0, "author": ["Dana Stevens"]},
{"text": "If I wanted to be kind, I'd call Luca Guadagnino's Suspiria remake \"visually striking\" and \"stylish.\" If I wanted to be brutally honest, I'd call it \"tedious\", \"pretentious\", and even \"painful\" (although not in a good way).", "is_fresh": 0, "author": ["James Berardinelli"]},
{"text": "A visceral, at times grotesque, ultimately bonkers portrait of female desire -- not for love, but for metaphysical power.", "is_fresh": 1, "author": ["Annlee Ellingson"]},
{"text": "As fun and pulpy as the giallo sheen of the Argento original can be, Guadagnino's arthouse sophistication leads to filmmaking that is as painterly as it is petrifying.", "is_fresh": 1, "author": ["Clint Worthington"]},
{"text": "I found Suspiria to be ravishing, repellant, skin-crawling-and unforgettable.", "is_fresh": 1, "author": ["Stephen Rebello"]},
{"text": "Guadagnino bounces around from calm to frenetic and back again, instilling each scene with a sense of unpredictability-it can all cohere or implode at any moment.", "is_fresh": 1, "author": ["Adam Epstein"]},
{"text": "Suspiria is bleak, grotesque, overly complicated, and unforgettable, a depiction of women's anger turned to rot.", "is_fresh": 1, "author": ["Roxana Hadadi"]},
{"text": "Despite the strong performances, particularly from Johnson, it's a confounding and often punishing experience.", "is_fresh": 0, "author": ["Chris Klimek"]},
{"text": "Luca Guadagnino has concocted a witches' brew of primal sisterhood that isn't for the faint of heart or patience. It's a visually and morally challenging film that will leave you pondering its existence and meaning long after you've left the theater.", "is_fresh": 1, "author": ["Erik Anderson"]},
{"text": "As the film built to a shocking climax I found the need for a female director more and more pressing... We need more feminist horror, but we need it told from a female perspective.", "is_fresh": 1, "author": ["Kate Gardner"]},
{"text": "Suspiria is a truly unique cinema experience; disturbing, bizarre, yet entrancingly hypnotic. Luca Guadagnino has delivered the most audacious film of the year.", "is_fresh": 1, "author": ["Julian Roman"]},
{"text": "The new Suspiria reaches back into the era of the Argento original, but only keeps the barest outline of its story. What it achieves more as a work on its own than as a remake is that it speaks so directly to the feeling of the age.", "is_fresh": 1, "author": ["Alci Rengifo"]},
{"text": "The picture ends in a really demented blood orgy that's almost worth waiting for.", "is_fresh": 0, "author": ["Kurt Loder"]},
{"text": "It's extremely violent --- and bloody --- with a penchant for the macabre. And at times, SUSPIRIA is downright silly and stupid. ", "is_fresh": 0, "author": ["Jeanne Kaplan"]},
{"text": "The film becomes such a gore fest of bloody events, it becomes laugh-inducing. Thus I can't even remotely call SUSPIRIA entertaining.", "is_fresh": 0, "author": ["David Kaplan"]},
{"text": "In Suspiria, style stomps fun into submission.", "is_fresh": 0, "author": ["Joe Morgenstern"]},
{"text": "Not just an arthouse exploration of a horror aesthetic, but a down-and-dirty body horror as visceral as anything in Cronenberg's output.", "is_fresh": 1, "author": ["Andrew Whalen"]},
{"text": "Suspiria displays a much keener interest in impressing its audience with what it perceives is shocking boldness than it is with connecting to people psychologically or emotionally-or for that matter, simply telling a compelling story.", "is_fresh": 0, "author": ["Oliver Jones"]},
{"text": "Befitting a Jungian text, Suspiria's subtext is teeming with archetype, obsessed with the violent power of female relationships and rituals. ", "is_fresh": 1, "author": ["Walter Chaw"]},
{"text": "You will stagger out of the theater wondering what exactly you just saw, but you will not easily forget it.", "is_fresh": 1, "author": ["Christy Lemire"]},
{"text": "[It] is an interesting intellectual exercise, too ambitious to be ignored yet too overbearing to be enjoyed. Despite moments of genuine terror the film is less interesting in being scary than it is in humanizing what scares us.", "is_fresh": 1, "author": ["William Bibbiani"]},
{"text": "A kick ball change of disappointment. ", "is_fresh": 0, "author": ["Rendy Jones"]},
{"text": "\"Suspiria\" is bound to alienate some. Actually, probably many. However, those with a penchant for the new wave of psychological horror and a healthy respect for B-movie camp will love this thing to the crazy last dance.", "is_fresh": 1, "author": ["Brian Truitt"]},
{"text": "Guadagnino's conception of evil more or less keeps pace with his desire to explicate, until eventually the evil overtakes this crutch and once again consumes the film nearly whole.", "is_fresh": 1, "author": ["Scott Nye"]},
{"text": "The finale should have you clutching your face \"Home Alone\" style as Guadagnino goes totally for broke.", "is_fresh": 1, "author": ["Sara Stewart"]},
{"text": "Luca Guadagnino's re-imagining of Dario Argento's 1977 horror classic about a dance academy run by witches is a maddening mess-all that subtext- and also totally mesmerizing. Brava, Tilda Swinton! ", "is_fresh": 1, "author": ["Peter Travers"]},
{"text": "Best viewed while wearing a ballgown and a fur stole, preferably while drinking something expensive in a crystal goblet, and smiling faintly at the memory of your recently murdered husband.", "is_fresh": 1, "author": ["Gavia Baker-Whitelaw"]},
{"text": "As the first hour of \"Suspiria\" grinds into the second and beyond (the movie runs 152 minutes), it grows ever more distended and yet more hollow.", "is_fresh": 0, "author": ["Manohla Dargis"]},
{"text": "Things fall apart towards the end... Still, it's an astonishing creative effort, imbued with awe for the infinite possibilities of the feminine.", "is_fresh": 1, "author": ["Anne Cohen"]},
{"text": "Like great dance, it becomes an expression of the soul.", "is_fresh": 1, "author": ["April Wolfe"]},
{"text": "There is meaning in this mutilation and, if you don't regard the classics as sacrosanct, a grim, brooding sort of pleasure.", "is_fresh": 1, "author": ["Justin Chang"]},
{"text": "The results are an overall better film that is painfully negligent of what made the original legendary, while still delivering an entertaining experience.", "is_fresh": 1, "author": ["Norm Gidney"]},
{"text": "Some open minded viewers may find its obtuseness infatuating. Me? I found it underwhelming and often pretentious.", "is_fresh": 0, "author": ["Joey Magidson"]},
{"text": "It titillates and startles and, perhaps most disturbingly, inspires.", "is_fresh": 1, "author": ["Richard Lawson"]},
{"text": "A real test of the audience's spirit, but it all builds to an indescribably insane denouement that challenges, and vociferously rejects, much of what has come before.", "is_fresh": 1, "author": ["David Sims"]},
{"text": "It's impossible to ignore how skillfully Guadagnino dove into the material and came up with something all his own.", "is_fresh": 1, "author": ["Alissa Wilkinson"]},
{"text": "he result is unlikely to be as influential as Argento's movie, and it will test some viewers' patience, but it's still a bold, hypnotic work, an example of the richness that today's generation of filmmakers are bringing to the horror genre.", "is_fresh": 1, "author": ["Bryan Bishop"]},
{"text": "The main difference between the two films, though, is that the new one simply isn't very good.", "is_fresh": 0, "author": ["Andrew Winter"]},
{"text": "It's likely to be enjoyed more by audiences unfamiliar with the original.", "is_fresh": 1, "author": ["Chris Nashawaty"]},
{"text": "A smart reimagining, but not a particularly compelling one, which is the problem overall.", "is_fresh": 0, "author": ["Maitland McDonagh"]},
{"text": "The movie would be a hoot if it didn't drag on for two and a half hours and feature witches who talk so much that Hansel and Gretel would fling themselves into the oven to get it over with.", "is_fresh": 0, "author": ["David Edelstein"]},
{"text": "Terpsichore, the Greek Muse of the dance, might recommend this movie to her eight colleagues, but strong visuals involving witches of the West, cannot make up for the film's lack of a coherent narrative.", "is_fresh": 0, "author": ["Harvey S. Karten"]},
{"text": "The film ends up in a netherworld between past and present, horror and art house, thick red blood and dreary gray stone.", "is_fresh": 1, "author": ["Don Kaye"]},
{"text": "Guadagnino has succeeded in making a Suspiria that is genuinely sinister, a work of art that is terrifying for how well he can penetrate the subconscious fears of fourth wave feminism.", "is_fresh": 1, "author": ["Katie Driscoll"]},
{"text": "Fans of orthodox horror will drum their nails in impatience, for this \"Suspiria\" runs more than two and a half hours, and is decidedly short on cheap thrills. There are thrills, but they come at a high emotional cost.", "is_fresh": 1, "author": ["Anthony Lane"]},
{"text": "Luca Guadagnino's remake of Dario Argento's film is silly and self-serious, a funereal pseudo-realist drama about political upheaval and the violence of systems that's at odds with itself. ", "is_fresh": 0, "author": ["Greg Cwik"]},
{"text": "You will be left rendered questioning and shivering, kneeling before Guadagnino's Suspiria.", "is_fresh": 1, "author": ["Ben Rolph"]},
{"text": "As joyously disgusting as the practical effects are, they don't compensate for an overlong and quite frankly, tedious affair.", "is_fresh": 0, "author": ["Alistair Ryder"]},
{"text": "He has crafted a darkly beautiful feminine story but has let the women own every moment, and own it they do. ", "is_fresh": 1, "author": ["Millicent Thomas"]},
{"text": "As Blanc, Swinton glides as if her feet never touch the ground... Her Josef is, by contrast, the film's most moving element.", "is_fresh": 1, "author": ["Rich Cline"]},
{"text": "Seemingly struggling to find a raison d'\u00eatre, dramatic or otherwise, the film grasps at subtextual straws.", "is_fresh": 0, "author": ["Kevin Maher"]},
{"text": "Luca Guadagnino's Suspiria has turned the horror genre on its head, with powerful women at the centre of a suspenseful, twisted story.", "is_fresh": 1, "author": ["Jenny Desborough"]},
{"text": "A richly provocative piece of modern art.", "is_fresh": 1, "author": ["Katherine McLaughlin"]},
{"text": "much as the Markos Dance Academy is a hall of mirrors, its walls covered in reflective surfaces, the film itself constantly reflects upon its own form and its very status as a remake.", "is_fresh": 1, "author": ["Anton Bitel"]},
{"text": "In the brilliant Italian director Luca Guadagnino's hands, the cult movie first made by Dario Argento as a blood-drenched, supernatural gore-fest is reworked as a highly stylized and self-reflexive performance piece.", "is_fresh": 1, "author": ["Geoffrey Macnab"]},
{"text": "There are some cool connections, showing that indeed the filmmakers are thoughtful and they do care about what they were creating. ", "is_fresh": 1, "author": ["Staci Layne Wilson"]},
{"text": "[A] horror film that doesn't seem to be particularly interested in being a 'horror' film at all.", "is_fresh": 0, "author": ["Simon Foster"]},
{"text": "Conceiving the inconceivable lies...at the heart of both Argento's 1977 Suspiria + Guadagnino's 2018 film of the same name, and both films...explore new ways of understanding that rely heavily on transcending the intellect + surrendering to the somatic.", "is_fresh": 1, "author": ["Alexandra Heller-Nicholas"]},
{"text": "There is a great 90-minute film hidden somewhere under all the muss of this 153-minute-long motion picture, but it gets lost among a plethora of subplots and attempts at social commentary that lead nowhere.", "is_fresh": 0, "author": ["Rafael Motamayor"]},
{"text": "This Suspiria is wholly its own film and offers frantic energy and lush visuals to make for a nearly perfect cinematic experience.", "is_fresh": 1, "author": ["Deirdre Crimmins"]},
{"text": "Less of a remake, more of a rebirth. And a glorious one at that.", "is_fresh": 1, "author": ["Rob Hunter"]},
{"text": "Though it may seem odd, at face value, to think of Susie and Elio's stories as peers in the same director's oeuvre, Guadagnino's commitment to interrogating and capturing desire, its ecstasy, its destruction, bridges nearly all his work.", "is_fresh": 1, "author": ["Hazem Fahmy"]},
{"text": "Like the blood-red costumes tightly bound around the girls' bodies, Luca Guadagnino's adaptation weaves brutality and beauty together in devilish style.", "is_fresh": 1, "author": ["Marisa Mirabal"]},
{"text": "Although the latest Suspiria is arguably more graphic than its source material, there's a mesmerizing grace that separates it from Argento's. Even at its goriest, this is a dance film as much as it's a horror film.", "is_fresh": 1, "author": ["Dan Caffrey"]},
{"text": "It feels like we'll still be discovering new intricate details in Guadagnino's Suspiria for years to come.", "is_fresh": 1, "author": ["Heather Wixson"]},
{"text": "Suspiria is a film brimming with dense material that demands and encourages interpretation.", "is_fresh": 1, "author": ["Haleigh Foutch"]},
{"text": "Suspiria is not a movie that will gel with everyone. It will awaken the sickest, most twisted parts of your mind if you allow it.", "is_fresh": 1, "author": ["Jenny Nulf"]},
{"text": "Coalesces as a stunning, horrifying nightmare that is as shockingly gorgeous as it is unsettling.", "is_fresh": 1, "author": ["Eric Eisenberg"]},
{"text": "[Luca] Guadagnino and screenwriter David Kajganich take [their heroine] on a macabre and beautiful journey, one that mines the dangers of repression and antiquated ideologies, and forges something new.", "is_fresh": 1, "author": ["Lindsey Romain"]},
{"text": "Suspiria is a movie that is so rich on every level it can only get better the more you watch it. Luca Guadagnino has created an incredible piece of cinema that should make Argento proud.", "is_fresh": 1, "author": ["Germain Lussier"]},
{"text": "Luca Guadagnino's Suspiria will divide fans of the original and those excited for something fresh as a testament to long-form (2+ hour) filmmaking that holds together impressively well.", "is_fresh": 1, "author": ["Matt Donato"]},
{"text": "Suspiria ... lives and breathes in a world of its own, weaving an enchanting, dizzying, and frightening spell.", "is_fresh": 1, "author": ["Jonathan Barkan"]},
{"text": "It's not a film one considers, but excavates, continually finding additional symbols and meaning within the deceptively simple setting.", "is_fresh": 1, "author": ["Britt Hayes"]},
{"text": "This new Suspiria is a dense, defiant, confrontational work of artistic terrorism, bubbling over with ideas that demand repeat viewings to unpack, like a torturous three-hour filmic nesting doll.", "is_fresh": 1, "author": ["Jacob Knight"]},
{"text": "A two and-a-half-hour wallow in the primal recesses of the human psyche that's alternately calculatedly subdued and completely... crazy.", "is_fresh": 1, "author": ["Katie Rife"]},
{"text": "This is a great film.", "is_fresh": 1, "author": ["Alan Cerny"]},
{"text": "A bacchanalian tour de force that's as terrifying as it is viciously magnetic.", "is_fresh": 1, "author": ["Leonardo Goi"]},
{"text": "The passion of Guadagnino's messy vision -- the swirl of emotions he conjures on this grand canvas -- has a forcefulness that mostly transcends its sizable flaws.", "is_fresh": 1, "author": ["Tim Grierson"]},
{"text": "Guadagnino commits the most indulgent of sins: his overstuffed, underwhelming Suspiria, be it a remake, homage or original vision, simply isn't ever as freaky, fascinating or frightening as its inspiration.", "is_fresh": 0, "author": ["Michael Leader"]},
{"text": "There are some incredible dance sequences involving some great cross-cutting as Susie's dance moves have powerful, supernatural results. However, for all the great changes, this film does feel slightly overblown.", "is_fresh": 1, "author": ["Kaleem Aftab"]},
{"text": "[Guadagnino] treats it with such stifling reverence that it loses all the melodrama and sheer scariness of the original...", "is_fresh": 0, "author": ["David Sexton"]},
{"text": "The idea isn't bad, and I'm sure there are Expressionistic readings to be made - but it all wilts under the self-conscious (though undeniably tasteful) filmmaking, filled with \"dream images\" that appear to be from teenage Bergman's diary. ", "is_fresh": 0, "author": ["Baradwaj Rangan"]},
{"text": "I expected to be peering at the screen between splayed fingers, but instead I was peering at my watch.", "is_fresh": 0, "author": ["Nicholas Barber"]},
{"text": "In terms of plot and performances this is a major improvement on the much-loved but ludicrous original.", "is_fresh": 1, "author": ["Raphael Abraham"]},
{"text": "A lavish, kitsch-porn piece of (admittedly) not particularly scary macabre horror that bears the director's signature aesthetic stamp while staying true to the original in many ways.", "is_fresh": 1, "author": ["Rory O'Connor"]},
{"text": "Guadagnino has made an ambitious homage, but it doesn't really benefit from its more intellectualized gaze, instead draining the stomach-churning thrills of great horror.", "is_fresh": 0, "author": ["David Rooney"]},
{"text": "By the time it drags itself to the finish line, you may think, \"Okay, now we know what 'Suspiria' looks like as an art film. Can we please go back to when it was just a garishly flamboyant piece of bat-house trash?\"", "is_fresh": 0, "author": ["Owen Gleiberman"]},
{"text": "Suspiria is a gorgeous, hideous, uncompromising film, and while it seeks to do many things, settling our minds about the brutality of the past and human nature is not one of them.", "is_fresh": 1, "author": ["Emily Yoshida"]},
{"text": "There are smart moments of fear and subliminal shivers of disquiet, the dance sequences are good and of course Guadagnino could never be anything other than an intelligent film-maker. But this is a weirdly passionless film.", "is_fresh": 1, "author": ["Peter Bradshaw"]},
{"text": "This new Suspiria is bland, grisly, boring and silly. There is nothing poetic or erotic about it. ", "is_fresh": 0, "author": ["Stephanie Zacharek"]},
{"text": "\"Suspiria\" is a film of rare and unfettered madness, and it leaves behind a scalding message that's written in pain and blood: The future will be a nightmare if we can't take responsibility for the past. ", "is_fresh": 1, "author": ["David Ehrlich"]},
{"text": "Suspiria draws a complex, provocative line through faith, politics, dance and, yes, witchcraft: in all cases, a group of resolute like minds can birth something more powerful and dangerous than themselves. ", "is_fresh": 1, "author": ["Robbie Collin"]},
{"text": "Guadagnino directs the hell out of his Suspiria, heightening the sound design and using cuts that feel more like stabs. He wallows in the impressionistic weather - it only stops raining to start snowing - and gives a wonderful sense of place. ", "is_fresh": 1, "author": ["John Bleasdale"]},
{"text": "A breathtaking achievement in hollow, know-somethingish sensationalism that fully deserves to be called 'pretentious.' And quite a few other things.", "is_fresh": 0, "author": ["Glenn Kenny"]},
{"text": "Traditional horror fans won't be pleased: Almost transgressively, Guadagnino has deprioritized the shocks, even the fear. But in their place, he's pumped up the exotic strangeness and crafted a movie you can get lost in, which is the ultimate tribute.", "is_fresh": 1, "author": ["Joshua Rothkopf"]},
{"text": "The frights aren't frightening, the political subtext never connects with the rest of the movie, and even Guadagnino's generally unfailing visual sense isn't enough to put this over.", "is_fresh": 0, "author": ["Alonso Duralde"]},
{"text": "Itcertainly does play out as high-class horror-porn and I mean that as an immense, tumescent compliment.", "is_fresh": 1, "author": ["Jessica Kiang"]}
]