[
{"reviews_count": "185", "title": "The Ballad of Ricky Bobby", "avg_audience_rating": "3.4", "rotten_count": "53", "tomatometer": "71", "audience_score": "73", "avg_critic_rating": "6.5", "fresh_count": "132", "user_ratings_count": "554,333"},
{"text": "In the 2000s, Will Ferrell had an enviable run of hit comedies. To my mind, Talladega Nights: The Ballad of Ricky Bobby is the funniest of the batch.", "is_fresh": 1, "author": ["Sean Axmaker"]},
{"text": "It's also a typical Ferrell vehicle, meaning it has his usual flat delivery and inside jokes. This particular style of comedy is odd, it's slow, it's kind of dumb and people seem to love it.", "is_fresh": 0, "author": ["Dorothy Woodend"]},
{"text": "You pretty much have to like Will Ferrell to like Talladega Nights, it's his film through and through. But if you do, you're in for a ride.", "is_fresh": 1, "author": ["Joshua Starnes"]},
{"text": "Often a one-note joke that goes on way too long...", "is_fresh": 0, "author": ["Felix Vasquez Jr."]},
{"text": "Talladega starts out slow, picks up speed in the middle, and nearly crashes and burns in the end.", "is_fresh": 1, "author": ["Peter Keough"]},
{"text": "The movie takes a piecemeal approach that allows for several guffaw-inducing comic bits, but doesn't hold together enough for a sustained comic experience.", "is_fresh": 0, "author": ["Cole Smithey"]},
{"text": "The script by Ferrell and director Adam McKay, a parody of sports biopics, takes the same freewheeling approach that served them well on Anchorman, but with a more mean-spirited edge.", "is_fresh": 1, "author": ["Jim Lane"]},
{"text": "A comedy with horsepower to spare.", "is_fresh": 1, "author": ["Steven Snyder"]},
{"text": "Showcases Will Ferrell's comedy genius to perfection.", "is_fresh": 1, "author": ["Jamie Russell"]},
{"text": "Playing to his strengths, star and co-writer Will Ferrell reaps many good comic moments early on in Adam Mckay's feature to compensate for a sluggish second half.", "is_fresh": 1, "author": ["Tim Grierson"]},
{"text": "i concur with everything bobby has to say about highlander", "is_fresh": 1, "author": ["Stefan Birgir Stefansson"]},
{"text": "Will Ferrell and director/writing collaborator Adam McKay have carved out a comfortable comic niche in taking confidently clueless oafs and pulling the rug out from under the core of resolutely prototypical alpha male existence.", "is_fresh": 1, "author": ["Michael Dequina"]},
{"text": "Check your brain at the box-office to enjoy this brand of politically-incorrect hilarity poking fun mostly at gays, women and the French, all aimed at a redneck crowd with an average I.Q. of about 75.", "is_fresh": 1, "author": ["Kam Williams"]},
{"text": "In Talladega, Mr. Ferrell finds his best role to date.", "is_fresh": 1, "author": ["Joe Lozito"]},
{"text": "Riddled with blatant product placement. Blades of Glory is better. Ferrell can't save this one. Sacha adds little.", "is_fresh": 0, "author": ["Ross Anthony"]},
{"text": "The disappointment of this movie is not that we don't see enough of Will Ferrell. It's disappointing because what we do see, we've seen before, and better.", "is_fresh": 0, "author": ["Nell Minow"]},
{"text": "It's not that ethnic and cultural stereotyping can't be funny -- Lord knows the laugh industry would be nothing without them -- it's just that movies like this one keep punching the same buttons over and over again.", "is_fresh": 0, "author": ["Lewis Beale"]},
{"text": "The white-trash, child-neglect, feel-good NASCAR comedy of the year (the one without the talking cars).", "is_fresh": 1, "author": ["Kevin A. Ranson"]},
{"text": "Ferrell e seus parceiros se mostram sempre dispostos a estender uma cena at\u00e9 que ela eventualmente se torne engra\u00e7ada %u2013 e, por incr\u00edvel que pare\u00e7a, esta t\u00e1tica funciona com freq\u00fc\u00eancia.", "is_fresh": 1, "author": ["Pablo Villa\u00e7a"]},
{"text": "A film that will keep you laughing from beginning to end (including the credits), \"Talladega Nights\" is the most fun you can have this summer at 200 miles per hour!", "is_fresh": 1, "author": ["Michael A. Smith"]},
{"text": "Silly, but entertaining comedy about a dim-witted race car driver and his dysfunctional family and friends.", "is_fresh": 1, "author": ["Robert Roten"]},
{"text": "...It's hard not to be amused by the scene-stealing supporting cast.", "is_fresh": 1, "author": ["Jeff Vice"]},
{"text": "Some of the jokes here are funny. Most are not, while the characters are simply too silly to make us give two hoots about them. Worse, the movie collapses under the weight of a ton of syrup in the second half.", "is_fresh": 0, "author": ["David Edwards"]},
{"text": "Anchorman director Adam McKay has assembled a terrific cast and his hilarious script (co-written with Ferrell) ensures that each of the characters has their own funny moment.", "is_fresh": 1, "author": ["Matthew Turner"]},
{"text": "An inane parody of a triumphalist celebration of all-American sporting heroism.", "is_fresh": 0, "author": ["Philip French"]},
{"text": "Broad but not crude, dumb but not witless, clever but still snot-spittingly funny. Stupidly brilliant, in other words.", "is_fresh": 1, "author": []},
{"text": "On the Ferrellometer, Talladega Nights sits just above Kicking & Screaming, when it should be redlining it up there with Anchorman.", "is_fresh": 0, "author": ["Dan Jolin"]},
{"text": "Probably best viewed with a six-pack on hand.", "is_fresh": 1, "author": ["Robert Hanks"]},
{"text": "There are laughs to be had within Talladega Nights but they're certainly not worth the money a trip to the cinema will surely cost.", "is_fresh": 0, "author": ["Joe Utichi"]},
{"text": "Much like its star, Talladega Nights is erratic, infuriating and very, very funny.", "is_fresh": 1, "author": ["Paul Arendt"]},
{"text": "Ferrell and Reilly display a genuine feel for their characters, as well as an appealing rapport.", "is_fresh": 1, "author": ["Sandra Hall"]},
{"text": "Not being a Will Farrell fan, this is a relative rave review of a film that at first glance promises so little, but ultimately delivers chuckles and gurgles and even some out and out laughs.", "is_fresh": 1, "author": ["Urban Cinefile Critics"]},
{"text": "Consistently subversive and amusing...", "is_fresh": 1, "author": ["Todd Jorgenson"]},
{"text": "The film plays like an episode of Saturday Night Live, with the same character tying together various sketches poking fun at Southerners, psychosomatic diseases, NASCAR fans, people who pray, product placement, the French, and sports movies.", "is_fresh": 0, "author": ["Todd Hertz"]},
{"text": "A fairly funny vehicle that runs out of gas well before the checkered flag.", "is_fresh": 0, "author": ["Jim Chastain"]},
{"text": "They seem content to let the actors improvise around the biopic structure, which gives us some very funny moments, but leaves the movie a little flat. ", "is_fresh": 1, "author": ["Stephen Himes"]},
{"text": "The first third is the movie at its best--it has the looseness of improvisation. The second half is a struggle, but McKay recovers nicely toward the end, where so many stereotypes are eventually run down by the script.", "is_fresh": 1, "author": ["Christopher Smith"]},
{"text": "An astute cultural satire masquerading as an infectiously stupid-silly lark - or, perhaps, it's the other way around.", "is_fresh": 1, "author": ["Nick Schager"]},
{"text": "As ballads tend to be, this one was at times, slow and annoying, but it is worth the watch.", "is_fresh": 1, "author": ["Kamal 'The Diva' Larsuel"]},
{"text": "Whilst many times it goes for the obvious and is often inconsistent, moments of inspired genius often yield hilarity", "is_fresh": 1, "author": ["Garth Franklin"]},
{"text": "While the movie does veer somewhat close to sentimentality a few times, it always manages to steer away from it at the last moment.", "is_fresh": 1, "author": ["Scott Nash"]},
{"text": "Most comedies these days try too hard to be funny. Talladega Nights simply tries to be funny without being obvious.", "is_fresh": 1, "author": ["Collin Souter"]},
{"text": "[S]mart... sweet... subversive: this is one big *****-slap to American culture... That was the real shock to my expectations. Big Hollywood movies simply do not do this.", "is_fresh": 1, "author": ["MaryAnn Johanson"]},
{"text": "Ferrell turns the sophistication way down to a sub-Adam Sandler level to make a dumb is as dumb does satire of the NASCAR circuit. Well, it's an attempt at satire, anyway.", "is_fresh": 0, "author": ["Bruce Bennett"]},
{"text": ". . . it does have a few inspired comedic moments, but to get to those gems, you have to sit through an awful lot of flat, failed comedy set-ups.", "is_fresh": 0, "author": ["Lori Hoffman"]},
{"text": "Gets good mileage out of its jokes, and has a sturdier frame than previous models", "is_fresh": 1, "author": ["Marty Mapes"]},
{"text": "Well, if you liked Anchorman: The Legend of Ron Burgundy, you'll probably love Talladega Nights: The Ballad of Ricky Bobby. I did not like Anchorman.", "is_fresh": 0, "author": ["Karina Montgomery"]},
{"text": "What this film does well -- and/or perversely, which means about the same thing in this context -- is to target everyone.", "is_fresh": 0, "author": ["Cynthia Fuchs"]},
{"text": "There's the lovable, semi-literate stupidity of Will Ferrell's 'Anchorman' ... and then there's just plain stupid.", "is_fresh": 0, "author": ["Jonathan R. Perry"]},
{"text": "The whole of the movie is rough edged cruel. Main characters, including Ricky, are ignoble back stabbers.", "is_fresh": 0, "author": ["Steve Crum"]},
{"text": "On the whole, this is funnier than most of the other summer comedies; it's only a letdown in comparison to Anchorman.", "is_fresh": 1, "author": ["Andy Klein"]},
{"text": "... even if Talladega Nights occasionally undercuts its satiric comments by genuinely celebrating the race sequences, this cultural phenomenon receives a scathingly funny treatment.", "is_fresh": 1, "author": ["John Thomason"]},
{"text": "Don't even get me started on the Highlander quips.", "is_fresh": 1, "author": ["Matt Brunson"]},
{"text": "Product Prostitution. Disgraceful with an Applebee's commercial smack in the middle. Ferrell has product names written on his forehead. And, it's a bore. ", "is_fresh": 0, "author": ["Victoria Alexander"]},
{"text": "The existence of movies like Talladega Nights is, I believe, the reason that intelligent life from other planets seem to prefer not visiting here. ", "is_fresh": 0, "author": ["Ken Hanke"]},
{"text": "At once a sly dig at celebrity movie biographies and American slobbery.", "is_fresh": 1, "author": ["Mark Palermo"]},
{"text": "Just like NASCAR ... dumb as a post ...", "is_fresh": 0, "author": ["Michael Clawson"]},
{"text": "The movie's second half gives Ferrell what he scarcely had at the beginning: funny performers playing off him.", "is_fresh": 1, "author": ["Sean P. Means"]},
{"text": "Silly, squealing spoof of dopey daredevils who clearly have a few lug nuts loose.", "is_fresh": 0, "author": ["Susan Granger"]},
{"text": "Will Ferrell's subversive middle finger at NASCAR is tall and occasionally hilarious, but only intermittently smarter than what that gesture implies.", "is_fresh": 1, "author": ["Nick Rogers"]},
{"text": "One of the stupidest and one of the funniest movies in Will Ferrell's career.", "is_fresh": 1, "author": ["Richard Roeper"]},
{"text": "A Will Ferrell vehicle customized with some potentially provocative red states satire and a message that so-called cutting and running may be smarter than winning at any cost.", "is_fresh": 0, "author": ["John Beifuss"]},
{"text": "Ferrell drives his semi-improvised routines into the ground, while Cohen's turn as a flaming gay driver from France is a total wreck.", "is_fresh": 0, "author": ["Thomas Delapa"]},
{"text": "Gets great mileage out of its star and premise.", "is_fresh": 1, "author": ["Donald Munro"]},
{"text": "The first movie this summer (heck, this year) to call itself a comedy and remember to deliver enormous laughs.", "is_fresh": 1, "author": ["Sean O'Connell"]},
{"text": "Will Ferrell running around practically naked is good for a laugh once per film, and Talladega delivers on that score\u2014he's semi-naked and he thinks he's on fire.", "is_fresh": 1, "author": ["Nicole Schmuelien"]},
{"text": "It's the cinematic equivalent of a muscle car reconstructed exclusively from salvage parts that not only runs but wins street races.", "is_fresh": 1, "author": ["Dan Lybarger"]},
{"text": "Ferrell commits to each and every one of his characters, no matter how silly they may be, and the result is pure comedy gold.", "is_fresh": 1, "author": ["Sean McBride"]},
{"text": "Talladega Nights: The Ballad of Ricky Bobby finds Will Ferrell in top form and in the right big-screen vehicle, delivering one of the funniest movies of the year.", "is_fresh": 1, "author": ["Mike McGranaghan"]},
{"text": "Its trump card, however, comes not just in the star, but in the very funny supporting cast chosen to back him up.", "is_fresh": 1, "author": ["Rob Vaux"]},
{"text": "With his fearless comic approach, Will Ferrell manages to make Ricky Bobby one of his funniest film characters.", "is_fresh": 1, "author": ["Betty Jo Tucker"]},
{"text": "Imagine attending a NASCAR race with the funniest, wildest person you know. Sure, you might get hot and a little overwhelmed, but you'd laugh a lot and would never regret the experience.", "is_fresh": 1, "author": ["Toddy Burton"]},
{"text": "If you want your wild and crazy Will Ferrell, look for him elsewhere. But if you just want a few laughs from a movie that you know everyone's going to enjoy, Ricky Bobby's definitely your man.", "is_fresh": 1, "author": ["Annette Cardwell"]},
{"text": "No wonder Will Ferrell has people racing out to see his movies.", "is_fresh": 1, "author": ["Linda Cook"]},
{"text": "A celebration of the dysfunction of being an American--of the possibility of being simultaneously proud and mortified of ourselves.", "is_fresh": 1, "author": ["Walter Chaw"]},
{"text": "It's physically painful to have to sit in a theater for more than 90 minutes and be continually assaulted by such drivel as Ferrell puts on the screen.", "is_fresh": 0, "author": ["Tony Medley"]},
{"text": "Talladega Nights is a tighter, more structured film than Anchorman, which is probably both to its advantage and determent.", "is_fresh": 1, "author": ["Dan Fienberg"]},
{"text": "Talladega Nights is the summer comedy winner that clocks more laughs per minute than any other!", "is_fresh": 1, "author": ["Pete Hammond"]},
{"text": "Ferrell and McKay crafted their screenplay like a collection of one-liners from outer space; bizarre asides, comments and insults get us to laugh with their suddenness as well as their uniqueness.", "is_fresh": 1, "author": ["Jeffrey M. Anderson"]},
{"text": "As uneven as the film is at times it is still one of the best comedies of the summer; and in a summer this woeful, that earns a recommendation.", "is_fresh": 1, "author": ["Bill Clark"]},
{"text": "As for Ferrell, the role of Ricky Bobby fits him like a NASCAR racing suit -- and he responds accordingly, deftly mixing equal parts egomaniacal buffoon, oblivious doofus and confused little boy.", "is_fresh": 1, "author": ["Carol Cling"]},
{"text": "More fun than it should be.", "is_fresh": 1, "author": ["Eric Lurio"]},
{"text": "When the crazy comes, it's pretty good crazy.", "is_fresh": 1, "author": ["Noel Murray"]},
{"text": "The perfect tonic to this summer's bloated, special effects-driven extravaganzas, Talladega Nights: The Ballad of Ricky Bobby crosses the finish line with flying colors.", "is_fresh": 1, "author": ["Timothy Knight"]},
{"text": "...there's simply no getting around the pervading feeling of mediocrity that's been hard-wired into the proceedings.", "is_fresh": 0, "author": ["David Nusair"]},
{"text": "Talladega is sort of an Anchorman Lite... It's still funny, but not as often.", "is_fresh": 1, "author": ["David Cornelius"]},
{"text": "Ferrell is at his dimbulb best, but still allows enough breathing room for a cast of comedic artists to get at least one major laugh for themselves.", "is_fresh": 1, "author": ["Erik Childress"]},
{"text": "So many gleeful, wantonly absurd moments, more than enough to make it one of the best comedies of the summer.", "is_fresh": 1, "author": ["Eric D. Snider"]},
{"text": "This Will Ferrell vehicle ... is essentially chucking javelins at good ol' American redneckery.", "is_fresh": 1, "author": ["Jeffrey Chen"]},
{"text": "Rarely is any joked shoved into the audiences' faces, and the story, as silly as it gets, is adhered to in ways that make 'Anchorman' resemble a box of spilled Legos.", "is_fresh": 1, "author": ["Brian Orndorf"]},
{"text": "Will Ferrell is back.", "is_fresh": 1, "author": ["Fred Topel"]},
{"text": "With another deadpan turn under his belt, Ferrell seems that much closer to the biopic he will one day be unable to deny: White House Nights: The Ballad of George W..", "is_fresh": 1, "author": ["Brent Simon"]},
{"text": "Outfitted with more bloated southern stereotypes than the parking lot at Shoney's and bursting with red, white and blue, Ricky Bobby is a southern superhero who's both charismatic and cavalier.", "is_fresh": 1, "author": ["Mike Ward"]},
{"text": "I must begrudgingly admit to being amused by Ferrell and McKay's brand of hyperactive, improv-based non sequitur humor.", "is_fresh": 1, "author": ["Eugene Novikov"]},
{"text": "This is the kind of mindless comedy that works best in the summer, where you come in from the heat and just want to sit back and laugh.", "is_fresh": 1, "author": ["Cherryl Dawson and Leigh Ann Palone"]},
{"text": "By so often falling back on Ferrell's no-holds-barred foolishness, Talladega Nights seems to be driving in circles.", "is_fresh": 0, "author": ["Matt Pais"]},
{"text": "a funny movie, but doesn't quite live up to its potential.", "is_fresh": 1, "author": ["Willie Waffle"]},
{"text": "One of those movies that features end-credit outtakes that are much funnier than the film that preceded them, this endearing but messy assortment of gags just doesn't merit a full-price ticket.", "is_fresh": 0, "author": ["Brian Juergens"]},
{"text": "This is a movie that will do anything for a laugh, but rarely feels desperate for it.", "is_fresh": 1, "author": ["Eric Melin"]},
{"text": "Crashes and burns as it tries to garner laughs out of poorly edited and decidedly threadbare material.", "is_fresh": 0, "author": ["Dustin Putman"]},
{"text": "Pray to Tom Cruise and Oprah Winfrey that Ferrell keeps making silly movies like this.", "is_fresh": 1, "author": ["John Venable"]},
{"text": "This dumb yet witty comedy should provide another winner for Ferrell and his racing crew.", "is_fresh": 1, "author": ["Danny Minton"]},
{"text": "The film's consistent ticklishness frequently breaks out into uproarious set pieces.", "is_fresh": 1, "author": ["Peter Canavese"]},
{"text": "... great escapist entertainment and one of the year's best comedies ...", "is_fresh": 1, "author": ["Rebecca Murray"]},
{"text": "This isn't a movie, it's an infomercial, and one with an honest-to-god Applebee's commercial that airs during the movie itself.", "is_fresh": 0, "author": ["Pete Vonder Haar"]},
{"text": "A perfectly entertaining collection of jokes.", "is_fresh": 1, "author": ["Josh Bell"]},
{"text": "Ferrell has surrounded himself with outstanding co-stars, including John C. Reilly, Amy Adams, Michael Clarke Duncan, Jane Lynch and Gary Cole. Each of them carries on as if this is the movie they've waited a lifetime to make...", "is_fresh": 1, "author": ["James Sanford"]},
{"text": "Excuse the viewers if they fall asleep at the wheel.", "is_fresh": 0, "author": ["Phil Villarreal"]},
{"text": "Lots and lots of bargain basement humor, mostly coming at the expense of NASCAR, their fans, the South, and the easiest (and lamest) target in the world: The French.", "is_fresh": 1, "author": ["Jon Popick"]},
{"text": "The actors each do their part to rev up the silly fun, whether it's Reilly's goofy 'shake and bake' slogan, Cohen's absurd French accent or Ferrell's graceless physicality", "is_fresh": 1, "author": ["Tyler Hanley"]},
{"text": "Ferrell has the doughy indolence of the dimwits he often plays, but you can see in his eyes that he's always looking for the joke.", "is_fresh": 1, "author": ["Josh Larsen"]},
{"text": "Will Ferrell as a NASCAR driver? You just don't get any funnier than that.", "is_fresh": 1, "author": ["Kevin Carr"]},
{"text": "Otherwise, save for some sparkling diamonds glinting out from underneath some very dark rough, this thing pretty much stinks, even the film's target audience sure to walk away from it unimpressed and, of all things, bored.", "is_fresh": 0, "author": ["Sara Michelle Fetters"]},
{"text": "Essentially a string of gags loosely looped together, a set of absurd situations for the actors to clown their way through, Talladega Nights is an affable entertainment, both a celebration and a satire of lowbrow pleasures.", "is_fresh": 1, "author": ["Stephanie Zacharek"]},
{"text": "Talladega Nights may be brash, unbridled, even unhinged, but its cornpone humor is rich in parody, and its craftsmanship is superb.", "is_fresh": 1, "author": ["Joe Morgenstern"]},
{"text": "Though the movie about a moronic NASCAR racer overall is uneven and Ricky Bobby's saga lacks focus, the stupid-comical banter and the lampooning of this particular brand of car racing proves entertaining.", "is_fresh": 1, "author": ["Claudia Puig"]},
{"text": "Gentlemen and ladies, start your engines -- really. Will Ferrell's NASCAR comedy is worth getting revved up over, though non-Ferrell fans will be unimpressed no matter how many times he strips to his skivvies.", "is_fresh": 1, "author": ["Angel Cohn"]},
{"text": "Ferrell and his writing partner Adam McKay (who also directs, as he did Anchorman) are utterly without shame in their eagerness to recycle old ideas. This pair could make a blue box jealous.", "is_fresh": 0, "author": ["Peter Howell"]},
{"text": "You know those comedies where all the good parts are in the trailer? Talladega Nights: The Ballad of Ricky Bobby isn't one of them.", "is_fresh": 1, "author": ["Chris Hewitt (St. Paul)"]},
{"text": "A smoothly, bizarrely entertaining comedy that mixes your traditional underdog farce with Ferrell's unique sense of ... strangeness.", "is_fresh": 1, "author": ["Scott Weinberg"]},
{"text": "The hilarious everyman riffs and contagious fun are reason enough to fuel up on such a wonderfully throwaway gag-fest.", "is_fresh": 1, "author": ["Ted Fry"]},
{"text": "Talladega Nights is very funny at times, even if the Ballad part mostly boils down to a series of comedy sketches connected by a recurring character.", "is_fresh": 1, "author": ["Bruce Newman"]},
{"text": "The picture gets a bit long near the finish. But comedies live and die on the basis of their laugh quotient, and Talladega Nights gets its share.", "is_fresh": 1, "author": ["Mick LaSalle"]},
{"text": "Somewhere between a warm buddy's embrace of earthy turf and a sneering grin at the slob underbelly of America, the comedy has traction. It's like the crop from a seed that Burt Reynolds lobbed into a spittoon, years ago.", "is_fresh": 1, "author": ["David Elliott"]},
{"text": "The laughs come and go, but Ferrell makes NASCAR his bitch funny. Funnier. And more fun. And then the fun skids to a stop.", "is_fresh": 0, "author": ["Peter Travers"]},
{"text": "f you've been waiting for a summer comedy that's generally worth your popcorn, then filmgoers, start your engines.", "is_fresh": 1, "author": ["Jack Garner"]},
{"text": "The overall results here may be a little less inspired than Anchorman, but there are enough of them to sustain the movie's modest running time.", "is_fresh": 1, "author": ["Gary Thompson"]},
{"text": "[Director] McKay has made another wildly uneven, PG-13-that-could-be-R comedy that veers from explosively funny, overlong improvs (a Southern-fried dinner prayer to 'Dear Baby Jesus') to black holes from which no laugh can escape.", "is_fresh": 0, "author": ["Roger Moore"]},
{"text": "Ferrell reteams with director Adam McKay (Anchorman) for another gleefully trashy comedy.", "is_fresh": 1, "author": ["Lisa Rose"]},
{"text": "Whoo, mama: Will Ferrell and NASCAR do make a purty pair. They go together like peanut butter and fried bananas in Talladega Nights: The Ballad of Ricky Bobby.", "is_fresh": 1, "author": ["Kyle Smith"]},
{"text": "Like a 30-car pileup on the high banks at Daytona, you can't take your eyes off this mess, and it is a rambunctious entertainment.", "is_fresh": 1, "author": ["Jack Mathews"]},
{"text": "It's a briskly paced, reliably funny and surprisingly sweet portrait of a colorful subculture, and its improvisational impulses strain against the hood of a sturdily designed storyline.", "is_fresh": 1, "author": ["Duane Dudek"]},
{"text": "'What does diablo mean?' 'It's like Spanish for fighting chicken.' If you cracked so much as a shell of a smile reading that, then run, don't walk, to see Talladega Nights, where you will get an entire year's worth of equally irresistible nonsense.", "is_fresh": 1, "author": ["Rene Rodriguez"]},
{"text": "NASCAR comedy finds the sweet spot between cartoonish silliness and racing culture send-up. Some good crashes, too.", "is_fresh": 1, "author": ["Bob Strauss"]},
{"text": "Talladega is full of fun moments and funny performances that are more engaging as bits than as a cohesive narrative.", "is_fresh": 0, "author": ["David Frese"]},
{"text": "If you can delight in the delight of others, you just may delight in this. Otherwise, prepare to be awfully jealous, because it's the sort of picture where the actors are having a lot more fun than the audience.", "is_fresh": 0, "author": ["Rick Groen"]},
{"text": "It is missing parts, has screws loose, repeatedly threatens to run out of gas and even crashes-and-burns in a few brutal scenes.", "is_fresh": 0, "author": ["Bruce Kirkland"]},
{"text": "Talladega is the first comedy this year to make me laugh so hard I snorted.", "is_fresh": 1, "author": ["Amy Biancolli"]},
{"text": "Will Ferrell shines as ego-driven, fast-driving, endorsement-lovin' Nascar driver/buffoon Ricky Bobby.", "is_fresh": 1, "author": ["Caroline Kepnes"]},
{"text": "Talladega Nights: The Ballad of Ricky Bobby is perfectly stupid chuckleheaded bliss, an achievement of the lowest and highest order. Every week should hold a movie like this.", "is_fresh": 1, "author": ["Tom Long"]},
{"text": "NASCAR fans will likely love Talladega Nights, which may be a glowing endorsement or a warning sign, depending on the viewer.", "is_fresh": 0, "author": ["John Monaghan"]},
{"text": "Talladega Nights contains some funny high points, as well as some comedy crashes, but still manages to reach the checkered flag without creating too much ill will.", "is_fresh": 1, "author": ["Robert Denerstein"]},
{"text": "This mildly crude yet oddly tame tale about a NASCAR hotshot who burns rubber to the top of the pole before having a speedway blowout runs on underinflated tires.", "is_fresh": 0, "author": ["Lisa Kennedy"]},
{"text": "Like the sport it spoofs, the movie has its thrilling moments but mostly feels repetitive -- it's constantly moving but never really goes anywhere.", "is_fresh": 0, "author": ["Christy Lemire"]},
{"text": "Like Little Miss Sunshine, Ricky Bobby is impeccably cast and performed, from the starring roles to small parts.", "is_fresh": 1, "author": ["Jim Emerson"]},
{"text": "'Mediocre' is an apt description for any of Will Ferrell's sloppy, casually funny comedies, especially Talladega Nights: The Ballad of Ricky Bobby.", "is_fresh": 0, "author": ["Lawrence Toppman"]},
{"text": "Talladega Nights spins out early and never recovers.", "is_fresh": 0, "author": ["Shlomo Schwartzberg"]},
{"text": "Talladega Nights: The Ballad of Ricky Bobby is the sort of cheerfully asinine comedy that twists your arm until you submit. So, to Will Ferrell -- clown, freak, bully -- I scream, 'Uncle!'", "is_fresh": 1, "author": ["Wesley Morris"]},
{"text": "Its celebration of infantilism on the speedway runs out of gas long before the last lap.", "is_fresh": 0, "author": ["Frank Swietek"]},
{"text": "Whether the engine on Talladega Nights is humming or sputtering, Ferrell stays gamely behind the wheel.", "is_fresh": 1, "author": ["Bill Muller"]},
{"text": "As a cultural artifact, Talladega Nights is both completely phony and, therefore, utterly authentic. Or, to put it differently: this movie is the real thing.", "is_fresh": 1, "author": ["A.O. Scott"]},
{"text": "Talladega Nights is an unapologetic goof fest, light as aluminum and seemingly edited with Scotch tape. But it's smart enough to buy gags in bulk and puts them in the hands of three guys who can improvise until the cars come home.", "is_fresh": 1, "author": ["Chris Vognar"]},
{"text": "The laugh quotient lags well behind Ferrell and McKay's Anchorman: The Legend of Ron Burgundy, but unlike many other purveyors of hip comedy, they're consistently clever without being contemptuous of their audience.", "is_fresh": 1, "author": ["J. R. Jones"]},
{"text": "Talladega Nights doesn't do much more than go for the quick guffaw, and frequently the guffaw comes from stereotypical slights along the redneck vein.", "is_fresh": 0, "author": ["Teresa Wiltz"]},
{"text": "Talladega Nights is the rare comedy that manages to be funny and witty.", "is_fresh": 1, "author": ["Phoebe Flowers"]},
{"text": "The film comes together to be a dead-on satire of a movie genre, an expert comedy of character and an almost perfect vehicle for Ferrell, who shines in a half-dozen or more of the most elaborately crafted and howlingly funny routines he's ever concocted.", "is_fresh": 1, "author": ["William Arnold"]},
{"text": "Talladega Nights is as good as a summer comedy about NASCAR has any right to be, with fine actors tucked into every nook and cranny.", "is_fresh": 1, "author": ["Dana Stevens"]},
{"text": "We're left ho-humming our way through one obligatory scene after another and wincing through a sting of failed gags until the next bit comes along that tickles our funny bone.", "is_fresh": 0, "author": ["James Berardinelli"]},
{"text": "The absurdly funny Talladega Nights: The Ballad of Ricky Bobby is at once a glorious send-up of NASCAR culture and a goofy celebration of the redneck, red state, red-blooded American culture that spawned it.", "is_fresh": 1, "author": ["Steven Rea"]},
{"text": "A whole bunch of great racing footage would've ratcheted up Nights a notch or two -- see Cars for inspiration -- but even the track scenes are ... well, pedestrian.", "is_fresh": 0, "author": ["Stephen Williams"]},
{"text": "While the film spins out from time to time in subplots highlighting the world-class supporting cast, it has enough momentum to finish in the winner's circle.", "is_fresh": 1, "author": ["Colin Covert"]},
{"text": "Talladega Nights: The Ballad of Ricky Bobby is a bit of a mess, but it is a genial mess, and one that will make you laugh. Which is the whole idea.", "is_fresh": 1, "author": ["Kenneth Turan"]},
{"text": "At its best, Talladega Nights scales the heights of cinematic Dadaism and affirms that Ferrell and McKay are among the few trying to breathe new life into the atrophied American screen comedy.", "is_fresh": 1, "author": ["Scott Foundas"]},
{"text": "When [Sascha Baron] Cohen and [Will] Ferrell are eyeing each other, you never saw a loopier pair. They compensate for the film's hit-and-miss shenanigans, which more often miss than hit.", "is_fresh": 1, "author": ["Peter Rainer"]},
{"text": "Now and then, the movie allows you to relax into its brand of stupid-smart comedy. The rest of the time your shoulders scrunch up and ask the eternal question: Why is this routine not quite working?", "is_fresh": 0, "author": ["Michael Phillips"]},
{"text": "Talladega Nights: The Ballad of Ricky Bobby puts Will Ferrell back on the comedy fast track with style and a load of belly laughs.", "is_fresh": 1, "author": ["Eleanor Ringel Cater"]},
{"text": "It's charming and often funny, but it also drags badly and never makes much of its characters.", "is_fresh": 1, "author": ["Rich Cline"]},
{"text": "This one scores laughs right down to its gloriously gaga climactic smooch.", "is_fresh": 1, "author": ["Owen Gleiberman"]},
{"text": "...if you got a kick out of Ferrell's moronic anchorman character in Anchorman, you'll get a decent amount of guffaws out of this companion piece as well...", "is_fresh": 1, "author": ["JoBlo"]},
{"text": "You won't have seen anything this funny in a theater since... well, maybe since Anchorman.", "is_fresh": 1, "author": ["Devin Faraci"]},
{"text": "Farrell, as he did in ELF, brings that absolute conviction to absolute cluelessness and when the script supports him, it's magic", "is_fresh": 1, "author": ["Andrea Chase"]},
{"text": "The movie looks really good, especially the NASCAR racing action, but it never quite fulfills the promise of Anchorman.", "is_fresh": 0, "author": ["Edward Douglas"]},
{"text": "There's no difference between the movie and the end-credit outtakes.", "is_fresh": 0, "author": ["Robert Wilonsky"]},
{"text": "Talladega Nights is so sub-moronic and witless it makes Stroker Ace look like a sublime exercise in sophisticated comedy.", "is_fresh": 0, "author": ["Chuck O'Leary"]},
{"text": "One can see why residents of large metropolitan areas look down their noses at NASCAR.", "is_fresh": 0, "author": ["Harvey S. Karten"]},
{"text": "Simultaneously teasing and loving a subject doesn't make for easy comedy, but writer-star Will Ferrell and director/co-writer Adam McKay pull it off with good-ol'-boy good nature in Talladega Nights: The Ballad of Ricky Bobby.", "is_fresh": 1, "author": ["Robert Koehler"]},
{"text": "While not quite as focused and inspired as Anchorman, it still made me laugh as hard and often as any movie in recent memory.", "is_fresh": 1, "author": ["Kevin N. Laforest"]},
{"text": "Though uneven in humor, sketchy in structure and silly in its moralism, it's still fun to watch this sendup of car racing, which brings out the joyous spirit and colorful persona of this particular milieu.", "is_fresh": 1, "author": ["Emanuel Levy"]},
{"text": "From its pitch-perfect title through just about every detail, this sendup of sports-triumph movies maintains the right parodic pitch, if not always the highest mph on the laugh speedometer.", "is_fresh": 1, "author": ["Sheri Linden"]},
{"text": "Rambunctious and synthetic, Talladega Nights boasts its fair share of inspired Ferrell riffs, even if, as a satire of the NASCAR subculture, it mostly runs on fumes.", "is_fresh": 1, "author": ["Fernando F. Croce"]},
{"text": "The cast is great, and when they're in the midst of one of those manic improvisational furies that made Anchorman so funny, The Ballad of Ricky Bobby is a riot.", "is_fresh": 1, "author": ["Joshua Tyler"]},
{"text": "", "is_fresh": 1, "author": ["Brian Marder"]},
{"text": "", "is_fresh": 0, "author": []},
{"text": "", "is_fresh": 1, "author": ["Neil Miller"]},
{"text": "", "is_fresh": 1, "author": ["Dave White"]}
]