[
{"reviews_count": "71", "title": "The Mask Of Zorro", "avg_audience_rating": "3.3", "rotten_count": "13", "tomatometer": "82", "audience_score": "72", "avg_critic_rating": "7.1", "fresh_count": "58", "user_ratings_count": "375,119"},
{"text": "The Mask of Zorro is one of those rare instances where everything just falls into place,", "is_fresh": 1, "author": ["Zaki Hasan"]},
{"text": "The problem with Martin Campbell's new movie is that, even though by no means a disgrace, it's finally just another inflated big nothing.", "is_fresh": 0, "author": ["Gilbert Adair"]},
{"text": "Simplistic but sprawling action film...", "is_fresh": 1, "author": ["Felix Vasquez Jr."]},
{"text": "This is the best movie version of Zorro to date, and High-Definition makes it that much more exciting.", "is_fresh": 1, "author": ["James Plath"]},
{"text": "The Mask of Zorro stands as a pointed riposte to those who say they don't make 'em like that anymore.", "is_fresh": 1, "author": ["Todd McCarthy"]},
{"text": "Crisp and competent and often witty, but it only does what it's supposed to do; it's never quite inspired or exhilarating...", "is_fresh": 1, "author": ["Rob Gonsalves"]},
{"text": "Directed with snap and panache by Martin Campbell, Mask of Zorro gives audiences a pair of dashing whippersnappers for the price of one.", "is_fresh": 1, "author": ["Thomas Delapa"]},
{"text": "Not so much a blood-pounding swashbuckling adventure as it is a comfortable old friend--the kind of movie your grandfather might have seen at a Saturday matinee.", "is_fresh": 1, "author": ["Jeffrey M. Anderson"]},
{"text": "Buckling the swash in a way approaching Errol Flynn, Antonio is up for the action and handles the slapstick as the inept student with aplomb. The romance between him and Zeta-Jones has sparks, too.", "is_fresh": 1, "author": ["Robin Clifford"]},
{"text": "Zorro follows the predictable paths of action movies, but re-energizes the pattern with adrenaline, exuberance, creativity, and humor.", "is_fresh": 1, "author": ["Jeffrey Overstreet"]},
{"text": "A surprisingly good example of Hollywood's craftsmanship.", "is_fresh": 1, "author": ["Dragan Antulov"]},
{"text": "At its best, this 'Zorro' captures some of the dizzyingly romantic flavor of pulp fiction. ...Unfortunately, Martin Campbell has directed this Mexican melodrama in an often uninspired fashion.", "is_fresh": 1, "author": ["James Sanford"]},
{"text": "If Hopkins makes the story important, Antonio Banderas and Catherine Zeta-Jones make it sexy.", "is_fresh": 1, "author": ["John R. McEwen"]},
{"text": "It's as if Jackie Chan were channeling the spirit of Errol Flynn.", "is_fresh": 1, "author": ["Margaret A. McGurk"]},
{"text": "With a perfectly cast Antonio Banderas slashing those Zs, The Mask of Zorro offers as many zesty sword fights as an Errol Flynn film festival.", "is_fresh": 1, "author": ["Jeffrey Westhoff"]},
{"text": "The story is not important. The clash of swords, the leaps, the tumbles -- it's all very nice. But after 136 minutes, it becomes a bit much.", "is_fresh": 0, "author": ["Mick LaSalle"]},
{"text": "The casting is great. Hopkins, Banderas and Zeta-Jones all look the part and breathe life and passion into their roles.", "is_fresh": 1, "author": ["Lisa Osborne"]},
{"text": "We get clever physical gags, a perky chemistry between the dour Hopkins and the bumbling Banderas, and a spirited Catherine Zeta Jones tossed in...", "is_fresh": 1, "author": []},
{"text": "This zestful revival of the swashbuckler film will carve a mark in your consciousness.", "is_fresh": 1, "author": ["Frederic and Mary Ann Brussat"]},
{"text": "There are no clever ground-breaking effects, just lashings of good clean fun with desperately devilish baddies, and good guys so fantastic, so clever and witty, that they make you want to weep with pleasure.", "is_fresh": 1, "author": ["Almar Haflidason"]},
{"text": "...honors the swashbuckling tradition of its predecessors while adding a healthy dose of humor.", "is_fresh": 1, "author": ["John J. Puccio"]},
{"text": "Oh it's fun. An old-fashioned, good-hearted action film with a sense of humor.", "is_fresh": 1, "author": ["Ross Anthony"]},
{"text": "Banderas and Hopkins prove that there's life in the Z-boy yet, but by leaving in the dull patches, the filmmakers may find audiences catching zzzzzs in ways they never intended.", "is_fresh": 0, "author": ["Peter Travers"]},
{"text": "Hopkins brings gravity and dignity to every role he assumes, which is exactly what is needed here to offset the rambunctious impatience of Banderas' Alejandro.", "is_fresh": 1, "author": ["James Kendrick"]},
{"text": "A lively, old-fashioned adventure yarn with just a twist of modern attitude, it's the kind of pleasant entertainment that allows the paying customers to have as much fun as the people on screen.", "is_fresh": 1, "author": ["Kenneth Turan"]},
{"text": "An old-fashioned swashbuckler with plenty of action, charm and romance. You can't say they don't make movies like they used to after seeing this one.", "is_fresh": 1, "author": ["Robert Roten"]},
{"text": "With a wealth of charismatic Zorros (two), a smashing heroine and a dauntless love of adventure, this is hot-weather escapism so earnestly retrograde that it seems new.", "is_fresh": 1, "author": ["Janet Maslin"]},
{"text": "Offers just what one might reasonably expect from a Zorro movie: a great deal of excitement and adventure, all brought to the screen by using a somewhat irreverent tone that keeps the mood light without trivializing the characters.", "is_fresh": 1, "author": ["James Berardinelli"]},
{"text": "One of the most glorious and rousing adventure movies Hollywood has ever produced.", "is_fresh": 1, "author": ["Charles Taylor"]},
{"text": "The Mask of Zorro has something you don't often see in modern action pictures: a sense of honor.", "is_fresh": 1, "author": ["Roger Ebert"]},
{"text": "The last movie to be this viscerally exciting and satisfying is probably Raiders of the Lost Ark -- and the last movie this charming and delightful must be The Princess Bride.", "is_fresh": 1, "author": ["MaryAnn Johanson"]},
{"text": "Hopkins and Banderas are very different sorts of actors, and here, in very different ways, each pulls off his role expertly.", "is_fresh": 1, "author": ["Mike DeWolfe"]},
{"text": "The Mask of Zorro typifies what a good summer popcorn movie can be: an action-packed adventure with an actual plot and interesting characters!", "is_fresh": 1, "author": ["Madeleine Williams"]},
{"text": "It's not the movie of the decade, year or even summer, but Zorro has enough going for it to keep you amused and into the story.", "is_fresh": 1, "author": ["Oz"]},
{"text": "A swashbuckling, spirited adventure that boasts dazzling effects, a splendid score and the dream cast of Antonio Banderas and Anthony Hopkins.", "is_fresh": 1, "author": ["Urban Cinefile Critics"]},
{"text": "Lots of overacting. Lots of clich\u00e9s. Lots of fun.", "is_fresh": 0, "author": ["Marty Mapes"]},
{"text": "A rollicking good time filled with zesty swordplay, swashbuckling set pieces, spicy romance, and, heck, even a reasonably plausible storyline.", "is_fresh": 1, "author": ["Elias Savada"]},
{"text": "Director Campbell relies on our love for seeing people humiliated, and this is just what the two Zorros have in mind: to make fools of people who have exploited armies of the unwashed.", "is_fresh": 1, "author": ["Harvey S. Karten"]},
{"text": "It's still possible to make a rousing popcorn flick without treating your audience like wide-eyed rubes suffering from attention-deficit disorder.", "is_fresh": 1, "author": ["Edward Johnson-Ott"]},
{"text": "If you love swashbucklers or if you're a Banderas fan, you'll probably want to put the movie in your must-see category. Others can use their own judgement.", "is_fresh": 0, "author": ["Steve Rhodes"]},
{"text": "This is a good movie. The cute dialogue flows well, and ticks along beautifully thanks to the charisma of the leads.", "is_fresh": 1, "author": ["Ian Waldron-Mantgani"]},
{"text": "God knows it's hokum of the purest stripe, but Campbell, Hopkins, Banderas, and especially the alarmingly vivacious Zeta-Jones pull it off in spades.", "is_fresh": 1, "author": ["Marc Savlov"]},
{"text": "A mildly entertaining, if unspectacular and uneven, action film...", "is_fresh": 0, "author": ["Jeff Vice"]},
{"text": "The Mask of Zorro never loses its freshness precisely because we are continually presented with new formations of the action movie spectacle in a genre we haven't seen much of in a while.", "is_fresh": 1, "author": ["Bradley Null"]},
{"text": "Banderas, with his flashing eyes, makes a good mock-Hidalgo, but the movie would be a lot more amusing if it weren't such kid stuff.", "is_fresh": 0, "author": ["David Denby"]},
{"text": "Proudly old-fashioned in every way except the often excessive violence that director Martin Campbell splashes across the screen.", "is_fresh": 1, "author": ["David Sterritt"]},
{"text": "A movie for people who long to get wholeheartedly caught up in a rousing movie adventure", "is_fresh": 1, "author": ["Kevin Lally"]},
{"text": "This is an old-fashioned movie about honor, discipline, loyalty and vengeance, as opposed to all too many movies of late that are largely about greed, violence, vulgarity and technical effects.", "is_fresh": 1, "author": ["Barbara Shulgasser"]},
{"text": "The real show belongs to Anthony Hopkins, who has once again convinced us that he is not British. His voice, his tone, and his look are almost so real that even if you didn't know who he was, you'd think he was actually Latin.", "is_fresh": 1, "author": ["David Keyes"]},
{"text": "A decidedly clever, if largely unoriginal, update in which Banderas inherits blade bravado duties from retired Zorro Anthony Hopkins and crosses swords with a coalition of nefarious Spaniards and Americans trying to take over colonial California.", "is_fresh": 1, "author": ["Rob Blackwelder"]},
{"text": "It's what Hollywood action films used to be: fun and entertaining instead of explosion-riddled and mindless.", "is_fresh": 1, "author": ["Widgett Walls"]},
{"text": "The Mask of Zorro is everything you'd want a swashbuckler to be.", "is_fresh": 1, "author": ["Bob Bloom"]},
{"text": "In an age ruled by action films reliant on post-production effects, the barebones approach of an old fashioned swashbuckler is rather refreshing.", "is_fresh": 1, "author": ["Michael Dequina"]},
{"text": "Banderas' appeal alone may be just enough to win over some viewers; the waste of that appeal, and of the Man in Black's commanding image, made me long for some heroic figure to come along and make a few strategic slashes in the editing room.", "is_fresh": 0, "author": ["Scott Renshaw"]},
{"text": "This is probably one of the best movies I have ever seen, and easily the best of the summer.", "is_fresh": 1, "author": ["Chris Bumbray"]},
{"text": "I was glued to the screen, swept up in the melodrama, and had a big smile on my face the entire time. Afterwards, it was more of a grimace, but what are you gonna do?", "is_fresh": 1, "author": ["Ted Prigge"]},
{"text": "There was a lot that bothered me, but I still hope it makes a mint and we get some more. After all, you just can't have too many Zorro films, can you?", "is_fresh": 1, "author": ["Mark R. Leeper"]},
{"text": "Hopkins is typically commanding as the retired caped crusader (who hangs out in a cave like that other one), and Banderas is suave and dashing as his prot\u00e9g\u00e9.", "is_fresh": 0, "author": ["David N. Butterworth"]},
{"text": "", "is_fresh": 1, "author": ["Lisa Schwarzbaum"]},
{"text": "", "is_fresh": 1, "author": ["Steven D. Greydanus"]},
{"text": "", "is_fresh": 0, "author": []},
{"text": "", "is_fresh": 1, "author": ["Garth Franklin"]},
{"text": "", "is_fresh": 0, "author": ["Leonard Schwarz"]},
{"text": "", "is_fresh": 0, "author": []},
{"text": "", "is_fresh": 1, "author": []},
{"text": "", "is_fresh": 1, "author": ["Jack Garner"]},
{"text": "", "is_fresh": 1, "author": ["Susan Stark"]},
{"text": "", "is_fresh": 1, "author": []},
{"text": "", "is_fresh": 1, "author": []},
{"text": "", "is_fresh": 0, "author": ["Leonard Schwarz"]},
{"text": "", "is_fresh": 1, "author": ["Jack Garner"]}
]