[
{"reviews_count": "132", "title": "The Green Mile", "avg_audience_rating": "4.1", "rotten_count": "27", "tomatometer": "80", "audience_score": "94", "avg_critic_rating": "6.9", "fresh_count": "105", "user_ratings_count": "812,950"},
{"text": "Much of the three-hour movie takes place in the prison, but the resonant characterization, expansive plotting, and judicious use of exterior locations and flashbacks turn the walls into windows.", "is_fresh": 1, "author": ["Lisa Alspector"]},
{"text": "Thoughtful, intelligent movie for older teens.", "is_fresh": 1, "author": ["Nell Minow"]},
{"text": "...despite the clich\u00e9s and stereotypes, the film's cast manages to lift it from the depths of the commonplace and make watching it enjoyable.", "is_fresh": 1, "author": ["John J. Puccio"]},
{"text": "How many blockbusters deal with that kind of grief?", "is_fresh": 1, "author": ["Rob White"]},
{"text": "To more than a few viewers, this one will feel like a life sentence.", "is_fresh": 0, "author": ["Richard Corliss"]},
{"text": "Though the film drifts off down some long blind alleys, when Darabont exercises discipline the result is highly effective.", "is_fresh": 1, "author": []},
{"text": "Dotted with many fine moments, clotted with a few flabby ones.", "is_fresh": 1, "author": ["Rob Gonsalves"]},
{"text": "Overextending its welcome, Frank Darabont's film is the most commercially popular adaptation of a Stephen King novella, but it's also a slow, often dull prison drama. ", "is_fresh": 1, "author": ["Emanuel Levy"]},
{"text": "The supernatural elements carry an undeniable emotional charge, but the solution to the underlying murder mystery is disappointingly tidy and trite.", "is_fresh": 0, "author": ["Derek Adams"]},
{"text": "Although The Green Mile is a satisfying and affecting movie, it's not The Shawshank Redemption -- not by a long shot.", "is_fresh": 1, "author": ["Jeffrey M. Anderson"]},
{"text": "One of the best prison films ever made.", "is_fresh": 1, "author": ["Ron Wells"]},
{"text": "Mr. Jingles was robbed! (no mouse-Oscar)", "is_fresh": 1, "author": ["Staci Layne Wilson"]},
{"text": "This movie is being described as inspiring? To me it just seems morbid, melancholy, sad, and far too long.", "is_fresh": 0, "author": ["Jeffrey Overstreet"]},
{"text": "Of all the movies based on King novels, The Green Mile ranks near the top -- but below Darabont's first, The Shawshank Redemption.", "is_fresh": 1, "author": ["Judith Egerton"]},
{"text": "Three long hours of wind, an exercise in titanic self-importance intent on passing off klunky rhetoric as poignant drama.", "is_fresh": 0, "author": ["Rick Groen"]},
{"text": "Darabont explores the range of human kindness and cruelty as he lovingly and patiently sculpts his large cast of characters against magnificent scenery.", "is_fresh": 1, "author": []},
{"text": "Hanks and the other guards' acting is impeccable as would be expected, but Duncan and his fellow prisoners are also disturbingly real.", "is_fresh": 1, "author": ["John R. McEwen"]},
{"text": "A deeply racist movie, though clearly none of the filmmakers thinks so... By the picture's end, we are asked to grasp electrocution as in some way an act of benevolence.", "is_fresh": 0, "author": ["Nick Davis"]},
{"text": "Suffice it to say you must be willing to buy some pretty incredible stuff if you want to enjoy this experience.", "is_fresh": 0, "author": ["Jean Lowerison"]},
{"text": "Its emotional rewards outshine its faults.", "is_fresh": 1, "author": ["Margaret A. McGurk"]},
{"text": "If this movie doesn't get a truckload of Oscar noms, something's rotten in the kingdom of Hollywood!", "is_fresh": 1, "author": ["Kevin N. Laforest"]},
{"text": "Quando a hist\u00f3ria chega ao fim e as luzes se acendem, voc\u00ea sente que, de certa forma, o filme permanecer\u00e1 com voc\u00ea por muito tempo.", "is_fresh": 1, "author": ["Pablo Villa\u00e7a"]},
{"text": "Those whose lives Coffey touches may find relief from physical ailments, but they seem no freer, more hopeful, or nobler for the experience.", "is_fresh": 0, "author": ["Steven D. Greydanus"]},
{"text": "Overlong and potholed, The Green Mile is still worth the journey.", "is_fresh": 1, "author": ["Peter Keough"]},
{"text": "Duncan's beautiful performance is worth at least three hours of anyone's life.", "is_fresh": 1, "author": ["Chuck Rudolph"]},
{"text": "What better place to witness healing than in a death-chamber where the malevolent an eye-for-an eye philosophy of justice reigns.", "is_fresh": 1, "author": ["Frederic and Mary Ann Brussat"]},
{"text": "For all its attention to John's victimization -- and exacting an emotional response from its audience -- the film takes a surprisingly schizophrenic view of capital punishment.", "is_fresh": 1, "author": ["Cynthia Fuchs"]},
{"text": "There is no doubt that the director has mistaken size for quality with bum-numbing consequences.", "is_fresh": 0, "author": ["Clark Collis"]},
{"text": "A near-masterpiece.", "is_fresh": 1, "author": ["Andrew Howe"]},
{"text": "Hanks is in fine form, as is Sam Rockwell, as 'Wild Bill' Wharton, a new inmate so repulsively evil he's almost a cartoon (not quite, though).", "is_fresh": 1, "author": ["Marc Savlov"]},
{"text": "I'd be critical of the fact that Frank Darabont's entire directorial career has revolved around sweepingly sentimental movies based on Stephen King prison dramas -- if only he didn't do them so well.", "is_fresh": 1, "author": ["James Kendrick"]},
{"text": "They don't get much better than this.", "is_fresh": 1, "author": ["Kamal 'The Diva' Larsuel"]},
{"text": "A moving story, helped by some great performances, primarily by Michael Clarke Duncan as Coffey, Hanks, Hutchison as the guards, and Jeter and Rockwell as prisoners.", "is_fresh": 1, "author": ["Robert Roten"]},
{"text": "Unassumingly strong, moving performances and Darabont's durable storytelling make it a trip worth taking.", "is_fresh": 1, "author": ["Janet Maslin"]},
{"text": "The Green Mile is a well-crafted film.", "is_fresh": 1, "author": ["Scott Renshaw"]},
{"text": "An affecting motion picture.", "is_fresh": 1, "author": ["James Berardinelli"]},
{"text": "A cracking good yarn that earns its laughter, its wonder and its tears.", "is_fresh": 1, "author": ["Andrew O'Hehir"]},
{"text": "By taking the extra time, Darabont has made King's The Green Mile into a story which develops and unfolds, which has detail and space.", "is_fresh": 1, "author": ["Roger Ebert"]},
{"text": "Over the epic running time the film inches its way through a complex soap opera of events on the Row, punctuated by three pivotal and grisly executions via 'Old Sparky,' the electric chair.", "is_fresh": 1, "author": ["Ian Nathan"]},
{"text": "The Green Mile is more than an hour old before anything like a plot develops, and then it turns out to be such a sentimental-supernatural whopper that even Tom Hanks, usually the most casually credible of actors, is severely tested.", "is_fresh": 0, "author": ["John Hartl"]},
{"text": "The Green Mile is simply a case of severe overreaching and the illusion that an overstuffed movie is an epic movie.", "is_fresh": 0, "author": ["Tom Keogh"]},
{"text": "The Green Mile resonates.", "is_fresh": 1, "author": ["Sean P. Means"]},
{"text": "An engrossing picture.", "is_fresh": 1, "author": ["Robert Horton"]},
{"text": "After reading a King novel, a reader might tend to want to take a shower; after seeing Darabont's The Green Mile, a moviegoer might want instead to go to church -- but only after taking a shower.", "is_fresh": 1, "author": ["Kim Williamson"]},
{"text": "Stuart Little, you may have competition!", "is_fresh": 1, "author": []},
{"text": "In its own old-fashioned way, Frank Darabont's style of picture making is well matched to King-size yarn spinning.", "is_fresh": 1, "author": ["Lisa Schwarzbaum"]},
{"text": "A thoughtful, intelligent movie with outstanding direction.", "is_fresh": 1, "author": ["Nell Minow"]},
{"text": "Stephen King's serial novel has been superbly adapted.", "is_fresh": 1, "author": ["Cornell & Petricelli"]},
{"text": "As a film, The Green Mile's simplicity is both its charm and its deception.", "is_fresh": 1, "author": ["Mark Reiter"]},
{"text": "A textured, character-driven story.", "is_fresh": 1, "author": ["John Paul Powell"]},
{"text": "Enthralling and literally miraculous, The Green Mile has become an instant favorite of mine, just as its source material did.", "is_fresh": 1, "author": ["MaryAnn Johanson"]},
{"text": "Easily one of the better films -- if not the best -- of the year.", "is_fresh": 1, "author": ["Jim Judy"]},
{"text": "Though watchable and occasionally moving... it strains credibility and patience", "is_fresh": 1, "author": ["Carlo Cavagna"]},
{"text": "The Green Mile is another of King's non-horror stories to be adapted to film, and it's good one.", "is_fresh": 1, "author": ["Guy MacPherson"]},
{"text": "The Green Mile is irritatingly repetitious.", "is_fresh": 0, "author": ["Michael Atkinson"]},
{"text": "The production design -- with much Southern period detail and '30s music -- helps brings The Green Mile to life.", "is_fresh": 1, "author": ["Jack Garner"]},
{"text": "Clocking in at over three hours of length, The Green Mile certainly feels long. While the film captures an overwhelming majority of the plot details of the novel, a few should have been trimmed.", "is_fresh": 1, "author": ["Madeleine Williams"]},
{"text": "Hanks is, again, the best of men in difficult circumstances.", "is_fresh": 1, "author": ["Urban Cinefile Critics"]},
{"text": "Stephen King may be a cheeseball, but he spins one hell of a yarn.", "is_fresh": 1, "author": ["Mark Ramsey"]},
{"text": "Hanks is a genuine pleasure to watch.", "is_fresh": 1, "author": ["Jon Popick"]},
{"text": "Falls under the weight of the more solid portrayals of evil, misfortune and injustice.", "is_fresh": 0, "author": ["Yazmin Ghonaim"]},
{"text": "The three-hour-plus film permits the kind of detailing that not only brings the storytelling to life, but sometimes persuades us we're breathing to its rhythms.", "is_fresh": 1, "author": ["Jay Carr"]},
{"text": "The Green Mile effectively sideswipes the enduring hot political issues it raises to force viewers to a pro-Hanks position.", "is_fresh": 0, "author": ["Susan Stark"]},
{"text": "The movie is worth walking, if not a mile, at least a couple of blocks to see.", "is_fresh": 1, "author": ["Mike Clark"]},
{"text": "Superior craft is something we've come to expect from modern movies, but not soul. It's the soul of this movie that's so heartening.", "is_fresh": 1, "author": ["Joe Baltake"]},
{"text": "The Green Mile is just about one of the finest films I have seen since Life is Beautiful.", "is_fresh": 1, "author": ["Emily Blunt"]},
{"text": "A wonderful, inspiring, touching, and often funny movie.", "is_fresh": 1, "author": ["Greg Dean Schmitz"]},
{"text": "A manipulative but absorbing and deeply satisfying adaptation of Stephen King's prison novel.", "is_fresh": 1, "author": ["Steve Murray"]},
{"text": "The Green Mile, while it does have a few noticeable faults, is ultimately an effective and extremely entertaining motion picture.", "is_fresh": 1, "author": ["Matt Easterbrook"]},
{"text": "Moves pretty well and doesn't really drag, though superb performances from the leads help to keep it compelling.", "is_fresh": 1, "author": ["Jeff Vice"]},
{"text": "There's plenty here to make you laugh and cry.", "is_fresh": 1, "author": ["Christopher Null"]},
{"text": "Darabont works big but thinks small, or at least without great complexity.", "is_fresh": 0, "author": ["Peter Rainer"]},
{"text": "The worst I can say about this thoroughly decent movie is that it botches some of the most important scenes.", "is_fresh": 1, "author": ["Bryant Frazer"]},
{"text": "A terrific, powerful movie!", "is_fresh": 1, "author": ["Jonathan Foreman"]},
{"text": "Giving much life to these fairly undimensional characters is a strong cast, with Hanks turning in another empathetic lead performance.", "is_fresh": 1, "author": ["Kevin Lally"]},
{"text": "There is a beautiful story here, but I just wish we didn't have to sit through the whole thing to see it.", "is_fresh": 1, "author": ["Scott A. Mantz"]},
{"text": "At the very least, The Green Mile is engaging and even moving.", "is_fresh": 1, "author": ["Noel Murray"]},
{"text": "Frank Darabont is such a committed filmmaker, and believes so earnestly and intensely in the stories he puts onscreen, that it seems unsporting to point out that hokum is his middle name.", "is_fresh": 1, "author": ["Edward Guthmann"]},
{"text": "Darabont has an artful ability to use production values to make a film appear as though it were actually transporting you somewhere. But when the credits roll, you realize you never left Kansas.", "is_fresh": 0, "author": ["Wesley Morris"]},
{"text": "Brilliant storytelling!", "is_fresh": 1, "author": ["Desson Thomson"]},
{"text": "If only there was a death row for movies...", "is_fresh": 0, "author": ["David Keyes"]},
{"text": "But even when it falls back on the contrived, The Green Mile still holds on to the audience on a emotional level that continues to resonate long after the credits roll, which by itself is reason enough to recommend the movie.", "is_fresh": 1, "author": ["Rob Blackwelder"]},
{"text": "If all this heartstring-tugging reeks of cheese, that's because it is - the finest gourmet cheese Hollywood's made in a long, long time.", "is_fresh": 1, "author": ["Tor Thorsen"]},
{"text": "This film is slow, drawn-out, boring, uninteresting, unexciting, predictable and topped with a couple of one-dimensional 'evil' characters.", "is_fresh": 0, "author": ["JoBlo"]},
{"text": "It's hard to be affected by The Green Mile, for it rarely offers much background on any of its characters beyond their Central Casting pigeonholes.", "is_fresh": 0, "author": ["Bob Aulert"]},
{"text": "Maravillosa historia acerca de los hombres y sus relaciones, sus miedos y sus sue\u00f1os", "is_fresh": 1, "author": ["Jorge Avila Andrade"]},
{"text": "The movie uses the emotional sentiments that death presents as a crutch of support for an otherwise weak and underdeveloped production.", "is_fresh": 0, "author": ["Mac Verstandig"]},
{"text": "It's just too bad, then, that the finale could not have been stronger. It downgrades a potentially great film to being, at most, a very good one.", "is_fresh": 1, "author": ["Dustin Putman"]},
{"text": "Its 188 minutes of viewing time seemed like a life sentence.", "is_fresh": 0, "author": ["Dennis Schwartz"]},
{"text": "E.T. on Death Row.", "is_fresh": 1, "author": ["Edward Johnson-Ott"]},
{"text": "This picture is, like the cigarette of the old-time commercials, worth walking a mile for.", "is_fresh": 1, "author": ["Harvey S. Karten"]},
{"text": "Often funny.", "is_fresh": 1, "author": ["Steve Rhodes"]},
{"text": "Duncan gives the novel's towering symbol of innocence a degree of dignity and humanity that sells the whole unlikely fable.", "is_fresh": 1, "author": ["Jim Lane"]},
{"text": "Inspired filmmaking!", "is_fresh": 1, "author": ["Tony Toscano"]},
{"text": "Frank Darabont is the world's greatest director of movies taken from Stephen King prison books.", "is_fresh": 1, "author": ["Lawrence Toppman"]},
{"text": "One thing confirmed by The Green Mile is that if Tom Hanks' head gets any bigger, the rest of his movies are going to have to be filmed in IMAX.", "is_fresh": 0, "author": ["Gary Thompson"]},
{"text": "One terrific flick!", "is_fresh": 1, "author": ["Philip Wuntch"]},
{"text": "A thrilling voyage.", "is_fresh": 1, "author": ["Philip Booth"]},
{"text": "The film is even more textured and less gratuitous than The Shawshank Redemption.", "is_fresh": 1, "author": ["William Arnold"]},
{"text": "Consistently captivating.", "is_fresh": 1, "author": ["Louis B. Parks"]},
{"text": "So well-crafted that it seems like a feast, even when your brain is telling you that this story could not possibly be stretched any thinner.", "is_fresh": 1, "author": ["Bob Strauss"]},
{"text": "Although the current production runs three hours, I wasn't really bored at any point.", "is_fresh": 1, "author": ["Jay Boyar"]},
{"text": "Unfolds slowly, but Darabont shows a deft sense of pacing.", "is_fresh": 1, "author": ["Chris Scantleberry"]},
{"text": "Beautifully crafted and emotionally satisfying.", "is_fresh": 1, "author": ["Maitland McDonagh"]},
{"text": "The cast's endearing success makes The Green Mile likable, lighthearted fare when it shouldn't be.", "is_fresh": 0, "author": ["Laura Kelly"]},
{"text": "A groaning ordeal.", "is_fresh": 0, "author": ["David Elliott"]},
{"text": "The acting is sturdy if infrequently exceptional.", "is_fresh": 1, "author": ["Shawn Levy"]},
{"text": "Provides all the sturdy entertainment of any well-calculated crime drama.", "is_fresh": 1, "author": ["John Anderson"]},
{"text": "Laughter and tears are both subtly drawn out and jack-hammered home.", "is_fresh": 1, "author": ["Jeanne Aufmuth"]},
{"text": "The Green Mile often grabs, and generally holds, one's attention through the long journey.", "is_fresh": 1, "author": ["Todd McCarthy"]},
{"text": "The cinematic equivalent of a good cop/bad cop work-over.", "is_fresh": 0, "author": ["David Chute"]},
{"text": "An epic!", "is_fresh": 1, "author": ["Paul Clinton (CNN.com)"]},
{"text": "A vivid, emotional story.", "is_fresh": 1, "author": ["Kevin Maynard"]},
{"text": "Moves with the suffocating deliberateness of a river of molasses.", "is_fresh": 0, "author": ["Kenneth Turan"]},
{"text": "The movie taps into a vein of Dickensian sentiment, nightmare and idealism, ribaldry and tragedy that give it that part-dark, part-shining fairytale quality that imbues most King tales and all three of Darabont's features.", "is_fresh": 1, "author": ["Michael Wilmington"]},
{"text": "Hanks adds another small masterpiece to his growing body of American portraits.", "is_fresh": 1, "author": ["David L. Beck"]},
{"text": "A lumbering, self-important three-hour melodrama that defies credibility at every turn.", "is_fresh": 0, "author": ["David Ansen"]},
{"text": "Add another title to the list of good King cinematic adaptations.", "is_fresh": 1, "author": ["Widgett Walls"]},
{"text": "Surpasses mere adequacy in so many ways just within the first hour that it will undoubtably be praised to the highest extent.", "is_fresh": 1, "author": ["Greg Muskewitz"]},
{"text": "A thoroughly absorbing supernatural fairytale about good and evil living under the same roof.", "is_fresh": 1, "author": ["Ian Waldron-Mantgani"]},
{"text": "Darabont and King go to prison. Heck, it worked the first time!", "is_fresh": 1, "author": ["Scott Weinberg"]},
{"text": "Sure, there are plenty of good moments here to elicit active enjoyment.", "is_fresh": 1, "author": ["Ted Prigge"]},
{"text": "The Green Mile is a solidly crafted film telling a complexly layered story that features a beautifully satisfying, if bittersweet, finale.", "is_fresh": 1, "author": ["Laura Clifford"]},
{"text": "The quickest 180 minutes you will ever spend in a movie theater.", "is_fresh": 1, "author": ["Bob Bloom"]},
{"text": "A heartfelt fable that pushes all the right emotional buttons.", "is_fresh": 1, "author": ["Michael Dequina"]},
{"text": "A powerful Stephen King story, but one which is not compelling enough to justify the film's three-hour length.", "is_fresh": 1, "author": ["Mark R. Leeper"]},
{"text": "an entertaining, extremely well-produced drama. It's also a film that's likely to be enormously overrated by the millions of members of the Cult of Tom...", "is_fresh": 1, "author": ["James Sanford"]},
{"text": "Certainly not a perfect film, and probably not the major Oscar contender the filmmakers intended it to be, but it is a well-acted, tautly-directed film with emotional weight.", "is_fresh": 1, "author": ["Shay Casey"]},
{"text": "", "is_fresh": 1, "author": ["Ben De Haan"]},
{"text": "", "is_fresh": 1, "author": ["Jules Brenner"]},
{"text": "", "is_fresh": 0, "author": ["Jason Clark"]},
{"text": "", "is_fresh": 1, "author": ["Eugene Novikov"]}
]