[
{"reviews_count": "284", "title": "The Grand Budapest Hotel", "avg_audience_rating": "4.1", "rotten_count": "25", "tomatometer": "91", "audience_score": "86", "avg_critic_rating": "8.4", "fresh_count": "259", "user_ratings_count": "96,584"},
{"text": "The conceit of having the film refracted through four stories-within-stories beautifully thematises the idea of nostalgia and storytelling as part of our balm of remembrance.", "is_fresh": 1, "author": ["PJ Nabarro"]},
{"text": "Fans of the director will not be disappointed, almost expecting the bit of meandering that occurs in the middle that is immediately forgiven in the context of the whole.", "is_fresh": 1, "author": ["Sarah Gopaul"]},
{"text": "At a time when Judd Apatow is Hollywood's go-to funnyman, a film like The Grand Budapest Hotel is sorely needed. It's not overlong, it isn't self-indulgent, and the comedy is timed to perfection.", "is_fresh": 1, "author": ["Alistair Ryder"]},
{"text": "Like a beautiful stacking petruschka doll - open up another and another of its layers until you reach an empty center.", "is_fresh": 0, "author": ["Pat Padua"]},
{"text": "The movie is so lush with detail that only a big screen can do it justice.", "is_fresh": 1, "author": ["Marcianne Miller"]},
{"text": "With an absolute stellar cast and Adrien Brody's moustache deserving its own line in the credits this film is about as sweet as some Mendl's confectionary. Five Stars.", "is_fresh": 1, "author": ["Chloe Leeson"]},
{"text": "Handsome, opulent and cunningly devised.", "is_fresh": 1, "author": ["Joseph Walsh"]},
{"text": "[Wes Anderson has[ made his most Wes Anderson-ian film yet, \"The Grand Budapest Hotel,\" and it is utterly glorious.", "is_fresh": 1, "author": ["Asia Frey"]},
{"text": "Wes Anderson's overly considered cinematic world has never felt so expansive, enveloping, and infectiously fun.", "is_fresh": 1, "author": ["Mark Keizer"]},
{"text": "The theme seems to be a kind of late-Edwardian Euro whimsy along Wodehousian lines... except that Wodehouse was really funny, and Anderson really isn't. ", "is_fresh": 0, "author": ["Camilla Long"]},
{"text": "Whether you call this an exaggeratedly tall tale or simply a good old shaggy dog story, its ultimate meaning matters less than its maker's lavish deployment of a whimsy so powerful it could almost be thermonuclear.", "is_fresh": 1, "author": ["Lynden Barber"]},
{"text": "Discerning travellers and Wes Anderson fans will luxuriate in the glorious Mittel-European kitsch of one of the director's funniest and most exquisitely designed movies in years.", "is_fresh": 1, "author": ["Kate Muir"]},
{"text": "Anderson proposes a kind of chivalric novel with nineteenth century airs from a wonderful staging... [Full review in Spanish]", "is_fresh": 1, "author": ["Hugo Hern\u00e1ndez Valdivia"]},
{"text": "This whimsical tale oozes charm while brisk editing lets you enjoy - but not be overwhelmed by - cakes like mountains and mountains like cakes, chandeliers, perfumed men and Persian pussies.", "is_fresh": 1, "author": ["Srijana Mitra Das"]},
{"text": "It's the most emotionally satisfying Anderson film since Rushmore, and its quirks and whimsies are kept right on the edge of indulgence without ever actually tipping over.", "is_fresh": 1, "author": ["Sarah Marrs"]},
{"text": "[Wes Anderson's] nostalgia, like his set design, is so contrived that I don't believe he really believes in it as anything other than a visual style. The Grand Budapest Hotel is a perfect miniature world, but it left me cold.", "is_fresh": 0, "author": ["Anwen Crawford"]},
{"text": "As usual, it's beautifully set-designed, impeccably scored and acted with all the emotion of Hannibal Lecter on a bender.", "is_fresh": 1, "author": ["Tara Thorne"]},
{"text": "It's one to lose yourself in.", "is_fresh": 1, "author": ["Russell Baillie"]},
{"text": "There's a slightly darker edge to The Grand Budapest Hotel than Anderson's previous efforts.", "is_fresh": 1, "author": ["Sonny Bunch"]},
{"text": "In The Grand Budapest Hotel we can sense both a progression and summarizing of the entire Wes Anderson canon.", "is_fresh": 1, "author": ["Nick Newman"]},
{"text": "Just plain fun, full of the filmmaker's signature flourishes and curlicues, worked out with skill and finesse.", "is_fresh": 1, "author": ["Jason Bailey"]},
{"text": "Wes Anderson makes great kid movies. He had me at 'Moonrise Kingdom' and 'Fantastic Mr. Fox.' Grown-up movie-wise, Wes's weird world makes this reviewer weary. ", "is_fresh": 0, "author": ["Mark Jackson"]},
{"text": "For anyone who has long suspected Wes Anderson of being a master technician in search of his heart, The Grand Budapest Hotel joyfully announces that the quest is over.", "is_fresh": 1, "author": ["Bill Newcott"]},
{"text": "Whimsical, frothy fun doesn't go down any easier than this, let alone with a performance as marvelous as Fiennes'.", "is_fresh": 1, "author": ["J. Olson"]},
{"text": "I can't claim Anderson doesn't have a certain power as a filmmaker. But after watching The Grand Budapest Hotel, it seems clear he doesn't use his power for good.", "is_fresh": 0, "author": ["Eileen Jones"]},
{"text": "The Grand Budapest Hotel is not a callous work, but it's about packing painful experience in storage.", "is_fresh": 1, "author": ["Rob Gonsalves"]},
{"text": "Wes Anderson's superb eye for visual storytelling comes to a head with this luscious murder mystery that starts out in an exclusive luxury hotel and thrills the audience throughout Europe.", "is_fresh": 1, "author": ["Wesley Lovell"]},
{"text": "A grownup storybook of a movie spun out of candy-colored nonsense that challenges you to embrace its falseness and deny its romance.", "is_fresh": 1, "author": ["MaryAnn Johanson"]},
{"text": "Even a squirrelly director finds a nut once in a while.", "is_fresh": 1, "author": ["Tony Macklin"]},
{"text": "Ralph Fiennes holds civilization together with little more than his impeccable manners and mustache in Wes Anderson's absurdist dollhouse of a tragicomedy.", "is_fresh": 1, "author": ["Chris Barsanti"]},
{"text": "Many Wes Anderson films have been intricately laced together, the ingredients blending just so. But nothing matches this perfectly layered concoction, wrapped up in an impeccable confectioner's bow.", "is_fresh": 1, "author": ["Kimberly Gadette"]},
{"text": "In theory, we all should know that stepping into a theater automatically makes what we are about to see a story within a story - but director Wes Anderson delights in showing us the artifice", "is_fresh": 1, "author": ["Luke Y. Thompson"]},
{"text": "Wes Anderson has outdone himself, proving to be the reigning Mother of Invention.", "is_fresh": 1, "author": ["S. James Wegg"]},
{"text": "\"The Grand Budapest Hotel\" is not his grandest work yet, but it is one worth an extended stay.", "is_fresh": 1, "author": ["Kate Erbland"]},
{"text": "With apologies to Willy Wonka and his wallpaper-licking visitors, the titular Alpine resort is the most edible-looking lodge in cinema: a multitiered, pink-frosted castle designed to endure as an ambrosial memory.", "is_fresh": 1, "author": ["Aaron Mesh"]},
{"text": "Those like myself who admire auteur-driven filmmaking can celebrate with the release of \"The Grand Budapest Hotel,\" the best movie of 2014 at this early stage, and perhaps likely to remain so for some time to come.", "is_fresh": 1, "author": ["Michael Smith"]},
{"text": "Once again, Anderson has managed to make an affecting, funny movie; it may be more melancholy than most, but bittersweet love is love nonetheless, and The Grand Budapest Hotel is worth visiting multiple times.", "is_fresh": 1, "author": ["Alex Doenau"]},
{"text": "Anderson's admirers will love it, while those who resist his quirky mix of deadpan precision and manic disorder must grant that it fits the story he tells here.", "is_fresh": 1, "author": ["Jim Lane"]},
{"text": "The mannered, madcap proceedings are often delightful, occasionally silly, and here and there, gruesome and/or heartbreaking.", "is_fresh": 1, "author": ["Matthew Lickona"]},
{"text": "The result is as offbeat as any of Anderson's films, but more heartfelt than most.", "is_fresh": 1, "author": ["Sean P. Means"]},
{"text": "The lingering impact of the movie is slighter than it hopes to be, a pastiche full of sound and whimsy, signifying nothing.", "is_fresh": 1, "author": ["Genevieve Valentine"]},
{"text": "There's more creativity and inventiveness on display here than in the rest of last weekend's top 10 box-office draws combined.", "is_fresh": 1, "author": ["Christopher Lawrence"]},
{"text": "No matter who you are, this movie will charm your dandy pants off and then some.", "is_fresh": 1, "author": ["Michael Arbeiter"]},
{"text": "\"The Grand Budapest Hotel\" is Anderson's finest attempt at film whimsy. He's created a movie that is as visually stunning as it is smartly written.", "is_fresh": 1, "author": ["Rick Bentley"]},
{"text": "Like most of Anderson's films -- and Gustave himself -- the film is rather pleased with itself, but its exuberant humour and pacy plot keep it accessible while Fiennes delivers his funniest role ever.", "is_fresh": 1, "author": ["David Edwards"]},
{"text": "While The Grand Budapest Hotel is delightfully good fun, it's the moments of pathos and black humour that reveal the scope of its achievements.", "is_fresh": 1, "author": ["Luke Buckmaster"]},
{"text": "The Grand Budapest Hotel isn't just a fantastic argument for Anderson as artist -- it's probably the best formally interesting movie that's also meaningful in years.", "is_fresh": 1, "author": ["Jackson Cuidon"]},
{"text": "We have another minor masterpiece to add to [Anderson's] growing pile of textiles.", "is_fresh": 1, "author": ["Piers Marchant"]},
{"text": "People tend to either love or hate Anderson's direction. I don't think this film will change anyone's mind, but if you do do enjoy his work, I think that you'll really enjoy this one.", "is_fresh": 1, "author": ["Scott Nash"]},
{"text": "This is a visually stunning film, but above all it's a hugely enjoyable one.", "is_fresh": 1, "author": ["David Stratton"]},
{"text": "I like Anderson when he's making movies about childhood -- \"Rushmore,\" or \"Fantastic Mr. Fox\" -- but when he ventures into the realm of adulthood, he seems out of his jurisdiction.", "is_fresh": 0, "author": ["Gary Thompson"]},
{"text": "Wes Anderson's latest opus, The Grand Budapest Hotel, is bloody bonkers and simply splendid.", "is_fresh": 1, "author": ["Bruce Kirkland"]},
{"text": "Grand isn't good enough a word for this Budapest Hotel. Great is more like it.", "is_fresh": 1, "author": ["Richard Corliss"]},
{"text": "Anderson's films are too precious for some, but for those of us willing to lose ourselves in them, they're a delight. \"The Grand Budapest Hotel\" is no different, except that he has added a hint of gravitas to the mix, improving the recipe.", "is_fresh": 1, "author": ["Bill Goodykoontz"]},
{"text": "\"The Grand Budapest Hotel\" is about far more than just a ridiculous play of manners of a bygone age. It is truly a celebration of narration and of storytelling.", "is_fresh": 1, "author": ["Anders Wright"]},
{"text": "While the enigmatic details and nuances are the very treasures and treats being gifted, they are mere trinkets when not combined with the style and imagery that Anderson has forged from his creative spirit. ", "is_fresh": 1, "author": ["Jordan Hiller"]},
{"text": "A joy and sight to behold from beginning to end, The Grand Budapest Hotel is pure filmmaking delight. It's one of 2014's best.", "is_fresh": 1, "author": ["Bill Clark"]},
{"text": "The Grand Budapest Hotel is funny and offbeat, zips along at a pleasing pace, and in M. Gustave has a truly memorable leading character.", "is_fresh": 1, "author": ["Martin Roberts"]},
{"text": "For his fans this tribute to a bygone era and in fact a bygone world is a brilliant watch, one of the most thoughtful of Anderson's films even amongst the grandiose escapism.", "is_fresh": 1, "author": ["Hannah Woodhead"]},
{"text": "What is remarkable is that instead of overcooking this film, the big names add value to a remarkably inventive and wholeheartedly fun, cinema-going experience. ", "is_fresh": 1, "author": ["Graham Young"]},
{"text": "The Grand Budapest Hotel may be Wes Anderson's most finely-crafted film to date, and is one that even the filmmaker's detractors should be able to appreciate.", "is_fresh": 1, "author": ["Austin Trunick"]},
{"text": "Wes Anderson mais Wes Anderson do que nunca.", "is_fresh": 1, "author": ["Pablo Villa\u00e7a"]},
{"text": "Hundreds of precious little moments but not much beyond extravagant artifice to sink your teeth into.", "is_fresh": 0, "author": ["Bruce Bennett"]},
{"text": "The ultimate reason why [it] feels fresh and vibrant [is because] it harkens so far back in movie history to find its inspiration that it proves the old \"everything old is new again\" maxim is true.", "is_fresh": 1, "author": ["Richard Knight"]},
{"text": "A beautiful dream that helps us deal with the slings and arrows of our banal real world with a little more pluck.", "is_fresh": 1, "author": ["Rob Vaux"]},
{"text": "Anderson and his crew build an impeccable, elaborate world that is opulent and breathtaking, yet somewhat silly.", "is_fresh": 1, "author": ["Jeffrey M. Anderson"]},
{"text": "The movie may suffer from some of its quick-and-done plotting, but its quality of humor, spectacle, and acting is all top notch.", "is_fresh": 1, "author": ["Jack Giroux"]},
{"text": "Anderson's film looks good enough to eat; swallowing it is another matter.", "is_fresh": 0, "author": ["Melissa Anderson"]},
{"text": "This wacky screwball comedy, loosely based on stories by Stefan Zweig, has a plot so labyrinthine and frantic it is hardly worth following, except for the fantastic sets and appealing central characters played by Ralph Fiennes and Tony Revolori.", "is_fresh": 1, "author": ["Robert Roten"]},
{"text": "An argument could be made that this is Wes Anderson's best film.", "is_fresh": 1, "author": ["Matt Neal"]},
{"text": "Anderson's sights are like scenes from a storybook, and the actors move and speak with a clockwork cadence that adds to the sense of comedic orchestration.", "is_fresh": 1, "author": ["Neil Pond"]},
{"text": "Watching Wes Anderson quietly and unsentimentally make Zero the hero of The Grand Budapest Hotel should win over some of the director's detractors.", "is_fresh": 1, "author": ["John P. McCarthy"]},
{"text": "It is a film that maintains its illusion with grace-and ruefully unmasks that illusion every bit as gracefully.", "is_fresh": 1, "author": ["Jonathan Romney"]},
{"text": "Fans of director Wes Anderson, here's what you've been waiting for since you saw 'Moonrise Kingdom.' 'The Grand Budapest Hotel' is another comedy with quirky characters and oddball encounters.", "is_fresh": 1, "author": ["Linda Cook"]},
{"text": "A typically witless comedy from Wes Anderson that has about as much to do with Stefan Zweig as it does with WWII and Nazism, the disasters that led to Zweig's suicide in 1942. A total travesty.", "is_fresh": 0, "author": ["Louis Proyect"]},
{"text": "Runs in the vein of Anderson's more exotic pictures (think 'The Life Aquatic' and 'The Darjeeling Limited').", "is_fresh": 1, "author": ["Brad Keefe"]},
{"text": "Any single frame qualifies for wall space in a cinematic museum as the players ingeniously apply their emotive elasticity to fit the Anderson universe.", "is_fresh": 1, "author": ["Jules Brenner"]},
{"text": "Eloquent, offbeat and charming, The Grand Budapest Hotel is Anderson's most accomplished film to date.", "is_fresh": 1, "author": ["Tom Glasson"]},
{"text": "Fiennes is magnificent, his droll wit and a \"keep calm and carry on\" delivery occasionally peppered with highlights of profanity and fire. Comedic timing perfection.", "is_fresh": 1, "author": ["Tim Martain"]},
{"text": "Wes Anderson's The Grand Budapest Hotel is a work of visceral, madcap comedic genius.", "is_fresh": 1, "author": ["Blake Howard"]},
{"text": "Another visually scrumptious cinematic doily from America's master of over-designed whimsy, Wes Anderson, and this one is measurably better than many of his previous efforts in that there's something resembling a plot at the heart of it.", "is_fresh": 1, "author": ["Jim Schembri"]},
{"text": "Filled with fully fleshed out characters, amazing dialogue and a look that is right out of the 1940s, the film travels smoothly on the shoulders of Ralph Fiennes.", "is_fresh": 1, "author": ["Michael A. Smith"]},
{"text": "A fairytale for adults, this is Anderson's \u00fcber-film thus far, utilising the entire breadth and astonishing depth of his imagination to bear exquisite humour and life in every single, immaculately composed shot. ", "is_fresh": 1, "author": ["CJ Johnson"]},
{"text": "Anderson's focus on oddball humor, audaciously eloquent dialogue, and cartoonish absurdity remains central and doesn't get derailed by the overly forced attempts at familial pathos that have marred some of his other films", "is_fresh": 1, "author": ["James Kendrick"]},
{"text": "swallowed whole by the grey beast solipsism.", "is_fresh": 0, "author": ["Walter Chaw"]},
{"text": "It's satisfying to see this level of craftsmanship applied to a film that is often so silly it's a pure delight to watch.", "is_fresh": 1, "author": ["Steve Newall"]},
{"text": "From every angle, The Grand Budapest Hotel delivers so much to love, laugh along with, and lean forward for a better look at.", "is_fresh": 1, "author": ["Leigh Paatsch"]},
{"text": "This is full of the elements you expect to find in a Wes Anderson film. There are lovingly composed tableaus - each a marvel of production design - immaculately designed uniforms for both soldiers and hotel bellboys and a sighting of Bill Murray. ", "is_fresh": 1, "author": ["Craig Mathieson"]},
{"text": "This is about as fun as movie-going gets. Fans of Anderson's work should love it; those who've disliked the artifice and nostalgia of his earlier films will find those elements put to more entertaining use here.", "is_fresh": 1, "author": ["Anthony Morris"]},
{"text": "Anderson is at the middle of point of his life, considering the uncertainty of the world.", "is_fresh": 1, "author": ["Damien Straker"]},
{"text": "Often lazily and unfairly accused of crafting works that trump style over substance, Anderson's painstaking attention to detail here beautifully serves the story.", "is_fresh": 1, "author": ["Cara Nash"]},
{"text": "It's an eloquent, observant and mature comedy about the decay of an era.", "is_fresh": 1, "author": ["Dennis Schwartz"]},
{"text": "The Grand Budapest Hotel is as inventive and immaculately orchestrated a cinematic universe as I've ever seen. ", "is_fresh": 1, "author": ["Simon Miraudo"]},
{"text": "It is beautifully designed, visually ravishing and symmetrical to the nth degree. And it is full of frantic chaos, with a Lord of Misrule at its centre played with effortless comic brilliance by Ralph Fiennes.", "is_fresh": 1, "author": ["Philippa Hawker"]},
{"text": "The success of Anderson's admirable ambition is to have elevated anachronism, pastiche, personal passions and larger cultural memory to a heady froth, but one that also knows the butt-end of a rifle.", "is_fresh": 1, "author": ["Ray Pride"]},
{"text": "The result is a deliciously rich and, dare I say, old-fashioned entertainment, filled with affectionate jokes and cinematic references. ", "is_fresh": 1, "author": ["David Stratton"]},
{"text": "In addition to being a character-driven caper, beautifully designed, it's also an excellent tribute to the act of yearning for a better world.", "is_fresh": 1, "author": ["Jonathan Kiefer"]},
{"text": "The Grand Budapest Hotel is another feather in the cap of this wonderful director. It's quaint, charming and poignant.", "is_fresh": 1, "author": ["Matthew Toomey"]},
{"text": "Every single frame ... is mesmerising, fascinating, surprising, fabulous, a stunning construct of colours and textures, the surreal and the visceral", "is_fresh": 1, "author": ["Andrew L. Urban"]},
{"text": "Brilliantly conceived and executed ... dry, droll and delightful. It's a treasure trove of wonders - visually and emotionally - with its stylised, colourful production design", "is_fresh": 1, "author": ["Louise Keller"]},
{"text": "With his latest, the time has arrived to stop thinking of Anderson's movies as great to look at and start thinking of them simply as great. ", "is_fresh": 1, "author": ["Rick Kisonak"]},
{"text": "Farcical pleasures are plentiful in Wes Anderson's The Grand Budapest Hotel, set in an eastern European republic steeped in Marxism. Groucho, not Karl.", "is_fresh": 1, "author": ["Steve Persall"]},
{"text": "Funny, if not gut-busting, and well-executed, if not a masterpiece. ", "is_fresh": 1, "author": ["Eric D. Snider"]},
{"text": "The film that Wes Anderson was born for.", "is_fresh": 1, "author": ["Tim Brayton"]},
{"text": "Anderson's script is sharp and funny, and never bashful about pausing the laughs for such melancholic reflections, mostly to grieve the loss of a time and place, and occasionally the people.", "is_fresh": 1, "author": ["Kirk Baird"]},
{"text": "Anderson serves his guests meticulously assembled fun in \"The Grand Budapest Hotel.\"", "is_fresh": 1, "author": ["John Wirt"]},
{"text": "A stylistic and thematic progression, it's Anderson's most complex, nuanced effort, and his bawdiest, perhaps funniest, screenplay yet. It may be his masterpiece. ", "is_fresh": 1, "author": ["John Serba"]},
{"text": "Can you make a successful comedy entirely out of eccentric, marginally related episodes? The Grand Budapest Hotel proves it's possible, if you're Wes Anderson.", "is_fresh": 1, "author": ["Lawrence Toppman"]},
{"text": "Dreams die gentle deaths as characters adjust and adapt, and try to find humanity in a world in which the problems of a few little people don't amount to a hill of beans - except to them, and their world is our world.", "is_fresh": 1, "author": ["Matt Kelemen"]},
{"text": "Wes Anderson's delightfully original, bittersweet, slyly campy saga of murder, theft and conspiracy that becomes a whimsical, madcap romp. ", "is_fresh": 1, "author": ["Susan Granger"]},
{"text": "A sublime whodunit designed for cinephiles with sophisticated palates.", "is_fresh": 1, "author": ["Kam Williams"]},
{"text": "Like the tool-stuffed pastries baked by the film's winsome young Agatha, 'The Grand Budapest Hotel' is an irresistible frosted confection with a steely, purposeful center.", "is_fresh": 1, "author": ["John Beifuss"]},
{"text": "Just like its namesake, there is something outrageously regal about the movie 'The Grand Budapest Hotel' that makes it a warm and exciting place to check into.", "is_fresh": 1, "author": ["Mathew DeKinder"]},
{"text": "The best film of Wes Anderson's career.", "is_fresh": 1, "author": ["Matt Brunson"]},
{"text": "Like Gene Hackman in The Royal Tenenbaums, Fiennes seems both in sync and immune to Anderson's fastidious nature. It's a tour-de-force performance that should earn an Oscar nomination but will most likely be overlooked in favor of more sober portrayals.", "is_fresh": 1, "author": ["Jeff Meyers"]},
{"text": "The movie is a flume ride through the imagination of one of the most creative minds making movies today, and the pleasure curls your toes. Also, be ready to crave some macaroons.", "is_fresh": 1, "author": ["Rene Rodriguez"]},
{"text": "Each part is plum and comedically necessary. Who would have even thought of casting Tilda Swinton or Ralph Fiennes in a wild comedy? Voil\u00e0, they seem perfectly cast.", "is_fresh": 1, "author": ["Steve Crum"]},
{"text": "No film has even come close to matching The Royal Tenenbaums, until now", "is_fresh": 1, "author": ["Kevin Carr"]},
{"text": "A wondrous celebration of everything that Wes Anderson holds dear - while moving farther away from being a universally recommendable title for casual viewers.", "is_fresh": 1, "author": ["Sandy Schaefer"]},
{"text": "Wes Anderson checks into a grand hotel", "is_fresh": 1, "author": ["Robert Denerstein"]},
{"text": "Whrilwind storytelling leaves the emotional core behind", "is_fresh": 1, "author": ["Marty Mapes"]},
{"text": "You will check in to the Grand Budapest Hotel and find yourself not wanting to leave!", "is_fresh": 1, "author": ["Jolene Mendez"]},
{"text": "\"Budapest\" is pretty much an old-fashioned screwball comedy garishly dressed. It's goofy, eccentric and often downright silly. There are many scenes that would have worked in a \"Three Stooges\" movie.", "is_fresh": 1, "author": ["Tom Long"]},
{"text": "Budapest Hotel, a vibrant, cheeky throwback to 1930s caper comedies, contains the same high degree of craftsmanship as [Anderson's] other films. There's just more of it.", "is_fresh": 1, "author": ["Carla Meyer"]},
{"text": "As the actors race, chase and escape across, through and from mansions, mountains and prisons, they bring deadpan theatricality to the old-world artifice and confectionary palette.", "is_fresh": 1, "author": ["Duane Dudek"]},
{"text": "After feeding on this sweet buffet, sated cinephiles will want to call the front desk to extend their stay.", "is_fresh": 1, "author": ["Joe Williams"]},
{"text": "When people say, 'They don't make movies like that anymore,' they are wrong. Wes Anderson makes movies like that anymore, and 'The Grand Budapest Hotel' -- part comedy caper, part adventure, and all quirky, embraceable whimsy -- is proof.", "is_fresh": 1, "author": ["Mike Scott"]},
{"text": "This hotel caper may be Wes Anderson firing on all his quaint idiosyncratic cylinders", "is_fresh": 1, "author": ["Cameron Williams"]},
{"text": "A brilliant film that is funny, marvelously creative and always just a little bit sad. Easily the best film to come along this year -- and it will probably still be at the end of the year. ", "is_fresh": 1, "author": ["Ken Hanke"]},
{"text": "I'm bothered when an overabundance of surface effects covers up a ringingly hollow purpose, containing very little except authorial will.", "is_fresh": 0, "author": ["Stuart Klawans"]},
{"text": "In typical Wes Anderson fashion, its impeccable design and je ne sais quoi will win you over.", "is_fresh": 1, "author": ["Cameron Meier"]},
{"text": "Dense, energetically presented and wonderful - though as my friend suggested, for those first five minutes you'd be forgiven for thinking Anderson was retreading his old tropes a few too many times. Those feelings disappear by the sixth minute.", "is_fresh": 1, "author": ["Patrick Kolan"]},
{"text": "...content to operate at an almost infuriating level of consistent quirkiness...", "is_fresh": 1, "author": ["David Nusair"]},
{"text": "Even with its time period well established and most characters donning really impressive mustaches, The Grand Budapest Hotel is a disappointing yet mildly satisfying Wes Anderson film.", "is_fresh": 1, "author": ["Chris Sawin"]},
{"text": "In its own silly, artificial way, it's the first Anderson film to acknowledge the existence of a world outside its own little toy box and to ground its characters' nostalgia in something resembling actual historical reality.", "is_fresh": 1, "author": ["Alex Pappademas"]},
{"text": "All the cutesiness in the world can't really make what was beginning to happen in 1930s Europe remotely charming, as Anderson seems to want to do.", "is_fresh": 0, "author": ["Richard Lawson"]},
{"text": "The comedy in The Grand Budapest Hotel is among the broadest yet undertaken by Anderson. But amid the frenzied hubbub, there are intimations of a darker, sadder history unfolding.", "is_fresh": 1, "author": ["Christopher Orr"]},
{"text": "If a movie can be elegantly zany, this wholly imaginative, assured fable of a legendary concierge Gustave H. (Ralph Fiennes), his prot\u00e9g\u00e9 Zero (Tony Revolori) and the murder of a countess, is it.", "is_fresh": 1, "author": ["Lisa Kennedy"]},
{"text": "In The Grand Budapest Hotel, Anderson's eighth feature, the director invests his trademark whimsy with spectacular ambition, and the result is the most richly entertaining film of his career.", "is_fresh": 1, "author": ["Brian D. Johnson"]},
{"text": "Will charm not only the filmmaker's devoted cult but possibly a few of his detractors.", "is_fresh": 1, "author": ["Kelly Vance"]},
{"text": "Madcap and exhilarating --- I absolutely loved every minute of \"The Grand Budapest Hotel\". ", "is_fresh": 1, "author": ["Jeanne Kaplan"]},
{"text": "The late Robert Altman would have loved this film, which practically demands a second viewing.", "is_fresh": 1, "author": ["David Kaplan"]},
{"text": "Whereas many of Anderson's early films felt a little rough around the edges, The Grand Budapest Hotel - with its shifting aspect ratios, creamy photography, and oh-so-careful 90-degree camera swivels - feels impeccable", "is_fresh": 1, "author": ["Witney Seibold"]},
{"text": "I was so busy delighting in its breathtaking aesthetic complexity that I suspect the story will work magic on me in later viewings. That's what happened with The Life Aquatic.", "is_fresh": 1, "author": ["Jeffrey Overstreet"]},
{"text": "The most sophisticated and cosmopolitan comic cinema of our time.", "is_fresh": 1, "author": ["James Verniere"]},
{"text": "A whimsical, confectionery delight filled with Old World charm and a hint of sadness.", "is_fresh": 1, "author": ["Travis Hopson"]},
{"text": "It's the movie equivalent of a rich and delicious dessert.", "is_fresh": 1, "author": ["Chris Hewitt (St. Paul)"]},
{"text": "Good, but not the director's best work, it's fun to visit 'The Grand Budapest Hotel.' I just felt it could have been a briefer trip with less highlights and a little more substance. (Content Review for Parents Also Available)", "is_fresh": 1, "author": ["Jim Judy"]},
{"text": "Imagine a blend of The Muppet Movie, Mel Brooks, and Where's Waldo? and you're halfway to the carnival ride viewing experience Anderson delivers with this gem. ", "is_fresh": 1, "author": ["Brian Orndorf"]},
{"text": "A vibrant murder mystery with a zip in its step, a lump in its throat & grandstanding lead performance by Ralph Fiennes. ", "is_fresh": 1, "author": ["Matthew Pejkovic"]},
{"text": "The whole of The Grand Budapest Hotel ... is something entirely different from Anderson, even if the particulars ... are entirely familiar.", "is_fresh": 1, "author": ["Mark Dujsik"]},
{"text": "From the start, it's clear Anderson is working with a new sophistication both in the vocabulary and structure of the film's voiceover narrations.", "is_fresh": 1, "author": ["Liam Lacey"]},
{"text": "The Grand Budapest Hotel is by far the most headlong comedic affair in Anderson's canon. It's practically Marx Brothers-ian at moments. And Fiennes - who knew he was capable of such wicked, witty timing?!", "is_fresh": 1, "author": ["Steven Rea"]},
{"text": "Fiennes is on fire in one of the best roles of his career. ", "is_fresh": 1, "author": ["Willie Waffle"]},
{"text": "Anderson is the master of \"saudade,\" the nostalgia for something you never had or that never existed.", "is_fresh": 1, "author": ["Nell Minow"]},
{"text": "It's quintessential Anderson, in other words, but also an unabashed entertainment. And that's something to see.", "is_fresh": 1, "author": ["Bruce Ingram"]},
{"text": "Anderson's customary lavish production values render the spectacle a visual treat while a quality script maintains decent momentum.", "is_fresh": 1, "author": ["Padraic McKiernan"]},
{"text": "The Grand Budapest Hotel is Wes Anderson's best movie yet, full of whimsy and attention to detail but told in the context of a great fall -- the disappearance of grace and manners in Europe amid the rise of the Nazis.", "is_fresh": 1, "author": ["Charles Ealy"]},
{"text": "It's clever, and thanks to Fiennes and the inspired production design, it's a whole lot of fun. But it's also flat -- apparently by design.", "is_fresh": 1, "author": ["Katherine Monk"]},
{"text": "it's Fiennes, under a fairly standard but still formidable stache -- somewhere between a Geraldo and a Selleck -- who is the film's emotional core. ", "is_fresh": 1, "author": ["Chris Knight"]},
{"text": "Playing an Old World charmer with clipped diction and a deliciously foul mouth, Fiennes, making his debut with Anderson's stock company, falls into lockstep with the filmmaker's unmistakable universe.", "is_fresh": 1, "author": ["Chris Vognar"]},
{"text": "With \"The Grand Budapest Hotel,\" Wes Anderson is up to his old tricks but with a magnanimous new confidence that feels like a gift.", "is_fresh": 1, "author": ["Ty Burr"]},
{"text": "The entire movie is like a giant, elaborately decorated cake, created by this most exacting of film craftsmen. And how tasty it is!", "is_fresh": 1, "author": ["Peter Howell"]},
{"text": "A delight to the eye, intricatey designed and flawlessly crafted...[with] a streak of tenderness and melancholy to go along with Anderson's characteristic whimsy and wit.", "is_fresh": 1, "author": ["Frank Swietek"]},
{"text": "it's a caper, and an adventure and a comedy and a sad drama- all of it quintessentially Anderson.", "is_fresh": 1, "author": ["Stephen Silver"]},
{"text": "The Grand Budapest Hotel is a marvelous spectacle.", "is_fresh": 1, "author": ["Kimberley Jones"]},
{"text": "[Anderson's pictures are] comical without actually being funny, inventive without being freely playful, momentous without being dramatic. The emotional oxygen that would ignite them gets smothered in self-conscious cleverness.", "is_fresh": 0, "author": ["Michael Sragow"]},
{"text": "With this film, Anderson has proven he is one of the greatest American directors working today.", "is_fresh": 1, "author": ["Miriam Bale"]},
{"text": "Welcome to The Grand Budapest Hotel: An intimate and charming retreat with supreme comfort and guest-themed hospitality.", "is_fresh": 1, "author": ["Chase Whale"]},
{"text": "The tender friendship between the wide-eyed Zero and the worldly Gustave gives this movie an emotional core that isn't always an Anderson priority.", "is_fresh": 1, "author": ["Rafer Guzman"]},
{"text": "What follows is a rousing epic, with quintessential Anderson touches (miniatures, quirky camera work, fantastically implausible stunts), and beautiful set design.", "is_fresh": 1, "author": ["Alynda Wheat"]},
{"text": "I would call \"The Grand Budapest Hotel\" major whimsy. It's a confection with bite, featuring an ensemble led by the invaluable Ralph Fiennes, here allowed to exercise his farceur's wiles.", "is_fresh": 1, "author": ["Michael Phillips"]},
{"text": "The movie's sad undertone saves \"The Grand Budapest Hotel\" from its own zaniness - or better yet, elevates the zaniness, making it feel like an assertion of some right to be silly, or some fundamental human expression.", "is_fresh": 1, "author": ["Mick LaSalle"]},
{"text": "If Anderson buries relatively little moral substance under lavish dollops of rich cream, at least he, like his fascinating protagonist, sustains the illusion with a marvelous grace.", "is_fresh": 1, "author": ["Ann Hornaday"]},
{"text": "I'm not sure what the formal definition of a masterpiece is, but \"The Grand Budapest Hotel\" strikes me as something very close.", "is_fresh": 1, "author": ["Colin Covert"]},
{"text": "Anderson shows the value of a filmmaker working at the full, precise capacity of a master chef. The Grand Budapest Hotel is the movie that earns him his third Michelin star.", "is_fresh": 1, "author": ["Matt Pais"]},
{"text": "Every frame is carefully composed like the illustrations from a beloved book (characters are precisely centered; costumes are elaborately literal); the dialogue feels both unexpected and happily familiar.", "is_fresh": 1, "author": ["Moira MacDonald"]},
{"text": "Mostly delightful. It can give you the foreboding you feel when encountering the word \"artisanal,\" but otherwise this nested story of Central European skullduggery seems to have more of a spine than anything he's made since Fantastic Mr. Fox. ", "is_fresh": 1, "author": ["Richard von Busack"]},
{"text": "It offers an engaging 90+ minutes of unconventional, comedy-tinged adventure that references numerous classic movies while developing a style and narrative approach all its own.", "is_fresh": 1, "author": ["James Berardinelli"]},
{"text": "\"The Grand Budapest Hotel\" shows Anderson engaging with the world outside his meticulously composed frames like never before.", "is_fresh": 1, "author": ["Marc Mohan"]},
{"text": "You know what to expect when watching one of Anderson's films, and his latest doesn't disappoint, overflowing with colorful characters, zany plot twists and sublime production design.", "is_fresh": 1, "author": ["Jason Zingale"]},
{"text": "\"A comedy about the tragedy of nostalgia...\"", "is_fresh": 1, "author": ["Josh Larsen"]},
{"text": "A sobering message movie that still know hows to tickle us with a goofy ski chase that is joyously and purely Wes Anderson through and through.", "is_fresh": 1, "author": ["Randy Myers"]},
{"text": "The best film of Anderson's film to date, 'The Grand Budapest Hotel' is amusing and it looks spectacular...", "is_fresh": 1, "author": ["John Esther"]},
{"text": "It's an infinitely rewatchable treat let down only by what Mary Berry might call the plot's 'soggy middle' involving will disputes and prison breaks. ", "is_fresh": 1, "author": ["Larushka Ivan-Zadeh"]},
{"text": "There is no space in The Grand Budapest Hotel. No vacancy. It is absolutely stuffed with plot points. There is no room to breathe, no room for a joke to settle (or even register) before Anderson has shuttled us off somewhere else.", "is_fresh": 0, "author": ["Brian Formo"]},
{"text": "A sort of a shaggy-dog story told with manic verve and the narrative dexterity of a meticulously plotted mystery.", "is_fresh": 1, "author": ["Alistair Harkness"]},
{"text": "The op\u00e9ra-bouffe plot serves as a strand of bright golden wire on which Anderson hangs innumerable encounters, scampering chases, and an archly decorative style of commentary.", "is_fresh": 1, "author": ["David Denby"]},
{"text": "Both Anderson's most tightly wound and funniest film in years, lacking the melancholy charm of The Royal Tenenbaums or Moonrise Kingdom perhaps, but more than making up for it in terms of elegantly capering contrivance.", "is_fresh": 1, "author": ["Mark Kermode"]},
{"text": "I am sure that the cast and crew had a great deal of fun but the finished product is too much of an indulgence to get a place as one of the writer-director's best works.", "is_fresh": 1, "author": ["Robin Clifford"]},
{"text": "A bravura chunk of pastiche.", "is_fresh": 1, "author": ["Ed Whitfield"]},
{"text": "This beautiful film is at its best when it so delicately underscores one of its major ideas, that of learning to let go of a past - a romantic way of life, a virtuous belief system, genteel traditions and rituals - in order to move on with the present.", "is_fresh": 1, "author": ["Tina Hassannia"]},
{"text": "It's a time capsule, showing us the twilight of a man and his era, subverting rosy nostalgic currents to memorialize life's fleeting shadow.", "is_fresh": 1, "author": ["Robert Levin"]},
{"text": "Set in a deluxe spa hotel occupying an imaginary corner of Mitteleuropa between the wars, Wes Anderson's new film pampers the viewer with its sumptuous visual delights, sparkling dialogue and absurdly enjoyable comic intrigue.", "is_fresh": 1, "author": ["Jason Best"]},
{"text": "A vivid, multilayered story of history and fantasy, fiction and emotional truth, which only falters when it ventures too close to events whose harrowing reality probably shouldn't be reduced to a quirky backdrop for the filmmaker's twee melodramas.", "is_fresh": 1, "author": ["Todd Gilchrist"]},
{"text": "An Anderson confection is always a visual and aural delight.", "is_fresh": 1, "author": ["Annlee Ellingson"]},
{"text": "...a fitfully amusing cuckoo clockworks, but although its nostalgic yearnings for the craftsmanship of yesterday, a Sehnsucht, is palpable, it lacks the real heart found in Anderson's better works.", "is_fresh": 1, "author": ["Laura Clifford"]},
{"text": "Witty, whimsical farce with some cartoonish violence.", "is_fresh": 1, "author": ["S. Jhoanna Robledo"]},
{"text": "It's Fiennes who coolly walks off with the film. Switching seamlessly between courtliness and profanity, he displays a gift for comic timing that's rarely been unleashed since his Essex gang boss in 2007's In Bruges.", "is_fresh": 1, "author": ["Philip Kemp"]},
{"text": "What smothers the comedy is the palpable effort that goes into each set piece or joke. The whimsical tone grows wearisome when the gags fall flat.", "is_fresh": 0, "author": ["Ryan Gilbey"]},
{"text": "Against the backdrop of a new locale, as well as a mosaic of cameos that move the plot forward through each new farcical twist, the film achieves a wonderful rhythm in which we're delighted to expect the unexpected, and sometimes we're still surprised.", "is_fresh": 1, "author": ["Cammila Collar"]},
{"text": "Add in the director's gift for nesting stories, his taste for grotesques and his exquisite eye, and you have the best Wes Anderson film in a decade", "is_fresh": 1, "author": ["Donald Clarke"]},
{"text": "A higgledy-piggledy tutti-frutti concoction that also has its share of old-world melancholy.", "is_fresh": 1, "author": ["Peter Rainer"]},
{"text": "What's special about this film is that, while it bears all the hallmarks of his by-now entirely too familiar style, it also finds him acknowledging the limitations of that style when it butts up against a certain measure of reality", "is_fresh": 1, "author": ["Ethan Alter"]},
{"text": "The Grand Budapest Hotel is not so much a movie as ordinarily understood as a Wunderkammer or cabinet of curiosities.", "is_fresh": 1, "author": ["David Sexton"]},
{"text": "While Anderson delights in creating a fictional (but very real) mittel-Europe, he also does it with the craft of old Hollywood, using carefully made miniatures and handpainted backdrops.", "is_fresh": 1, "author": ["Stephen Whitty"]},
{"text": "Wes Anderson's entertaining filmmaking style clicks beautifully into focus for this comical adventure.", "is_fresh": 1, "author": ["Rich Cline"]},
{"text": "A clockwork wedding cake, a caper movie sprinkled with pixie dust, a picture that sends you scrambling for clever metaphors and failing to find them. ", "is_fresh": 1, "author": ["Kurt Loder"]},
{"text": "To answer some folks who claim to enjoy Anderson's movies while also grousing that they wish he would apply his cinematic talents in a \"different\" mode: no, this isn't the movie in which he does what you think you want, whatever that is.", "is_fresh": 1, "author": ["Glenn Kenny"]},
{"text": "This is one of Anderson's funniest and most fanciful movies, but perversely enough it may also be his most serious, most tragic and most shadowed by history, with the frothy Ernst Lubitsch-style comedy shot through with an overwhelming sense of loss.", "is_fresh": 1, "author": ["Andrew O'Hehir"]},
{"text": "With comic timing like this, Fiennes is wasted on Shakespeare.", "is_fresh": 1, "author": ["Andy Lea"]},
{"text": "Director Wes Anderson's films are so artistically exquisite that they should be framed and mounted. And this effort may be his most astounding. ", "is_fresh": 1, "author": ["Mara Reinstein"]},
{"text": "Gorgeous, whimsical and wonderfully imaginative, The Grand Budapest Hotel is a dazzling piece of eye candy with a deceptively emotional center - in other words, it's Anderson's most ambitious and impressive film to date.", "is_fresh": 1, "author": ["Isaac Feldberg"]},
{"text": "It is a gorgeous film to look at.", "is_fresh": 1, "author": ["Brian Viner"]},
{"text": "Grand Budapest is a culmination of the tinkly music-box aesthetic of Anderson's work to date, turned up to 11.", "is_fresh": 1, "author": ["Ian Buckwalter"]},
{"text": "It's a mature, intricately layered visual delight.", "is_fresh": 1, "author": ["Claudia Puig"]},
{"text": "[The Grand Budapest Hotel] makes the best possible argument in favor of artistic fussiness, packing layers of allusions, characters, jokes, plot turns, and emotion into a film that carries itself with the lightness of a souffl\u00e9. ", "is_fresh": 1, "author": ["Scott Tobias"]},
{"text": "Anderson works so assiduously to create obsessively detailed on-screen worlds that the effect has sometimes been hermetic, even stifling. \"The Grand Budapest,\" however, is anything but.", "is_fresh": 1, "author": ["Kenneth Turan"]},
{"text": "In Anderson's hands, the revolution is ridiculous, and that buys him room to grapple with some big ideas at the same time in what I am sure is one of the best films he's made to date.", "is_fresh": 1, "author": ["Drew McWeeny"]},
{"text": "It's a filigreed toy box of a movie, so delicious-looking you may want to lick the screen. It is also, in the Anderson manner, shot through with humor, heartbreak and a bruised romantic's view of the past.", "is_fresh": 1, "author": ["Peter Travers"]},
{"text": "Mr. Anderson's lovely confection ... keeps us smiling, and sometimes laughing out loud. Yet acid lurks in the cake's lowest layers.", "is_fresh": 1, "author": ["Joe Morgenstern"]},
{"text": "The ornamental riches queue up: production design, star cast, pastiche stylings of gesture, costume, dialogue in a story set in Belle \u00c9poque Central Europe. But not a sustaining calorie, narrative or dramatic, in sight.", "is_fresh": 0, "author": ["Nigel Andrews"]},
{"text": "Watched once, it's the most entertaining movie in theaters. Revisited, it's the saddest. ", "is_fresh": 1, "author": ["Matt Prigge"]},
{"text": "As with all of Anderson's films, the magic is in the cast. Fiennes, with his rapid-fire delivery and rapier mustache, is hilarious, dapper and total perfection.", "is_fresh": 1, "author": ["Joe Neumaier"]},
{"text": "There are hints that Fiennes has it in him to portray a worthwhile human being here -- tender, smart, impulsive, humane, and witty -- but this potential is smothered by Anderson's chronic preference for guest stars and demented art direction.", "is_fresh": 0, "author": ["David Thomson"]},
{"text": "Divine pastries, divine clothes, divine period trappings, but, as with most of Anderson's films, I was never moved or understood what mattered, if any of it mattered. I'm even forgetting it as I'm remembering it, as if it had been no more than a dream.", "is_fresh": 0, "author": ["Deborah Ross"]},
{"text": "True enchantment will elude those, like me, who remain impervious to Anderson's affected style and whimsical humour.", "is_fresh": 0, "author": ["Henry Fitzherbert"]},
{"text": "An absolute treat from start to finish ...", "is_fresh": 1, "author": ["Matthew Turner"]},
{"text": "Time to check out (or into) The Grand Budapest Hotel.", "is_fresh": 1, "author": ["Tim Evans"]},
{"text": "A deeply pleasurable immersion.", "is_fresh": 1, "author": ["Peter Bradshaw"]},
{"text": "This movie makes a marvelous mockery of history, turning its horrors into a series of graceful jokes and mischievous gestures. You can call this escapism if you like. You can also think of it as revenge.", "is_fresh": 1, "author": ["A.O. Scott"]},
{"text": "Imaginative, charming and wonderfully funny. It's sure to become one of Anderson's most beloved narratives. ", "is_fresh": 1, "author": ["Kristy Puchko"]},
{"text": "Anderson has made a madcap caper that doubles as a winsome eulogy for such archaic virtues as glamour, civility, and dutiful customer service.", "is_fresh": 1, "author": ["A.A. Dowd"]},
{"text": "Presented like a Tintin comic strip with just a hint of early Hitchcock.", "is_fresh": 1, "author": ["William Bibbiani"]},
{"text": "For once, Anderson will let his airless snow globe be shaken and dropped, and in this case crudely glued back together by Communism, coyly referred to as the time of \"common property\"", "is_fresh": 1, "author": ["Amy Nicholson"]},
{"text": "In the end it's Fiennes who makes the biggest impression. His stylized, rapid-fire delivery, dry wit and cheerful profanity keep the movie bubbling along. Here's to further Fiennes-Anderson collaborations.", "is_fresh": 1, "author": ["Jocelyn Noveck"]},
{"text": "[It] feels like Wes Anderson's most heartfelt film thus far. One that effortlessly straddles genres and works as both a nostalgic paean to a more innocent time and an examination of the very nature of storytelling itself. ", "is_fresh": 1, "author": ["Chris Tilly"]},
{"text": "We're used to a Wes Anderson movie charming us. Get ready for one that's downright thrilling.", "is_fresh": 1, "author": ["Tim Grierson"]},
{"text": "I amaze myself by liking this latest lunatic cocktail as much as I do.", "is_fresh": 1, "author": ["Rex Reed"]},
{"text": "I've had my Wes Anderson breakthrough - or maybe it's that he's had his. The Grand Budapest Hotel is a marvelous contraption, a wheels-within-wheels thriller that's pure oxygenated movie play.", "is_fresh": 1, "author": ["Owen Gleiberman"]},
{"text": "It is the deft, exceptionally light touch that Fiennes brings to moments both comic and serious that gives this engine its fuel.", "is_fresh": 1, "author": ["Marshall Fine"]},
{"text": "The auteur's style-dramatic zooms, winking symmetry-is balanced against a newfound political context; this one's his To Be or Not to Be.", "is_fresh": 1, "author": ["Joshua Rothkopf"]},
{"text": "Europe is just this nutty place where a lot of crazy mixed-up stuff happened and look at this darling model ski lift! That's Wes Anderson: He can't see the forest for the twee.", "is_fresh": 0, "author": ["Kyle Smith"]},
{"text": "A madcap, inventive, and wonder-inducing creation about the arts of living from the inimitable writer and director Wes Anderson.", "is_fresh": 1, "author": ["Frederic and Mary Ann Brussat"]},
{"text": "Wes Anderson delivers a luxury film experience in the shape of The Grand Budapest Hotel, a feast for the eyes with a ritzy, glitzy cast and touches of comedy gold courtesy of Ralph Fiennes.", "is_fresh": 1, "author": ["Stella Papamichael"]},
{"text": "Every shot is gorgeously framed, with screwball rhythms patterned after 1930s European ironists such as Ernst Lubitsch and Billy Wilder.", "is_fresh": 1, "author": ["Siobhan Synnot"]},
{"text": "Another meticulously stylish and deadpan Wes Anderson movie that walks the fine line between masterpiece and folly.", "is_fresh": 1, "author": ["Damon Wise"]},
{"text": "It's fitting that a recurring piece of pastry plays a role in the story, since Wes Anderson seems to be daring us to view his work as mere confection, while offering subtle evidence that there's more at play. ", "is_fresh": 1, "author": ["Jesse Cataldo"]},
{"text": "Behind the predictably whimsical yarn of a hotel concierge on the run lies a darker tale of pre-war Europe, a land of intrigue, disease, love and bubbling violence.", "is_fresh": 1, "author": ["Sam Lewis"]},
{"text": "A movie that, for all its gorgeous frills and furbelows ... never seemed to me to be quite sure what it was about.", "is_fresh": 0, "author": ["Dana Stevens"]},
{"text": "Anderson's most ambitious, most mature and giddiest comedy yet. ", "is_fresh": 1, "author": ["Roger Moore"]},
{"text": "An exquisitely calibrated, deadpan-comic miniature that expands in the mind and becomes richer and more tragic.", "is_fresh": 1, "author": ["David Edelstein"]},
{"text": "Wes Anderson's eighth film dazzles and delights as if it has been liberated from the pages of a beautifully illustrated storybook.", "is_fresh": 1, "author": ["Emma Simmonds"]},
{"text": "A memory of a memory, a fastidious, whimsical take on real horrors - a storybook samizdat that entices with madcap adventure then goes in for the kill with existential dread. ", "is_fresh": 1, "author": ["Jordan Hoffman"]},
{"text": "It's his grandest plaything to date, his most splendid and glittering toy -- yet for all the ornamentation on display, it's also his most human and humane.", "is_fresh": 1, "author": ["Shane Danielsen"]},
{"text": "Wes Anderson's post-Fantastic Mr Fox whimsy hits its stride as storybook style meets thematic substance in this gorgeous, joyful, yet far from featherlight end-of-an-era yarn.", "is_fresh": 1, "author": ["Michael Leader"]},
{"text": "Anderson has conquered scale and story, balancing humor and deep emotion. His antic period piece about a \"liberally perfumed\" concierge of a once-grand Eastern European resort (Ralph Fiennes), is charming, wondrous, nostalgic and dazzlingly original.", "is_fresh": 1, "author": ["Thelma Adams"]},
{"text": "[Wes Anderson's] new film, The Grand Budapest Hotel, ranks among his best, an ambitious and highly original concoction featuring an irresistible lead performance by Ralph Fiennes.", "is_fresh": 1, "author": ["Kevin Lally"]},
{"text": "Lush and gorgeous and colorful and twee and utterly obviously fake.", "is_fresh": 1, "author": ["Anne Thompson"]},
{"text": "Like the eye-catching cakes Agatha makes, Wes Anderson's eighth feature has a heft beneath its icing, heart behind its artifice. Check in, and you won't want to leave.", "is_fresh": 1, "author": ["Emma Morgan"]},
{"text": "No amount of visual invention can substitute for characters, though, and Anderson doesn't so much write characters anymore as recruit a great cast and dress them up.", "is_fresh": 0, "author": ["J. R. Jones"]},
{"text": "Wes Anderson is the Willy Wonka of art films. He works in a land of pure imagination. You never know what will be around the next corner. But you do have a sense of what the chocolate will taste like.", "is_fresh": 1, "author": ["David Poland"]},
{"text": "The film's shaggy-dog, sort-of-whodunit yarn offers laughs and energy that make this Anderson's most fun film since Rushmore.", "is_fresh": 1, "author": ["Dave Calhoun"]},
{"text": "An opulent and strangely moving caper movie.", "is_fresh": 1, "author": ["David Jenkins"]},
{"text": "[The Grand Budapest Hotel] might just be the most Wes Anderson-y film yet made by Wes Anderson.", "is_fresh": 1, "author": ["Francesca Steele"]},
{"text": "It's Anderson's darkest work yet - and, despite its far-off setting, one of his most hauntingly personal.", "is_fresh": 1, "author": ["Jon Frosch"]},
{"text": "The downside of incredibly choreographed, ornately patterned, sumptuously appointed music box scenes is that they tend to render the characters as sexless wooden figurines. ", "is_fresh": 1, "author": ["Vincent Mancini"]},
{"text": "Even those of us who genuinely look forward to the cinematic adventure that is each and every Wes Anderson film can be disappointed.", "is_fresh": 0, "author": ["Kirk Honeycutt"]},
{"text": "Not only does Anderson create a country here, he creates a parallel, but slightly crazy-mirror version of history too, all delivered through the prism of Golden Age Hollywood comedies-we truly cannot fault his ambition.", "is_fresh": 1, "author": ["Jessica Kiang"]},
{"text": "A little real human feeling and a lot of real-world filming would do more for both Anderson's career and audience than yet another of his seemingly endless, seemingly fruitless clockwork comedic contraptions", "is_fresh": 0, "author": ["James Rocchi"]},
{"text": "It's in Ralph Fiennes's performance as M. Gustave, his Andersonian affectless ruptured by real pathos and frustration, that The Grand Budapest grounds itself. ", "is_fresh": 1, "author": ["John Semley"]},
{"text": "It's a typical Anderson film, flourishing in a world of its own, which Fiennes inhabits and oversees to the manor born.", "is_fresh": 1, "author": ["Derek Malcolm"]},
{"text": "Wes Anderson's ingenious and imaginative The Grand Budapest Hotel beautifully delivers 100 minutes of pure delight. ", "is_fresh": 1, "author": ["Anna Tatarska"]},
{"text": "Over the years, Wes Anderson's movies have steadily developed a lush, eccentric world that operates on its own terms, and \"The Grand Budapest Hotel\" excels at exploring it. ", "is_fresh": 1, "author": ["Eric Kohn"]},
{"text": "Anderson has hit on the ideal narrative context for his restless romanticism and production design fetish.", "is_fresh": 1, "author": ["Guy Lodge"]},
{"text": "This is the moment in the Anderson oeuvre when he turns to consider all things Mitteleurop\u00e4ische - refracted, as a closing credit tells us, through the work of the prolific Austrian writer Stefan Zweig.", "is_fresh": 1, "author": ["Andrew Pulver"]},
{"text": "In a very appealing if outre way, its sensibility and concerns are very much those of an earlier, more elegant era, meaning that the film's deepest intentions will fly far over the heads of most modern filmgoers.", "is_fresh": 1, "author": ["Todd McCarthy"]},
{"text": "Anderson has created a whimsical, dreamlike world where anything goes, allowing him the licence to do whatever he sees fit. So by all means indulge in GBH - the sort that won't land you in jail.", "is_fresh": 1, "author": ["Stefan Pape"]},
{"text": "Wes Anderson's captivating 1930s-set caper offers a vibrant and imaginative evocation of a bygone era.", "is_fresh": 1, "author": ["Justin Chang"]},
{"text": "Wes Anderson's beautiful and thoroughly enjoyable The Grand Budapest Hotel sees the director deliver his best film.", "is_fresh": 1, "author": ["Mark Adams"]},
{"text": "You might get light-headed on the pure fun of it, which unleashes fresh waves of fun-within-fun at every point where you worry it could dry up.", "is_fresh": 1, "author": ["Tim Robey"]},
{"text": "The Grand Budapest Hotel brought out my inner Hunca Munca, of Two Bad Mice fame: This meticulously appointed dollhouse of a movie just went on and on, making me want to smash many miniature plates of plaster food in frustration.", "is_fresh": 0, "author": ["Stephanie Zacharek"]},
{"text": "Course after course of desserts, presented with a flourish and served so promptly that you can barely catch your breath between treats. It's not until an hour or two has passed that you realize that you haven't really eaten anything.", "is_fresh": 1, "author": ["Alonso Duralde"]},
{"text": "Truly one of [Wes Anderson's] most inspired films, as much influenced by classic cinemas as it maintains his own sense of style and pace. ", "is_fresh": 1, "author": ["Edward Douglas"]}
]