[
{"reviews_count": "173", "title": "The Sum Of All Fears", "avg_audience_rating": "  3", "rotten_count": "71", "tomatometer": "59", "audience_score": "49", "avg_critic_rating": "5.9", "fresh_count": "102", "user_ratings_count": "89,423"},
{"text": "In this Bush-Ashcroft age, we do not especially need more strictures on civil liberties, but after this despicable film perhaps the great minds of Movieland could be persuaded to agree on a ground rule: films about nuclear terror must not be risible.", "is_fresh": 1, "author": ["Stanley Kauffmann"]},
{"text": "The Sum of All Fears is ultimately a decent Ryan adventure that could (and should) have been so much better...", "is_fresh": 1, "author": ["David Nusair"]},
{"text": "[Ben Affleck's] Jack Ryan is simply impossible to take seriously, and that's something the film could probably never survive.", "is_fresh": 0, "author": ["Tim Brayton"]},
{"text": "Generic action film not good for kids, or anyone.", "is_fresh": 0, "author": ["Carly Kocurek"]},
{"text": "A solid thriller with a great cast that tends to suffer from some faults...", "is_fresh": 1, "author": ["Felix Vasquez Jr."]},
{"text": "Though this political adventure requires substantial suspension of disbelief, the witty script and mature approach keep the film on track. [Blu-Ray]", "is_fresh": 1, "author": ["Peter Canavese"]},
{"text": "... Entertaining and far more relevant than most other action/adventure movies.", "is_fresh": 1, "author": ["Greg Maki"]},
{"text": "So don't worry, take in a matinee.", "is_fresh": 1, "author": ["Eric Lurio"]},
{"text": "Has enough clich\u00e9s and cut-out characters to condemn it to mediocrity.", "is_fresh": 0, "author": ["Harry Guerin"]},
{"text": "Realizando um bom trabalho ao condensar o complexo livro de Clancy, o filme \u00e9 tenso, inteligente e conta com fortes atua\u00e7\u00f5es de todo o elenco - inclusive de Affleck, que confere uma curiosa vulnerabilidade ao her\u00f3i.", "is_fresh": 1, "author": ["Pablo Villa\u00e7a"]},
{"text": "It's a tired premise, and it's got its flaws, but the present talent makes it worthwhile.", "is_fresh": 1, "author": ["John R. McEwen"]},
{"text": "I didn't believe for a moment in these villains or their plot.", "is_fresh": 0, "author": ["Christopher Tookey"]},
{"text": "Tom Clancy franchise gets a surprisingly satisfying reinvention thanks to star Ben Affleck and director Phil Alden Robinson.", "is_fresh": 1, "author": ["James Rocchi"]},
{"text": "Not great filmmaking, probably not even vintage Clancy, but it's a good enough political thriller.", "is_fresh": 1, "author": ["Jean Lowerison"]},
{"text": "It's all fast and loud and pulse-pounding, of course, but nothing that we haven't seen dozens of times on screen after imaginary disasters.", "is_fresh": 0, "author": ["Margaret A. McGurk"]},
{"text": "Superior genre storytelling, which gets under our skin simply by crossing the nuclear line.", "is_fresh": 1, "author": ["Ian Waldron-Mantgani"]},
{"text": "The Sum of All Fears is remarkably fuddled about motives and context, which drains it of the dramatic substance that would shake us in our boots (or cinema seats).", "is_fresh": 0, "author": ["Urban Cinefile Critics"]},
{"text": "The exposition-heavy screenplay favours deathly dialogue scenes over actually showing us action unfolding.", "is_fresh": 0, "author": ["Mark Palermo"]},
{"text": "The Sum of All Fears proves that the Jack Ryan franchise still has some legs. Most importantly, it also has a brain.", "is_fresh": 1, "author": ["Jon Niccum"]},
{"text": "Clancy's world is strictly for the techno-nerds and frankly they're welcome to it.", "is_fresh": 0, "author": ["Victor Olliver"]},
{"text": "Deals with a chillingly topical nuclear attack on Baltimore. But perhaps more disturbingly, it rehashes it into a Ben Affleck action romance.", "is_fresh": 0, "author": ["Laura Bushell"]},
{"text": "All shame aside, not being a Tom Clancy fan or Jack Ryan fan, I did quite enjoy it. Is it Morgan Freeman?", "is_fresh": 1, "author": ["Karina Montgomery"]},
{"text": "Works on the levels you would expect it to but doesn't go the extra mile.", "is_fresh": 0, "author": ["Eugene Novikov"]},
{"text": "An implausible apocalypse without depth or resonance, a cartoon of international politics presented with no James Bond-like playfulness and with all the superficial realism money can buy.", "is_fresh": 0, "author": ["Michael Wilmington"]},
{"text": "El filme provoca que la audiencia piense y medite sobre el mundo en que habitamos, as\u00ed como en los obsoletos sistemas de gobierno que hemos creado como sociedad.", "is_fresh": 1, "author": ["Jorge Avila Andrade"]},
{"text": "If the measure of a movie is its ability to make you think about the ideas it contains, The Sum of All Fears is a success in many of the ways that count.", "is_fresh": 1, "author": ["Marshall Fine"]},
{"text": "A competent Tom Clancy thriller that's betrayed by a miscast Ben Affleck as Jack Ryan.", "is_fresh": 1, "author": ["Forrest Hartman"]},
{"text": "What would have been a surefire blockbuster in any other time is now a very hard film to \"enjoy\" post-9/11.", "is_fresh": 0, "author": ["Paul Salfen"]},
{"text": "If nothing else, this film may stand as a cultural testament to how times really have changed since Sept. 11 -- and not necessarily the way we'd expect.", "is_fresh": 1, "author": ["Gloria Goodale"]},
{"text": "The story holds your interest, but it has clear flaws relating to the villain and the parties to the conflict.", "is_fresh": 1, "author": ["Jim Chastain"]},
{"text": "(Not) the biggest or best film of this summer's blockbuster season, but it does hold up well under fire as long as you don't think about anything too hard.", "is_fresh": 0, "author": ["Kevin A. Ranson"]},
{"text": "To sum it up: heavy on imagination and light on reality.", "is_fresh": 1, "author": ["Kamal 'The Diva' Larsuel"]},
{"text": "A Alden Robinson, el director, le sent\u00f3 bien la amistad con Tom Hanks y Spielberg al haber dirigido recientemente para la TV, el drama de guerra Band of Brothers. ", "is_fresh": 1, "author": ["Luis Martinez"]},
{"text": "Affleck's performance is so lightweight that he feels like a secondary character, barely involved with this struggle against a terrorist nuclear attack.", "is_fresh": 0, "author": ["Gerry Shamray"]},
{"text": "The star who helped give a spark to \"Chasing Amy\" and \"Changing Lanes\" falls flat as thinking man CIA agent Jack Ryan in this summer's new action film, \"The Sum of All Fears.\"", "is_fresh": 0, "author": ["Vanessa Sibbald"]},
{"text": "...post-September 11, \"The Sum Of All Fears\" seems more tacky and reprehensible, manipulating our collective fear without bestowing the subject with the intelligence or sincerity it unequivocally deserves.", "is_fresh": 0, "author": ["Steven Snyder"]},
{"text": "I'm not saying Affleck is in way over his head, but a scuba tank and swim fins might come in handy.", "is_fresh": 0, "author": ["Bill Muller"]},
{"text": "takes on a gut-churning immediacy that is hard to deny", "is_fresh": 1, "author": ["James Kendrick"]},
{"text": "Sum\" is Jack Ryan's \"do-over.\" Give credit to everyone from Robinson down to the key grip that this bold move works. Especially give credit to Affleck.", "is_fresh": 1, "author": ["Jeffrey Westhoff"]},
{"text": "Action-packed and exciting!", "is_fresh": 1, "author": ["Matt Easterbrook"]},
{"text": "A tense, capably-made film that's exciting and realistic enough to satisfy filmgoers who've had their fill of Hollywood's usual ultra-unrealistic blockbuster fare.", "is_fresh": 1, "author": ["Brian Webster"]},
{"text": "I've felt more drama watching tornado chasers on The Weather Channel.", "is_fresh": 0, "author": ["Stephen Himes"]},
{"text": "Retreads a lot of familiar elements from other \"international thrillers\" while occasionally dipping its foot into the real-life horror of terrorism.", "is_fresh": 0, "author": ["Mike McGranaghan"]},
{"text": "A little more intensity and a little less charm would have saved this film a world of hurt.", "is_fresh": 0, "author": ["Rob Vaux"]},
{"text": "Affleck merely creates an outline for a role he still needs to grow into, a role that Ford effortlessly filled with authority.", "is_fresh": 0, "author": ["Peter Travers"]},
{"text": "The film doesn't really care about the thousands of Americans who die hideously, it cares about how Ryan meets his future wife and makes his start at the CIA.", "is_fresh": 0, "author": ["Catharine Tunnacliffe"]},
{"text": "It's been eight years since Clear and Present Danger, but this late-blooming entry shows that none of the luster has worn off the series.", "is_fresh": 1, "author": ["Matt Brunson"]},
{"text": "Is Ben Affleck such an indispensable talent -- or box-office draw -- that his presence is worth wrecking an entire film franchise to accomodate his youth?", "is_fresh": 0, "author": ["Jonathan R. Perry"]},
{"text": "Current events lend this an urgent intensity it probably was not intended to evince.", "is_fresh": 1, "author": ["MaryAnn Johanson"]},
{"text": "Affleck gets better with each film. It will be interesting to see him age with the Jack Ryan role.", "is_fresh": 1, "author": ["Bob Grimm"]},
{"text": "The sum of all parts adds up to a great Sum of All Fears", "is_fresh": 1, "author": ["Dan Marcucci and Nancy Serougi"]},
{"text": "Never in film history will there be a more nonchalant nuclear holocaust.", "is_fresh": 0, "author": ["Jimmy O"]},
{"text": "Filled with action, intrigue and tension, it is the best of all Clancy adaptations ...", "is_fresh": 1, "author": ["Robert Roten"]},
{"text": "Advance buzz for The Sum of All Fears was it was better than Red October. Rest assured, it's not. In fact, for the first hour, Sum isn't better than much of anything, and then boom . . . it turns into a good movie.", "is_fresh": 1, "author": ["Cory Cheney"]},
{"text": "If you don't examine certain aspects of the plot %u2013 hell, most aspects of the plot %u2013 too closely, it's a big-budget glossy suspenser with a marvelous cast that manages to occasionally cross the line into being a real nail-biter.", "is_fresh": 1, "author": ["Ken Hanke"]},
{"text": "There were moments in the theater where it was so quiet that I thought that people were literally scared to breathe. The nature of the film is that intense, but it is definitely a roller coaster ride worth going on.", "is_fresh": 1, "author": ["Danny Minton"]},
{"text": "Are these people out of their minds? It's hard to describe just how dirty and sickened The Sum of All Fears made me feel.", "is_fresh": 0, "author": ["Sean Burns"]},
{"text": "The effects are top-notch, the military equipment they use is pretty amazing, and the story is intense, but as a fan of the book I was a little disappointed.", "is_fresh": 0, "author": ["Cherryl Dawson and Leigh Ann Palone"]},
{"text": "A trite espionage thriller without the thrills but with a lingering measure of nausea.", "is_fresh": 0, "author": ["Michael Atkinson"]},
{"text": "The required suspension of disbelief is insurmountable.", "is_fresh": 0, "author": ["Tim Cogshell"]},
{"text": "\"Although efficiently produced with enough explosions and arguments to make sure no one dozes off, \"Sum\" falls into the same quagmire that swallowed up Arnold Schwarzenegger's \"Collateral Damage\" earlier this year.\"", "is_fresh": 0, "author": ["James Sanford"]},
{"text": "Director Phil Alden Robinson seems a bit out of his element, but he navigates the doomsday scenario with reasonable aplomb.", "is_fresh": 1, "author": ["Jim Lane"]},
{"text": "Begins as a political potboiler but is smart enough to find a place for an actual message in the midst of its intrigue.", "is_fresh": 1, "author": ["Mark Dujsik"]},
{"text": "If we're going to be swept away by a thriller of this kind, we need a hero that we can depend on -- one who makes us feel safe... [Affleck's] Jack Ryan doesn't have enough potency to do that.", "is_fresh": 0, "author": ["Jeffrey M. Anderson"]},
{"text": "Although the subject matter may still be too close to recent national events, the film works - mostly due to its superior cast of characters.", "is_fresh": 1, "author": ["Tony Toscano"]},
{"text": "The Sum of All Fears is almost impossible to follow -- and there's something cringe-inducing about seeing an American football stadium nuked as pop entertainment.", "is_fresh": 0, "author": ["Richard Roeper"]},
{"text": "It's the kind of empty Hollywood film that has been made since the onset of films.", "is_fresh": 0, "author": ["Dennis Schwartz"]},
{"text": "I can\u2019t really blame Affleck not being Harrison Ford. These days, not even Harrison Ford is Harrison Ford.", "is_fresh": 1, "author": ["Steven D. Greydanus"]},
{"text": "Phil Alden Robinson, who directed from a script by Paul Attanasio and Daniel Pyne, is an accomplished craftsman, but his movie has been upstaged by the sum of our fears.", "is_fresh": 0, "author": ["Peter Rainer"]},
{"text": "You want excitement, panic, and governmental foul-ups that result in tragic loss of life? Watch CNN.", "is_fresh": 0, "author": ["Marc Savlov"]},
{"text": "With a premise that is eerily similar to the tragic events of 9/11...it wavers somewhere on the disappointing line of emotional sterility.", "is_fresh": 0, "author": ["Dustin Putman"]},
{"text": "A two-hour nail biter that entertains right up to the last frame.", "is_fresh": 1, "author": ["Gary Brown"]},
{"text": "Adds up to a checklist of war-game clich\u00e9s and doomsday scenarios.", "is_fresh": 0, "author": ["Daniel Eagan"]},
{"text": "It's a smartly directed, grown-up film of ideas.", "is_fresh": 1, "author": ["Ella Taylor"]},
{"text": "More about sensation than about sense, and the ultimate resolution does not feel either ultimate or resolved.", "is_fresh": 1, "author": ["Nell Minow"]},
{"text": "It's a great movie. And I'm not only saying this because I'm in it!", "is_fresh": 1, "author": ["Kevin N. Laforest"]},
{"text": "Suffers because it seems so pale and ineffectual compared to the real thing.", "is_fresh": 0, "author": ["Donald Munro"]},
{"text": "Ben Affleck as Jack Ryan, Tom Clancy's intrepid hero? Ridiculous. What's next? D.J. Qualls as Indiana Jones? Or Tom Green as Han Solo?", "is_fresh": 0, "author": ["Betty Jo Tucker"]},
{"text": "Has something to disappoint nearly every constituency to which it appeals.", "is_fresh": 0, "author": ["Ann Hornaday"]},
{"text": "One that bombs literally and figuratively.", "is_fresh": 0, "author": ["Desson Thomson"]},
{"text": "Based on the 1991 Tom Clancy technothriller, this big-budget spectacle treads an uneasy path between the traditions of globe-trotting espionage movies and nightmare-inducing nuclear scare pictures like Fail Safe. The two don't really go together.", "is_fresh": 0, "author": ["Maitland McDonagh"]},
{"text": "The film starts slowly, gathers momentum and flattens audience reservations.", "is_fresh": 1, "author": ["Todd Anthony"]},
{"text": "Subtract the slickness, and Sum adds up to a smart thriller.", "is_fresh": 1, "author": ["Erik Lundegaard"]},
{"text": "If you can manage to turn off your brain or at least the more critical and analytical part of it, this isn't a half bad political thriller.", "is_fresh": 1, "author": ["Jim Judy"]},
{"text": "It's a movie that, frankly, I could not recommend to a friend, and yet I find no fault in the filmmaking.", "is_fresh": 0, "author": ["Mick LaSalle"]},
{"text": "You can fire a torpedo through some of Clancy's holes, and the scripters don't deserve any Oscars. But the nerve-raked acting, the crackle of lines, the impressive stagings of hardware, make for some robust and scary entertainment.", "is_fresh": 1, "author": ["David Elliott"]},
{"text": "The Sum of All Fears pretends to be a serious exploration of nuclear terrorism, but it's really nothing more than warmed-over Cold War paranoia.", "is_fresh": 0, "author": ["Charles Taylor"]},
{"text": "The film -- based on one of Tom Clancy's Jack Ryan novels, published in 1991 -- is excellent, both intelligent and thoughtful in its approach to a touchy subject and not the least bit exploitative or opportunistic.", "is_fresh": 1, "author": ["Joe Baltake"]},
{"text": "The film is on a par with the three previous Jack Ryan adventures -- and that's all any fan of the genre could want.", "is_fresh": 1, "author": ["Jack Garner"]},
{"text": "Watching this film, we can't shake our fears that we may be witnessing a version of our own previously unthinkable future.", "is_fresh": 1, "author": ["Jay Boyar"]},
{"text": "This engrossing, characteristically complex Tom Clancy thriller is shifty in the manner in which it addresses current terrorism anxieties and sidesteps them at the same time.", "is_fresh": 1, "author": ["Jan Stuart"]},
{"text": "It's a testament to how effective The Sum of All Fears really is that it sends you home feeling more scared than you were before.", "is_fresh": 1, "author": ["Rene Rodriguez"]},
{"text": "A nail-biting tension machine with such a compelling plot that it would work if you illustrated it with still photos.", "is_fresh": 1, "author": ["Robert W. Butler"]},
{"text": "The Sum Of All Fears does have a lot going for it, not least of which is an absolutely horrifying plot twist.", "is_fresh": 1, "author": ["Bruce Kirkland"]},
{"text": "Compelling filmmaking at its best.", "is_fresh": 1, "author": ["Louis B. Hobson"]},
{"text": "Toward the end Sum of All Fears morphs into a mundane '70s disaster flick.", "is_fresh": 0, "author": ["Bruce Westbrook"]},
{"text": "a tightly constructed political thriller overflowing with fanatical terrorists, red-faced politicians, double-crossing spies and hidden agendas", "is_fresh": 1, "author": ["Larry Carroll"]},
{"text": "Bold, imaginative, rational and persuasive an account of the lethally dangerous world we live in, The Sum of All Fears is an international spy drama with visceral impact.", "is_fresh": 1, "author": ["Susan Stark"]},
{"text": "A less-than-thrilling thriller.", "is_fresh": 0, "author": ["Jeff Vice"]},
{"text": "The explosion essentially ruined -- or, rather, overpowered -- the fiction of the movie for me.", "is_fresh": 0, "author": ["Steven Rosen"]},
{"text": "Has a taut script, good doses of twisting suspense, plenty of first-rate supporting players and one nuclear explosion that strikes eerily close to home -- in more ways than one.", "is_fresh": 1, "author": []},
{"text": "All that moviemaking money, plus all those gadgets, plus Ben Affleck: It doesn't add up to very much.", "is_fresh": 0, "author": ["Rick Groen"]},
{"text": "Robinson's web of suspense matches the page-turning frenzy that Clancy creates.", "is_fresh": 1, "author": ["Phil Villarreal"]},
{"text": "Plays like a cheesy '80s TV movie.", "is_fresh": 0, "author": ["Lou Lumenick"]},
{"text": "A mediocre terrorist melodrama turned even punier by real-life events.", "is_fresh": 0, "author": ["Mike Clark"]},
{"text": "Awash in explosions and plotted out the wazoo, full of sinister villains, exotic locations, and itself, the fourth Jack Ryan movie is also distressingly out of date.", "is_fresh": 0, "author": ["Cynthia Fuchs"]},
{"text": "The movie deftly reinvents the Tom Clancy series.", "is_fresh": 1, "author": ["Glenn Whipp"]},
{"text": "Director Phil Alden Robinson and his writers, Paul Attanasio and Daniel Pyne, do a spellbinding job of cranking up the tension.", "is_fresh": 1, "author": ["Roger Ebert"]},
{"text": "There's nothing ambiguous here -- no twisty plot lines, no out-of-left-field jolts. Just lots of angry boys with big angry toys designed to wipe out the whole ever-lovin' lot of us.", "is_fresh": 0, "author": ["Renee Graham"]},
{"text": "It may not be the most exciting Clancy movie made, but it certainly is the most human.", "is_fresh": 1, "author": ["Sean P. Means"]},
{"text": "Thirty years ago, it would have been groundbreaking. Now it's just tired.", "is_fresh": 0, "author": ["Eric D. Snider"]},
{"text": "Evidence accumulates as in a murder mystery, slowly building to an unforgettable climax", "is_fresh": 1, "author": ["Marty Mapes"]},
{"text": "If the film wasn't so well executed, it wouldn't have felt so frightening.", "is_fresh": 1, "author": ["Audrey Rock-Richardson"]},
{"text": "A politically correct war film of the Information Age--one that is whitewashed, predictable, and just a little too boring.", "is_fresh": 0, "author": ["Andrew Manning"]},
{"text": "The most exciting [two hours] I've spent on any would-be summer blockbuster in a long, long time.", "is_fresh": 1, "author": ["Terry Lawson"]},
{"text": "Intelligent and well-made.", "is_fresh": 1, "author": ["Chris Hewitt (St. Paul)"]},
{"text": "Even with a forced cheerful ending, absurdly unrealistic villains, somewhat clumsy plot mechanics and a script that blithely ignores the long-term problems of radiation poisoning, the film transcends the action genre to be a sobering wake-up call.", "is_fresh": 1, "author": ["William Arnold"]},
{"text": "I am still scratching my head at the callowness of the film's hero and at the haziness of the terrorist objective.", "is_fresh": 0, "author": ["Carrie Rickey"]},
{"text": "Even on its own ludicrous terms, The Sum of All Fears generates little narrative momentum, and invites unflattering comparisons to other installments in the Ryan series.", "is_fresh": 0, "author": ["Gary Thompson"]},
{"text": "It's a striking measure of the nervousness of the country right now that a movie so full of holes should be as gripping as it is, at least for its first two-thirds, after which it collapses into a swamp of sentimental mush.", "is_fresh": 0, "author": ["Stephen Holden"]},
{"text": "Has so little suspense or drama that it manages to make World War III into a PG-13-rated event.", "is_fresh": 0, "author": ["Duane Dudek"]},
{"text": "Absorbing and disturbing -- perhaps more disturbing than originally intended -- but a little clarity would have gone a long way.", "is_fresh": 1, "author": ["Kevin Thomas"]},
{"text": "A slick, well-oiled machine, exquisitely polished and upholstered.", "is_fresh": 1, "author": ["Philip Wuntch"]},
{"text": "The nonstop action takes you all over the planet, and you'll find yourself totally caught up in this exhilarating adventure.", "is_fresh": 1, "author": ["Paul Clinton (CNN.com)"]},
{"text": "A solid -- if routine -- entry in the Jack Ryan series.", "is_fresh": 1, "author": ["Dan Fazio"]},
{"text": "Director Phil Alden Robinson is able to set-up the film's second half with enough precision to shock us, frighten us and have us gripping the theater's armrests.", "is_fresh": 1, "author": ["Erik Childress"]},
{"text": "Taken outside the context of the current political climate (see: terrorists are more evil than ever!), The Sum of All Fears is simply a well-made and satisfying thriller.", "is_fresh": 1, "author": ["Scott Weinberg"]},
{"text": "According to Tom Clancy, \"commercial necessities dictate that we couldn't use a villain who would represent any conceivable international market for this movie. That narrowed our choices to Nazis, Redcoats, and Huns.\"", "is_fresh": 0, "author": ["Mark Ramsey"]},
{"text": "In terms of escapist fun, this one ranks right up there with a newsreel tour of ground zero in Hiroshima and Nagasaki.", "is_fresh": 0, "author": ["Glenn Lovell"]},
{"text": "Although it lacks the detail of the book, the film does pack some serious suspense.", "is_fresh": 1, "author": ["Tor Thorsen"]},
{"text": "An exciting action blockbuster.", "is_fresh": 1, "author": ["Rex Reed"]},
{"text": "I was impressed by how many tit-for-tat retaliatory responses the filmmakers allow before pulling the plug on the conspirators and averting an American-Russian Armageddon.", "is_fresh": 1, "author": ["Andrew Sarris"]},
{"text": "The story alone could force you to scratch a hole in your head.", "is_fresh": 0, "author": ["Robert Wilonsky"]},
{"text": "Can you be entertained by a fictional tale of nuclear terrorism right now? Doubtless plenty of people ... [will] find The Sum of All Fears chillingly effective. Others ... will just find it harrowing and pointlessly painful.", "is_fresh": 1, "author": ["Mary F. Pols"]},
{"text": "A middlebrow hybrid that should satisfy most fans of spy movies without blowing them away.", "is_fresh": 1, "author": ["Lawrence Toppman"]},
{"text": "The Sum of All Fears may not be super-smart, but it's rock-solid.", "is_fresh": 1, "author": ["Eleanor Ringel Cater"]},
{"text": "Robinson handles it all with a swift precision and an intense, jet-powered stride.", "is_fresh": 1, "author": ["Sean O'Connell"]},
{"text": "It was an okay movie with okay acting, an okay story and an okay premise...", "is_fresh": 1, "author": ["JoBlo"]},
{"text": "Sum's world is a moron-friendly version of Thirteen Days posing as current events, one where the Middle East is barely given a passing glance.", "is_fresh": 0, "author": ["Jeremiah Kipp"]},
{"text": "Ben Affleck is more than a stand-in for Harrison Ford.", "is_fresh": 1, "author": ["Owen Gleiberman"]},
{"text": "Sharply-written opening yields to predictable melodrama.", "is_fresh": 1, "author": ["Harvey S. Karten"]},
{"text": "A very capable nailbiter.", "is_fresh": 1, "author": ["Widgett Walls"]},
{"text": "Aspires for a nihilistic weariness that our new reality has made na\u00efve and conventional.", "is_fresh": 0, "author": ["Walter Chaw"]},
{"text": "Artfully shot, well scripted, with tremendous direction.", "is_fresh": 1, "author": ["Ross Anthony"]},
{"text": "There's no question that this is a well-made movie, but are you psychologically prepared to see a shocking depiction of what you're worried about in real life?", "is_fresh": 1, "author": ["Susan Granger"]},
{"text": "In light of the most recent terrorist warnings, this edgy thriller about a lost nuclear weapon reasonates with timely apprehension and dread.", "is_fresh": 1, "author": ["Jeanne Aufmuth"]},
{"text": "The movie does what all good thrillers should do -- provide enough shocks and surprises to keep us guessing, and never lets up on the suspense until the end credits arrive.", "is_fresh": 1, "author": ["James Berardinelli"]},
{"text": "Vigorously directed by Phil Alden Robinson and tautly scripted by Paul Attanasio and Daniel Pyne.", "is_fresh": 1, "author": ["David Hunter"]},
{"text": "It's just not the thinking person's spy thriller it pretends to be.", "is_fresh": 0, "author": ["Rob Blackwelder"]},
{"text": "Comes across as a relic from a bygone era, and its convolutions...feel silly rather than plausible.", "is_fresh": 0, "author": ["Frank Swietek"]},
{"text": "\"The Sum of All Fears\" is an intelligent, adult thriller that reps a very good alternative to the blockbuster, fantasy flicks out there.", "is_fresh": 1, "author": ["Robin Clifford"]},
{"text": "the best Clancy screen adaptation to date", "is_fresh": 1, "author": ["Laura Clifford"]},
{"text": "In The Sum of All Fears, Evil is fond of anecdotes and opera music, speaks with ghoulish inflections and consumes only luxury food products.", "is_fresh": 0, "author": ["Ed Gonzalez"]},
{"text": "A shockingly brutal and incredibly realistic look at a devastating terrorist act committed on U.S. soil.", "is_fresh": 1, "author": ["Jon Popick"]},
{"text": "Breathes fresh life into a durable film franchise that, based on this installment, still has a promising future. ", "is_fresh": 1, "author": ["Michael Dequina"]},
{"text": "If you liked Tom Clancy's other films, you'll like this.", "is_fresh": 1, "author": ["Scott Chitwood"]},
{"text": "Directed brilliantly, it is a great film whose power might have been missed or ridiculed before 9-11 and whose subject would have been too hard to take right after 9-11.", "is_fresh": 1, "author": ["Steve Rhodes"]},
{"text": "The unequivocal death of the Jack Ryan franchise.", "is_fresh": 0, "author": ["Christopher Null"]},
{"text": "Now see why Harison Ford decided not to play Jack Ryan once again in this very flawed film.", "is_fresh": 1, "author": ["Garth Franklin"]},
{"text": "", "is_fresh": 0, "author": ["Joe Lozito"]},
{"text": "", "is_fresh": 1, "author": []},
{"text": "", "is_fresh": 1, "author": []},
{"text": "", "is_fresh": 0, "author": ["Scott Nash"]},
{"text": "", "is_fresh": 0, "author": ["Daniel Kasman"]},
{"text": "", "is_fresh": 1, "author": []},
{"text": "", "is_fresh": 0, "author": ["Matthew Turner"]},
{"text": "", "is_fresh": 1, "author": ["Robert Denerstein"]},
{"text": "", "is_fresh": 1, "author": ["Bob Bloom"]},
{"text": "", "is_fresh": 1, "author": ["Scott A. Mantz"]},
{"text": "", "is_fresh": 0, "author": ["Emily Blunt"]},
{"text": "", "is_fresh": 1, "author": ["Mark R. Leeper"]},
{"text": "", "is_fresh": 1, "author": ["Brian Orndorf"]},
{"text": "", "is_fresh": 1, "author": ["Kit Bowen"]}
]