[
{"reviews_count": "89", "title": "The Silence of the Lambs", "avg_audience_rating": "4.1", "rotten_count": "4", "tomatometer": "96", "audience_score": "95", "avg_critic_rating": "8.7", "fresh_count": "85", "user_ratings_count": "845,836"},
{"text": "It is a masterclass of acting, directing, writing and cinematography, of tonality, of pacing and of emotion.", "is_fresh": 1, "author": ["Tara Thorne"]},
{"text": "Hopkins as Lecter is chilling throughout, and he delivers one of the best final lines in movie history.", "is_fresh": 1, "author": ["Shannon Kolkedy"]},
{"text": "Harrowing, tense, and unforgettable...", "is_fresh": 1, "author": ["Sean Fennessey"]},
{"text": "Demme's use of close-ups is remarkable, and not something that's translated into contemporary film language too often anymore: Faces, eyes, hands; they're everywhere, making the suspense personal, and therefore way more frightening.", "is_fresh": 1, "author": ["Eric Melin"]},
{"text": "Jonathan Demme's Silence of the Lambs has everything you want in a popular thriller. It's stylish, intelligent, audacious rather than shocking, and stolen by a suave monster you'll never forget.", "is_fresh": 1, "author": ["Jay Carr"]},
{"text": "[Jonathan] Demme uses some surprising methods to create a thriller that is cold, baroque and brutal. [Full Review in Spanish] ", "is_fresh": 1, "author": ["Luis Mart\u00ednez"]},
{"text": "A great movie rarity.", "is_fresh": 1, "author": ["Jeff Simon"]},
{"text": "The Silence of the Lambs is without a doubt one of the most disturbing thrillers in the history of cinema. [Full Review in Spanish]", "is_fresh": 1, "author": ["Covadonga G. Lahera"]},
{"text": "One of the all-time great thrillers. Demme directs this for maximum suspense, yet the film also works as a multilayered feminist tale, with Foster's resourceful agent emerging as a beautifully conceived character.", "is_fresh": 1, "author": ["Matt Brunson"]},
{"text": "Hopkins' performance is spectacularly unnerving and should win him future award nominations. Holding her own against Hopkins' hare is Jodie Foster as the tenacious, tortoise-like trainee.", "is_fresh": 1, "author": ["Duane Byrge"]},
{"text": "Anthony Hopkins is devastatingly demonic in Jonathan Demme's truly horrifying thriller.", "is_fresh": 1, "author": ["Jan Stuart"]},
{"text": "Nearly three decades on, The Silence of the Lambs doesn't just hold up: it still startles in finesse and execution.", "is_fresh": 1, "author": ["Joseph Walsh"]},
{"text": "Are these the laws of desire in a decaying culture built on the husks of atrophied ideals, where longing is a destructive touch and relationships are made out of perverse torment?", "is_fresh": 1, "author": ["Lizzie Francke"]},
{"text": "One of Demme's great skills is his sense of balance; set pieces are alternately propelled by ratcheting tension and slow, mounting dread, while his exquisite match cuts between parallel storylines keep the pace nimble.", "is_fresh": 1, "author": ["Simran Hans"]},
{"text": "Anthony Hopkins' performance as Lecter is an uproarious technical masterpiece.", "is_fresh": 1, "author": ["Peter Bradshaw"]},
{"text": "An exquisite piece of filmmaking in which basically not one single thing goes wrong at any point.", "is_fresh": 1, "author": ["Tim Brayton"]},
{"text": "The Silence of the Lambs, with its dark Freudian subtext, its Poe-like air of foreboding and its chillingly gritty characterizations, is simply a very tough and very scary little movie.", "is_fresh": 1, "author": ["Dennis King"]},
{"text": "The movie, scary and graphic to cause timid souls (such as this writer) to close their eyes at certain points, has a vise-like grip on the audience.", "is_fresh": 1, "author": ["Kathleen Carroll"]},
{"text": "Jonathan Demme's hypnotic adaptation of the Thomas Harris novel has a seriousness and intensity that's been entirely lacking in horror movies lately.", "is_fresh": 1, "author": ["John Hartl"]},
{"text": "Hopkins' cumulative screen image is one of civility and decency, and the association adds to the withering, macabre effect of his murderer. It is a remarkably lucid portrait of lunacy.", "is_fresh": 1, "author": ["Desmond Ryan"]},
{"text": "As Lecter, Anthony Hopkins gives an astounding performance -- eery, menacing, creepy, believable.", "is_fresh": 1, "author": ["Chauncey Mabe"]},
{"text": "The confrontations between Foster and Hopkins -- facing her from an ultrasecure cell -- are models of chilling intensity.", "is_fresh": 1, "author": ["Ralph Novak"]},
{"text": "Demme comes at Harris' material from another angle: His movie may deal with madness, but his perspective is mercifully sane.", "is_fresh": 1, "author": ["Jay Boyar"]},
{"text": "It's a gnarled, brutal, highly manipulative film that, at its center, seems morally indefensible.", "is_fresh": 0, "author": ["Dave Kehr"]},
{"text": "Jonathan Demme's thriller is artful pulp -- tabloid material treated with intelligence and care and a weird kind of sensitivity.", "is_fresh": 1, "author": ["Terrence Rafferty"]},
{"text": "Has any horror movie equalled it in the past 22 years? Perhaps. But if only one super-gory flick is ever considered worthy enough for the Academy's top prize, I'm fine with this being it.", "is_fresh": 1, "author": ["Simon Miraudo"]},
{"text": "This multi-Oscar-winning classic, adapted from Thomas Harris's bestseller, was responsible for giving cinematic serial killers a better image, thanks to Anthony Hopkins's enthralling portrayal of Hannibal Lecter.", "is_fresh": 1, "author": ["John Ferguson"]},
{"text": "An exceptionally good film, perhaps this fine director's best, in which the horror genre is elevated into the kind of cinema that can at least be argued about as a treatise for its unsettling times.", "is_fresh": 1, "author": ["Derek Malcolm"]},
{"text": "Hopkins' performance may be the film's bravura showpiece, but Foster's goes the whole distance, steadfast, controlled, heartbreakingly insightful, a fine addition to her gallery of characterizations.", "is_fresh": 1, "author": ["Sheila Benson"]},
{"text": "Foster's character, who is appealing, is dwarfed by the monsters she is after. I'd rather see her work on another case.", "is_fresh": 0, "author": ["Gene Siskel"]},
{"text": "FBI agent Clarice Starling (Jodie Foster), brainiac cannibal Hannibal Lecter (Anthony Hopkins) and tackle-tucking serial killer Jame Gumb (Ted Levine) make for one of cinema's great m\u00e9nages \u00e0 trois.", "is_fresh": 1, "author": ["Jamie Graham"]},
{"text": "[VIDEO ESSAY] \"Hannibal the Cannibal\" is the ultimate anti-hero. ", "is_fresh": 1, "author": ["Cole Smithey"]},
{"text": "Thriller that made the serial killer a superstar.", "is_fresh": 1, "author": ["Charles Cassady"]},
{"text": "The odd psychological interplay between the gutsy, but green, Starling and the deranged, yet fascinating, Lecter provides the basic tone for Jonathan Demme's well-made, insidious shocker.", "is_fresh": 1, "author": ["Steve Newton"]},
{"text": "Not a second of this two-hour flick, which redefined the term 'thriller' and spawned a host of clones, I can find error with.", "is_fresh": 1, "author": ["Garth Franklin"]},
{"text": "Screenwriters and directors can turn to this classic film for a primer on how to create incredible tension and horror far in excess of what we actually see onscreen.", "is_fresh": 1, "author": ["Brian Webster"]},
{"text": "All of its most enduring aesthetic qualities and themes%u2014essentially what sets it apart from so many imitators and established it almost immediately as a canonical film%u2014are contained in its riveting first 20 minutes, which draw you in like a stee", "is_fresh": 1, "author": ["James Kendrick"]},
{"text": "It has maintained its reputation as a chilling drama after all these years...", "is_fresh": 1, "author": ["Rory L. Aronsky"]},
{"text": "This is the grandest guignol Hollywood has produced in years.", "is_fresh": 1, "author": ["David Ansen"]},
{"text": "The Silence of the Lambs has appalling moments, but there's a thoughtfulness to it that helps offset the horrors it portrays.", "is_fresh": 1, "author": ["David Sterritt"]},
{"text": "A pretty sharp new thriller.", "is_fresh": 1, "author": ["Richard Corliss"]},
{"text": "Demme has the control of a born master of suspense.", "is_fresh": 1, "author": ["Rob Gonsalves"]},
{"text": "The juiciest part is Hopkins,' and he makes the most of it. Helped by some highly dramatic lighting, actor makes the role the personification of brilliant, hypnotic evil, and the screen jolts with electricity whenever he is on.", "is_fresh": 1, "author": ["Todd McCarthy"]},
{"text": "This is a still wonderful example of classy storytelling and unforgettable characterisation.", "is_fresh": 1, "author": []},
{"text": "A riveting, non-stop thriller of nerve-racking intensity.", "is_fresh": 1, "author": ["Chuck O'Leary"]},
{"text": "The over-the-top story reeks of phoniness, grisly violence and exploitation.", "is_fresh": 1, "author": ["Dennis Schwartz"]},
{"text": "Not since The Exorcist had a horror flick been this applauded! It was almost as if ... \"horror\" were its own legitimate genre!", "is_fresh": 1, "author": ["Scott Weinberg"]},
{"text": "An accomplished, effective, grisly, and exceptionally sick slasher film that I can't with any conscience recommend, because the purposes to which it places its considerable ingenuity are ultimately rather foul.", "is_fresh": 0, "author": ["Jonathan Rosenbaum"]},
{"text": "If you disregard the homophobic elements, you'll enjoy Demme's terrific thriller with brilliant acting from Hopkins, who makes a likable hero out of Hannibal, and Jodie Foster, as the agent who becomes his reluctant partner and romantic interest", "is_fresh": 1, "author": ["Emanuel Levy"]},
{"text": "The film comes through with flying colors.", "is_fresh": 1, "author": ["JoBlo"]},
{"text": "Understandably, much has been made of Hopkins' hypnotic Lecter, but the laurels must go to Levine's killer, admirably devoid of camp overstatement, and to Foster, who evokes a vulnerable but pragmatic intelligence.", "is_fresh": 1, "author": ["Geoff Andrew"]},
{"text": "A first unmissable, then enduring, but always unmissable classic.", "is_fresh": 1, "author": ["Barry McIlheney"]},
{"text": "It's a bona fide classic of its kind.", "is_fresh": 1, "author": ["Eleanor Ringel Cater"]},
{"text": "...the rare scary movie that allows its actors room to circle and brush lightly against on another, generating cool sparks.", "is_fresh": 1, "author": ["Philip Martin"]},
{"text": "The Academy also rightly awarded Best Actress to Foster for being the heart and soul of the piece.", "is_fresh": 1, "author": ["Jeffrey M. Anderson"]},
{"text": "the best serial-killer movie, ever!", "is_fresh": 1, "author": ["Stefan Birgir Stefansson"]},
{"text": "Foster follows up her Oscar-winning role in The Accused by playing a determined young woman with an unhappy past from West Virginia, and Hopkins is a sight: This guy is so scary he even hisses with style.", "is_fresh": 1, "author": ["Dan Webster"]},
{"text": "It's good, but it's not quite the classic it's touted as.", "is_fresh": 1, "author": ["Ken Hanke"]},
{"text": "The film's principle attraction stems not from the thrill of the hunt, but from the spellbinding skull sessions between Jodie Foster's heroine and Anthony Hopkins's brilliant, menacing villain.", "is_fresh": 1, "author": []},
{"text": "Brilliant, chilling and flawless. Hopkins delivers a villain for our times.", "is_fresh": 1, "author": ["Widgett Walls"]},
{"text": "A terrifying psychological drama about a brave modern day woman warrior.", "is_fresh": 1, "author": ["Frederic and Mary Ann Brussat"]},
{"text": "The Silence of the Lambs is pop film making of a high order. It could well be the first big hit of the year.", "is_fresh": 1, "author": ["Vincent Canby"]},
{"text": "It stands in a glass cage and scoffs at you!", "is_fresh": 1, "author": ["Kevin A. Ranson"]},
{"text": "Terrifying and inescapable. A perfect meditation on the nature of fear and courage, featuring two of the greatest performances ever put on film.", "is_fresh": 1, "author": ["Rob Vaux"]},
{"text": "Director Jonathan Demme keeps the film intense and haunting, and Jodie Foster compelling to watch.", "is_fresh": 1, "author": ["Kevin N. Laforest"]},
{"text": "[A] powerful, thought-provoking and surprisingly well-made film.", "is_fresh": 1, "author": ["Dragan Antulov"]},
{"text": "Lecter fascinates us because he embodies qualities that we associate with civilized, reasonable existence, yet he is murderously sociopathic.", "is_fresh": 1, "author": ["Steven D. Greydanus"]},
{"text": "Director Jonathan Demme and actors Jodie Foster and Anthony Hopkins expend considerable talent on a film that remains repellent and stubbornly unilluminating.", "is_fresh": 0, "author": ["Stephen Farber"]},
{"text": "It's by no mistake that The Silence of the Lambs is still considered one of the most important modern thrillers of all time. The reason, in simple terms, is that no movie looks or feels like Demme's movie.", "is_fresh": 1, "author": ["Chris Cabin"]},
{"text": "...gripping action, psychological thrills, and dramatic horror...a first-rate suspense chiller.", "is_fresh": 1, "author": ["John J. Puccio"]},
{"text": "Foster is typically soft and stoic as the FBI agent in way over her head; Scott Glenn is his usual leathery self as her superior officer; and Hopkins is simply petrifying.", "is_fresh": 1, "author": []},
{"text": "For all the unbridled savagery on display, what is shrewd, significant and finally hopeful about Silence of the Lambs is the way it proves that a movie can be mercilessly scary and mercifully humane at the same time.", "is_fresh": 1, "author": ["Peter Travers"]},
{"text": "Very few movies have ever won the five top Oscars: Best Actor, Actress, Screenplay, Director, and Picture.", "is_fresh": 1, "author": ["Ben Falk"]},
{"text": "No common follow-the-clues, get-the-bad-guy movie", "is_fresh": 1, "author": ["Carlo Cavagna"]},
{"text": "The popularity of Jonathan Demme's movie is likely to last as long as there is a market for being scared.", "is_fresh": 1, "author": ["Roger Ebert"]},
{"text": "A smart, restrained entertainment, it doesn't splash around in blood and hysteria.", "is_fresh": 1, "author": ["Desson Thomson"]},
{"text": "Adroitly directed by Jonathan Demme, it lurks about the exquisite edge of horror, before finally leaping into an unholy maw of bloody bones and self-awareness.", "is_fresh": 1, "author": ["Rita Kempley"]},
{"text": "There is little doubt that the most memorable aspect of The Silence of the Lambs is Anthony Hopkins' incomparable performance as Lecter.", "is_fresh": 1, "author": ["James Berardinelli"]},
{"text": "The Silence of the Lambs is a psychological thriller of the highest order, and well deserving of the unusual Oscar nod for Best Picture, never before bestowed upon a film like this.", "is_fresh": 1, "author": ["MaryAnn Johanson"]},
{"text": "The Silence of the Lambs (1991) is one of the most taut, suspenseful, psychological thrillers ever produced.", "is_fresh": 1, "author": ["Tim Dirks"]},
{"text": "The collaborative effort of Demme, Foster, Hopkins, and cinematographer Tak Fujimoto in The Silence of the Lambs has resulted in something very special to anyone who loves to be scared and challenged by a movie.", "is_fresh": 1, "author": ["Steve Davis"]},
{"text": "Suffice it to say there is much to admire here but beware if you are at all squeamish.", "is_fresh": 1, "author": ["Chris Hicks"]},
{"text": "This is one heavy thriller.", "is_fresh": 1, "author": ["Mark R. Leeper"]},
{"text": "Demme has created a supremely sensuous and hypnotic thriller, one that's likely to become his first major hit.", "is_fresh": 1, "author": ["Owen Gleiberman"]},
{"text": "", "is_fresh": 1, "author": ["Carol Cling"]},
{"text": "", "is_fresh": 1, "author": ["Mike McGranaghan"]},
{"text": "", "is_fresh": 1, "author": ["Ryan Cracknell"]},
{"text": "", "is_fresh": 1, "author": ["Mark Palermo"]},
{"text": "", "is_fresh": 1, "author": ["Nicolas Lacroix"]}
]