[
{"reviews_count": "194", "title": "The Monsters Inc.", "avg_audience_rating": "3.8", "rotten_count": "8", "tomatometer": "96", "audience_score": "90", "avg_critic_rating": "  8", "fresh_count": "186", "user_ratings_count": "1,254,397"},
{"text": "The uses of enchantment haven't changed; kids still need, maybe more than ever, the special comfort of fabulous threats they can control.", "is_fresh": 1, "author": ["Joe Morgenstern"]},
{"text": "It's a terrific piece of work: smart, inventive and executed with state-of-the-art finesse.", "is_fresh": 1, "author": ["David Ansen"]},
{"text": "It's funny, the characters are endearing, the monster world is cleverly developed, and the Pixar gang really has fun with this one.", "is_fresh": 1, "author": ["James Plath"]},
{"text": "Remains as wonderful and remarkably charming as it was when it was first released.", "is_fresh": 1, "author": ["John Hanlon"]},
{"text": "[A] fixedly sweet bedtime story and exercise in imaginative possibility.", "is_fresh": 1, "author": ["Tim Brayton"]},
{"text": "...the movie becomes a giddy, kiddie inversion of time and space.", "is_fresh": 1, "author": ["Josh Larsen"]},
{"text": "[I] really don't see the point of paying extra for children under eight. Their eyes are still developing, their noses are still small for slippery glasses, and... isn't a trip to the pictures enough for them in any case?", "is_fresh": 1, "author": ["Graham Young"]},
{"text": "If anything, it improves with age.", "is_fresh": 1, "author": ["Charlotte O'Sullivan"]},
{"text": "Monsters displays wonderful imagination which makes it worth reliving in an extra dimension - particularly the energetic chase scene along a conveyor belt of doors.", "is_fresh": 1, "author": ["Alex Zane"]},
{"text": "Pixar's soaringly lovely fourth feature ...", "is_fresh": 1, "author": ["Robbie Collin"]},
{"text": "[An] exciting, imaginative and very likable adventure.", "is_fresh": 1, "author": ["Henry Fitzherbert"]},
{"text": "Despite its eternal message about physical differences and the importance of love over fear of the unknown, Monsters, Inc primarily remains an ambitious concept film.", "is_fresh": 1, "author": ["Graham Young"]},
{"text": "It's in the visuals that 'Monsters Inc' comes to life, from the jazzy, Norman McLaren influenced opening to the hilarious, shakycam amateur-dramatic recap over the closing credits.", "is_fresh": 1, "author": ["Tom Huddleston"]},
{"text": "Another chance to see Pixar's most dazzling premise, now spruced up with a third dimension.", "is_fresh": 1, "author": ["Helen O'Hara"]},
{"text": "Now in 3D, the filmmakers have created a wonderful reality - the reality of Monstropolis, which like the worlds of Oz and Pleasantville, whisk us far, far away on a magic carpet of fantasy", "is_fresh": 1, "author": ["Louise Keller"]},
{"text": "A shrewdly timed reminder of Pixar's early, heady days, when the animation powerhouse could do no wrong.", "is_fresh": 1, "author": ["Ed Gibbs"]},
{"text": "This didn't need 3D to work. It long ago passed the kids-wear-out-the-DVD-rewatching-it test. ", "is_fresh": 1, "author": ["Roger Moore"]},
{"text": "There's really little reason to check out Monsters, Inc. 3D in... well, 3D, rather than going for a good old-fashioned 2D screening instead.", "is_fresh": 1, "author": ["Sandy Schaefer"]},
{"text": "It does well, but not brilliantly: an amusing trifle from a studio whose best work still lay ahead of it. ", "is_fresh": 1, "author": ["Rob Vaux"]},
{"text": "Not quite a Pixar classic, but funny, witty and visually spectacular enough to be enjoyed again on the big screen.", "is_fresh": 1, "author": ["Avi Offer"]},
{"text": "It may be harder nowadays to dazzle audiences with fancy visual effects, but Monsters, Inc. 3D proves that smart, imaginative storytelling still does the trick every time.", "is_fresh": 1, "author": ["Stephan Lee"]},
{"text": "Monsters, Inc. continues a positive 3D trend for the company, who appear to be selecting their upgraded titles wisely, choosing features that benefit from the additional depth.", "is_fresh": 1, "author": ["Brian Orndorf"]},
{"text": "Not even the opportunistic 3D-ification can squander the pure delight of the film's meticulously detailed world of ragtag creatures.", "is_fresh": 1, "author": ["Nick McCarthy"]},
{"text": "Most of the charm of \"Monsters Inc.\" comes from its vocal cast.", "is_fresh": 1, "author": ["Stephen Whitty"]},
{"text": "If history is any guide, you and your family - whether young or old - will probably want to see \"Monsters University\" over and over.", "is_fresh": 1, "author": ["Elizabeth Weitzman"]},
{"text": "The movie itself stands up well, even from an adult, two-dimensional perspective.", "is_fresh": 1, "author": ["Rob Salem"]},
{"text": "Its reassuring message is more relevant than ever.", "is_fresh": 1, "author": ["Colin Covert"]},
{"text": "[A] sparkling cartoon ...", "is_fresh": 1, "author": ["Neil Smith"]},
{"text": "A typically engrossing Pixar effort...", "is_fresh": 1, "author": ["David Nusair"]},
{"text": "Cute, kid-friendly monster movie; may scare sensitive kids.", "is_fresh": 1, "author": ["Nell Minow"]},
{"text": "Though \"Monsters, Inc.\" relies more on spinning-plates plot than its Pixar peers, this romp retains the charm and heart of the animation juggernaut's forte - adding extra to ordinary hopes, in this case leaving great impressions on the kids we love.", "is_fresh": 1, "author": ["Nick Rogers"]},
{"text": "A charming cartoon classic coming courtesy of a successful collaboration by the good folks at Disney and Pixar.", "is_fresh": 1, "author": ["Kam Williams"]},
{"text": "Monsters, Inc. is a celebration of unforgettable characters and a world unlike any other.", "is_fresh": 1, "author": ["Ryan Cracknell"]},
{"text": "From its jazzy main titles to its gentle fadeout, Monsters, Inc. has something that money can't buy. It's likeable. [Blu-ray]", "is_fresh": 1, "author": ["Peter Canavese"]},
{"text": "Disney's Pixar has done it again with the delightful Monsters, Inc.--so sit back, bring the whole family and have a wonderful time.", "is_fresh": 1, "author": ["Kit Bowen"]},
{"text": "A classic tale about love, friendship and surpassing the odds to find a common ground in a lonely world. ", "is_fresh": 1, "author": ["Felix Vasquez Jr."]},
{"text": "The complexities of the script, while clever, will likely fly over the heads of most within its target demographic.", "is_fresh": 0, "author": ["David N. Butterworth"]},
{"text": "The good guys are those who realize that laughter is stronger than fear. That's a message worth taking to heart these jittery days.", "is_fresh": 1, "author": ["Richard Corliss"]},
{"text": "The excellent basic ideas have yielded too few twists and dramatic junctures to keep the picture flying at the level at which it starts.", "is_fresh": 1, "author": ["Todd McCarthy"]},
{"text": "It's funny and endearing, but its strengths are more in the 'physical' humour than in the dialogue, which isn't as rich in wit as Pixar's previous outings.", "is_fresh": 1, "author": ["Daniel Etherington"]},
{"text": "The analogy to our dependence on, say, oil is soon abandoned, the better to blur the distinction between abstract and concrete--something older viewers of this 2001 animated adventure may appreciate more than younger ones.", "is_fresh": 1, "author": ["Lisa Alspector"]},
{"text": "Brighter and more exuberant than Shrek, this would be a worthy winner of the first animation Oscar.", "is_fresh": 1, "author": []},
{"text": "As witty and inspired as the company's previous animations, this magical tale benefits from its setting, Monstropolis, where monsters of ecery shape and size reside.", "is_fresh": 1, "author": ["Emanuel Levy"]},
{"text": "The balance tilts towards action and gags, and does them gloriously.", "is_fresh": 1, "author": ["Derek Adams"]},
{"text": "One thing counts head and shoulders above razzle-dazzle eye candy (or anything else, for that matter): the story and characters, and Monsters, Inc. introduces worthy additions to the Pixar pantheon.", "is_fresh": 1, "author": ["Michael Dequina"]},
{"text": "An undeniably entertaining success. For children, parents, babysitters, and lovers of imagination, Pixar continues to be a godsend.", "is_fresh": 1, "author": ["Steven Snyder"]},
{"text": "Pixar is the best studio in Hollywood.", "is_fresh": 1, "author": ["David Medsker"]},
{"text": "It's like a package of your favorite snacks that you open to discover is only half full.", "is_fresh": 1, "author": ["Jeffrey Overstreet"]},
{"text": "Monsters, Inc. is like an oasis in the middle of the desert, featuring the sort of writing [and] acting... that used to mark great movies. ", "is_fresh": 1, "author": ["Daniel M. Kimmel"]},
{"text": "Guaranteed to make you hoover up the popcorn and convince any kid that there's no need to be scared of whatever's lurking underneath the bed.", "is_fresh": 1, "author": ["Harry Guerin"]},
{"text": "The critical nature of my personality wants to find something bad to say about it, but, uh . . . I got nothin'", "is_fresh": 1, "author": ["Brian Mckay"]},
{"text": "With this combination of vocal talent, the colorful computer work, and sparkling script, Monsters, Inc. continues the proud tradition established by the Pixar/Disney animation cooperative.", "is_fresh": 1, "author": ["John R. McEwen"]},
{"text": "Another humorous entry in the Pixar collection, though their overall quality seems to be slipping.", "is_fresh": 1, "author": ["Wesley Lovell"]},
{"text": "A smart script, great characters, gorgeous animation, wild colours, superb voice cast -- what's not to love?", "is_fresh": 1, "author": ["Matthew Turner"]},
{"text": "I have no idea what the creative minds at Pixar Animation Studios do to keep themselves in touch with their inner kids, but if they could bottle it, the world would be a better place.", "is_fresh": 1, "author": ["Margaret A. McGurk"]},
{"text": "Monsters Inc. reminds us that studios desperately need to put the same amount of effort into live-action features that they do their animated counterparts.", "is_fresh": 1, "author": ["Forrest Hartman"]},
{"text": "This film is the pure antithesis of the ghastly Shrek, truly good-natured and visually pleasing to the eye", "is_fresh": 1, "author": ["Jason Clark"]},
{"text": "A visual triumph.", "is_fresh": 1, "author": ["Hazel-Dawn Dumpert"]},
{"text": "...love and kindness are a lot more powerful than a myriad of hatreds and dreads. I doubt that any of us outgrow our need to hear those kinds of lessons repeated.", "is_fresh": 1, "author": ["John J. Puccio"]},
{"text": "Crafted with enough heart, skill and energy to entertain audiences of all ages.", "is_fresh": 1, "author": ["Kevin N. Laforest"]},
{"text": "With its imaginative concepts delightfully executed, Monsters Inc is a colourful splash of monstrous wit and charm that will send you happily into nonsense land for 92 enjoyable minutes.", "is_fresh": 1, "author": ["Urban Cinefile Critics"]},
{"text": "A movie like Monsters, Inc. is a treasure.", "is_fresh": 1, "author": ["Jeffrey Chen"]},
{"text": "This flick is absolutely fantastic from top to bottom, beginning to end!", "is_fresh": 1, "author": ["John Venable"]},
{"text": "An irresistible bear hug of a movie.", "is_fresh": 1, "author": ["Jeffrey Westhoff"]},
{"text": "A lot like Shrek, except it doesn't suck.", "is_fresh": 1, "author": ["Jimmy O"]},
{"text": "a first-rate comedy, a truly exciting adventure and, when it wants to be, a touching tale of friendship. How many recent dramas can make the same claim?", "is_fresh": 1, "author": ["James Sanford"]},
{"text": "We've got a cartoon that has laughs, \"aahhh\" moments, and warm fuzzy monsters. There are heroes to cheer for and villains to hiss at, and one adorable little girl.", "is_fresh": 1, "author": ["Cherryl Dawson and Leigh Ann Palone"]},
{"text": "Disney and Pixar have done it again. And hopefully they will again, and again, and again.", "is_fresh": 1, "author": ["Audrey Rock-Richardson"]},
{"text": "works rather well until it introduces this annoying little girl as a plot device.", "is_fresh": 1, "author": ["Blake French"]},
{"text": "Qu podemos decir de Monsters Inc.? Vanguardia en animacin con todo el aroma y calidad del sello Pixar", "is_fresh": 1, "author": ["Luis Martinez"]},
{"text": "Triumphantly reconfirms the geniuses at Pixar as the 800-pound gorillas of modern animation and the reigning kings of family entertainment.", "is_fresh": 1, "author": ["Steven D. Greydanus"]},
{"text": "I don't mind flights of fancy in a film, but I do like a consistent tone. This film fails to deliver one.", "is_fresh": 0, "author": ["Jeremy Heilman"]},
{"text": "A wonderfully imaginative and very funny film that shows not only another leap in technology for [Pixar] but also an impressive maturation of their storytelling abilities.", "is_fresh": 1, "author": ["Mark Dujsik"]},
{"text": "Puts playful spin on childhood legend", "is_fresh": 1, "author": ["Ian Waldron-Mantgani"]},
{"text": "Staggeringly generous with its witty lines, its allusions, above all with its sheer visual spectacle.", "is_fresh": 1, "author": ["Peter Bradshaw"]},
{"text": "I enjoyed it.", "is_fresh": 1, "author": ["Peter Rainer"]},
{"text": "A hugely creative, fast-paced romp that will keep both children and their parents thoroughly entertained.", "is_fresh": 1, "author": ["Neil Smith"]},
{"text": "Es un peque\u00f1o paso adelante respecto de la animaci\u00f3n por computadora, pero un gran salto en cuanto a la diversi\u00f3n de alto calibre.", "is_fresh": 1, "author": ["Jorge Avila Andrade"]},
{"text": "A film that families will revisit in their living rooms many times over for many years to come.", "is_fresh": 1, "author": ["Michael Dequina"]},
{"text": "Simply adorable!", "is_fresh": 1, "author": ["Emily Blunt"]},
{"text": "... will undoubtedly takes its place as a classic for future generations.", "is_fresh": 1, "author": ["Ted Murphy"]},
{"text": "The people at Pixar outdo even themselves with this high-energy action comedy.", "is_fresh": 1, "author": ["Rich Cline"]},
{"text": "Groundbreaking computer-animation house Pixar has created another wondrous world in Monsters, Inc.", "is_fresh": 1, "author": ["Kevin Lally"]},
{"text": "It made me laugh, gasp in amazement, almost cry. Then it made me happy for about a week. Then I saw it again. It's that good.", "is_fresh": 1, "author": ["Eugene Novikov"]},
{"text": "A somewhat repetitive but spirited comedy-adventure.", "is_fresh": 1, "author": ["Mark Halverson"]},
{"text": "On an artistic and creative level, \"Monsters, Inc.\" may be the most visionary, intricate and offbeat product released by Pixar.", "is_fresh": 1, "author": ["David Keyes"]},
{"text": "Monsters, Inc. breaks ground as a computer-animated feature while still remaining true to the concepts of characterization and story.", "is_fresh": 1, "author": ["Mike McGranaghan"]},
{"text": "The plot premises of Monsters, Inc. strike me as downright peculiar for a supposed children's entertainment.", "is_fresh": 0, "author": ["Andrew Sarris"]},
{"text": "I hate to sound cliche, but Monsters, Inc. really is the feel-good movie of the year.", "is_fresh": 1, "author": ["Matt Easterbrook"]},
{"text": "Even with all the good cheer on display, this represents the first instance in which Pixar's ability to produce a thoroughly magical experience hits a brick wall.", "is_fresh": 0, "author": ["Chuck Rudolph"]},
{"text": "Witty and imaginative, Monsters, Inc. could be Pixar's best yet.", "is_fresh": 1, "author": ["Jason Anderson"]},
{"text": "strikes a near-perfect balance between absolute hilarity and effective sentimentality", "is_fresh": 1, "author": ["James Kendrick"]},
{"text": "The Pixar crew is so freakin' creative I don't know how they sleep at night without their heads exploding. Maybe they are issued special helmets.", "is_fresh": 1, "author": ["Karina Montgomery"]},
{"text": "Even though the film loses some steam about midway through, the visual extravaganza is sure to keep you occupied until the breathtaking, edge-of-your-seat climax.", "is_fresh": 1, "author": ["Scott A. Mantz"]},
{"text": "Pixar does not disappoint, as though anyone expected them to.", "is_fresh": 1, "author": ["Widgett Walls"]},
{"text": "This is a pleasant, amusing and entertaining film.", "is_fresh": 1, "author": ["Robert Roten"]},
{"text": "A funny and frolicsome computer-animated feature that proves once and for all that laughter is a better renewable energy source than scares.", "is_fresh": 1, "author": ["Frederic and Mary Ann Brussat"]},
{"text": "Another wonderfully warm, funny, adventurous, and fantastic looking effort from Pixar.", "is_fresh": 1, "author": ["David Forsmark"]},
{"text": "The chase scene through a conveyor belt full of closet doors is the highlight of the film.", "is_fresh": 1, "author": ["Gary Brown"]},
{"text": "Expect to have a jolly good time with a prodigiously imaginative and energetic romp.", "is_fresh": 1, "author": ["Joe Leydon"]},
{"text": "Cute, likable, and a lot of fun.", "is_fresh": 1, "author": ["Mark R. Leeper"]},
{"text": "A few weak points appear... but the only reason they stand out is because we're so used to Pixar knocking the ball out of the park.", "is_fresh": 1, "author": ["Rob Vaux"]},
{"text": "Dazzling to look at but lacking the social message of last year's marvelous 'Chicken Run.'", "is_fresh": 1, "author": ["Harvey S. Karten"]},
{"text": "It's almost beyond the point to say that this new collaboration between animation behemoths Disney and Pixar is wildly entertaining; what else could it be?", "is_fresh": 1, "author": ["Marc Savlov"]},
{"text": "For all the film's obvious unreality, the characters seem distinctly human -- especially the monsters -- and the story is simple and compelling.", "is_fresh": 1, "author": ["Tracy McLoone"]},
{"text": "A wildly imaginative, quality family film that both children and adults will be able to enjoy equally.", "is_fresh": 1, "author": ["Dustin Putman"]},
{"text": "If Monsters Inc. isn't the \"instant classic\" that the Toy Story films are, well then it's pretty damn close.", "is_fresh": 1, "author": ["Scott Weinberg"]},
{"text": "It's agreeable and often funny, and adults who take their kids to see it might be surprised to find themselves having a pretty good time.", "is_fresh": 1, "author": ["Charles Taylor"]},
{"text": "It should be put in the dictionary to illustrate the word, \"adorable.\"", "is_fresh": 1, "author": ["Nell Minow"]},
{"text": "Carries a subtle message that's chicken soup for the American psyche.", "is_fresh": 1, "author": ["Brian Webster"]},
{"text": "The Pixar computer animation is amazing, more than twice as complex as in Toy Story 2, and the vocals are superb...", "is_fresh": 1, "author": ["Susan Granger"]},
{"text": "It's basic, but man is Monsters, Inc. a load of fun.", "is_fresh": 1, "author": ["Jeffrey Huston"]},
{"text": "Pound for pound, no film this year has been as genuinely witty as Monsters, Inc.", "is_fresh": 1, "author": ["Eric D. Snider"]},
{"text": "What Monsters, Inc. loses in terms of adult-driven humor, it makes up for in terms of story and charm.", "is_fresh": 1, "author": ["Jim Chastain"]},
{"text": "Is the film as knowing and hilarious in the manner of Shrek? No, and there aren't any DreamWorks jokes, either. But it does hold on fiercely to the idea of clever, heartwarming family fun. And for that, Monsters deserves lots of good ink.", "is_fresh": 1, "author": ["Donald Munro"]},
{"text": "Monsters Inc is delivered with such joy and exuberance blatant plot holes are easily forgiven.", "is_fresh": 1, "author": ["Tony Toscano"]},
{"text": "The movie runs through a seemingly endless supply of monster gags.", "is_fresh": 1, "author": ["Sean P. Means"]},
{"text": "Supple and technologically sophisticated entertainment.", "is_fresh": 1, "author": ["Desson Thomson"]},
{"text": "An amusing family fable.", "is_fresh": 1, "author": ["Rita Kempley"]},
{"text": "Though the comedy is sometimes more frenetic than inspired and viewer emotions are rarely touched to any notable degree, the movie is as visually inventive as its Pixar predecessors.", "is_fresh": 1, "author": ["Mike Clark"]},
{"text": "Though a bit indulgent of its star power at times, Monsters is funny and sweet enough to delight kids and inventive enough to satisfy adults.", "is_fresh": 1, "author": ["Carla Meyer"]},
{"text": "Purely realist animation could turn as flat and empty as the worst salon painting of the 19th century, but the Pixar pixies are doing something fresh and fetching, somewhere between Maxfield Parrish and classic Warner Bros.", "is_fresh": 1, "author": ["David Elliott"]},
{"text": "Might have been more effective as a short. Still, I hate to quibble about so likable a movie, especially one that has one of the nicest fade-out lines in a long time -- one sure to leave you misty-eyed and with a little lump in your throat.", "is_fresh": 1, "author": ["Joe Baltake"]},
{"text": "As with the Toy Story saga, Monsters, Inc. uses juicy digital artistry, hip savoir faire and vaudeville razzmatazz to inquire about the nature of imagination itself.", "is_fresh": 1, "author": ["Gene Seymour"]},
{"text": "A worthy competitor to DreamWorks' Shrek for the first Best Animated Feature Oscar.", "is_fresh": 1, "author": ["Lou Lumenick"]},
{"text": "You have to hand it to those guys at Pixar. They know how to take a universal childhood experience and extrapolate it into a highly entertaining, funny and frequently touching animated film experience.", "is_fresh": 1, "author": ["Robert W. Butler"]},
{"text": "Goodman and Crystal are as memorable and lovable a comedy duo as Laurel and Hardy, Abbot and Costello, Burns and Allen or Martin and Lewis.", "is_fresh": 1, "author": ["Louis B. Hobson"]},
{"text": "The new Disney-Pixar picture Monsters, Inc. will rock your world and send you home happy.", "is_fresh": 1, "author": ["Bruce Kirkland"]},
{"text": "It really doesn't matter what age you are, it's delightful.", "is_fresh": 1, "author": ["Dave White"]},
{"text": "Apart from one lovely scene -- where the monsters and child climb over a moving assembly line of doors, leaping in and out of different realities -- Monsters, Inc. fails to develop the poetic richness of its metaphor.", "is_fresh": 0, "author": ["Liam Lacey"]},
{"text": "'Polished' is the operative word; the dialogue gleams like the assembly line at Monsters, Inc.", "is_fresh": 1, "author": ["Terry Lawson"]},
{"text": "A winner from beginning to end.", "is_fresh": 1, "author": ["Tom Long"]},
{"text": "Another showcase for Pixar's ever-improving animation technology.", "is_fresh": 1, "author": ["Jeff Vice"]},
{"text": "Monsters, Inc. just can't figure out how to elaborate on and flesh out this parallel universe in a way that stays novel. It opts for an easy plot development -- and a babyish one at that.", "is_fresh": 0, "author": ["Steven Rosen"]},
{"text": "Monsters, Inc. is cheerful, high-energy fun, and like the other Pixar movies, has a running supply of gags and references aimed at grownups.", "is_fresh": 1, "author": ["Roger Ebert"]},
{"text": "Its twists and turns are as unpredictable as they are delightful, and the quality of the animation simply staggering.", "is_fresh": 1, "author": ["Wade Major"]},
{"text": "Skillfully done, and more than passably enjoyable.", "is_fresh": 1, "author": ["Jay Carr"]},
{"text": "Not that the monster puns aren't funny...", "is_fresh": 1, "author": ["Marty Mapes"]},
{"text": "The humor is this film's redeeming quality, and it carries its burden well, plopping in slapstick and burp jokes for the kids and a scathing satire of factory workplaces to make adults giggle.", "is_fresh": 1, "author": ["Phil Villarreal"]},
{"text": "A bland, computer-animated feature.", "is_fresh": 0, "author": ["Frank Lovece"]},
{"text": "A marvelous combination of lollipop visuals, brilliant screenwriting, sharp comedic timing and, above all, overflowing amounts of heart.", "is_fresh": 1, "author": ["Melanie McFarland"]},
{"text": "Once again, Pixar pushes the envelope on the art of computer graphics.", "is_fresh": 1, "author": ["William Arnold"]},
{"text": "The film is highly entertaining, imaginative and should please adults just as much as it does kids.", "is_fresh": 1, "author": ["Jim Judy"]},
{"text": "Despite its relatively brief running time, Monsters lets us get to know each of its characters well enough to miss them when they're gone.", "is_fresh": 1, "author": ["Bruce Newman"]},
{"text": "All in all, you'll have a ball.", "is_fresh": 1, "author": ["Jack Garner"]},
{"text": "Overflows with clever gags, stunning visuals, shrewd matching of vocal talent and animated characters.", "is_fresh": 1, "author": ["Gary Thompson"]},
{"text": "Dazzles with humor and spectacular visuals that are worlds apart from Shrek and Atlantis.", "is_fresh": 1, "author": ["Cameron Meier"]},
{"text": "It's really great moviemaking, even when the script grows overly familiar, which, finally, it does.", "is_fresh": 1, "author": ["Shawn Levy"]},
{"text": "What makes Monsters, Inc. so wonderful is that it's about scream deficit, yet all great cartoons are powered by screams. It's a tribute to noise, so how can you not fall in love with it?", "is_fresh": 1, "author": ["Elvis Mitchell"]},
{"text": "The mad geniuses at Pixar have once again created a unique, original and downright funny fantasy for all ages.", "is_fresh": 1, "author": ["Joe Lozito"]},
{"text": "While Shrek had an adult sensibility, Monsters, Inc. has a more childlike quality.", "is_fresh": 1, "author": ["Duane Dudek"]},
{"text": "Movies like Monsters, Inc. literally make you feel like a kid again, marveling at the joyously inventive sights before you, and that's a feat that should not be taken lightly.", "is_fresh": 1, "author": ["Rene Rodriguez"]},
{"text": "Monsters, Inc. has its charms but can't match its predecessors' sophistication.", "is_fresh": 1, "author": ["Kenneth Turan"]},
{"text": "It's an 800-pound gorilla of a movie, and now PDI has the challenge of answering back.", "is_fresh": 1, "author": ["Bruce Westbrook"]},
{"text": "Does Monsters, Inc. have what it takes to scare the 'S' outta Shrek when it comes to digital animation supremacy? Visually, yes.", "is_fresh": 1, "author": []},
{"text": "This is a film to watch, to enjoy, but not to remember with warmth. Sulley and Boo remain two potentially charming characters waiting for a movie that will cherish them.", "is_fresh": 1, "author": ["Philip Wuntch"]},
{"text": "A sweet and gentle affirmation of childhood innocence.", "is_fresh": 1, "author": ["Glenn Whipp"]},
{"text": "The animation has to take a back seat because what's happening emotionally is by its very nature more engaging.", "is_fresh": 1, "author": ["Mary F. Pols"]},
{"text": "Although lacking some of the inspired magic of the Toy Story movies, Monsters boasts a crafty balance of witty humor and delicious villainy.", "is_fresh": 1, "author": ["Jonathan Taylor"]},
{"text": "Scripts by committees usually become generic, but the six people credited with this story and screenplay have created a specific, unique and consistent world.", "is_fresh": 1, "author": ["Lawrence Toppman"]},
{"text": "The illusion of life just gets more and more convincing in these computer-animated movies, and in Monsters, Inc., it is truly remarkable.", "is_fresh": 1, "author": ["Jay Boyar"]},
{"text": "Though this comes from some of the same creative team as the Toy Story movies, Monsters, Inc. is aimed more at the kiddies: it's simpler, sweeter, less deeply affecting.", "is_fresh": 1, "author": ["MaryAnn Johanson"]},
{"text": "More a Disney flick than a Pixar production.", "is_fresh": 1, "author": ["Sean O'Connell"]},
{"text": "For most of Monsters, Inc.'s running time, I worried that it didn't have as much heart as the Toy Story films, but my worries were allayed by a final image that turns computer circuitry into an image of pure, exultant joy.", "is_fresh": 1, "author": ["Chris Hewitt (St. Paul)"]},
{"text": "Every frame pulses with vivid color and creativity.", "is_fresh": 1, "author": ["Todd Anthony"]},
{"text": "Adding another cinematic gem to their collective resume, Pixar proves they can make scary monsters look warm and fuzzy, and make humans feel that way, too.", "is_fresh": 1, "author": ["Mary Kalin-Casey"]},
{"text": "Shrek is a scintilla funnier, Toy Story 2 a hair's breadth more poignant, but MI is every bit as imaginative and lovable as these other contemporary animation classics.", "is_fresh": 1, "author": ["Carrie Rickey"]},
{"text": "As giddy and antic as any great Warner Bros. cartoon of the 1930s and '40s.", "is_fresh": 1, "author": ["Robert Wilonsky"]},
{"text": "It's quite good, but still....", "is_fresh": 1, "author": ["Eric Lurio"]},
{"text": "Indeed, Monsters, Inc. has got that swing, that zippity, multilevel awareness of kids'-eye sensibilities and adult-pitched humor.", "is_fresh": 1, "author": ["Lisa Schwarzbaum"]},
{"text": "If you have young kids, Monsters, Inc. should be a holiday stop.", "is_fresh": 1, "author": ["Paul Clinton (CNN.com)"]},
{"text": "Every bit as sly-witted as Shrek but not nearly so self-conscious.", "is_fresh": 1, "author": ["Mark Caro"]},
{"text": "Speaking purely from an adult perspective, \"Monsters\" is real entertainment. It tickled me to tears. See it!", "is_fresh": 1, "author": ["Ross Anthony"]},
{"text": "The best kids-of-all-ages movie of the year -- yes, even better than Shrek.", "is_fresh": 1, "author": ["Rob Blackwelder"]},
{"text": "Pixar continues to dazzle.", "is_fresh": 1, "author": ["Edward Johnson-Ott"]},
{"text": "The first half of Monsters, Inc. is one of the funnier comedies of the year.", "is_fresh": 1, "author": ["J. Robert Parks"]},
{"text": "Make no mistake that Monsters Inc. would be a fine work nonetheless, but only half the film in any other time.", "is_fresh": 1, "author": ["Walter Chaw"]},
{"text": "It's the Pixar animators who keep grown-ups as riveted as the kids with visual marvels that dazzle and delight.", "is_fresh": 1, "author": ["Peter Travers"]},
{"text": "... a terrific choice for the whole family, ... [but compared to all of the previous Pixar films, it's] a bit of a disappointment.", "is_fresh": 1, "author": ["Steve Rhodes"]},
{"text": "Monsters, Inc. is hilarious, exciting, miraculous to look at and is easily one of the best films of the year.", "is_fresh": 1, "author": ["Erik Childress"]},
{"text": "Despite some flaws, for the most part it offers a genial, family- friendly ninety minutes' worth of amusement.", "is_fresh": 1, "author": ["Frank Swietek"]},
{"text": "Every bit as constructively clever as it is technologically brilliant.", "is_fresh": 1, "author": ["Jeanne Aufmuth"]},
{"text": "Turns out to be stingy on context, commentary, and the prism-ing view of pop culture that made the earlier films mint.", "is_fresh": 0, "author": ["Michael Atkinson"]},
{"text": "While it doesn't quite achieve the heights of either Toy Story film, Pixar's Monsters, Inc. is still one of the better family films you'll see all year.", "is_fresh": 1, "author": ["Jon Popick"]},
{"text": "Reaffirms the fact that a good animated film can be every bit as stimulating and emotionally satisfying a motion picture as a high quality live action endeavor.", "is_fresh": 1, "author": ["James Berardinelli"]},
{"text": "The best kids' film of the year, hands down.", "is_fresh": 1, "author": ["Robin Clifford"]},
{"text": "A witty, uncommonly intelligent and savvy journey into the world of childhood nightmares.", "is_fresh": 1, "author": ["Kirk Honeycutt"]},
{"text": "Better than Shrek.", "is_fresh": 1, "author": ["Laura Clifford"]},
{"text": "Monsters Inc. is a humbling reminder of what it's like to fear, imagine and hope.", "is_fresh": 1, "author": ["Ed Gonzalez"]},
{"text": "This film is no SHREK or TOY STORY 2 but it delivers some laughs, some cool-looking monsters, lots of fun for the kids and a touching ending.", "is_fresh": 1, "author": ["JoBlo"]},
{"text": "Popcorn-tastic fun for kids and adults", "is_fresh": 1, "author": ["Christopher Null"]},
{"text": "Assuredly the funniest and most creative animated film this year.", "is_fresh": 1, "author": ["Alex Keen"]},
{"text": "", "is_fresh": 1, "author": ["Kit Bowen"]},
{"text": "", "is_fresh": 1, "author": ["Garth Franklin"]}
]