[
{"reviews_count": "126", "title": "The Grinch", "avg_audience_rating": "3.6", "rotten_count": "55", "tomatometer": "56", "audience_score": "67", "avg_critic_rating": "5.9", "fresh_count": "71", "user_ratings_count": "9,796"},
{"text": "The film feels very much aimed at a very young audience and it will delight that demographic, but older viewers may be less solidly drawn in.", "is_fresh": 1, "author": ["Sinead Brennan"]},
{"text": "Older viewers may not appreciate the film as much as younger viewers, but The Grinch is not too cutesy and it has just the right amount of Christmas charm to go along with and enjoy its festive fun.", "is_fresh": 1, "author": ["Liam Hanlon"]},
{"text": "It works, as a digital pop-up book that asks us to examine the Grinches inside us all, and find the willingness to let some light in. ", "is_fresh": 1, "author": ["Ruben Rosario"]},
{"text": "The Grinch is just a sweet, well-intentioned update of the classic tale, blunting some of the original's harsh edges and replacing its pointed criticisms for a story of positivity and generosity. ", "is_fresh": 1, "author": ["TK Burton"]},
{"text": "This animated big-screen version is three times too long and 10 times as unnecessary.", "is_fresh": 0, "author": ["Kirk Baird"]},
{"text": "There's no great originality or charm in the movie as a whole, but that comedy - coupled with general perkiness - is enough to make it an adequate show", "is_fresh": 1, "author": ["Edward Porter"]},
{"text": "This is a film that stubbornly refuses to come to real life, with Cindy Lou rounding up her gang in a way that never really grips or entertains and smacks a little too much of Charlie Brown. ", "is_fresh": 0, "author": ["Matthew Bond"]},
{"text": "Illumination's strong suit is creating sincerely adorable characters.", "is_fresh": 1, "author": ["Petrana Radulovic"]},
{"text": "Underwhelming, unimaginative and uninspired, this cold and careless adaptation is severely lacking in the zingers department. ", "is_fresh": 0, "author": ["Chris Wasser"]},
{"text": "A giddy sugar-rush that slows to reveal its big charms.", "is_fresh": 1, "author": ["Hilary A White"]},
{"text": "Fitfully amusing, harmless, and negligible. It neither detracts from Dr. Seuss' legacy nor enhances it.", "is_fresh": 1, "author": ["Eric D. Snider"]},
{"text": "Nothing about it feels organic and fruitful; The Grinch feels like it is reaching an end-year quota. ", "is_fresh": 0, "author": ["Will Ashton"]},
{"text": "It's the softness that's most interesting, and what makes the movie enjoyable to watch.", "is_fresh": 1, "author": ["Shea Serrano"]},
{"text": "Just another remix of Dr. Seuss' book that attempts to modernize the narrative with zero intention toward creativity or an engaging experience.", "is_fresh": 0, "author": ["Felix Vasquez Jr."]},
{"text": "It's a modernized version of the classic that gives a little more depth to its cranky titular subject.", "is_fresh": 1, "author": ["Linda Cook"]},
{"text": "The latest adaptation of 'The Grinch' delivers a satisfying and enjoyable product that pushes Illumination Animation on the artistic front.", "is_fresh": 1, "author": ["Alan French"]},
{"text": "Sounds like pure sugar, but really it's just sweet.", "is_fresh": 1, "author": ["Simran Hans"]},
{"text": "The Grinch is a remake that doesn't reinvent the wheel, but it does make enough changes from the original material to stand on its own.", "is_fresh": 1, "author": ["Scott Menzel"]},
{"text": "There is nothing Grinch-like to this incarnation. This isn't \"The Grinch\", this is Grinch\u1d38\u1d35\u1d40\u1d31.", "is_fresh": 0, "author": ["Rendy Jones"]},
{"text": "The bauble is shiny, but hollow inside.", "is_fresh": 0, "author": ["Rob Vaux"]},
{"text": "Of course, there are holiday tunes galore -- a few new ones and many old -- with all gloriously capped off by \"The Christmas Song\" from the still one-of-a-kind Nat King Cole. And, just who can possibly get grinchy hearing that?", "is_fresh": 1, "author": ["John Urbancich"]},
{"text": "Missing the sort of magic a film of this ilk should have in abundance, and oddly feels flat from the get-go through the end credits. (Full Content Review for Parents - Violence, etc. - also Available)", "is_fresh": 0, "author": ["Jim Judy"]},
{"text": "If you want to give kids an updated version of this story, this works. It's fine, one of those movies that I understood why they made it, but nothing groundbreaking.", "is_fresh": 1, "author": ["Kristian Harloff"]},
{"text": "I think we're back on the Good Grinch train. It did what I wanted it to do...", "is_fresh": 1, "author": ["Mark Ellis"]},
{"text": "I'm glad that they tried to make this feel like a true Seuss story, rather than something to irreverent...I just feel like it didn't have to be this soft. It could've been a bit edgier.", "is_fresh": 0, "author": ["Andre Meadows"]},
{"text": "It is as uninspired as it is undemanding.", "is_fresh": 0, "author": ["Mark Kermode"]},
{"text": "This movie's heart, and its story, is definitely in the right place.", "is_fresh": 1, "author": ["Alissa Wilkinson"]},
{"text": "\"The Grinch\" is a respectable, if safe, retelling of Dr. Seuss' holiday classic.", "is_fresh": 1, "author": ["Adam Graham"]},
{"text": "It just feels like more cute but disposable holiday junk to clutter this increasingly overstuffed season.", "is_fresh": 0, "author": ["Brandy McDonnell"]},
{"text": "You're a Mediocre One, Mr. Grinch. Those expecting Cumberbatch to add a little Dr. Strange to his take on Dr. Seuss will be sorely disappointed as this animated take on the Grinch buries its kid audience under a blanket of bland.. ", "is_fresh": 0, "author": ["Peter Travers"]},
{"text": "From time to time you'll laugh and maybe shed a tear, but this isn't the kind of Grinch you'll want to see each year.", "is_fresh": 0, "author": ["Richard Roeper"]},
{"text": "Unlike the live-action version, this newly animated edition shares a lot of similarities with the original, which makes it more palatable.", "is_fresh": 1, "author": ["Sarah Gopaul"]},
{"text": "\"The Grinch\" isn't a travesty, but it is completely and totally unnecessary.", "is_fresh": 0, "author": ["Mathew DeKinder"]},
{"text": "The film, despite the star cast and even a cameo by the legendary Angela Lansbury, is uniformly unimpressive. ", "is_fresh": 0, "author": ["Rashid Irani"]},
{"text": "It won't make anyone's heart grow two sizes, but it could leave viewers with an ear-to-ear grin. It's equally as forgettable, satisfying, and comforting as a store bought hot chocolate. Sometimes that's all you need.", "is_fresh": 1, "author": ["Andrew Parker"]},
{"text": "Directors Yarrow Cheney and Scott Mosier have better instincts than Howard did on how to bring Seuss' distinctive creations to life.", "is_fresh": 1, "author": ["Dan Lybarger"]},
{"text": "This Grinch pales in comparison to predecessors, especially the Chuck Jones 1967 version with the legendary Boris Karloff.", "is_fresh": 0, "author": ["James Verniere"]},
{"text": "The new pleasantly animated Grinch, from the company that brought you the Minions, is a quaint, frictionless bauble.", "is_fresh": 0, "author": ["Radheyan Simonpillai"]},
{"text": "This movie is so shockingly bland, so immediately forgettable, so pedestrian in its plotting, that I found watching it to be fairly laborious.", "is_fresh": 0, "author": ["Sara Michelle Fetters"]},
{"text": "I'm happy to state, though my praise may be faint-ish / My critical heart is more pleased than complaint-ish. (Review in Seussian verse)", "is_fresh": 1, "author": ["Steven D. Greydanus"]},
{"text": "Pratfall-heavy take on holiday tale is fun but no classic. ", "is_fresh": 1, "author": ["Sandie Angulo Chen"]},
{"text": "The latest big-screen adaptation of the beloved Dr. Seuss short story has the whiff of a Christmas cash grab even if it inevitably provides some warm fuzzies.", "is_fresh": 0, "author": ["Todd Jorgenson"]},
{"text": "A franticly paced diversion that should produce massive chuckles from your kiddos. Further proving that the wholesomeness of Dr. Seuss remains timeless. ", "is_fresh": 0, "author": ["Nate Adams"]},
{"text": "Ultimately, though, this is a tender film that tries, in the most earnest way, to articulate the central Seussian idea that Christmas comes without ribbons, it comes without tags, it comes without packages, boxes or bags.", "is_fresh": 1, "author": ["Kevin Maher"]},
{"text": "The Grinch delivers a delightful story about valiance, compassion, and friendship.", "is_fresh": 1, "author": ["Jamie Broadnax"]},
{"text": "It does not surpass the Chuck Jones version (or having the book read aloud by a parent, which is still ideal) but it is far superior to the Carrey film and should become a welcome family tradition.", "is_fresh": 1, "author": ["Nell Minow"]},
{"text": "On the plus side, the film feels true to Seuss' style and provides plenty of gags to keep the kids laughing, including some fun animated visuals once the actual caper gets underway.", "is_fresh": 1, "author": ["Josh Terry"]},
{"text": "Its heart is two sizes too small.", "is_fresh": 0, "author": ["Matthew Razak"]},
{"text": "The Grinch\" succeeds in capturing Dr. Seuss' world via digital animation, but as a holiday revival of a classic story it may succeed in inspiring viewers to seek the original 1966 version.", "is_fresh": 1, "author": ["Alci Rengifo"]},
{"text": "There's enough silliness and pratfalls for the movie to work as a family outing, but in the end, \"The Grinch\" doesn't really justify its own existence.", "is_fresh": 0, "author": ["Matthew Passantino"]},
{"text": "...not the mess that the live action movie was, and should entertain family audiences. Skeptics will remain unconvinced that there was any need for a new version. ", "is_fresh": 1, "author": ["Daniel M. Kimmel"]},
{"text": "A kinder, gentler Grinch. What's next, Oscar the Somewhat Surly But Pretty Agreeable Grouch? ", "is_fresh": 0, "author": ["Christian Toto"]},
{"text": "This reboot of the beloved classic will doubtless entertain the wee ones, but it fails to better the original 1966 TV special which remains a must-see holiday staple.", "is_fresh": 0, "author": ["Liam Lacey"]},
{"text": "After a somewhat desultory first act, punctuated by lots of poppy \"rap\" songs, everything comes together.", "is_fresh": 1, "author": ["Charlotte O'Sullivan"]},
{"text": "The film is a sweetly funny tale with less edge than Jim Carrey's green-faced, psychotic mayhem in the 2000 live action comedy How The Grinch Stole Christmas.", "is_fresh": 1, "author": ["Kate Muir"]},
{"text": "It's perfectly well made, with all the tricks, bits for the older audience and emotional touch-points we all now expect from an animation, but does tend to lose some of the spitefulness and quirks along the way.", "is_fresh": 1, "author": ["Jamie East"]},
{"text": "A critic needs only two words to dispense with The Grinch; the first one is bah.", "is_fresh": 0, "author": ["Kate Taylor"]},
{"text": "The Grinch Who Stole Christmas is roughly an hour-long and contains none of the razzle-dazzle on display here, yet I would take it over this corporately manufactured remake in a heartbeat any day, no matter the size", "is_fresh": 0, "author": ["Robert Kojder"]},
{"text": "The movie does too much polishing ... adding so much that it all but eliminates the charm of Seuss' story.", "is_fresh": 0, "author": ["Mark Dujsik"]},
{"text": "THE GRINCH is colorful, delightful fun --- for the little ones. ", "is_fresh": 1, "author": ["Jeanne Kaplan"]},
{"text": "Parents can take their toddlers to this picture and not worry about anything too scary. Just don't expect much in the way of entertainment for adults.", "is_fresh": 0, "author": ["David Kaplan"]},
{"text": "\"The Grinch\" is beautiful to look at, and diverting enough. The material written to fill out the story is entertaining, but it doesn't resonate. You can't top what Seuss wrote. ", "is_fresh": 1, "author": ["Katie Walsh"]},
{"text": "The Grinch is, emphatically, a children's movie. And that's okay. Kids will love the physical comedy and the zoomy direction, slaloming up and down Whoville's wintry slopes. ", "is_fresh": 1, "author": ["Kimberley Jones"]},
{"text": "Without a truly grumpy Grinch, and without the Seussical aesthetic, The Grinch is just a standard and serviceable Christmas movie.", "is_fresh": 0, "author": ["Deirdre Crimmins"]},
{"text": "If you want songs about being happy, Pharrell is your guy. If you want to tell a story about a fellow as cuddly as a cactus and as charming as an eel, you need a little less sunshine and a lot more stink, stank, stunk.", "is_fresh": 0, "author": ["Megan Basham"]},
{"text": "There's no aspect in which the 2018 version seems like anything but a hapless, bloated imitation.", "is_fresh": 0, "author": ["James Berardinelli"]},
{"text": "The film is mainly a series of slapstick episodes, not always neatly hung together, and with barely any memorable side characters. Even the Grinch himself fails to make a massive impact at times.", "is_fresh": 0, "author": ["Dave Calhoun"]},
{"text": "For all the skill behind the film, the story is its weakest point.", "is_fresh": 1, "author": ["Kt Schaefer"]},
{"text": "Illumination Entertainment is likely to have a hit with THE GRINCH simply because it is one of those holiday stories audiences respond to. Yet as big and brash as the new film can be, the main character himself is more irritating than enjoyable.", "is_fresh": 0, "author": ["JimmyO"]},
{"text": "Every kid at the movies loves cartoons a lot. / But this critic, who sees most of such movies, does NOT! / It's not that I hate them; I just need a reason / For CGI antics in any old season.", "is_fresh": 0, "author": ["Chris Knight"]},
{"text": "While The Grinch isn't exactly groundbreaking or fresh, it has just enough Christmas magic to justify another modern retelling of an old story.", "is_fresh": 1, "author": ["Neil Soans"]},
{"text": "Part of the problem with The Grinch stems from its plushily padded plot designed to s-t-r-e-t-c-h 30 minutes of good material into 86 elongated minutes of cartoony chases, overwritten dialogue and a lack of genuine, touching moments. ", "is_fresh": 0, "author": ["Dann Gire"]},
{"text": "The film is primarily aimed at children but adults too won't suffer much watching it. Hope and a little sugar does go a long way, as they say.", "is_fresh": 1, "author": ["Devesh Sharma"]},
{"text": "Newcomers to the tale will enjoy it, at least as much as they have other offerings from Illumination Entertainment, the cheer factory behind Despicable Me, Minions and Dr. Seuss' The Lorax.", "is_fresh": 1, "author": ["Peter Howell"]},
{"text": "Aimed at young kids - there's nothing too bad about this Grinch to upset them, even if his heart is two sizes too small - this nevertheless has plenty to enjoy for grown-ups.", "is_fresh": 1, "author": ["Jo Berry"]},
{"text": "It's an update we didn't know we needed, but it's a delightful holiday excursion for the whole family that brings the story to life in its own way without losing the charm of perhaps the most loved version of all -- the 1960s TV classic.", "is_fresh": 1, "author": ["Micheal Compton"]},
{"text": "In an odd way, \"The Grinch\" feels like a kid's version of last year's \"Three Billboards Outside Ebbing, Missouri\"...", "is_fresh": 1, "author": ["Pat Padua"]},
{"text": "I suspect kids will prefer Jim Carrey's anarchic grouch. Being nice pays off at Christmas, but being naughty is just so much more fun. ", "is_fresh": 1, "author": ["Andy Lea"]},
{"text": "The underlying bones of \"The Grinch\" are so solid the movie can't help but be moderately pleasing.", "is_fresh": 1, "author": ["Brian Lowry"]},
{"text": "It's a short and simple movie which is a relief given the clutter of the 2000 version, not to mention Illumination's last messy seasonally-themed entertainment, Hop. ", "is_fresh": 1, "author": ["Tara Brady"]},
{"text": "While it doesn't hold a candle to the original 1966 Chuck Jones TV special, The Grinch is in every way superior to the truly ghastly version from 2000.", "is_fresh": 1, "author": ["Caroline Siede"]},
{"text": "Without breaking new ground, this new computer animated Grinch proves to be the least memorable of the Seuss inspired characters in this Illumination adaptation.", "is_fresh": 1, "author": ["Jonathan W. Hickman"]},
{"text": "For tiny tots only, and their long-suffering adults.", "is_fresh": 0, "author": ["Frank Lovece"]},
{"text": "The film's vision of Christmas is so insipid and lifeless, it's hard to see why the Grinch would even bother to steal it.", "is_fresh": 0, "author": ["Keith Watson"]},
{"text": "Candy-colored slapstick and kindergarten-level humor make this perfectly suitable for small children, and perfectly bland and inoffensive to the adults accompanying them. Somehow, I don't think Dr. Seuss would entirely approve.", "is_fresh": 0, "author": ["MaryAnn Johanson"]},
{"text": "Mosier and Cheney giving their take on a classic tale of soulful thaw proper visual fluidity and Christmas spirit, returning color and buoyancy to Whoville.", "is_fresh": 1, "author": ["Brian Orndorf"]},
{"text": "This groovy, green, not-so-mean movie kickoff to the Christmas season will delight children and remind grown-ups why Dr. Seuss still rocks.", "is_fresh": 1, "author": ["Neil Pond"]},
{"text": "Takes the book's message that you can't buy Christmas and tops it up with noisy, wacky capering, squishing and flattening Seuss's universe into yet another bland frenetic kids' movie.", "is_fresh": 0, "author": ["Cath Clarke"]},
{"text": "While the first \"Grinch\" I will always adore It's possible that there's still room for one more. Hearing the Who's sing their songs to the skies - It's still movie magic, whatever the size.", "is_fresh": 1, "author": ["Moira MacDonald"]},
{"text": "The whole thing is very family friendly, though luckily not the sort of animated fare that will make parents gouge their eyes out.", "is_fresh": 1, "author": ["Joey Magidson"]},
{"text": "I think you can make kids' entertainment that is entertaining ... to more than just the six and under crowd.", "is_fresh": 0, "author": ["Dan Murrell"]},
{"text": "Dr. Seuss' The Grinchstays true to the original story, gets deeper into what drives the Grinch but ultimately, it never quite lives up to the original animated special.", "is_fresh": 0, "author": ["Danielle Solzman"]},
{"text": "While bright and shiny and energetic, it also pads the original to its disadvantage, proving once again that bigger and longer is not necessarily better. Jones and Karloff still rule the Whoville universe.", "is_fresh": 0, "author": ["Frank Swietek"]},
{"text": "More appealing than Jim Carey's laboured live-action adaption which appeared 18 years ago, little kids will enjoy this version for its zippy pace, bold colours and daft humour.", "is_fresh": 1, "author": ["Chris Hunneysett"]},
{"text": "The Grinch is still about kindness and learning to go beyond material goods to find happiness, and isn't that what the holiday season is all about? Plus kids are going to love it.", "is_fresh": 1, "author": ["Maren Longbella"]},
{"text": "Advising folks not to touch all this with a 39 1/2-foot pole would be hyperbole -- but don't expect this to be the start of your family's newest holiday viewing tradition, either.", "is_fresh": 0, "author": ["Tom Russo"]},
{"text": "Despite its story-telling ambition being two sizes too small (much like its hairy protagonist's heart), The Grinch is impossibly cute, visually rich and boasts enough festive fun to satisfy young viewers.", "is_fresh": 1, "author": ["Amy West"]},
{"text": "Even a handful of funny line deliveries from Thompson can't really justify all the extra padding.", "is_fresh": 0, "author": ["Josh Bell"]},
{"text": "This film is the equivalent of your third or fourth favorite present on any given holiday. It will entertain a few children in the moment, satisfy a few adults who are barely paying attention, then quickly be forgotten.", "is_fresh": 0, "author": ["Peter Hartlaub"]},
{"text": "The Grinch is an enjoyable and refreshingly unique Yuletide film in theaters crowded by Christmas movies.", "is_fresh": 1, "author": ["Alana Joli Abbott"]},
{"text": "The Grinch is an enjoyable and refreshingly unique Yuletide film in theaters crowded by Christmas movies.", "is_fresh": 1, "author": ["Andrew Husband"]},
{"text": "The Grinch is the perfect film to kick off the holiday season right, spreading joy, happiness, and magic to everyone, even those with a heart two sizes too small.", "is_fresh": 1, "author": ["Ashley Menzel"]},
{"text": "Universal's animated full-length adaptation of the beloved Dr. Seuss children's book lacks the magic, heart and humor that have made this yuletide tale such a perennial favorite.", "is_fresh": 0, "author": ["Tim Grierson"]},
{"text": "It's safe and it's disposable.", "is_fresh": 0, "author": ["Matt Goldberg"]},
{"text": "In a world fraught with negativity, children and adults alike will appreciate The Grinch for its positive message.", "is_fresh": 1, "author": ["Julian Roman"]},
{"text": "It is harmless and colorful, but it fails to artistically justify itself. ", "is_fresh": 0, "author": ["Scott Mendelson"]},
{"text": "The Grinch works as a modernized retelling of Dr. Seuss's classic, with some compelling tweaks to the story and characters, for plenty of family fun.", "is_fresh": 1, "author": ["Molly Freeman"]},
{"text": "They have once again taken a story that is perfect as a half-an-hour tale and padded it to make it longer than it should be. ", "is_fresh": 0, "author": ["Jeremy Jahns"]},
{"text": "While ostensibly explaining how the Grinch got so Grinch-like, it also inclines the viewer to raise other questions. How did he score that mountaintop mansion? What's with the elaborately twisted pipe organ?", "is_fresh": 0, "author": ["Glenn Kenny"]},
{"text": "While it may not be completely necessary, it does give the 1966 Chuck Jones cartoon a much-needed update. And it may just scare away any nightmares you have of Jim Carrey's 2000 movie.", "is_fresh": 1, "author": ["Kirsten Acuna"]},
{"text": "Similarly, while Cumberbatch gives a committed reading of the Grinch's exasperation, calculation and transformation, he just can't compare to the immortal tones of Boris Karloff as the original Grinch/narrator.", "is_fresh": 0, "author": ["Michael Gingold"]},
{"text": "The Dr Seuss books have been miserably ill-served by Hollywood in the past... But The Grinch gets both Seuss and Christmas just right.", "is_fresh": 1, "author": ["Robbie Collin"]},
{"text": "The new film is delightful in parts although curmudgeonly viewers may feel as negatively about its unbridled sentimentality as its own main character does about yuletide celebrations in general.", "is_fresh": 1, "author": ["Geoffrey Macnab"]},
{"text": "This faithful adaptation of the classic Dr. Seuss story is perhaps Illumination's best achievement to date, with amazing visuals and great voice acting. The hilarious jokes and positive messages add to make this the perfect Holiday film for the family", "is_fresh": 1, "author": ["J. Don Birnam"]},
{"text": "The feeble script by Michael LeSieur and Tommy Swerdlow... never lets us forget how low the bar has been set for such family entertainment.", "is_fresh": 0, "author": ["David Ehrlich"]},
{"text": "Illumination's focus on cartoon villainy should set it apart. But by this point, the filmmakers have softened the very concept of \"bad\" into just another bowl of brightly colored sugary mush.", "is_fresh": 0, "author": ["Jesse Hassenger"]},
{"text": "Dr. Seuss' The Grinch is a fun and fast holiday movie, updating the classic story for the audience that made the Minions a billion-dollar industry.", "is_fresh": 1, "author": ["Clint Gage"]},
{"text": "Animated Dr Seuss adaptation retains the magic of the original material.", "is_fresh": 1, "author": ["Matthew Turner"]},
{"text": "Dr. Seuss' The Grinch is a vibrant, amusing CG animated feature that gives the big mean, green guy a kinder, gentler makeover.", "is_fresh": 1, "author": ["Michael Rechtshaffen"]},
{"text": "Cumberbatch, in his droll and tasteful way, respects the grinchiness of the Grinch: that he's a force of mischievous mayhem who represents something in all of us - the potential to be bad when unhappiness takes over.", "is_fresh": 1, "author": ["Owen Gleiberman"]},
{"text": "Bright, both in its color palette and in the wit and liveliness of the storytelling.", "is_fresh": 1, "author": ["Alonso Duralde"]},
{"text": "This 2018 update to Dr. Seuss' holiday classic is more colorful and snappy than ever, losing a bit of The Grinch's evil edge and termite-filled smile to deliver a more playful and sympathetic - if toothless - rendition of the green, holiday-hating grouch.", "is_fresh": 1, "author": ["Matt Oakes"]},
{"text": "The new-era \"Grinch\" is a holiday treat, a modern take on a classic tale sure to make the hearts of viewers of all ages grow a few sizes.", "is_fresh": 1, "author": ["Laura DeMarco"]},
{"text": "Exuberant, loudly coloured, schmaltz-soaked at times (you'll want to the strangle the goody-goody little girl who becomes the Grinch's adversary) and redeemed - at better times - by the malevolence of The Grinch himself.", "is_fresh": 1, "author": ["Nigel Andrews"]},
{"text": "It accomplishes nothing more than what the 1966 adaptation accomplished, despite taking more than three times longer to do it. In short: You're an unnecessary one, Mr. Grinch.", "is_fresh": 0, "author": ["Mike Scott"]},
{"text": "Pretty. And pretty heartless. ", "is_fresh": 0, "author": ["Roger Moore"]}
]