[
{"reviews_count": "136", "title": "The Iron Giant", "avg_audience_rating": "3.4", "rotten_count": "5", "tomatometer": "96", "audience_score": "90", "avg_critic_rating": "8.2", "fresh_count": "131", "user_ratings_count": "204,380"},
{"text": "The Iron Giant captures and crystallizes its source material's anxious, humane spirit. It might be the most empathetic and exhilarating mainstream American animated feature ever made.", "is_fresh": 1, "author": ["Adam Nayman"]},
{"text": "It doesn't try to hide its own cleverness, it's funny and pulls in references from all over the place, from Bambi to Frankenstein.", "is_fresh": 1, "author": ["Dorothy Woodend"]},
{"text": "Tender, moving and exciting for kids (and their secretly tearful parents).", "is_fresh": 1, "author": ["Kate Muir"]},
{"text": "Watching this again 17 years after its original release, I savoured again the resemblances to Spielberg, Wilde and Brian Forbes's Whistle Down the Wind.", "is_fresh": 1, "author": ["Peter Bradshaw"]},
{"text": "In every way, one of the highlights of both animation and family-friendly cinema in the last quarter-century.", "is_fresh": 1, "author": ["Tim Brayton"]},
{"text": "While youngsters will enjoy the film on one level, it reaches out to adults on a completely different plane. They will see an allegory about power and politics and the danger of allowing either to run roughshod over humanity.", "is_fresh": 1, "author": ["Jeff Strickler"]},
{"text": "This is not exactly standard children's fare, but kids (and their parents) should be smitten by its wit and wisdom.", "is_fresh": 1, "author": ["David Ansen"]},
{"text": "This is sharp, sophisticated stuff, appreciated on different levels by both parents and children, and even those who are neither. The film has impish humor, great adventure and more than a few thrills.", "is_fresh": 1, "author": ["Matt Soergel"]},
{"text": "Wisely, Bird and company eschew the standard Disney formula of catchy show tunes and cuddly animal sidekicks and lead Warner Bros. toward an animation style the studio can call its own.", "is_fresh": 1, "author": ["Dennis King"]},
{"text": "A magical evocation of a special time in history and a time in everybody's life when the dream and the nightmare quotients are equally high.", "is_fresh": 1, "author": ["Peter Keough"]},
{"text": "The Iron Giant's theme of fear of the unknown is craftily balanced against the power of innocent imagination.", "is_fresh": 1, "author": ["F.X. Feeney"]},
{"text": "The film isn't as blisteringly satirical as The Simpsons; it's warmer. And while its nostalgia isn't simplistic, it is affectionate.", "is_fresh": 1, "author": ["M.V. Moorhead"]},
{"text": "The Iron Giant is not only the best animated feature to be released this summer, it's the single best film to hit our screens so far this year.", "is_fresh": 1, "author": ["Paul Tatara"]},
{"text": "Brad Bird fills the CinemaScope screen with wit and beauty in this modern fairy tale.", "is_fresh": 1, "author": ["Michael Sragow"]},
{"text": "Disney is getting fierce competition in the animated feature department these days.", "is_fresh": 1, "author": ["Daniel Etherington"]},
{"text": "A well-told and beautifully drawn tale of friendship and fortitude.", "is_fresh": 1, "author": ["Leah Rozen"]},
{"text": "The Iron Giant has a great heart, and I loved its evocation of the days when good old Superman, as uncomplicated a superhero as ever existed, was the height of cool.", "is_fresh": 1, "author": ["Chris Kaltenbach"]},
{"text": "This wonderful Warner Bros version of Ted Hughes's The Iron Man is a first-class achievement in cartoon virtuosity that liberally borrows images from 1950s comic-book art and science-fiction movies to stunning effect.", "is_fresh": 1, "author": ["Alan Jones"]},
{"text": "The movie wears its social responsibility with pride, even if it doesn't always know how to put together a coherent public service announcement.", "is_fresh": 0, "author": ["Norene Cashen"]},
{"text": "It is in the best tradition of animation: an ideal tale for children that offers a lot to adults as well.", "is_fresh": 1, "author": ["Ted Anthony"]},
{"text": "Lest all of this sound gravely symbolic, be assured that the film is, before anything else, deliciously funny and deeply affecting. And beautiful, oh so beautiful, as a work of coherent art.", "is_fresh": 1, "author": ["Joe Morgenstern"]},
{"text": "It's worth repeating the old complaint that animation isn't treated seriously enough, if only to point out what a shame it would be for The Iron Giant, one of the year's best films, to go overlooked.", "is_fresh": 1, "author": ["Keith Phipps"]},
{"text": "a cool, charming uniquely American fable done in accessible yet intelligent mode, which makes it suitable for all members of the family.", "is_fresh": 1, "author": ["Emanuel Levy"]},
{"text": "The Iron Giant isn't a Cold War allegory so much as an Americana fairy tale.", "is_fresh": 1, "author": ["Joseph Jon Lanthier"]},
{"text": "Great animation, and a great title character will appeal to the kids, while the sharp wit, whacky antics, and kid-friendly messages will appeal to the adults.", "is_fresh": 1, "author": ["Felix Vasquez Jr."]},
{"text": "A smart live-and-let-live parable, full of glancing, acute observations on all kinds of big subjects...that you can talk about with the kids for a long time to come.", "is_fresh": 1, "author": ["Richard Schickel"]},
{"text": "Gentle, poignant and affecting animation that succeeds through understatement and showcases some highly impressive visual sequences.", "is_fresh": 1, "author": []},
{"text": "This is enjoyable in part because of its flavorsome period ambience and its lively and satiric characters.", "is_fresh": 1, "author": ["Jonathan Rosenbaum"]},
{"text": "A cool, unique-looking animated feature (the Ike-era design elements make for great eye candy), director Brad Bird's tale of a small-town boy and his outer-space robot is hip and entertaining without pandering, or condescending, to the kiddie set.", "is_fresh": 1, "author": ["Steven Rea"]},
{"text": "As entertaining as it's intelligent.", "is_fresh": 1, "author": ["Wally Hammond"]},
{"text": "Outstanding.", "is_fresh": 1, "author": ["Jeffrey M. Anderson"]},
{"text": "Un film qui pr\u00e9senta Brad Bird comme l'un des cin\u00e9astes de films d'animation pour enfants les plus talentueux et prometteurs des derni\u00e8res ann\u00e9es.", "is_fresh": 1, "author": ["Jean-Fran\u00e7ois Vandeuren"]},
{"text": "GO SEE THIS FILM, NOW.", "is_fresh": 1, "author": ["Ron Wells"]},
{"text": "Truly for kids of all ages.", "is_fresh": 1, "author": ["Robin Clifford"]},
{"text": "Has never failed to bring a tear to my secretly-patriotic eye.", "is_fresh": 1, "author": ["Walter Chaw"]},
{"text": "It's the most solidly built, funny, and entertaining movie for kids of all ages that I've seen in a decade.", "is_fresh": 1, "author": ["Jeffrey Overstreet"]},
{"text": "This touching parable derives much of its strength from a striking visual design and a welcome pacifist stance that sticks it to NRA nuts.", "is_fresh": 1, "author": ["Matt Brunson"]},
{"text": "Combinando elementos de E.T., King Kong e das fic\u00e7\u00f5es B dos anos 50, este filme ganha vida pr\u00f3pria gra\u00e7as ao charme de sua anima\u00e7\u00e3o e \u00e0 sensibilidade da trama.", "is_fresh": 1, "author": ["Pablo Villa\u00e7a"]},
{"text": "For parents tired of taking their kids to slick, superficial animated features, Warner Bros. has got a giant of a cartoon for you.", "is_fresh": 1, "author": ["Thomas Delapa"]},
{"text": "Eschewing song-and-dance numbers and cute animal sidekicks, the film's appeal comes from its winsome characters, its resonant story, and its evocative depiction of New England in the days of Sputnik and \u0093duck and cover\u0094 drills.", "is_fresh": 1, "author": ["Steven D. Greydanus"]},
{"text": "a first-rate adventure, with plenty of humor and suspense...", "is_fresh": 1, "author": ["James Sanford"]},
{"text": "This is a handsome piece of engaging animation from a studio other than Disney. That in itself is worth a look. The kids will love it.", "is_fresh": 1, "author": ["Jim Shelby"]},
{"text": "A great blend of animation, sci-fi, and 1950's cold war paranoia. Enjoyable characters with voice acting equal to the task.", "is_fresh": 1, "author": ["Brian Mckay"]},
{"text": "The Iron Giant fairly towers over its competitors.", "is_fresh": 1, "author": ["John R. McEwen"]},
{"text": "Heartwarming and hilarious.", "is_fresh": 1, "author": ["Scott A. Mantz"]},
{"text": "Don't let your kids anywhere near this rubbish.", "is_fresh": 0, "author": ["James Bowman"]},
{"text": "Not only is The Iron Giant one of the more emotionally satisfying films of the year, but it also affords a cheering opportunity for all those who'd like someone other than Disney to have a cartoon hit.", "is_fresh": 1, "author": ["Leslie Felperin"]},
{"text": "The film tackles remarkably unhappy moments, and it discusses mortality and morality in a responsible and emotionally affecting fashion.", "is_fresh": 1, "author": ["James Rocchi"]},
{"text": "One of the best pictures of 1999.", "is_fresh": 1, "author": ["Kevin N. Laforest"]},
{"text": "An absolute classic of its genre-the rare example of an animated film where everything manages to work without going for cheap laughs or cutesy schmaltz.", "is_fresh": 1, "author": ["Thom Bennett"]},
{"text": "One of those rare films that will hold the attention of children in the 6 to 12 age range without insulting the intelligence of the adults who accompany them.", "is_fresh": 1, "author": ["Doug Saunders"]},
{"text": "Through Hogarth's words and the gentle giant's self-sacrificing heroism it proclaims \"Guns kill.\" Now there's a slogan you don't see or hear much about at the movies! ", "is_fresh": 1, "author": ["Frederic and Mary Ann Brussat"]},
{"text": "Un cl\u00e1sico en la historia de los dibujos animados que el tiempo se encargar\u00e1 de poner en el sitio de honor que merece", "is_fresh": 1, "author": ["Jorge Avila Andrade"]},
{"text": "A surprisingly smart, thoroughly entertaining animated fable that actually makes you think.", "is_fresh": 1, "author": ["James Kendrick"]},
{"text": "One of the better non-Disney family animated features to come out in years, with engaging characters and a solid story line.", "is_fresh": 1, "author": ["Robert Roten"]},
{"text": "Directed by Brad Bird, The Iron Giant is a smooth, skilled example of animated filmmaking.", "is_fresh": 1, "author": ["Lawrence Van Gelder"]},
{"text": "Entertaining!", "is_fresh": 1, "author": ["Scott Renshaw"]},
{"text": "The reason for The Iron Giant's success isn't hard to discern -- it has to do with the writing. The script is crisp, smartly-paced, intelligent, and emotionally satisfying. It recalls the strengths of E.T. without the weaknesses.", "is_fresh": 1, "author": ["James Berardinelli"]},
{"text": "The metal-machine sci-fi cartoon delivers robot action, retro nostalgia and stony metaphysics.", "is_fresh": 1, "author": ["Mary Elizabeth Williams"]},
{"text": "Imagine E.T. as a towering metal man, and you have some of the appeal of The Iron Giant, an enchanting animated feature about a boy who makes friends with a robot from outer space.", "is_fresh": 1, "author": ["Roger Ebert"]},
{"text": "The big attraction is the iron giant itself. At one stage, it transforms into a scary alien being with War Of The Worlds heat-rays and impressive zapping capability, but it is mostly a lovably old-fashioned, clanking 'bot.", "is_fresh": 1, "author": ["Kim Newman"]},
{"text": "The animation isn't as fancy as in, say, Disney's Tarzan, but the storytelling is more satisfying.", "is_fresh": 1, "author": ["John Hartl"]},
{"text": "Beautifully animated!", "is_fresh": 1, "author": ["Henry Cabot Beck"]},
{"text": "The Iron Giant marks a breakthrough in that neverland between computer and cel animation -- seamlessly blending a computer-generated character with the warmth of hand-drawn co-stars.", "is_fresh": 1, "author": ["Sean P. Means"]},
{"text": "Filled with humor, suspense and situations everyone can relate to.", "is_fresh": 1, "author": ["Dwayne E. Leslie"]},
{"text": "Should keep parents and children in stitches.", "is_fresh": 1, "author": []},
{"text": "A lovely and touching daydream.", "is_fresh": 1, "author": ["Owen Gleiberman"]},
{"text": "The movie -- as beautifully drawn, as sleek and engaging as it is -- has the annoyance of incredible smugness. It is, one could say, blinded by the hindsight.", "is_fresh": 0, "author": ["Stephen Hunter"]},
{"text": "This movie provides a lot of good topics for discussion, including the role of violence and guns.", "is_fresh": 1, "author": ["Nell Minow"]},
{"text": "More of a buddy film than an animated action flick, but kids will absolutely love it and they'll be going home chewing on a valuable chunk of \"heavy mental.\"", "is_fresh": 1, "author": ["Ross Anthony"]},
{"text": "I'll take Disney's superior animated entertainment, Tarzan, over this any day of the week.", "is_fresh": 0, "author": ["Dustin Putman"]},
{"text": "A delightful new animated adventure story that may help you rethink your expectations of the genre.", "is_fresh": 1, "author": ["Liz Braun"]},
{"text": "I bawled my eyes out at the genuinely moving ending, so there's some fun here for grownups, too.", "is_fresh": 1, "author": ["MaryAnn Johanson"]},
{"text": "A fun, entertaining and occasionally heartfelt, eighty-some minute diversion from the trials and tribulations of being a kid.", "is_fresh": 1, "author": ["Jim Judy"]},
{"text": "This is an exciting and likeable film that's got a sense of humour and plenty of appeal for kids.", "is_fresh": 1, "author": ["Brian Webster"]},
{"text": "Remarkably unassuming, genuinely playful, and superbly executed, The Iron Giant towers over the cartoon landscape.", "is_fresh": 1, "author": ["J. Hoberman"]},
{"text": "The Iron Giant is a spirited, well-made family adventure.", "is_fresh": 1, "author": ["Jack Garner"]},
{"text": "The characters are well conceptualized, and a few computer-aided shots are quite breathtaking.", "is_fresh": 1, "author": ["Madeleine Williams"]},
{"text": "A genuine and impressive pleasure.", "is_fresh": 1, "author": ["Urban Cinefile Critics"]},
{"text": "The Iron Giant succeeds where its predecessors failed - by offering an actual story and no friggin' songs.", "is_fresh": 1, "author": ["Jon Popick"]},
{"text": "A charming fantasy with a moral that grows from within the heart of the film.", "is_fresh": 1, "author": ["Sean Axmaker"]},
{"text": "It is truly charming and moving, without so much as a hint of overt sentimentality.", "is_fresh": 1, "author": ["James O'Ehley"]},
{"text": "With its austere look and the absence of music, The Iron Giant is something new, arresting and quite wondrous in the way of animated movies.", "is_fresh": 1, "author": ["Susan Stark"]},
{"text": "Attention, parental units: We are happy to report there is intelligent life in feature animation beyond planet Disney.", "is_fresh": 1, "author": ["Susan Wloszczyna"]},
{"text": "And if its top-notch story weren't enough, The Iron Giant also boasts some spectacular animation, a combination of classic two-dimensional processes and CGI for the giant himself that's outright spellbinding.", "is_fresh": 1, "author": ["Marc Savlov"]},
{"text": "This will probably be the world's shortest, four-star review and could be encapsulated in simply one monosyllable -- Go.", "is_fresh": 1, "author": ["Joe Baltake"]},
{"text": "It comes close enough to matter, and for me to recommend.", "is_fresh": 1, "author": ["Greg Dean Schmitz"]},
{"text": "This is the film that invigorates you, makes you laugh, makes you cry and makes you happy to be alive!", "is_fresh": 1, "author": ["Alex Sandell"]},
{"text": "An exciting, funny and intelligent piece of filmmaking -- one that will likely appeal to both children and adults.", "is_fresh": 1, "author": ["Jeff Vice"]},
{"text": "A good time for the whole family!", "is_fresh": 1, "author": ["Athan Bezaitis"]},
{"text": "Easily the summer's funniest and cleverest animated feature.", "is_fresh": 1, "author": ["David Sterritt"]},
{"text": "The writing is vivid and bright, the voicing accomplished, and the storytelling emotionally satisfying.", "is_fresh": 1, "author": ["Rod Dreher"]},
{"text": "Heart and tenderness are rare in cartoon movies.", "is_fresh": 1, "author": ["Peter Stack"]},
{"text": "There's a fascination with new technology in animation -- from the cartoon-like CGI effects in live-action movies to Pixar -- but The Iron Giant goes retro, and establishes itself as an instant classic.", "is_fresh": 1, "author": ["G. Allen Johnson"]},
{"text": "One of the best animated films in memory.", "is_fresh": 1, "author": ["Gary Brown"]},
{"text": "The most extraordinary -- the coolest -- Hollywood cartoon since the genre was revived 10 years ago.", "is_fresh": 1, "author": ["Rob Blackwelder"]},
{"text": "The front-runner for best animated film of the year.", "is_fresh": 1, "author": ["Marc Fortier"]},
{"text": "For most of its run time I found myself bored, searching for something-anything, nice music, some humor or even a touch of romance or action, to make the film interesting to watch.", "is_fresh": 0, "author": ["JoBlo"]},
{"text": "This film is particularly enjoyable in that it is so unlike Alladin or Tarzan. It's not quite the Anti-Disney, but the dialogue is more satirical and edgy.", "is_fresh": 1, "author": ["Douglas Konecky"]},
{"text": "The Iron Giant is a solid, not to say ironclad, winner in the less than overcrowded family animation arena.", "is_fresh": 1, "author": ["Jay Carr"]},
{"text": "Animated films excel in conjuring up colorful fantasy worlds, but few evoke an actual time and place as vividly -- and playfully -- as The Iron Giant does.", "is_fresh": 1, "author": ["Mark Caro"]},
{"text": "The Iron Giant remembers the wonder of being a child and understands how to convey that in a media-savvy age.", "is_fresh": 1, "author": ["Kenneth Turan"]},
{"text": "It's very serious without ever being overwrought, and it's visually lush.", "is_fresh": 1, "author": ["Mike Antonucci"]},
{"text": "Elements nowhere to be found are a few cutesy sidekicks and some showstopping song - and - dance numbers -- the most refreshing thing about The Iron Giant is that you won't miss them one whit!", "is_fresh": 1, "author": ["Cody Clark"]},
{"text": "Films of this caliber don't come along very often.", "is_fresh": 1, "author": ["Edward Johnson-Ott"]},
{"text": "The summer's best family film, Tarzan notwithstanding!", "is_fresh": 1, "author": ["Harvey S. Karten"]},
{"text": "Motion pictures can and should be about more than special effects and gross humor. The Iron Giant is a start.", "is_fresh": 1, "author": ["Steve Rhodes"]},
{"text": "The Iron Giant has that inexplicable movie magic which grabs us from time to time and simply will not let go.", "is_fresh": 1, "author": ["Jim Chastain"]},
{"text": "What the animators lack in new computer-drawn technique, they creatively make up for with a fine artistic sense.", "is_fresh": 1, "author": ["David Forsmark"]},
{"text": "Sweet-natured, exciting and funny!", "is_fresh": 1, "author": ["Lawrence Toppman"]},
{"text": "The Iron Giant is filled with imaginative characters, sharply mounted and sweet without being cloying.", "is_fresh": 1, "author": ["Howard Cohen"]},
{"text": "This is a film the whole family can enjoy - and talk about afterward.", "is_fresh": 1, "author": ["Nancy Churnin"]},
{"text": "The Iron Giant is a warmly illustrated, emotionally engaging and creatively substantial throwback to sturdy pulp institutions!", "is_fresh": 1, "author": ["Duane Dudek"]},
{"text": "A very offbeat and entertaining family film!", "is_fresh": 1, "author": ["Darren D'Addario"]},
{"text": "The Iron Giant shines!", "is_fresh": 1, "author": ["Steven Rosen"]},
{"text": "The Iron Giant is funny, warm, muscular and full of nuances that you can take home with you and talk about.", "is_fresh": 1, "author": ["Jeff Millar"]},
{"text": "Hipper than a typical Disney cartoon and also somewhat less ambitious, The Iron Giant is basically an extremely well-done big-screen version of the sort of action-adventure cartoons that now abound on children's TV.", "is_fresh": 1, "author": ["Jay Boyar"]},
{"text": "The animation is superb, the computer-animated monster cuts an awesome figure, and Hogarth is as amiable a hero as Huck Finn.", "is_fresh": 1, "author": ["Jack Mathews"]},
{"text": "Sweetly told, deeply humanistic.", "is_fresh": 1, "author": ["Philip Booth"]},
{"text": "Finally -- a terrific summer film for kids!", "is_fresh": 1, "author": ["William Arnold"]},
{"text": "Simply wonderful!", "is_fresh": 1, "author": ["Ken Fox"]},
{"text": "Wears its heavy debt to '50s space invader movies lightly, knowingly, entertainingly.", "is_fresh": 1, "author": ["David Elliott"]},
{"text": "Bird's film exudes the warmth and humor and sense of wonder that distinguished E.T. But a darker undercurrent also flows -- a mistrust of authority that harkens as much to Dr. Strangelove as to Spielberg's epic.", "is_fresh": 1, "author": ["Todd Anthony"]},
{"text": "A visually appealing, well-crafted film, The Iron Giant is an unalloyed success that works on several levels!", "is_fresh": 1, "author": ["Lael Loewenstein"]},
{"text": "The genre humor is clever and the supporting characters are mostly entertaining, while the anti-violence themes are universally relevant.", "is_fresh": 1, "author": ["David Hunter"]},
{"text": "The best non-Disney animated film in decades!", "is_fresh": 1, "author": ["Bill Pearis"]},
{"text": "Not only the best children's film since the first Babe, but the best animated film to ever come out of North America without the name 'Disney' on it!", "is_fresh": 1, "author": ["Eric Lurio"]},
{"text": "Of course it flopped at the box office! It's a fantastic movie!", "is_fresh": 1, "author": ["Scott Weinberg"]},
{"text": "I'll embarrass myself by saying how much it moved me.", "is_fresh": 1, "author": ["Ted Prigge"]},
{"text": "A wonderfully made and emotionally touching film that takes its place next to Dumbo and Pinnochio as one of the three or four greatest animated films ever made.", "is_fresh": 1, "author": ["Chuck Rudolph"]},
{"text": "It's refreshing to see an animated film that recognizes you don't have to follow the Disney paradigm of doing things (i.e. no songs, no cute talking animals).", "is_fresh": 1, "author": ["Widgett Walls"]},
{"text": "Charming, whimsical, magical.", "is_fresh": 1, "author": ["Susan Granger"]},
{"text": "A superbly entertaining film for the entire family, but what makes it transcendent is how deeply it is able to touch its audience.", "is_fresh": 1, "author": ["Michael Dequina"]},
{"text": "Warm and touching.", "is_fresh": 1, "author": ["Bob Bloom"]},
{"text": "Vastly alluring.", "is_fresh": 1, "author": ["Louis Proyect"]},
{"text": "A film that's enjoyable for both children and adults alike.", "is_fresh": 1, "author": ["Shay Casey"]}
]