[
{"reviews_count": "322", "title": "The Incredibles", "avg_audience_rating": "4.2", "rotten_count": "20", "tomatometer": "94", "audience_score": "87", "avg_critic_rating": "7.9", "fresh_count": "302", "user_ratings_count": "15,419"},
{"text": "While I don't think it shines as brightly as the original, it still plays around with a lot of fun themes and tells a great story that features a family we've come to love dearly.", "is_fresh": 1, "author": ["Stephanie Cooke"]},
{"text": "Bird deserves a ton of credit for waiting until he had a story to tell before making this movie.", "is_fresh": 1, "author": ["Joey Magidson"]},
{"text": "As a sequel, Incredibles 2 is by far and away Pixar's best, it wraps together an intricate story with gorgeous artwork and fantastic acting to create something that manages to inspire the same magic as the first film.", "is_fresh": 1, "author": ["Kt Schaefer"]},
{"text": "While Incredibles 2 isn't quite the instant classic the original was, it's a worthy follow-up, and proudly stands alongside any of the current crop of superhero movies.", "is_fresh": 1, "author": ["Iain Robertson"]},
{"text": "Pretty much everything about Incredibles 2 is superior to its predecessor, from the storyline to the character development, the humor to the heart.", "is_fresh": 1, "author": ["Matt Ward"]},
{"text": "It's not quite the sequel we've waited for which we've waited with bated breath but The Incredibles 2 is another strong, well-crafted addition to the Pixar filmography. ", "is_fresh": 1, "author": ["Brian Gill"]},
{"text": "Incredibles 2 feels like visiting old friends.", "is_fresh": 1, "author": ["Douglas Davidson"]},
{"text": "Just as the original Incredibles took a shot at nerd culture and the toxicity of fanboyism, The Incredibles 2 takes aim at escapist fantasies like superhero movies and society's dependence upon devices.", "is_fresh": 1, "author": ["Matt Oakes"]},
{"text": "The Incredibles 2 is a animated spectacle that edges out its predecessor in nearly every way; but most of all, in pure entertainment value. ", "is_fresh": 1, "author": ["Cameron Frew"]},
{"text": "Incredibles 2 feels more like an expansion pack to the first film than a full-fledged sequel...That said, there's more than enough here to entertain as a summer blockbuster.", "is_fresh": 1, "author": ["Jennifer Heaton"]},
{"text": "The biggest overarching problem here is that there isn't really a singular story at play as much as a dozen or so half-formed sequel ideas that keep getting brought up, sort-of explored and then left to sit", "is_fresh": 0, "author": ["Bob Chipman"]},
{"text": "The Pixar sequel stands shoulder-to-shoulder with its predecessor with its impeccable blend of visual style, comedy, and family dynamics.", "is_fresh": 1, "author": ["Sean Mulvihill"]},
{"text": "While the Pixar emotional drainage is missing (as we've come to expect with almost every effort), the striking animation and constant chuckles will deliver a picture that is something to enjoy for the whole family.", "is_fresh": 1, "author": ["Clayton Davis"]},
{"text": "Certainly very entertaining, but it doesn't have the polish or style of its predecessor. Superheroes as sitcom.", "is_fresh": 1, "author": ["Christopher Lloyd"]},
{"text": "Holly Hunter gets to shine even more this time around. She's the heart and soul of the film. [Full Review in Spanish]", "is_fresh": 1, "author": ["Mario Alegre"]},
{"text": "While the overall experience feels too light, too pointless, too recycled, there's still a sense of excitement to be felt in the moment.", "is_fresh": 1, "author": ["Aaron Leggo"]},
{"text": "Every bit as entertaining, enjoyable, and joyous as the original, proving a sequel can meet high expectations, and then some.", "is_fresh": 1, "author": ["Doug Jamieson"]},
{"text": "The sequel we've all been waiting for.", "is_fresh": 1, "author": ["Nate Adams"]},
{"text": "As good a sequel as fans could have reasonably hoped. ", "is_fresh": 1, "author": ["Kyle Wilson"]},
{"text": "The animation is really interesting this time around. For Frozone and Elastigirl, animators could really deliver high-quality action with impeccable detail. ", "is_fresh": 1, "author": ["Alan French"]},
{"text": "...the one (Pixar) film that, if not surpassing the breadth of its predecessor, at least comes closest to matching it.", "is_fresh": 1, "author": ["Daniel Nava"]},
{"text": "This sequel didn't disappoint. It's a great story, it's good to have them back, and it didn't feel like just a money grab. ", "is_fresh": 1, "author": ["Tony Baker"]},
{"text": "This is a fine time at the movies with a wonderful undercurrent of feminist thinking and some intelligent questioning of the role screens play in our lives.", "is_fresh": 1, "author": ["Lisa Nesselson"]},
{"text": "So while the endgame is familiar, Incredibles 2 finds a way to be unique in its execution of that template.", "is_fresh": 1, "author": ["Jared Mobarak"]},
{"text": "This continues to be the 'fantastic four' that we deserve when we've been very good boys and girls. ", "is_fresh": 1, "author": ["Roth Cornet"]},
{"text": "[Incredibles 2] is maybe not quite as deep as the original, but it certainly lived up to the original--I laughed a lot, it had a lot of really great action. ", "is_fresh": 1, "author": ["Dan Murrell"]},
{"text": "Another huge triumph for Pixar. What an amazing job by Brad Bird.", "is_fresh": 1, "author": ["John Campea"]},
{"text": "That the film manages to convey all that while being a rollicking memorable ride - action sequences with Elastigirl are awe-inspiring, while Jack-Jack steals every scene he's present in - is what makes it great.", "is_fresh": 1, "author": ["Akhil Arora"]},
{"text": "This is awesome. ", "is_fresh": 1, "author": ["Achara Kirk"]},
{"text": "I feel like this surpassed the first one. ", "is_fresh": 1, "author": ["Jaby Koay"]},
{"text": "Brad Bird's Incredibles 2, while a solid follow up, lacks a clear vision of where to take the story next.", "is_fresh": 1, "author": ["Robert Daniels"]},
{"text": "Writer/director Brad Bird delivers all the thrills and chills of the original picture, while still maintaining the heart that captured us the first go round.", "is_fresh": 1, "author": ["Terence Johnson"]},
{"text": "May lack that emotional Pixar punch, but because of the dazzling animation, thrilling action sequences, and the non-stop laughs, this long-awaited and most-anticipated sequel is serviceable enough to make fans of the original incredibly happy.", "is_fresh": 1, "author": ["Rendy Jones"]},
{"text": "What thrilled me the most ... watching these characters do the thing they were born to do [and] fully be themselves instead of repressing something fundamental about themselves.", "is_fresh": 1, "author": ["Adam Kempenaar"]},
{"text": "It's not often there can be this much time between a film and its sequel, and still deliver a picture that is near par with its predecessor.", "is_fresh": 1, "author": ["Sarah Gopaul"]},
{"text": "Sometimes it comes closer to a superhero movie than a \"cartoon,\" and it ends up delivering the best of both worlds.", "is_fresh": 1, "author": ["Asia Frey"]},
{"text": "Bird's screenplay mines every last drop of comedy from this role reversal set up, and then digs deeper to find some more.", "is_fresh": 1, "author": ["Alison Rowat"]},
{"text": "\"Incredibles 2\" is a step up from lackluster adventure, but it plays more like an above-average Pixar sequel than a worthy successor to one of the best superhero movies of all time. ", "is_fresh": 1, "author": ["Ruben Rosario"]},
{"text": "Amid a plethora of tired summertime movie sequels, Incredibles 2 stands out. Fourteen years in the making, Incredibles 2 is a superhero movie critiquing what it means to believe in superheroes.", "is_fresh": 1, "author": ["Kathryn Reklis"]},
{"text": "Bird injects enough sincerity and affection to forgive his clumsier attempts at making statements about governmental oversight, rampant consumerism and technological obsession, all obvious parallels with reality that don't easily cohere. ", "is_fresh": 1, "author": ["Glenn Heath Jr."]},
{"text": "It was lovely to spend more time with these characters and a great moviegoing experience, too, while it lasted. And yet... forgettable? ", "is_fresh": 1, "author": ["Nathaniel Rogers"]},
{"text": "An erratic (and ultimately disappointing) sequel...", "is_fresh": 0, "author": ["David Nusair"]},
{"text": "Incredibles 2 is big, action-packed and rich in plot, but it has a personal charm to it as well. The characters are reminiscent of real people, their fears, hopes and dreams true to life. ", "is_fresh": 1, "author": ["Jamie Neish"]},
{"text": "Incredibles 2 isn't a new flavor, but it is the most refreshing of the summer. [Full Review in Spanish]", "is_fresh": 1, "author": ["Alberto Lechuga"]},
{"text": "While the magic of the original film is dulled a bit with time, the new adventure still impresses.", "is_fresh": 1, "author": ["Wesley Lovell"]},
{"text": "What a great family movie!", "is_fresh": 1, "author": ["Linda Cook"]},
{"text": "All enjoyable, all perfect and, however, excessive in its perfection. [Full review in Spanish]", "is_fresh": 1, "author": ["Luis Mart\u00ednez"]},
{"text": "Spectacle at both technical and narrative levels. [Full Review in Spanish]", "is_fresh": 1, "author": ["Fausto Fernandez"]},
{"text": "Pixar's heroes are still the best, but they do not match their first film. [Full review in Spanish]", "is_fresh": 1, "author": ["Yago Garc\u00eda"]},
{"text": "The inventive choreography, animation detail, and stylish production design beg to be seen on the big screen. If the plot hadn't felt like a major recycling of the 2004 movie, it would surprise, but there's plenty outside the story mechanics to delight.", "is_fresh": 1, "author": ["Eric Melin"]},
{"text": "You'll gawp. You'll ponder. You'll laugh. A Pixar flick would be nothing without the last.", "is_fresh": 1, "author": ["Donald Clarke"]},
{"text": "Incredibles 2 could be the future; a future in which every movie is polished but beige, beautiful but bland, fun but fawning, amusing but dull.", "is_fresh": 0, "author": ["Ed Whitfield"]},
{"text": "Incredibles 2 achieves its goal of entertaining and moving with certain passages in which we talk about the family union to get ahead in difficult times. [Full Review in Spanish]", "is_fresh": 1, "author": ["Lucero Calder\u00f3n"]},
{"text": "A wonderful rejoinder to the DC and Marvel superhero movies, Incredibles 2 nails it.", "is_fresh": 1, "author": ["James Mottram"]},
{"text": "A family film that really will entertain the entire family and is a total delight, from the Underminer of the opening to the exquisitely styled credits at the end. Hugely recommended.", "is_fresh": 1, "author": ["Matthew Bond"]},
{"text": "Brad Bird not only directs with the same assured inventiveness he brought to The Incredibles (and Ratatouille, and The Iron Giant), but has written a script every bit as smart, witty and touching as the first.", "is_fresh": 1, "author": ["Matthew Norman "]},
{"text": "It may not be as polished as its predecessor, but Incredibles 2 is action-packed and joyful enough to please fans already connected to these characters. ", "is_fresh": 1, "author": ["Amy West"]},
{"text": "A true family movie that really does have something for all ages.", "is_fresh": 1, "author": ["Jo Berry"]},
{"text": "A follow-up that may not surpass the achievements of its illustrious predecessor, but which still manages to deliver a classic in its own right. You'll have a blast.", "is_fresh": 1, "author": ["Rob Carnevale"]},
{"text": "There's a serious movie lurking at the heart of all this hi-tech adventure that takes timely swipes at gender inequality, family stress and the modern triumph of salesmanship over substance.", "is_fresh": 1, "author": ["Mark Kermode"]},
{"text": "Incredibles 2 is obviously incredibly fun, beautiful and well structured.", "is_fresh": 1, "author": ["Jamie East"]},
{"text": "A film which is as delightful as the original.", "is_fresh": 1, "author": ["Kate Muir"]},
{"text": "Never underestimate Pixar's superpowers. In the end, gorgeous animation, great voice acting and a witty script save the day.", "is_fresh": 1, "author": ["Andy Lea"]},
{"text": "The result is hugely entertaining and often visually audacious...yet it doesn't quite pack the emotional wallop of the original. ", "is_fresh": 1, "author": ["Kevin Maher"]},
{"text": "This baby has a whole range of superpowers, one of which is stealing Incredibles 2 from the adult cast.", "is_fresh": 1, "author": ["Alan Corr"]},
{"text": "More disappointing than the lack of inspiration here is the taint of corporate bias... A studio that has billions of dollars' worth of skin in the game of flogging sequels, merchandise and theme parks is in no position to issue moral instruction. ", "is_fresh": 0, "author": ["Ryan Gilbey"]},
{"text": "A gorgeously curated scrapbook of sharply observed household comedy, sublimely staged action, a pinch of Chuck Jones-era slapstick, and enough modernist eye candy to induce a sugar coma in design buffs.", "is_fresh": 1, "author": ["Robbie Collin"]},
{"text": "The movie is funny, exuberant, inventive. It's even wise.", "is_fresh": 1, "author": ["Nigel Andrews"]},
{"text": "Incredibles 2 will create its own ravenous consumers, as it will doubtless inspire the original's repeat viewing and cult status that made this sequel long awaited.", "is_fresh": 1, "author": ["Saskia Baron"]},
{"text": "How great to see them back in this funny, exciting, if less audacious film.", "is_fresh": 1, "author": ["Peter Bradshaw"]},
{"text": "Perhaps it falls a smidgen short of incredible second time around, but it's well nigh irresistible entertainment all the same.", "is_fresh": 1, "author": ["Trevor Johnston"]},
{"text": "While not upper-echelon Pixar, the result is something of a magic trick: a bona fide for-all-ages romp.", "is_fresh": 1, "author": ["J. Olson"]},
{"text": "It was totally worth the 14-year wait and I'm so glad it's here now. Take some nerdlings. Go sans kids. Get a group of your grown friends together. Take yourself out on a date. Doesn't matter how you get there, just go!", "is_fresh": 1, "author": ["Brittany N. Williams"]},
{"text": "The Incredibles still holds its own as one of the best superhero properties in cinema", "is_fresh": 1, "author": ["Matt Looker"]},
{"text": "Brad Bird's fleet-footed sequel reminds us that movies featuring god-like beings can challenge human-sized issues and not take themselves too seriously while doing so.", "is_fresh": 1, "author": ["Jamie Dunn"]},
{"text": "Incredibles 2 is the second best superhero movie of the year, after Black Panther.", "is_fresh": 1, "author": ["Heather Hogan"]},
{"text": "All of this is set to Michael Giacchino's fantastic score, which continues to wow with its jazzy, big band style. The music helps draw you into the world and personality of the film.", "is_fresh": 1, "author": ["Chris Penwell"]},
{"text": "The Incredibles 2, like the original, is a first-rate animated movie.", "is_fresh": 1, "author": ["Stephen Romei"]},
{"text": "The Incredibles 2 provides a joyfully sophisticated escapism and fantasy that both kids and adults will welcome right now.", "is_fresh": 1, "author": ["Loren King"]},
{"text": "while Incredibles 2 is not nearly as good as the first film, there is a lot to enjoy here, starting with the still wonderful visual design", "is_fresh": 1, "author": ["James Kendrick"]},
{"text": "Utterly infatuated with being a superhero movie, and because It's animated, it gets to be a way better one.", "is_fresh": 1, "author": ["Tim Brayton"]},
{"text": "Pixar's award-winning quality standards in terms of story and animation remain intact, and this is a very good quality sequel, with a very similar storyline to the first film.", "is_fresh": 1, "author": ["Robert Roten"]},
{"text": "Incredibles 2 may not be superior to the original, but it was well worth the wait.", "is_fresh": 1, "author": ["Pete Vonder Haar"]},
{"text": "Even if the mechanics of the plot sometimes bog down in expository dialog, Bird more than makes up for it with character-based humour.", "is_fresh": 1, "author": ["Rich Cline"]},
{"text": "Incredibles 2 regresses to a time when any power women managed to acquire was carefully controlled so as not constitute a threat to the male order. Such nostalgia is self-defeating.", "is_fresh": 0, "author": ["Andrea Thompson"]},
{"text": "Bird has this ability to show us ourselves in a fun and sympathetic way. This is why his films, more than even other Pixar offerings, resonate so strongly with adults on an adult level, while still being enjoyable for kids.", "is_fresh": 1, "author": ["DaVette See"]},
{"text": "Incredibles 2 spins like a pop-art pinwheel because [Brad] Bird boasts a coherent and scintillating vision. He turns an action comedy about superhumans into a jamboree of human possibilities.", "is_fresh": 1, "author": ["Michael Sragow"]},
{"text": "Usually when watching a comic book... movie, I walk out of the theater desperate to live in their world. I would hate to run into The Incredibles in real life because I'd be certain they would be looking at me with judgement in their eyes...", "is_fresh": 0, "author": ["Jared Rasic"]},
{"text": "Brad Bird's smart decision to focus the story on Holly Hunter's Elastigirl makes it more in tune with the Time's Up era and the nascent powers of baby Jack-Jack steal the show.", "is_fresh": 1, "author": ["Alistair Harkness"]},
{"text": "It's totally been worth the wait.", "is_fresh": 1, "author": ["Graeme Tuckett"]},
{"text": "This is the most bountiful visual feast seen yet in a year full of bountiful big-screen feasts. But once again, it's the character interaction that really makes this work. All superhero movies should be this thoughtful.", "is_fresh": 1, "author": ["Dominic Corry"]},
{"text": "While not quite matching the highs of its predecessor, Incredibles 2 is still an energetic ride of excitement, adventure, humour and heart, and one that establishes plenty of scope for progression should Pixar wish to continue the series. ", "is_fresh": 1, "author": ["Andrew Marshall"]},
{"text": "Don't mistake \"Incredibles 2\" for another \"Montsters University,\"and \"Finding Dory.\" Bird, a true visionary, never settles without a risk and \"Incredibles 2,\" despite the flaws, and the predictable twist, is driven by Bird's wild imagination.", "is_fresh": 1, "author": ["Jordan Ruimy"]},
{"text": "The Incredibles is a story about family wrapped in a high-speed rollercoaster. Part Fantastic Four, part Fast and the Furious. We root for this family to overcome, succeed, and grow stronger together.", "is_fresh": 1, "author": ["Alan Ng"]},
{"text": "... A spectacular piece of entertainment that should be mentioned ... in any conversation of the greatest superhero movies ever made.", "is_fresh": 1, "author": ["Greg Maki"]},
{"text": "I walked out of the theatre feeling like I'd just watched the year's most exhilarating action movie.", "is_fresh": 1, "author": ["Aaron Yap"]},
{"text": "\"The comic-book nature of their social outlawry reduces Zack Snyder's profound issues of faith and the supernatural into the typical Marvel mess of jokey, anti-mythological ultra-cynicism.\"", "is_fresh": 0, "author": ["Armond White"]},
{"text": "Yes, it's very funny, but there's nothing about the concept that takes it much further. [Full Review in Spanish] ", "is_fresh": 1, "author": ["Carlos D\u00edaz Reyes"]},
{"text": "Is not that the sequel of The Incredibles (Bird, 2004) is flawed, but as has happened with anothers sequels of Pixar, the extension of the story and the original characters fail to transcend.", "is_fresh": 1, "author": ["Ernesto Diezmartinez"]},
{"text": "The franchise's canny ability to combine cartoon antics with cutting societal commentary ensures this is no mere rehash.", "is_fresh": 1, "author": ["Sarah Ward"]},
{"text": "Craig T Nelson and Holly Hunter in particular are on top form, and the laughs are genuine and well-earned.", "is_fresh": 1, "author": ["Hannah Woodhead"]},
{"text": "Just as Elastigirl is stretched past recognition and restored to her proper definition, this is Brad Bird's demonstration of spectacular flexibility -- and a return to form.", "is_fresh": 1, "author": ["Jeffrey Overstreet"]},
{"text": "But something in [Brad Bird] (or me) goes brain-dead when it comes to the \"Incredibles\" movies. They have no inner spark.", "is_fresh": 0, "author": ["Eleanor Ringel Cater"]},
{"text": "It may not be groundbreaking but Pixar's latest Incredibles film... is a wonderfully lively, very witty affair.", "is_fresh": 1, "author": ["Geoffrey Macnab"]},
{"text": "Incredibles 2 is a laugh-out-loud summer popcorn flick that speaks to all family members, offering timely messages of marriage equality and female empowerment. ", "is_fresh": 1, "author": ["Sarah Knight Adamson"]},
{"text": "Despite not innovating in terms of the script, The Incredibles 2 is a worthy successor to the first that meets on the side of nostalgia and quality in animation. [Full Review in Spanish]", "is_fresh": 1, "author": ["Diana Su"]},
{"text": "Another visually-captivating, dizzying delight for young and old alike. Pixar and Disney have done it again! ", "is_fresh": 1, "author": ["Kam Williams"]},
{"text": "Sequels often feel inferior to the original but that's not the case here. Writer-director Brad Bird has returned to create a worthy, interesting story that befits the era we live in.", "is_fresh": 1, "author": ["Matthew Toomey"]},
{"text": "Brad Bird's exhilarating sequel continues to investigate the theme of parenthood as a superheroic endeavor and expands the conversation to gender roles in modern families.", "is_fresh": 1, "author": ["Annlee Ellingson"]},
{"text": "The societal themes Bird is exploring are timelier than ever, and the movie's shiny, retro-futuristic look and Michael Giacchino's spy-movie score are as fresh as they were 14 years ago.", "is_fresh": 1, "author": ["Brandy McDonnell"]},
{"text": "A triumph of a sequel and a reminder of what superhero movies are capable of.", "is_fresh": 1, "author": ["Sean Fallon"]},
{"text": "The cannily appointed voice cast and silky, almost sculpted visuals ensure that this follow-up is still somewhat super.", "is_fresh": 1, "author": ["Emma Simmonds"]},
{"text": "The movie doesn't force the role-reversal point, nor does it treat it as bewildering, although the creators will likely enjoy the benefit of viewers applauding them for writing powerful (animated) women.", "is_fresh": 1, "author": ["Maria Sherman"]},
{"text": "There's a lesson in there about apathy and idealism, valuable because it comes at a time when doing nothing doesn't seem like a valid option anymore. It's also a lowkey remake of Hancock.", "is_fresh": 1, "author": ["Rohan Naahar"]},
{"text": "Right there with the first film in the series, and marks another triumph for director Brad Bird", "is_fresh": 1, "author": ["Stephen Silver"]},
{"text": "It's been 14 years since The Incredibles, and superhero movies are a lot thicker on the ground now, but writer-director Brad Bird has lost none of his wit and ingenuity; he can still show them how it's done.", "is_fresh": 1, "author": ["Jim Lane"]},
{"text": "Adults will delight in the clever references, subtitles and nuances that Pixar regularly imbues in their films... [Full Review in Spanish] ", "is_fresh": 1, "author": ["Diego Batlle"]},
{"text": "I exaggerate not a bit when I say that parents will feel just as empowered while watching \"Incredibles 2\" as any child.", "is_fresh": 1, "author": ["Bob Mondello"]},
{"text": "Despite the first Incredibles feeling newer and, ideas-wise, more focused in its tale of dreary domesticity rubbing up against wacky world-saving, this is terrific.", "is_fresh": 1, "author": ["Jamie Graham"]},
{"text": "Incredibles 2 is well worth the wait... (another) super-smart breakdown of family dynamics that just so happens to be wearing a superhero costume.", "is_fresh": 1, "author": ["Matt Neal"]},
{"text": "It's a nostalgic vision of total power of a local minimum that echoes sickeningly with the nostalgic pathologies of the current day, nowhere more than in Win's enthusiastic declaration of his plan to \"make superheroes legal again.\"", "is_fresh": 0, "author": ["Richard Brody"]},
{"text": "Brad Bird's vibrant, relentlessly paced sequel to his 2004 animation classic is not only a superior film, it ironically offers a refreshing, slick alternative to all the mega-sized superhero films that have invaded the multiplex.", "is_fresh": 1, "author": ["Jim Schembri"]},
{"text": "Beyond the shift in perspective there's little willingness to experiment, a reality at stark odds with the sheer creativity on display.", "is_fresh": 1, "author": ["Joshua Starnes"]},
{"text": "Both films in the series combine farce with highly tuned stunts and a delicate way with characterisation once seen only in hand-drawn animation.", "is_fresh": 1, "author": ["Sandra Hall"]},
{"text": "Probably the most visually dazzling film Pixar has ever made.", "is_fresh": 1, "author": ["Vincent Mancini"]},
{"text": "Stylized designs and outlandish powers aside, Bob, Helen and their progeny still feel oddly real.", "is_fresh": 1, "author": ["Margot Harrison"]},
{"text": "So much fun...the vibe of this movie completely connects with the last one, despite the fact they came out 14 years ago...there was a long wait, but it was worth it.", "is_fresh": 1, "author": ["Andre Meadows"]},
{"text": "This film was really epic and exhilarating, the villain was kind of weak, but it knew to focus on the heroes and flesh out their stories...and have a message that feels relevant.", "is_fresh": 1, "author": ["Chris Stuckmann"]},
{"text": "Incredible 2 breaks little new ground but does a good job of representing the dysfunctional family next door.", "is_fresh": 1, "author": ["Jayati Bhola"]},
{"text": "Brad Bird believed in waiting for the right story to tell, and that decision certainly pays off in more ways than one.", "is_fresh": 1, "author": ["Neil Soans"]},
{"text": "Brad Bird has made a film in the best traditions of Disney - great animation mixed with some real life issues and homilies.", "is_fresh": 1, "author": ["Devesh Sharma"]},
{"text": "The Incredibles 2 is an undeniable triumph, but it is also so keenly aware that it becomes exhausting.", "is_fresh": 1, "author": ["Josephine Livingstone"]},
{"text": "I would love to see a third [Incredibles]; I just hope it doesn't take another fourteen years to get made. [Full review in Spanish]", "is_fresh": 1, "author": ["Sebastian Zavala Kahn"]},
{"text": "Although it has some flaws... [Incredibles 2] has the visuals and the excitement of a good superhero movie. [Full review in Spanish]", "is_fresh": 1, "author": ["Cristina Vales"]},
{"text": "[Brad] Bird's return to this universe is absolutely fantastic with action, laughs, stellar animation, and genuinely evocative ideas put forth for older audiences.", "is_fresh": 1, "author": ["Felix Vasquez Jr."]},
{"text": "Incredibles 2 carries an unexpected importance while also being one of the best action films in recent memory. [Full Review in Spanish]", "is_fresh": 1, "author": ["Erick Estrada"]},
{"text": "After fourteen years of waiting they could have cooked up something more powerful... [Full Review in Spanish]", "is_fresh": 0, "author": ["Adri\u00e1n Ruiz"]},
{"text": "Incredibles 2 is a solid enough sequel, but it doesn't have the original film's light, playful touch.", "is_fresh": 1, "author": ["Vicky Roach"]},
{"text": "The novelty is in the villain... perhaps its message may go by unnoticed, but it is not too shabby for a children's film. [Full Review in Spanish]", "is_fresh": 1, "author": ["Hugo Hern\u00e1ndez Valdivia"]},
{"text": "Incredibles 2 may not be an instant classic, but it is still an entertaining experience for families. [Full Review in Spanish]", "is_fresh": 1, "author": ["Rafael Rosales Santos"]},
{"text": "Let's be clear, in the visual aspect we are facing a filmic wonder. [Full review in Spanish].", "is_fresh": 1, "author": ["William Venegas"]},
{"text": "The two films thus form a double-feature whose value goes far beyond the undeniable cinematographic quality they possess... The Incredibles 2 is simply one of the best superhero movies. [Full review in Spanish]", "is_fresh": 1, "author": ["Emmanuel B\u00e1ez"]},
{"text": "The Incredibles 2 may not be as philosophically cohesive as it could be, but it is a fun, engaging film about letting others live their authentic lives. ", "is_fresh": 1, "author": ["Sarah Marrs"]},
{"text": "Incredibles 2 is a solid film, with enough elements to anchor itself the first... [Full review in Spanish]", "is_fresh": 1, "author": ["Laura Hiros"]},
{"text": "Once Michael Giacchino's score -- his best and most excitable -- was up and running, I was happy and hooked.", "is_fresh": 1, "author": ["Anthony Lane"]},
{"text": "What's been missing from Pixar's rightly vaunted stable in recent years has been a solid and exuberant adventure romp that's not going to make adults cry. Thank god for Incredibles 2.", "is_fresh": 1, "author": ["Wenlei Ma"]},
{"text": "Incredibles 2 is a guaranteed good time at the movies. But like other Pixar sequels, it provides the entertainment value but eases the brakes on anything more substantial.", "is_fresh": 1, "author": ["Matt Brunson"]},
{"text": "Incredibles 2 was worth the wait, though. The movie takes everything that worked about the original and elevates it.", "is_fresh": 1, "author": ["Mike McGranaghan"]},
{"text": "There's some quibbles to be had in an over-familiar setup, and an under-served villain, but overall this is a gloriously fun family parable, and as entertaining as any superhero movie you'll see this year.", "is_fresh": 1, "author": ["John Nugent"]},
{"text": "Bird's idea to give \"Incredibles 2\" a decidedly feminist bent by moving Elastigirl, aka Helen, to the fore seems creaky in the wake of last year's mega hit, \"Wonder Woman.\" Still, I can't say I wasn't mildly entertained.", "is_fresh": 1, "author": ["Al Alexander"]},
{"text": "For some reason, we can't crawl through the cartoon door and into this universe the same way we used to. We've grown, either too jaded by experience or too overwhelmed by the images, to fit into this reduction.", "is_fresh": 1, "author": ["Katherine Monk"]},
{"text": "The action is plentiful. The gags are funny. Everybody is a day older. The real villain is exactly who you expect. And that's about it.", "is_fresh": 1, "author": ["Rubin Safaya"]},
{"text": "Incredibles 2 hits all the right notes, with feminist themes, crazy visuals, and yeah, a little bit of exceptionalism.", "is_fresh": 1, "author": ["Roxana Hadadi"]},
{"text": "Incredibles 2 delivers timely messages about marriage equality, female empowerment, and technological oversaturation along with engrossing, colorful visuals.", "is_fresh": 1, "author": ["Roxana Hadadi"]},
{"text": "Using all of the digital advancements from the last 14 years, Brad Bird manages to make every action sequence in Incredibles thrilling without taking away from the familial element that made its predecessor revolutionary. ", "is_fresh": 1, "author": ["Luke Parker"]},
{"text": "You have to be more incredible than this to compete in today's marketplace, but \"pretty OK\" will have to do for now.", "is_fresh": 1, "author": ["Eric D. Snider"]},
{"text": "Bird thinks and films like an architect... and understands that real superheroes are born on paper and not on a computer pixel. [Full Review in Spanish]", "is_fresh": 1, "author": ["Jorge (JJ) Negrete"]},
{"text": "It's so well-done. I love the idea of parents being superheroes, I love that message.", "is_fresh": 1, "author": ["Steph Cozza"]},
{"text": "Everything from the voice acting, character development, plot line, action sequences, pacing and overall direction is pure brilliance.", "is_fresh": 1, "author": ["Jamal-Dean Grootboom"]},
{"text": "With an extraordinary sequence starring a baby and a raccoon, the film makes the [long wait] not in vain. [Full review in Spanish]", "is_fresh": 1, "author": ["Ruben Peralta Rigaud"]},
{"text": "A little more simplicity would have lifted Incredibles 2 from good to the incredible status of the first film.", "is_fresh": 1, "author": ["Rick Bentley"]},
{"text": "Yes, it's fun for all the same reasons. But it's also a greedy corporate remake of the original film.", "is_fresh": 1, "author": ["James Verniere"]},
{"text": "Something has changed in the last 14 years, and The Incredibles 2 is a symbol of that change. [Full review in Spanish]", "is_fresh": 1, "author": ["Pablo A. Scholz"]},
{"text": "Whether you enjoy The Incredibles 2 as much as the original will likely depend on your opinion of the latter, but regardless, you'll be happy both exist. And in today's sequel-saturated environment, that is practically a superheroic achievement in itself.", "is_fresh": 1, "author": ["Michael Burgin"]},
{"text": "With Incredibles 2, Bird keeps finding new ways for his characters to work in concert, to cooperate and collaborate in order to keep escalating the action.", "is_fresh": 1, "author": ["Tasha Robinson"]},
{"text": "Naturally, it's the chases and fight sequences that are the greatest joys of Incredibles 2.", "is_fresh": 1, "author": ["Karen Han"]},
{"text": "Incredibles 2 doesn't elevate the concept of the original, but like its predecessor, it's fun, colorful and a visual treat... [Full Review in Spanish]", "is_fresh": 1, "author": ["Benjam\u00edn Harguindey"]},
{"text": "The action sequences in this movie are better than anything most movies or franchises could ever hope to get.", "is_fresh": 1, "author": ["Jeremy Jahns"]},
{"text": "Terrific, action-packed superhero sequel was worth the wait. ", "is_fresh": 1, "author": ["Sandie Angulo Chen"]},
{"text": "For a movie that they were obligated to make, they did really, really well. ", "is_fresh": 1, "author": ["Matt Atchity"]},
{"text": "This is the kind of movie that is why we like Pixar. ", "is_fresh": 1, "author": ["Alonso Duralde"]},
{"text": "It is fast, funny, often visually stunning and should prove to be entertaining enough for young and old viewers alike.", "is_fresh": 1, "author": ["Peter Sobczynski"]},
{"text": "It's really fun, and it moves really well. It was paced beautifully and is gorgeously detailed...Get there early and see everything. ", "is_fresh": 1, "author": ["Christy Lemire"]},
{"text": "This is a summer movie that's fun, funny and fit for the whole family. Even if you're not a family of superheroes, you will still have a super time.", "is_fresh": 1, "author": ["Michael Heaton"]},
{"text": "Smart, funny, energetic and a lot of fun, which means it's about as good as we can hope for from the studio that used to be Pixar.", "is_fresh": 1, "author": ["Steven D. Greydanus"]},
{"text": "This is an entertaining, well-made movie that's a model of family entertainment. Writer-director Brad Bird, who made his Pixar debut with The Incredibles in 2004, has come up with a fresh take on his ground-breaking story of a superhero clan", "is_fresh": 1, "author": ["Leonard Maltin"]},
{"text": "This sequel continues the story as nothing has changed in the past fourteen years. That is to the film's credit, and also its detriment.", "is_fresh": 0, "author": ["Alan Zilberman"]},
{"text": "The antics of the baby & some of the Mr. Mom scenes make this a winner. But a 2-hour animated movie is about 20-minutes too long for younger kids & for some - me - adults. ", "is_fresh": 1, "author": ["Gary Wolcott"]},
{"text": "with a new spin on the formula, INCREDIBLES 2 is strikingly in tune with the times", "is_fresh": 1, "author": ["Chris Bumbray"]},
{"text": "Despite essentially being a carbon copy, the sequel cranks out more than a few surprises involving the Parrs.", "is_fresh": 1, "author": ["tt stern-enzi"]},
{"text": "Do you remember when superhero movies were light-hearted popcorn fare instead of overwrought epics? \"The Incredibles 2,\" which is absolutely delightful, recalls that time.", "is_fresh": 1, "author": ["Matthew Rozsa"]},
{"text": "Incredibles 2 has something to say that's big and messy... It's not a perfect film, but it might be an important one.. ", "is_fresh": 1, "author": ["Walter Chaw"]},
{"text": "Yes, it's a story with social resonance-the shifting roles of men and women, our growing technological overload-but it doesn't beat us over the head with \"messages.\" ", "is_fresh": 1, "author": ["Kurt Loder"]},
{"text": "A slickly-paced visual dynamo, the family superhero flick is a dynamic crowd-pleaser that gives superfans just about everything they could have bargained for.", "is_fresh": 1, "author": ["Phil Villarreal"]},
{"text": "In other words, the film is about as iron-clad safe as it could have been, with many reprisals and echoes from the first film... It gives the audience what is most obvious to offer, but doesn't attempt to go any deeper.", "is_fresh": 1, "author": ["Piers Marchant"]},
{"text": "There's one way Incredibles 2 differs from its predecessor, and it may leave some gritting their teeth.", "is_fresh": 1, "author": ["Christian Toto"]},
{"text": "There's a lot to love here, first and foremost Bob pulling Mr. Mom duties while Elastigirl is out saving the world.", "is_fresh": 1, "author": ["Sonny Bunch"]},
{"text": "Big, annoying and mostly, pointless.", "is_fresh": 0, "author": ["Barry Hertz"]},
{"text": "Part of the problem is that in the years since the original we've been inundated with superhero movies. It's a film that feels like we've already seen it - several times.", "is_fresh": 0, "author": ["Daniel M. Kimmel"]},
{"text": "At a time when movie screens are clogged with indistinguishable superheroes, Incredibles 2 rises above the noise with its defiantly humane soul.", "is_fresh": 1, "author": ["Tomris Laffly"]},
{"text": "'Incredibles 2' proves to be a credible follow-up, offering an assemblage of avenging superheroes who manage to entertain and exhilarate if never quite surprise.", "is_fresh": 1, "author": ["Jason Gorber"]},
{"text": "The concept of baby-proofing a house takes on a whole new meaning when it isn't the baby you're trying to protect, but the house. ", "is_fresh": 1, "author": ["Nell Minow"]},
{"text": "Worth the surprisingly long wait. Is it a superior sequel to Director/Writer Brad Bird's first spin with the Parr family? It's close, but not quite. ", "is_fresh": 1, "author": ["Jeffrey Lyles"]},
{"text": "[If we're ranking Pixar sequels], there is Toy Story 3, and then there is everything else, with Incredibles 2 a few steps ahead of everything else. ", "is_fresh": 1, "author": ["David Medsker"]},
{"text": "What kind of maniac doesn't like a movie with a baby that shoots lasers out of its eyes?", "is_fresh": 1, "author": ["Jordan Hoffman"]},
{"text": "As in the original hit, this is a story of remarkable character design and visually elegant 1960s-chic world-building.", "is_fresh": 1, "author": ["Colin Covert"]},
{"text": "Incredibles 2 feels like a rebuke of the audience that came to gawk at a superhero movie - and worse, that had the nerve to identify with its superior protagonists.", "is_fresh": 0, "author": ["Matthew Lickona"]},
{"text": "There is a live-action preamble attached to the film with Bird and the voice actors apologizing and explaining that these kinds of films take forever to make. We get it. No apology necessary.", "is_fresh": 1, "author": ["Clint O'Connor"]},
{"text": "[T]heir super-heroics feel genuinely super.", "is_fresh": 1, "author": ["Mark Dujsik"]},
{"text": "Once again, the action is fittingly spectacular, the music is great, and the whole thing looks fantastic.", "is_fresh": 1, "author": ["Glen Weldon"]},
{"text": "The expanded role of Elastigirl, and Hunter, also marks one of the major gains for the sequel, in addition to some elastically inventive, heart-racing action sequences.", "is_fresh": 1, "author": ["Andr\u00e9 Hereford"]},
{"text": "Disney/Pixar's \"Incredibles 2\" is a great-looking sequel about the importance of family, and the potential for revenue.", "is_fresh": 1, "author": ["Joe Morgenstern"]},
{"text": "What more can be said? Everything is as excellent as it could and should be for Incredibles 2, with the added bonus of a spectacular unveiling of baby Jack-Jack's much-discussed secret superpower.", "is_fresh": 1, "author": ["Leigh Paatsch"]},
{"text": "For all that, an astonishing amount of this movie still works.", "is_fresh": 1, "author": ["Kristian M. Lin"]},
{"text": "Incredibles 2 matters because Bird understands we as an audience are fond of Bob, Helen, Violet, Dash and Jack-Jack because they in turn love one another with selfless transparency.", "is_fresh": 1, "author": ["Sara Michelle Fetters"]},
{"text": "Incredibles 2 is a bright and bouncy addition to the lineup and a refreshing turn from recent dark and brooding superhero movies about men who miss their parents.", "is_fresh": 1, "author": ["Hannah Lynn"]},
{"text": "Incredibles 2 reminds its viewers Helen Parr is cool, brilliant, unflappable-not just super, but exceptional. As such, it's a shame the story surrounding her is anything but.", "is_fresh": 1, "author": ["Michael Arbeiter"]},
{"text": "For this cultural-analysis-loving adult, however, Pixar has created a worthy sequel to the Incredibles' story.", "is_fresh": 1, "author": ["Megan Basham"]},
{"text": "Gifted Pixar filmmaker Brad Bird returns to his creation and plays to all of his wonderful characters' strengths.", "is_fresh": 1, "author": ["Michael Smith"]},
{"text": "No longer so incredible - and in truth, they never really were - Brad Bird and the Parrs are now happy just to be thought of as reliably entertaining.", "is_fresh": 1, "author": ["Peter Howell"]},
{"text": "'Incredibles 2' is a sequel that's just as extraordinary as the original. ", "is_fresh": 1, "author": ["Roger Tennis"]},
{"text": "It's a work of pure craftsmanship, designed to hold up to repeat viewings and making a grand companion piece to the first film. ", "is_fresh": 1, "author": ["Rob Vaux"]},
{"text": "Bursting with style and imagination, \"The Incredibles 2\" sets a standard that few superhero flicks - animated or live-action - can match.", "is_fresh": 1, "author": ["Calvin Wilson"]},
{"text": "For all the nostalgia, this doesn't seem like a replay or a retread. It's particularly welcome, elating and thrilling, and it's less kid-pitched than recent Pixars: the older you are, the more you'll be pleased by what's going on.", "is_fresh": 1, "author": ["Richard von Busack"]},
{"text": "It satisfies on the most basic level - but you'll be left wondering why it didn't go any further.", "is_fresh": 1, "author": ["Norman Wilner"]},
{"text": "With the fabulous voice cast in top form and characters it's impossible not to love, this is certainly one of the best family-film outings released this - or any - year.", "is_fresh": 1, "author": ["David 'Mad Dog' Bradley"]},
{"text": "...a cathartic riff on working parenthood in this multitasking millennium.", "is_fresh": 1, "author": ["Josh Larsen"]},
{"text": "Will equally appeal to kids and adults with plenty of material to appease both crowds. (Full Content Review for Parents - Violence, etc. - also Available)", "is_fresh": 1, "author": ["Jim Judy"]},
{"text": "The material is entertaining even if it feels rather familiar - save for the Jack-Jack shenanigans. ", "is_fresh": 1, "author": ["Boon Chan"]},
{"text": "Even in the midst of its many boundless pleasures, Incredibles 2 charges us with a mission that's not for the faint of heart: to choose to look at one another instead of being fixated on the screens all around us.", "is_fresh": 1, "author": ["Stephanie Zacharek"]},
{"text": "Some [Pixar] sequels have felt needless (or awful: \"Cars 2\"), while others have been most welcome. The 20th Pixar feature \"Incredibles 2\" is definitely in the latter camp.", "is_fresh": 1, "author": ["Jeffrey M. Anderson"]},
{"text": "Imaginative, inventive and exciting, Brad Bird's sequel is fun family fare.", "is_fresh": 1, "author": ["Susan Granger"]},
{"text": "But perhaps Incredibles 2's greatest achievement is that it manages to feel like a superhero movie with well-designed action sequences while also poking fun at the genre. ", "is_fresh": 1, "author": ["Anne Cohen"]},
{"text": "The production mirrors what fans will remember from the original film, with stylish animation, bright colors, constant wit and an energetic vibe - plus return visits from familiar faces.", "is_fresh": 1, "author": ["Josh Terry"]},
{"text": "Incredibles 2 isn't as good or affecting as the first, but it is prettier, louder, faster, and funnier-and if you have to make a trade, that's not a bad one. ", "is_fresh": 1, "author": ["Bobby Roberts"]},
{"text": "Incredibles 2 serves up that smart, funny, and eye-popping spectacle that viewers have come to expect from the animation studio whose particular brand of humanistic idealism under the guise of family entertainment has few equals. ", "is_fresh": 1, "author": ["Josh Kupecki"]},
{"text": "It's a joy to have them back, even if their second adventure isn't as enthralling or fresh as their first.", "is_fresh": 1, "author": ["Laura Clifford"]},
{"text": "Once again the animation is spectacular, but on a narrative level the picture treads an all-too-familiar path, not just in its action trajectory but in terms of present-day bromides about girl power and family dynamics.", "is_fresh": 1, "author": ["Frank Swietek"]},
{"text": "It cleverly inverts some of the original's storylines, builds on the central themes and provides an all-you-can-eat buffet of eye candy.", "is_fresh": 1, "author": ["Chris Vognar"]},
{"text": "In the end, the feeling you may take with you as you leave the theater, despite the forced good cheer of the finale and Michael Giacchino's airily mellifluous score, is one of disenchantment.", "is_fresh": 0, "author": ["Ty Burr"]},
{"text": "The characters accomplish pretty much the same things that they accomplished in the first movie, just on a slightly larger scale, and the same goes for the filmmakers.", "is_fresh": 1, "author": ["Josh Bell"]},
{"text": "Bird's script more than justifies this second adventure and more importantly manages to fully develop each character and entertain audiences of all ages. [Full Review in Spanish]", "is_fresh": 1, "author": ["Juanma Fern\u00e1ndez Par\u00eds"]},
{"text": "Bird keeps Incredibles 2 humming along at a great pace, alternating between some really fun and thrilling action sequences, a warm-hearted and relatable family story, and abundant laughs.", "is_fresh": 1, "author": ["Brad Keefe"]},
{"text": "A fun ride with lots of comedy including an impeccable spit take. The Parrs are in pretty much the same place at the end that they started.", "is_fresh": 1, "author": ["Fred Topel"]},
{"text": "A suspenseful and thrilling adventure with plenty of laughs, wit and heart. Adults and children will be equally entertained. Don't be surprised if it gets nominated for Best Animated Feature later this year. ", "is_fresh": 1, "author": ["Avi Offer"]},
{"text": "Everything in Incredibles 2 is inexorably driven toward a big final blowout. That sequence is suitably grand and eye-popping, but haven't we seen all of this before?", "is_fresh": 0, "author": ["Keith Watson"]},
{"text": "A fantastic sequel that hits all the right notes. Definitely worth the wait. [Full review in Spanish]", "is_fresh": 1, "author": ["Fico Cangiano"]},
{"text": "Like his superheroes, Mr. Bird is extraordinarily good at destruction, which is very much in evidence in the virtuosic, often delightful \"Incredibles 2,\" which picks up narratively where the last movie left off.", "is_fresh": 1, "author": ["Manohla Dargis"]},
{"text": "Visual references and animated marvels abound.", "is_fresh": 1, "author": ["Gary Thompson"]},
{"text": "I can almost guarantee that audiences will flock to see \"Incredibles 2\" and will not be disappointed. I definitively like it but there is just something missing.", "is_fresh": 1, "author": ["Robin Clifford"]},
{"text": "It's still a solid Pixar outing.", "is_fresh": 1, "author": ["Chris Knight"]},
{"text": "Incredibles 2 seems less exotic and, understandably, less \"new\" than the 2004 film. It's more Mr. Mom meets Wonder Woman. Yet it's as emotionally fulfilling and definitely a top 10 Pixar production.", "is_fresh": 1, "author": ["Maria Sciullo"]},
{"text": "Whatever the intention, \"Incredibles 2\" plays out as the worst of both worlds, a combination of the typical weaknesses of both animated and live-action superhero films, with few of the strengths.", "is_fresh": 0, "author": ["Mick LaSalle"]},
{"text": "While it takes time to build up steam and set up its plot mechanics, once everyone is in costume and letting loose, it's an exhilarating ride.", "is_fresh": 1, "author": ["David Sims"]},
{"text": "Boosted by Michael Giacchino's rousing jazzy score, Incredibles 2 is non-stop fun.", "is_fresh": 1, "author": ["Joanne Soh"]},
{"text": "It is the rare animated feature, and the rarer superhero movie, that will leave the audience thinking, \"That was a lot of fun, but I wish there was more of the raccoon.\"", "is_fresh": 1, "author": ["Joe Gross"]},
{"text": "Incredibles 2 is a solid outing from Pixar, but after fourteen years of waiting, it should more than live up to its title.", "is_fresh": 0, "author": ["Kristen Lopez"]},
{"text": "It's a solid double and that's just fine, but I'll admit to a feeling of mild disappointment it wasn't a grand slam, given the greatness of the first adventure and the grand and creative mind of Mr. Bird.", "is_fresh": 1, "author": ["Richard Roeper"]},
{"text": "The Incredibles 2 makes its mark as a thrilling family adventure that can go pound-for-pound with any superhero movie, live action or otherwise.", "is_fresh": 1, "author": ["Adam Graham"]},
{"text": "Incredibles 2 may be engaging, smart and witty, but to say it's as impressive as the original? That's a stretch.", "is_fresh": 1, "author": ["Dann Gire"]},
{"text": "It's good, fun family entertainment but it's not incredible.", "is_fresh": 1, "author": ["James Berardinelli"]},
{"text": "Pixar here does a perfect job of juggling story, thrills and laughs in a way that keeps you majorly engaged and entertained for two straight hours. ", "is_fresh": 1, "author": ["Danny Minton"]},
{"text": "A sparkling contraption of an animated comedy, funny and often wondrous in its midcentury-modern vision of an alternate America frozen in the amber of a bygone idealism.", "is_fresh": 1, "author": ["A.A. Dowd"]},
{"text": "INCREDIBLES 2 is wildly entertaining and a lot of laughs!", "is_fresh": 1, "author": ["Jeanne Kaplan"]},
{"text": "INCREDIBLES 2 never wears out its welcome. The movie features nearly non-stop laugh-out-loud humor.", "is_fresh": 1, "author": ["David Kaplan"]},
{"text": "The most politically potent Pixar picture since \"Wall-E.\"", "is_fresh": 1, "author": ["Roger Moore"]},
{"text": "Disney and Pixar do not disappoint after a fourteen year Incredibles absence. Incredibles 2 is top notch family entertainment.", "is_fresh": 1, "author": ["Julian Roman"]},
{"text": "Bird first and foremost aims for a rousing, funny and touching entertainment, and delivers the goods.", "is_fresh": 1, "author": ["Michael Gingold"]},
{"text": "Incredibles 2 is a delight! The family dynamic is brilliant yet again, with Jack Jack being a major scene stealer. There's also more A+ work from composer Michael Giacchino.", "is_fresh": 1, "author": ["Perri Nemiroff"]},
{"text": "But the core of the movie is the family dynamic, so the somewhat lackluster antagonist does little to detract from that. ", "is_fresh": 1, "author": ["Vivian Kane"]},
{"text": "For all the slick panache Bird and his team of animators have brought to the style of \"Incredibles 2,\" they've built in the most important element of all - actual danger, which creates actual emotional investment", "is_fresh": 1, "author": ["Katie Walsh"]},
{"text": "This one still delights. But its satire on superheroes no longer seems quite so, well, incredible.", "is_fresh": 1, "author": ["Stephen Whitty"]},
{"text": "Incredibles 2 certainly delivers the action for those who crave it, but its charm comes from the characters Bird has created and the actors who voice them.", "is_fresh": 1, "author": ["Kevin Lally"]},
{"text": "This follow-up is every bit the start-to-finish sensation as the original, and Brad Bird's subversive spirit is alive and thriving. Like its Oscar-winning predecessor, The Incredibles 2 doesn't ring cartoonish. It rings true.", "is_fresh": 1, "author": ["Peter Travers"]},
{"text": "Bird doesn't bring the tears like many Pixar films do... but he tests the Parrs' bonds repeatedly, as they take on bad guys and the struggles of parenting, and do a super job at both.", "is_fresh": 1, "author": ["Sean P. Means"]},
{"text": "Incredibles 2 is a movie that could have been made redundant by time. Instead, it lightens the mood in a world gone super-serious.", "is_fresh": 1, "author": ["Jim Slotek"]},
{"text": "As glad as I was to spend time with the Parrs in 2018, on the second go around, they are ultimately demoted to simply 'credible'.", "is_fresh": 1, "author": ["Simon Miraudo"]},
{"text": "It's as accurate and nuanced a portrait of parenthood and childhood that one's apt to see in a mainstream blockbuster.", "is_fresh": 1, "author": ["Nick Schager"]},
{"text": "\"Incredibles 2\" doesn't surpass the 2004 effort, but there's no reason it has to, with Bird returning to this world with care.", "is_fresh": 1, "author": ["Brian Orndorf"]},
{"text": "Incredibles 2 is a reminder of what a collective joy it can be when a filmmaker with a singular vision and purpose makes a film of boundless scope and budget.", "is_fresh": 1, "author": ["Oliver Jones"]},
{"text": "I'm holding out hope for an \"Incredibles 3\" where Violet and Elastigirl team up against a baddie who goes by The Patriarchy.", "is_fresh": 1, "author": ["Sara Stewart"]},
{"text": "A deliciously detailed, multilayered, multi-textured, multigenerational tale brimming with espionage satire, cinema savvy and pop-culture wit.", "is_fresh": 1, "author": ["Neil Pond"]},
{"text": "Bird seizes on a key insight: healthy families can reconstitute themselves and come out better for it. Healthy sequels can, too.", "is_fresh": 1, "author": ["Scott Tobias"]},
{"text": "...while briskly and breezily enjoyable, The Incredibles 2 lacks the poppy freshness of its predecessor.", "is_fresh": 1, "author": ["Travis Johnson"]},
{"text": "I chuckled and giggled throughout this delighful film, whose smart script relies on character and whose joie de vivre shines through every Incredibles moment.", "is_fresh": 1, "author": ["Louise Keller"]},
{"text": "... touches on exceptionalism but detours into a clever critique on a society reliant upon rescuers... worth our wait, even it feels a bit overstuffed. After fifteen years: still incredible.", "is_fresh": 1, "author": ["Kevin A. Ranson"]},
{"text": "Prior to this, Brad Bird made what can unequivocally be called two of Pixar's best movies. Now that statement can be updated to say that he's made three of Pixar's best.", "is_fresh": 1, "author": ["Eric Eisenberg"]},
{"text": "It is indeed impressive that in this day of superhero movie galore, Bird still brings a great sense of wonder, visual aplomb and cut-with-a-knife tension to scenes of action-adventure that pop with style and bristle with vitality.", "is_fresh": 1, "author": ["Matthew Pejkovic"]},
{"text": "Incredibles 2 feels a bit late to the game, but will still delight audiences in the themes and family togetherness it promotes. ", "is_fresh": 1, "author": ["Ashley Menzel"]},
{"text": "While children and adults will both be entertained alike, there is a great humanist message in the film that never veers too far into an aggressively blunt political allegory, but one that simply draws thoughtful parallels to current events", "is_fresh": 1, "author": ["Robert Kojder"]},
{"text": "It seems so weird to say: While writer-director Brad Bird's Incredibles 2 is undeniably a good time at the movies for the whole family, it's the rare superhero movie that may have too many ideas knocking around in its noggin.", "is_fresh": 1, "author": ["Alissa Wilkinson"]},
{"text": "Plays it safe...another issue of the Incredibles comic book, another big-scale adventure with full-throttle action sequences, a bit of mystery, and career complications testing the structural integrity of this nuclear family of superheroes.", "is_fresh": 1, "author": ["Peter Canavese"]},
{"text": "Incredibles 2 captures most of the fun of Pixar's The Incredibles, but feels somewhat outdated in the modern Hollywood landscape of superhero movies. ", "is_fresh": 0, "author": ["Molly Freeman"]},
{"text": "...The Incredibles 2 may just be the best Pixar sequel ever.", "is_fresh": 1, "author": ["Danielle Solzman"]},
{"text": "It's good - funny, smart and contemporary. By definition it can't be as groundbreaking as the first film, but never does it feel like a cash grab.", "is_fresh": 1, "author": ["Bill Goodykoontz"]},
{"text": "In a narrative about how to handle your work/life balance to the benefit of both spouses as well as the betterment of your children, \"Incredibles 2\" seems content to punch the clock and do its job reasonably well.", "is_fresh": 1, "author": ["Michael Phillips"]},
{"text": "It's as bright and visually inventive as its predecessor, and finds cheeky new outlets for Bird's unbridled cinematic sensibilities.", "is_fresh": 1, "author": ["Clint Worthington"]},
{"text": "Incredibles 2 is just as wonderful, gorgeous, and thrilling as the first, to the point where most super fans of the original likely won't care about these flaws.", "is_fresh": 1, "author": ["Jon Negroni"]},
{"text": "Young girls will be inspired by seeing so much focus on a female superhero with Mrs. Incredible in the spotlight.", "is_fresh": 1, "author": ["Kirsten Acuna"]},
{"text": "A sequel that works much better when it's exploring the filmmaker's ideas dramatically than when it's serving as a soapbox for cranky opinions about technology, parenting, and gender roles.", "is_fresh": 1, "author": ["Todd Gilchrist"]},
{"text": "I think this is a movie you rush out to see right away. I couldn't believe how much I liked it.", "is_fresh": 1, "author": ["Kristian Harloff"]},
{"text": "\"Incredibles 2\" is not only one of Pixar's best movies ever, but also arguably one of the greatest superhero movies ever made.", "is_fresh": 1, "author": ["Mark Jackson"]},
{"text": "Pixar films are famously beautiful when it comes to character design and art direction, but Incredibles 2 is one of the most significant achievements in this regard. ", "is_fresh": 1, "author": ["Brian Tallerico"]},
{"text": "Amidst a Hollywood landscape cluttered with superhero movies, Incredibles 2's greatest power may be its ability to re-establish its own witty, whiz-bang niche. ", "is_fresh": 1, "author": ["Tim Grierson"]},
{"text": "It's an easygoing and sometimes overly familiar slouch toward retro superheroics, yet unlike Pixar's last several bland sequels, and almost the entire whole of the superhero genre these days, Incredibles 2 has something to say. ", "is_fresh": 1, "author": ["David Crow"]},
{"text": "Perhaps most intriguingly, Incredibles 2 is both pop-culture eye candy and a sly critique of it.", "is_fresh": 1, "author": ["Michael O'Sullivan"]},
{"text": "Brad Bird's The Incredibles 2 is, much like its predecessor, delightful as an animated feature but really, really delightful as a superhero picture.", "is_fresh": 1, "author": ["David Edelstein"]},
{"text": "It's like the best of the Avenger-on-Avenger bits from Captain America: Civil War or Avengers: Infinity War - only better, because it's easier to follow the the crisp, colorful action. ", "is_fresh": 1, "author": ["Angie Han"]},
{"text": "Though it would be unrealistic to expect \"Incredibles 2\" to have quite the genre-busting surprise of the original, it is as good as it can be without that shock of the new - delivering comedy, adventure and all too human moments with a generous hand.", "is_fresh": 1, "author": ["Kenneth Turan"]},
{"text": "Incredibles 2 is much more self aware, and artfully dodges a lot of the tired tropes associated with husband-wife role-swaps.", "is_fresh": 1, "author": ["Meg Downey"]},
{"text": "Incredibles 2 is a movie that lavishes attention on the details but loses sight of the whole, where you can't see the forest for the meticulously rendered trees.", "is_fresh": 1, "author": ["Sam Adams"]},
{"text": "The animation is stellar and detailed in excellent action sequences, Michael Giacchino's score swings harder than ever, and the first film's family-friendly warmth is just as appealing now as it was then.", "is_fresh": 1, "author": ["Brian Truitt"]},
{"text": "It's still fun to watch smart storytellers like [Brad] Bird working within the system and using his platform to self-evaluate or comment on what's going on, even if the conclusion is a little flimsy.", "is_fresh": 1, "author": ["Lindsey Bahr"]},
{"text": "Incredibles 2 is kind of like Jack-Jack; relatively small, extremely smart, bursting with potential, and capable of mutating into a new form in a matter of seconds.", "is_fresh": 1, "author": ["Matt Singer"]},
{"text": "Their adventures are timeless. And this one is worth the incredibly long wait.", "is_fresh": 1, "author": ["Mara Reinstein"]},
{"text": "A similarly rousing and savvy adventure that energetically serves up more of what we love and yet wisely, wittily, reverses the first film's accommodating traditionalism to make for an even richer, funnier portrait of its tight and in-tights family.", "is_fresh": 1, "author": ["Robert Abele"]},
{"text": "It is a funny, thoughtful, and thrilling adventure that artistically justifies itself without invalidating what came before. ", "is_fresh": 1, "author": ["Scott Mendelson"]},
{"text": "While Incredibles 2 rarely treads new stylistic or thematic ground, what it lacks in cohesion or originality it makes up for with a remorseless willingness to entertain.", "is_fresh": 1, "author": ["Bilge Ebiri"]},
{"text": "What was organic, and even obsessive, in the first outing comes off as pat and elaborate formula here.", "is_fresh": 0, "author": ["Owen Gleiberman"]},
{"text": "Incredibles 2 remains fresh and fun, but also distinct from its predecessor.", "is_fresh": 1, "author": ["Matt Goldberg"]},
{"text": "It feels like a direct extension of the first film. It feels like a movie that could have easily come out in 2006 as opposed to now, which is what makes Incredibles 2 so fun.", "is_fresh": 1, "author": ["Mike Ryan"]},
{"text": "It's not just a great superhero movie, it's a great sequel, and a great Pixar movie too. Incredibles 2 is an absolute delight that was worth the long wait.", "is_fresh": 1, "author": ["Germain Lussier"]},
{"text": "Incredibles 2 certainly proves worth the wait, even if it hits the target but not the bull's eye in quite the way the first one did.", "is_fresh": 1, "author": ["Todd McCarthy"]},
{"text": "Of course, Incredibles 2, for all of its domesticity, is never dull.", "is_fresh": 1, "author": ["David Ehrlich"]},
{"text": "Don't let the dazzle fool you. Bird's made the weirdest Pixar movie ever, revolutionary and retro, an anti-authoritarian ode to good parenting.", "is_fresh": 1, "author": ["Darren Franich"]},
{"text": "While Incredibles 2 doesn't reach the same heights as the 2004 original, it's more intelligent than other recent sequels.", "is_fresh": 1, "author": ["Josh Spiegel"]},
{"text": "Brad Bird's strong script and direction elevate this animated adventure to new heights.", "is_fresh": 1, "author": ["David Griffin"]},
{"text": "Incredibles 2 is that kind of full-bodied picture, engaging and inventive and rendered with muscle.", "is_fresh": 1, "author": ["Richard Lawson"]},
{"text": "A giant family entertainment with deeper, more universal themes at work and a sophistication in its storytelling. \"Incredibles 2\" is another winner for Pixar, seemingly effortless in its savvy and confidence, excitement and heart.", "is_fresh": 1, "author": ["Dustin Putman"]},
{"text": "It's not only the best animated film of the year, it's one of the best films of the year, period. And it's a blast.", "is_fresh": 1, "author": ["Drew Taylor"]},
{"text": "Pixar, ever able to roll with the punches and make movies that are timely yet timeless, has punched through the glut of comic book movies.", "is_fresh": 1, "author": ["Travis Hopson"]},
{"text": "Here's hoping they're back again soon; I can't wait to meet Jack-Jack's unlucky preschool teacher.", "is_fresh": 1, "author": ["Moira MacDonald"]}
]