[
{"reviews_count": "189", "title": "Tim Burton\u2019s Corpse Bride", "avg_audience_rating": "3.5", "rotten_count": "31", "tomatometer": "84", "audience_score": "77", "avg_critic_rating": "7.2", "fresh_count": "158", "user_ratings_count": "553,090"},
{"text": "Visually, Burton is at his most Edward Gorey-esque in the austere, storybook Victorian land of the living, whilst his contrasting comic underworld summons the spirit of Poe, the personality of Harryhausen and the ephemera of his own back catalogue.", "is_fresh": 1, "author": ["Luke Goodsell"]},
{"text": "The Corpse Bride may be a bit too melancholy to find a real family audience, but for an adult who hasn't quite given up on happily ever afters and strange goings on in the dark woods, it's just the ticket.", "is_fresh": 1, "author": ["Joshua Starnes"]},
{"text": "Another Burtonesque blur of wise-guy nudging and romantic exhilaration", "is_fresh": 1, "author": ["Fernando F. Croce"]},
{"text": "\"Better Off Dead\" would have been a better title choice for Tim Burton's self-indulgently macabre attempt at creating an animated underworld of gleeful singing corpses.", "is_fresh": 0, "author": ["Cole Smithey"]},
{"text": "There is a BEETLEJUICE-type of manic energy %u2014 a sense of imagination run riot that makes the film always worth watching, even when the story loses traction", "is_fresh": 1, "author": ["Steve Biodrowski"]},
{"text": "A brilliantly animated, deliciously macabre and strangely touching triumph.", "is_fresh": 1, "author": ["Jon Fortgang"]},
{"text": "As fun as the film occasionally is, it just plays like a compilation of greatest hits.", "is_fresh": 0, "author": ["Dave Calhoun"]},
{"text": "Burton thinks in intuitive images, and there are sights here that I would love to have framed on my wall.", "is_fresh": 1, "author": ["Rob Gonsalves"]},
{"text": "In the hands of another director, this material could have been dead on arrival, but for Mr. Burton it's dead on.", "is_fresh": 1, "author": ["Joe Lozito"]},
{"text": "Everything from the design to Elfman's score suffers from a \"been there, done that\" feeling.", "is_fresh": 0, "author": ["Jason Gorber"]},
{"text": "Burton definitely follows his own deliriously surreal path that may be more decipherable to a shrink than a movie critic.", "is_fresh": 1, "author": ["Prairie Miller"]},
{"text": "Danny Elfman's catchy songs are all but overwhelmed by Burton and Johnson's visual embellishments.", "is_fresh": 1, "author": ["Jim Lane"]},
{"text": "If Charlie and the Chocolate Factory was Burton's big picture for 2005, this is his miniature.", "is_fresh": 1, "author": ["Kim Newman"]},
{"text": "Gloomy, but in a beautiful, compelling way. In fact, the visuals sell the film because the story is entertaining but extremely lightweight.", "is_fresh": 1, "author": ["Forrest Hartman"]},
{"text": "A quirky, artistic triumph.", "is_fresh": 1, "author": ["Betty Jo Tucker"]},
{"text": "...the visuals are so good and the voices so colorful, you probably won't mind the film's minor shortcomings.", "is_fresh": 1, "author": ["John J. Puccio"]},
{"text": "All in all, it's what you would ordinarily call an uplifting experience.", "is_fresh": 1, "author": ["Sandra Hall"]},
{"text": "There are wonderful voice performances all around...and the animation, particularly of facial expressions, sets a new level of technical accomplishment...but the humor in Corpse Bride feels underpowered...", "is_fresh": 1, "author": ["Andy Klein"]},
{"text": "Divertida, rom\u00e1ntica y con mucho m\u00e1s coraz\u00f3n que el resto de los filmes en cartelera, es simple y sencillamente un deleite que no puedes dejar pasar por alto.", "is_fresh": 1, "author": ["Jorge Avila Andrade"]},
{"text": "After the bloated hit-and-miss feel of many of Burton's recent live-action work it is a joy to experience this throwback to the glory days.", "is_fresh": 1, "author": ["Nathaniel Rogers"]},
{"text": "Nothing more than an 81-minute in-joke only two people in the world %u2014 Tim Burton and Danny Elfman %u2014 think is funny. But sometimes self-indulgence is the very thing that makes a filmmaker worth watching.", "is_fresh": 1, "author": ["Jonathan R. Perry"]},
{"text": "While not as groundbreaking or thematically complex as \"The Nightmare Before Christmas,\" Burton's latest stop-motion animated film has moments of brilliance and a wonderfully sweet tone", "is_fresh": 1, "author": ["Bruce Bennett"]},
{"text": "This is another joyously morbid fairy tale from Tim Burton. The mock morbidity is a lot of fun, and it all comes to a heartwarming ending.", "is_fresh": 1, "author": ["Mark R. Leeper"]},
{"text": "Fabulously innovative, Tim Burton's Corpse Bride is a complex combo of fantasy and whimsy.", "is_fresh": 1, "author": ["Urban Cinefile Critics"]},
{"text": "Delightfully ghoulish!", "is_fresh": 1, "author": ["Mark Sells"]},
{"text": "You'd be hard pressed to find a film with this level of visual and storytelling potency this year.", "is_fresh": 1, "author": ["Joe Utichi"]},
{"text": "Special mention must also go to Enn Reitel, whose performance as the Peter Lorre maggot inside Emily's eye comfortably steals the entire film. ", "is_fresh": 1, "author": ["Matthew Turner"]},
{"text": "(...) Una celebraci\u00f3n original y festiva que confirma el bizarro talento de su creador.", "is_fresh": 1, "author": ["Enrique Buchichio"]},
{"text": "Un hermoso cuento de amor brotado de la penumbra y un canto a la vida, venido desde la misma muerte.", "is_fresh": 1, "author": ["Luis Martinez"]},
{"text": "A fairy tale with a morbid streak six feet deep.", "is_fresh": 1, "author": ["Randy Shulman"]},
{"text": "The animation is pretty, but the film is D.O.A.", "is_fresh": 0, "author": ["Sean McBride"]},
{"text": "Even though Burton has fun with the never-ending Halloween of his imagination, he takes the emotions and desires of his characters seriously.", "is_fresh": 1, "author": ["Jeffrey Westhoff"]},
{"text": "If you have a pulse, you'll love it.", "is_fresh": 1, "author": ["Stella Papamichael"]},
{"text": "From a technical standpoint, this is a masterpiece. From a story standpoint, it is a beautiful tale with true heart and meaning. Musically, it is flawed.", "is_fresh": 1, "author": ["Karina Montgomery"]},
{"text": "It is a potent reminder of how dazzling stop-motion animation can be.", "is_fresh": 1, "author": ["Ethan Alter"]},
{"text": "Would be a **** short.", "is_fresh": 0, "author": ["Steve Rhodes"]},
{"text": "I've seen it all before already, in Nightmare [Before Christmas]... It's enough to make you wonder how limited Burton's imagination might actually be...", "is_fresh": 0, "author": ["MaryAnn Johanson"]},
{"text": "... fans of Burton and/or his (last) Nightmare will find plenty to love...", "is_fresh": 1, "author": ["Kevin A. Ranson"]},
{"text": "It's too late to call a script doctor. Give away Corpse Bride to the morgue.", "is_fresh": 0, "author": ["Thomas Delapa"]},
{"text": "The world of Corpse Bride is a fascinating and darkly beautiful one, but it suffers in comparisons to Nightmare.", "is_fresh": 1, "author": ["Jeremy C. Fox"]},
{"text": "Tim Burton so believably brings his worlds to life, with such a dark, dreamy and dazzling imagination, that we all but take for granted that he has taken us on some of the most delightfully absurd adventures of modern cinema.", "is_fresh": 1, "author": ["Steven Snyder"]},
{"text": "The chorus line trips up the story line.", "is_fresh": 0, "author": ["Jules Brenner"]},
{"text": "Passes for lightweight but slightly perverse family value entertainment.", "is_fresh": 1, "author": ["Dennis Schwartz"]},
{"text": "Burton makes the combination of death and love feel natural and sweet.", "is_fresh": 1, "author": ["Audrey Rock-Richardson"]},
{"text": "Clever animation and storylines are always intriguing and entertaining. Add to that a terrific score by Danny Elfman, and I simply must insist that you see this movie.", "is_fresh": 1, "author": ["Jeanne Kaplan"]},
{"text": "Hear ye, Hear ye, get thee to 'Corpse Bride' on the big screen while ye can.", "is_fresh": 1, "author": ["David Kaplan"]},
{"text": "This is at once a perfect depiction of a folk tale and a perfect Tim Burton movie.", "is_fresh": 1, "author": ["Ken Hanke"]},
{"text": "Tim Burton hasn't just forgotten how to tell a story-- he seems to have forgotten why he even started telling them in the first place.", "is_fresh": 0, "author": ["Sean Burns"]},
{"text": "The story is as weak as the visuals are stunning.", "is_fresh": 1, "author": ["Robert Roten"]},
{"text": "Burton and his crew have once again challenged the medium and come with something appealingly unique.", "is_fresh": 1, "author": ["Mike McGranaghan"]},
{"text": "Corpse Bride continues a perfect marriage between Burton's creativity and a technique rarely used for feature films. ", "is_fresh": 1, "author": ["Mark Pfeiffer"]},
{"text": "In a movie in which the color is muted as close to black-and-white as possible, this bride is radiantly blue.", "is_fresh": 1, "author": ["Richard von Busack"]},
{"text": "Burton revels in his own mad, inspired vision. It's as if he screws off the top of his head and lets us peek inside.", "is_fresh": 1, "author": ["Donald Munro"]},
{"text": "It's Burton by rote, a by-the-numbers idea of what a Tim Burton fairy tale should be.", "is_fresh": 0, "author": ["David Cornelius"]},
{"text": "Arise, you Tim Burton fans! His genius walks (animatedly) among us!", "is_fresh": 1, "author": ["Linda Cook"]},
{"text": "L\u00e9g\u00e8rement d\u00e9cevant mais impr\u00e9gn\u00e9 de la touche Burton.", "is_fresh": 1, "author": ["Nicolas Lacroix"]},
{"text": "A malnourished effort at best, struggling to fill a mere 76 minutes by stretching its concept thinner than the skeletons that populate its stop-motion underworld.", "is_fresh": 1, "author": ["Rob Vaux"]},
{"text": "They just keep going through the same things over and over again. The songs are forgettable.", "is_fresh": 0, "author": ["Richard Roeper"]},
{"text": "Burton's grand tale of romantic bereavement induces tears of laughter that are inseparable from tears of remorse.", "is_fresh": 1, "author": ["Kevin Courrier"]},
{"text": "Arguably Burton's most self-assured turn behind the camera in ages.", "is_fresh": 1, "author": ["Marc Savlov"]},
{"text": "All too often, Tim Burton's movies feel like they're covered in flop sweat, as if he's trying too hard and worrying too much. By contrast, Corpse Bride is a cool breeze across the brow.", "is_fresh": 1, "author": ["Tasha Robinson"]},
{"text": "This is a death story that's fun for the whole family. It's typical Burton, and that's what makes it so subversively fine...", "is_fresh": 1, "author": ["Michael Szymanski"]},
{"text": "\"Tim Burton's Corpse Bride\" is 76 minutes of Burton in his sandbox. He's playing here, having fun, and for the most part, his efforts come through. ", "is_fresh": 1, "author": ["Christopher Smith"]},
{"text": "Death becomes her, but this should have been a live movie rather than a stop action animation film.", "is_fresh": 0, "author": ["Jackie K. Cooper"]},
{"text": "More so, other than being an astonishing feast for the eyes there isn't much here a person is likely to remember after they've left the theater, none of the jokes or sight gags good enough to talk about latter standing at the water cooler.", "is_fresh": 1, "author": ["Sara Michelle Fetters"]},
{"text": "At times this stop-motion animated feature is grotesque, even a bit creepy and scary (it's probably a bit much for really young ones). But it's just as often achingly sweet, and features some grand, sweeping romantic notions.", "is_fresh": 1, "author": ["Jeff Vice"]},
{"text": "[It] may be the purest expression of Burton's comic-nightmarish neo-gothic vision so far. It also restores the venerable technique known as stop-motion animation to its rightful place as one of cinema's greatest forms.", "is_fresh": 1, "author": ["James Verniere"]},
{"text": "The storytelling may suffer intermittent rigor mortis, but this Corpse should enjoy a long afterlife.", "is_fresh": 1, "author": ["Brett Michel"]},
{"text": "They had the makings of something both deeply moving and tragic. Had the filmmakers put as much effort into storytelling as they did in the animation, that is.", "is_fresh": 1, "author": ["David Medsker"]},
{"text": "It's a fascinating and often amusing spectacle, if short on emotional depth.", "is_fresh": 1, "author": ["Hanh Nguyen"]},
{"text": "It's Tim Burton just as you expect him, and for most of his fans, that's more than enough.", "is_fresh": 1, "author": ["Josh Bell"]},
{"text": "Beneath the bone pile of allusions, Corpse Bride is a darkly enchanting fable in its own right.", "is_fresh": 1, "author": ["Joe Williams"]},
{"text": "Whether you're poring over the incredible detail of the images or losing yourself in the charming story, you'll want to keep your eyes on the screen at all times.", "is_fresh": 1, "author": ["Greg Maki"]},
{"text": "The Corpse Bride's hypnotic orbs suggest a Kim Carnes hit for Eurohorror fans: She's got Barbara Steele eyes.", "is_fresh": 1, "author": ["John Beifuss"]},
{"text": "...lacks only a certain ookiness -- it doesn't so much tickle the uneasy, conflicted underside of the human urge for extinction as turn it into a gag.", "is_fresh": 1, "author": ["Philip Martin"]},
{"text": "Visually beautiful... but like the dead, it looks pretty good till the empty insides are exposed - the story just doesn't have a lot of meat on its bones.", "is_fresh": 0, "author": ["Cherryl Dawson and Leigh Ann Palone"]},
{"text": "Based on a Russian folk tale, Corpse Bride makes for breathtaking viewing.", "is_fresh": 1, "author": ["Teresa Wiltz"]},
{"text": "What makes Corpse Bride sing, ultimately, is the breadth of imagination that it demonstrates; creating a cluttered, textured and mysteriously beautiful world that we're loathe to leave at the end.", "is_fresh": 1, "author": ["Moira MacDonald"]},
{"text": "Corpse Bride has the look and feel of the best puppet show ever.", "is_fresh": 1, "author": ["Ruthe Stein"]},
{"text": "Corpse Bride is like cotton candy, spun to glisten by happy spiders.", "is_fresh": 1, "author": ["David Elliott"]},
{"text": "The hand-manipulated characters move haltingly, yet the picture always flows, thanks to its engaging story, deft visuals and big heart.", "is_fresh": 1, "author": ["Carla Meyer"]},
{"text": "Though not for the very young -- and certainly not preschoolers -- Tim Burton's Corpse Bride is a highly inventive saga that clocks in at an impressively compact 77 minutes. You can't ask for more from such a delightfully grave love story.", "is_fresh": 1, "author": ["Jack Garner"]},
{"text": "By getting up to his old tricks, Burton has delivered an outr\u00e9 family film for this Halloween season, and it's mostly a treat.", "is_fresh": 1, "author": ["Pam Grady"]},
{"text": "As in Nightmare, the stop-motion animators have created a vibrant world that's densely populated with goofy creatures and morbid gags.", "is_fresh": 1, "author": ["Gary Thompson"]},
{"text": "The sweetness, the visual flourishes and inspired pieces of casting carry the Corpse Bride, if not all the way down the primrose path, then at least across the threshold.", "is_fresh": 1, "author": ["Roger Moore"]},
{"text": "Corpse Bride is such a treat for the eyes, ears and funny bone that you feel cheated that it clocks in at less than an hour-and-a-quarter.", "is_fresh": 1, "author": ["Shawn Levy"]},
{"text": "Corpse Bride suffers from the same problem that has plagued Burton's recent live-action films: for all its formidable razzle-dazzle, it doesn't engage the heart.", "is_fresh": 0, "author": ["Rene Rodriguez"]},
{"text": "In a nutshell: Burton's latest macabre puppet show is thoroughly enjoyable, if a little thin on story.", "is_fresh": 1, "author": ["Robert W. Butler"]},
{"text": "Amazingly fluid and drop-dead gorgeous, Tim Burton's Corpse Bride is the best-looking, stop-motion animation film ever.", "is_fresh": 1, "author": ["Bruce Westbrook"]},
{"text": "There's a happy Halloween in store even for children who aren't allowed to trick or treat, and it's courtesy of Tim Burton's animated Corpse Bride.", "is_fresh": 1, "author": ["Terry Lawson"]},
{"text": "Hoorah! The boy's done it again....with a bit of help from mind-boggling takent...->", "is_fresh": 1, "author": ["Emily Blunt"]},
{"text": "Corpse Bride is interesting and a change of pace, but it could have been better. ... It seems a rush job, a blueprint that needed more details added.", "is_fresh": 0, "author": ["Bob Bloom"]},
{"text": "Tim Burton's Corpse Bride has just about everything I look for in an animated feature: visual wit, high-flying displays of imagination and lots of rotting flesh.", "is_fresh": 1, "author": ["Robert Denerstein"]},
{"text": "Corpse Bride will win your heart, if it doesn't rip it out of your chest first.", "is_fresh": 1, "author": ["Michael Booth"]},
{"text": "This Corpse rises to the occasion.", "is_fresh": 1, "author": ["Randy Myers"]},
{"text": "\"Corpse Bride\" is not a complete stiff, but merely a disappointment.", "is_fresh": 0, "author": ["Eric Melin"]},
{"text": "A bury good time will be had by all. ... let the skellebration commence! ", "is_fresh": 1, "author": ["Carol Cling"]},
{"text": "Corpse Bride had me at the maggot.", "is_fresh": 1, "author": ["Lawrence Toppman"]},
{"text": "Burton has rarely been in brisker, friskier form.", "is_fresh": 1, "author": ["Wesley Morris"]},
{"text": "...an entertaining story that doesn't mind playing things sinister, while keeping things light at the same time...", "is_fresh": 1, "author": ["JoBlo"]},
{"text": "Tim Burton fans will love this film. To them, it should be a religious experience.", "is_fresh": 1, "author": ["Kevin Carr"]},
{"text": "Endlessly inventive and gruesomely fun, Corpse Bride is further proof that Burton's imagination only has free rein when there aren't actual human beings in the picture.", "is_fresh": 1, "author": ["Sean P. Means"]},
{"text": "Everyone in the movie ... is too something -- too tall, too thin, too round, too pointy, too trapezoid, even -- though always in the most delightful of ways.", "is_fresh": 1, "author": ["Josh Larsen"]},
{"text": "Poignancy added to whimsy, brainy dialogue, great voice talent and a beautifully told story make Corpse Bride an animated, albeit dark, gem. ", "is_fresh": 1, "author": ["John Wirt"]},
{"text": "Burton has plumbed his spidery soul for a glorious vision of undead vixens, walking through the night as if every day were Halloween.", "is_fresh": 1, "author": ["Jeffrey M. Anderson"]},
{"text": "[Burton paints] death as a (literally) more colorful plane of existence than life, the ultimate subversive joke in a movie full of them.", "is_fresh": 1, "author": ["Peter Canavese"]},
{"text": "It's the unholy alliance of Jane Austen and Edgar Allan Poe. ... The voice work is first-class, the stop-motion work is delightful...", "is_fresh": 1, "author": ["James Sanford"]},
{"text": "If only there were more going on story-wise, Corpse Bride might deserve a better reception.", "is_fresh": 0, "author": ["Brent Simon"]},
{"text": "Corpse Bride is about as scary as eating a bowl of Count Chocula in the dark, but it's also as much fun as chasing the sugary mush with Saturday morning cartoons. ", "is_fresh": 1, "author": ["Mike Ward"]},
{"text": "There are those who will no doubt be charmed by this dark fairy tale, but it takes an effort to overlook its flaws.", "is_fresh": 0, "author": ["Daniel M. Kimmel"]},
{"text": "A raucous danse macabre in jumping jazz rhythms\u0085 and, perhaps most surprisingly, a touching portrait of tragedy, doomed love, empathy, and sacrifice.", "is_fresh": 1, "author": ["Steven D. Greydanus"]},
{"text": "Tim Burton's stop-motion idea of a romantic comedy is dead on arrival.", "is_fresh": 0, "author": ["James Rocchi"]},
{"text": "The film is fanciful and whimsical, but only marginally entertaining. It's the kind of movie you see, not the kind you see again.", "is_fresh": 1, "author": ["Eric D. Snider"]},
{"text": "Burton is left to make Corpse Bride into a visually appealing movie ... but it never has that special moment or feeling that can elevate the movie into greatness.", "is_fresh": 1, "author": ["Willie Waffle"]},
{"text": "A goulishly enchanting love triangle with spectacularly spot-on voice talent; every moment is filled with wonderfully witty caricatures and sly macabre humor.", "is_fresh": 1, "author": ["Nell Minow"]},
{"text": "We keep thinking, hoping, and praying that Bride will aim higher, but it never happens", "is_fresh": 0, "author": ["Sean O'Connell"]},
{"text": "In terms of technique, composition and film artistry alone, Corpse Bride qualifies as poetry in stop-motion.", "is_fresh": 1, "author": ["Duane Dudek"]},
{"text": "Corpse Bride isn't merely eye candy; it's a masterpiece of motion, color and texture that never stops dazzling.", "is_fresh": 1, "author": ["Chris Vognar"]},
{"text": "Corpse Bride is a delightful mix of strange goings-on and imaginatively crafted puppetry, a wild ride through Burton's chaotic, splendidly original world.", "is_fresh": 1, "author": ["Bill Muller"]},
{"text": "Granted, the premise sounds like it could be some cult-movie bucket of blood destined for the midnighter circuit. But Corpse Bride is totally genial and perfectly charming: a family movie in the best sense of the term.", "is_fresh": 1, "author": ["William Arnold"]},
{"text": "I was hoping to be bowled over as I was with A Nightmare Before Christmas but, alas, I was not.", "is_fresh": 1, "author": ["Robin Clifford"]},
{"text": "Corpse Bride has the courage to address the lure of dead things as a rejection of established civility.", "is_fresh": 1, "author": ["Mark Palermo"]},
{"text": "This one has many amusing bits, but it's too macabre to be out-and-out funny, and feels unfinished.", "is_fresh": 0, "author": ["M. K. Terrell"]},
{"text": "Tim Burton's Corpse Bride is easily the best stop-motion animated necrophiliac musical romantic comedy of all time. It is also just simply, wonderful: a morbid, merry tale of true love that dazzles the eyes and delights the soul.", "is_fresh": 1, "author": ["Steven Rea"]},
{"text": "This vibrantly imaginative mix of horror and humor puts the f-u-n in funeral.", "is_fresh": 1, "author": ["Colin Covert"]},
{"text": "The script tries to edge into the sort of spookily intriguing ideas fairy tales love. But Burton is more interested in grotesque gags than in the characters or the story, which is as cold and lifeless as a cadaver on a slab.", "is_fresh": 0, "author": ["Chris Hewitt (St. Paul)"]},
{"text": "If Nightmare Before Christmas was a jazzy pop number, Corpse Bride is a waltz--an elegant, deadly funny bit of macabre matrimony.", "is_fresh": 1, "author": ["Robert K. Elder"]},
{"text": "The movie is a bit betwixt and between -- whimsical but eerie, funny but melancholy. That said, Corpse Bride truly is like nothing else at the movies these days.", "is_fresh": 1, "author": ["Eleanor Ringel Cater"]},
{"text": "A sweet and visually lovely tale of love lost.", "is_fresh": 1, "author": ["Roger Ebert"]},
{"text": "The film probably won't spawn a cottage industry at Hot Topic, but its angst-ridden story of love - romantic and platonic - is likely to resonate stronger with shoppers. ", "is_fresh": 1, "author": ["Nick Rogers"]},
{"text": "Another visually witty stop-motion animation piece that mingles the gleefully macabre and the sweetly sentimental...a winningly lively treat.", "is_fresh": 1, "author": ["Frank Swietek"]},
{"text": "A bouncy, enchanting family film, equally captivating on the levels of pathos, dialogue and visuals.", "is_fresh": 1, "author": ["Phil Villarreal"]},
{"text": "It's not plotting but wit and affection that carry Corpse Bride through.", "is_fresh": 1, "author": ["Steve Schneider"]},
{"text": "Petit Guignol as light and fluffy as a corner full of cobwebs . . . with a light humor and real heart, or rather hearts, some of them actually beating", "is_fresh": 1, "author": ["Andrea Chase"]},
{"text": "It doesn't stink, but it's a mere technical advance that pales next to Nightmare. The maggot's a Jiminy Cricket manque. And it's just not very animated.", "is_fresh": 0, "author": ["Tim Appelo"]},
{"text": "Story and music are overshadowed by brilliant visuals.", "is_fresh": 1, "author": ["Jeff Otto"]},
{"text": "Corpse Bride turns out to be a ponderous mixture of puppetry and animation that is far too technologically complex and laborious for this hopelessly Luddite reviewer.", "is_fresh": 0, "author": ["Andrew Sarris"]},
{"text": "I haven't looked forward to dying this much in a long time!", "is_fresh": 1, "author": ["Alex Sandell"]},
{"text": "Sure to please the legions of kids who have bought every Jack Skellington item at their local Hot Topic.", "is_fresh": 1, "author": ["Devin Faraci"]},
{"text": "Blessed with memorably iconic characters and a creative, if fairly predictable plot, Corpse Bride is quick, droll, and destined to be a perennial Halloween favorite.", "is_fresh": 1, "author": ["Rob Blackwelder"]},
{"text": "...an enchanting wild ride through the land of the dead", "is_fresh": 1, "author": ["Rebecca Murray"]},
{"text": "Reeks of Burton-style, borne of a freakish place in the psyche that feeds on the underbelly of things that go bump in the night.", "is_fresh": 1, "author": ["Jeanne Aufmuth"]},
{"text": "Thoroughly charming and visually spry, Corpse Bride has the stylish impishness that made The Nightmare Before Christmas such a devilish treat to behold.", "is_fresh": 1, "author": ["Frank Ochieng"]},
{"text": "Gothically beautiful but epically boring.", "is_fresh": 0, "author": ["Annlee Ellingson"]},
{"text": "pretty good as disappointments go", "is_fresh": 1, "author": ["Laura Clifford"]},
{"text": "Tim Burton is batting a thousand for 2005.", "is_fresh": 1, "author": ["Pete Vonder Haar"]},
{"text": "The movie is so Burtonesque that it verges on self-parody -- but it's fun and stunningly beautiful anyway.", "is_fresh": 1, "author": ["David Edelstein"]},
{"text": "If his The Nightmare Before Christmas from a dozen years back was a treat for the eyes and mind, Tim Burton's Corpse Bride goes double or nothing by being a delight for the ears and also the heart.", "is_fresh": 1, "author": ["Peter Howell"]},
{"text": "Beneath the ghoulish in-jokes and horror-geek allusions, there's a core of the same bittersweet truth that makes the best fairy tales resonate from one generation to the next.", "is_fresh": 1, "author": ["Maitland McDonagh"]},
{"text": "Tim Burton's Corpse Bride is a lush, modern valentine to old-fashioned sentiment, and to old-fashioned moviemaking, too.", "is_fresh": 1, "author": ["Stephanie Zacharek"]},
{"text": "As animated films go, this is easily the best of a weak year.", "is_fresh": 1, "author": ["James Berardinelli"]},
{"text": "Corpse Bride offers unclassifiable enchantment.", "is_fresh": 1, "author": ["Lisa Rose"]},
{"text": "Tim Burton's Corpse Bride is an instant classic.", "is_fresh": 1, "author": ["Lou Lumenick"]},
{"text": "Stop-motion animation may be the hardest and most tedious job in Hollywood, but the makers of Tim Burton's Corpse Bride deserve a couple of years in Tahiti celebrating their effort.", "is_fresh": 1, "author": ["Jack Mathews"]},
{"text": "Good fun, with a slapstick flair.", "is_fresh": 1, "author": ["Jim Slotek"]},
{"text": "Ghoulishness and innocence walk hand-in-hand in Tim Burton's Corpse Bride, a movie that digs into Hollywood's past to resurrect the antique art of stop-motion animation and create a fabulous bauble of a movie.", "is_fresh": 1, "author": ["Liam Lacey"]},
{"text": "Corpse Bride is a wild, vibrant and somewhat romantically morbid trip through the afterlife.", "is_fresh": 1, "author": ["Kit Bowen"]},
{"text": "It's a perfect follow-up to \"Charlie and the Chocolate Factory\"", "is_fresh": 1, "author": ["Eric Lurio"]},
{"text": "A serious contender for 'Best Picture.' Or, at least, in a just world, it should be.", "is_fresh": 1, "author": ["Gregory Weinkauf"]},
{"text": "[Tim] Burton and co-director Mike Johnson have crafted one of the most visually unique films ever made.", "is_fresh": 1, "author": ["Bill Clark"]},
{"text": "With a lot of Dickens and a touch of The Brother's Grimm, Tim Burton's The Corpse Bride is very much a fairy tale -- clever and witty and melancholy -- and generally immensely entertaining.", "is_fresh": 1, "author": []},
{"text": "Tim Burton's Corpse Bride shows that imitation is the sincerest form of flattening.", "is_fresh": 0, "author": ["Keith Uhlich"]},
{"text": "Cheerfully macabre and unexpectedly soulful.", "is_fresh": 1, "author": ["Gene Seymour"]},
{"text": "The Corpse Bride is Poe-try in motion", "is_fresh": 1, "author": []},
{"text": "A rebuke to the current 3-D computer animated takeover of the field, and what a beautiful rebuke it is. ", "is_fresh": 1, "author": ["Jeffrey Chen"]},
{"text": "While the animation wizardry is eye opening, all the technical expertise in the world can't stop the film from feeling labored, and lacking some serious inspiration.", "is_fresh": 0, "author": ["Brian Orndorf"]},
{"text": "The season's first unadulterated disappointment.", "is_fresh": 0, "author": ["Dustin Putman"]},
{"text": "A melancholic, dulcet little ode to love and sacrifice.", "is_fresh": 1, "author": ["Walter Chaw"]},
{"text": "Visually Corpse Bride has no problem achieving great heights, but where's the character sparkle?", "is_fresh": 1, "author": ["Joshua Tyler"]},
{"text": "An unexpectedly touching celebration of love told in a quirky and inventive style.", "is_fresh": 1, "author": ["Claudia Puig"]},
{"text": "The film does have a fairy-tale aspect, but, like many of its characters, it is more dead and buried than fully alive.", "is_fresh": 0, "author": ["Kenneth Turan"]},
{"text": "A necrophiliac entertainment for the whole family to enjoy, Tim Burton's Corpse Bride marks the director's latest venture into the world of stop-motion animation.", "is_fresh": 1, "author": ["Manohla Dargis"]},
{"text": "First-rate escapist fun, it's a whimsically wicked, delightfully quirky, ghoulish tale.", "is_fresh": 1, "author": ["Susan Granger"]},
{"text": "There's enough gallows humor and skullduggery for perverse adults, while still maintaining an engaging experience that's safe for young kids.", "is_fresh": 1, "author": ["Staci Layne Wilson"]},
{"text": "Corpse Bride is a rather unblessed union.", "is_fresh": 0, "author": ["Mark Olsen"]},
{"text": "Corpse Bride\" has the same visual flair and devilish humor as \"The Nightmare Before Christmas,\" but it's a much more charming film.", "is_fresh": 1, "author": ["David Foucher"]},
{"text": "The script and vocal cast turn each character into a vivid bundle of nerves and longings.", "is_fresh": 1, "author": ["Rich Cline"]},
{"text": "Despite the predictability of the script, I got a little misty at the end.", "is_fresh": 1, "author": ["Jon Popick"]},
{"text": "As an achievement in macabre visual wizardry, Tim Burton's Corpse Bride has to be reckoned some sort of marvel.", "is_fresh": 1, "author": ["Owen Gleiberman"]},
{"text": "Easily the best animated work of the year, even if it is very light on morals and heavy on visual bedazzlement.", "is_fresh": 1, "author": ["Boyd van Hoeij"]},
{"text": "Like so many of Burton's films, Corpse Bride is too much style, not enough substance.", "is_fresh": 0, "author": ["Scott Nash"]},
{"text": "Gives new meaning the the complaint, 'She just lies there like a corpse.'", "is_fresh": 1, "author": ["Harvey S. Karten"]},
{"text": "A bittersweet fairy tale set at death's door that salutes the liberating power of true love.", "is_fresh": 1, "author": ["Frederic and Mary Ann Brussat"]},
{"text": "The variety of its cadaverous style is never less than inspired; never has the human skull's natural grin been redeployed so exhaustively for yuks.", "is_fresh": 1, "author": ["Michael Atkinson"]},
{"text": "It's Oscar time: With its original characters, dark humor, haunting poignancy, and noirish whimsy, this film is as good as Nightmare Before Christmas, a sure Oscar contender", "is_fresh": 1, "author": ["Emanuel Levy"]},
{"text": "In the guise of a family film, Burton evokes a darkly erotic obsession that recalls Edgar Allan Poe and Hitchcock's Vertigo. It would be a test for any filmmaker, and Burton aces it.", "is_fresh": 1, "author": ["Peter Travers"]},
{"text": "A wondrous flight of fancy, a stop-motion-animated treat brimming with imaginative characters, evocative sets, sly humor, inspired songs and a genuine whimsy that seldom finds its way into today's movies.", "is_fresh": 1, "author": ["Kirk Honeycutt"]},
{"text": "This macabre musical about a young bridegroom who mistakenly weds a girl from beyond the grave is an endearingly schizoid Frankenstein of a movie, by turns relentlessly high-spirited and darkly poignant.", "is_fresh": 1, "author": ["Justin Chang"]},
{"text": "", "is_fresh": 1, "author": ["Brian Rentschler"]}
]