[
{"reviews_count": "66", "title": "Total Recall", "avg_audience_rating": "3.3", "rotten_count": "12", "tomatometer": "82", "audience_score": "78", "avg_critic_rating": "7.3", "fresh_count": "54", "user_ratings_count": "244,210"},
{"text": "Schwarzenegger is never going to make the De Niros and Hoffmans of this world lose a night's sleep, but he has acquired a new confidence as an actor under Verhoeven's guidance.", "is_fresh": 1, "author": ["Desmond Ryan"]},
{"text": "Total Recall is slick, sly and subversive, and if some of the special effects have aged somewhat, that only adds to the charm.", "is_fresh": 1, "author": ["Tom Huddleston"]},
{"text": "All told, Total Recall is a powerful brew of mordant humor, keen wit, refreshing originality and graphic violence.", "is_fresh": 1, "author": ["Dennis King"]},
{"text": "As Quaid, Schwarzenegger continues to stretch beyond his reach as an actor, relying on physical prowess to keep him in character.", "is_fresh": 1, "author": ["Johanna Steinmetz"]},
{"text": "Total Recall went through four directors before Verhoeven finally took it on, and four writers worked on the script. It's no wonder the finished film emerges without a unifying style, or a single performance worth mentioning.", "is_fresh": 0, "author": ["Bill Kelley"]},
{"text": "If the movie sometimes seems overwhelmed by its budget and its legendary third-act problems, it's still entertainingly raw and brutal, full of whiplash pace and juicy exaggeration.", "is_fresh": 1, "author": ["Michael Wilmington"]},
{"text": "If Total Recall isn't as much fun as I'd hoped, it's not as dreary as I'd feared. I wouldn't call it totally awesome, but it's far from being a total loss.", "is_fresh": 1, "author": ["Jay Boyar"]},
{"text": "The movie is a cartoon, though a mammothly enjoyable one.", "is_fresh": 1, "author": ["Peter Travers"]},
{"text": "This rip-roaring slice of sci-fi excess remains Arnold Schwarzenegger's most satisfying film since his breakthrough hit, The Terminator.", "is_fresh": 1, "author": ["John Ferguson"]},
{"text": "Arnold Schwarzenegger brings an effective blend of machismo and innocence to his role. Too bad director Paul Verhoeven lets brainless violence and tricky special effects swamp the cleverness of the tale itself.", "is_fresh": 0, "author": ["David Sterritt"]},
{"text": "Total Recall begins to self-destruct not long after Schwarzenegger arrives on Mars, and the story degenerates into a violent, stunningly foul-mouthed enterprise.", "is_fresh": 0, "author": ["Gene Siskel"]},
{"text": "If you don't ask too many questions, or just accept that it's all a dream so logic and science don't matter, then this is an enjoyable romp.", "is_fresh": 1, "author": ["Scott Nash"]},
{"text": "Paul Verhoeven's version of the original story packs a real sense of intellect and brilliant ambiguity beneath the seemingly surface science fiction action tale...", "is_fresh": 1, "author": ["Felix Vasquez Jr."]},
{"text": "A wickedly violent, action-packed old school piece of warped, twist-filled sci-fi and Schwarzenegger cheese. You'll wish you had three hands to hold this one.", "is_fresh": 1, "author": ["R.L. Shaffer"]},
{"text": "Minor Verhoeven, well-above-average Schwarzenegger, and as well-made as any action movie from around the turn of the 1990s you could name.", "is_fresh": 1, "author": ["Tim Brayton"]},
{"text": "Total Recall's caricaturing of Schwarzenegger, its flip ribbing at his stocks of action-hero cache, signal the deep, almost atomic level at which its satire functions. ", "is_fresh": 1, "author": ["John Semley"]},
{"text": "When the leader of the rebels turns out to be Baby Herman from Who Framed Roger Rabbit, it's clear that the satirical bull's-eyes Verhoeven nailed in RoboCop have here been turned into a more benign state of rib-nudging.", "is_fresh": 1, "author": ["Matt Brunson"]},
{"text": "It's not a masterpiece, but it is a fast-moving thriller, one worth revisiting (and, evidently, remaking).", "is_fresh": 1, "author": ["Bill Goodykoontz"]},
{"text": "Verhoeven's version of Philip Dick's story is vigorous, exciting, and inventive sci-fi thriller, combining pulp savviness, ultra-graphic violence, and Oscar-winning special effects.", "is_fresh": 1, "author": ["Emanuel Levy"]},
{"text": "It's a blockbuster from another era, when a big idea, rather than a pair of 3D goggles, gave the film its extra dimension.", "is_fresh": 1, "author": ["Jason Solomons"]},
{"text": "It's still a guilty pleasure - though the guilt quotient is a bit higher - and that's down to the still-extraordinary presence of the massively gym-built Arnold...", "is_fresh": 1, "author": ["Peter Bradshaw"]},
{"text": "Still a ripsnorting yarn with lashings of sex and violence that hasn't aged a day.", "is_fresh": 1, "author": ["David Jenkins"]},
{"text": "Overall, the movie's imaginative effects and ideas win the day.", "is_fresh": 1, "author": ["Jeffrey M. Anderson"]},
{"text": "An absolutely superb sci-fi film and a true modern cornerstone of the genre not seen since the deeper though less entertaining Blade Runner nearly ten years previous.", "is_fresh": 1, "author": ["Garth Franklin"]},
{"text": "Total Recall is too much -- but it's too much of a good thing.", "is_fresh": 1, "author": ["Owen Gleiberman"]},
{"text": "Not only one of the best films of 1990, it's one of Arnold's finest cinematic accomplishments -- a fireball of a film...still disembowels like a champion.", "is_fresh": 1, "author": ["Brian Orndorf"]},
{"text": "Total Recall is fine entertainment, complete with breathtaking action sequences and special effects that impress even in these computer-generated times.", "is_fresh": 1, "author": ["Richard Luck"]},
{"text": "The fierce and unrelenting pace, accompanied by a tongue-in-cheek strain of humor in the roughhouse screenplay, keeps the film moving like a juggernaut.", "is_fresh": 1, "author": ["Variety Staff"]},
{"text": "Ugly, stupid, loud, offensive, and pointlessly violent.", "is_fresh": 0, "author": []},
{"text": "A worthy entry in the dystopian cycle launched by Blade Runner, this seems less derivative than most of its predecessors yet equally accomplished in its straight-ahead storytelling, with plenty of provocative satiric undertones and scenic details.", "is_fresh": 1, "author": ["Jonathan Rosenbaum"]},
{"text": "Say what you will about Verhoeven's penchant for extravagant theatrics, when he's not yanking the arms off people or putting bullets in their forehead, he tells a good story.", "is_fresh": 1, "author": ["John J. Puccio"]},
{"text": "The future doesn't come any better.", "is_fresh": 1, "author": ["Tom Charity"]},
{"text": "...people are allowed to change their minds", "is_fresh": 1, "author": ["Philip Martin"]},
{"text": "Thought-provoking, flashy, and FULL of action!", "is_fresh": 1, "author": ["Scott Weinberg"]},
{"text": "Oh for the days when Verhoeven was still in Holland.", "is_fresh": 0, "author": ["Ken Hanke"]},
{"text": "...one of the best action flicks to emerge out of Hollywood in the '90s (or ever, really).", "is_fresh": 1, "author": ["David Nusair"]},
{"text": "Mediocre sci-fi. Gained a cult following, for some unknown reason.", "is_fresh": 0, "author": ["Alex Sandell"]},
{"text": "Melding the ever-more-workable Schwarzenegger mystique with a better-than-average science-fiction premise, the director Paul Verhoeven has come up with a vigorous, superviolent interplanetary thriller that packs in wallops with metronomic regularity.", "is_fresh": 1, "author": ["Janet Maslin"]},
{"text": "While it may seem dated today, the film showcases Sharon Stone, evil wife to Schwarzenegger. You may want to take notice of how precious air is after seeing it.", "is_fresh": 1, "author": ["Moira Sullivan"]},
{"text": "This is a very interesting film and is also successful as a headlong roller-coaster ride of a pure action film.", "is_fresh": 1, "author": ["Robert Roten"]},
{"text": "This futuristic science fiction is based on a Philip K. Dick short story, and features award-winning special effects.", "is_fresh": 1, "author": ["Marjorie Baumgarten"]},
{"text": "A cheerfully reprehensible bloodfest, spiced up by Verhoeven's imaginative mayhem.", "is_fresh": 1, "author": ["Rob Vaux"]},
{"text": "Mindless, harmless popcorn flick. Emphasis on the mindless.", "is_fresh": 1, "author": ["Widgett Walls"]},
{"text": "Mind-bending psychodrama.", "is_fresh": 1, "author": ["Phil Villarreal"]},
{"text": "Watching it now especially, it seems even more ahead of its time with it's altered-reality storyline.", "is_fresh": 1, "author": ["Kevin N. Laforest"]},
{"text": "Ridiculous, but also plenty of fun", "is_fresh": 1, "author": ["Dan Jardine"]},
{"text": "Perhaps it goes without saying that Total Recall is no The Terminator, but let the records show.", "is_fresh": 0, "author": ["Bill Chambers"]},
{"text": "Arnold Schwarzenegger is a fool to think he'll make it as the Johnny Carson of action films.", "is_fresh": 0, "author": ["Christopher Null"]},
{"text": "Worryingly satisfying in a purely gruesome, beat-em-up kinda way.", "is_fresh": 1, "author": ["Kim Newman"]},
{"text": "Neither Arnold Schwarzenegger nor Paul Verhoeven have stretched their talents here.", "is_fresh": 0, "author": ["James Berardinelli"]},
{"text": "There may be people who overlook the Arnold Schwarzenegger performance in Total Recall who think he isn't really acting. But the performance is one of the reasons the movie works so well.", "is_fresh": 1, "author": ["Roger Ebert"]},
{"text": "Recall is full of the musclebound action that [Schwarzenegger's] fans presumably enjoy. It also means that this Mars-bound movie is violent, nasty and expensive (it cost Tri-Star well over $60 million).", "is_fresh": 1, "author": ["Desson Thomson"]},
{"text": "A gratuitous explosion of vainglory and guts, the movie is all firecrackers and giblets and broken glass. The overall effect is like wading through hospital waste.", "is_fresh": 0, "author": ["Rita Kempley"]},
{"text": "Schwarzenegger has enough inherent charm and likeability that he's better off when he just lets the story pull him along, as he does here.", "is_fresh": 1, "author": ["MaryAnn Johanson"]},
{"text": "Until director Paul Verhoeven allows the violence to reach the berserk level, Arnold Schwarzenegger and a spectacular special-effects team seem on their way to a futuristic classic.", "is_fresh": 0, "author": ["Ralph Novak"]},
{"text": "Verhoeven keeps the whole thing chugging along neatly with a huge dollop of ultra-violence and gore. Schwarzenegger is at his best ever.", "is_fresh": 1, "author": ["James O'Ehley"]},
{"text": "You'd think by the year 2084 villains would have learned they shouldn't mess with Mr. Biceps. But no-o-o-o.", "is_fresh": 1, "author": ["Chris Hicks"]},
{"text": "It should please pretty much anyone who likes science fiction films. It should have a broad range of appeal on many levels.", "is_fresh": 1, "author": ["Mark R. Leeper"]},
{"text": "[A] well paced, entertaining and thought-provoking piece of science fiction cinema, a truly superb, yet disregarded gem of that particular genre.", "is_fresh": 1, "author": ["Dragan Antulov"]},
{"text": "", "is_fresh": 1, "author": ["Michael Dequina"]},
{"text": "", "is_fresh": 1, "author": ["Rebecca Murray"]},
{"text": "", "is_fresh": 1, "author": ["Spence D."]},
{"text": "", "is_fresh": 0, "author": ["Greg Maki"]},
{"text": "", "is_fresh": 1, "author": ["Josh Gilchrist"]},
{"text": "", "is_fresh": 1, "author": ["Brandon Judell"]},
{"text": "", "is_fresh": 1, "author": ["Jeffrey Westhoff"]}
]