[
{"reviews_count": "157", "title": "Training Day", "avg_audience_rating": "3.7", "rotten_count": "44", "tomatometer": "72", "audience_score": "89", "avg_critic_rating": "6.5", "fresh_count": "113", "user_ratings_count": "300,555"},
{"text": "An extraordinary [Denzel] Washington dominates the film.", "is_fresh": 1, "author": ["Sophie Gorman"]},
{"text": "'Training Day' is still a very interesting thriller where Denzel Washington truly shines just as the lucid but equally necessary and inspired work of Ethan Hawke. [Full review in Spanish]", "is_fresh": 1, "author": ["Mikel Zorrilla"]},
{"text": "Great performances, but for adults only.", "is_fresh": 1, "author": ["Nell Minow"]},
{"text": "A surprisingly excellent movie with Incredible performances...", "is_fresh": 1, "author": ["Felix Vasquez Jr."]},
{"text": "The movie moves rapidly, is extremely violent and not entirely plausible.", "is_fresh": 0, "author": ["Philip French"]},
{"text": "If he makes it through the trial by fire -- and a blandly twisting plot with no meaningful revelations or substantial themes -- Hawke will get a promotion, but there's nothing in it for us.", "is_fresh": 0, "author": ["Lisa Alspector"]},
{"text": "This isn't a serious movie, despite Denzel Washington in full eruption and giving his calloused lines more weight and authority than they deserve.", "is_fresh": 0, "author": ["Rob Gonsalves"]},
{"text": "My guess is that the conceit was meant to be that Denzel's a bad guy, and that's fun to watch. Instead, this just adds another to his list of bad film's he's acted in...", "is_fresh": 0, "author": ["Jason Gorber"]},
{"text": "Cast against type as a corrupt cop, Denzel Washington, usually seen in noble and heroic roles, is nothing short of brilliant; with some luck, he should earn an Oscar nomination.", "is_fresh": 1, "author": ["Emanuel Levy"]},
{"text": "Marred slightly by an unsatisfactory climax, this is a cracking cop drama anchored by great performances and intelligent direction from Fuqua.", "is_fresh": 1, "author": ["Chris Hewitt (UK)"]},
{"text": "Director Fuqua keeps it slick and sleazy and stokes up the race some, but this only accelerates the movie's deafening rush toward the top and ever over.", "is_fresh": 0, "author": []},
{"text": "Thumbs up, without question. Unfortunately, Training Day could have been so much more than it is.", "is_fresh": 1, "author": ["Steven Snyder"]},
{"text": "Denzel Washington delivers a remarkable performance in this enthralling and unique tale of a corrupt cop, completely transforming himself into an unexpectedly imposing threat.", "is_fresh": 1, "author": ["Andrew Manning"]},
{"text": "...an intelligent and riveting action movie that doesn't rely on a lot of special effects to tell a genuinely interesting story.", "is_fresh": 1, "author": ["David Nusair"]},
{"text": "While most critics have chosen to highlight Washington's performance as the standout, it would be unfair not to mention Ethan Hawke, who plays the rookie Hoyt with a perfect patina of guileless enthusiasm.", "is_fresh": 1, "author": ["Tom Grealis"]},
{"text": "It is unfortunate that the script by David Ayer is so riddled with pretense, but Washington, Hawke, and their supporting cast do all they can to play through.", "is_fresh": 1, "author": ["John R. McEwen"]},
{"text": "Denzel Washington's performance is tremendous... really up there amongst the best of his career.", "is_fresh": 1, "author": ["David Poland"]},
{"text": "Gritty good-cop/bad-cop drama is elevated to greatness by Denzel Washington.", "is_fresh": 1, "author": ["James Rocchi"]},
{"text": "Trashy cop-thriller entertainment of the highest quality: well-made and superbly acted, with Washington in line for a possible Oscar nomination.", "is_fresh": 1, "author": ["Matthew Turner"]},
{"text": "Washington's swaggering, larger-than-life portrayal dominates the film in a towering performance that may well win him another Oscar nomination.", "is_fresh": 1, "author": ["Jean Lowerison"]},
{"text": "For those of us who rank Denzel Washington among the best actors America has ever produced, it is more a thrill than a shock to see him take on the showy, villainous role he plays in Training Day.", "is_fresh": 1, "author": ["Margaret A. McGurk"]},
{"text": "A bristling, cocksure... exploration of vigilantiasm and the morally dubious world we plunge our officers of law into.", "is_fresh": 1, "author": ["Brent Simon"]},
{"text": "I can't quite recommend the film.", "is_fresh": 0, "author": ["Kevin N. Laforest"]},
{"text": "It aims to be a contemporary L.A. Confidential but crumples with a simplistic, unbelievable climax.", "is_fresh": 0, "author": ["Jeffrey Westhoff"]},
{"text": "Larger than life ... a classic tale of good vs. evil.", "is_fresh": 1, "author": ["Jeffrey Chen"]},
{"text": "All of the buzz is true! Denzel Washington's performance in this movie is amazing.", "is_fresh": 1, "author": ["Paul Salfen"]},
{"text": "There's an edgy, authentic rhythm to this gritty undercover cop drama that's boosted by strong performances ... and then undermined by an appalling ending.", "is_fresh": 1, "author": ["Rich Cline"]},
{"text": "The camera is frequently pushed in for extreme close-ups of the characters, sometimes as they're just about to explode. It's as if Fuqua wants the viewer to feel the heat radiating from these people, to face them unguarded at point blank range.", "is_fresh": 1, "author": ["James Sanford"]},
{"text": "There are a few rather unfortunate plot coincidences that undermine the tension the first half of the film, and with the proper conclusion already wasted, we wait impatiently for the standard movie-ish plot conventions to wind down to the end.", "is_fresh": 0, "author": ["Stephen Himes"]},
{"text": "The loping 1970s meanderings of the film's first acts reveal themselves as an insidious stupid plan so dependent on chance, even Bond villains wouldn't risk such a ploy.", "is_fresh": 0, "author": ["Sean Burns"]},
{"text": "A dire\u00e7\u00e3o de Antoine Fuqua jamais perde o dinamismo, mergulhando o espectador em um incr\u00edvel estado de tens\u00e3o.", "is_fresh": 1, "author": ["Pablo Villa\u00e7a"]},
{"text": "Abruptly shifts gears, switching from character-driven issue-oriented thriller to formula action-driven cop flick.", "is_fresh": 0, "author": ["Steven D. Greydanus"]},
{"text": "[Washington] wasn't acting, he was grandstanding.", "is_fresh": 0, "author": ["Michael W. Phillips, Jr."]},
{"text": "When the characters start taking obscene amounts of physical abuse and coming back for more, it manages to help you take the film's events less seriously... something that would have helped from the start.", "is_fresh": 0, "author": ["Jeremy Heilman"]},
{"text": "...an obsequious vehicle where Washington can strut his dastardly stuff in an otherwise penetrating but arbitrary streetwise adventure. Personally, this undercover movie reviewing narc finds Training Day a kind of tough pill to swallow.", "is_fresh": 0, "author": ["Frank Ochieng"]},
{"text": "I don't quite understand why screenwriters try to cram their more nuanced or interesting characters into something as conventional as the final act of Training Day.", "is_fresh": 0, "author": ["Mark Dujsik"]},
{"text": "As if the LAPD needed any more bad publicity.", "is_fresh": 1, "author": []},
{"text": "A flair for tone and character, as well as capturing the look and feel of LA rather than that of Hollywood.", "is_fresh": 1, "author": ["Ben Stephens"]},
{"text": "All of the action takes place during a single day, and there's enough action in this one short period to fill the entire career of a normal cop.", "is_fresh": 0, "author": ["John J. Puccio"]},
{"text": "If its content is over-the-top, well, it's still engrossing.", "is_fresh": 1, "author": ["Ian Waldron-Mantgani"]},
{"text": "Mostly insignificant (and overlong, clocking in at two hours when ninety minutes would have more than sufficed).", "is_fresh": 0, "author": ["Jeremiah Kipp"]},
{"text": "Good to see Denzel Washington get the meaty villainous role he deserves.", "is_fresh": 1, "author": ["Peter Bradshaw"]},
{"text": "On a purely visceral level, Training Day is easily the most exciting movie out there right now, but as a morality tale with anything large on its mind, it's a cop-out.", "is_fresh": 1, "author": ["Peter Rainer"]},
{"text": "A brutal, fierce, and tense police thriller, Training Day takes a well-worn format and infuses it with freshness and verve.", "is_fresh": 1, "author": ["Nev Pierce"]},
{"text": "Trama interesante llena de personajes tridimensionales y sustanciosos que seguramente har\u00e1n pensar al espectador en los tiempos actuales que vivimos.", "is_fresh": 1, "author": ["Jorge Avila Andrade"]},
{"text": "Washington is absolutely riveting as Alonzo Harris.", "is_fresh": 1, "author": ["Kevin Lally"]},
{"text": "Todos los d\u00edas, en las calles de las zonas urbanas, en el interior de unos Estados Unidos muy distintos a los que vemos usualmente, la guerra est\u00e1 presente...", "is_fresh": 1, "author": ["Alex Ramirez"]},
{"text": "There's strong stuff here, a good meal for the appetites of life-on-the-line, action-craving audiences, especially those who enjoy seeing bad cops portrayed for the world to see.", "is_fresh": 1, "author": ["Jules Brenner"]},
{"text": "One of the most intriguing studio films of the year.", "is_fresh": 1, "author": ["Shay Casey"]},
{"text": "Begins as a surprisingly interesting exploration of corruption at the highest levels of law enforcement, and then it just gives up.", "is_fresh": 1, "author": ["Eugene Novikov"]},
{"text": "Not just a cop movie", "is_fresh": 1, "author": ["Matt Easterbrook"]},
{"text": "[Denzel Washington] towers above the film's petty failings, overwhelming them with his sheer presence and defying us to tear our eyes away.", "is_fresh": 1, "author": ["Rob Vaux"]},
{"text": "A trivial, campy drama that obviously strives for dramatic respectability, yet is best suited as a \"Sunday Afternoon Cable Movie\" for undemanding fans of the cop genre.", "is_fresh": 0, "author": ["Scott Weinberg"]},
{"text": "It was just too much slime to take in for one day, as somewhere after the first half of the film the shock scenes simply wore off and the film lost any dramatic effect.", "is_fresh": 0, "author": ["Dennis Schwartz"]},
{"text": "Washington is one of those rare artists who can, seemingly, transform his soul.", "is_fresh": 1, "author": ["Carlo Cavagna"]},
{"text": "An entertaining, morally satisfying movie.", "is_fresh": 1, "author": ["Mike McGranaghan"]},
{"text": "starts off very well, gets increasingly better as it goes along, and then suddenly deflates as it shoots itself in the foot in the final stretch", "is_fresh": 1, "author": ["James Kendrick"]},
{"text": "Training Day isn't just one of the finest cops-and-robbers thrillers of recent years, full of devious twists and gut-grinding tension, but it also steers clear of convenient moral formulas.", "is_fresh": 1, "author": ["Andrew O'Hehir"]},
{"text": "Training Day is a tense, polished, well-made action thriller that suffers from bad timing.", "is_fresh": 1, "author": ["Rex Reed"]},
{"text": "Any issues with the material are made irrelevant by Denzel Washington's volcanic energy and fierce conviction.", "is_fresh": 1, "author": ["Michael Dequina"]},
{"text": "The hype preceding \"Training Day\" makes expectations for the film high. It is, like Washington's performance, good not great.", "is_fresh": 1, "author": ["Robin Clifford"]},
{"text": "Motivation is questionable, the script needed some more polish and some of the action is cartoonish.", "is_fresh": 0, "author": ["Bob Bloom"]},
{"text": "Training Day gives up the goods, homes.", "is_fresh": 1, "author": ["Mark Ramsey"]},
{"text": "An intense little movie with solid acting across the board, some ups, some downs and a thrilling ending, despite a couple of small flaws", "is_fresh": 1, "author": ["JoBlo"]},
{"text": "Reminds me of the films of the 1970s that were gritty and violent but that also showcased stellar acting, back before blood and intelligence became mutually exclusive in movies.", "is_fresh": 1, "author": ["Eric D. Snider"]},
{"text": "A razor-wire-taut (and extremely violent) exploration of what happens when good guys go bad, badder, baddest.", "is_fresh": 1, "author": ["Marc Savlov"]},
{"text": "It doesn't attend to its greatest asset -- the complications of this huge and ferocious character [Alonzo].", "is_fresh": 0, "author": ["Cynthia Fuchs"]},
{"text": "As usual Washington is astounding. He grabs the screen like a vise and never lets go.", "is_fresh": 1, "author": ["Paul Clinton (CNN.com)"]},
{"text": "In a film that introduces such potentially powerful situations, its level of predictability and its misuse of its talented cast is simply disappointing.", "is_fresh": 0, "author": ["Barbara Goslawski"]},
{"text": "The powerful story also lends itself to a broader interpretation than a simple contest between good and evil. The film is a tour de force.", "is_fresh": 1, "author": ["Robert Roten"]},
{"text": "As a conventional police drama, this is as good as a Hollywood genre pic gets.", "is_fresh": 1, "author": ["Harvey S. Karten"]},
{"text": "\"Training Day\" is a good film held back from greatness by the excesses of its script.", "is_fresh": 1, "author": ["Laura Clifford"]},
{"text": "[Denzel] Washington and Ethan Hawke are so good that they easily stand out in a cop drama that is...merely adequate.", "is_fresh": 1, "author": ["Dustin Putman"]},
{"text": "A rock-solid Hollywood thriller that showcases a corrupt cop's twisted abuse of innocence.", "is_fresh": 1, "author": ["Ed Gonzalez"]},
{"text": "Washington is dazzling as Alonzo.", "is_fresh": 1, "author": ["Nell Minow"]},
{"text": "Part of the appeal of Training Day is, simply, watching Washington be bad.", "is_fresh": 1, "author": ["Donald Munro"]},
{"text": "Dares to be a cop movie based on character and not on pyrotechnics.", "is_fresh": 1, "author": ["Jeffrey M. Anderson"]},
{"text": "It's partly down to David Ayer's smart, shades-of-gray script and partly down to the gusto with which Washington approaches this aggressively against-type role that Training Day achieves its brilliance.", "is_fresh": 1, "author": ["MaryAnn Johanson"]},
{"text": "Unquestionably convincing, disturbingly realistic, and unflinchingly honest.", "is_fresh": 1, "author": ["Blake French"]},
{"text": "Washington's performance is so good, in fact, that it may temporarily blind you from seeing that the movie has obscured its message.", "is_fresh": 1, "author": ["Sean P. Means"]},
{"text": "A taut, high-velocity film.", "is_fresh": 1, "author": ["Megan Rosenfeld"]},
{"text": "In the end is less than fully satisfying.", "is_fresh": 0, "author": ["Michael O'Sullivan"]},
{"text": "A taut -- if violent -- police thriller.", "is_fresh": 1, "author": ["Ken Fox"]},
{"text": "As impersonated by the evangelically thunderous Washington -- who no longer acts with other performers, he acts at them -- Alonzo feels about as 'street' as a Beverly Hills ghetto.", "is_fresh": 0, "author": ["Geoff Pevere"]},
{"text": "Training Day has been made with style and confidence, but it doesn't know whose side it's on.", "is_fresh": 0, "author": ["Chris Hewitt (St. Paul)"]},
{"text": "Giving Alonso a melodramatic secret -- a reason for this particular behavior on this particular day -- trivializes the whole exercise.", "is_fresh": 0, "author": ["David Edelstein"]},
{"text": "While Training Day is a violent film, its brutality takes place in a believable moral universe and isn't just tossed in to give us a thrill.", "is_fresh": 1, "author": ["Moira MacDonald"]},
{"text": "The film works a bit better as a vehicle for Washington, and it often gets by on his devilish charm. But it loses all its punch as he becomes more hissable.", "is_fresh": 0, "author": ["William Arnold"]},
{"text": "Not without its flaws but nevertheless still rather good.", "is_fresh": 1, "author": ["Jim Judy"]},
{"text": "This movie is so racist that it's almost possible to overlook the wholesale misogyny.", "is_fresh": 0, "author": ["Glenn Lovell"]},
{"text": "Washington plays Alonzo like a con man with a one-two punch ... It's tour-de-force acting.", "is_fresh": 1, "author": ["Bob Graham"]},
{"text": "A pinball machine of sustained tension, Washington textures his character brilliantly and surpasses Popeye Doyle's brazen effrontery.", "is_fresh": 1, "author": ["David Elliott"]},
{"text": "It's ugly and disturbing, but what gets us through it and pulls us along is Washington's charisma, which he gleefully uses in a darkly seductive way here.", "is_fresh": 1, "author": ["Joe Baltake"]},
{"text": "Having seen everything come together so beautifully, it almost physically hurts to watch Training Day collapse into a pile of cop-movie tropes during the last 15 minutes.", "is_fresh": 1, "author": ["Tor Thorsen"]},
{"text": "The movie is headed for a long, brutal and bloody payoff, one that may be too over-the-top for public consumption right about now.", "is_fresh": 0, "author": ["Philip Booth"]},
{"text": "When Denzel gets going, however, he sure does go!", "is_fresh": 1, "author": ["Jay Boyar"]},
{"text": "An ordinary and sordid movie.", "is_fresh": 0, "author": ["Shawn Levy"]},
{"text": "Denzel Washington just keeps on getting better -- and he's positively riveting in Training Day.", "is_fresh": 1, "author": ["Lou Lumenick"]},
{"text": "Training Day is mesmerizing entertainment, but it's also a cop-out.", "is_fresh": 1, "author": ["Kevin Maynard"]},
{"text": "Denzel Washington plays a villain for the first time ever, and his electrifying performance is the film's most powerful element.", "is_fresh": 1, "author": ["Duane Dudek"]},
{"text": "Even though Training Day doesn't resolve itself as well as it deserves and ends strictly cops-and-robbers style, it's given us some great acting and something to ponder.", "is_fresh": 1, "author": ["Kenneth Turan"]},
{"text": "The last 30 minutes or so land squarely in eye-rolling country. But Washington's performance is enough to put Training Day over the top.", "is_fresh": 1, "author": ["Robert W. Butler"]},
{"text": "Ayer has woven a complicated plot in which even the seemingly most insignificant event will impact on the film's harrowing climax.", "is_fresh": 1, "author": ["Louis B. Hobson"]},
{"text": "Training Day is explosive action, and all that stuff, and it's a shame that the front and back halves of the movie don't match up.", "is_fresh": 1, "author": ["Liz Braun"]},
{"text": "All you're left with are the messages that -- surprise -- crime hurts everyone, and life sucks. You could buy a DMX CD and hear the same rap -- at least it would rhyme.", "is_fresh": 0, "author": ["Dave White"]},
{"text": "Director Antoine Fuqua, whose credits include the unimpressive The Replacement Killers, keeps a kinetic pace with visually exciting immediacy.", "is_fresh": 1, "author": ["Louis B. Parks"]},
{"text": "Here's a cop drama with some brutal smarts, rather than dumb brutality and smart-alecky one-liners.", "is_fresh": 1, "author": ["Liam Lacey"]},
{"text": "An eye-opening moviegoing experience.", "is_fresh": 1, "author": []},
{"text": "To create a meaningful scenario, you must have a credible balance between good and evil. Training Day self-destructs on its cavalier failure to honor that axiom.", "is_fresh": 0, "author": ["Susan Stark"]},
{"text": "Benefits from the best screen performance since Glory by the mighty, mercurial Denzel Washington.", "is_fresh": 1, "author": ["Terry Lawson"]},
{"text": "Works best as a one-on-one contest between two quality actors playing characters with opposing points of view.", "is_fresh": 1, "author": ["Jack Garner"]},
{"text": "A glib potboiler torn from today's screaming headlines.", "is_fresh": 0, "author": ["Elvis Mitchell"]},
{"text": "Crumbles under the weight of truly insipid plotting.", "is_fresh": 0, "author": ["Jeff Vice"]},
{"text": "Alonzo Harris ultimately is a character whose plausibility can't withstand our scrutiny, but Washington's turn as him is a wicked performance to relish.", "is_fresh": 0, "author": ["Steven Rosen"]},
{"text": "Director Fuqua, Mr. Washington, Mr. Hawke and the rest prove that there's nothing wrong with the urban-crime genre that a little energy can't cure.", "is_fresh": 1, "author": ["Philip Wuntch"]},
{"text": "Washington's performance is that rarest kind of tour-de-force showboat.", "is_fresh": 1, "author": ["Bob Strauss"]},
{"text": "An ethical chess game played out with fearsome, bloody pawns.", "is_fresh": 1, "author": ["Dan Fazio"]},
{"text": "For its kinetic energy and acting zeal, I enjoyed the movie. I like it when actors go for broke.", "is_fresh": 1, "author": ["Roger Ebert"]},
{"text": "Denzel Washington delivers his best work as a rogue cop on the streets.", "is_fresh": 1, "author": ["Lawrence Toppman"]},
{"text": "Even when it falls back excessively on coincidence and contrived set pieces, even when it gushes irretrievably over the top in its final act, Washington makes Training Day sizzle.", "is_fresh": 1, "author": ["Jay Carr"]},
{"text": "With its unflinching style, Training Day can be hard to sit through at times. But it's worth the discomfort for the adrenaline rush of the plot and Washington's compelling performance.", "is_fresh": 1, "author": ["Claudia Puig"]},
{"text": "There comes a point in every movie when it has to quit playing coy and let the audience know where it stands. Once Training Day takes that step, it begins to disintegrate before our eyes.", "is_fresh": 0, "author": ["Todd Anthony"]},
{"text": "Less a police drama than a cinematic force-feed, Training Day is difficult to swallow and harder still to stomach.", "is_fresh": 0, "author": ["Carrie Rickey"]},
{"text": "What sinks Training Day, eventually, is its growing implausibility.", "is_fresh": 0, "author": ["Gary Thompson"]},
{"text": "This gripping police drama from director Antoine Fuqua is relentlessly hard-boiled, with a calculated (and welcome) change-of-pace performance from Denzel Washington.", "is_fresh": 1, "author": ["Andy Klein"]},
{"text": "Being bad brings out the best in Washington, and his performance elevates Training Day past its familiar street-cops scenario into something richer and far more engrossing.", "is_fresh": 1, "author": ["Rene Rodriguez"]},
{"text": "Riveting and intense.", "is_fresh": 1, "author": ["James Berardinelli"]},
{"text": "[Washington] and Hawke have great chemistry together and the two of them together are riveting.", "is_fresh": 1, "author": ["Eric Lurio"]},
{"text": "Isn't as good as it thinks it is, but it still has a lot going for it.", "is_fresh": 1, "author": ["Mary F. Pols"]},
{"text": "Those able to withstand the intensity and violence will be rewarded with solid acting by Ethan Hawke and a towering performance from Denzel Washington.", "is_fresh": 1, "author": ["Edward Johnson-Ott"]},
{"text": "Even though Training Day collapses into a slew of implausibilities at the end, it's still one of the most continuously exciting of the recent big action movies.", "is_fresh": 1, "author": ["Michael Wilmington"]},
{"text": "Denzel gives a blisteringly brilliant performance in this good cop/bad cop drama.", "is_fresh": 1, "author": ["Eleanor Ringel Cater"]},
{"text": "A tantalizing chess match waged between morale adversaries claiming to be from the same team.", "is_fresh": 1, "author": ["Sean O'Connell"]},
{"text": "In Antoine Fuqua and Dominic Sena's race to become David Fincher, Fuqua, with his colour-bleached urban noir Training Day, pulls slightly ahead", "is_fresh": 1, "author": ["Walter Chaw"]},
{"text": "At once droll and incredibly intimidating, Washington is a knockout.", "is_fresh": 1, "author": ["Rob Blackwelder"]},
{"text": "Reverts pathetically into the tried and true formula of good cop versus bad cop.", "is_fresh": 0, "author": ["Tony Toscano"]},
{"text": "Washington plays the twisted character with a flair and sense of style that really fits his acting.", "is_fresh": 1, "author": ["Bill Rasco"]},
{"text": "Played wonderfully against type by Denzel Washington, Alonzo is the role that could win Washington his long deserved best actor Oscar.", "is_fresh": 1, "author": ["Steve Rhodes"]},
{"text": "Propulsive, elegantly written police thriller.", "is_fresh": 1, "author": ["Amy Taubin"]},
{"text": "Denzel Washington tears up the screen as the personification of corrupt evil...", "is_fresh": 1, "author": ["Jeanne Aufmuth"]},
{"text": "Fuqua brings a cinematic restlessness, street smarts and a touch of slick senationalism to this police thriller which all-too-soon becomes pedestrian, even sadistic, with an unsatisfying conclusion.", "is_fresh": 1, "author": ["Susan Granger"]},
{"text": "Director Antoine Fuqua forcibly sets the tension very high. He keeps pounding at the story, allowing Harris to exhibit a ruthlessness that keeps us riveted.", "is_fresh": 1, "author": ["Victoria Alexander"]},
{"text": "By the time its drawn-out finale lurches to a screeching close, 'Training Day' has come to feel more like 'The Longest Day.'", "is_fresh": 0, "author": ["Frank Swietek"]},
{"text": "Rather than challenging us to draw the line between good and evil for ourselves, Training Day does it for us, ruining the film's main source of tension.", "is_fresh": 0, "author": ["Brian Webster"]},
{"text": "Denzel and Ethan play off each other like two highly combustible incompatible substances, predator and meat, keeping the manic flow of events playfully off course.", "is_fresh": 1, "author": ["Prairie Miller"]},
{"text": "The film's first half begins promisingly but the second is laughably far-fetched, and the ending is kind of a letdown.", "is_fresh": 0, "author": ["Jon Popick"]},
{"text": "Washington, who just keeps getting better, is a sparking, snapping live wire in the role of Detective Sgt. Alonzo Harris.", "is_fresh": 1, "author": ["Peter Travers"]},
{"text": "Is a case of synthetic sensationalism, a glorified star-image makeover that grows glossier and more monotonous as it goes along.", "is_fresh": 0, "author": ["Owen Gleiberman"]},
{"text": "'Are you wolf or sheep?'", "is_fresh": 1, "author": ["Ross Anthony"]},
{"text": "Its events really are confined to a 24-hour period...I'm tempted to joke that too bad the running time wasn't also.", "is_fresh": 0, "author": ["Bill Chambers"]},
{"text": "With a cast of Washington and Hawke in such an interesting premise, this film had great potential. Too bad something went wrong.", "is_fresh": 0, "author": ["Alex Keen"]},
{"text": "A sterling example of how to cover familiar territory ... and make it crackle with vitality.", "is_fresh": 1, "author": ["Michael Rechtshaffen"]},
{"text": "You are easily drawn into the gangsta lifestyle and the movie's well written dialogue and briskly edited pace keep you interested.", "is_fresh": 1, "author": ["Garth Franklin"]},
{"text": "", "is_fresh": 1, "author": ["Stacie Hougland"]},
{"text": "", "is_fresh": 1, "author": ["Mark Halverson"]},
{"text": "", "is_fresh": 1, "author": ["Joe Lozito"]},
{"text": "", "is_fresh": 1, "author": ["Brian Orndorf"]}
]