[
{"reviews_count": "132", "title": "Winged Migration", "avg_audience_rating": "  4", "rotten_count": "5", "tomatometer": "96", "audience_score": "87", "avg_critic_rating": "8.2", "fresh_count": "127", "user_ratings_count": "6,278"},
{"text": "As pretty and light as a feather on the wind.", "is_fresh": 1, "author": ["Nell Minow"]},
{"text": "Jacques Perrin's spectacular documentary takes observation a step further as he literally seems to take flight with flocks of birds as they make their annual migration.", "is_fresh": 1, "author": ["Ryan Cracknell"]},
{"text": "Filmed with exceptional care and remarkable photographic ingenuity, no other nature documentary is as personal and as close-up as this one to the peculiarities of birds.", "is_fresh": 1, "author": ["Jamie Gillies"]},
{"text": "Craftily edited and staged, but still works as an entertaining, and visually stunning documentary.", "is_fresh": 1, "author": ["Felix Vasquez Jr."]},
{"text": "The Oscar-nominated \"Winged Migration\" is a virtuosi technical achievement in documentary filmmaking due to its astonishingly intimate photography of the migrations of numerous species of birds across the earth's northern and southern hemispheres.", "is_fresh": 1, "author": ["Cole Smithey"]},
{"text": "Utilizing sky divers, ultralights, helicopters, planes, etc., the filmmakers litterally have you flying with the birds. It makes for a heady, enjoyable ride.", "is_fresh": 1, "author": ["Jason Gorber"]},
{"text": "The point of this true-life adventure is not the dissemination of information but the instilling of a sense of awe in the viewer ...", "is_fresh": 1, "author": ["Philip Martin"]},
{"text": "Winged Migration must be the most subversive G-rated film ever.", "is_fresh": 1, "author": ["Martin Scribbs"]},
{"text": "The material seems shapeless... no question was raised that might have held me... And maybe Born Free was a documentary, too.", "is_fresh": 0, "author": ["Jake Euker"]},
{"text": "There's no better tribute to the beauty of flight than Jacques Perrin's lighter-than-air documentary wonder.", "is_fresh": 1, "author": ["Thomas Delapa"]},
{"text": "It's a movie you sit back and marvel at.", "is_fresh": 1, "author": ["Mark Robison"]},
{"text": "Winged Migration soars, and lets us fly along for the ride. ", "is_fresh": 1, "author": ["Daniel M. Kimmel"]},
{"text": "In the tradition of the also nearly wordless Atlantis and Microcosmos\u0085 educational voiceover narration is superfluous: It's enough simply to see.", "is_fresh": 1, "author": ["Steven D. Greydanus"]},
{"text": "The movie is, in three words, beautiful beautiful beautiful.", "is_fresh": 1, "author": ["Jeffrey Chen"]},
{"text": "All in such extreme close-up that you think the birds will whack the camera with their wings at any moment.", "is_fresh": 1, "author": ["Rich Cline"]},
{"text": "Um filme para ser visto na telona, e n\u00e3o na tev\u00ea.", "is_fresh": 1, "author": ["Pablo Villa\u00e7a"]},
{"text": "A superior wildlife film, featuring such breathtaking images of wild birds in flight that the audience is constantly wondering 'how in the world did they get that shot?'", "is_fresh": 1, "author": ["Robert Roten"]},
{"text": "an amazing technical achievement, as the cameras get so close to the birds you would almost swear you could reach out and touch their feathers.", "is_fresh": 1, "author": ["James Sanford"]},
{"text": "One of the most beautiful and stirring adventures in the natural world that I've ever seen on film.", "is_fresh": 1, "author": ["MaryAnn Johanson"]},
{"text": "Winged Migration is a quite astounding feat of cinema.", "is_fresh": 1, "author": ["Jamie Russell"]},
{"text": "Winged Migration is less concerned with 'educating' us about the migratory habits of birds than it is with initiating us into their mysteries without ever really explaining those mysteries.", "is_fresh": 1, "author": ["Ken Hanke"]},
{"text": "Like the Animal Planet, except they added a great narrative on the existential nature of life and took out all of the encyclopedia facts. Works beautifully, as it turns out.", "is_fresh": 1, "author": ["Jimmy O"]},
{"text": "Winged Migration ... doesn't educate your mind as much as soothe your soul. And for 89 blissful minutes, that's just fine.", "is_fresh": 1, "author": ["Jeffrey Bruner"]},
{"text": "Hey, all you action fans who flocked to the likes of \"Bad Boys II\" and \"2 Fast 2 Furious:\" Stop reading right now. Because \"Winged Migration\" probably isn't for you.", "is_fresh": 1, "author": ["Linda Cook"]},
{"text": "If one of the aims of art is to enhance one's appreciation of the beauty of nature, then the film succeeds as art as well.", "is_fresh": 1, "author": ["Mark Dujsik"]},
{"text": "Seeing the beauty of nature unfold on the big screen and having it wash over you the way this does is enough to make anyone become a birdlover.", "is_fresh": 1, "author": ["Eric D. Snider"]},
{"text": "The most engrossing documentary of its type since 1996's insect feature MicroCosmos.", "is_fresh": 1, "author": ["Jeff Vice"]},
{"text": "A one-of-a-kind travelogue with the most graceful guides imaginable.", "is_fresh": 1, "author": ["Sean P. Means"]},
{"text": "A remarkable accomplishment in many ways but most of all the way it reminds us what remarkable creatures these feathered friends truly are.", "is_fresh": 1, "author": ["Rick Kisonak"]},
{"text": "A plotless, gorgeous, barely narrated documentary about birds around the planet, and it gives you perspectives you've never experienced before.", "is_fresh": 1, "author": ["Lawrence Toppman"]},
{"text": "A stunning, if somewhat repetitive, flight.", "is_fresh": 1, "author": ["Phil Villarreal"]},
{"text": "Showcases the beauty and natural talents of a cast of thousands...", "is_fresh": 1, "author": ["John Beifuss"]},
{"text": "Winged Migration on the large screen works as a grand substitute for catching the annual Audubon Society nature walk in the park.", "is_fresh": 1, "author": ["Dennis Schwartz"]},
{"text": "As humbling as it is remarkable.", "is_fresh": 1, "author": ["Joe Baltake"]},
{"text": "Some documentaries are designed to give information. Winged Migration provides pure sensation -- and it's sensational.", "is_fresh": 1, "author": ["Jack Garner"]},
{"text": "An exciting new chapter in the annals of natural spectacle.", "is_fresh": 1, "author": ["Steve Schneider"]},
{"text": "After seeing these natural wonders, the elaborate special effects of such films as The Hulk and The Matrix Reloaded will seem like cheap parlor tricks.", "is_fresh": 1, "author": ["Jay Boyar"]},
{"text": "The photography is radiant.", "is_fresh": 1, "author": ["Richard Nilsen"]},
{"text": "My kitty Ama, who has never before shown any interest in the tube, watched the entire movie with wide-eyed wonder.", "is_fresh": 1, "author": ["Beth Jones"]},
{"text": "The amazing imagery that fills the screen magically mixes a National Geographic special with the artistry of Fantasia and the awe of Koyaanisqatsi.", "is_fresh": 1, "author": ["Gerry Shamray"]},
{"text": "As magnificent as it is perplexing.", "is_fresh": 1, "author": ["Marjorie Baumgarten"]},
{"text": "Beautiful film, sweetly filmed in flight in formation with the birds, as if we're one of the flock.", "is_fresh": 1, "author": ["Ross Anthony"]},
{"text": "An intimate, uplifting tribute to our fine-feathered friends who weather incredible odds in their quest for survival.", "is_fresh": 1, "author": ["David N. Butterworth"]},
{"text": "One of the most truly wondrous films you could imagine.", "is_fresh": 1, "author": ["Shannon J. Harvey"]},
{"text": "Flight as sheer freedom couldn't be better demonstrated.", "is_fresh": 1, "author": ["Desson Thomson"]},
{"text": "A film that will leave you dreaming about what it would be like to step off the edge of the world and discover you could fly.", "is_fresh": 1, "author": ["John Pancake"]},
{"text": "An unforgettable piece of moviemaking.", "is_fresh": 1, "author": ["Shawn Levy"]},
{"text": "A life-affirming story that's enthralling, inspiring and poignant.", "is_fresh": 1, "author": []},
{"text": "Winged Migration is imperfect, but it's still amazing; don't miss it", "is_fresh": 1, "author": ["Marty Mapes"]},
{"text": "It's a beautiful and oddly restful experience.", "is_fresh": 1, "author": ["Moira MacDonald"]},
{"text": "The movie offers ample amounts of power, poetry and even humor.", "is_fresh": 1, "author": ["Robert Denerstein"]},
{"text": "This is a movie to be seen and savored. And savored again.", "is_fresh": 1, "author": ["Eleanor Ringel Cater"]},
{"text": "Makes a case that ... birds are as capable of courage, violence, affection and commitment to family as we are.", "is_fresh": 1, "author": ["Paula Nechak"]},
{"text": "A feat of diligence -- and not just on the part of its feathered subjects.", "is_fresh": 1, "author": ["Lisa Kennedy"]},
{"text": "It's a heady, exultant ode to life.", "is_fresh": 1, "author": ["Jane Sumner"]},
{"text": "Jacques Perrin's spectacular documentary takes observation a step further as he literally seems to take flight with flocks of birds as they make their annual migration.", "is_fresh": 1, "author": ["Ryan Cracknell"]},
{"text": "Like the subject of Mother Nature herself, you could complain and fixate on certain nagging elements, but if you do it too much you might miss the over-all beauty of it. Best to just let the movie, and nature, work its magic on you.", "is_fresh": 1, "author": ["Collin Souter"]},
{"text": "Look, birds flying, pretty!", "is_fresh": 1, "author": ["Eugene Novikov"]},
{"text": "Winged Migration is, without question, the best documentary about birds I have ever seen.", "is_fresh": 1, "author": ["Rene Rodriguez"]},
{"text": "For those who dream of soaring with eagles -- or gliding with geese or hovering with herons -- the euphoric Winged Migration literally offers a bird's-eye view of the world's most majestic vistas.", "is_fresh": 1, "author": ["Carrie Rickey"]},
{"text": "A fascinating motion picture.", "is_fresh": 1, "author": ["James Berardinelli"]},
{"text": "Whether we're seeing a startled flock taking sudden flight or zapping into a mountain lake to catch fish, our eye is constantly bedazzled.", "is_fresh": 1, "author": ["Richard Schickel"]},
{"text": "Winged Migration gives an almost unprecedented look at our flying friends.", "is_fresh": 1, "author": ["Jeremy Heilman"]},
{"text": "It's a cliche to say, but you literally will not believe your eyes as you stare agape at what no human should ever be able to see.", "is_fresh": 1, "author": ["Karina Montgomery"]},
{"text": "The limited scope of Winged Migration is disappointing, at first, but it becomes the movie's strength, implying that what motivates the birds does not require explanation.", "is_fresh": 1, "author": ["Chris Hewitt (St. Paul)"]},
{"text": "This Oscar-nominated movie is an amazing flight for audiences as well as the birds.", "is_fresh": 1, "author": ["Jackie Loohauis"]},
{"text": "Arguably the most beautiful documentary ever made, Winged Migration has a 'wow!' factor that is off the charts.", "is_fresh": 1, "author": ["Jeff Strickler"]},
{"text": "Winged Migration made me want to sprout wings and feathers, but only if I could migrate over short, safe routes.", "is_fresh": 1, "author": ["David Elliott"]},
{"text": "The movie is full of [stunning moments].", "is_fresh": 1, "author": ["Chris Knight"]},
{"text": "An astonishing achievement.", "is_fresh": 1, "author": ["Louis B. Hobson"]},
{"text": "This film is a must-see.", "is_fresh": 1, "author": ["Jean Lowerison"]},
{"text": "Each moving picture frame is worth a thousand words and a million emotions.", "is_fresh": 1, "author": ["Bruce Kirkland"]},
{"text": "There's not a single special effect, and yet the visuals are spectacular.", "is_fresh": 1, "author": ["Rick Groen"]},
{"text": "Reminds us of the possibly primal connection between movies and the eternal dream of flight.", "is_fresh": 1, "author": ["Geoff Pevere"]},
{"text": "The film stands as a testament to the beauty to be found in our world.", "is_fresh": 1, "author": ["Pam Grady"]},
{"text": "\"Winged Migration\" is a superb addition to that pantheon of nature documentaries and deserves acclaim for the stunning cinematography, artistry and technical achievement.", "is_fresh": 1, "author": ["Robin Clifford"]},
{"text": "Winged Migration is a nature film in description, an adventure film in experience, and a work of art in hindsight.", "is_fresh": 1, "author": ["Addison MacDonald"]},
{"text": "Perrin's too-dry voice-over is all that separates his labor of love from four-star glory.", "is_fresh": 1, "author": ["Jeanne Aufmuth"]},
{"text": "a filmic poem about the majesty that surrounds us every day", "is_fresh": 1, "author": ["Laura Clifford"]},
{"text": "Winged Migration is just a peek into the birds' view of things, and it's a precious one.", "is_fresh": 1, "author": ["Mick LaSalle"]},
{"text": "Winged Migration is one for the birders, or for all other people who have stood still and forgotten themselves as they watch a sparrow make its way through the world.", "is_fresh": 1, "author": ["Ty Burr"]},
{"text": "Perrin doesn't express any particular personal passion with this film other than 'birds are pretty.'", "is_fresh": 0, "author": ["Jeffrey M. Anderson"]},
{"text": "This is one of the most exhilarating wildlife documentaries ever brought to the big screen.", "is_fresh": 1, "author": ["Glenn Lovell"]},
{"text": "Simply one of the great feats of filming.", "is_fresh": 1, "author": ["Tom Long"]},
{"text": "This film by French director Jacques Perrin is to most nature documentaries what King Kong is to monster movies: It towers over them.", "is_fresh": 1, "author": ["Terry Lawson"]},
{"text": "Mesmerizing and meditative", "is_fresh": 1, "author": ["Leslie Katz"]},
{"text": "A work of visual poetry.", "is_fresh": 1, "author": ["Kirk Honeycutt"]},
{"text": "To see this film is to be transported to a place of pure . . . spirit.", "is_fresh": 1, "author": ["Andrea Chase"]},
{"text": "There are sights here I will not easily forget.", "is_fresh": 1, "author": ["Roger Ebert"]},
{"text": "A beautiful use of the medium of film.", "is_fresh": 1, "author": ["John Venable"]},
{"text": "In a summer full of digitally enhanced machines and mutants, you won't see anything more amazing and electrifying than the soaring birds in this marvelous movie.", "is_fresh": 1, "author": ["Glenn Whipp"]},
{"text": "With both the transitions and the action scenes from one species to the next...a pindrop would even be drowned out by the wonder in your own mind.", "is_fresh": 1, "author": ["Erik Childress"]},
{"text": "It's visually breathtaking, even moving, and as close to a heavenly experience at the movies as you're going to see all year.", "is_fresh": 1, "author": []},
{"text": "To be next to these birds as they are flying is frankly mesmerizing.", "is_fresh": 1, "author": ["Kenneth Turan"]},
{"text": "The footage ... is astonishing both for the beauty of the birds and for its sheer technical brilliance.", "is_fresh": 1, "author": ["John Powers"]},
{"text": "Many modern fantasy films, employing digital effects and camera trickery, offer us an invitation to fly. None really sweeps us up to the heights like this one.", "is_fresh": 1, "author": ["Michael Wilmington"]},
{"text": "For some 90 minutes, unadorned reality outdazzles special effects, and poetry-prone viewers may find themselves remembering paeans to nature by Gerard Manley Hopkins.", "is_fresh": 1, "author": ["Lisa Schwarzbaum"]},
{"text": "A film both picturesque and blatantly empty.", "is_fresh": 0, "author": ["Nick Schager"]},
{"text": "[O]ne of the most astonishing pieces of work I've ever seen.", "is_fresh": 1, "author": ["Richard Roeper"]},
{"text": "You won't find any purer example of the power of cinema.", "is_fresh": 1, "author": ["Marshall Fine"]},
{"text": "Perrin's film assembles discontinuous but overlapping visual wonders into a vaguely mystical ode to the endless variety and timeless rhythms of life.", "is_fresh": 1, "author": ["Bob Campbell"]},
{"text": "People have to learn poetry. Birds are born with it. Perrin has merely copied their poetry on film, and it is breathtaking, frame by frame.", "is_fresh": 1, "author": ["Jack Mathews"]},
{"text": "A visual experience not to be missed.", "is_fresh": 1, "author": ["Cherryl Dawson and Leigh Ann Palone"]},
{"text": "This is awestruck filmmaking at its best.", "is_fresh": 1, "author": ["Stephanie Zacharek"]},
{"text": "While lacking in traditional drama and suffering from a slightly repetitive structure, Winged Migration has its emotional high points.", "is_fresh": 1, "author": ["Megan Lehmann"]},
{"text": "It's an astonishing act of imaginative restoration, bringing the sheer wondrousness of everyday sights into sharp focus.", "is_fresh": 1, "author": ["Maitland McDonagh"]},
{"text": "Provides such an intense vicarious experience of being a flapping airborne creature with the wind in its ears that you leave the theater feeling like an honorary member of another species.", "is_fresh": 1, "author": ["Stephen Holden"]},
{"text": "Winged Migration is a glorious celebration of birds in flight, conveying the beauty, the amazing feats of strength and the endurance of their long distance journeys. Here is one to stir your soul!", "is_fresh": 1, "author": ["Frederic and Mary Ann Brussat"]},
{"text": "You'll enjoy viewing Winged Migration, but you won't learn much from it.", "is_fresh": 1, "author": ["David Sterritt"]},
{"text": "Nature films are assumed to be plotless, but Winged Migration is full of major and minor narratives, from the basic struggle of a snow goose making its migratory trek from the Gulf to the Yukon, to sequences of decidedly high drama.", "is_fresh": 1, "author": ["John Anderson"]},
{"text": "Though you learn less about the various species Perrin circled the globe to document than you might from an afternoon with Animal Planet, you become intensely chummy with the process and labor of flying.", "is_fresh": 1, "author": ["Michael Atkinson"]},
{"text": "A wealth of beautiful, breathtaking close-up shots of flocks on the wing...and yet...rather repetitive and strangely detached.", "is_fresh": 1, "author": ["Frank Swietek"]},
{"text": "Perrin gets so close to the intimate beauty of flight, you feel privileged.", "is_fresh": 1, "author": ["Peter Travers"]},
{"text": "Come and be a bird. Soar into the heavens with Winged Migration.", "is_fresh": 1, "author": ["Steve Rhodes"]},
{"text": "Iif you're in the mood for a film of staggering beauty that will open your eyes to one of the wonders of the natural world breathtakingly captured in all its glory, color, and movement, this is a must see.", "is_fresh": 1, "author": ["Jules Brenner"]},
{"text": "Repetitive and formless, and the sappy new-age music and portentous narration is grating.", "is_fresh": 0, "author": ["Shlomo Schwartzberg"]},
{"text": "A beautiful spectacle that makes one think of God and Darwin in the same breath.", "is_fresh": 1, "author": ["Andrew Sarris"]},
{"text": "Breathtaking is an inadequate word to describe the series of thrilling, visually cued sensations this film evokes.", "is_fresh": 1, "author": ["Shirley Sealy"]},
{"text": "Possibly the most astonishing documentary about bird migration ever made.", "is_fresh": 1, "author": ["Harvey S. Karten"]},
{"text": "There are no words to describe the poetic beauty of this film.", "is_fresh": 1, "author": ["Kevin N. Laforest"]},
{"text": "", "is_fresh": 1, "author": ["Mark Halverson"]},
{"text": "", "is_fresh": 1, "author": ["Jennie Kermode"]},
{"text": "", "is_fresh": 1, "author": []},
{"text": "", "is_fresh": 1, "author": []},
{"text": "", "is_fresh": 0, "author": []},
{"text": "", "is_fresh": 1, "author": ["Ethan Alter"]},
{"text": "", "is_fresh": 1, "author": ["Mark R. Leeper"]},
{"text": "", "is_fresh": 1, "author": []},
{"text": "", "is_fresh": 1, "author": []},
{"text": "", "is_fresh": 1, "author": ["Nell Minow"]},
{"text": "", "is_fresh": 1, "author": ["Susan Granger"]},
{"text": "", "is_fresh": 1, "author": ["Scott A. Mantz"]}
]